job_id,workload_name,profile,submission_time,requested_number_of_resources,requested_time,success,final_state,starting_time,execution_time,finish_time,waiting_time,turnaround_time,stretch,allocated_resources,consumed_energy,metadata
python3action_chameleon_job1_0,w0,python3action_chameleon,0.997085,1,2000.000000,1,COMPLETED_SUCCESSFULLY,1.002100,0.243006,1.245106,0.005015,0.248021,1.020637,0,-1.000000,""
python3action_pyaes_job8_2,w0,python3action_pyaes,0.997085,1,2000.000000,1,COMPLETED_SUCCESSFULLY,1.002130,0.867914,1.870044,0.005045,0.872959,1.005813,4,-1.000000,""
python3action_chameleon_job25_3,w0,python3action_chameleon,0.997085,1,2000.000000,1,COMPLETED_SUCCESSFULLY,1.002145,0.892694,1.894839,0.005060,0.897754,1.005668,5,-1.000000,""
python3action_linpack_job5_5,w0,python3action_linpack,0.997085,1,2000.000000,1,COMPLETED_SUCCESSFULLY,1.002175,5.760927,6.763102,0.005090,5.766017,1.000884,11,-1.000000,""
1_updated,w0,python3action_chameleon_2000_neowise,0.997085,1,2000.000000,1,COMPLETED_SUCCESSFULLY,1.245121,24.200002,25.445123,0.248036,24.448038,1.010249,0,-1.000000,""
1,w0,python3action_chameleon_2000,0.000000,1,-1.000000,1,COMPLETED_SUCCESSFULLY,25.445138,0.000010,25.445148,25.445138,25.445148,2544514.822787,0,-1.000000,""
python3action_facedetection_job4_4,w0,python3action_facedetection,0.997085,1,2000.000000,1,COMPLETED_SUCCESSFULLY,1.002160,30.499683,31.501843,0.005075,30.504758,1.000166,6,-1.000000,""
15_updated,w0,python3action_chameleon_2000_neowise,0.997085,1,2000.000000,1,COMPLETED_SUCCESSFULLY,25.445168,24.200002,49.645170,24.448083,48.648085,2.010251,0,-1.000000,""
15,w0,python3action_chameleon_2000,0.000000,1,-1.000000,1,COMPLETED_SUCCESSFULLY,49.645185,0.000010,49.645195,49.645185,49.645195,4964519.545775,0,-1.000000,""
8_updated,w0,python3action_pyaes_3000_troll,0.997085,1,2000.000000,1,COMPLETED_SUCCESSFULLY,1.870059,57.166677,59.036736,0.872974,58.039651,1.015271,4,-1.000000,""
8,w0,python3action_pyaes_3000,0.000000,1,-1.000000,1,COMPLETED_SUCCESSFULLY,59.036751,0.000010,59.036761,59.036751,59.036761,5903676.100201,4,-1.000000,""
python3action_facedetection_job17_1,w0,python3action_facedetection,0.997085,1,2000.000000,1,COMPLETED_SUCCESSFULLY,1.002115,72.012455,73.014570,0.005030,72.017485,1.000070,2,-1.000000,""
29_updated,w0,python3action_chameleon_2000_neowise,0.997085,1,2000.000000,1,COMPLETED_SUCCESSFULLY,49.645215,24.200002,73.845218,48.648130,72.848133,3.010253,0,-1.000000,""
29,w0,python3action_chameleon_2000,0.000000,1,-1.000000,1,COMPLETED_SUCCESSFULLY,73.845233,0.000010,73.845243,73.845233,73.845243,7384524.300201,0,-1.000000,""
25_updated,w0,python3action_chameleon_3000_yeti,0.997085,1,2000.000000,1,COMPLETED_SUCCESSFULLY,1.894854,93.000000,94.894854,0.897769,93.897769,1.009653,5,-1.000000,""
25,w0,python3action_chameleon_3000,0.000000,1,-1.000000,1,COMPLETED_SUCCESSFULLY,94.894869,0.000010,94.894879,94.894869,94.894879,9489487.949564,5,-1.000000,""
32_updated,w0,python3action_chameleon_2000_neowise,0.997085,1,2000.000000,1,COMPLETED_SUCCESSFULLY,73.845263,24.200002,98.045265,72.848178,97.048180,4.010255,0,-1.000000,""
32,w0,python3action_chameleon_2000,0.000000,1,-1.000000,1,COMPLETED_SUCCESSFULLY,98.045280,0.000010,98.045290,98.045280,98.045290,9804529.023189,0,-1.000000,""
5_updated,w0,python3action_linpack_6000_orion,0.997085,1,2000.000000,1,COMPLETED_SUCCESSFULLY,6.763117,106.000000,112.763117,5.766032,111.766032,1.054397,11,-1.000000,""
5,w0,python3action_linpack_6000,0.000000,1,-1.000000,1,COMPLETED_SUCCESSFULLY,112.763132,0.000010,112.763142,112.763132,112.763142,11276314.224476,11,-1.000000,""
37_updated,w0,python3action_chameleon_2000_neowise,0.997085,1,2000.000000,1,COMPLETED_SUCCESSFULLY,98.045310,24.200002,122.245312,97.048225,121.248227,5.010257,0,-1.000000,""
37,w0,python3action_chameleon_2000,0.000000,1,-1.000000,1,COMPLETED_SUCCESSFULLY,122.245327,0.000010,122.245337,122.245327,122.245337,12224533.746176,0,-1.000000,""
79_updated,w0,python3action_chameleon_2000_neowise,0.997085,1,2000.000000,1,COMPLETED_SUCCESSFULLY,122.245357,24.200002,146.445360,121.248272,145.448275,6.010259,0,-1.000000,""
79,w0,python3action_chameleon_2000,0.000000,1,-1.000000,1,COMPLETED_SUCCESSFULLY,146.445375,0.000010,146.445385,146.445375,146.445385,14644538.500201,0,-1.000000,""
13_updated,w0,python3action_pyaes_4000_troll,0.997085,1,2000.000000,1,COMPLETED_SUCCESSFULLY,59.036781,102.333333,161.370114,58.039696,160.373029,1.567163,4,-1.000000,""
13,w0,python3action_pyaes_4000,0.000000,1,-1.000000,1,COMPLETED_SUCCESSFULLY,161.370129,0.000010,161.370139,161.370129,161.370139,16137013.934137,4,-1.000000,""
103_updated,w0,python3action_chameleon_2000_neowise,0.997085,1,2000.000000,1,COMPLETED_SUCCESSFULLY,146.445405,24.200002,170.645407,145.448320,169.648322,7.010261,0,-1.000000,""
103,w0,python3action_chameleon_2000,0.000000,1,-1.000000,1,COMPLETED_SUCCESSFULLY,170.645422,0.000010,170.645432,170.645422,170.645432,17064543.223189,0,-1.000000,""
41_updated,w0,python3action_chameleon_3000_yeti,0.997085,1,2000.000000,1,COMPLETED_SUCCESSFULLY,94.894899,93.000000,187.894899,93.897814,186.897814,2.009654,5,-1.000000,""
41,w0,python3action_chameleon_3000,0.000000,1,-1.000000,1,COMPLETED_SUCCESSFULLY,187.894915,0.000010,187.894925,187.894915,187.894925,18789492.450166,5,-1.000000,""
4_updated,w0,python3action_facedetection_SampleVideo_30mb_nova,0.997085,1,2000.000000,1,COMPLETED_SUCCESSFULLY,31.501858,160.399990,191.901848,30.504773,190.904763,1.190179,6,-1.000000,""
4,w0,python3action_facedetection_SampleVideo_30mb,0.000000,1,-1.000000,1,COMPLETED_SUCCESSFULLY,191.901863,0.000010,191.901873,191.901863,191.901873,19190187.323505,6,-1.000000,""
106_updated,w0,python3action_chameleon_2000_neowise,0.997085,1,2000.000000,1,COMPLETED_SUCCESSFULLY,170.645452,24.200002,194.845454,169.648367,193.848369,8.010262,0,-1.000000,""
106,w0,python3action_chameleon_2000,0.000000,1,-1.000000,1,COMPLETED_SUCCESSFULLY,194.845469,0.000010,194.845479,194.845469,194.845479,19484547.946176,0,-1.000000,""
17_updated,w0,python3action_facedetection_SampleVideo_50mb_taurus,0.997085,1,2000.000000,1,COMPLETED_SUCCESSFULLY,73.014585,134.600046,207.614631,72.017500,206.617546,1.535048,2,-1.000000,""
17,w0,python3action_facedetection_SampleVideo_50mb,0.000000,1,-1.000000,1,COMPLETED_SUCCESSFULLY,207.614646,0.000010,207.614656,207.614646,207.614656,20761465.644962,2,-1.000000,""
56_updated,w0,python3action_pyaes_3000_troll,0.997085,1,2000.000000,1,COMPLETED_SUCCESSFULLY,161.370159,57.166677,218.536836,160.373074,217.539751,3.805359,4,-1.000000,""
56,w0,python3action_pyaes_3000,0.000000,1,-1.000000,1,COMPLETED_SUCCESSFULLY,218.536851,0.000010,218.536861,218.536851,218.536861,21853686.100201,4,-1.000000,""
10_updated,w0,python3action_linpack_6000_orion,0.997085,1,2000.000000,1,COMPLETED_SUCCESSFULLY,112.763162,106.000000,218.763162,111.766077,217.766077,2.054397,11,-1.000000,""
10,w0,python3action_linpack_6000,0.000000,1,-1.000000,1,COMPLETED_SUCCESSFULLY,218.763177,0.000010,218.763187,218.763177,218.763187,21876318.725078,11,-1.000000,""
111_updated,w0,python3action_chameleon_2000_neowise,0.997085,1,2000.000000,1,COMPLETED_SUCCESSFULLY,194.845499,24.200002,219.045502,193.848414,218.048417,9.010264,0,-1.000000,""
111,w0,python3action_chameleon_2000,0.000000,1,-1.000000,1,COMPLETED_SUCCESSFULLY,219.045517,0.000010,219.045527,219.045517,219.045527,21904552.700201,0,-1.000000,""
127_updated,w0,python3action_chameleon_2000_neowise,0.997085,1,2000.000000,1,COMPLETED_SUCCESSFULLY,219.045547,24.200002,243.245549,218.048462,242.248464,10.010266,0,-1.000000,""
127,w0,python3action_chameleon_2000,0.000000,1,-1.000000,1,COMPLETED_SUCCESSFULLY,243.245564,0.000010,243.245574,243.245564,243.245574,24324557.423189,0,-1.000000,""
145_updated,w0,python3action_chameleon_2000_neowise,0.997085,1,2000.000000,1,COMPLETED_SUCCESSFULLY,243.245594,24.200002,267.445596,242.248509,266.448511,11.010268,0,-1.000000,""
145,w0,python3action_chameleon_2000,0.000000,1,-1.000000,1,COMPLETED_SUCCESSFULLY,267.445611,0.000010,267.445621,267.445611,267.445621,26744562.146176,0,-1.000000,""
60_updated,w0,python3action_pyaes_3000_troll,0.997085,1,2000.000000,1,COMPLETED_SUCCESSFULLY,218.536881,57.166677,275.703558,217.539796,274.706473,4.805360,4,-1.000000,""
60,w0,python3action_pyaes_3000,0.000000,1,-1.000000,1,COMPLETED_SUCCESSFULLY,275.703573,0.000010,275.703583,275.703573,275.703583,27570358.300201,4,-1.000000,""
50_updated,w0,python3action_chameleon_3000_yeti,0.997085,1,2000.000000,1,COMPLETED_SUCCESSFULLY,187.894945,93.000000,280.894945,186.897860,279.897860,3.009654,5,-1.000000,""
50,w0,python3action_chameleon_3000,0.000000,1,-1.000000,1,COMPLETED_SUCCESSFULLY,280.894960,0.000010,280.894970,280.894960,280.894970,28089497.000402,5,-1.000000,""
147_updated,w0,python3action_chameleon_2000_neowise,0.997085,1,2000.000000,1,COMPLETED_SUCCESSFULLY,267.445641,24.200002,291.645644,266.448556,290.648559,12.010270,0,-1.000000,""
147,w0,python3action_chameleon_2000,0.000000,1,-1.000000,1,COMPLETED_SUCCESSFULLY,291.645659,0.000010,291.645669,291.645659,291.645669,29164566.900201,0,-1.000000,""
148_updated,w0,python3action_chameleon_2000_neowise,0.997085,1,2000.000000,1,COMPLETED_SUCCESSFULLY,291.645689,24.200002,315.845691,290.648604,314.848606,13.010272,0,-1.000000,""
148,w0,python3action_chameleon_2000,0.000000,1,-1.000000,1,COMPLETED_SUCCESSFULLY,315.845706,0.000010,315.845716,315.845706,315.845716,31584571.623189,0,-1.000000,""
33_updated,w0,python3action_linpack_6000_orion,0.997085,1,2000.000000,1,COMPLETED_SUCCESSFULLY,218.763207,106.000000,324.763207,217.766122,323.766122,3.054397,11,-1.000000,""
33,w0,python3action_linpack_6000,0.000000,1,-1.000000,1,COMPLETED_SUCCESSFULLY,324.763222,0.000010,324.763232,324.763222,324.763232,32476323.225681,11,-1.000000,""
70_updated,w0,python3action_pyaes_3000_troll,0.997085,1,2000.000000,1,COMPLETED_SUCCESSFULLY,275.703603,57.166677,332.870280,274.706518,331.873195,5.805361,4,-1.000000,""
70,w0,python3action_pyaes_3000,0.000000,1,-1.000000,1,COMPLETED_SUCCESSFULLY,332.870295,0.000010,332.870305,332.870295,332.870305,33287030.500201,4,-1.000000,""
161_updated,w0,python3action_chameleon_2000_neowise,0.997085,1,2000.000000,1,COMPLETED_SUCCESSFULLY,315.845736,24.200002,340.045738,314.848651,339.048653,14.010274,0,-1.000000,""
161,w0,python3action_chameleon_2000,0.000000,1,-1.000000,1,COMPLETED_SUCCESSFULLY,340.045753,0.000010,340.045763,340.045753,340.045763,34004576.346176,0,-1.000000,""
39_updated,w0,python3action_facedetection_SampleVideo_50mb_taurus,0.997085,1,2000.000000,1,COMPLETED_SUCCESSFULLY,207.614676,134.600046,342.214723,206.617591,341.217638,2.535048,2,-1.000000,""
39,w0,python3action_facedetection_SampleVideo_50mb,0.000000,1,-1.000000,1,COMPLETED_SUCCESSFULLY,342.214738,0.000010,342.214748,342.214738,342.214748,34221474.800201,2,-1.000000,""
16_updated,w0,python3action_facedetection_SampleVideo_30mb_nova,0.997085,1,2000.000000,1,COMPLETED_SUCCESSFULLY,191.901893,160.399990,352.301883,190.904808,351.304798,2.190180,6,-1.000000,""
16,w0,python3action_facedetection_SampleVideo_30mb,0.000000,1,-1.000000,1,COMPLETED_SUCCESSFULLY,352.301898,0.000010,352.301908,352.301898,352.301908,35230190.847211,6,-1.000000,""
176_updated,w0,python3action_chameleon_2000_neowise,0.997085,1,2000.000000,1,COMPLETED_SUCCESSFULLY,340.045783,24.200002,364.245786,339.048698,363.248701,15.010276,0,-1.000000,""
176,w0,python3action_chameleon_2000,0.000000,1,-1.000000,1,COMPLETED_SUCCESSFULLY,364.245801,0.000010,364.245811,364.245801,364.245811,36424581.100201,0,-1.000000,""
51_updated,w0,python3action_chameleon_3000_yeti,0.997085,1,2000.000000,1,COMPLETED_SUCCESSFULLY,280.894990,93.000000,373.894990,279.897905,372.897905,4.009655,5,-1.000000,""
51,w0,python3action_chameleon_3000,0.000000,1,-1.000000,1,COMPLETED_SUCCESSFULLY,373.895005,0.000010,373.895015,373.895005,373.895015,37389501.501004,5,-1.000000,""
188_updated,w0,python3action_chameleon_2000_neowise,0.997085,1,2000.000000,1,COMPLETED_SUCCESSFULLY,364.245831,24.200002,388.445833,363.248746,387.448748,16.010277,0,-1.000000,""
188,w0,python3action_chameleon_2000,0.000000,1,-1.000000,1,COMPLETED_SUCCESSFULLY,388.445848,0.000010,388.445858,388.445848,388.445858,38844585.823189,0,-1.000000,""
python3action_image_processing_job18_1,w0,python3action_image_processing,0.997085,1,2000.000000,1,COMPLETED_SUCCESSFULLY,388.445878,3.471546,391.917424,387.448793,390.920339,112.606995,0,-1.000000,""
18_updated,w0,python3action_imageprocessing_SampleImage_60mb_neowise,0.997085,1,2000.000000,1,COMPLETED_SUCCESSFULLY,391.917439,37.500000,429.417439,390.920354,428.420354,11.424543,0,-1.000000,""
18,w0,python3action_imageprocessing_SampleImage_60mb,0.000000,1,-1.000000,1,COMPLETED_SUCCESSFULLY,429.417454,0.000010,429.417464,429.417454,429.417464,42941746.404017,0,-1.000000,""
63_updated,w0,python3action_linpack_6000_orion,0.997085,1,2000.000000,1,COMPLETED_SUCCESSFULLY,324.763252,106.000000,430.763252,323.766167,429.766167,4.054398,11,-1.000000,""
63,w0,python3action_linpack_6000,0.000000,1,-1.000000,1,COMPLETED_SUCCESSFULLY,430.763267,0.000010,430.763277,430.763267,430.763277,43076327.726283,11,-1.000000,""
71_updated,w0,python3action_pyaes_4000_troll,0.997085,1,2000.000000,1,COMPLETED_SUCCESSFULLY,332.870325,102.333333,435.203658,331.873240,434.206573,4.243061,4,-1.000000,""
71,w0,python3action_pyaes_4000,0.000000,1,-1.000000,1,COMPLETED_SUCCESSFULLY,435.203673,0.000010,435.203683,435.203673,435.203683,43520368.334137,4,-1.000000,""
83_updated,w0,python3action_chameleon_3000_yeti,0.997085,1,2000.000000,1,COMPLETED_SUCCESSFULLY,373.895035,93.000000,466.895035,372.897950,465.897950,5.009655,5,-1.000000,""
83,w0,python3action_chameleon_3000,0.000000,1,-1.000000,1,COMPLETED_SUCCESSFULLY,466.895050,0.000010,466.895060,466.895050,466.895060,46689506.001607,5,-1.000000,""
19_updated,w0,python3action_imageprocessing_SampleImage_60mb_neowise,0.997085,1,2000.000000,1,COMPLETED_SUCCESSFULLY,429.417484,37.500000,466.917484,428.420399,465.920399,12.424544,0,-1.000000,""
19,w0,python3action_imageprocessing_SampleImage_60mb,0.000000,1,-1.000000,1,COMPLETED_SUCCESSFULLY,466.917499,0.000010,466.917509,466.917499,466.917509,46691750.904620,0,-1.000000,""
77_updated,w0,python3action_pyaes_3000_troll,0.997085,1,2000.000000,1,COMPLETED_SUCCESSFULLY,435.203703,57.166677,492.370380,434.206618,491.373295,8.595450,4,-1.000000,""
77,w0,python3action_pyaes_3000,0.000000,1,-1.000000,1,COMPLETED_SUCCESSFULLY,492.370395,0.000010,492.370405,492.370395,492.370405,49237040.500201,4,-1.000000,""
55_updated,w0,python3action_imageprocessing_SampleImage_60mb_neowise,0.997085,1,2000.000000,1,COMPLETED_SUCCESSFULLY,466.917529,37.500000,504.417529,465.920444,503.420444,13.424545,0,-1.000000,""
55,w0,python3action_imageprocessing_SampleImage_60mb,0.000000,1,-1.000000,1,COMPLETED_SUCCESSFULLY,504.417544,0.000010,504.417554,504.417544,504.417554,50441755.405222,0,-1.000000,""
23_updated,w0,python3action_facedetection_SampleVideo_30mb_nova,0.997085,1,2000.000000,1,COMPLETED_SUCCESSFULLY,352.301928,160.399990,512.701919,351.304843,511.704834,3.190180,6,-1.000000,""
23,w0,python3action_facedetection_SampleVideo_30mb,0.000000,1,-1.000000,1,COMPLETED_SUCCESSFULLY,512.701934,0.000010,512.701944,512.701934,512.701944,51270194.400201,6,-1.000000,""
45_updated,w0,python3action_facedetection_SampleVideo_30mb_taurus,0.997085,1,2000.000000,1,COMPLETED_SUCCESSFULLY,342.214768,174.199977,516.414745,341.217683,515.417660,2.958770,2,-1.000000,""
45,w0,python3action_facedetection_SampleVideo_30mb,0.000000,1,-1.000000,1,COMPLETED_SUCCESSFULLY,516.414760,0.000010,516.414770,516.414760,516.414770,51641477.000201,2,-1.000000,""
64_updated,w0,python3action_linpack_6000_orion,0.997085,1,2000.000000,1,COMPLETED_SUCCESSFULLY,430.763297,106.000000,536.763297,429.766212,535.766212,5.054398,11,-1.000000,""
64,w0,python3action_linpack_6000,0.000000,1,-1.000000,1,COMPLETED_SUCCESSFULLY,536.763312,0.000010,536.763322,536.763312,536.763322,53676332.226886,11,-1.000000,""
153_updated,w0,python3action_imageprocessing_SampleImage_60mb_neowise,0.997085,1,2000.000000,1,COMPLETED_SUCCESSFULLY,504.417574,37.500000,541.917574,503.420489,540.920489,14.424546,0,-1.000000,""
153,w0,python3action_imageprocessing_SampleImage_60mb,0.000000,1,-1.000000,1,COMPLETED_SUCCESSFULLY,541.917589,0.000010,541.917599,541.917589,541.917599,54191759.905824,0,-1.000000,""
97_updated,w0,python3action_chameleon_3000_yeti,0.997085,1,2000.000000,1,COMPLETED_SUCCESSFULLY,466.895080,93.000000,559.895080,465.897995,558.897995,6.009656,5,-1.000000,""
97,w0,python3action_chameleon_3000,0.000000,1,-1.000000,1,COMPLETED_SUCCESSFULLY,559.895095,0.000010,559.895105,559.895095,559.895105,55989510.502209,5,-1.000000,""
168_updated,w0,python3action_imageprocessing_SampleImage_60mb_neowise,0.997085,1,2000.000000,1,COMPLETED_SUCCESSFULLY,541.917619,37.500000,579.417619,540.920534,578.420534,15.424548,0,-1.000000,""
168,w0,python3action_imageprocessing_SampleImage_60mb,0.000000,1,-1.000000,1,COMPLETED_SUCCESSFULLY,579.417634,0.000010,579.417644,579.417634,579.417644,57941764.406427,0,-1.000000,""
81_updated,w0,python3action_pyaes_4000_troll,0.997085,1,2000.000000,1,COMPLETED_SUCCESSFULLY,492.370425,102.333333,594.703758,491.373340,593.706673,5.801694,4,-1.000000,""
81,w0,python3action_pyaes_4000,0.000000,1,-1.000000,1,COMPLETED_SUCCESSFULLY,594.703773,0.000010,594.703783,594.703773,594.703783,59470378.334137,4,-1.000000,""
190_updated,w0,python3action_imageprocessing_SampleImage_60mb_neowise,0.997085,1,2000.000000,1,COMPLETED_SUCCESSFULLY,579.417664,37.500000,616.917664,578.420579,615.920579,16.424549,0,-1.000000,""
190,w0,python3action_imageprocessing_SampleImage_60mb,0.000000,1,-1.000000,1,COMPLETED_SUCCESSFULLY,616.917679,0.000010,616.917689,616.917679,616.917689,61691768.907029,0,-1.000000,""
python3action_modeltraining_job0_1,w0,python3action_modeltraining_reduced_0.94,0.997085,1,2000.000000,1,COMPLETED_SUCCESSFULLY,616.917709,0.000000,616.917709,615.920624,615.920624,110565206197021.812500,0,-1.000000,""
65_updated,w0,python3action_linpack_6000_orion,0.997085,1,2000.000000,1,COMPLETED_SUCCESSFULLY,536.763342,106.000000,642.763342,535.766257,641.766257,6.054399,11,-1.000000,""
65,w0,python3action_linpack_6000,0.000000,1,-1.000000,1,COMPLETED_SUCCESSFULLY,642.763357,0.000010,642.763367,642.763357,642.763367,64276336.727488,11,-1.000000,""
57_updated,w0,python3action_facedetection_SampleVideo_50mb_taurus,0.997085,1,2000.000000,1,COMPLETED_SUCCESSFULLY,516.414790,134.600046,651.014836,515.417705,650.017751,4.829254,2,-1.000000,""
57,w0,python3action_facedetection_SampleVideo_50mb,0.000000,1,-1.000000,1,COMPLETED_SUCCESSFULLY,651.014851,0.000010,651.014861,651.014851,651.014861,65101486.113881,2,-1.000000,""
82_updated,w0,python3action_pyaes_3000_troll,0.997085,1,2000.000000,1,COMPLETED_SUCCESSFULLY,594.703803,57.166677,651.870480,593.706718,650.873395,11.385538,4,-1.000000,""
82,w0,python3action_pyaes_3000,0.000000,1,-1.000000,1,COMPLETED_SUCCESSFULLY,651.870495,0.000010,651.870505,651.870495,651.870505,65187050.500201,4,-1.000000,""
110_updated,w0,python3action_chameleon_3000_yeti,0.997085,1,2000.000000,1,COMPLETED_SUCCESSFULLY,559.895125,93.000000,652.895125,558.898040,651.898040,7.009656,5,-1.000000,""
110,w0,python3action_chameleon_3000,0.000000,1,-1.000000,1,COMPLETED_SUCCESSFULLY,652.895140,0.000010,652.895150,652.895140,652.895150,65289515.002811,5,-1.000000,""
0_updated,w0,python3action_modeltraining_reviews100mb_neowise,0.997085,1,2000.000000,1,COMPLETED_SUCCESSFULLY,616.917739,43.399999,660.317738,615.920654,659.320653,15.191721,0,-1.000000,""
0,w0,python3action_modeltraining_reviews100mb,0.000000,1,-1.000000,1,COMPLETED_SUCCESSFULLY,660.317753,0.000010,660.317763,660.317753,660.317763,66031776.300201,0,-1.000000,""
26_updated,w0,python3action_facedetection_SampleVideo_30mb_nova,0.997085,1,2000.000000,1,COMPLETED_SUCCESSFULLY,512.701964,160.399990,673.101954,511.704879,672.104869,4.190180,6,-1.000000,""
26,w0,python3action_facedetection_SampleVideo_30mb,0.000000,1,-1.000000,1,COMPLETED_SUCCESSFULLY,673.101969,0.000010,673.101979,673.101969,673.101979,67310197.923907,6,-1.000000,""
69_updated,w0,python3action_linpack_5000_orion,0.997085,1,2000.000000,1,COMPLETED_SUCCESSFULLY,642.763387,36.199977,678.963364,641.766302,677.966279,18.728362,11,-1.000000,""
69,w0,python3action_linpack_5000,0.000000,1,-1.000000,1,COMPLETED_SUCCESSFULLY,678.963379,0.000010,678.963389,678.963379,678.963389,67896338.921551,11,-1.000000,""
2_updated,w0,python3action_modeltraining_reviews50mb_neowise,0.997085,1,2000.000000,1,COMPLETED_SUCCESSFULLY,660.317783,22.799998,683.117781,659.320698,682.120696,29.917577,0,-1.000000,""
2,w0,python3action_modeltraining_reviews50mb,0.000000,1,-1.000000,1,COMPLETED_SUCCESSFULLY,683.117796,0.000010,683.117806,683.117796,683.117806,68311780.600201,0,-1.000000,""
6_updated,w0,python3action_modeltraining_reviews50mb_neowise,0.997085,1,2000.000000,1,COMPLETED_SUCCESSFULLY,683.117826,22.799998,705.917824,682.120741,704.920739,30.917579,0,-1.000000,""
6,w0,python3action_modeltraining_reviews50mb,0.000000,1,-1.000000,1,COMPLETED_SUCCESSFULLY,705.917839,0.000010,705.917849,705.917839,705.917849,70591784.900201,0,-1.000000,""
14_updated,w0,python3action_modeltraining_reviews50mb_neowise,0.997085,1,2000.000000,1,COMPLETED_SUCCESSFULLY,705.917869,22.799998,728.717867,704.920784,727.720782,31.917581,0,-1.000000,""
14,w0,python3action_modeltraining_reviews50mb,0.000000,1,-1.000000,1,COMPLETED_SUCCESSFULLY,728.717882,0.000010,728.717892,728.717882,728.717892,72871789.200201,0,-1.000000,""
113_updated,w0,python3action_chameleon_3000_yeti,0.997085,1,2000.000000,1,COMPLETED_SUCCESSFULLY,652.895170,93.000000,745.895170,651.898085,744.898085,8.009657,5,-1.000000,""
113,w0,python3action_chameleon_3000,0.000000,1,-1.000000,1,COMPLETED_SUCCESSFULLY,745.895185,0.000010,745.895195,745.895185,745.895195,74589519.503414,5,-1.000000,""
21_updated,w0,python3action_modeltraining_reviews50mb_neowise,0.997085,1,2000.000000,1,COMPLETED_SUCCESSFULLY,728.717912,22.799998,751.517910,727.720827,750.520825,32.917583,0,-1.000000,""
21,w0,python3action_modeltraining_reviews50mb,0.000000,1,-1.000000,1,COMPLETED_SUCCESSFULLY,751.517925,0.000010,751.517935,751.517925,751.517935,75151793.500201,0,-1.000000,""
84_updated,w0,python3action_pyaes_4000_troll,0.997085,1,2000.000000,1,COMPLETED_SUCCESSFULLY,651.870525,102.333333,754.203858,650.873440,753.206773,7.360327,4,-1.000000,""
84,w0,python3action_pyaes_4000,0.000000,1,-1.000000,1,COMPLETED_SUCCESSFULLY,754.203873,0.000010,754.203883,754.203873,754.203883,75420388.334137,4,-1.000000,""
27_updated,w0,python3action_modeltraining_reviews50mb_neowise,0.997085,1,2000.000000,1,COMPLETED_SUCCESSFULLY,751.517955,22.799998,774.317953,750.520870,773.320868,33.917585,0,-1.000000,""
27,w0,python3action_modeltraining_reviews50mb,0.000000,1,-1.000000,1,COMPLETED_SUCCESSFULLY,774.317968,0.000010,774.317978,774.317968,774.317978,77431797.800201,0,-1.000000,""
78_updated,w0,python3action_linpack_6000_orion,0.997085,1,2000.000000,1,COMPLETED_SUCCESSFULLY,678.963409,106.000000,784.963409,677.966324,783.966324,7.395909,11,-1.000000,""
78,w0,python3action_linpack_6000,0.000000,1,-1.000000,1,COMPLETED_SUCCESSFULLY,784.963424,0.000010,784.963434,784.963424,784.963434,78496343.422154,11,-1.000000,""
76_updated,w0,python3action_facedetection_SampleVideo_50mb_taurus,0.997085,1,2000.000000,1,COMPLETED_SUCCESSFULLY,651.014881,134.600046,785.614927,650.017796,784.617842,5.829254,2,-1.000000,""
76,w0,python3action_facedetection_SampleVideo_50mb,0.000000,1,-1.000000,1,COMPLETED_SUCCESSFULLY,785.614942,0.000010,785.614952,785.614942,785.614952,78561495.227562,2,-1.000000,""
85_updated,w0,python3action_pyaes_3000_troll,0.997085,1,2000.000000,1,COMPLETED_SUCCESSFULLY,754.203903,57.166677,811.370580,753.206818,810.373495,14.175627,4,-1.000000,""
85,w0,python3action_pyaes_3000,0.000000,1,-1.000000,1,COMPLETED_SUCCESSFULLY,811.370595,0.000010,811.370605,811.370595,811.370605,81137060.500201,4,-1.000000,""
49_updated,w0,python3action_modeltraining_reviews100mb_neowise,0.997085,1,2000.000000,1,COMPLETED_SUCCESSFULLY,774.317998,43.399999,817.717997,773.320913,816.720912,18.818455,0,-1.000000,""
49,w0,python3action_modeltraining_reviews100mb,0.000000,1,-1.000000,1,COMPLETED_SUCCESSFULLY,817.718012,0.000010,817.718022,817.718012,817.718022,81771802.200201,0,-1.000000,""
42_updated,w0,python3action_facedetection_SampleVideo_30mb_nova,0.997085,1,2000.000000,1,COMPLETED_SUCCESSFULLY,673.101999,160.399990,833.501989,672.104914,832.504904,5.190181,6,-1.000000,""
42,w0,python3action_facedetection_SampleVideo_30mb,0.000000,1,-1.000000,1,COMPLETED_SUCCESSFULLY,833.502004,0.000010,833.502014,833.502004,833.502014,83350201.447613,6,-1.000000,""
131_updated,w0,python3action_chameleon_3000_yeti,0.997085,1,2000.000000,1,COMPLETED_SUCCESSFULLY,745.895215,93.000000,838.895215,744.898130,837.898130,9.009657,5,-1.000000,""
131,w0,python3action_chameleon_3000,0.000000,1,-1.000000,1,COMPLETED_SUCCESSFULLY,838.895230,0.000010,838.895240,838.895230,838.895240,83889524.004016,5,-1.000000,""
59_updated,w0,python3action_modeltraining_reviews50mb_neowise,0.997085,1,2000.000000,1,COMPLETED_SUCCESSFULLY,817.718042,22.799998,840.518040,816.720957,839.520955,36.821098,0,-1.000000,""
59,w0,python3action_modeltraining_reviews50mb,0.000000,1,-1.000000,1,COMPLETED_SUCCESSFULLY,840.518055,0.000010,840.518065,840.518055,840.518065,84051806.500201,0,-1.000000,""
62_updated,w0,python3action_modeltraining_reviews50mb_neowise,0.997085,1,2000.000000,1,COMPLETED_SUCCESSFULLY,840.518085,22.799998,863.318083,839.521000,862.320998,37.821100,0,-1.000000,""
62,w0,python3action_modeltraining_reviews50mb,0.000000,1,-1.000000,1,COMPLETED_SUCCESSFULLY,863.318098,0.000010,863.318108,863.318098,863.318108,86331810.800201,0,-1.000000,""
80_updated,w0,python3action_linpack_6000_orion,0.997085,1,2000.000000,1,COMPLETED_SUCCESSFULLY,784.963454,106.000000,890.963454,783.966369,889.966369,8.395909,11,-1.000000,""
80,w0,python3action_linpack_6000,0.000000,1,-1.000000,1,COMPLETED_SUCCESSFULLY,890.963469,0.000010,890.963479,890.963469,890.963479,89096347.922756,11,-1.000000,""
100_updated,w0,python3action_modeltraining_reviews100mb_neowise,0.997085,1,2000.000000,1,COMPLETED_SUCCESSFULLY,863.318128,43.399999,906.718127,862.321043,905.721042,20.869149,0,-1.000000,""
100,w0,python3action_modeltraining_reviews100mb,0.000000,1,-1.000000,1,COMPLETED_SUCCESSFULLY,906.718142,0.000010,906.718152,906.718142,906.718152,90671815.200201,0,-1.000000,""
91_updated,w0,python3action_pyaes_4000_troll,0.997085,1,2000.000000,1,COMPLETED_SUCCESSFULLY,811.370625,102.333333,913.703958,810.373540,912.706873,8.918960,4,-1.000000,""
91,w0,python3action_pyaes_4000,0.000000,1,-1.000000,1,COMPLETED_SUCCESSFULLY,913.703973,0.000010,913.703983,913.703973,913.703983,91370398.334137,4,-1.000000,""
109_updated,w0,python3action_facedetection_SampleVideo_50mb_taurus,0.997085,1,2000.000000,1,COMPLETED_SUCCESSFULLY,785.614972,134.600046,920.215018,784.617887,919.217933,6.829254,2,-1.000000,""
109,w0,python3action_facedetection_SampleVideo_50mb,0.000000,1,-1.000000,1,COMPLETED_SUCCESSFULLY,920.215033,0.000010,920.215043,920.215033,920.215043,92021504.341242,2,-1.000000,""
132_updated,w0,python3action_chameleon_3000_yeti,0.997085,1,2000.000000,1,COMPLETED_SUCCESSFULLY,838.895260,93.000000,931.895260,837.898175,930.898175,10.009658,5,-1.000000,""
132,w0,python3action_chameleon_3000,0.000000,1,-1.000000,1,COMPLETED_SUCCESSFULLY,931.895275,0.000010,931.895285,931.895275,931.895285,93189528.504618,5,-1.000000,""
112_updated,w0,python3action_modeltraining_reviews100mb_neowise,0.997085,1,2000.000000,1,COMPLETED_SUCCESSFULLY,906.718172,43.399999,950.118171,905.721087,949.121086,21.869150,0,-1.000000,""
112,w0,python3action_modeltraining_reviews100mb,0.000000,1,-1.000000,1,COMPLETED_SUCCESSFULLY,950.118186,0.000010,950.118196,950.118186,950.118196,95011819.600201,0,-1.000000,""
117_updated,w0,python3action_pyaes_3000_troll,0.997085,1,2000.000000,1,COMPLETED_SUCCESSFULLY,913.704003,57.166677,970.870680,912.706918,969.873595,16.965716,4,-1.000000,""
117,w0,python3action_pyaes_3000,0.000000,1,-1.000000,1,COMPLETED_SUCCESSFULLY,970.870695,0.000010,970.870705,970.870695,970.870705,97087070.500201,4,-1.000000,""
121_updated,w0,python3action_modeltraining_reviews100mb_neowise,0.997085,1,2000.000000,1,COMPLETED_SUCCESSFULLY,950.118216,43.399999,993.518215,949.121131,992.521130,22.869151,0,-1.000000,""
121,w0,python3action_modeltraining_reviews100mb,0.000000,1,-1.000000,1,COMPLETED_SUCCESSFULLY,993.518230,0.000010,993.518240,993.518230,993.518240,99351824.000201,0,-1.000000,""
101_updated,w0,python3action_facedetection_SampleVideo_30mb_nova,0.997085,1,2000.000000,1,COMPLETED_SUCCESSFULLY,833.502034,160.399990,993.902025,832.504949,992.904940,6.190181,6,-1.000000,""
101,w0,python3action_facedetection_SampleVideo_30mb,0.000000,1,-1.000000,1,COMPLETED_SUCCESSFULLY,993.902040,0.000010,993.902050,993.902040,993.902050,99390205.000201,6,-1.000000,""
89_updated,w0,python3action_linpack_6000_orion,0.997085,1,2000.000000,1,COMPLETED_SUCCESSFULLY,890.963499,106.000000,996.963499,889.966414,995.966414,9.395910,11,-1.000000,""
89,w0,python3action_linpack_6000,0.000000,1,-1.000000,1,COMPLETED_SUCCESSFULLY,996.963514,0.000010,996.963524,996.963514,996.963524,99696352.423358,11,-1.000000,""
123_updated,w0,python3action_modeltraining_reviews50mb_neowise,0.997085,1,2000.000000,1,COMPLETED_SUCCESSFULLY,993.518260,22.799998,1016.318258,992.521175,1015.321173,44.531635,0,-1.000000,""
123,w0,python3action_modeltraining_reviews50mb,0.000000,1,-1.000000,1,COMPLETED_SUCCESSFULLY,1016.318273,0.000010,1016.318283,1016.318273,1016.318283,101631828.300201,0,-1.000000,""
150_updated,w0,python3action_chameleon_3000_yeti,0.997085,1,2000.000000,1,COMPLETED_SUCCESSFULLY,931.895305,93.000000,1024.895305,930.898220,1023.898220,11.009658,5,-1.000000,""
150,w0,python3action_chameleon_3000,0.000000,1,-1.000000,1,COMPLETED_SUCCESSFULLY,1024.895320,0.000010,1024.895330,1024.895320,1024.895330,102489533.005221,5,-1.000000,""
124_updated,w0,python3action_pyaes_3000_troll,0.997085,1,2000.000000,1,COMPLETED_SUCCESSFULLY,970.870725,57.166677,1028.037402,969.873640,1027.040317,17.965717,4,-1.000000,""
124,w0,python3action_pyaes_3000,0.000000,1,-1.000000,1,COMPLETED_SUCCESSFULLY,1028.037417,0.000010,1028.037427,1028.037417,1028.037427,102803742.700201,4,-1.000000,""
92_updated,w0,python3action_linpack_5000_orion,0.997085,1,2000.000000,1,COMPLETED_SUCCESSFULLY,996.963544,36.199977,1033.163521,995.966459,1032.166436,28.512903,11,-1.000000,""
92,w0,python3action_linpack_5000,0.000000,1,-1.000000,1,COMPLETED_SUCCESSFULLY,1033.163536,0.000010,1033.163546,1033.163536,1033.163546,103316354.617422,11,-1.000000,""
125_updated,w0,python3action_facedetection_SampleVideo_50mb_taurus,0.997085,1,2000.000000,1,COMPLETED_SUCCESSFULLY,920.215063,134.600046,1054.815110,919.217978,1053.818025,7.829255,2,-1.000000,""
125,w0,python3action_facedetection_SampleVideo_50mb,0.000000,1,-1.000000,1,COMPLETED_SUCCESSFULLY,1054.815125,0.000010,1054.815135,1054.815125,1054.815135,105481513.500201,2,-1.000000,""
129_updated,w0,python3action_modeltraining_reviews100mb_neowise,0.997085,1,2000.000000,1,COMPLETED_SUCCESSFULLY,1016.318303,43.399999,1059.718302,1015.321218,1058.721217,24.394499,0,-1.000000,""
129,w0,python3action_modeltraining_reviews100mb,0.000000,1,-1.000000,1,COMPLETED_SUCCESSFULLY,1059.718317,0.000010,1059.718327,1059.718317,1059.718327,105971832.700201,0,-1.000000,""
140_updated,w0,python3action_modeltraining_reviews50mb_neowise,0.997085,1,2000.000000,1,COMPLETED_SUCCESSFULLY,1059.718347,22.799998,1082.518345,1058.721262,1081.521260,47.435148,0,-1.000000,""
140,w0,python3action_modeltraining_reviews50mb,0.000000,1,-1.000000,1,COMPLETED_SUCCESSFULLY,1082.518360,0.000010,1082.518370,1082.518360,1082.518370,108251837.000201,0,-1.000000,""
135_updated,w0,python3action_pyaes_3000_troll,0.997085,1,2000.000000,1,COMPLETED_SUCCESSFULLY,1028.037447,57.166677,1085.204124,1027.040362,1084.207039,18.965717,4,-1.000000,""
135,w0,python3action_pyaes_3000,0.000000,1,-1.000000,1,COMPLETED_SUCCESSFULLY,1085.204139,0.000010,1085.204149,1085.204139,1085.204149,108520414.900201,4,-1.000000,""
146_updated,w0,python3action_modeltraining_reviews100mb_neowise,0.997085,1,2000.000000,1,COMPLETED_SUCCESSFULLY,1082.518390,43.399999,1125.918389,1081.521305,1124.921304,25.919846,0,-1.000000,""
146,w0,python3action_modeltraining_reviews100mb,0.000000,1,-1.000000,1,COMPLETED_SUCCESSFULLY,1125.918404,0.000010,1125.918414,1125.918404,1125.918414,112591841.400201,0,-1.000000,""
95_updated,w0,python3action_linpack_6000_orion,0.997085,1,2000.000000,1,COMPLETED_SUCCESSFULLY,1033.163566,106.000000,1139.163566,1032.166481,1138.166481,10.737420,11,-1.000000,""
95,w0,python3action_linpack_6000,0.000000,1,-1.000000,1,COMPLETED_SUCCESSFULLY,1139.163581,0.000010,1139.163591,1139.163581,1139.163591,113916359.118024,11,-1.000000,""
149_updated,w0,python3action_modeltraining_reviews50mb_neowise,0.997085,1,2000.000000,1,COMPLETED_SUCCESSFULLY,1125.918434,22.799998,1148.718432,1124.921349,1147.721347,50.338660,0,-1.000000,""
149,w0,python3action_modeltraining_reviews50mb,0.000000,1,-1.000000,1,COMPLETED_SUCCESSFULLY,1148.718447,0.000010,1148.718457,1148.718447,1148.718457,114871845.700201,0,-1.000000,""
104_updated,w0,python3action_facedetection_SampleVideo_30mb_nova,0.997085,1,2000.000000,1,COMPLETED_SUCCESSFULLY,993.902070,160.399990,1154.302060,992.904985,1153.304975,7.190181,6,-1.000000,""
104,w0,python3action_facedetection_SampleVideo_30mb,0.000000,1,-1.000000,1,COMPLETED_SUCCESSFULLY,1154.302075,0.000010,1154.302085,1154.302075,1154.302085,115430208.523907,6,-1.000000,""
154_updated,w0,python3action_modeltraining_reviews50mb_neowise,0.997085,1,2000.000000,1,COMPLETED_SUCCESSFULLY,1148.718477,22.799998,1171.518475,1147.721392,1170.521390,51.338662,0,-1.000000,""
154,w0,python3action_modeltraining_reviews50mb,0.000000,1,-1.000000,1,COMPLETED_SUCCESSFULLY,1171.518490,0.000010,1171.518500,1171.518490,1171.518500,117151850.000201,0,-1.000000,""
165_updated,w0,python3action_pyaes_4000_troll,0.997085,1,2000.000000,1,COMPLETED_SUCCESSFULLY,1085.204169,102.333333,1187.537502,1084.207084,1186.540417,11.594857,4,-1.000000,""
165,w0,python3action_pyaes_4000,0.000000,1,-1.000000,1,COMPLETED_SUCCESSFULLY,1187.537517,0.000010,1187.537527,1187.537517,1187.537527,118753752.734137,4,-1.000000,""
162_updated,w0,python3action_modeltraining_reviews50mb_neowise,0.997085,1,2000.000000,1,COMPLETED_SUCCESSFULLY,1171.518520,22.799998,1194.318518,1170.521435,1193.321433,52.338664,0,-1.000000,""
162,w0,python3action_modeltraining_reviews50mb,0.000000,1,-1.000000,1,COMPLETED_SUCCESSFULLY,1194.318533,0.000010,1194.318543,1194.318533,1194.318543,119431854.300201,0,-1.000000,""
126_updated,w0,python3action_facedetection_SampleVideo_30mb_taurus,0.997085,1,2000.000000,1,COMPLETED_SUCCESSFULLY,1054.815155,174.199977,1229.015132,1053.818070,1228.018047,7.049473,2,-1.000000,""
126,w0,python3action_facedetection_SampleVideo_30mb,0.000000,1,-1.000000,1,COMPLETED_SUCCESSFULLY,1229.015147,0.000010,1229.015157,1229.015147,1229.015157,122901515.700201,2,-1.000000,""
172_updated,w0,python3action_modeltraining_reviews100mb_neowise,0.997085,1,2000.000000,1,COMPLETED_SUCCESSFULLY,1194.318563,43.399999,1237.718562,1193.321478,1236.721477,28.495887,0,-1.000000,""
172,w0,python3action_modeltraining_reviews100mb,0.000000,1,-1.000000,1,COMPLETED_SUCCESSFULLY,1237.718577,0.000010,1237.718587,1237.718577,1237.718587,123771858.700201,0,-1.000000,""
173_updated,w0,python3action_pyaes_3000_troll,0.997085,1,2000.000000,1,COMPLETED_SUCCESSFULLY,1187.537547,57.166677,1244.704224,1186.540462,1243.707139,21.755806,4,-1.000000,""
173,w0,python3action_pyaes_3000,0.000000,1,-1.000000,1,COMPLETED_SUCCESSFULLY,1244.704239,0.000010,1244.704249,1244.704239,1244.704249,124470424.900201,4,-1.000000,""
136_updated,w0,python3action_linpack_6000_orion,0.997085,1,2000.000000,1,COMPLETED_SUCCESSFULLY,1139.163611,106.000000,1245.163611,1138.166526,1244.166526,11.737420,11,-1.000000,""
136,w0,python3action_linpack_6000,0.000000,1,-1.000000,1,COMPLETED_SUCCESSFULLY,1245.163626,0.000010,1245.163636,1245.163626,1245.163636,124516363.618626,11,-1.000000,""
177_updated,w0,python3action_modeltraining_reviews100mb_neowise,0.997085,1,2000.000000,1,COMPLETED_SUCCESSFULLY,1237.718607,43.399999,1281.118606,1236.721522,1280.121521,29.495888,0,-1.000000,""
177,w0,python3action_modeltraining_reviews100mb,0.000000,1,-1.000000,1,COMPLETED_SUCCESSFULLY,1281.118621,0.000010,1281.118631,1281.118621,1281.118631,128111863.100201,0,-1.000000,""
160_updated,w0,python3action_facedetection_SampleVideo_30mb_nova,0.997085,1,2000.000000,1,COMPLETED_SUCCESSFULLY,1154.302105,160.399990,1314.702095,1153.305020,1313.705010,8.190181,6,-1.000000,""
160,w0,python3action_facedetection_SampleVideo_30mb,0.000000,1,-1.000000,1,COMPLETED_SUCCESSFULLY,1314.702110,0.000010,1314.702120,1314.702110,1314.702120,131470212.047613,6,-1.000000,""
186_updated,w0,python3action_modeltraining_reviews100mb_neowise,0.997085,1,2000.000000,1,COMPLETED_SUCCESSFULLY,1281.118651,43.399999,1324.518650,1280.121566,1323.521565,30.495889,0,-1.000000,""
186,w0,python3action_modeltraining_reviews100mb,0.000000,1,-1.000000,1,COMPLETED_SUCCESSFULLY,1324.518665,0.000010,1324.518675,1324.518665,1324.518675,132451867.500201,0,-1.000000,""
181_updated,w0,python3action_pyaes_4000_troll,0.997085,1,2000.000000,1,COMPLETED_SUCCESSFULLY,1244.704269,102.333333,1347.037602,1243.707184,1346.040517,13.153490,4,-1.000000,""
181,w0,python3action_pyaes_4000,0.000000,1,-1.000000,1,COMPLETED_SUCCESSFULLY,1347.037617,0.000010,1347.037627,1347.037617,1347.037627,134703762.734137,4,-1.000000,""
138_updated,w0,python3action_linpack_6000_orion,0.997085,1,2000.000000,1,COMPLETED_SUCCESSFULLY,1245.163656,106.000000,1351.163656,1244.166571,1350.166571,12.737420,11,-1.000000,""
138,w0,python3action_linpack_6000,0.000000,1,-1.000000,1,COMPLETED_SUCCESSFULLY,1351.163671,0.000010,1351.163681,1351.163671,1351.163681,135116368.119229,11,-1.000000,""
193_updated,w0,python3action_modeltraining_reviews100mb_neowise,0.997085,1,2000.000000,1,COMPLETED_SUCCESSFULLY,1324.518695,43.399999,1367.918694,1323.521610,1366.921609,31.495890,0,-1.000000,""
193,w0,python3action_modeltraining_reviews100mb,0.000000,1,-1.000000,1,COMPLETED_SUCCESSFULLY,1367.918709,0.000010,1367.918719,1367.918709,1367.918719,136791871.900201,0,-1.000000,""
163_updated,w0,python3action_facedetection_SampleVideo_30mb_taurus,0.997085,1,2000.000000,1,COMPLETED_SUCCESSFULLY,1229.015177,174.199977,1403.215154,1228.018092,1402.218069,8.049473,2,-1.000000,""
163,w0,python3action_facedetection_SampleVideo_30mb,0.000000,1,-1.000000,1,COMPLETED_SUCCESSFULLY,1403.215169,0.000010,1403.215179,1403.215169,1403.215179,140321517.900201,2,-1.000000,""
183_updated,w0,python3action_pyaes_3000_troll,0.997085,1,2000.000000,1,COMPLETED_SUCCESSFULLY,1347.037647,57.166677,1404.204324,1346.040562,1403.207239,24.545895,4,-1.000000,""
183,w0,python3action_pyaes_3000,0.000000,1,-1.000000,1,COMPLETED_SUCCESSFULLY,1404.204339,0.000010,1404.204349,1404.204339,1404.204349,140420434.900201,4,-1.000000,""
197_updated,w0,python3action_modeltraining_reviews100mb_neowise,0.997085,1,2000.000000,1,COMPLETED_SUCCESSFULLY,1367.918739,43.399999,1411.318738,1366.921654,1410.321653,32.495891,0,-1.000000,""
197,w0,python3action_modeltraining_reviews100mb,0.000000,1,-1.000000,1,COMPLETED_SUCCESSFULLY,1411.318753,0.000010,1411.318763,1411.318753,1411.318763,141131876.300201,0,-1.000000,""
141_updated,w0,python3action_linpack_6000_orion,0.997085,1,2000.000000,1,COMPLETED_SUCCESSFULLY,1351.163701,106.000000,1457.163701,1350.166616,1456.166616,13.737421,11,-1.000000,""
141,w0,python3action_linpack_6000,0.000000,1,-1.000000,1,COMPLETED_SUCCESSFULLY,1457.163716,0.000010,1457.163726,1457.163716,1457.163726,145716372.619831,11,-1.000000,""
164_updated,w0,python3action_facedetection_SampleVideo_30mb_nova,0.997085,1,2000.000000,1,COMPLETED_SUCCESSFULLY,1314.702140,160.399990,1475.102131,1313.705055,1474.105046,9.190182,6,-1.000000,""
164,w0,python3action_facedetection_SampleVideo_30mb,0.000000,1,-1.000000,1,COMPLETED_SUCCESSFULLY,1475.102146,0.000010,1475.102156,1475.102146,1475.102156,147510215.600201,6,-1.000000,""
184_updated,w0,python3action_linpack_5000_orion,0.997085,1,2000.000000,1,COMPLETED_SUCCESSFULLY,1457.163746,36.199977,1493.363723,1456.166661,1492.366638,41.225624,11,-1.000000,""
184,w0,python3action_linpack_5000,0.000000,1,-1.000000,1,COMPLETED_SUCCESSFULLY,1493.363738,0.000010,1493.363748,1493.363738,1493.363748,149336374.813895,11,-1.000000,""
189_updated,w0,python3action_pyaes_4000_troll,0.997085,1,2000.000000,1,COMPLETED_SUCCESSFULLY,1404.204369,102.333333,1506.537702,1403.207284,1505.540617,14.712123,4,-1.000000,""
189,w0,python3action_pyaes_4000,0.000000,1,-1.000000,1,COMPLETED_SUCCESSFULLY,1506.537717,0.000010,1506.537727,1506.537717,1506.537727,150653772.734137,4,-1.000000,""
195_updated,w0,python3action_pyaes_3000_troll,0.997085,1,2000.000000,1,COMPLETED_SUCCESSFULLY,1506.537747,57.166677,1563.704424,1505.540662,1562.707339,27.335984,4,-1.000000,""
195,w0,python3action_pyaes_3000,0.000000,1,-1.000000,1,COMPLETED_SUCCESSFULLY,1563.704439,0.000010,1563.704449,1563.704439,1563.704449,156370444.900201,4,-1.000000,""
179_updated,w0,python3action_facedetection_SampleVideo_30mb_taurus,0.997085,1,2000.000000,1,COMPLETED_SUCCESSFULLY,1403.215199,174.199977,1577.415176,1402.218114,1576.418091,9.049474,2,-1.000000,""
179,w0,python3action_facedetection_SampleVideo_30mb,0.000000,1,-1.000000,1,COMPLETED_SUCCESSFULLY,1577.415191,0.000010,1577.415201,1577.415191,1577.415201,157741520.100201,2,-1.000000,""
python3action_image_processing_job7_2,w0,python3action_image_processing_reduced_0.86,0.997085,1,2000.000000,1,COMPLETED_SUCCESSFULLY,1577.415221,9.731413,1587.146634,1576.418136,1586.149549,162.992730,2,-1.000000,""
7_updated,w0,python3action_imageprocessing_SampleImage_40mb_taurus,0.997085,1,2000.000000,1,COMPLETED_SUCCESSFULLY,1587.146649,32.600046,1619.746695,1586.149564,1618.749610,49.654826,2,-1.000000,""
7,w0,python3action_imageprocessing_SampleImage_40mb,0.000000,1,-1.000000,1,COMPLETED_SUCCESSFULLY,1619.746710,0.000010,1619.746720,1619.746710,1619.746720,161974672.013480,2,-1.000000,""
169_updated,w0,python3action_facedetection_SampleVideo_30mb_nova,0.997085,1,2000.000000,1,COMPLETED_SUCCESSFULLY,1475.102176,160.399990,1635.502166,1474.105091,1634.505081,10.190182,6,-1.000000,""
169,w0,python3action_facedetection_SampleVideo_30mb,0.000000,1,-1.000000,1,COMPLETED_SUCCESSFULLY,1635.502181,0.000010,1635.502191,1635.502181,1635.502191,163550219.123907,6,-1.000000,""
35_updated,w0,python3action_imageprocessing_SampleImage_40mb_taurus,0.997085,1,2000.000000,1,COMPLETED_SUCCESSFULLY,1619.746740,32.600046,1652.346786,1618.749655,1651.349701,50.654827,2,-1.000000,""
35,w0,python3action_imageprocessing_SampleImage_40mb,0.000000,1,-1.000000,1,COMPLETED_SUCCESSFULLY,1652.346801,0.000010,1652.346811,1652.346801,1652.346811,165234681.127160,2,-1.000000,""
36_updated,w0,python3action_imageprocessing_SampleImage_40mb_taurus,0.997085,1,2000.000000,1,COMPLETED_SUCCESSFULLY,1652.346831,32.600046,1684.946877,1651.349746,1683.949792,51.654829,2,-1.000000,""
36,w0,python3action_imageprocessing_SampleImage_40mb,0.000000,1,-1.000000,1,COMPLETED_SUCCESSFULLY,1684.946892,0.000010,1684.946902,1684.946892,1684.946902,168494690.240841,2,-1.000000,""
54_updated,w0,python3action_imageprocessing_SampleImage_40mb_taurus,0.997085,1,2000.000000,1,COMPLETED_SUCCESSFULLY,1684.946922,32.600046,1717.546969,1683.949837,1716.549884,52.654830,2,-1.000000,""
54,w0,python3action_imageprocessing_SampleImage_40mb,0.000000,1,-1.000000,1,COMPLETED_SUCCESSFULLY,1717.546984,0.000010,1717.546994,1717.546984,1717.546994,171754699.400201,2,-1.000000,""
61_updated,w0,python3action_imageprocessing_SampleImage_40mb_taurus,0.997085,1,2000.000000,1,COMPLETED_SUCCESSFULLY,1717.547014,32.600046,1750.147060,1716.549929,1749.149975,53.654831,2,-1.000000,""
61,w0,python3action_imageprocessing_SampleImage_40mb,0.000000,1,-1.000000,1,COMPLETED_SUCCESSFULLY,1750.147075,0.000010,1750.147085,1750.147075,1750.147085,175014708.513881,2,-1.000000,""
86_updated,w0,python3action_imageprocessing_SampleImage_40mb_taurus,0.997085,1,2000.000000,1,COMPLETED_SUCCESSFULLY,1750.147105,32.600046,1782.747151,1749.150020,1781.750066,54.654833,2,-1.000000,""
86,w0,python3action_imageprocessing_SampleImage_40mb,0.000000,1,-1.000000,1,COMPLETED_SUCCESSFULLY,1782.747166,0.000010,1782.747176,1782.747166,1782.747176,178274717.627562,2,-1.000000,""
170_updated,w0,python3action_facedetection_SampleVideo_30mb_nova,0.997085,1,2000.000000,1,COMPLETED_SUCCESSFULLY,1635.502211,160.399990,1795.902201,1634.505126,1794.905116,11.190182,6,-1.000000,""
170,w0,python3action_facedetection_SampleVideo_30mb,0.000000,1,-1.000000,1,COMPLETED_SUCCESSFULLY,1795.902216,0.000010,1795.902226,1795.902216,1795.902226,179590222.647613,6,-1.000000,""
90_updated,w0,python3action_imageprocessing_SampleImage_40mb_taurus,0.997085,1,2000.000000,1,COMPLETED_SUCCESSFULLY,1782.747196,32.600046,1815.347242,1781.750111,1814.350157,55.654834,2,-1.000000,""
90,w0,python3action_imageprocessing_SampleImage_40mb,0.000000,1,-1.000000,1,COMPLETED_SUCCESSFULLY,1815.347257,0.000010,1815.347267,1815.347257,1815.347267,181534726.741242,2,-1.000000,""
96_updated,w0,python3action_imageprocessing_SampleImage_40mb_taurus,0.997085,1,2000.000000,1,COMPLETED_SUCCESSFULLY,1815.347287,32.600046,1847.947334,1814.350202,1846.950249,56.654835,2,-1.000000,""
96,w0,python3action_imageprocessing_SampleImage_40mb,0.000000,1,-1.000000,1,COMPLETED_SUCCESSFULLY,1847.947349,0.000010,1847.947359,1847.947349,1847.947359,184794735.900201,2,-1.000000,""
144_updated,w0,python3action_imageprocessing_SampleImage_40mb_taurus,0.997085,1,2000.000000,1,COMPLETED_SUCCESSFULLY,1847.947379,32.600046,1880.547425,1846.950294,1879.550340,57.654837,2,-1.000000,""
144,w0,python3action_imageprocessing_SampleImage_40mb,0.000000,1,-1.000000,1,COMPLETED_SUCCESSFULLY,1880.547440,0.000010,1880.547450,1880.547440,1880.547450,188054745.013881,2,-1.000000,""
158_updated,w0,python3action_imageprocessing_SampleImage_40mb_taurus,0.997085,1,2000.000000,1,COMPLETED_SUCCESSFULLY,1880.547470,32.600046,1913.147516,1879.550385,1912.150431,58.654838,2,-1.000000,""
158,w0,python3action_imageprocessing_SampleImage_40mb,0.000000,1,-1.000000,1,COMPLETED_SUCCESSFULLY,1913.147531,0.000010,1913.147541,1913.147531,1913.147541,191314754.127562,2,-1.000000,""
167_updated,w0,python3action_imageprocessing_SampleImage_40mb_taurus,0.997085,1,2000.000000,1,COMPLETED_SUCCESSFULLY,1913.147561,32.600046,1945.747607,1912.150476,1944.750522,59.654840,2,-1.000000,""
167,w0,python3action_imageprocessing_SampleImage_40mb,0.000000,1,-1.000000,1,COMPLETED_SUCCESSFULLY,1945.747622,0.000010,1945.747632,1945.747622,1945.747632,194574763.241242,2,-1.000000,""
178_updated,w0,python3action_facedetection_SampleVideo_30mb_nova,0.997085,1,2000.000000,1,COMPLETED_SUCCESSFULLY,1795.902246,160.399990,1956.302237,1794.905161,1955.305152,12.190182,6,-1.000000,""
178,w0,python3action_facedetection_SampleVideo_30mb,0.000000,1,-1.000000,1,COMPLETED_SUCCESSFULLY,1956.302252,0.000010,1956.302262,1956.302252,1956.302262,195630226.200201,6,-1.000000,""
python3action_floatoperation_job11_5,w0,python3action_floatoperation,0.997085,1,2000.000000,1,COMPLETED_SUCCESSFULLY,1956.302282,2.439945,1958.742227,1955.305197,1957.745142,802.372556,6,-1.000000,""
171_updated,w0,python3action_imageprocessing_SampleImage_40mb_taurus,0.997085,1,2000.000000,1,COMPLETED_SUCCESSFULLY,1945.747652,32.600046,1978.347699,1944.750567,1977.350614,60.654841,2,-1.000000,""
171,w0,python3action_imageprocessing_SampleImage_40mb,0.000000,1,-1.000000,1,COMPLETED_SUCCESSFULLY,1978.347714,0.000010,1978.347724,1978.347714,1978.347724,197834772.400201,2,-1.000000,""
185_updated,w0,python3action_imageprocessing_SampleImage_40mb_taurus,0.997085,1,2000.000000,1,COMPLETED_SUCCESSFULLY,1978.347744,32.600046,2010.947790,1977.350659,2009.950705,61.654842,2,-1.000000,""
185,w0,python3action_imageprocessing_SampleImage_40mb,0.000000,1,-1.000000,1,COMPLETED_SUCCESSFULLY,2010.947805,0.000010,2010.947815,2010.947805,2010.947815,201094781.513881,2,-1.000000,""
python3action_linpack_job9_2,w0,python3action_linpack,0.997085,1,2000.000000,1,COMPLETED_SUCCESSFULLY,2010.947835,5.760927,2016.708762,2009.950750,2015.711677,349.893619,2,-1.000000,""
9_updated,w0,python3action_linpack_5000_taurus,0.997085,1,2000.000000,1,COMPLETED_SUCCESSFULLY,2016.708777,38.500058,2055.208835,2015.711692,2054.211750,53.356069,2,-1.000000,""
9,w0,python3action_linpack_5000,0.000000,1,-1.000000,1,COMPLETED_SUCCESSFULLY,2055.208850,0.000010,2055.208860,2055.208850,2055.208860,205520886.003901,2,-1.000000,""
20_updated,w0,python3action_linpack_5000_taurus,0.997085,1,2000.000000,1,COMPLETED_SUCCESSFULLY,2055.208880,38.500058,2093.708938,2054.211795,2092.711853,54.356071,2,-1.000000,""
20,w0,python3action_linpack_5000,0.000000,1,-1.000000,1,COMPLETED_SUCCESSFULLY,2093.708953,0.000010,2093.708963,2093.708953,2093.708963,209370896.300201,2,-1.000000,""
11_updated,w0,python3action_floatoperation_200000000_nova,0.997085,1,2000.000000,1,COMPLETED_SUCCESSFULLY,1958.742242,135.399990,2094.142233,1957.745157,2093.145148,15.458976,6,-1.000000,""
11,w0,python3action_floatoperation_200000000,0.000000,1,-1.000000,1,COMPLETED_SUCCESSFULLY,2094.142248,0.000010,2094.142258,2094.142248,2094.142258,209414225.800201,6,-1.000000,""
75_updated,w0,python3action_linpack_5000_taurus,0.997085,1,2000.000000,1,COMPLETED_SUCCESSFULLY,2093.708983,38.500058,2132.209041,2092.711898,2131.211956,55.356072,2,-1.000000,""
75,w0,python3action_linpack_5000,0.000000,1,-1.000000,1,COMPLETED_SUCCESSFULLY,2132.209056,0.000010,2132.209066,2132.209056,2132.209066,213220906.600201,2,-1.000000,""
88_updated,w0,python3action_linpack_5000_taurus,0.997085,1,2000.000000,1,COMPLETED_SUCCESSFULLY,2132.209086,38.500058,2170.709144,2131.212001,2169.712059,56.356073,2,-1.000000,""
88,w0,python3action_linpack_5000,0.000000,1,-1.000000,1,COMPLETED_SUCCESSFULLY,2170.709159,0.000010,2170.709169,2170.709159,2170.709169,217070916.900201,2,-1.000000,""
116_updated,w0,python3action_linpack_5000_taurus,0.997085,1,2000.000000,1,COMPLETED_SUCCESSFULLY,2170.709189,38.500058,2209.209247,2169.712104,2208.212162,57.356074,2,-1.000000,""
116,w0,python3action_linpack_5000,0.000000,1,-1.000000,1,COMPLETED_SUCCESSFULLY,2209.209262,0.000010,2209.209272,2209.209262,2209.209272,220920927.200201,2,-1.000000,""
24_updated,w0,python3action_floatoperation_200000000_nova,0.997085,1,2000.000000,1,COMPLETED_SUCCESSFULLY,2094.142278,135.399990,2229.542268,2093.145193,2228.545183,16.458976,6,-1.000000,""
24,w0,python3action_floatoperation_200000000,0.000000,1,-1.000000,1,COMPLETED_SUCCESSFULLY,2229.542283,0.000010,2229.542293,2229.542283,2229.542293,222954229.323907,6,-1.000000,""
142_updated,w0,python3action_linpack_5000_taurus,0.997085,1,2000.000000,1,COMPLETED_SUCCESSFULLY,2209.209292,38.500058,2247.709350,2208.212207,2246.712265,58.356075,2,-1.000000,""
142,w0,python3action_linpack_5000,0.000000,1,-1.000000,1,COMPLETED_SUCCESSFULLY,2247.709365,0.000010,2247.709375,2247.709365,2247.709375,224770937.500201,2,-1.000000,""
143_updated,w0,python3action_linpack_5000_taurus,0.997085,1,2000.000000,1,COMPLETED_SUCCESSFULLY,2247.709395,38.500058,2286.209453,2246.712310,2285.212368,59.356076,2,-1.000000,""
143,w0,python3action_linpack_5000,0.000000,1,-1.000000,1,COMPLETED_SUCCESSFULLY,2286.209468,0.000010,2286.209478,2286.209468,2286.209478,228620947.800201,2,-1.000000,""
30_updated,w0,python3action_floatoperation_100000000_nova,0.997085,1,2000.000000,1,COMPLETED_SUCCESSFULLY,2229.542313,66.200020,2295.742333,2228.545228,2294.745248,34.663815,6,-1.000000,""
30,w0,python3action_floatoperation_100000000,0.000000,1,-1.000000,1,COMPLETED_SUCCESSFULLY,2295.742348,0.000010,2295.742358,2295.742348,2295.742358,229574235.800201,6,-1.000000,""
191_updated,w0,python3action_linpack_5000_taurus,0.997085,1,2000.000000,1,COMPLETED_SUCCESSFULLY,2286.209498,38.500058,2324.709556,2285.212413,2323.712471,60.356078,2,-1.000000,""
191,w0,python3action_linpack_5000,0.000000,1,-1.000000,1,COMPLETED_SUCCESSFULLY,2324.709571,0.000010,2324.709581,2324.709571,2324.709581,232470958.100201,2,-1.000000,""
python3action_modeltraining_job58_2,w0,python3action_modeltraining_reduced_1.88,0.997085,1,2000.000000,1,COMPLETED_SUCCESSFULLY,2324.709601,0.000000,2324.709601,2323.712516,2323.712516,20117708117774.609375,2,-1.000000,""
38_updated,w0,python3action_floatoperation_100000000_nova,0.997085,1,2000.000000,1,COMPLETED_SUCCESSFULLY,2295.742378,66.200020,2361.942398,2294.745293,2360.945313,35.663816,6,-1.000000,""
38,w0,python3action_floatoperation_100000000,0.000000,1,-1.000000,1,COMPLETED_SUCCESSFULLY,2361.942413,0.000010,2361.942423,2361.942413,2361.942423,236194242.300201,6,-1.000000,""
58_updated,w0,python3action_modeltraining_reviews100mb_taurus,0.997085,1,2000.000000,1,COMPLETED_SUCCESSFULLY,2324.709631,88.199977,2412.909608,2323.712546,2411.912523,27.345954,2,-1.000000,""
58,w0,python3action_modeltraining_reviews100mb,0.000000,1,-1.000000,1,COMPLETED_SUCCESSFULLY,2412.909623,0.000010,2412.909633,2412.909623,2412.909633,241290963.300201,2,-1.000000,""
40_updated,w0,python3action_floatoperation_200000000_nova,0.997085,1,2000.000000,1,COMPLETED_SUCCESSFULLY,2361.942443,135.399990,2497.342433,2360.945358,2496.345348,18.436821,6,-1.000000,""
40,w0,python3action_floatoperation_200000000,0.000000,1,-1.000000,1,COMPLETED_SUCCESSFULLY,2497.342448,0.000010,2497.342458,2497.342448,2497.342458,249734245.823907,6,-1.000000,""
133_updated,w0,python3action_modeltraining_reviews100mb_taurus,0.997085,1,2000.000000,1,COMPLETED_SUCCESSFULLY,2412.909653,88.199977,2501.109630,2411.912568,2500.112545,28.345955,2,-1.000000,""
133,w0,python3action_modeltraining_reviews100mb,0.000000,1,-1.000000,1,COMPLETED_SUCCESSFULLY,2501.109645,0.000010,2501.109655,2501.109645,2501.109655,250110965.500201,2,-1.000000,""
43_updated,w0,python3action_floatoperation_100000000_nova,0.997085,1,2000.000000,1,COMPLETED_SUCCESSFULLY,2497.342478,66.200020,2563.542498,2496.345393,2562.545413,38.709134,6,-1.000000,""
43,w0,python3action_floatoperation_100000000,0.000000,1,-1.000000,1,COMPLETED_SUCCESSFULLY,2563.542513,0.000010,2563.542523,2563.542513,2563.542523,256354252.300201,6,-1.000000,""
152_updated,w0,python3action_modeltraining_reviews100mb_taurus,0.997085,1,2000.000000,1,COMPLETED_SUCCESSFULLY,2501.109675,88.199977,2589.309652,2500.112590,2588.312567,29.345955,2,-1.000000,""
152,w0,python3action_modeltraining_reviews100mb,0.000000,1,-1.000000,1,COMPLETED_SUCCESSFULLY,2589.309667,0.000010,2589.309677,2589.309667,2589.309677,258930967.700201,2,-1.000000,""
182_updated,w0,python3action_modeltraining_reviews100mb_taurus,0.997085,1,2000.000000,1,COMPLETED_SUCCESSFULLY,2589.309697,88.199977,2677.509674,2588.312612,2676.512589,30.345956,2,-1.000000,""
182,w0,python3action_modeltraining_reviews100mb,0.000000,1,-1.000000,1,COMPLETED_SUCCESSFULLY,2677.509689,0.000010,2677.509699,2677.509689,2677.509699,267750969.900201,2,-1.000000,""
python3action_video_processing_job3_2,w0,python3action_video_processing_reduced_2.8,0.997085,1,2000.000000,1,COMPLETED_SUCCESSFULLY,2677.509719,0.000000,2677.509719,2676.512634,2676.512634,255900588085130.875000,2,-1.000000,""
46_updated,w0,python3action_floatoperation_200000000_nova,0.997085,1,2000.000000,1,COMPLETED_SUCCESSFULLY,2563.542543,135.399990,2698.942533,2562.545458,2697.945448,19.925743,6,-1.000000,""
46,w0,python3action_floatoperation_200000000,0.000000,1,-1.000000,1,COMPLETED_SUCCESSFULLY,2698.942548,0.000010,2698.942558,2698.942548,2698.942558,269894255.823907,6,-1.000000,""
67_updated,w0,python3action_floatoperation_100000000_nova,0.997085,1,2000.000000,1,COMPLETED_SUCCESSFULLY,2698.942578,66.200020,2765.142598,2697.945493,2764.145513,41.754452,6,-1.000000,""
67,w0,python3action_floatoperation_100000000,0.000000,1,-1.000000,1,COMPLETED_SUCCESSFULLY,2765.142613,0.000010,2765.142623,2765.142613,2765.142623,276514262.300201,6,-1.000000,""
68_updated,w0,python3action_floatoperation_100000000_nova,0.997085,1,2000.000000,1,COMPLETED_SUCCESSFULLY,2765.142643,66.200020,2831.342663,2764.145558,2830.345578,42.754452,6,-1.000000,""
68,w0,python3action_floatoperation_100000000,0.000000,1,-1.000000,1,COMPLETED_SUCCESSFULLY,2831.342678,0.000010,2831.342688,2831.342678,2831.342688,283134268.800201,6,-1.000000,""
3_updated,w0,python3action_videoprocessing_SampleVideo_50mb_taurus,0.997085,1,2000.000000,1,COMPLETED_SUCCESSFULLY,2677.509749,154.250029,2831.759778,2676.512664,2830.762693,18.351781,2,-1.000000,""
3,w0,python3action_videoprocessing_SampleVideo_50mb,0.000000,1,-1.000000,1,COMPLETED_SUCCESSFULLY,2831.759793,0.000010,2831.759803,2831.759793,2831.759803,283175980.300201,2,-1.000000,""
72_updated,w0,python3action_floatoperation_200000000_nova,0.997085,1,2000.000000,1,COMPLETED_SUCCESSFULLY,2831.342708,135.399990,2966.742698,2830.345623,2965.745613,21.903588,6,-1.000000,""
72,w0,python3action_floatoperation_200000000,0.000000,1,-1.000000,1,COMPLETED_SUCCESSFULLY,2966.742713,0.000010,2966.742723,2966.742713,2966.742723,296674272.323907,6,-1.000000,""
28_updated,w0,python3action_videoprocessing_SampleVideo_50mb_taurus,0.997085,1,2000.000000,1,COMPLETED_SUCCESSFULLY,2831.759823,154.250029,2986.009852,2830.762738,2985.012767,19.351781,2,-1.000000,""
28,w0,python3action_videoprocessing_SampleVideo_50mb,0.000000,1,-1.000000,1,COMPLETED_SUCCESSFULLY,2986.009867,0.000010,2986.009877,2986.009867,2986.009877,298600987.700201,2,-1.000000,""
73_updated,w0,python3action_floatoperation_200000000_nova,0.997085,1,2000.000000,1,COMPLETED_SUCCESSFULLY,2966.742743,135.399990,3102.142733,2965.745658,3101.145648,22.903588,6,-1.000000,""
73,w0,python3action_floatoperation_200000000,0.000000,1,-1.000000,1,COMPLETED_SUCCESSFULLY,3102.142748,0.000010,3102.142758,3102.142748,3102.142758,310214275.847613,6,-1.000000,""
34_updated,w0,python3action_videoprocessing_SampleVideo_50mb_taurus,0.997085,1,2000.000000,1,COMPLETED_SUCCESSFULLY,2986.009897,154.250029,3140.259926,2985.012812,3139.262841,20.351781,2,-1.000000,""
34,w0,python3action_videoprocessing_SampleVideo_50mb,0.000000,1,-1.000000,1,COMPLETED_SUCCESSFULLY,3140.259941,0.000010,3140.259951,3140.259941,3140.259951,314025995.100201,2,-1.000000,""
74_updated,w0,python3action_floatoperation_200000000_nova,0.997085,1,2000.000000,1,COMPLETED_SUCCESSFULLY,3102.142778,135.399990,3237.542769,3101.145693,3236.545684,23.903589,6,-1.000000,""
74,w0,python3action_floatoperation_200000000,0.000000,1,-1.000000,1,COMPLETED_SUCCESSFULLY,3237.542784,0.000010,3237.542794,3237.542784,3237.542794,323754279.400201,6,-1.000000,""
52_updated,w0,python3action_videoprocessing_SampleVideo_50mb_taurus,0.997085,1,2000.000000,1,COMPLETED_SUCCESSFULLY,3140.259971,154.250029,3294.510000,3139.262886,3293.512915,21.351782,2,-1.000000,""
52,w0,python3action_videoprocessing_SampleVideo_50mb,0.000000,1,-1.000000,1,COMPLETED_SUCCESSFULLY,3294.510015,0.000010,3294.510025,3294.510015,3294.510025,329451002.500201,2,-1.000000,""
87_updated,w0,python3action_floatoperation_200000000_nova,0.997085,1,2000.000000,1,COMPLETED_SUCCESSFULLY,3237.542814,135.399990,3372.942804,3236.545729,3371.945719,24.903589,6,-1.000000,""
87,w0,python3action_floatoperation_200000000,0.000000,1,-1.000000,1,COMPLETED_SUCCESSFULLY,3372.942819,0.000010,3372.942829,3372.942819,3372.942829,337294282.923907,6,-1.000000,""
105_updated,w0,python3action_floatoperation_100000000_nova,0.997085,1,2000.000000,1,COMPLETED_SUCCESSFULLY,3372.942849,66.200020,3439.142869,3371.945764,3438.145784,51.935722,6,-1.000000,""
105,w0,python3action_floatoperation_100000000,0.000000,1,-1.000000,1,COMPLETED_SUCCESSFULLY,3439.142884,0.000010,3439.142894,3439.142884,3439.142894,343914289.400201,6,-1.000000,""
66_updated,w0,python3action_videoprocessing_SampleVideo_50mb_taurus,0.997085,1,2000.000000,1,COMPLETED_SUCCESSFULLY,3294.510045,154.250029,3448.760074,3293.512960,3447.762989,22.351782,2,-1.000000,""
66,w0,python3action_videoprocessing_SampleVideo_50mb,0.000000,1,-1.000000,1,COMPLETED_SUCCESSFULLY,3448.760089,0.000010,3448.760099,3448.760089,3448.760099,344876009.900201,2,-1.000000,""
115_updated,w0,python3action_floatoperation_100000000_nova,0.997085,1,2000.000000,1,COMPLETED_SUCCESSFULLY,3439.142914,66.200020,3505.342934,3438.145829,3504.345849,52.935722,6,-1.000000,""
115,w0,python3action_floatoperation_100000000,0.000000,1,-1.000000,1,COMPLETED_SUCCESSFULLY,3505.342949,0.000010,3505.342959,3505.342949,3505.342959,350534295.900201,6,-1.000000,""
118_updated,w0,python3action_floatoperation_100000000_nova,0.997085,1,2000.000000,1,COMPLETED_SUCCESSFULLY,3505.342979,66.200020,3571.542999,3504.345894,3570.545914,53.935723,6,-1.000000,""
118,w0,python3action_floatoperation_100000000,0.000000,1,-1.000000,1,COMPLETED_SUCCESSFULLY,3571.543014,0.000010,3571.543024,3571.543014,3571.543024,357154302.400201,6,-1.000000,""
94_updated,w0,python3action_videoprocessing_SampleVideo_50mb_taurus,0.997085,1,2000.000000,1,COMPLETED_SUCCESSFULLY,3448.760119,154.250029,3603.010148,3447.763034,3602.013063,23.351782,2,-1.000000,""
94,w0,python3action_videoprocessing_SampleVideo_50mb,0.000000,1,-1.000000,1,COMPLETED_SUCCESSFULLY,3603.010163,0.000010,3603.010173,3603.010163,3603.010173,360301017.300201,2,-1.000000,""
119_updated,w0,python3action_floatoperation_200000000_nova,0.997085,1,2000.000000,1,COMPLETED_SUCCESSFULLY,3571.543044,135.399990,3706.943034,3570.545959,3705.945949,27.370356,6,-1.000000,""
119,w0,python3action_floatoperation_200000000,0.000000,1,-1.000000,1,COMPLETED_SUCCESSFULLY,3706.943049,0.000010,3706.943059,3706.943049,3706.943059,370694305.923907,6,-1.000000,""
107_updated,w0,python3action_videoprocessing_SampleVideo_50mb_taurus,0.997085,1,2000.000000,1,COMPLETED_SUCCESSFULLY,3603.010193,154.250029,3757.260222,3602.013108,3756.263137,24.351782,2,-1.000000,""
107,w0,python3action_videoprocessing_SampleVideo_50mb,0.000000,1,-1.000000,1,COMPLETED_SUCCESSFULLY,3757.260237,0.000010,3757.260247,3757.260237,3757.260247,375726024.700201,2,-1.000000,""
122_updated,w0,python3action_floatoperation_200000000_nova,0.997085,1,2000.000000,1,COMPLETED_SUCCESSFULLY,3706.943079,135.399990,3842.343069,3705.945994,3841.345984,28.370356,6,-1.000000,""
122,w0,python3action_floatoperation_200000000,0.000000,1,-1.000000,1,COMPLETED_SUCCESSFULLY,3842.343084,0.000010,3842.343094,3842.343084,3842.343094,384234309.447613,6,-1.000000,""
128_updated,w0,python3action_floatoperation_100000000_nova,0.997085,1,2000.000000,1,COMPLETED_SUCCESSFULLY,3842.343114,66.200020,3908.543134,3841.346029,3907.546049,59.026358,6,-1.000000,""
128,w0,python3action_floatoperation_100000000,0.000000,1,-1.000000,1,COMPLETED_SUCCESSFULLY,3908.543149,0.000010,3908.543159,3908.543149,3908.543159,390854315.902008,6,-1.000000,""
108_updated,w0,python3action_videoprocessing_SampleVideo_50mb_taurus,0.997085,1,2000.000000,1,COMPLETED_SUCCESSFULLY,3757.260267,154.250029,3911.510296,3756.263182,3910.513211,25.351783,2,-1.000000,""
108,w0,python3action_videoprocessing_SampleVideo_50mb,0.000000,1,-1.000000,1,COMPLETED_SUCCESSFULLY,3911.510311,0.000010,3911.510321,3911.510311,3911.510321,391151032.100201,2,-1.000000,""
134_updated,w0,python3action_floatoperation_200000000_nova,0.997085,1,2000.000000,1,COMPLETED_SUCCESSFULLY,3908.543179,135.399990,4043.943169,3907.546094,4042.946084,29.859279,6,-1.000000,""
134,w0,python3action_floatoperation_200000000,0.000000,1,-1.000000,1,COMPLETED_SUCCESSFULLY,4043.943184,0.000010,4043.943194,4043.943184,4043.943194,404394319.425715,6,-1.000000,""
130_updated,w0,python3action_videoprocessing_SampleVideo_50mb_taurus,0.997085,1,2000.000000,1,COMPLETED_SUCCESSFULLY,3911.510341,154.250029,4065.760370,3910.513256,4064.763285,26.351783,2,-1.000000,""
130,w0,python3action_videoprocessing_SampleVideo_50mb,0.000000,1,-1.000000,1,COMPLETED_SUCCESSFULLY,4065.760385,0.000010,4065.760395,4065.760385,4065.760395,406576039.500201,2,-1.000000,""
137_updated,w0,python3action_floatoperation_100000000_nova,0.997085,1,2000.000000,1,COMPLETED_SUCCESSFULLY,4043.943214,66.200020,4110.143234,4042.946129,4109.146149,62.071676,6,-1.000000,""
137,w0,python3action_floatoperation_100000000,0.000000,1,-1.000000,1,COMPLETED_SUCCESSFULLY,4110.143249,0.000010,4110.143259,4110.143249,4110.143259,411014325.900201,6,-1.000000,""
180_updated,w0,python3action_videoprocessing_SampleVideo_50mb_taurus,0.997085,1,2000.000000,1,COMPLETED_SUCCESSFULLY,4065.760415,154.250029,4220.010444,4064.763330,4219.013359,27.351783,2,-1.000000,""
180,w0,python3action_videoprocessing_SampleVideo_50mb,0.000000,1,-1.000000,1,COMPLETED_SUCCESSFULLY,4220.010459,0.000010,4220.010469,4220.010459,4220.010469,422001046.900201,2,-1.000000,""
139_updated,w0,python3action_floatoperation_200000000_nova,0.997085,1,2000.000000,1,COMPLETED_SUCCESSFULLY,4110.143279,135.399990,4245.543269,4109.146194,4244.546184,31.348202,6,-1.000000,""
139,w0,python3action_floatoperation_200000000,0.000000,1,-1.000000,1,COMPLETED_SUCCESSFULLY,4245.543284,0.000010,4245.543294,4245.543284,4245.543294,424554329.423907,6,-1.000000,""
192_updated,w0,python3action_videoprocessing_SampleVideo_50mb_taurus,0.997085,1,2000.000000,1,COMPLETED_SUCCESSFULLY,4220.010489,154.250029,4374.260518,4219.013404,4373.263433,28.351784,2,-1.000000,""
192,w0,python3action_videoprocessing_SampleVideo_50mb,0.000000,1,-1.000000,1,COMPLETED_SUCCESSFULLY,4374.260533,0.000010,4374.260543,4374.260533,4374.260543,437426054.300201,2,-1.000000,""
151_updated,w0,python3action_floatoperation_200000000_nova,0.997085,1,2000.000000,1,COMPLETED_SUCCESSFULLY,4245.543314,135.399990,4380.943304,4244.546229,4379.946219,32.348202,6,-1.000000,""
151,w0,python3action_floatoperation_200000000,0.000000,1,-1.000000,1,COMPLETED_SUCCESSFULLY,4380.943319,0.000010,4380.943329,4380.943319,4380.943329,438094332.947613,6,-1.000000,""
155_updated,w0,python3action_floatoperation_100000000_nova,0.997085,1,2000.000000,1,COMPLETED_SUCCESSFULLY,4380.943349,66.200020,4447.143369,4379.946264,4446.146284,67.162311,6,-1.000000,""
155,w0,python3action_floatoperation_100000000,0.000000,1,-1.000000,1,COMPLETED_SUCCESSFULLY,4447.143384,0.000010,4447.143394,4447.143384,4447.143394,444714339.402008,6,-1.000000,""
156_updated,w0,python3action_floatoperation_100000000_nova,0.997085,1,2000.000000,1,COMPLETED_SUCCESSFULLY,4447.143414,66.200020,4513.343434,4446.146329,4512.346349,68.162311,6,-1.000000,""
156,w0,python3action_floatoperation_100000000,0.000000,1,-1.000000,1,COMPLETED_SUCCESSFULLY,4513.343449,0.000010,4513.343459,4513.343449,4513.343459,451334345.900201,6,-1.000000,""
157_updated,w0,python3action_floatoperation_200000000_nova,0.997085,1,2000.000000,1,COMPLETED_SUCCESSFULLY,4513.343479,135.399990,4648.743469,4512.346394,4647.746384,34.326047,6,-1.000000,""
157,w0,python3action_floatoperation_200000000,0.000000,1,-1.000000,1,COMPLETED_SUCCESSFULLY,4648.743484,0.000010,4648.743494,4648.743484,4648.743494,464874349.423907,6,-1.000000,""
159_updated,w0,python3action_floatoperation_100000000_nova,0.997085,1,2000.000000,1,COMPLETED_SUCCESSFULLY,4648.743514,66.200020,4714.943534,4647.746429,4713.946449,71.207629,6,-1.000000,""
159,w0,python3action_floatoperation_100000000,0.000000,1,-1.000000,1,COMPLETED_SUCCESSFULLY,4714.943549,0.000010,4714.943559,4714.943549,4714.943559,471494355.900201,6,-1.000000,""
175_updated,w0,python3action_floatoperation_100000000_nova,0.997085,1,2000.000000,1,COMPLETED_SUCCESSFULLY,4714.943579,66.200020,4781.143599,4713.946494,4780.146514,72.207630,6,-1.000000,""
175,w0,python3action_floatoperation_100000000,0.000000,1,-1.000000,1,COMPLETED_SUCCESSFULLY,4781.143614,0.000010,4781.143624,4781.143614,4781.143624,478114362.400201,6,-1.000000,""
187_updated,w0,python3action_floatoperation_200000000_nova,0.997085,1,2000.000000,1,COMPLETED_SUCCESSFULLY,4781.143644,135.399990,4916.543634,4780.146559,4915.546549,36.303891,6,-1.000000,""
187,w0,python3action_floatoperation_200000000,0.000000,1,-1.000000,1,COMPLETED_SUCCESSFULLY,4916.543649,0.000010,4916.543659,4916.543649,4916.543659,491654365.923907,6,-1.000000,""
196_updated,w0,python3action_floatoperation_100000000_nova,0.997085,1,2000.000000,1,COMPLETED_SUCCESSFULLY,4916.543679,66.200020,4982.743699,4915.546594,4981.746614,75.252948,6,-1.000000,""
196,w0,python3action_floatoperation_100000000,0.000000,1,-1.000000,1,COMPLETED_SUCCESSFULLY,4982.743714,0.000010,4982.743724,4982.743714,4982.743724,498274372.400201,6,-1.000000,""
198_updated,w0,python3action_floatoperation_100000000_nova,0.997085,1,2000.000000,1,COMPLETED_SUCCESSFULLY,4982.743744,66.200020,5048.943764,4981.746659,5047.946679,76.252948,6,-1.000000,""
198,w0,python3action_floatoperation_100000000,0.000000,1,-1.000000,1,COMPLETED_SUCCESSFULLY,5048.943779,0.000010,5048.943789,5048.943779,5048.943789,504894378.900201,6,-1.000000,""
python3action_pyaes_job44_5,w0,python3action_pyaes,0.997085,1,2000.000000,1,COMPLETED_SUCCESSFULLY,5048.943809,2.134958,5051.078767,5047.946724,5050.081682,2365.424107,6,-1.000000,""
44_updated,w0,python3action_pyaes_4000_nova,0.997085,1,2000.000000,1,COMPLETED_SUCCESSFULLY,5051.078782,139.600010,5190.678792,5050.081697,5189.681707,37.175368,6,-1.000000,""
44,w0,python3action_pyaes_4000,0.000000,1,-1.000000,1,COMPLETED_SUCCESSFULLY,5190.678807,0.000010,5190.678817,5190.678807,5190.678817,519067881.701668,6,-1.000000,""
47_updated,w0,python3action_pyaes_4000_nova,0.997085,1,2000.000000,1,COMPLETED_SUCCESSFULLY,5190.678837,139.600010,5330.278847,5189.681752,5329.281762,38.175368,6,-1.000000,""
47,w0,python3action_pyaes_4000,0.000000,1,-1.000000,1,COMPLETED_SUCCESSFULLY,5330.278862,0.000010,5330.278872,5330.278862,5330.278872,533027887.200201,6,-1.000000,""
93_updated,w0,python3action_pyaes_4000_nova,0.997085,1,2000.000000,1,COMPLETED_SUCCESSFULLY,5330.278892,139.600010,5469.878902,5329.281807,5468.881817,39.175368,6,-1.000000,""
93,w0,python3action_pyaes_4000,0.000000,1,-1.000000,1,COMPLETED_SUCCESSFULLY,5469.878917,0.000010,5469.878927,5469.878917,5469.878927,546987892.700201,6,-1.000000,""
120_updated,w0,python3action_pyaes_4000_nova,0.997085,1,2000.000000,1,COMPLETED_SUCCESSFULLY,5469.878947,139.600010,5609.478957,5468.881862,5608.481872,40.175369,6,-1.000000,""
120,w0,python3action_pyaes_4000,0.000000,1,-1.000000,1,COMPLETED_SUCCESSFULLY,5609.478972,0.000010,5609.478982,5609.478972,5609.478982,560947898.200201,6,-1.000000,""
194_updated,w0,python3action_pyaes_4000_nova,0.997085,1,2000.000000,1,COMPLETED_SUCCESSFULLY,5609.479002,139.600010,5749.079012,5608.481917,5748.081927,41.175369,6,-1.000000,""
194,w0,python3action_pyaes_4000,0.000000,1,-1.000000,1,COMPLETED_SUCCESSFULLY,5749.079027,0.000010,5749.079037,5749.079027,5749.079037,574907903.700201,6,-1.000000,""
python3action_video_processing_job12_5,w0,python3action_video_processing_reduced_0.91,0.997085,1,2000.000000,1,COMPLETED_SUCCESSFULLY,5749.079057,0.000000,5749.079057,5748.081972,5748.081972,1264016593126045.500000,6,-1.000000,""
12_updated,w0,python3action_videoprocessing_SampleVideo_30mb_nova,0.997085,1,2000.000000,1,COMPLETED_SUCCESSFULLY,5749.079087,106.799980,5855.879067,5748.082002,5854.881982,54.821002,6,-1.000000,""
12,w0,python3action_videoprocessing_SampleVideo_30mb,0.000000,1,-1.000000,1,COMPLETED_SUCCESSFULLY,5855.879082,0.000010,5855.879092,5855.879082,5855.879092,585587909.247412,6,-1.000000,""
22_updated,w0,python3action_videoprocessing_SampleVideo_30mb_nova,0.997085,1,2000.000000,1,COMPLETED_SUCCESSFULLY,5855.879112,106.799980,5962.679093,5854.882027,5961.682008,55.821003,6,-1.000000,""
22,w0,python3action_videoprocessing_SampleVideo_30mb,0.000000,1,-1.000000,1,COMPLETED_SUCCESSFULLY,5962.679108,0.000010,5962.679118,5962.679108,5962.679118,596267911.800201,6,-1.000000,""
31_updated,w0,python3action_videoprocessing_SampleVideo_30mb_nova,0.997085,1,2000.000000,1,COMPLETED_SUCCESSFULLY,5962.679138,106.799980,6069.479118,5961.682053,6068.482033,56.821003,6,-1.000000,""
31,w0,python3action_videoprocessing_SampleVideo_30mb,0.000000,1,-1.000000,1,COMPLETED_SUCCESSFULLY,6069.479133,0.000010,6069.479143,6069.479133,6069.479143,606947914.347010,6,-1.000000,""
48_updated,w0,python3action_videoprocessing_SampleVideo_30mb_nova,0.997085,1,2000.000000,1,COMPLETED_SUCCESSFULLY,6069.479163,106.799980,6176.279144,6068.482078,6175.282059,57.821004,6,-1.000000,""
48,w0,python3action_videoprocessing_SampleVideo_30mb,0.000000,1,-1.000000,1,COMPLETED_SUCCESSFULLY,6176.279159,0.000010,6176.279169,6176.279159,6176.279169,617627916.900201,6,-1.000000,""
53_updated,w0,python3action_videoprocessing_SampleVideo_30mb_nova,0.997085,1,2000.000000,1,COMPLETED_SUCCESSFULLY,6176.279189,106.799980,6283.079169,6175.282104,6282.082084,58.821004,6,-1.000000,""
53,w0,python3action_videoprocessing_SampleVideo_30mb,0.000000,1,-1.000000,1,COMPLETED_SUCCESSFULLY,6283.079184,0.000010,6283.079194,6283.079184,6283.079194,628307919.447010,6,-1.000000,""
98_updated,w0,python3action_videoprocessing_SampleVideo_30mb_nova,0.997085,1,2000.000000,1,COMPLETED_SUCCESSFULLY,6283.079214,106.799980,6389.879195,6282.082129,6388.882110,59.821004,6,-1.000000,""
98,w0,python3action_videoprocessing_SampleVideo_30mb,0.000000,1,-1.000000,1,COMPLETED_SUCCESSFULLY,6389.879210,0.000010,6389.879220,6389.879210,6389.879220,638987922.000201,6,-1.000000,""
99_updated,w0,python3action_videoprocessing_SampleVideo_30mb_nova,0.997085,1,2000.000000,1,COMPLETED_SUCCESSFULLY,6389.879240,106.799980,6496.679220,6388.882155,6495.682135,60.821005,6,-1.000000,""
99,w0,python3action_videoprocessing_SampleVideo_30mb,0.000000,1,-1.000000,1,COMPLETED_SUCCESSFULLY,6496.679235,0.000010,6496.679245,6496.679235,6496.679245,649667924.547010,6,-1.000000,""
102_updated,w0,python3action_videoprocessing_SampleVideo_30mb_nova,0.997085,1,2000.000000,1,COMPLETED_SUCCESSFULLY,6496.679265,106.799980,6603.479246,6495.682180,6602.482161,61.821005,6,-1.000000,""
102,w0,python3action_videoprocessing_SampleVideo_30mb,0.000000,1,-1.000000,1,COMPLETED_SUCCESSFULLY,6603.479261,0.000010,6603.479271,6603.479261,6603.479271,660347927.100201,6,-1.000000,""
114_updated,w0,python3action_videoprocessing_SampleVideo_30mb_nova,0.997085,1,2000.000000,1,COMPLETED_SUCCESSFULLY,6603.479291,106.799980,6710.279271,6602.482206,6709.282186,62.821006,6,-1.000000,""
114,w0,python3action_videoprocessing_SampleVideo_30mb,0.000000,1,-1.000000,1,COMPLETED_SUCCESSFULLY,6710.279286,0.000010,6710.279296,6710.279286,6710.279296,671027929.647010,6,-1.000000,""
166_updated,w0,python3action_videoprocessing_SampleVideo_30mb_nova,0.997085,1,2000.000000,1,COMPLETED_SUCCESSFULLY,6710.279316,106.799980,6817.079297,6709.282231,6816.082212,63.821006,6,-1.000000,""
166,w0,python3action_videoprocessing_SampleVideo_30mb,0.000000,1,-1.000000,1,COMPLETED_SUCCESSFULLY,6817.079312,0.000010,6817.079322,6817.079312,6817.079322,681707932.200201,6,-1.000000,""
174_updated,w0,python3action_videoprocessing_SampleVideo_30mb_nova,0.997085,1,2000.000000,1,COMPLETED_SUCCESSFULLY,6817.079342,106.799980,6923.879322,6816.082257,6922.882237,64.821007,6,-1.000000,""
174,w0,python3action_videoprocessing_SampleVideo_30mb,0.000000,1,-1.000000,1,COMPLETED_SUCCESSFULLY,6923.879337,0.000010,6923.879347,6923.879337,6923.879347,692387934.747010,6,-1.000000,""
199_updated,w0,python3action_videoprocessing_SampleVideo_30mb_nova,0.997085,1,2000.000000,1,COMPLETED_SUCCESSFULLY,6923.879367,106.799980,7030.679348,6922.882282,7029.682263,65.821007,6,-1.000000,""
199,w0,python3action_videoprocessing_SampleVideo_30mb,0.000000,1,-1.000000,1,COMPLETED_SUCCESSFULLY,7030.679363,0.000010,7030.679373,7030.679363,7030.679373,703067937.300201,6,-1.000000,""
