job_id,workload_name,profile,submission_time,requested_number_of_resources,requested_time,success,final_state,starting_time,execution_time,finish_time,waiting_time,turnaround_time,stretch,allocated_resources,consumed_energy,metadata
python3action_chameleon_job9_0,w0,python3action_chameleon,0.997085,1,2000.000000,1,COMPLETED_SUCCESSFULLY,1.002100,0.243006,1.245106,0.005015,0.248021,1.020637,0,-1.000000,""
python3action_pyaes_job2_2,w0,python3action_pyaes,0.997085,1,2000.000000,1,COMPLETED_SUCCESSFULLY,1.002130,0.867914,1.870044,0.005045,0.872959,1.005813,4,-1.000000,""
python3action_chameleon_job25_3,w0,python3action_chameleon,0.997085,1,2000.000000,1,COMPLETED_SUCCESSFULLY,1.002145,0.892694,1.894839,0.005060,0.897754,1.005668,5,-1.000000,""
python3action_linpack_job18_5,w0,python3action_linpack,0.997085,1,2000.000000,1,COMPLETED_SUCCESSFULLY,1.002175,5.760927,6.763102,0.005090,5.766017,1.000884,11,-1.000000,""
python3action_facedetection_job3_4,w0,python3action_facedetection,0.997085,1,2000.000000,1,COMPLETED_SUCCESSFULLY,1.002160,30.499683,31.501843,0.005075,30.504758,1.000166,6,-1.000000,""
9_updated,w0,python3action_chameleon_3000_neowise,0.997085,1,2000.000000,1,COMPLETED_SUCCESSFULLY,1.245121,55.799998,57.045119,0.248036,56.048034,1.004445,0,-1.000000,""
9,w0,python3action_chameleon_3000,0.000000,1,-1.000000,1,COMPLETED_SUCCESSFULLY,57.045134,0.000010,57.045144,57.045134,57.045144,5704514.400201,0,-1.000000,""
2_updated,w0,python3action_pyaes_3000_troll,0.997085,1,2000.000000,1,COMPLETED_SUCCESSFULLY,1.870059,57.166677,59.036736,0.872974,58.039651,1.015271,4,-1.000000,""
2,w0,python3action_pyaes_3000,0.000000,1,-1.000000,1,COMPLETED_SUCCESSFULLY,59.036751,0.000010,59.036761,59.036751,59.036761,5903676.100201,4,-1.000000,""
python3action_facedetection_job6_1,w0,python3action_facedetection,0.997085,1,2000.000000,1,COMPLETED_SUCCESSFULLY,1.002115,72.012455,73.014570,0.005030,72.017485,1.000070,2,-1.000000,""
36_updated,w0,python3action_chameleon_2000_neowise,0.997085,1,2000.000000,1,COMPLETED_SUCCESSFULLY,57.045164,24.200002,81.245166,56.048079,80.248081,3.316036,0,-1.000000,""
36,w0,python3action_chameleon_2000,0.000000,1,-1.000000,1,COMPLETED_SUCCESSFULLY,81.245181,0.000010,81.245191,81.245181,81.245191,8124519.123189,0,-1.000000,""
25_updated,w0,python3action_chameleon_3000_yeti,0.997085,1,2000.000000,1,COMPLETED_SUCCESSFULLY,1.894854,93.000000,94.894854,0.897769,93.897769,1.009653,5,-1.000000,""
25,w0,python3action_chameleon_3000,0.000000,1,-1.000000,1,COMPLETED_SUCCESSFULLY,94.894869,0.000010,94.894879,94.894869,94.894879,9489487.949564,5,-1.000000,""
40_updated,w0,python3action_chameleon_2000_neowise,0.997085,1,2000.000000,1,COMPLETED_SUCCESSFULLY,81.245211,24.200002,105.445213,80.248126,104.448128,4.316038,0,-1.000000,""
40,w0,python3action_chameleon_2000,0.000000,1,-1.000000,1,COMPLETED_SUCCESSFULLY,105.445228,0.000010,105.445238,105.445228,105.445238,10544523.846176,0,-1.000000,""
18_updated,w0,python3action_linpack_6000_orion,0.997085,1,2000.000000,1,COMPLETED_SUCCESSFULLY,6.763117,106.000000,112.763117,5.766032,111.766032,1.054397,11,-1.000000,""
18,w0,python3action_linpack_6000,0.000000,1,-1.000000,1,COMPLETED_SUCCESSFULLY,112.763132,0.000010,112.763142,112.763132,112.763142,11276314.224476,11,-1.000000,""
29_updated,w0,python3action_pyaes_3000_troll,0.997085,1,2000.000000,1,COMPLETED_SUCCESSFULLY,59.036781,57.166677,116.203458,58.039696,115.206373,2.015271,4,-1.000000,""
29,w0,python3action_pyaes_3000,0.000000,1,-1.000000,1,COMPLETED_SUCCESSFULLY,116.203473,0.000010,116.203483,116.203473,116.203483,11620348.300201,4,-1.000000,""
41_updated,w0,python3action_chameleon_2000_neowise,0.997085,1,2000.000000,1,COMPLETED_SUCCESSFULLY,105.445258,24.200002,129.645261,104.448173,128.648176,5.316040,0,-1.000000,""
41,w0,python3action_chameleon_2000,0.000000,1,-1.000000,1,COMPLETED_SUCCESSFULLY,129.645276,0.000010,129.645286,129.645276,129.645286,12964528.600201,0,-1.000000,""
59_updated,w0,python3action_chameleon_2000_neowise,0.997085,1,2000.000000,1,COMPLETED_SUCCESSFULLY,129.645306,24.200002,153.845308,128.648221,152.848223,6.316042,0,-1.000000,""
59,w0,python3action_chameleon_2000,0.000000,1,-1.000000,1,COMPLETED_SUCCESSFULLY,153.845323,0.000010,153.845333,153.845323,153.845333,15384533.323189,0,-1.000000,""
64_updated,w0,python3action_pyaes_3000_troll,0.997085,1,2000.000000,1,COMPLETED_SUCCESSFULLY,116.203503,57.166677,173.370180,115.206418,172.373095,3.015272,4,-1.000000,""
64,w0,python3action_pyaes_3000,0.000000,1,-1.000000,1,COMPLETED_SUCCESSFULLY,173.370195,0.000010,173.370205,173.370195,173.370205,17337020.500201,4,-1.000000,""
75_updated,w0,python3action_chameleon_2000_neowise,0.997085,1,2000.000000,1,COMPLETED_SUCCESSFULLY,153.845353,24.200002,178.045355,152.848268,177.048270,7.316044,0,-1.000000,""
75,w0,python3action_chameleon_2000,0.000000,1,-1.000000,1,COMPLETED_SUCCESSFULLY,178.045370,0.000010,178.045380,178.045370,178.045380,17804538.046176,0,-1.000000,""
39_updated,w0,python3action_chameleon_3000_yeti,0.997085,1,2000.000000,1,COMPLETED_SUCCESSFULLY,94.894899,93.000000,187.894899,93.897814,186.897814,2.009654,5,-1.000000,""
39,w0,python3action_chameleon_3000,0.000000,1,-1.000000,1,COMPLETED_SUCCESSFULLY,187.894915,0.000010,187.894925,187.894915,187.894925,18789492.450166,5,-1.000000,""
3_updated,w0,python3action_facedetection_SampleVideo_30mb_nova,0.997085,1,2000.000000,1,COMPLETED_SUCCESSFULLY,31.501858,160.399990,191.901848,30.504773,190.904763,1.190179,6,-1.000000,""
3,w0,python3action_facedetection_SampleVideo_30mb,0.000000,1,-1.000000,1,COMPLETED_SUCCESSFULLY,191.901863,0.000010,191.901873,191.901863,191.901873,19190187.323505,6,-1.000000,""
6_updated,w0,python3action_facedetection_SampleVideo_50mb_taurus,0.997085,1,2000.000000,1,COMPLETED_SUCCESSFULLY,73.014585,134.600046,207.614631,72.017500,206.617546,1.535048,2,-1.000000,""
6,w0,python3action_facedetection_SampleVideo_50mb,0.000000,1,-1.000000,1,COMPLETED_SUCCESSFULLY,207.614646,0.000010,207.614656,207.614646,207.614656,20761465.644962,2,-1.000000,""
31_updated,w0,python3action_linpack_6000_orion,0.997085,1,2000.000000,1,COMPLETED_SUCCESSFULLY,112.763162,106.000000,218.763162,111.766077,217.766077,2.054397,11,-1.000000,""
31,w0,python3action_linpack_6000,0.000000,1,-1.000000,1,COMPLETED_SUCCESSFULLY,218.763177,0.000010,218.763187,218.763177,218.763187,21876318.725078,11,-1.000000,""
71_updated,w0,python3action_pyaes_3000_troll,0.997085,1,2000.000000,1,COMPLETED_SUCCESSFULLY,173.370225,57.166677,230.536902,172.373140,229.539817,4.015273,4,-1.000000,""
71,w0,python3action_pyaes_3000,0.000000,1,-1.000000,1,COMPLETED_SUCCESSFULLY,230.536917,0.000010,230.536927,230.536917,230.536927,23053692.700201,4,-1.000000,""
76_updated,w0,python3action_chameleon_3000_neowise,0.997085,1,2000.000000,1,COMPLETED_SUCCESSFULLY,178.045400,55.799998,233.845398,177.048315,232.848313,4.172909,0,-1.000000,""
76,w0,python3action_chameleon_3000,0.000000,1,-1.000000,1,COMPLETED_SUCCESSFULLY,233.845413,0.000010,233.845423,233.845413,233.845423,23384542.324393,0,-1.000000,""
88_updated,w0,python3action_chameleon_2000_neowise,0.997085,1,2000.000000,1,COMPLETED_SUCCESSFULLY,233.845443,24.200002,258.045445,232.848358,257.048360,10.621832,0,-1.000000,""
88,w0,python3action_chameleon_2000,0.000000,1,-1.000000,1,COMPLETED_SUCCESSFULLY,258.045460,0.000010,258.045470,258.045460,258.045470,25804547.047381,0,-1.000000,""
53_updated,w0,python3action_chameleon_3000_yeti,0.997085,1,2000.000000,1,COMPLETED_SUCCESSFULLY,187.894945,93.000000,280.894945,186.897860,279.897860,3.009654,5,-1.000000,""
53,w0,python3action_chameleon_3000,0.000000,1,-1.000000,1,COMPLETED_SUCCESSFULLY,280.894960,0.000010,280.894970,280.894960,280.894970,28089497.000402,5,-1.000000,""
92_updated,w0,python3action_chameleon_2000_neowise,0.997085,1,2000.000000,1,COMPLETED_SUCCESSFULLY,258.045490,24.200002,282.245493,257.048405,281.248408,11.621834,0,-1.000000,""
92,w0,python3action_chameleon_2000,0.000000,1,-1.000000,1,COMPLETED_SUCCESSFULLY,282.245508,0.000010,282.245518,282.245508,282.245518,28224551.800201,0,-1.000000,""
97_updated,w0,python3action_pyaes_3000_troll,0.997085,1,2000.000000,1,COMPLETED_SUCCESSFULLY,230.536947,57.166677,287.703624,229.539862,286.706539,5.015274,4,-1.000000,""
97,w0,python3action_pyaes_3000,0.000000,1,-1.000000,1,COMPLETED_SUCCESSFULLY,287.703639,0.000010,287.703649,287.703639,287.703649,28770364.900201,4,-1.000000,""
100_updated,w0,python3action_chameleon_2000_neowise,0.997085,1,2000.000000,1,COMPLETED_SUCCESSFULLY,282.245538,24.200002,306.445540,281.248453,305.448455,12.621836,0,-1.000000,""
100,w0,python3action_chameleon_2000,0.000000,1,-1.000000,1,COMPLETED_SUCCESSFULLY,306.445555,0.000010,306.445565,306.445555,306.445565,30644556.523189,0,-1.000000,""
44_updated,w0,python3action_linpack_6000_orion,0.997085,1,2000.000000,1,COMPLETED_SUCCESSFULLY,218.763207,106.000000,324.763207,217.766122,323.766122,3.054397,11,-1.000000,""
44,w0,python3action_linpack_6000,0.000000,1,-1.000000,1,COMPLETED_SUCCESSFULLY,324.763222,0.000010,324.763232,324.763222,324.763232,32476323.225681,11,-1.000000,""
11_updated,w0,python3action_facedetection_SampleVideo_50mb_taurus,0.997085,1,2000.000000,1,COMPLETED_SUCCESSFULLY,207.614676,134.600046,342.214723,206.617591,341.217638,2.535048,2,-1.000000,""
11,w0,python3action_facedetection_SampleVideo_50mb,0.000000,1,-1.000000,1,COMPLETED_SUCCESSFULLY,342.214738,0.000010,342.214748,342.214738,342.214748,34221474.800201,2,-1.000000,""
101_updated,w0,python3action_pyaes_3000_troll,0.997085,1,2000.000000,1,COMPLETED_SUCCESSFULLY,287.703669,57.166677,344.870346,286.706584,343.873261,6.015275,4,-1.000000,""
101,w0,python3action_pyaes_3000,0.000000,1,-1.000000,1,COMPLETED_SUCCESSFULLY,344.870361,0.000010,344.870371,344.870361,344.870371,34487037.100201,4,-1.000000,""
14_updated,w0,python3action_facedetection_SampleVideo_30mb_nova,0.997085,1,2000.000000,1,COMPLETED_SUCCESSFULLY,191.901893,160.399990,352.301883,190.904808,351.304798,2.190180,6,-1.000000,""
14,w0,python3action_facedetection_SampleVideo_30mb,0.000000,1,-1.000000,1,COMPLETED_SUCCESSFULLY,352.301898,0.000010,352.301908,352.301898,352.301908,35230190.847211,6,-1.000000,""
117_updated,w0,python3action_chameleon_3000_neowise,0.997085,1,2000.000000,1,COMPLETED_SUCCESSFULLY,306.445585,55.799998,362.245583,305.448500,361.248498,6.473988,0,-1.000000,""
117,w0,python3action_chameleon_3000,0.000000,1,-1.000000,1,COMPLETED_SUCCESSFULLY,362.245598,0.000010,362.245608,362.245598,362.245608,36224560.801406,0,-1.000000,""
62_updated,w0,python3action_chameleon_3000_yeti,0.997085,1,2000.000000,1,COMPLETED_SUCCESSFULLY,280.894990,93.000000,373.894990,279.897905,372.897905,4.009655,5,-1.000000,""
62,w0,python3action_chameleon_3000,0.000000,1,-1.000000,1,COMPLETED_SUCCESSFULLY,373.895005,0.000010,373.895015,373.895005,373.895015,37389501.501004,5,-1.000000,""
124_updated,w0,python3action_chameleon_2000_neowise,0.997085,1,2000.000000,1,COMPLETED_SUCCESSFULLY,362.245628,24.200002,386.445630,361.248543,385.448545,15.927624,0,-1.000000,""
124,w0,python3action_chameleon_2000,0.000000,1,-1.000000,1,COMPLETED_SUCCESSFULLY,386.445645,0.000010,386.445655,386.445645,386.445655,38644565.524393,0,-1.000000,""
45_updated,w0,python3action_linpack_6000_orion,0.997085,1,2000.000000,1,COMPLETED_SUCCESSFULLY,324.763252,106.000000,430.763252,323.766167,429.766167,4.054398,11,-1.000000,""
45,w0,python3action_linpack_6000,0.000000,1,-1.000000,1,COMPLETED_SUCCESSFULLY,430.763267,0.000010,430.763277,430.763267,430.763277,43076327.726283,11,-1.000000,""
135_updated,w0,python3action_chameleon_3000_neowise,0.997085,1,2000.000000,1,COMPLETED_SUCCESSFULLY,386.445675,55.799998,442.245673,385.448590,441.248588,7.907681,0,-1.000000,""
135,w0,python3action_chameleon_3000,0.000000,1,-1.000000,1,COMPLETED_SUCCESSFULLY,442.245688,0.000010,442.245698,442.245688,442.245698,44224569.802611,0,-1.000000,""
103_updated,w0,python3action_pyaes_4000_troll,0.997085,1,2000.000000,1,COMPLETED_SUCCESSFULLY,344.870391,102.333333,447.203724,343.873306,446.206639,4.360325,4,-1.000000,""
103,w0,python3action_pyaes_4000,0.000000,1,-1.000000,1,COMPLETED_SUCCESSFULLY,447.203739,0.000010,447.203749,447.203739,447.203749,44720374.934137,4,-1.000000,""
87_updated,w0,python3action_chameleon_3000_yeti,0.997085,1,2000.000000,1,COMPLETED_SUCCESSFULLY,373.895035,93.000000,466.895035,372.897950,465.897950,5.009655,5,-1.000000,""
87,w0,python3action_chameleon_3000,0.000000,1,-1.000000,1,COMPLETED_SUCCESSFULLY,466.895050,0.000010,466.895060,466.895050,466.895060,46689506.001607,5,-1.000000,""
16_updated,w0,python3action_facedetection_SampleVideo_50mb_taurus,0.997085,1,2000.000000,1,COMPLETED_SUCCESSFULLY,342.214768,134.600046,476.814814,341.217683,475.817729,3.535049,2,-1.000000,""
16,w0,python3action_facedetection_SampleVideo_50mb,0.000000,1,-1.000000,1,COMPLETED_SUCCESSFULLY,476.814829,0.000010,476.814839,476.814829,476.814839,47681483.913881,2,-1.000000,""
140_updated,w0,python3action_chameleon_3000_neowise,0.997085,1,2000.000000,1,COMPLETED_SUCCESSFULLY,442.245718,55.799998,498.045716,441.248633,497.048631,8.907682,0,-1.000000,""
140,w0,python3action_chameleon_3000,0.000000,1,-1.000000,1,COMPLETED_SUCCESSFULLY,498.045731,0.000010,498.045741,498.045731,498.045741,49804574.100201,0,-1.000000,""
111_updated,w0,python3action_pyaes_3000_troll,0.997085,1,2000.000000,1,COMPLETED_SUCCESSFULLY,447.203769,57.166677,504.370446,446.206684,503.373361,8.805363,4,-1.000000,""
111,w0,python3action_pyaes_3000,0.000000,1,-1.000000,1,COMPLETED_SUCCESSFULLY,504.370461,0.000010,504.370471,504.370461,504.370471,50437047.100201,4,-1.000000,""
28_updated,w0,python3action_facedetection_SampleVideo_30mb_nova,0.997085,1,2000.000000,1,COMPLETED_SUCCESSFULLY,352.301928,160.399990,512.701919,351.304843,511.704834,3.190180,6,-1.000000,""
28,w0,python3action_facedetection_SampleVideo_30mb,0.000000,1,-1.000000,1,COMPLETED_SUCCESSFULLY,512.701934,0.000010,512.701944,512.701934,512.701944,51270194.400201,6,-1.000000,""
164_updated,w0,python3action_chameleon_2000_neowise,0.997085,1,2000.000000,1,COMPLETED_SUCCESSFULLY,498.045761,24.200002,522.245763,497.048676,521.248678,21.539200,0,-1.000000,""
164,w0,python3action_chameleon_2000,0.000000,1,-1.000000,1,COMPLETED_SUCCESSFULLY,522.245778,0.000010,522.245788,522.245778,522.245788,52224578.823189,0,-1.000000,""
72_updated,w0,python3action_linpack_6000_orion,0.997085,1,2000.000000,1,COMPLETED_SUCCESSFULLY,430.763297,106.000000,536.763297,429.766212,535.766212,5.054398,11,-1.000000,""
72,w0,python3action_linpack_6000,0.000000,1,-1.000000,1,COMPLETED_SUCCESSFULLY,536.763312,0.000010,536.763322,536.763312,536.763322,53676332.226886,11,-1.000000,""
178_updated,w0,python3action_chameleon_2000_neowise,0.997085,1,2000.000000,1,COMPLETED_SUCCESSFULLY,522.245808,24.200002,546.445810,521.248723,545.448725,22.539201,0,-1.000000,""
178,w0,python3action_chameleon_2000,0.000000,1,-1.000000,1,COMPLETED_SUCCESSFULLY,546.445825,0.000010,546.445835,546.445825,546.445835,54644583.546176,0,-1.000000,""
105_updated,w0,python3action_chameleon_3000_yeti,0.997085,1,2000.000000,1,COMPLETED_SUCCESSFULLY,466.895080,93.000000,559.895080,465.897995,558.897995,6.009656,5,-1.000000,""
105,w0,python3action_chameleon_3000,0.000000,1,-1.000000,1,COMPLETED_SUCCESSFULLY,559.895095,0.000010,559.895105,559.895095,559.895105,55989510.502209,5,-1.000000,""
118_updated,w0,python3action_pyaes_3000_troll,0.997085,1,2000.000000,1,COMPLETED_SUCCESSFULLY,504.370491,57.166677,561.537168,503.373406,560.540083,9.805364,4,-1.000000,""
118,w0,python3action_pyaes_3000,0.000000,1,-1.000000,1,COMPLETED_SUCCESSFULLY,561.537183,0.000010,561.537193,561.537183,561.537193,56153719.300201,4,-1.000000,""
179_updated,w0,python3action_chameleon_2000_neowise,0.997085,1,2000.000000,1,COMPLETED_SUCCESSFULLY,546.445855,24.200002,570.645858,545.448770,569.648773,23.539203,0,-1.000000,""
179,w0,python3action_chameleon_2000,0.000000,1,-1.000000,1,COMPLETED_SUCCESSFULLY,570.645873,0.000010,570.645883,570.645873,570.645883,57064588.300201,0,-1.000000,""
python3action_image_processing_job8_1,w0,python3action_image_processing,0.997085,1,2000.000000,1,COMPLETED_SUCCESSFULLY,570.645903,3.471546,574.117449,569.648818,573.120364,165.090826,0,-1.000000,""
49_updated,w0,python3action_facedetection_SampleVideo_50mb_taurus,0.997085,1,2000.000000,1,COMPLETED_SUCCESSFULLY,476.814859,134.600046,611.414905,475.817774,610.417820,4.535049,2,-1.000000,""
49,w0,python3action_facedetection_SampleVideo_50mb,0.000000,1,-1.000000,1,COMPLETED_SUCCESSFULLY,611.414920,0.000010,611.414930,611.414920,611.414930,61141493.027562,2,-1.000000,""
8_updated,w0,python3action_imageprocessing_SampleImage_60mb_neowise,0.997085,1,2000.000000,1,COMPLETED_SUCCESSFULLY,574.117464,37.500000,611.617464,573.120379,610.620379,16.283210,0,-1.000000,""
8,w0,python3action_imageprocessing_SampleImage_60mb,0.000000,1,-1.000000,1,COMPLETED_SUCCESSFULLY,611.617479,0.000010,611.617489,611.617479,611.617489,61161748.900402,0,-1.000000,""
82_updated,w0,python3action_linpack_6000_orion,0.997085,1,2000.000000,1,COMPLETED_SUCCESSFULLY,536.763342,106.000000,642.763342,535.766257,641.766257,6.054399,11,-1.000000,""
82,w0,python3action_linpack_6000,0.000000,1,-1.000000,1,COMPLETED_SUCCESSFULLY,642.763357,0.000010,642.763367,642.763357,642.763367,64276336.727488,11,-1.000000,""
22_updated,w0,python3action_imageprocessing_SampleImage_60mb_neowise,0.997085,1,2000.000000,1,COMPLETED_SUCCESSFULLY,611.617509,37.500000,649.117509,610.620424,648.120424,17.283211,0,-1.000000,""
22,w0,python3action_imageprocessing_SampleImage_60mb,0.000000,1,-1.000000,1,COMPLETED_SUCCESSFULLY,649.117524,0.000010,649.117534,649.117524,649.117534,64911753.401004,0,-1.000000,""
113_updated,w0,python3action_chameleon_3000_yeti,0.997085,1,2000.000000,1,COMPLETED_SUCCESSFULLY,559.895125,93.000000,652.895125,558.898040,651.898040,7.009656,5,-1.000000,""
113,w0,python3action_chameleon_3000,0.000000,1,-1.000000,1,COMPLETED_SUCCESSFULLY,652.895140,0.000010,652.895150,652.895140,652.895150,65289515.002811,5,-1.000000,""
119_updated,w0,python3action_pyaes_4000_troll,0.997085,1,2000.000000,1,COMPLETED_SUCCESSFULLY,561.537213,102.333333,663.870546,560.540128,662.873461,6.477591,4,-1.000000,""
119,w0,python3action_pyaes_4000,0.000000,1,-1.000000,1,COMPLETED_SUCCESSFULLY,663.870561,0.000010,663.870571,663.870561,663.870571,66387057.134136,4,-1.000000,""
65_updated,w0,python3action_facedetection_SampleVideo_30mb_nova,0.997085,1,2000.000000,1,COMPLETED_SUCCESSFULLY,512.701964,160.399990,673.101954,511.704879,672.104869,4.190180,6,-1.000000,""
65,w0,python3action_facedetection_SampleVideo_30mb,0.000000,1,-1.000000,1,COMPLETED_SUCCESSFULLY,673.101969,0.000010,673.101979,673.101969,673.101979,67310197.923907,6,-1.000000,""
81_updated,w0,python3action_imageprocessing_SampleImage_60mb_neowise,0.997085,1,2000.000000,1,COMPLETED_SUCCESSFULLY,649.117554,37.500000,686.617554,648.120469,685.620469,18.283213,0,-1.000000,""
81,w0,python3action_imageprocessing_SampleImage_60mb,0.000000,1,-1.000000,1,COMPLETED_SUCCESSFULLY,686.617569,0.000010,686.617579,686.617569,686.617579,68661757.901606,0,-1.000000,""
130_updated,w0,python3action_pyaes_3000_troll,0.997085,1,2000.000000,1,COMPLETED_SUCCESSFULLY,663.870591,57.166677,721.037268,662.873506,720.040183,12.595453,4,-1.000000,""
130,w0,python3action_pyaes_3000,0.000000,1,-1.000000,1,COMPLETED_SUCCESSFULLY,721.037283,0.000010,721.037293,721.037283,721.037293,72103729.300201,4,-1.000000,""
93_updated,w0,python3action_imageprocessing_SampleImage_60mb_neowise,0.997085,1,2000.000000,1,COMPLETED_SUCCESSFULLY,686.617599,37.500000,724.117599,685.620514,723.120514,19.283214,0,-1.000000,""
93,w0,python3action_imageprocessing_SampleImage_60mb,0.000000,1,-1.000000,1,COMPLETED_SUCCESSFULLY,724.117614,0.000010,724.117624,724.117614,724.117624,72411762.402209,0,-1.000000,""
175_updated,w0,python3action_chameleon_3000_yeti,0.997085,1,2000.000000,1,COMPLETED_SUCCESSFULLY,652.895170,93.000000,745.895170,651.898085,744.898085,8.009657,5,-1.000000,""
175,w0,python3action_chameleon_3000,0.000000,1,-1.000000,1,COMPLETED_SUCCESSFULLY,745.895185,0.000010,745.895195,745.895185,745.895195,74589519.503414,5,-1.000000,""
50_updated,w0,python3action_facedetection_SampleVideo_50mb_taurus,0.997085,1,2000.000000,1,COMPLETED_SUCCESSFULLY,611.414950,134.600046,746.014996,610.417865,745.017911,5.535049,2,-1.000000,""
50,w0,python3action_facedetection_SampleVideo_50mb,0.000000,1,-1.000000,1,COMPLETED_SUCCESSFULLY,746.015011,0.000010,746.015021,746.015011,746.015021,74601502.141242,2,-1.000000,""
python3action_pyaes_job30_4,w0,python3action_pyaes_reduced_0.85,0.997085,1,2000.000000,1,COMPLETED_SUCCESSFULLY,745.895215,0.133904,746.029119,744.898130,745.032034,5563.919481,5,-1.000000,""
102_updated,w0,python3action_linpack_6000_orion,0.997085,1,2000.000000,1,COMPLETED_SUCCESSFULLY,642.763387,106.000000,748.763387,641.766302,747.766302,7.054399,11,-1.000000,""
102,w0,python3action_linpack_6000,0.000000,1,-1.000000,1,COMPLETED_SUCCESSFULLY,748.763402,0.000010,748.763412,748.763402,748.763412,74876341.228090,11,-1.000000,""
109_updated,w0,python3action_imageprocessing_SampleImage_60mb_neowise,0.997085,1,2000.000000,1,COMPLETED_SUCCESSFULLY,724.117644,37.500000,761.617644,723.120559,760.620559,20.283215,0,-1.000000,""
109,w0,python3action_imageprocessing_SampleImage_60mb,0.000000,1,-1.000000,1,COMPLETED_SUCCESSFULLY,761.617659,0.000010,761.617669,761.617659,761.617669,76161766.902811,0,-1.000000,""
132_updated,w0,python3action_pyaes_3000_troll,0.997085,1,2000.000000,1,COMPLETED_SUCCESSFULLY,721.037313,57.166677,778.203990,720.040228,777.206905,13.595454,4,-1.000000,""
132,w0,python3action_pyaes_3000,0.000000,1,-1.000000,1,COMPLETED_SUCCESSFULLY,778.204005,0.000010,778.204015,778.204005,778.204015,77820401.500201,4,-1.000000,""
127_updated,w0,python3action_imageprocessing_SampleImage_60mb_neowise,0.997085,1,2000.000000,1,COMPLETED_SUCCESSFULLY,761.617689,37.500000,799.117689,760.620604,798.120604,21.283216,0,-1.000000,""
127,w0,python3action_imageprocessing_SampleImage_60mb,0.000000,1,-1.000000,1,COMPLETED_SUCCESSFULLY,799.117704,0.000010,799.117714,799.117704,799.117714,79911771.403414,0,-1.000000,""
74_updated,w0,python3action_facedetection_SampleVideo_30mb_nova,0.997085,1,2000.000000,1,COMPLETED_SUCCESSFULLY,673.101999,160.399990,833.501989,672.104914,832.504904,5.190181,6,-1.000000,""
74,w0,python3action_facedetection_SampleVideo_30mb,0.000000,1,-1.000000,1,COMPLETED_SUCCESSFULLY,833.502004,0.000010,833.502014,833.502004,833.502014,83350201.447613,6,-1.000000,""
141_updated,w0,python3action_pyaes_3000_troll,0.997085,1,2000.000000,1,COMPLETED_SUCCESSFULLY,778.204035,57.166677,835.370712,777.206950,834.373627,14.595454,4,-1.000000,""
141,w0,python3action_pyaes_3000,0.000000,1,-1.000000,1,COMPLETED_SUCCESSFULLY,835.370727,0.000010,835.370737,835.370727,835.370737,83537073.700201,4,-1.000000,""
137_updated,w0,python3action_imageprocessing_SampleImage_60mb_neowise,0.997085,1,2000.000000,1,COMPLETED_SUCCESSFULLY,799.117734,37.500000,836.617734,798.120649,835.620649,22.283217,0,-1.000000,""
137,w0,python3action_imageprocessing_SampleImage_60mb,0.000000,1,-1.000000,1,COMPLETED_SUCCESSFULLY,836.617749,0.000010,836.617759,836.617749,836.617759,83661775.904016,0,-1.000000,""
30_updated,w0,python3action_pyaes_4000_yeti,0.997085,1,2000.000000,1,COMPLETED_SUCCESSFULLY,746.029134,105.500010,851.529144,745.032049,850.532059,8.061914,5,-1.000000,""
30,w0,python3action_pyaes_4000,0.000000,1,-1.000000,1,COMPLETED_SUCCESSFULLY,851.529159,0.000010,851.529169,851.529159,851.529169,85152916.942650,5,-1.000000,""
108_updated,w0,python3action_linpack_6000_orion,0.997085,1,2000.000000,1,COMPLETED_SUCCESSFULLY,748.763432,106.000000,854.763432,747.766347,853.766347,8.054400,11,-1.000000,""
108,w0,python3action_linpack_6000,0.000000,1,-1.000000,1,COMPLETED_SUCCESSFULLY,854.763447,0.000010,854.763457,854.763447,854.763457,85476345.728693,11,-1.000000,""
153_updated,w0,python3action_imageprocessing_SampleImage_60mb_neowise,0.997085,1,2000.000000,1,COMPLETED_SUCCESSFULLY,836.617779,37.500000,874.117779,835.620694,873.120694,23.283219,0,-1.000000,""
153,w0,python3action_imageprocessing_SampleImage_60mb,0.000000,1,-1.000000,1,COMPLETED_SUCCESSFULLY,874.117794,0.000010,874.117804,874.117794,874.117804,87411780.404618,0,-1.000000,""
54_updated,w0,python3action_facedetection_SampleVideo_50mb_taurus,0.997085,1,2000.000000,1,COMPLETED_SUCCESSFULLY,746.015041,134.600046,880.615088,745.017956,879.618003,6.535050,2,-1.000000,""
54,w0,python3action_facedetection_SampleVideo_50mb,0.000000,1,-1.000000,1,COMPLETED_SUCCESSFULLY,880.615103,0.000010,880.615113,880.615103,880.615113,88061511.300201,2,-1.000000,""
166_updated,w0,python3action_imageprocessing_SampleImage_60mb_neowise,0.997085,1,2000.000000,1,COMPLETED_SUCCESSFULLY,874.117824,37.500000,911.617824,873.120739,910.620739,24.283220,0,-1.000000,""
166,w0,python3action_imageprocessing_SampleImage_60mb,0.000000,1,-1.000000,1,COMPLETED_SUCCESSFULLY,911.617839,0.000010,911.617849,911.617839,911.617849,91161784.905221,0,-1.000000,""
149_updated,w0,python3action_pyaes_4000_troll,0.997085,1,2000.000000,1,COMPLETED_SUCCESSFULLY,835.370757,102.333333,937.704090,834.373672,936.707005,9.153489,4,-1.000000,""
149,w0,python3action_pyaes_4000,0.000000,1,-1.000000,1,COMPLETED_SUCCESSFULLY,937.704105,0.000010,937.704115,937.704105,937.704115,93770411.534137,4,-1.000000,""
168_updated,w0,python3action_imageprocessing_SampleImage_60mb_neowise,0.997085,1,2000.000000,1,COMPLETED_SUCCESSFULLY,911.617869,37.500000,949.117869,910.620784,948.120784,25.283221,0,-1.000000,""
168,w0,python3action_imageprocessing_SampleImage_60mb,0.000000,1,-1.000000,1,COMPLETED_SUCCESSFULLY,949.117884,0.000010,949.117894,949.117884,949.117894,94911789.405823,0,-1.000000,""
python3action_linpack_job13_1,w0,python3action_linpack_reduced_0.85,0.997085,1,2000.000000,1,COMPLETED_SUCCESSFULLY,949.117914,0.041658,949.159572,948.120829,948.162487,22760.607002,0,-1.000000,""
33_updated,w0,python3action_pyaes_4000_yeti,0.997085,1,2000.000000,1,COMPLETED_SUCCESSFULLY,851.529189,105.500010,957.029200,850.532104,956.032115,9.061915,5,-1.000000,""
33,w0,python3action_pyaes_4000,0.000000,1,-1.000000,1,COMPLETED_SUCCESSFULLY,957.029215,0.000010,957.029225,957.029215,957.029225,95702922.500201,5,-1.000000,""
123_updated,w0,python3action_linpack_6000_orion,0.997085,1,2000.000000,1,COMPLETED_SUCCESSFULLY,854.763477,106.000000,960.763477,853.766392,959.766392,9.054400,11,-1.000000,""
123,w0,python3action_linpack_6000,0.000000,1,-1.000000,1,COMPLETED_SUCCESSFULLY,960.763492,0.000010,960.763502,960.763492,960.763502,96076350.229295,11,-1.000000,""
13_updated,w0,python3action_linpack_5000_neowise,0.997085,1,2000.000000,1,COMPLETED_SUCCESSFULLY,949.159587,20.750000,969.909587,948.162502,968.912502,46.694578,0,-1.000000,""
13,w0,python3action_linpack_5000,0.000000,1,-1.000000,1,COMPLETED_SUCCESSFULLY,969.909602,0.000010,969.909612,969.909602,969.909612,96990961.211550,0,-1.000000,""
17_updated,w0,python3action_linpack_5000_neowise,0.997085,1,2000.000000,1,COMPLETED_SUCCESSFULLY,969.909632,20.750000,990.659632,968.912547,989.662547,47.694581,0,-1.000000,""
17,w0,python3action_linpack_5000,0.000000,1,-1.000000,1,COMPLETED_SUCCESSFULLY,990.659647,0.000010,990.659657,990.659647,990.659657,99065965.712152,0,-1.000000,""
78_updated,w0,python3action_facedetection_SampleVideo_30mb_nova,0.997085,1,2000.000000,1,COMPLETED_SUCCESSFULLY,833.502034,160.399990,993.902025,832.504949,992.904940,6.190181,6,-1.000000,""
78,w0,python3action_facedetection_SampleVideo_30mb,0.000000,1,-1.000000,1,COMPLETED_SUCCESSFULLY,993.902040,0.000010,993.902050,993.902040,993.902050,99390205.000201,6,-1.000000,""
161_updated,w0,python3action_pyaes_3000_troll,0.997085,1,2000.000000,1,COMPLETED_SUCCESSFULLY,937.704135,57.166677,994.870812,936.707050,993.873727,17.385543,4,-1.000000,""
161,w0,python3action_pyaes_3000,0.000000,1,-1.000000,1,COMPLETED_SUCCESSFULLY,994.870827,0.000010,994.870837,994.870827,994.870837,99487083.700201,4,-1.000000,""
21_updated,w0,python3action_linpack_5000_neowise,0.997085,1,2000.000000,1,COMPLETED_SUCCESSFULLY,990.659677,20.750000,1011.409677,989.662592,1010.412592,48.694583,0,-1.000000,""
21,w0,python3action_linpack_5000,0.000000,1,-1.000000,1,COMPLETED_SUCCESSFULLY,1011.409692,0.000010,1011.409702,1011.409692,1011.409702,101140970.212755,0,-1.000000,""
60_updated,w0,python3action_facedetection_SampleVideo_50mb_taurus,0.997085,1,2000.000000,1,COMPLETED_SUCCESSFULLY,880.615133,134.600046,1015.215179,879.618048,1014.218094,7.535050,2,-1.000000,""
60,w0,python3action_facedetection_SampleVideo_50mb,0.000000,1,-1.000000,1,COMPLETED_SUCCESSFULLY,1015.215194,0.000010,1015.215204,1015.215194,1015.215204,101521520.413881,2,-1.000000,""
48_updated,w0,python3action_linpack_5000_neowise,0.997085,1,2000.000000,1,COMPLETED_SUCCESSFULLY,1011.409722,20.750000,1032.159722,1010.412637,1031.162637,49.694585,0,-1.000000,""
48,w0,python3action_linpack_5000,0.000000,1,-1.000000,1,COMPLETED_SUCCESSFULLY,1032.159737,0.000010,1032.159747,1032.159737,1032.159747,103215974.713357,0,-1.000000,""
183_updated,w0,python3action_pyaes_3000_troll,0.997085,1,2000.000000,1,COMPLETED_SUCCESSFULLY,994.870857,57.166677,1052.037534,993.873772,1051.040449,18.385544,4,-1.000000,""
183,w0,python3action_pyaes_3000,0.000000,1,-1.000000,1,COMPLETED_SUCCESSFULLY,1052.037549,0.000010,1052.037559,1052.037549,1052.037559,105203755.900201,4,-1.000000,""
51_updated,w0,python3action_linpack_5000_neowise,0.997085,1,2000.000000,1,COMPLETED_SUCCESSFULLY,1032.159767,20.750000,1052.909767,1031.162682,1051.912682,50.694587,0,-1.000000,""
51,w0,python3action_linpack_5000,0.000000,1,-1.000000,1,COMPLETED_SUCCESSFULLY,1052.909782,0.000010,1052.909792,1052.909782,1052.909792,105290979.213959,0,-1.000000,""
89_updated,w0,python3action_pyaes_4000_yeti,0.997085,1,2000.000000,1,COMPLETED_SUCCESSFULLY,957.029245,105.500010,1062.529255,956.032160,1061.532170,10.061915,5,-1.000000,""
89,w0,python3action_pyaes_4000,0.000000,1,-1.000000,1,COMPLETED_SUCCESSFULLY,1062.529270,0.000010,1062.529280,1062.529270,1062.529280,106252928.021982,5,-1.000000,""
125_updated,w0,python3action_linpack_6000_orion,0.997085,1,2000.000000,1,COMPLETED_SUCCESSFULLY,960.763522,106.000000,1066.763522,959.766437,1065.766437,10.054400,11,-1.000000,""
125,w0,python3action_linpack_6000,0.000000,1,-1.000000,1,COMPLETED_SUCCESSFULLY,1066.763537,0.000010,1066.763547,1066.763537,1066.763547,106676354.729897,11,-1.000000,""
84_updated,w0,python3action_linpack_5000_neowise,0.997085,1,2000.000000,1,COMPLETED_SUCCESSFULLY,1052.909812,20.750000,1073.659812,1051.912727,1072.662727,51.694589,0,-1.000000,""
84,w0,python3action_linpack_5000,0.000000,1,-1.000000,1,COMPLETED_SUCCESSFULLY,1073.659827,0.000010,1073.659837,1073.659827,1073.659837,107365983.714562,0,-1.000000,""
91_updated,w0,python3action_linpack_5000_neowise,0.997085,1,2000.000000,1,COMPLETED_SUCCESSFULLY,1073.659857,20.750000,1094.409857,1072.662772,1093.412772,52.694591,0,-1.000000,""
91,w0,python3action_linpack_5000,0.000000,1,-1.000000,1,COMPLETED_SUCCESSFULLY,1094.409872,0.000010,1094.409882,1094.409872,1094.409882,109440988.215164,0,-1.000000,""
186_updated,w0,python3action_pyaes_3000_troll,0.997085,1,2000.000000,1,COMPLETED_SUCCESSFULLY,1052.037579,57.166677,1109.204256,1051.040494,1108.207171,19.385545,4,-1.000000,""
186,w0,python3action_pyaes_3000,0.000000,1,-1.000000,1,COMPLETED_SUCCESSFULLY,1109.204271,0.000010,1109.204281,1109.204271,1109.204281,110920428.100201,4,-1.000000,""
98_updated,w0,python3action_linpack_5000_neowise,0.997085,1,2000.000000,1,COMPLETED_SUCCESSFULLY,1094.409902,20.750000,1115.159902,1093.412817,1114.162817,53.694594,0,-1.000000,""
98,w0,python3action_linpack_5000,0.000000,1,-1.000000,1,COMPLETED_SUCCESSFULLY,1115.159917,0.000010,1115.159927,1115.159917,1115.159927,111515992.715767,0,-1.000000,""
104_updated,w0,python3action_linpack_5000_neowise,0.997085,1,2000.000000,1,COMPLETED_SUCCESSFULLY,1115.159947,20.750000,1135.909947,1114.162862,1134.912862,54.694596,0,-1.000000,""
104,w0,python3action_linpack_5000,0.000000,1,-1.000000,1,COMPLETED_SUCCESSFULLY,1135.909962,0.000010,1135.909972,1135.909962,1135.909972,113590997.216369,0,-1.000000,""
126_updated,w0,python3action_facedetection_SampleVideo_50mb_taurus,0.997085,1,2000.000000,1,COMPLETED_SUCCESSFULLY,1015.215224,134.600046,1149.815270,1014.218139,1148.818185,8.535050,2,-1.000000,""
126,w0,python3action_facedetection_SampleVideo_50mb,0.000000,1,-1.000000,1,COMPLETED_SUCCESSFULLY,1149.815285,0.000010,1149.815295,1149.815285,1149.815295,114981529.527562,2,-1.000000,""
90_updated,w0,python3action_facedetection_SampleVideo_30mb_nova,0.997085,1,2000.000000,1,COMPLETED_SUCCESSFULLY,993.902070,160.399990,1154.302060,992.904985,1153.304975,7.190181,6,-1.000000,""
90,w0,python3action_facedetection_SampleVideo_30mb,0.000000,1,-1.000000,1,COMPLETED_SUCCESSFULLY,1154.302075,0.000010,1154.302085,1154.302075,1154.302085,115430208.523907,6,-1.000000,""
106_updated,w0,python3action_linpack_5000_neowise,0.997085,1,2000.000000,1,COMPLETED_SUCCESSFULLY,1135.909992,20.750000,1156.659992,1134.912907,1155.662907,55.694598,0,-1.000000,""
106,w0,python3action_linpack_5000,0.000000,1,-1.000000,1,COMPLETED_SUCCESSFULLY,1156.660007,0.000010,1156.660017,1156.660007,1156.660017,115666001.716971,0,-1.000000,""
112_updated,w0,python3action_pyaes_4000_yeti,0.997085,1,2000.000000,1,COMPLETED_SUCCESSFULLY,1062.529300,105.500010,1168.029310,1061.532215,1167.032225,11.061916,5,-1.000000,""
112,w0,python3action_pyaes_4000,0.000000,1,-1.000000,1,COMPLETED_SUCCESSFULLY,1168.029325,0.000010,1168.029335,1168.029325,1168.029335,116802933.543764,5,-1.000000,""
159_updated,w0,python3action_linpack_6000_orion,0.997085,1,2000.000000,1,COMPLETED_SUCCESSFULLY,1066.763567,106.000000,1172.763567,1065.766482,1171.766482,11.054401,11,-1.000000,""
159,w0,python3action_linpack_6000,0.000000,1,-1.000000,1,COMPLETED_SUCCESSFULLY,1172.763582,0.000010,1172.763592,1172.763582,1172.763592,117276359.230500,11,-1.000000,""
110_updated,w0,python3action_linpack_5000_neowise,0.997085,1,2000.000000,1,COMPLETED_SUCCESSFULLY,1156.660037,20.750000,1177.410037,1155.662952,1176.412952,56.694600,0,-1.000000,""
110,w0,python3action_linpack_5000,0.000000,1,-1.000000,1,COMPLETED_SUCCESSFULLY,1177.410052,0.000010,1177.410062,1177.410052,1177.410062,117741006.217574,0,-1.000000,""
115_updated,w0,python3action_linpack_5000_neowise,0.997085,1,2000.000000,1,COMPLETED_SUCCESSFULLY,1177.410082,20.750000,1198.160082,1176.412997,1197.162997,57.694602,0,-1.000000,""
115,w0,python3action_linpack_5000,0.000000,1,-1.000000,1,COMPLETED_SUCCESSFULLY,1198.160097,0.000010,1198.160107,1198.160097,1198.160107,119816010.718176,0,-1.000000,""
194_updated,w0,python3action_pyaes_4000_troll,0.997085,1,2000.000000,1,COMPLETED_SUCCESSFULLY,1109.204301,102.333333,1211.537634,1108.207216,1210.540549,11.829386,4,-1.000000,""
194,w0,python3action_pyaes_4000,0.000000,1,-1.000000,1,COMPLETED_SUCCESSFULLY,1211.537649,0.000010,1211.537659,1211.537649,1211.537659,121153765.934136,4,-1.000000,""
121_updated,w0,python3action_linpack_5000_neowise,0.997085,1,2000.000000,1,COMPLETED_SUCCESSFULLY,1198.160127,20.750000,1218.910127,1197.163042,1217.913042,58.694604,0,-1.000000,""
121,w0,python3action_linpack_5000,0.000000,1,-1.000000,1,COMPLETED_SUCCESSFULLY,1218.910142,0.000010,1218.910152,1218.910142,1218.910152,121891015.218779,0,-1.000000,""
133_updated,w0,python3action_linpack_5000_neowise,0.997085,1,2000.000000,1,COMPLETED_SUCCESSFULLY,1218.910172,20.750000,1239.660172,1217.913087,1238.663087,59.694607,0,-1.000000,""
133,w0,python3action_linpack_5000,0.000000,1,-1.000000,1,COMPLETED_SUCCESSFULLY,1239.660187,0.000010,1239.660197,1239.660187,1239.660197,123966019.719381,0,-1.000000,""
146_updated,w0,python3action_linpack_5000_neowise,0.997085,1,2000.000000,1,COMPLETED_SUCCESSFULLY,1239.660217,20.750000,1260.410217,1238.663132,1259.413132,60.694609,0,-1.000000,""
146,w0,python3action_linpack_5000,0.000000,1,-1.000000,1,COMPLETED_SUCCESSFULLY,1260.410232,0.000010,1260.410242,1260.410232,1260.410242,126041024.219983,0,-1.000000,""
python3action_modeltraining_job0_1,w0,python3action_modeltraining_reduced_0.94,0.997085,1,2000.000000,1,COMPLETED_SUCCESSFULLY,1260.410262,0.204209,1260.614471,1259.413177,1259.617386,6168.288362,0,-1.000000,""
195_updated,w0,python3action_pyaes_3000_troll,0.997085,1,2000.000000,1,COMPLETED_SUCCESSFULLY,1211.537679,57.166677,1268.704356,1210.540594,1267.707271,22.175634,4,-1.000000,""
195,w0,python3action_pyaes_3000,0.000000,1,-1.000000,1,COMPLETED_SUCCESSFULLY,1268.704371,0.000010,1268.704381,1268.704371,1268.704381,126870438.100201,4,-1.000000,""
157_updated,w0,python3action_pyaes_4000_yeti,0.997085,1,2000.000000,1,COMPLETED_SUCCESSFULLY,1168.029355,105.500010,1273.529366,1167.032270,1272.532281,12.061916,5,-1.000000,""
157,w0,python3action_pyaes_4000,0.000000,1,-1.000000,1,COMPLETED_SUCCESSFULLY,1273.529381,0.000010,1273.529391,1273.529381,1273.529391,127352939.100201,5,-1.000000,""
189_updated,w0,python3action_linpack_6000_orion,0.997085,1,2000.000000,1,COMPLETED_SUCCESSFULLY,1172.763612,106.000000,1278.763612,1171.766527,1277.766527,12.054401,11,-1.000000,""
189,w0,python3action_linpack_6000,0.000000,1,-1.000000,1,COMPLETED_SUCCESSFULLY,1278.763627,0.000010,1278.763637,1278.763627,1278.763637,127876363.731102,11,-1.000000,""
152_updated,w0,python3action_facedetection_SampleVideo_50mb_taurus,0.997085,1,2000.000000,1,COMPLETED_SUCCESSFULLY,1149.815315,134.600046,1284.415361,1148.818230,1283.418276,9.535051,2,-1.000000,""
152,w0,python3action_facedetection_SampleVideo_50mb,0.000000,1,-1.000000,1,COMPLETED_SUCCESSFULLY,1284.415376,0.000010,1284.415386,1284.415376,1284.415386,128441538.641242,2,-1.000000,""
0_updated,w0,python3action_modeltraining_reviews100mb_neowise,0.997085,1,2000.000000,1,COMPLETED_SUCCESSFULLY,1260.614486,43.399999,1304.014485,1259.617401,1303.017400,30.023443,0,-1.000000,""
0,w0,python3action_modeltraining_reviews100mb,0.000000,1,-1.000000,1,COMPLETED_SUCCESSFULLY,1304.014500,0.000010,1304.014510,1304.014500,1304.014510,130401451.000201,0,-1.000000,""
122_updated,w0,python3action_facedetection_SampleVideo_30mb_nova,0.997085,1,2000.000000,1,COMPLETED_SUCCESSFULLY,1154.302105,160.399990,1314.702095,1153.305020,1313.705010,8.190181,6,-1.000000,""
122,w0,python3action_facedetection_SampleVideo_30mb,0.000000,1,-1.000000,1,COMPLETED_SUCCESSFULLY,1314.702110,0.000010,1314.702120,1314.702110,1314.702120,131470212.047613,6,-1.000000,""
1_updated,w0,python3action_modeltraining_reviews50mb_neowise,0.997085,1,2000.000000,1,COMPLETED_SUCCESSFULLY,1304.014530,22.799998,1326.814528,1303.017445,1325.817443,58.149894,0,-1.000000,""
1,w0,python3action_modeltraining_reviews50mb,0.000000,1,-1.000000,1,COMPLETED_SUCCESSFULLY,1326.814543,0.000010,1326.814553,1326.814543,1326.814553,132681455.300201,0,-1.000000,""
5_updated,w0,python3action_modeltraining_reviews100mb_neowise,0.997085,1,2000.000000,1,COMPLETED_SUCCESSFULLY,1326.814573,43.399999,1370.214572,1325.817488,1369.217487,31.548791,0,-1.000000,""
5,w0,python3action_modeltraining_reviews100mb,0.000000,1,-1.000000,1,COMPLETED_SUCCESSFULLY,1370.214587,0.000010,1370.214597,1370.214587,1370.214597,137021459.700201,0,-1.000000,""
174_updated,w0,python3action_pyaes_4000_yeti,0.997085,1,2000.000000,1,COMPLETED_SUCCESSFULLY,1273.529411,105.500010,1379.029421,1272.532326,1378.032336,13.061917,5,-1.000000,""
174,w0,python3action_pyaes_4000,0.000000,1,-1.000000,1,COMPLETED_SUCCESSFULLY,1379.029436,0.000010,1379.029446,1379.029436,1379.029446,137902944.621982,5,-1.000000,""
23_updated,w0,python3action_modeltraining_reviews50mb_neowise,0.997085,1,2000.000000,1,COMPLETED_SUCCESSFULLY,1370.214617,22.799998,1393.014615,1369.217532,1392.017530,61.053406,0,-1.000000,""
23,w0,python3action_modeltraining_reviews50mb,0.000000,1,-1.000000,1,COMPLETED_SUCCESSFULLY,1393.014630,0.000010,1393.014640,1393.014630,1393.014640,139301464.000201,0,-1.000000,""
167_updated,w0,python3action_facedetection_SampleVideo_50mb_taurus,0.997085,1,2000.000000,1,COMPLETED_SUCCESSFULLY,1284.415406,134.600046,1419.015453,1283.418321,1418.018368,10.535051,2,-1.000000,""
167,w0,python3action_facedetection_SampleVideo_50mb,0.000000,1,-1.000000,1,COMPLETED_SUCCESSFULLY,1419.015468,0.000010,1419.015478,1419.015468,1419.015478,141901547.800201,2,-1.000000,""
32_updated,w0,python3action_modeltraining_reviews100mb_neowise,0.997085,1,2000.000000,1,COMPLETED_SUCCESSFULLY,1393.014660,43.399999,1436.414659,1392.017575,1435.417574,33.074138,0,-1.000000,""
32,w0,python3action_modeltraining_reviews100mb,0.000000,1,-1.000000,1,COMPLETED_SUCCESSFULLY,1436.414674,0.000010,1436.414684,1436.414674,1436.414684,143641468.400201,0,-1.000000,""
136_updated,w0,python3action_facedetection_SampleVideo_30mb_nova,0.997085,1,2000.000000,1,COMPLETED_SUCCESSFULLY,1314.702140,160.399990,1475.102131,1313.705055,1474.105046,9.190182,6,-1.000000,""
136,w0,python3action_facedetection_SampleVideo_30mb,0.000000,1,-1.000000,1,COMPLETED_SUCCESSFULLY,1475.102146,0.000010,1475.102156,1475.102146,1475.102156,147510215.600201,6,-1.000000,""
57_updated,w0,python3action_modeltraining_reviews100mb_neowise,0.997085,1,2000.000000,1,COMPLETED_SUCCESSFULLY,1436.414704,43.399999,1479.814703,1435.417619,1478.817618,34.074140,0,-1.000000,""
57,w0,python3action_modeltraining_reviews100mb,0.000000,1,-1.000000,1,COMPLETED_SUCCESSFULLY,1479.814718,0.000010,1479.814728,1479.814718,1479.814728,147981472.800201,0,-1.000000,""
73_updated,w0,python3action_modeltraining_reviews100mb_neowise,0.997085,1,2000.000000,1,COMPLETED_SUCCESSFULLY,1479.814748,43.399999,1523.214747,1478.817663,1522.217662,35.074141,0,-1.000000,""
73,w0,python3action_modeltraining_reviews100mb,0.000000,1,-1.000000,1,COMPLETED_SUCCESSFULLY,1523.214762,0.000010,1523.214772,1523.214762,1523.214772,152321477.200201,0,-1.000000,""
77_updated,w0,python3action_modeltraining_reviews50mb_neowise,0.997085,1,2000.000000,1,COMPLETED_SUCCESSFULLY,1523.214792,22.799998,1546.014790,1522.217707,1545.017705,67.763941,0,-1.000000,""
77,w0,python3action_modeltraining_reviews50mb,0.000000,1,-1.000000,1,COMPLETED_SUCCESSFULLY,1546.014805,0.000010,1546.014815,1546.014805,1546.014815,154601481.500201,0,-1.000000,""
170_updated,w0,python3action_facedetection_SampleVideo_50mb_taurus,0.997085,1,2000.000000,1,COMPLETED_SUCCESSFULLY,1419.015498,134.600046,1553.615544,1418.018413,1552.618459,11.535051,2,-1.000000,""
170,w0,python3action_facedetection_SampleVideo_50mb,0.000000,1,-1.000000,1,COMPLETED_SUCCESSFULLY,1553.615559,0.000010,1553.615569,1553.615559,1553.615569,155361556.913881,2,-1.000000,""
96_updated,w0,python3action_modeltraining_reviews50mb_neowise,0.997085,1,2000.000000,1,COMPLETED_SUCCESSFULLY,1546.014835,22.799998,1568.814833,1545.017750,1567.817748,68.763943,0,-1.000000,""
96,w0,python3action_modeltraining_reviews50mb,0.000000,1,-1.000000,1,COMPLETED_SUCCESSFULLY,1568.814848,0.000010,1568.814858,1568.814848,1568.814858,156881485.800201,0,-1.000000,""
107_updated,w0,python3action_modeltraining_reviews100mb_neowise,0.997085,1,2000.000000,1,COMPLETED_SUCCESSFULLY,1568.814878,43.399999,1612.214877,1567.817793,1611.217792,37.124835,0,-1.000000,""
107,w0,python3action_modeltraining_reviews100mb,0.000000,1,-1.000000,1,COMPLETED_SUCCESSFULLY,1612.214892,0.000010,1612.214902,1612.214892,1612.214902,161221490.200201,0,-1.000000,""
120_updated,w0,python3action_modeltraining_reviews50mb_neowise,0.997085,1,2000.000000,1,COMPLETED_SUCCESSFULLY,1612.214922,22.799998,1635.014920,1611.217837,1634.017835,71.667456,0,-1.000000,""
120,w0,python3action_modeltraining_reviews50mb,0.000000,1,-1.000000,1,COMPLETED_SUCCESSFULLY,1635.014935,0.000010,1635.014945,1635.014935,1635.014945,163501494.500201,0,-1.000000,""
145_updated,w0,python3action_facedetection_SampleVideo_30mb_nova,0.997085,1,2000.000000,1,COMPLETED_SUCCESSFULLY,1475.102176,160.399990,1635.502166,1474.105091,1634.505081,10.190182,6,-1.000000,""
145,w0,python3action_facedetection_SampleVideo_30mb,0.000000,1,-1.000000,1,COMPLETED_SUCCESSFULLY,1635.502181,0.000010,1635.502191,1635.502181,1635.502191,163550219.123907,6,-1.000000,""
128_updated,w0,python3action_modeltraining_reviews50mb_neowise,0.997085,1,2000.000000,1,COMPLETED_SUCCESSFULLY,1635.014965,22.799998,1657.814963,1634.017880,1656.817878,72.667458,0,-1.000000,""
128,w0,python3action_modeltraining_reviews50mb,0.000000,1,-1.000000,1,COMPLETED_SUCCESSFULLY,1657.814978,0.000010,1657.814988,1657.814978,1657.814988,165781498.800201,0,-1.000000,""
198_updated,w0,python3action_facedetection_SampleVideo_50mb_taurus,0.997085,1,2000.000000,1,COMPLETED_SUCCESSFULLY,1553.615589,134.600046,1688.215635,1552.618504,1687.218550,12.535052,2,-1.000000,""
198,w0,python3action_facedetection_SampleVideo_50mb,0.000000,1,-1.000000,1,COMPLETED_SUCCESSFULLY,1688.215650,0.000010,1688.215660,1688.215650,1688.215660,168821566.027562,2,-1.000000,""
python3action_image_processing_job19_2,w0,python3action_image_processing_reduced_0.86,0.997085,1,2000.000000,1,COMPLETED_SUCCESSFULLY,1688.215680,9.731413,1697.947093,1687.218595,1696.950008,174.378585,2,-1.000000,""
134_updated,w0,python3action_modeltraining_reviews100mb_neowise,0.997085,1,2000.000000,1,COMPLETED_SUCCESSFULLY,1657.815008,43.399999,1701.215007,1656.817923,1700.217922,39.175529,0,-1.000000,""
134,w0,python3action_modeltraining_reviews100mb,0.000000,1,-1.000000,1,COMPLETED_SUCCESSFULLY,1701.215022,0.000010,1701.215032,1701.215022,1701.215032,170121503.200201,0,-1.000000,""
151_updated,w0,python3action_modeltraining_reviews50mb_neowise,0.997085,1,2000.000000,1,COMPLETED_SUCCESSFULLY,1701.215052,22.799998,1724.015050,1700.217967,1723.017965,75.570971,0,-1.000000,""
151,w0,python3action_modeltraining_reviews50mb,0.000000,1,-1.000000,1,COMPLETED_SUCCESSFULLY,1724.015065,0.000010,1724.015075,1724.015065,1724.015075,172401507.500201,0,-1.000000,""
19_updated,w0,python3action_imageprocessing_SampleImage_40mb_taurus,0.997085,1,2000.000000,1,COMPLETED_SUCCESSFULLY,1697.947108,32.600046,1730.547154,1696.950023,1729.550069,53.053608,2,-1.000000,""
19,w0,python3action_imageprocessing_SampleImage_40mb,0.000000,1,-1.000000,1,COMPLETED_SUCCESSFULLY,1730.547169,0.000010,1730.547179,1730.547169,1730.547179,173054717.929427,2,-1.000000,""
24_updated,w0,python3action_imageprocessing_SampleImage_40mb_taurus,0.997085,1,2000.000000,1,COMPLETED_SUCCESSFULLY,1730.547199,32.600046,1763.147245,1729.550114,1762.150160,54.053609,2,-1.000000,""
24,w0,python3action_imageprocessing_SampleImage_40mb,0.000000,1,-1.000000,1,COMPLETED_SUCCESSFULLY,1763.147260,0.000010,1763.147270,1763.147260,1763.147270,176314727.043107,2,-1.000000,""
154_updated,w0,python3action_modeltraining_reviews100mb_neowise,0.997085,1,2000.000000,1,COMPLETED_SUCCESSFULLY,1724.015095,43.399999,1767.415094,1723.018010,1766.418009,40.700877,0,-1.000000,""
154,w0,python3action_modeltraining_reviews100mb,0.000000,1,-1.000000,1,COMPLETED_SUCCESSFULLY,1767.415109,0.000010,1767.415119,1767.415109,1767.415119,176741511.900201,0,-1.000000,""
35_updated,w0,python3action_imageprocessing_SampleImage_40mb_taurus,0.997085,1,2000.000000,1,COMPLETED_SUCCESSFULLY,1763.147290,32.600046,1795.747337,1762.150205,1794.750252,55.053611,2,-1.000000,""
35,w0,python3action_imageprocessing_SampleImage_40mb,0.000000,1,-1.000000,1,COMPLETED_SUCCESSFULLY,1795.747352,0.000010,1795.747362,1795.747352,1795.747362,179574736.200201,2,-1.000000,""
155_updated,w0,python3action_facedetection_SampleVideo_30mb_nova,0.997085,1,2000.000000,1,COMPLETED_SUCCESSFULLY,1635.502211,160.399990,1795.902201,1634.505126,1794.905116,11.190182,6,-1.000000,""
155,w0,python3action_facedetection_SampleVideo_30mb,0.000000,1,-1.000000,1,COMPLETED_SUCCESSFULLY,1795.902216,0.000010,1795.902226,1795.902216,1795.902226,179590222.647613,6,-1.000000,""
171_updated,w0,python3action_modeltraining_reviews100mb_neowise,0.997085,1,2000.000000,1,COMPLETED_SUCCESSFULLY,1767.415139,43.399999,1810.815138,1766.418054,1809.818053,41.700878,0,-1.000000,""
171,w0,python3action_modeltraining_reviews100mb,0.000000,1,-1.000000,1,COMPLETED_SUCCESSFULLY,1810.815153,0.000010,1810.815163,1810.815153,1810.815163,181081516.300201,0,-1.000000,""
37_updated,w0,python3action_imageprocessing_SampleImage_40mb_taurus,0.997085,1,2000.000000,1,COMPLETED_SUCCESSFULLY,1795.747382,32.600046,1828.347428,1794.750297,1827.350343,56.053612,2,-1.000000,""
37,w0,python3action_imageprocessing_SampleImage_40mb,0.000000,1,-1.000000,1,COMPLETED_SUCCESSFULLY,1828.347443,0.000010,1828.347453,1828.347443,1828.347453,182834745.313881,2,-1.000000,""
172_updated,w0,python3action_modeltraining_reviews50mb_neowise,0.997085,1,2000.000000,1,COMPLETED_SUCCESSFULLY,1810.815183,22.799998,1833.615181,1809.818098,1832.618096,80.377994,0,-1.000000,""
172,w0,python3action_modeltraining_reviews50mb,0.000000,1,-1.000000,1,COMPLETED_SUCCESSFULLY,1833.615196,0.000010,1833.615206,1833.615196,1833.615206,183361520.600201,0,-1.000000,""
46_updated,w0,python3action_imageprocessing_SampleImage_40mb_taurus,0.997085,1,2000.000000,1,COMPLETED_SUCCESSFULLY,1828.347473,32.600046,1860.947519,1827.350388,1859.950434,57.053614,2,-1.000000,""
46,w0,python3action_imageprocessing_SampleImage_40mb,0.000000,1,-1.000000,1,COMPLETED_SUCCESSFULLY,1860.947534,0.000010,1860.947544,1860.947534,1860.947544,186094754.427562,2,-1.000000,""
181_updated,w0,python3action_modeltraining_reviews100mb_neowise,0.997085,1,2000.000000,1,COMPLETED_SUCCESSFULLY,1833.615226,43.399999,1877.015225,1832.618141,1876.018140,43.226226,0,-1.000000,""
181,w0,python3action_modeltraining_reviews100mb,0.000000,1,-1.000000,1,COMPLETED_SUCCESSFULLY,1877.015240,0.000010,1877.015250,1877.015240,1877.015250,187701525.000201,0,-1.000000,""
52_updated,w0,python3action_imageprocessing_SampleImage_40mb_taurus,0.997085,1,2000.000000,1,COMPLETED_SUCCESSFULLY,1860.947564,32.600046,1893.547610,1859.950479,1892.550525,58.053615,2,-1.000000,""
52,w0,python3action_imageprocessing_SampleImage_40mb,0.000000,1,-1.000000,1,COMPLETED_SUCCESSFULLY,1893.547625,0.000010,1893.547635,1893.547625,1893.547635,189354763.541242,2,-1.000000,""
182_updated,w0,python3action_modeltraining_reviews50mb_neowise,0.997085,1,2000.000000,1,COMPLETED_SUCCESSFULLY,1877.015270,22.799998,1899.815268,1876.018185,1898.818183,83.281507,0,-1.000000,""
182,w0,python3action_modeltraining_reviews50mb,0.000000,1,-1.000000,1,COMPLETED_SUCCESSFULLY,1899.815283,0.000010,1899.815293,1899.815283,1899.815293,189981529.300201,0,-1.000000,""
58_updated,w0,python3action_imageprocessing_SampleImage_40mb_taurus,0.997085,1,2000.000000,1,COMPLETED_SUCCESSFULLY,1893.547655,32.600046,1926.147702,1892.550570,1925.150617,59.053616,2,-1.000000,""
58,w0,python3action_imageprocessing_SampleImage_40mb,0.000000,1,-1.000000,1,COMPLETED_SUCCESSFULLY,1926.147717,0.000010,1926.147727,1926.147717,1926.147727,192614772.700201,2,-1.000000,""
184_updated,w0,python3action_modeltraining_reviews100mb_neowise,0.997085,1,2000.000000,1,COMPLETED_SUCCESSFULLY,1899.815313,43.399999,1943.215312,1898.818228,1942.218227,44.751573,0,-1.000000,""
184,w0,python3action_modeltraining_reviews100mb,0.000000,1,-1.000000,1,COMPLETED_SUCCESSFULLY,1943.215327,0.000010,1943.215337,1943.215327,1943.215337,194321533.700201,0,-1.000000,""
162_updated,w0,python3action_facedetection_SampleVideo_30mb_nova,0.997085,1,2000.000000,1,COMPLETED_SUCCESSFULLY,1795.902246,160.399990,1956.302237,1794.905161,1955.305152,12.190182,6,-1.000000,""
162,w0,python3action_facedetection_SampleVideo_30mb,0.000000,1,-1.000000,1,COMPLETED_SUCCESSFULLY,1956.302252,0.000010,1956.302262,1956.302252,1956.302262,195630226.200201,6,-1.000000,""
83_updated,w0,python3action_imageprocessing_SampleImage_40mb_taurus,0.997085,1,2000.000000,1,COMPLETED_SUCCESSFULLY,1926.147747,32.600046,1958.747793,1925.150662,1957.750708,60.053618,2,-1.000000,""
83,w0,python3action_imageprocessing_SampleImage_40mb,0.000000,1,-1.000000,1,COMPLETED_SUCCESSFULLY,1958.747808,0.000010,1958.747818,1958.747808,1958.747818,195874781.813881,2,-1.000000,""
185_updated,w0,python3action_modeltraining_reviews50mb_neowise,0.997085,1,2000.000000,1,COMPLETED_SUCCESSFULLY,1943.215357,22.799998,1966.015355,1942.218272,1965.018270,86.185020,0,-1.000000,""
185,w0,python3action_modeltraining_reviews50mb,0.000000,1,-1.000000,1,COMPLETED_SUCCESSFULLY,1966.015370,0.000010,1966.015380,1966.015370,1966.015380,196601538.000201,0,-1.000000,""
86_updated,w0,python3action_imageprocessing_SampleImage_40mb_taurus,0.997085,1,2000.000000,1,COMPLETED_SUCCESSFULLY,1958.747838,32.600046,1991.347884,1957.750753,1990.350799,61.053619,2,-1.000000,""
86,w0,python3action_imageprocessing_SampleImage_40mb,0.000000,1,-1.000000,1,COMPLETED_SUCCESSFULLY,1991.347899,0.000010,1991.347909,1991.347899,1991.347909,199134790.927562,2,-1.000000,""
95_updated,w0,python3action_imageprocessing_SampleImage_40mb_taurus,0.997085,1,2000.000000,1,COMPLETED_SUCCESSFULLY,1991.347929,32.600046,2023.947975,1990.350844,2022.950890,62.053620,2,-1.000000,""
95,w0,python3action_imageprocessing_SampleImage_40mb,0.000000,1,-1.000000,1,COMPLETED_SUCCESSFULLY,2023.947990,0.000010,2023.948000,2023.947990,2023.948000,202394800.041242,2,-1.000000,""
144_updated,w0,python3action_imageprocessing_SampleImage_40mb_taurus,0.997085,1,2000.000000,1,COMPLETED_SUCCESSFULLY,2023.948020,32.600046,2056.548067,2022.950935,2055.550982,63.053622,2,-1.000000,""
144,w0,python3action_imageprocessing_SampleImage_40mb,0.000000,1,-1.000000,1,COMPLETED_SUCCESSFULLY,2056.548082,0.000010,2056.548092,2056.548082,2056.548092,205654809.200201,2,-1.000000,""
160_updated,w0,python3action_imageprocessing_SampleImage_40mb_taurus,0.997085,1,2000.000000,1,COMPLETED_SUCCESSFULLY,2056.548112,32.600046,2089.148158,2055.551027,2088.151073,64.053623,2,-1.000000,""
160,w0,python3action_imageprocessing_SampleImage_40mb,0.000000,1,-1.000000,1,COMPLETED_SUCCESSFULLY,2089.148173,0.000010,2089.148183,2089.148173,2089.148183,208914818.313881,2,-1.000000,""
190_updated,w0,python3action_facedetection_SampleVideo_30mb_nova,0.997085,1,2000.000000,1,COMPLETED_SUCCESSFULLY,1956.302282,160.399990,2116.702272,1955.305197,2115.705187,13.190183,6,-1.000000,""
190,w0,python3action_facedetection_SampleVideo_30mb,0.000000,1,-1.000000,1,COMPLETED_SUCCESSFULLY,2116.702287,0.000010,2116.702297,2116.702287,2116.702297,211670229.723907,6,-1.000000,""
python3action_floatoperation_job10_5,w0,python3action_floatoperation,0.997085,1,2000.000000,1,COMPLETED_SUCCESSFULLY,2116.702317,2.439945,2119.142263,2115.705232,2118.145178,868.111749,6,-1.000000,""
176_updated,w0,python3action_imageprocessing_SampleImage_40mb_taurus,0.997085,1,2000.000000,1,COMPLETED_SUCCESSFULLY,2089.148203,32.600046,2121.748249,2088.151118,2120.751164,65.053625,2,-1.000000,""
176,w0,python3action_imageprocessing_SampleImage_40mb,0.000000,1,-1.000000,1,COMPLETED_SUCCESSFULLY,2121.748264,0.000010,2121.748274,2121.748264,2121.748274,212174827.427562,2,-1.000000,""
197_updated,w0,python3action_imageprocessing_SampleImage_40mb_taurus,0.997085,1,2000.000000,1,COMPLETED_SUCCESSFULLY,2121.748294,32.600046,2154.348340,2120.751209,2153.351255,66.053626,2,-1.000000,""
197,w0,python3action_imageprocessing_SampleImage_40mb,0.000000,1,-1.000000,1,COMPLETED_SUCCESSFULLY,2154.348355,0.000010,2154.348365,2154.348355,2154.348365,215434836.541243,2,-1.000000,""
python3action_linpack_job38_2,w0,python3action_linpack,0.997085,1,2000.000000,1,COMPLETED_SUCCESSFULLY,2154.348385,5.760927,2160.109313,2153.351300,2159.112228,374.785541,2,-1.000000,""
10_updated,w0,python3action_floatoperation_200000000_nova,0.997085,1,2000.000000,1,COMPLETED_SUCCESSFULLY,2119.142278,135.399990,2254.542268,2118.145193,2253.545183,16.643614,6,-1.000000,""
10,w0,python3action_floatoperation_200000000,0.000000,1,-1.000000,1,COMPLETED_SUCCESSFULLY,2254.542283,0.000010,2254.542293,2254.542283,2254.542293,225454229.323505,6,-1.000000,""
38_updated,w0,python3action_linpack_6000_taurus,0.997085,1,2000.000000,1,COMPLETED_SUCCESSFULLY,2160.109328,157.600046,2317.709374,2159.112243,2316.712289,14.699947,2,-1.000000,""
38,w0,python3action_linpack_6000,0.000000,1,-1.000000,1,COMPLETED_SUCCESSFULLY,2317.709389,0.000010,2317.709399,2317.709389,2317.709399,231770939.913480,2,-1.000000,""
12_updated,w0,python3action_floatoperation_200000000_nova,0.997085,1,2000.000000,1,COMPLETED_SUCCESSFULLY,2254.542313,135.399990,2389.942303,2253.545228,2388.945218,17.643614,6,-1.000000,""
12,w0,python3action_floatoperation_200000000,0.000000,1,-1.000000,1,COMPLETED_SUCCESSFULLY,2389.942318,0.000010,2389.942328,2389.942318,2389.942328,238994232.847212,6,-1.000000,""
56_updated,w0,python3action_linpack_6000_taurus,0.997085,1,2000.000000,1,COMPLETED_SUCCESSFULLY,2317.709419,157.600046,2475.309465,2316.712334,2474.312380,15.699947,2,-1.000000,""
56,w0,python3action_linpack_6000,0.000000,1,-1.000000,1,COMPLETED_SUCCESSFULLY,2475.309480,0.000010,2475.309490,2475.309480,2475.309490,247530949.027160,2,-1.000000,""
15_updated,w0,python3action_floatoperation_200000000_nova,0.997085,1,2000.000000,1,COMPLETED_SUCCESSFULLY,2389.942348,135.399990,2525.342339,2388.945263,2524.345254,18.643615,6,-1.000000,""
15,w0,python3action_floatoperation_200000000,0.000000,1,-1.000000,1,COMPLETED_SUCCESSFULLY,2525.342354,0.000010,2525.342364,2525.342354,2525.342364,252534236.400201,6,-1.000000,""
67_updated,w0,python3action_linpack_6000_taurus,0.997085,1,2000.000000,1,COMPLETED_SUCCESSFULLY,2475.309510,157.600046,2632.909556,2474.312425,2631.912471,16.699947,2,-1.000000,""
67,w0,python3action_linpack_6000,0.000000,1,-1.000000,1,COMPLETED_SUCCESSFULLY,2632.909571,0.000010,2632.909581,2632.909571,2632.909581,263290958.140841,2,-1.000000,""
42_updated,w0,python3action_floatoperation_200000000_nova,0.997085,1,2000.000000,1,COMPLETED_SUCCESSFULLY,2525.342384,135.399990,2660.742374,2524.345299,2659.745289,19.643615,6,-1.000000,""
42,w0,python3action_floatoperation_200000000,0.000000,1,-1.000000,1,COMPLETED_SUCCESSFULLY,2660.742389,0.000010,2660.742399,2660.742389,2660.742399,266074239.923907,6,-1.000000,""
61_updated,w0,python3action_floatoperation_100000000_nova,0.997085,1,2000.000000,1,COMPLETED_SUCCESSFULLY,2660.742419,66.200020,2726.942439,2659.745334,2725.945354,41.177410,6,-1.000000,""
61,w0,python3action_floatoperation_100000000,0.000000,1,-1.000000,1,COMPLETED_SUCCESSFULLY,2726.942454,0.000010,2726.942464,2726.942454,2726.942464,272694246.400201,6,-1.000000,""
68_updated,w0,python3action_linpack_6000_taurus,0.997085,1,2000.000000,1,COMPLETED_SUCCESSFULLY,2632.909601,157.600046,2790.509648,2631.912516,2789.512563,17.699948,2,-1.000000,""
68,w0,python3action_linpack_6000,0.000000,1,-1.000000,1,COMPLETED_SUCCESSFULLY,2790.509663,0.000010,2790.509673,2790.509663,2790.509673,279050967.300201,2,-1.000000,""
63_updated,w0,python3action_floatoperation_100000000_nova,0.997085,1,2000.000000,1,COMPLETED_SUCCESSFULLY,2726.942484,66.200020,2793.142504,2725.945399,2792.145419,42.177411,6,-1.000000,""
63,w0,python3action_floatoperation_100000000,0.000000,1,-1.000000,1,COMPLETED_SUCCESSFULLY,2793.142519,0.000010,2793.142529,2793.142519,2793.142529,279314252.900201,6,-1.000000,""
69_updated,w0,python3action_floatoperation_200000000_nova,0.997085,1,2000.000000,1,COMPLETED_SUCCESSFULLY,2793.142549,135.399990,2928.542539,2792.145464,2927.545454,21.621460,6,-1.000000,""
69,w0,python3action_floatoperation_200000000,0.000000,1,-1.000000,1,COMPLETED_SUCCESSFULLY,2928.542554,0.000010,2928.542564,2928.542554,2928.542564,292854256.423907,6,-1.000000,""
173_updated,w0,python3action_linpack_6000_taurus,0.997085,1,2000.000000,1,COMPLETED_SUCCESSFULLY,2790.509693,157.600046,2948.109739,2789.512608,2947.112654,18.699948,2,-1.000000,""
173,w0,python3action_linpack_6000,0.000000,1,-1.000000,1,COMPLETED_SUCCESSFULLY,2948.109754,0.000010,2948.109764,2948.109754,2948.109764,294810976.413882,2,-1.000000,""
python3action_video_processing_job20_2,w0,python3action_video_processing_reduced_1.83,0.997085,1,2000.000000,1,COMPLETED_SUCCESSFULLY,2948.109784,0.000000,2948.109784,2947.112699,2947.112699,281772580962945.062500,2,-1.000000,""
70_updated,w0,python3action_floatoperation_200000000_nova,0.997085,1,2000.000000,1,COMPLETED_SUCCESSFULLY,2928.542584,135.399990,3063.942574,2927.545499,3062.945489,22.621460,6,-1.000000,""
70,w0,python3action_floatoperation_200000000,0.000000,1,-1.000000,1,COMPLETED_SUCCESSFULLY,3063.942589,0.000010,3063.942599,3063.942589,3063.942599,306394259.947613,6,-1.000000,""
20_updated,w0,python3action_videoprocessing_SampleVideo_50mb_taurus,0.997085,1,2000.000000,1,COMPLETED_SUCCESSFULLY,2948.109814,154.250029,3102.359843,2947.112729,3101.362758,20.106076,2,-1.000000,""
20,w0,python3action_videoprocessing_SampleVideo_50mb,0.000000,1,-1.000000,1,COMPLETED_SUCCESSFULLY,3102.359858,0.000010,3102.359868,3102.359858,3102.359868,310235986.800201,2,-1.000000,""
94_updated,w0,python3action_floatoperation_100000000_nova,0.997085,1,2000.000000,1,COMPLETED_SUCCESSFULLY,3063.942619,66.200020,3130.142639,3062.945534,3129.145554,47.268046,6,-1.000000,""
94,w0,python3action_floatoperation_100000000,0.000000,1,-1.000000,1,COMPLETED_SUCCESSFULLY,3130.142654,0.000010,3130.142664,3130.142654,3130.142664,313014266.402009,6,-1.000000,""
34_updated,w0,python3action_videoprocessing_SampleVideo_50mb_taurus,0.997085,1,2000.000000,1,COMPLETED_SUCCESSFULLY,3102.359888,154.250029,3256.609917,3101.362803,3255.612832,21.106076,2,-1.000000,""
34,w0,python3action_videoprocessing_SampleVideo_50mb,0.000000,1,-1.000000,1,COMPLETED_SUCCESSFULLY,3256.609932,0.000010,3256.609942,3256.609932,3256.609942,325660994.200201,2,-1.000000,""
99_updated,w0,python3action_floatoperation_200000000_nova,0.997085,1,2000.000000,1,COMPLETED_SUCCESSFULLY,3130.142684,135.399990,3265.542674,3129.145599,3264.545589,24.110383,6,-1.000000,""
99,w0,python3action_floatoperation_200000000,0.000000,1,-1.000000,1,COMPLETED_SUCCESSFULLY,3265.542689,0.000010,3265.542699,3265.542689,3265.542699,326554269.925715,6,-1.000000,""
114_updated,w0,python3action_floatoperation_100000000_nova,0.997085,1,2000.000000,1,COMPLETED_SUCCESSFULLY,3265.542719,66.200020,3331.742739,3264.545634,3330.745654,50.313364,6,-1.000000,""
114,w0,python3action_floatoperation_100000000,0.000000,1,-1.000000,1,COMPLETED_SUCCESSFULLY,3331.742754,0.000010,3331.742764,3331.742754,3331.742764,333174276.400201,6,-1.000000,""
129_updated,w0,python3action_floatoperation_100000000_nova,0.997085,1,2000.000000,1,COMPLETED_SUCCESSFULLY,3331.742784,66.200020,3397.942804,3330.745699,3396.945719,51.313364,6,-1.000000,""
129,w0,python3action_floatoperation_100000000,0.000000,1,-1.000000,1,COMPLETED_SUCCESSFULLY,3397.942819,0.000010,3397.942829,3397.942819,3397.942829,339794282.900201,6,-1.000000,""
47_updated,w0,python3action_videoprocessing_SampleVideo_50mb_taurus,0.997085,1,2000.000000,1,COMPLETED_SUCCESSFULLY,3256.609962,154.250029,3410.859991,3255.612877,3409.862906,22.106076,2,-1.000000,""
47,w0,python3action_videoprocessing_SampleVideo_50mb,0.000000,1,-1.000000,1,COMPLETED_SUCCESSFULLY,3410.860006,0.000010,3410.860016,3410.860006,3410.860016,341086001.600201,2,-1.000000,""
139_updated,w0,python3action_floatoperation_100000000_nova,0.997085,1,2000.000000,1,COMPLETED_SUCCESSFULLY,3397.942849,66.200020,3464.142869,3396.945764,3463.145784,52.313365,6,-1.000000,""
139,w0,python3action_floatoperation_100000000,0.000000,1,-1.000000,1,COMPLETED_SUCCESSFULLY,3464.142884,0.000010,3464.142894,3464.142884,3464.142894,346414289.400201,6,-1.000000,""
142_updated,w0,python3action_floatoperation_100000000_nova,0.997085,1,2000.000000,1,COMPLETED_SUCCESSFULLY,3464.142914,66.200020,3530.342934,3463.145829,3529.345849,53.313366,6,-1.000000,""
142,w0,python3action_floatoperation_100000000,0.000000,1,-1.000000,1,COMPLETED_SUCCESSFULLY,3530.342949,0.000010,3530.342959,3530.342949,3530.342959,353034295.900201,6,-1.000000,""
66_updated,w0,python3action_videoprocessing_SampleVideo_50mb_taurus,0.997085,1,2000.000000,1,COMPLETED_SUCCESSFULLY,3410.860036,154.250029,3565.110065,3409.862951,3564.112980,23.106077,2,-1.000000,""
66,w0,python3action_videoprocessing_SampleVideo_50mb,0.000000,1,-1.000000,1,COMPLETED_SUCCESSFULLY,3565.110080,0.000010,3565.110090,3565.110080,3565.110090,356511009.000201,2,-1.000000,""
143_updated,w0,python3action_floatoperation_100000000_nova,0.997085,1,2000.000000,1,COMPLETED_SUCCESSFULLY,3530.342979,66.200020,3596.542999,3529.345894,3595.545914,54.313366,6,-1.000000,""
143,w0,python3action_floatoperation_100000000,0.000000,1,-1.000000,1,COMPLETED_SUCCESSFULLY,3596.543014,0.000010,3596.543024,3596.543014,3596.543024,359654302.400201,6,-1.000000,""
148_updated,w0,python3action_floatoperation_100000000_nova,0.997085,1,2000.000000,1,COMPLETED_SUCCESSFULLY,3596.543044,66.200020,3662.743064,3595.545959,3661.745979,55.313367,6,-1.000000,""
148,w0,python3action_floatoperation_100000000,0.000000,1,-1.000000,1,COMPLETED_SUCCESSFULLY,3662.743079,0.000010,3662.743089,3662.743079,3662.743089,366274308.900201,6,-1.000000,""
150_updated,w0,python3action_videoprocessing_SampleVideo_50mb_taurus,0.997085,1,2000.000000,1,COMPLETED_SUCCESSFULLY,3565.110110,154.250029,3719.360139,3564.113025,3718.363054,24.106077,2,-1.000000,""
150,w0,python3action_videoprocessing_SampleVideo_50mb,0.000000,1,-1.000000,1,COMPLETED_SUCCESSFULLY,3719.360154,0.000010,3719.360164,3719.360154,3719.360164,371936016.400201,2,-1.000000,""
156_updated,w0,python3action_floatoperation_200000000_nova,0.997085,1,2000.000000,1,COMPLETED_SUCCESSFULLY,3662.743109,135.399990,3798.143099,3661.746024,3797.146014,28.043916,6,-1.000000,""
156,w0,python3action_floatoperation_200000000,0.000000,1,-1.000000,1,COMPLETED_SUCCESSFULLY,3798.143114,0.000010,3798.143124,3798.143114,3798.143124,379814312.423907,6,-1.000000,""
193_updated,w0,python3action_videoprocessing_SampleVideo_50mb_taurus,0.997085,1,2000.000000,1,COMPLETED_SUCCESSFULLY,3719.360184,154.250029,3873.610213,3718.363099,3872.613128,25.106077,2,-1.000000,""
193,w0,python3action_videoprocessing_SampleVideo_50mb,0.000000,1,-1.000000,1,COMPLETED_SUCCESSFULLY,3873.610228,0.000010,3873.610238,3873.610228,3873.610238,387361023.800201,2,-1.000000,""
163_updated,w0,python3action_floatoperation_200000000_nova,0.997085,1,2000.000000,1,COMPLETED_SUCCESSFULLY,3798.143144,135.399990,3933.543134,3797.146059,3932.546049,29.043917,6,-1.000000,""
163,w0,python3action_floatoperation_200000000,0.000000,1,-1.000000,1,COMPLETED_SUCCESSFULLY,3933.543149,0.000010,3933.543159,3933.543149,3933.543159,393354315.947613,6,-1.000000,""
169_updated,w0,python3action_floatoperation_200000000_nova,0.997085,1,2000.000000,1,COMPLETED_SUCCESSFULLY,3933.543179,135.399990,4068.943170,3932.546094,4067.946085,30.043917,6,-1.000000,""
169,w0,python3action_floatoperation_200000000,0.000000,1,-1.000000,1,COMPLETED_SUCCESSFULLY,4068.943185,0.000010,4068.943195,4068.943185,4068.943195,406894319.500201,6,-1.000000,""
177_updated,w0,python3action_floatoperation_100000000_nova,0.997085,1,2000.000000,1,COMPLETED_SUCCESSFULLY,4068.943215,66.200020,4135.143235,4067.946130,4134.146150,62.449319,6,-1.000000,""
177,w0,python3action_floatoperation_100000000,0.000000,1,-1.000000,1,COMPLETED_SUCCESSFULLY,4135.143250,0.000010,4135.143260,4135.143250,4135.143260,413514326.000201,6,-1.000000,""
187_updated,w0,python3action_floatoperation_100000000_nova,0.997085,1,2000.000000,1,COMPLETED_SUCCESSFULLY,4135.143280,66.200020,4201.343300,4134.146195,4200.346215,63.449320,6,-1.000000,""
187,w0,python3action_floatoperation_100000000,0.000000,1,-1.000000,1,COMPLETED_SUCCESSFULLY,4201.343315,0.000010,4201.343325,4201.343315,4201.343325,420134332.500201,6,-1.000000,""
191_updated,w0,python3action_floatoperation_100000000_nova,0.997085,1,2000.000000,1,COMPLETED_SUCCESSFULLY,4201.343345,66.200020,4267.543365,4200.346260,4266.546280,64.449321,6,-1.000000,""
191,w0,python3action_floatoperation_100000000,0.000000,1,-1.000000,1,COMPLETED_SUCCESSFULLY,4267.543380,0.000010,4267.543390,4267.543380,4267.543390,426754339.000201,6,-1.000000,""
python3action_video_processing_job4_5,w0,python3action_video_processing_reduced_0.91,0.997085,1,2000.000000,1,COMPLETED_SUCCESSFULLY,4267.543410,0.000000,4267.543410,4266.546325,4266.546325,938223458957817.750000,6,-1.000000,""
4_updated,w0,python3action_videoprocessing_SampleVideo_50mb_nova,0.997085,1,2000.000000,1,COMPLETED_SUCCESSFULLY,4267.543440,139.600010,4407.143450,4266.546355,4406.146365,31.562651,6,-1.000000,""
4,w0,python3action_videoprocessing_SampleVideo_50mb,0.000000,1,-1.000000,1,COMPLETED_SUCCESSFULLY,4407.143465,0.000010,4407.143475,4407.143465,4407.143475,440714347.500201,6,-1.000000,""
7_updated,w0,python3action_videoprocessing_SampleVideo_50mb_nova,0.997085,1,2000.000000,1,COMPLETED_SUCCESSFULLY,4407.143495,139.600010,4546.743505,4406.146410,4545.746420,32.562651,6,-1.000000,""
7,w0,python3action_videoprocessing_SampleVideo_50mb,0.000000,1,-1.000000,1,COMPLETED_SUCCESSFULLY,4546.743520,0.000010,4546.743530,4546.743520,4546.743530,454674353.000201,6,-1.000000,""
26_updated,w0,python3action_videoprocessing_SampleVideo_50mb_nova,0.997085,1,2000.000000,1,COMPLETED_SUCCESSFULLY,4546.743550,139.600010,4686.343560,4545.746465,4685.346475,33.562651,6,-1.000000,""
26,w0,python3action_videoprocessing_SampleVideo_50mb,0.000000,1,-1.000000,1,COMPLETED_SUCCESSFULLY,4686.343575,0.000010,4686.343585,4686.343575,4686.343585,468634358.500201,6,-1.000000,""
27_updated,w0,python3action_videoprocessing_SampleVideo_30mb_nova,0.997085,1,2000.000000,1,COMPLETED_SUCCESSFULLY,4686.343605,106.799980,4793.143585,4685.346520,4792.146500,44.870294,6,-1.000000,""
27,w0,python3action_videoprocessing_SampleVideo_30mb,0.000000,1,-1.000000,1,COMPLETED_SUCCESSFULLY,4793.143600,0.000010,4793.143610,4793.143600,4793.143610,479314361.047010,6,-1.000000,""
43_updated,w0,python3action_videoprocessing_SampleVideo_30mb_nova,0.997085,1,2000.000000,1,COMPLETED_SUCCESSFULLY,4793.143630,106.799980,4899.943611,4792.146545,4898.946526,45.870294,6,-1.000000,""
43,w0,python3action_videoprocessing_SampleVideo_30mb,0.000000,1,-1.000000,1,COMPLETED_SUCCESSFULLY,4899.943626,0.000010,4899.943636,4899.943626,4899.943636,489994363.600201,6,-1.000000,""
55_updated,w0,python3action_videoprocessing_SampleVideo_30mb_nova,0.997085,1,2000.000000,1,COMPLETED_SUCCESSFULLY,4899.943656,106.799980,5006.743636,4898.946571,5005.746551,46.870295,6,-1.000000,""
55,w0,python3action_videoprocessing_SampleVideo_30mb,0.000000,1,-1.000000,1,COMPLETED_SUCCESSFULLY,5006.743651,0.000010,5006.743661,5006.743651,5006.743661,500674366.147010,6,-1.000000,""
79_updated,w0,python3action_videoprocessing_SampleVideo_30mb_nova,0.997085,1,2000.000000,1,COMPLETED_SUCCESSFULLY,5006.743681,106.799980,5113.543662,5005.746596,5112.546577,47.870295,6,-1.000000,""
79,w0,python3action_videoprocessing_SampleVideo_30mb,0.000000,1,-1.000000,1,COMPLETED_SUCCESSFULLY,5113.543677,0.000010,5113.543687,5113.543677,5113.543687,511354368.700201,6,-1.000000,""
80_updated,w0,python3action_videoprocessing_SampleVideo_50mb_nova,0.997085,1,2000.000000,1,COMPLETED_SUCCESSFULLY,5113.543707,139.600010,5253.143717,5112.546622,5252.146632,37.622824,6,-1.000000,""
80,w0,python3action_videoprocessing_SampleVideo_50mb,0.000000,1,-1.000000,1,COMPLETED_SUCCESSFULLY,5253.143732,0.000010,5253.143742,5253.143732,5253.143742,525314374.200201,6,-1.000000,""
85_updated,w0,python3action_videoprocessing_SampleVideo_50mb_nova,0.997085,1,2000.000000,1,COMPLETED_SUCCESSFULLY,5253.143762,139.600010,5392.743772,5252.146677,5391.746687,38.622825,6,-1.000000,""
85,w0,python3action_videoprocessing_SampleVideo_50mb,0.000000,1,-1.000000,1,COMPLETED_SUCCESSFULLY,5392.743787,0.000010,5392.743797,5392.743787,5392.743797,539274379.700201,6,-1.000000,""
116_updated,w0,python3action_videoprocessing_SampleVideo_50mb_nova,0.997085,1,2000.000000,1,COMPLETED_SUCCESSFULLY,5392.743817,139.600010,5532.343827,5391.746732,5531.346742,39.622825,6,-1.000000,""
116,w0,python3action_videoprocessing_SampleVideo_50mb,0.000000,1,-1.000000,1,COMPLETED_SUCCESSFULLY,5532.343842,0.000010,5532.343852,5532.343842,5532.343852,553234385.200201,6,-1.000000,""
131_updated,w0,python3action_videoprocessing_SampleVideo_30mb_nova,0.997085,1,2000.000000,1,COMPLETED_SUCCESSFULLY,5532.343872,106.799980,5639.143852,5531.346787,5638.146767,52.791646,6,-1.000000,""
131,w0,python3action_videoprocessing_SampleVideo_30mb,0.000000,1,-1.000000,1,COMPLETED_SUCCESSFULLY,5639.143867,0.000010,5639.143877,5639.143867,5639.143877,563914387.747010,6,-1.000000,""
138_updated,w0,python3action_videoprocessing_SampleVideo_50mb_nova,0.997085,1,2000.000000,1,COMPLETED_SUCCESSFULLY,5639.143897,139.600010,5778.743907,5638.146812,5777.746822,41.387868,6,-1.000000,""
138,w0,python3action_videoprocessing_SampleVideo_50mb,0.000000,1,-1.000000,1,COMPLETED_SUCCESSFULLY,5778.743922,0.000010,5778.743932,5778.743922,5778.743932,577874393.224509,6,-1.000000,""
147_updated,w0,python3action_videoprocessing_SampleVideo_30mb_nova,0.997085,1,2000.000000,1,COMPLETED_SUCCESSFULLY,5778.743952,106.799980,5885.543933,5777.746867,5884.546848,55.098763,6,-1.000000,""
147,w0,python3action_videoprocessing_SampleVideo_30mb,0.000000,1,-1.000000,1,COMPLETED_SUCCESSFULLY,5885.543948,0.000010,5885.543958,5885.543948,5885.543958,588554395.800201,6,-1.000000,""
158_updated,w0,python3action_videoprocessing_SampleVideo_30mb_nova,0.997085,1,2000.000000,1,COMPLETED_SUCCESSFULLY,5885.543978,106.799980,5992.343958,5884.546893,5991.346873,56.098764,6,-1.000000,""
158,w0,python3action_videoprocessing_SampleVideo_30mb,0.000000,1,-1.000000,1,COMPLETED_SUCCESSFULLY,5992.343973,0.000010,5992.343983,5992.343973,5992.343983,599234398.347010,6,-1.000000,""
165_updated,w0,python3action_videoprocessing_SampleVideo_50mb_nova,0.997085,1,2000.000000,1,COMPLETED_SUCCESSFULLY,5992.344003,139.600010,6131.944013,5991.346918,6130.946928,43.917955,6,-1.000000,""
165,w0,python3action_videoprocessing_SampleVideo_50mb,0.000000,1,-1.000000,1,COMPLETED_SUCCESSFULLY,6131.944028,0.000010,6131.944038,6131.944028,6131.944038,613194403.824509,6,-1.000000,""
180_updated,w0,python3action_videoprocessing_SampleVideo_30mb_nova,0.997085,1,2000.000000,1,COMPLETED_SUCCESSFULLY,6131.944058,106.799980,6238.744039,6130.946973,6237.746954,58.405881,6,-1.000000,""
180,w0,python3action_videoprocessing_SampleVideo_30mb,0.000000,1,-1.000000,1,COMPLETED_SUCCESSFULLY,6238.744054,0.000010,6238.744064,6238.744054,6238.744064,623874406.400201,6,-1.000000,""
188_updated,w0,python3action_videoprocessing_SampleVideo_30mb_nova,0.997085,1,2000.000000,1,COMPLETED_SUCCESSFULLY,6238.744084,106.799980,6345.544064,6237.746999,6344.546979,59.405881,6,-1.000000,""
188,w0,python3action_videoprocessing_SampleVideo_30mb,0.000000,1,-1.000000,1,COMPLETED_SUCCESSFULLY,6345.544079,0.000010,6345.544089,6345.544079,6345.544089,634554408.947010,6,-1.000000,""
192_updated,w0,python3action_videoprocessing_SampleVideo_30mb_nova,0.997085,1,2000.000000,1,COMPLETED_SUCCESSFULLY,6345.544109,106.799980,6452.344090,6344.547024,6451.347005,60.405882,6,-1.000000,""
192,w0,python3action_videoprocessing_SampleVideo_30mb,0.000000,1,-1.000000,1,COMPLETED_SUCCESSFULLY,6452.344105,0.000010,6452.344115,6452.344105,6452.344115,645234411.500201,6,-1.000000,""
196_updated,w0,python3action_videoprocessing_SampleVideo_50mb_nova,0.997085,1,2000.000000,1,COMPLETED_SUCCESSFULLY,6452.344135,139.600010,6591.944145,6451.347050,6590.947060,47.213085,6,-1.000000,""
196,w0,python3action_videoprocessing_SampleVideo_50mb,0.000000,1,-1.000000,1,COMPLETED_SUCCESSFULLY,6591.944160,0.000010,6591.944170,6591.944160,6591.944170,659194417.000201,6,-1.000000,""
199_updated,w0,python3action_videoprocessing_SampleVideo_30mb_nova,0.997085,1,2000.000000,1,COMPLETED_SUCCESSFULLY,6591.944190,106.799980,6698.744170,6590.947105,6697.747085,62.712999,6,-1.000000,""
199,w0,python3action_videoprocessing_SampleVideo_30mb,0.000000,1,-1.000000,1,COMPLETED_SUCCESSFULLY,6698.744185,0.000010,6698.744195,6698.744185,6698.744195,669874419.547010,6,-1.000000,""
