job_id,workload_name,profile,submission_time,requested_number_of_resources,requested_time,success,final_state,starting_time,execution_time,finish_time,waiting_time,turnaround_time,stretch,allocated_resources,consumed_energy,metadata
python3action_chameleon_job0_3,w0,python3action_chameleon,0.997085,1,2000.000000,1,COMPLETED_SUCCESSFULLY,1.002145,0.867914,1.870059,0.005060,0.872974,1.005830,44,-1.000000,""
python3action_chameleon_job4_2,w0,python3action_chameleon,0.997085,1,2000.000000,1,COMPLETED_SUCCESSFULLY,1.002130,5.040826,6.042956,0.005045,5.045871,1.001001,29,-1.000000,""
python3action_linpack_job29_1,w0,python3action_linpack,0.997085,1,2000.000000,1,COMPLETED_SUCCESSFULLY,1.002115,5.760927,6.763042,0.005030,5.765957,1.000873,26,-1.000000,""
python3action_facedetection_job14_0,w0,python3action_facedetection,0.997085,1,2000.000000,1,COMPLETED_SUCCESSFULLY,1.002100,30.499683,31.501783,0.005015,30.504698,1.000164,2,-1.000000,""
4_updated,w0,python3action_chameleon_2000_taurus,0.997085,1,2000.000000,1,COMPLETED_SUCCESSFULLY,6.042971,64.199977,70.242948,5.045886,69.245863,1.078596,29,-1.000000,""
4,w0,python3action_chameleon_2000,0.000000,1,-1.000000,1,COMPLETED_SUCCESSFULLY,70.242963,0.000010,70.242973,70.242963,70.242973,7024297.300201,29,-1.000000,""
0_updated,w0,python3action_chameleon_3000_troll,0.997085,1,2000.000000,1,COMPLETED_SUCCESSFULLY,1.870074,94.000000,95.870074,0.872989,94.872989,1.009287,44,-1.000000,""
0,w0,python3action_chameleon_3000,0.000000,1,-1.000000,1,COMPLETED_SUCCESSFULLY,95.870089,0.000010,95.870099,95.870089,95.870099,9587009.900402,44,-1.000000,""
29_updated,w0,python3action_linpack_6000_orion,0.997085,1,2000.000000,1,COMPLETED_SUCCESSFULLY,6.763057,106.000000,112.763057,5.765972,111.765972,1.054396,26,-1.000000,""
29,w0,python3action_linpack_6000,0.000000,1,-1.000000,1,COMPLETED_SUCCESSFULLY,112.763072,0.000010,112.763082,112.763072,112.763082,11276308.223673,26,-1.000000,""
9_updated,w0,python3action_chameleon_2000_taurus,0.997085,1,2000.000000,1,COMPLETED_SUCCESSFULLY,70.242993,64.199977,134.442970,69.245908,133.445885,2.078597,29,-1.000000,""
9,w0,python3action_chameleon_2000,0.000000,1,-1.000000,1,COMPLETED_SUCCESSFULLY,134.442985,0.000010,134.442995,134.442985,134.442995,13444299.500201,29,-1.000000,""
19_updated,w0,python3action_chameleon_3000_troll,0.997085,1,2000.000000,1,COMPLETED_SUCCESSFULLY,95.870119,94.000000,189.870119,94.873034,188.873034,2.009288,44,-1.000000,""
19,w0,python3action_chameleon_3000,0.000000,1,-1.000000,1,COMPLETED_SUCCESSFULLY,189.870134,0.000010,189.870144,189.870134,189.870144,18987014.401004,44,-1.000000,""
14_updated,w0,python3action_facedetection_SampleVideo_30mb_nova,0.997085,1,2000.000000,1,COMPLETED_SUCCESSFULLY,31.501798,160.399990,191.901788,30.504713,190.904703,1.190179,2,-1.000000,""
14,w0,python3action_facedetection_SampleVideo_30mb,0.000000,1,-1.000000,1,COMPLETED_SUCCESSFULLY,191.901803,0.000010,191.901813,191.901803,191.901813,19190181.323505,2,-1.000000,""
18_updated,w0,python3action_chameleon_2000_taurus,0.997085,1,2000.000000,1,COMPLETED_SUCCESSFULLY,134.443015,64.199977,198.642992,133.445930,197.645907,3.078598,29,-1.000000,""
18,w0,python3action_chameleon_2000,0.000000,1,-1.000000,1,COMPLETED_SUCCESSFULLY,198.643007,0.000010,198.643017,198.643007,198.643017,19864301.700201,29,-1.000000,""
36_updated,w0,python3action_linpack_6000_orion,0.997085,1,2000.000000,1,COMPLETED_SUCCESSFULLY,112.763102,106.000000,218.763102,111.766017,217.766017,2.054396,26,-1.000000,""
36,w0,python3action_linpack_6000,0.000000,1,-1.000000,1,COMPLETED_SUCCESSFULLY,218.763117,0.000010,218.763127,218.763117,218.763127,21876312.724275,26,-1.000000,""
22_updated,w0,python3action_chameleon_2000_taurus,0.997085,1,2000.000000,1,COMPLETED_SUCCESSFULLY,198.643037,64.199977,262.843014,197.645952,261.845929,4.078598,29,-1.000000,""
22,w0,python3action_chameleon_2000,0.000000,1,-1.000000,1,COMPLETED_SUCCESSFULLY,262.843029,0.000010,262.843039,262.843029,262.843039,26284303.900201,29,-1.000000,""
39_updated,w0,python3action_chameleon_3000_troll,0.997085,1,2000.000000,1,COMPLETED_SUCCESSFULLY,189.870164,94.000000,283.870164,188.873079,282.873079,3.009288,44,-1.000000,""
39,w0,python3action_chameleon_3000,0.000000,1,-1.000000,1,COMPLETED_SUCCESSFULLY,283.870179,0.000010,283.870189,283.870179,283.870189,28387018.901606,44,-1.000000,""
50_updated,w0,python3action_linpack_6000_orion,0.997085,1,2000.000000,1,COMPLETED_SUCCESSFULLY,218.763147,106.000000,324.763147,217.766062,323.766062,3.054397,26,-1.000000,""
50,w0,python3action_linpack_6000,0.000000,1,-1.000000,1,COMPLETED_SUCCESSFULLY,324.763162,0.000010,324.763172,324.763162,324.763172,32476317.224877,26,-1.000000,""
25_updated,w0,python3action_chameleon_2000_taurus,0.997085,1,2000.000000,1,COMPLETED_SUCCESSFULLY,262.843059,64.199977,327.043036,261.845974,326.045951,5.078599,29,-1.000000,""
25,w0,python3action_chameleon_2000,0.000000,1,-1.000000,1,COMPLETED_SUCCESSFULLY,327.043051,0.000010,327.043061,327.043051,327.043061,32704306.100201,29,-1.000000,""
16_updated,w0,python3action_facedetection_SampleVideo_30mb_nova,0.997085,1,2000.000000,1,COMPLETED_SUCCESSFULLY,191.901833,160.399990,352.301823,190.904748,351.304738,2.190179,2,-1.000000,""
16,w0,python3action_facedetection_SampleVideo_30mb,0.000000,1,-1.000000,1,COMPLETED_SUCCESSFULLY,352.301838,0.000010,352.301848,352.301838,352.301848,35230184.847211,2,-1.000000,""
147_updated,w0,python3action_chameleon_3000_troll,0.997085,1,2000.000000,1,COMPLETED_SUCCESSFULLY,283.870209,94.000000,377.870209,282.873124,376.873124,4.009289,44,-1.000000,""
147,w0,python3action_chameleon_3000,0.000000,1,-1.000000,1,COMPLETED_SUCCESSFULLY,377.870224,0.000010,377.870234,377.870224,377.870234,37787023.402209,44,-1.000000,""
54_updated,w0,python3action_chameleon_2000_taurus,0.997085,1,2000.000000,1,COMPLETED_SUCCESSFULLY,327.043081,64.199977,391.243058,326.045996,390.245973,6.078600,29,-1.000000,""
54,w0,python3action_chameleon_2000,0.000000,1,-1.000000,1,COMPLETED_SUCCESSFULLY,391.243073,0.000010,391.243083,391.243073,391.243083,39124308.300201,29,-1.000000,""
57_updated,w0,python3action_linpack_6000_orion,0.997085,1,2000.000000,1,COMPLETED_SUCCESSFULLY,324.763192,106.000000,430.763192,323.766107,429.766107,4.054397,26,-1.000000,""
57,w0,python3action_linpack_6000,0.000000,1,-1.000000,1,COMPLETED_SUCCESSFULLY,430.763207,0.000010,430.763217,430.763207,430.763217,43076321.725480,26,-1.000000,""
58_updated,w0,python3action_chameleon_2000_taurus,0.997085,1,2000.000000,1,COMPLETED_SUCCESSFULLY,391.243103,64.199977,455.443080,390.246018,454.445995,7.078601,29,-1.000000,""
58,w0,python3action_chameleon_2000,0.000000,1,-1.000000,1,COMPLETED_SUCCESSFULLY,455.443095,0.000010,455.443105,455.443095,455.443105,45544310.500201,29,-1.000000,""
167_updated,w0,python3action_chameleon_3000_troll,0.997085,1,2000.000000,1,COMPLETED_SUCCESSFULLY,377.870254,94.000000,471.870254,376.873169,470.873169,5.009289,44,-1.000000,""
167,w0,python3action_chameleon_3000,0.000000,1,-1.000000,1,COMPLETED_SUCCESSFULLY,471.870269,0.000010,471.870279,471.870269,471.870279,47187027.902811,44,-1.000000,""
68_updated,w0,python3action_facedetection_SampleVideo_30mb_nova,0.997085,1,2000.000000,1,COMPLETED_SUCCESSFULLY,352.301868,160.399990,512.701859,351.304783,511.704774,3.190180,2,-1.000000,""
68,w0,python3action_facedetection_SampleVideo_30mb,0.000000,1,-1.000000,1,COMPLETED_SUCCESSFULLY,512.701874,0.000010,512.701884,512.701874,512.701884,51270188.400201,2,-1.000000,""
93_updated,w0,python3action_chameleon_2000_taurus,0.997085,1,2000.000000,1,COMPLETED_SUCCESSFULLY,455.443125,64.199977,519.643102,454.446040,518.646017,8.078601,29,-1.000000,""
93,w0,python3action_chameleon_2000,0.000000,1,-1.000000,1,COMPLETED_SUCCESSFULLY,519.643117,0.000010,519.643127,519.643117,519.643127,51964312.700201,29,-1.000000,""
67_updated,w0,python3action_linpack_6000_orion,0.997085,1,2000.000000,1,COMPLETED_SUCCESSFULLY,430.763237,106.000000,536.763237,429.766152,535.766152,5.054398,26,-1.000000,""
67,w0,python3action_linpack_6000,0.000000,1,-1.000000,1,COMPLETED_SUCCESSFULLY,536.763252,0.000010,536.763262,536.763252,536.763262,53676326.226082,26,-1.000000,""
171_updated,w0,python3action_chameleon_3000_troll,0.997085,1,2000.000000,1,COMPLETED_SUCCESSFULLY,471.870299,94.000000,565.870299,470.873214,564.873214,6.009290,44,-1.000000,""
171,w0,python3action_chameleon_3000,0.000000,1,-1.000000,1,COMPLETED_SUCCESSFULLY,565.870314,0.000010,565.870324,565.870314,565.870324,56587032.403414,44,-1.000000,""
python3action_image_processing_job8_4,w0,python3action_image_processing,0.997085,1,2000.000000,1,COMPLETED_SUCCESSFULLY,565.870344,12.398880,578.269224,564.873259,577.272139,46.558410,44,-1.000000,""
116_updated,w0,python3action_chameleon_2000_taurus,0.997085,1,2000.000000,1,COMPLETED_SUCCESSFULLY,519.643147,64.199977,583.843124,518.646062,582.846039,9.078602,29,-1.000000,""
116,w0,python3action_chameleon_2000,0.000000,1,-1.000000,1,COMPLETED_SUCCESSFULLY,583.843139,0.000010,583.843149,583.843139,583.843149,58384314.900201,29,-1.000000,""
8_updated,w0,python3action_imageprocessing_SampleImage_60mb_troll,0.997085,1,2000.000000,1,COMPLETED_SUCCESSFULLY,578.269239,62.000000,640.269239,577.272154,639.272154,10.310841,44,-1.000000,""
8,w0,python3action_imageprocessing_SampleImage_60mb,0.000000,1,-1.000000,1,COMPLETED_SUCCESSFULLY,640.269254,0.000010,640.269264,640.269254,640.269264,64026926.412795,44,-1.000000,""
77_updated,w0,python3action_linpack_6000_orion,0.997085,1,2000.000000,1,COMPLETED_SUCCESSFULLY,536.763282,106.000000,642.763282,535.766197,641.766197,6.054398,26,-1.000000,""
77,w0,python3action_linpack_6000,0.000000,1,-1.000000,1,COMPLETED_SUCCESSFULLY,642.763297,0.000010,642.763307,642.763297,642.763307,64276330.726685,26,-1.000000,""
120_updated,w0,python3action_chameleon_2000_taurus,0.997085,1,2000.000000,1,COMPLETED_SUCCESSFULLY,583.843169,64.199977,648.043146,582.846084,647.046061,10.078603,29,-1.000000,""
120,w0,python3action_chameleon_2000,0.000000,1,-1.000000,1,COMPLETED_SUCCESSFULLY,648.043161,0.000010,648.043171,648.043161,648.043171,64804317.100201,29,-1.000000,""
76_updated,w0,python3action_facedetection_SampleVideo_30mb_nova,0.997085,1,2000.000000,1,COMPLETED_SUCCESSFULLY,512.701904,160.399990,673.101894,511.704819,672.104809,4.190180,2,-1.000000,""
76,w0,python3action_facedetection_SampleVideo_30mb,0.000000,1,-1.000000,1,COMPLETED_SUCCESSFULLY,673.101909,0.000010,673.101919,673.101909,673.101919,67310191.923907,2,-1.000000,""
13_updated,w0,python3action_imageprocessing_SampleImage_60mb_troll,0.997085,1,2000.000000,1,COMPLETED_SUCCESSFULLY,640.269284,62.000000,702.269284,639.272199,701.272199,11.310842,44,-1.000000,""
13,w0,python3action_imageprocessing_SampleImage_60mb,0.000000,1,-1.000000,1,COMPLETED_SUCCESSFULLY,702.269299,0.000010,702.269309,702.269299,702.269309,70226930.913397,44,-1.000000,""
126_updated,w0,python3action_chameleon_2000_taurus,0.997085,1,2000.000000,1,COMPLETED_SUCCESSFULLY,648.043191,64.199977,712.243168,647.046106,711.246083,11.078603,29,-1.000000,""
126,w0,python3action_chameleon_2000,0.000000,1,-1.000000,1,COMPLETED_SUCCESSFULLY,712.243183,0.000010,712.243193,712.243183,712.243193,71224319.300201,29,-1.000000,""
79_updated,w0,python3action_linpack_6000_orion,0.997085,1,2000.000000,1,COMPLETED_SUCCESSFULLY,642.763327,106.000000,748.763327,641.766242,747.766242,7.054399,26,-1.000000,""
79,w0,python3action_linpack_6000,0.000000,1,-1.000000,1,COMPLETED_SUCCESSFULLY,748.763342,0.000010,748.763352,748.763342,748.763352,74876335.227287,26,-1.000000,""
17_updated,w0,python3action_imageprocessing_SampleImage_60mb_troll,0.997085,1,2000.000000,1,COMPLETED_SUCCESSFULLY,702.269329,62.000000,764.269329,701.272244,763.272244,12.310843,44,-1.000000,""
17,w0,python3action_imageprocessing_SampleImage_60mb,0.000000,1,-1.000000,1,COMPLETED_SUCCESSFULLY,764.269344,0.000010,764.269354,764.269344,764.269354,76426935.414000,44,-1.000000,""
151_updated,w0,python3action_chameleon_2000_taurus,0.997085,1,2000.000000,1,COMPLETED_SUCCESSFULLY,712.243213,64.199977,776.443190,711.246128,775.446105,12.078604,29,-1.000000,""
151,w0,python3action_chameleon_2000,0.000000,1,-1.000000,1,COMPLETED_SUCCESSFULLY,776.443205,0.000010,776.443215,776.443205,776.443215,77644321.500201,29,-1.000000,""
20_updated,w0,python3action_imageprocessing_SampleImage_60mb_troll,0.997085,1,2000.000000,1,COMPLETED_SUCCESSFULLY,764.269374,62.000000,826.269374,763.272289,825.272289,13.310843,44,-1.000000,""
20,w0,python3action_imageprocessing_SampleImage_60mb,0.000000,1,-1.000000,1,COMPLETED_SUCCESSFULLY,826.269389,0.000010,826.269399,826.269389,826.269399,82626939.914602,44,-1.000000,""
83_updated,w0,python3action_facedetection_SampleVideo_30mb_nova,0.997085,1,2000.000000,1,COMPLETED_SUCCESSFULLY,673.101939,160.399990,833.501929,672.104854,832.504844,5.190180,2,-1.000000,""
83,w0,python3action_facedetection_SampleVideo_30mb,0.000000,1,-1.000000,1,COMPLETED_SUCCESSFULLY,833.501944,0.000010,833.501954,833.501944,833.501954,83350195.447613,2,-1.000000,""
175_updated,w0,python3action_chameleon_2000_taurus,0.997085,1,2000.000000,1,COMPLETED_SUCCESSFULLY,776.443235,64.199977,840.643212,775.446150,839.646127,13.078605,29,-1.000000,""
175,w0,python3action_chameleon_2000,0.000000,1,-1.000000,1,COMPLETED_SUCCESSFULLY,840.643227,0.000010,840.643237,840.643227,840.643237,84064323.700201,29,-1.000000,""
91_updated,w0,python3action_linpack_6000_orion,0.997085,1,2000.000000,1,COMPLETED_SUCCESSFULLY,748.763372,106.000000,854.763372,747.766287,853.766287,8.054399,26,-1.000000,""
91,w0,python3action_linpack_6000,0.000000,1,-1.000000,1,COMPLETED_SUCCESSFULLY,854.763387,0.000010,854.763397,854.763387,854.763397,85476339.727889,26,-1.000000,""
31_updated,w0,python3action_imageprocessing_SampleImage_60mb_troll,0.997085,1,2000.000000,1,COMPLETED_SUCCESSFULLY,826.269419,62.000000,888.269419,825.272334,887.272334,14.310844,44,-1.000000,""
31,w0,python3action_imageprocessing_SampleImage_60mb,0.000000,1,-1.000000,1,COMPLETED_SUCCESSFULLY,888.269434,0.000010,888.269444,888.269434,888.269444,88826944.415205,44,-1.000000,""
181_updated,w0,python3action_chameleon_2000_taurus,0.997085,1,2000.000000,1,COMPLETED_SUCCESSFULLY,840.643257,64.199977,904.843234,839.646172,903.846149,14.078606,29,-1.000000,""
181,w0,python3action_chameleon_2000,0.000000,1,-1.000000,1,COMPLETED_SUCCESSFULLY,904.843249,0.000010,904.843259,904.843249,904.843259,90484325.900201,29,-1.000000,""
56_updated,w0,python3action_imageprocessing_SampleImage_60mb_troll,0.997085,1,2000.000000,1,COMPLETED_SUCCESSFULLY,888.269464,62.000000,950.269464,887.272379,949.272379,15.310845,44,-1.000000,""
56,w0,python3action_imageprocessing_SampleImage_60mb,0.000000,1,-1.000000,1,COMPLETED_SUCCESSFULLY,950.269479,0.000010,950.269489,950.269479,950.269489,95026948.915807,44,-1.000000,""
96_updated,w0,python3action_linpack_6000_orion,0.997085,1,2000.000000,1,COMPLETED_SUCCESSFULLY,854.763417,106.000000,960.763417,853.766332,959.766332,9.054399,26,-1.000000,""
96,w0,python3action_linpack_6000,0.000000,1,-1.000000,1,COMPLETED_SUCCESSFULLY,960.763432,0.000010,960.763442,960.763432,960.763442,96076344.228492,26,-1.000000,""
197_updated,w0,python3action_chameleon_2000_taurus,0.997085,1,2000.000000,1,COMPLETED_SUCCESSFULLY,904.843279,64.199977,969.043256,903.846194,968.046171,15.078606,29,-1.000000,""
197,w0,python3action_chameleon_2000,0.000000,1,-1.000000,1,COMPLETED_SUCCESSFULLY,969.043271,0.000010,969.043281,969.043271,969.043281,96904328.100201,29,-1.000000,""
95_updated,w0,python3action_facedetection_SampleVideo_30mb_nova,0.997085,1,2000.000000,1,COMPLETED_SUCCESSFULLY,833.501974,160.399990,993.901965,832.504889,992.904880,6.190180,2,-1.000000,""
95,w0,python3action_facedetection_SampleVideo_30mb,0.000000,1,-1.000000,1,COMPLETED_SUCCESSFULLY,993.901980,0.000010,993.901990,993.901980,993.901990,99390199.000201,2,-1.000000,""
102_updated,w0,python3action_imageprocessing_SampleImage_60mb_troll,0.997085,1,2000.000000,1,COMPLETED_SUCCESSFULLY,950.269509,62.000000,1012.269509,949.272424,1011.272424,16.310846,44,-1.000000,""
102,w0,python3action_imageprocessing_SampleImage_60mb,0.000000,1,-1.000000,1,COMPLETED_SUCCESSFULLY,1012.269524,0.000010,1012.269534,1012.269524,1012.269534,101226953.416409,44,-1.000000,""
python3action_facedetection_job23_3,w0,python3action_facedetection,0.997085,1,2000.000000,1,COMPLETED_SUCCESSFULLY,969.043301,72.012455,1041.055756,968.046216,1040.058671,14.442761,29,-1.000000,""
169_updated,w0,python3action_linpack_6000_orion,0.997085,1,2000.000000,1,COMPLETED_SUCCESSFULLY,960.763462,106.000000,1066.763462,959.766377,1065.766377,10.054400,26,-1.000000,""
169,w0,python3action_linpack_6000,0.000000,1,-1.000000,1,COMPLETED_SUCCESSFULLY,1066.763477,0.000010,1066.763487,1066.763477,1066.763487,106676348.729094,26,-1.000000,""
111_updated,w0,python3action_imageprocessing_SampleImage_60mb_troll,0.997085,1,2000.000000,1,COMPLETED_SUCCESSFULLY,1012.269554,62.000000,1074.269554,1011.272469,1073.272469,17.310846,44,-1.000000,""
111,w0,python3action_imageprocessing_SampleImage_60mb,0.000000,1,-1.000000,1,COMPLETED_SUCCESSFULLY,1074.269569,0.000010,1074.269579,1074.269569,1074.269579,107426957.917012,44,-1.000000,""
125_updated,w0,python3action_imageprocessing_SampleImage_60mb_troll,0.997085,1,2000.000000,1,COMPLETED_SUCCESSFULLY,1074.269599,62.000000,1136.269599,1073.272514,1135.272514,18.310847,44,-1.000000,""
125,w0,python3action_imageprocessing_SampleImage_60mb,0.000000,1,-1.000000,1,COMPLETED_SUCCESSFULLY,1136.269614,0.000010,1136.269624,1136.269614,1136.269624,113626962.417614,44,-1.000000,""
115_updated,w0,python3action_facedetection_SampleVideo_30mb_nova,0.997085,1,2000.000000,1,COMPLETED_SUCCESSFULLY,993.902010,160.399990,1154.302000,992.904925,1153.304915,7.190181,2,-1.000000,""
115,w0,python3action_facedetection_SampleVideo_30mb,0.000000,1,-1.000000,1,COMPLETED_SUCCESSFULLY,1154.302015,0.000010,1154.302025,1154.302015,1154.302025,115430202.523907,2,-1.000000,""
172_updated,w0,python3action_linpack_6000_orion,0.997085,1,2000.000000,1,COMPLETED_SUCCESSFULLY,1066.763507,106.000000,1172.763507,1065.766422,1171.766422,11.054400,26,-1.000000,""
172,w0,python3action_linpack_6000,0.000000,1,-1.000000,1,COMPLETED_SUCCESSFULLY,1172.763522,0.000010,1172.763532,1172.763522,1172.763532,117276353.229697,26,-1.000000,""
23_updated,w0,python3action_facedetection_SampleVideo_50mb_taurus,0.997085,1,2000.000000,1,COMPLETED_SUCCESSFULLY,1041.055771,134.600046,1175.655817,1040.058686,1174.658732,8.727031,29,-1.000000,""
23,w0,python3action_facedetection_SampleVideo_50mb,0.000000,1,-1.000000,1,COMPLETED_SUCCESSFULLY,1175.655832,0.000010,1175.655842,1175.655832,1175.655842,117565584.245163,29,-1.000000,""
149_updated,w0,python3action_imageprocessing_SampleImage_60mb_troll,0.997085,1,2000.000000,1,COMPLETED_SUCCESSFULLY,1136.269644,62.000000,1198.269644,1135.272559,1197.272559,19.310848,44,-1.000000,""
149,w0,python3action_imageprocessing_SampleImage_60mb,0.000000,1,-1.000000,1,COMPLETED_SUCCESSFULLY,1198.269659,0.000010,1198.269669,1198.269659,1198.269669,119826966.918216,44,-1.000000,""
163_updated,w0,python3action_imageprocessing_SampleImage_60mb_troll,0.997085,1,2000.000000,1,COMPLETED_SUCCESSFULLY,1198.269689,62.000000,1260.269689,1197.272604,1259.272604,20.310848,44,-1.000000,""
163,w0,python3action_imageprocessing_SampleImage_60mb,0.000000,1,-1.000000,1,COMPLETED_SUCCESSFULLY,1260.269704,0.000010,1260.269714,1260.269704,1260.269714,126026971.418819,44,-1.000000,""
193_updated,w0,python3action_linpack_6000_orion,0.997085,1,2000.000000,1,COMPLETED_SUCCESSFULLY,1172.763552,106.000000,1278.763552,1171.766467,1277.766467,12.054401,26,-1.000000,""
193,w0,python3action_linpack_6000,0.000000,1,-1.000000,1,COMPLETED_SUCCESSFULLY,1278.763567,0.000010,1278.763577,1278.763567,1278.763577,127876357.730299,26,-1.000000,""
43_updated,w0,python3action_facedetection_SampleVideo_50mb_taurus,0.997085,1,2000.000000,1,COMPLETED_SUCCESSFULLY,1175.655862,134.600046,1310.255909,1174.658777,1309.258824,9.727031,29,-1.000000,""
43,w0,python3action_facedetection_SampleVideo_50mb,0.000000,1,-1.000000,1,COMPLETED_SUCCESSFULLY,1310.255924,0.000010,1310.255934,1310.255924,1310.255934,131025593.400201,29,-1.000000,""
159_updated,w0,python3action_facedetection_SampleVideo_30mb_nova,0.997085,1,2000.000000,1,COMPLETED_SUCCESSFULLY,1154.302045,160.399990,1314.702035,1153.304960,1313.704950,8.190181,2,-1.000000,""
159,w0,python3action_facedetection_SampleVideo_30mb,0.000000,1,-1.000000,1,COMPLETED_SUCCESSFULLY,1314.702050,0.000010,1314.702060,1314.702050,1314.702060,131470206.047613,2,-1.000000,""
179_updated,w0,python3action_imageprocessing_SampleImage_60mb_troll,0.997085,1,2000.000000,1,COMPLETED_SUCCESSFULLY,1260.269734,62.000000,1322.269734,1259.272649,1321.272649,21.310849,44,-1.000000,""
179,w0,python3action_imageprocessing_SampleImage_60mb,0.000000,1,-1.000000,1,COMPLETED_SUCCESSFULLY,1322.269749,0.000010,1322.269759,1322.269749,1322.269759,132226975.919421,44,-1.000000,""
184_updated,w0,python3action_imageprocessing_SampleImage_60mb_troll,0.997085,1,2000.000000,1,COMPLETED_SUCCESSFULLY,1322.269779,62.000000,1384.269779,1321.272694,1383.272694,22.310850,44,-1.000000,""
184,w0,python3action_imageprocessing_SampleImage_60mb,0.000000,1,-1.000000,1,COMPLETED_SUCCESSFULLY,1384.269794,0.000010,1384.269804,1384.269794,1384.269804,138426980.420024,44,-1.000000,""
52_updated,w0,python3action_facedetection_SampleVideo_50mb_taurus,0.997085,1,2000.000000,1,COMPLETED_SUCCESSFULLY,1310.255954,134.600046,1444.856000,1309.258869,1443.858915,10.727031,29,-1.000000,""
52,w0,python3action_facedetection_SampleVideo_50mb,0.000000,1,-1.000000,1,COMPLETED_SUCCESSFULLY,1444.856015,0.000010,1444.856025,1444.856015,1444.856025,144485602.513881,29,-1.000000,""
162_updated,w0,python3action_facedetection_SampleVideo_30mb_nova,0.997085,1,2000.000000,1,COMPLETED_SUCCESSFULLY,1314.702080,160.399990,1475.102071,1313.704995,1474.104986,9.190181,2,-1.000000,""
162,w0,python3action_facedetection_SampleVideo_30mb,0.000000,1,-1.000000,1,COMPLETED_SUCCESSFULLY,1475.102086,0.000010,1475.102096,1475.102086,1475.102096,147510209.600201,2,-1.000000,""
59_updated,w0,python3action_facedetection_SampleVideo_50mb_taurus,0.997085,1,2000.000000,1,COMPLETED_SUCCESSFULLY,1444.856045,134.600046,1579.456091,1443.858960,1578.459006,11.727032,29,-1.000000,""
59,w0,python3action_facedetection_SampleVideo_50mb,0.000000,1,-1.000000,1,COMPLETED_SUCCESSFULLY,1579.456106,0.000010,1579.456116,1579.456106,1579.456116,157945611.627562,29,-1.000000,""
170_updated,w0,python3action_facedetection_SampleVideo_30mb_nova,0.997085,1,2000.000000,1,COMPLETED_SUCCESSFULLY,1475.102116,160.399990,1635.502106,1474.105031,1634.505021,10.190182,2,-1.000000,""
170,w0,python3action_facedetection_SampleVideo_30mb,0.000000,1,-1.000000,1,COMPLETED_SUCCESSFULLY,1635.502121,0.000010,1635.502131,1635.502121,1635.502131,163550213.123907,2,-1.000000,""
60_updated,w0,python3action_facedetection_SampleVideo_50mb_taurus,0.997085,1,2000.000000,1,COMPLETED_SUCCESSFULLY,1579.456136,134.600046,1714.056182,1578.459051,1713.059097,12.727032,29,-1.000000,""
60,w0,python3action_facedetection_SampleVideo_50mb,0.000000,1,-1.000000,1,COMPLETED_SUCCESSFULLY,1714.056197,0.000010,1714.056207,1714.056197,1714.056207,171405620.741242,29,-1.000000,""
195_updated,w0,python3action_facedetection_SampleVideo_30mb_nova,0.997085,1,2000.000000,1,COMPLETED_SUCCESSFULLY,1635.502151,160.399990,1795.902141,1634.505066,1794.905056,11.190182,2,-1.000000,""
195,w0,python3action_facedetection_SampleVideo_30mb,0.000000,1,-1.000000,1,COMPLETED_SUCCESSFULLY,1795.902156,0.000010,1795.902166,1795.902156,1795.902166,179590216.647613,2,-1.000000,""
python3action_floatoperation_job3_1,w0,python3action_floatoperation,0.997085,1,2000.000000,1,COMPLETED_SUCCESSFULLY,1795.902186,2.439945,1798.342132,1794.905101,1797.345047,736.633338,2,-1.000000,""
78_updated,w0,python3action_facedetection_SampleVideo_50mb_taurus,0.997085,1,2000.000000,1,COMPLETED_SUCCESSFULLY,1714.056227,134.600046,1848.656274,1713.059142,1847.659189,13.727032,29,-1.000000,""
78,w0,python3action_facedetection_SampleVideo_50mb,0.000000,1,-1.000000,1,COMPLETED_SUCCESSFULLY,1848.656289,0.000010,1848.656299,1848.656289,1848.656299,184865629.900201,29,-1.000000,""
3_updated,w0,python3action_floatoperation_100000000_nova,0.997085,1,2000.000000,1,COMPLETED_SUCCESSFULLY,1798.342147,66.200020,1864.542167,1797.345062,1863.545082,28.150220,2,-1.000000,""
3,w0,python3action_floatoperation_100000000,0.000000,1,-1.000000,1,COMPLETED_SUCCESSFULLY,1864.542182,0.000010,1864.542192,1864.542182,1864.542192,186454219.200201,2,-1.000000,""
104_updated,w0,python3action_facedetection_SampleVideo_50mb_taurus,0.997085,1,2000.000000,1,COMPLETED_SUCCESSFULLY,1848.656319,134.600046,1983.256365,1847.659234,1982.259280,14.727033,29,-1.000000,""
104,w0,python3action_facedetection_SampleVideo_50mb,0.000000,1,-1.000000,1,COMPLETED_SUCCESSFULLY,1983.256380,0.000010,1983.256390,1983.256380,1983.256390,198325639.013881,29,-1.000000,""
7_updated,w0,python3action_floatoperation_200000000_nova,0.997085,1,2000.000000,1,COMPLETED_SUCCESSFULLY,1864.542212,135.399990,1999.942202,1863.545127,1998.945117,14.763259,2,-1.000000,""
7,w0,python3action_floatoperation_200000000,0.000000,1,-1.000000,1,COMPLETED_SUCCESSFULLY,1999.942217,0.000010,1999.942227,1999.942217,1999.942227,199994222.723907,2,-1.000000,""
106_updated,w0,python3action_facedetection_SampleVideo_50mb_taurus,0.997085,1,2000.000000,1,COMPLETED_SUCCESSFULLY,1983.256410,134.600046,2117.856456,1982.259325,2116.859371,15.727033,29,-1.000000,""
106,w0,python3action_facedetection_SampleVideo_50mb,0.000000,1,-1.000000,1,COMPLETED_SUCCESSFULLY,2117.856471,0.000010,2117.856481,2117.856471,2117.856481,211785648.127562,29,-1.000000,""
python3action_image_processing_job11_3,w0,python3action_image_processing_reduced_0.86,0.997085,1,2000.000000,1,COMPLETED_SUCCESSFULLY,2117.856501,9.731413,2127.587914,2116.859416,2126.590829,218.528476,29,-1.000000,""
40_updated,w0,python3action_floatoperation_200000000_nova,0.997085,1,2000.000000,1,COMPLETED_SUCCESSFULLY,1999.942247,135.399990,2135.342237,1998.945162,2134.345152,15.763259,2,-1.000000,""
40,w0,python3action_floatoperation_200000000,0.000000,1,-1.000000,1,COMPLETED_SUCCESSFULLY,2135.342252,0.000010,2135.342262,2135.342252,2135.342262,213534226.247613,2,-1.000000,""
11_updated,w0,python3action_imageprocessing_SampleImage_40mb_taurus,0.997085,1,2000.000000,1,COMPLETED_SUCCESSFULLY,2127.587929,32.600046,2160.187975,2126.590844,2159.190890,66.232756,29,-1.000000,""
11,w0,python3action_imageprocessing_SampleImage_40mb,0.000000,1,-1.000000,1,COMPLETED_SUCCESSFULLY,2160.187990,0.000010,2160.188000,2160.187990,2160.188000,216018800.029427,29,-1.000000,""
21_updated,w0,python3action_imageprocessing_SampleImage_40mb_taurus,0.997085,1,2000.000000,1,COMPLETED_SUCCESSFULLY,2160.188020,32.600046,2192.788066,2159.190935,2191.790981,67.232757,29,-1.000000,""
21,w0,python3action_imageprocessing_SampleImage_40mb,0.000000,1,-1.000000,1,COMPLETED_SUCCESSFULLY,2192.788081,0.000010,2192.788091,2192.788081,2192.788091,219278809.143108,29,-1.000000,""
41_updated,w0,python3action_floatoperation_100000000_nova,0.997085,1,2000.000000,1,COMPLETED_SUCCESSFULLY,2135.342282,66.200020,2201.542302,2134.345197,2200.545217,33.240854,2,-1.000000,""
41,w0,python3action_floatoperation_100000000,0.000000,1,-1.000000,1,COMPLETED_SUCCESSFULLY,2201.542317,0.000010,2201.542327,2201.542317,2201.542327,220154232.702008,2,-1.000000,""
33_updated,w0,python3action_imageprocessing_SampleImage_40mb_taurus,0.997085,1,2000.000000,1,COMPLETED_SUCCESSFULLY,2192.788111,32.600046,2225.388158,2191.791026,2224.391073,68.232758,29,-1.000000,""
33,w0,python3action_imageprocessing_SampleImage_40mb,0.000000,1,-1.000000,1,COMPLETED_SUCCESSFULLY,2225.388173,0.000010,2225.388183,2225.388173,2225.388183,222538818.300201,29,-1.000000,""
62_updated,w0,python3action_imageprocessing_SampleImage_40mb_taurus,0.997085,1,2000.000000,1,COMPLETED_SUCCESSFULLY,2225.388203,32.600046,2257.988249,2224.391118,2256.991164,69.232760,29,-1.000000,""
62,w0,python3action_imageprocessing_SampleImage_40mb,0.000000,1,-1.000000,1,COMPLETED_SUCCESSFULLY,2257.988264,0.000010,2257.988274,2257.988264,2257.988274,225798827.413881,29,-1.000000,""
65_updated,w0,python3action_imageprocessing_SampleImage_40mb_taurus,0.997085,1,2000.000000,1,COMPLETED_SUCCESSFULLY,2257.988294,32.600046,2290.588340,2256.991209,2289.591255,70.232761,29,-1.000000,""
65,w0,python3action_imageprocessing_SampleImage_40mb,0.000000,1,-1.000000,1,COMPLETED_SUCCESSFULLY,2290.588355,0.000010,2290.588365,2290.588355,2290.588365,229058836.527562,29,-1.000000,""
99_updated,w0,python3action_imageprocessing_SampleImage_40mb_taurus,0.997085,1,2000.000000,1,COMPLETED_SUCCESSFULLY,2290.588385,32.600046,2323.188431,2289.591300,2322.191346,71.232763,29,-1.000000,""
99,w0,python3action_imageprocessing_SampleImage_40mb,0.000000,1,-1.000000,1,COMPLETED_SUCCESSFULLY,2323.188446,0.000010,2323.188456,2323.188446,2323.188456,232318845.641243,29,-1.000000,""
45_updated,w0,python3action_floatoperation_200000000_nova,0.997085,1,2000.000000,1,COMPLETED_SUCCESSFULLY,2201.542347,135.399990,2336.942337,2200.545262,2335.945252,17.252182,2,-1.000000,""
45,w0,python3action_floatoperation_200000000,0.000000,1,-1.000000,1,COMPLETED_SUCCESSFULLY,2336.942352,0.000010,2336.942362,2336.942352,2336.942362,233694236.225715,2,-1.000000,""
118_updated,w0,python3action_imageprocessing_SampleImage_40mb_taurus,0.997085,1,2000.000000,1,COMPLETED_SUCCESSFULLY,2323.188476,32.600046,2355.788523,2322.191391,2354.791438,72.232764,29,-1.000000,""
118,w0,python3action_imageprocessing_SampleImage_40mb,0.000000,1,-1.000000,1,COMPLETED_SUCCESSFULLY,2355.788538,0.000010,2355.788548,2355.788538,2355.788548,235578854.800201,29,-1.000000,""
119_updated,w0,python3action_imageprocessing_SampleImage_40mb_taurus,0.997085,1,2000.000000,1,COMPLETED_SUCCESSFULLY,2355.788568,32.600046,2388.388614,2354.791483,2387.391529,73.232765,29,-1.000000,""
119,w0,python3action_imageprocessing_SampleImage_40mb,0.000000,1,-1.000000,1,COMPLETED_SUCCESSFULLY,2388.388629,0.000010,2388.388639,2388.388629,2388.388639,238838863.913881,29,-1.000000,""
55_updated,w0,python3action_floatoperation_100000000_nova,0.997085,1,2000.000000,1,COMPLETED_SUCCESSFULLY,2336.942382,66.200020,2403.142402,2335.945297,2402.145317,36.286172,2,-1.000000,""
55,w0,python3action_floatoperation_100000000,0.000000,1,-1.000000,1,COMPLETED_SUCCESSFULLY,2403.142417,0.000010,2403.142427,2403.142417,2403.142427,240314242.700201,2,-1.000000,""
121_updated,w0,python3action_imageprocessing_SampleImage_40mb_taurus,0.997085,1,2000.000000,1,COMPLETED_SUCCESSFULLY,2388.388659,32.600046,2420.988705,2387.391574,2419.991620,74.232767,29,-1.000000,""
121,w0,python3action_imageprocessing_SampleImage_40mb,0.000000,1,-1.000000,1,COMPLETED_SUCCESSFULLY,2420.988720,0.000010,2420.988730,2420.988720,2420.988730,242098873.027562,29,-1.000000,""
123_updated,w0,python3action_imageprocessing_SampleImage_40mb_taurus,0.997085,1,2000.000000,1,COMPLETED_SUCCESSFULLY,2420.988750,32.600046,2453.588796,2419.991665,2452.591711,75.232768,29,-1.000000,""
123,w0,python3action_imageprocessing_SampleImage_40mb,0.000000,1,-1.000000,1,COMPLETED_SUCCESSFULLY,2453.588811,0.000010,2453.588821,2453.588811,2453.588821,245358882.141243,29,-1.000000,""
61_updated,w0,python3action_floatoperation_100000000_nova,0.997085,1,2000.000000,1,COMPLETED_SUCCESSFULLY,2403.142447,66.200020,2469.342467,2402.145362,2468.345382,37.286173,2,-1.000000,""
61,w0,python3action_floatoperation_100000000,0.000000,1,-1.000000,1,COMPLETED_SUCCESSFULLY,2469.342482,0.000010,2469.342492,2469.342482,2469.342492,246934249.200201,2,-1.000000,""
127_updated,w0,python3action_imageprocessing_SampleImage_40mb_taurus,0.997085,1,2000.000000,1,COMPLETED_SUCCESSFULLY,2453.588841,32.600046,2486.188888,2452.591756,2485.191803,76.232770,29,-1.000000,""
127,w0,python3action_imageprocessing_SampleImage_40mb,0.000000,1,-1.000000,1,COMPLETED_SUCCESSFULLY,2486.188903,0.000010,2486.188913,2486.188903,2486.188913,248618891.300201,29,-1.000000,""
132_updated,w0,python3action_imageprocessing_SampleImage_40mb_taurus,0.997085,1,2000.000000,1,COMPLETED_SUCCESSFULLY,2486.188933,32.600046,2518.788979,2485.191848,2517.791894,77.232771,29,-1.000000,""
132,w0,python3action_imageprocessing_SampleImage_40mb,0.000000,1,-1.000000,1,COMPLETED_SUCCESSFULLY,2518.788994,0.000010,2518.789004,2518.788994,2518.789004,251878900.413881,29,-1.000000,""
134_updated,w0,python3action_imageprocessing_SampleImage_40mb_taurus,0.997085,1,2000.000000,1,COMPLETED_SUCCESSFULLY,2518.789024,32.600046,2551.389070,2517.791939,2550.391985,78.232772,29,-1.000000,""
134,w0,python3action_imageprocessing_SampleImage_40mb,0.000000,1,-1.000000,1,COMPLETED_SUCCESSFULLY,2551.389085,0.000010,2551.389095,2551.389085,2551.389095,255138909.527562,29,-1.000000,""
136_updated,w0,python3action_imageprocessing_SampleImage_40mb_taurus,0.997085,1,2000.000000,1,COMPLETED_SUCCESSFULLY,2551.389115,32.600046,2583.989161,2550.392030,2582.992076,79.232774,29,-1.000000,""
136,w0,python3action_imageprocessing_SampleImage_40mb,0.000000,1,-1.000000,1,COMPLETED_SUCCESSFULLY,2583.989176,0.000010,2583.989186,2583.989176,2583.989186,258398918.641243,29,-1.000000,""
70_updated,w0,python3action_floatoperation_200000000_nova,0.997085,1,2000.000000,1,COMPLETED_SUCCESSFULLY,2469.342512,135.399990,2604.742502,2468.345427,2603.745417,19.230027,2,-1.000000,""
70,w0,python3action_floatoperation_200000000,0.000000,1,-1.000000,1,COMPLETED_SUCCESSFULLY,2604.742517,0.000010,2604.742527,2604.742517,2604.742527,260474252.723907,2,-1.000000,""
137_updated,w0,python3action_imageprocessing_SampleImage_40mb_taurus,0.997085,1,2000.000000,1,COMPLETED_SUCCESSFULLY,2583.989206,32.600046,2616.589253,2582.992121,2615.592168,80.232775,29,-1.000000,""
137,w0,python3action_imageprocessing_SampleImage_40mb,0.000000,1,-1.000000,1,COMPLETED_SUCCESSFULLY,2616.589268,0.000010,2616.589278,2616.589268,2616.589278,261658927.800201,29,-1.000000,""
148_updated,w0,python3action_imageprocessing_SampleImage_40mb_taurus,0.997085,1,2000.000000,1,COMPLETED_SUCCESSFULLY,2616.589298,32.600046,2649.189344,2615.592213,2648.192259,81.232776,29,-1.000000,""
148,w0,python3action_imageprocessing_SampleImage_40mb,0.000000,1,-1.000000,1,COMPLETED_SUCCESSFULLY,2649.189359,0.000010,2649.189369,2649.189359,2649.189369,264918936.913881,29,-1.000000,""
84_updated,w0,python3action_floatoperation_100000000_nova,0.997085,1,2000.000000,1,COMPLETED_SUCCESSFULLY,2604.742547,66.200020,2670.942567,2603.745462,2669.945482,40.331491,2,-1.000000,""
84,w0,python3action_floatoperation_100000000,0.000000,1,-1.000000,1,COMPLETED_SUCCESSFULLY,2670.942582,0.000010,2670.942592,2670.942582,2670.942592,267094259.200201,2,-1.000000,""
155_updated,w0,python3action_imageprocessing_SampleImage_40mb_taurus,0.997085,1,2000.000000,1,COMPLETED_SUCCESSFULLY,2649.189389,32.600046,2681.789435,2648.192304,2680.792350,82.232778,29,-1.000000,""
155,w0,python3action_imageprocessing_SampleImage_40mb,0.000000,1,-1.000000,1,COMPLETED_SUCCESSFULLY,2681.789450,0.000010,2681.789460,2681.789450,2681.789460,268178946.027562,29,-1.000000,""
160_updated,w0,python3action_imageprocessing_SampleImage_40mb_taurus,0.997085,1,2000.000000,1,COMPLETED_SUCCESSFULLY,2681.789480,32.600046,2714.389526,2680.792395,2713.392441,83.232779,29,-1.000000,""
160,w0,python3action_imageprocessing_SampleImage_40mb,0.000000,1,-1.000000,1,COMPLETED_SUCCESSFULLY,2714.389541,0.000010,2714.389551,2714.389541,2714.389551,271438955.141243,29,-1.000000,""
176_updated,w0,python3action_imageprocessing_SampleImage_40mb_taurus,0.997085,1,2000.000000,1,COMPLETED_SUCCESSFULLY,2714.389571,32.600046,2746.989618,2713.392486,2745.992533,84.232781,29,-1.000000,""
176,w0,python3action_imageprocessing_SampleImage_40mb,0.000000,1,-1.000000,1,COMPLETED_SUCCESSFULLY,2746.989633,0.000010,2746.989643,2746.989633,2746.989643,274698964.300201,29,-1.000000,""
python3action_modeltraining_job73_3,w0,python3action_modeltraining_reduced_1.88,0.997085,1,2000.000000,1,COMPLETED_SUCCESSFULLY,2746.989663,0.000000,2746.989663,2745.992578,2745.992578,23773628104758.628906,29,-1.000000,""
114_updated,w0,python3action_floatoperation_200000000_nova,0.997085,1,2000.000000,1,COMPLETED_SUCCESSFULLY,2670.942612,135.399990,2806.342602,2669.945527,2805.345517,20.718949,2,-1.000000,""
114,w0,python3action_floatoperation_200000000,0.000000,1,-1.000000,1,COMPLETED_SUCCESSFULLY,2806.342617,0.000010,2806.342627,2806.342617,2806.342627,280634262.723907,2,-1.000000,""
73_updated,w0,python3action_modeltraining_reviews100mb_taurus,0.997085,1,2000.000000,1,COMPLETED_SUCCESSFULLY,2746.989693,88.199977,2835.189670,2745.992608,2834.192585,32.133711,29,-1.000000,""
73,w0,python3action_modeltraining_reviews100mb,0.000000,1,-1.000000,1,COMPLETED_SUCCESSFULLY,2835.189685,0.000010,2835.189695,2835.189685,2835.189695,283518969.500201,29,-1.000000,""
python3action_video_processing_job28_3,w0,python3action_video_processing_reduced_2.8,0.997085,1,2000.000000,1,COMPLETED_SUCCESSFULLY,2835.189715,0.000000,2835.189715,2834.192630,2834.192630,24537226394084.992188,29,-1.000000,""
129_updated,w0,python3action_floatoperation_100000000_nova,0.997085,1,2000.000000,1,COMPLETED_SUCCESSFULLY,2806.342647,66.200020,2872.542667,2805.345562,2871.545582,43.376809,2,-1.000000,""
129,w0,python3action_floatoperation_100000000,0.000000,1,-1.000000,1,COMPLETED_SUCCESSFULLY,2872.542682,0.000010,2872.542692,2872.542682,2872.542692,287254269.200201,2,-1.000000,""
28_updated,w0,python3action_videoprocessing_SampleVideo_50mb_taurus,0.997085,1,2000.000000,1,COMPLETED_SUCCESSFULLY,2835.189745,154.250029,2989.439774,2834.192660,2988.442689,19.374017,29,-1.000000,""
28,w0,python3action_videoprocessing_SampleVideo_50mb,0.000000,1,-1.000000,1,COMPLETED_SUCCESSFULLY,2989.439789,0.000010,2989.439799,2989.439789,2989.439799,298943979.900201,29,-1.000000,""
133_updated,w0,python3action_floatoperation_200000000_nova,0.997085,1,2000.000000,1,COMPLETED_SUCCESSFULLY,2872.542712,135.399990,3007.942702,2871.545627,3006.945617,22.207872,2,-1.000000,""
133,w0,python3action_floatoperation_200000000,0.000000,1,-1.000000,1,COMPLETED_SUCCESSFULLY,3007.942717,0.000010,3007.942727,3007.942717,3007.942727,300794272.723907,2,-1.000000,""
144_updated,w0,python3action_floatoperation_200000000_nova,0.997085,1,2000.000000,1,COMPLETED_SUCCESSFULLY,3007.942747,135.399990,3143.342737,3006.945662,3142.345652,23.207872,2,-1.000000,""
144,w0,python3action_floatoperation_200000000,0.000000,1,-1.000000,1,COMPLETED_SUCCESSFULLY,3143.342752,0.000010,3143.342762,3143.342752,3143.342762,314334276.247613,2,-1.000000,""
37_updated,w0,python3action_videoprocessing_SampleVideo_50mb_taurus,0.997085,1,2000.000000,1,COMPLETED_SUCCESSFULLY,2989.439819,154.250029,3143.689848,2988.442734,3142.692763,20.374017,29,-1.000000,""
37,w0,python3action_videoprocessing_SampleVideo_50mb,0.000000,1,-1.000000,1,COMPLETED_SUCCESSFULLY,3143.689863,0.000010,3143.689873,3143.689863,3143.689873,314368987.300201,29,-1.000000,""
146_updated,w0,python3action_floatoperation_100000000_nova,0.997085,1,2000.000000,1,COMPLETED_SUCCESSFULLY,3143.342782,66.200020,3209.542802,3142.345697,3208.545717,48.467444,2,-1.000000,""
146,w0,python3action_floatoperation_100000000,0.000000,1,-1.000000,1,COMPLETED_SUCCESSFULLY,3209.542817,0.000010,3209.542827,3209.542817,3209.542827,320954282.702008,2,-1.000000,""
154_updated,w0,python3action_floatoperation_100000000_nova,0.997085,1,2000.000000,1,COMPLETED_SUCCESSFULLY,3209.542847,66.200020,3275.742867,3208.545762,3274.745782,49.467444,2,-1.000000,""
154,w0,python3action_floatoperation_100000000,0.000000,1,-1.000000,1,COMPLETED_SUCCESSFULLY,3275.742882,0.000010,3275.742892,3275.742882,3275.742892,327574289.200201,2,-1.000000,""
44_updated,w0,python3action_videoprocessing_SampleVideo_50mb_taurus,0.997085,1,2000.000000,1,COMPLETED_SUCCESSFULLY,3143.689893,154.250029,3297.939922,3142.692808,3296.942837,21.374018,29,-1.000000,""
44,w0,python3action_videoprocessing_SampleVideo_50mb,0.000000,1,-1.000000,1,COMPLETED_SUCCESSFULLY,3297.939937,0.000010,3297.939947,3297.939937,3297.939947,329793994.700201,29,-1.000000,""
161_updated,w0,python3action_floatoperation_200000000_nova,0.997085,1,2000.000000,1,COMPLETED_SUCCESSFULLY,3275.742912,135.399990,3411.142902,3274.745827,3410.145817,25.185717,2,-1.000000,""
161,w0,python3action_floatoperation_200000000,0.000000,1,-1.000000,1,COMPLETED_SUCCESSFULLY,3411.142917,0.000010,3411.142927,3411.142917,3411.142927,341114292.723907,2,-1.000000,""
64_updated,w0,python3action_videoprocessing_SampleVideo_50mb_taurus,0.997085,1,2000.000000,1,COMPLETED_SUCCESSFULLY,3297.939967,154.250029,3452.189996,3296.942882,3451.192911,22.374018,29,-1.000000,""
64,w0,python3action_videoprocessing_SampleVideo_50mb,0.000000,1,-1.000000,1,COMPLETED_SUCCESSFULLY,3452.190011,0.000010,3452.190021,3452.190011,3452.190021,345219002.100201,29,-1.000000,""
164_updated,w0,python3action_floatoperation_100000000_nova,0.997085,1,2000.000000,1,COMPLETED_SUCCESSFULLY,3411.142947,66.200020,3477.342967,3410.145862,3476.345882,52.512762,2,-1.000000,""
164,w0,python3action_floatoperation_100000000,0.000000,1,-1.000000,1,COMPLETED_SUCCESSFULLY,3477.342982,0.000010,3477.342992,3477.342982,3477.342992,347734299.200201,2,-1.000000,""
174_updated,w0,python3action_floatoperation_100000000_nova,0.997085,1,2000.000000,1,COMPLETED_SUCCESSFULLY,3477.343012,66.200020,3543.543032,3476.345927,3542.545947,53.512763,2,-1.000000,""
174,w0,python3action_floatoperation_100000000,0.000000,1,-1.000000,1,COMPLETED_SUCCESSFULLY,3543.543047,0.000010,3543.543057,3543.543047,3543.543057,354354305.700201,2,-1.000000,""
69_updated,w0,python3action_videoprocessing_SampleVideo_50mb_taurus,0.997085,1,2000.000000,1,COMPLETED_SUCCESSFULLY,3452.190041,154.250029,3606.440070,3451.192956,3605.442985,23.374018,29,-1.000000,""
69,w0,python3action_videoprocessing_SampleVideo_50mb,0.000000,1,-1.000000,1,COMPLETED_SUCCESSFULLY,3606.440085,0.000010,3606.440095,3606.440085,3606.440095,360644009.500201,29,-1.000000,""
177_updated,w0,python3action_floatoperation_100000000_nova,0.997085,1,2000.000000,1,COMPLETED_SUCCESSFULLY,3543.543077,66.200020,3609.743097,3542.545992,3608.746012,54.512764,2,-1.000000,""
177,w0,python3action_floatoperation_100000000,0.000000,1,-1.000000,1,COMPLETED_SUCCESSFULLY,3609.743112,0.000010,3609.743122,3609.743112,3609.743122,360974312.200201,2,-1.000000,""
183_updated,w0,python3action_floatoperation_100000000_nova,0.997085,1,2000.000000,1,COMPLETED_SUCCESSFULLY,3609.743142,66.200020,3675.943162,3608.746057,3674.946077,55.512764,2,-1.000000,""
183,w0,python3action_floatoperation_100000000,0.000000,1,-1.000000,1,COMPLETED_SUCCESSFULLY,3675.943177,0.000010,3675.943187,3675.943177,3675.943187,367594318.700201,2,-1.000000,""
72_updated,w0,python3action_videoprocessing_SampleVideo_50mb_taurus,0.997085,1,2000.000000,1,COMPLETED_SUCCESSFULLY,3606.440115,154.250029,3760.690144,3605.443030,3759.693059,24.374019,29,-1.000000,""
72,w0,python3action_videoprocessing_SampleVideo_50mb,0.000000,1,-1.000000,1,COMPLETED_SUCCESSFULLY,3760.690159,0.000010,3760.690169,3760.690159,3760.690169,376069016.900201,29,-1.000000,""
185_updated,w0,python3action_floatoperation_200000000_nova,0.997085,1,2000.000000,1,COMPLETED_SUCCESSFULLY,3675.943207,135.399990,3811.343197,3674.946122,3810.346112,28.141406,2,-1.000000,""
185,w0,python3action_floatoperation_200000000,0.000000,1,-1.000000,1,COMPLETED_SUCCESSFULLY,3811.343212,0.000010,3811.343222,3811.343212,3811.343222,381134322.223907,2,-1.000000,""
186_updated,w0,python3action_floatoperation_100000000_nova,0.997085,1,2000.000000,1,COMPLETED_SUCCESSFULLY,3811.343242,66.200020,3877.543262,3810.346157,3876.546177,58.558082,2,-1.000000,""
186,w0,python3action_floatoperation_100000000,0.000000,1,-1.000000,1,COMPLETED_SUCCESSFULLY,3877.543277,0.000010,3877.543287,3877.543277,3877.543287,387754328.700201,2,-1.000000,""
85_updated,w0,python3action_videoprocessing_SampleVideo_50mb_taurus,0.997085,1,2000.000000,1,COMPLETED_SUCCESSFULLY,3760.690189,154.250029,3914.940218,3759.693104,3913.943133,25.374019,29,-1.000000,""
85,w0,python3action_videoprocessing_SampleVideo_50mb,0.000000,1,-1.000000,1,COMPLETED_SUCCESSFULLY,3914.940233,0.000010,3914.940243,3914.940233,3914.940243,391494024.300201,29,-1.000000,""
191_updated,w0,python3action_floatoperation_100000000_nova,0.997085,1,2000.000000,1,COMPLETED_SUCCESSFULLY,3877.543307,66.200020,3943.743327,3876.546222,3942.746242,59.558083,2,-1.000000,""
191,w0,python3action_floatoperation_100000000,0.000000,1,-1.000000,1,COMPLETED_SUCCESSFULLY,3943.743342,0.000010,3943.743352,3943.743342,3943.743352,394374335.200201,2,-1.000000,""
python3action_linpack_job10_1,w0,python3action_linpack,0.997085,1,2000.000000,1,COMPLETED_SUCCESSFULLY,3943.743372,2.439945,3946.183317,3942.746287,3945.186232,1616.915856,2,-1.000000,""
10_updated,w0,python3action_linpack_5000_nova,0.997085,1,2000.000000,1,COMPLETED_SUCCESSFULLY,3946.183332,34.600010,3980.783342,3945.186247,3979.786257,115.022692,2,-1.000000,""
10,w0,python3action_linpack_5000,0.000000,1,-1.000000,1,COMPLETED_SUCCESSFULLY,3980.783357,0.000010,3980.783367,3980.783357,3980.783367,398078336.707281,2,-1.000000,""
46_updated,w0,python3action_linpack_5000_nova,0.997085,1,2000.000000,1,COMPLETED_SUCCESSFULLY,3980.783387,34.600010,4015.383397,3979.786302,4014.386312,116.022693,2,-1.000000,""
46,w0,python3action_linpack_5000,0.000000,1,-1.000000,1,COMPLETED_SUCCESSFULLY,4015.383412,0.000010,4015.383422,4015.383412,4015.383422,401538342.200201,2,-1.000000,""
47_updated,w0,python3action_linpack_5000_nova,0.997085,1,2000.000000,1,COMPLETED_SUCCESSFULLY,4015.383442,34.600010,4049.983452,4014.386357,4048.986367,117.022694,2,-1.000000,""
47,w0,python3action_linpack_5000,0.000000,1,-1.000000,1,COMPLETED_SUCCESSFULLY,4049.983467,0.000010,4049.983477,4049.983467,4049.983477,404998347.700201,2,-1.000000,""
86_updated,w0,python3action_videoprocessing_SampleVideo_50mb_taurus,0.997085,1,2000.000000,1,COMPLETED_SUCCESSFULLY,3914.940263,154.250029,4069.190292,3913.943178,4068.193207,26.374019,29,-1.000000,""
86,w0,python3action_videoprocessing_SampleVideo_50mb,0.000000,1,-1.000000,1,COMPLETED_SUCCESSFULLY,4069.190307,0.000010,4069.190317,4069.190307,4069.190317,406919031.700201,29,-1.000000,""
71_updated,w0,python3action_linpack_5000_nova,0.997085,1,2000.000000,1,COMPLETED_SUCCESSFULLY,4049.983497,34.600010,4084.583507,4048.986412,4083.586422,118.022696,2,-1.000000,""
71,w0,python3action_linpack_5000,0.000000,1,-1.000000,1,COMPLETED_SUCCESSFULLY,4084.583522,0.000010,4084.583532,4084.583522,4084.583532,408458353.200201,2,-1.000000,""
130_updated,w0,python3action_linpack_5000_nova,0.997085,1,2000.000000,1,COMPLETED_SUCCESSFULLY,4084.583552,34.600010,4119.183562,4083.586467,4118.186477,119.022697,2,-1.000000,""
130,w0,python3action_linpack_5000,0.000000,1,-1.000000,1,COMPLETED_SUCCESSFULLY,4119.183577,0.000010,4119.183587,4119.183577,4119.183587,411918358.700201,2,-1.000000,""
135_updated,w0,python3action_linpack_5000_nova,0.997085,1,2000.000000,1,COMPLETED_SUCCESSFULLY,4119.183607,34.600010,4153.783617,4118.186522,4152.786532,120.022698,2,-1.000000,""
135,w0,python3action_linpack_5000,0.000000,1,-1.000000,1,COMPLETED_SUCCESSFULLY,4153.783632,0.000010,4153.783642,4153.783632,4153.783642,415378364.200201,2,-1.000000,""
140_updated,w0,python3action_linpack_5000_nova,0.997085,1,2000.000000,1,COMPLETED_SUCCESSFULLY,4153.783662,34.600010,4188.383672,4152.786577,4187.386587,121.022700,2,-1.000000,""
140,w0,python3action_linpack_5000,0.000000,1,-1.000000,1,COMPLETED_SUCCESSFULLY,4188.383687,0.000010,4188.383697,4188.383687,4188.383697,418838369.700201,2,-1.000000,""
143_updated,w0,python3action_linpack_5000_nova,0.997085,1,2000.000000,1,COMPLETED_SUCCESSFULLY,4188.383717,34.600010,4222.983727,4187.386632,4221.986642,122.022701,2,-1.000000,""
143,w0,python3action_linpack_5000,0.000000,1,-1.000000,1,COMPLETED_SUCCESSFULLY,4222.983742,0.000010,4222.983752,4222.983742,4222.983752,422298375.200201,2,-1.000000,""
87_updated,w0,python3action_videoprocessing_SampleVideo_50mb_taurus,0.997085,1,2000.000000,1,COMPLETED_SUCCESSFULLY,4069.190337,154.250029,4223.440366,4068.193252,4222.443281,27.374019,29,-1.000000,""
87,w0,python3action_videoprocessing_SampleVideo_50mb,0.000000,1,-1.000000,1,COMPLETED_SUCCESSFULLY,4223.440381,0.000010,4223.440391,4223.440381,4223.440391,422344039.100201,29,-1.000000,""
152_updated,w0,python3action_linpack_5000_nova,0.997085,1,2000.000000,1,COMPLETED_SUCCESSFULLY,4222.983772,34.600010,4257.583782,4221.986687,4256.586697,123.022702,2,-1.000000,""
152,w0,python3action_linpack_5000,0.000000,1,-1.000000,1,COMPLETED_SUCCESSFULLY,4257.583797,0.000010,4257.583807,4257.583797,4257.583807,425758380.700201,2,-1.000000,""
168_updated,w0,python3action_linpack_5000_nova,0.997085,1,2000.000000,1,COMPLETED_SUCCESSFULLY,4257.583827,34.600010,4292.183837,4256.586742,4291.186752,124.022703,2,-1.000000,""
168,w0,python3action_linpack_5000,0.000000,1,-1.000000,1,COMPLETED_SUCCESSFULLY,4292.183852,0.000010,4292.183862,4292.183852,4292.183862,429218386.200201,2,-1.000000,""
python3action_modeltraining_job15_1,w0,python3action_modeltraining_reduced_0.94,0.997085,1,2000.000000,1,COMPLETED_SUCCESSFULLY,4292.183882,0.000000,4292.183882,4291.186797,4291.186797,87374255190130.109375,2,-1.000000,""
15_updated,w0,python3action_modeltraining_reviews100mb_nova,0.997085,1,2000.000000,1,COMPLETED_SUCCESSFULLY,4292.183912,79.600010,4371.783922,4291.186827,4370.786837,54.909376,2,-1.000000,""
15,w0,python3action_modeltraining_reviews100mb,0.000000,1,-1.000000,1,COMPLETED_SUCCESSFULLY,4371.783937,0.000010,4371.783947,4371.783937,4371.783947,437178394.700201,2,-1.000000,""
90_updated,w0,python3action_videoprocessing_SampleVideo_50mb_taurus,0.997085,1,2000.000000,1,COMPLETED_SUCCESSFULLY,4223.440411,154.250029,4377.690440,4222.443326,4376.693355,28.374020,29,-1.000000,""
90,w0,python3action_videoprocessing_SampleVideo_50mb,0.000000,1,-1.000000,1,COMPLETED_SUCCESSFULLY,4377.690455,0.000010,4377.690465,4377.690455,4377.690465,437769046.500201,29,-1.000000,""
24_updated,w0,python3action_modeltraining_reviews50mb_nova,0.997085,1,2000.000000,1,COMPLETED_SUCCESSFULLY,4371.783967,42.399990,4414.183957,4370.786882,4413.186872,104.084620,2,-1.000000,""
24,w0,python3action_modeltraining_reviews50mb,0.000000,1,-1.000000,1,COMPLETED_SUCCESSFULLY,4414.183972,0.000010,4414.183982,4414.183972,4414.183982,441418398.223907,2,-1.000000,""
27_updated,w0,python3action_modeltraining_reviews50mb_nova,0.997085,1,2000.000000,1,COMPLETED_SUCCESSFULLY,4414.184002,42.399990,4456.583992,4413.186917,4455.586907,105.084621,2,-1.000000,""
27,w0,python3action_modeltraining_reviews50mb,0.000000,1,-1.000000,1,COMPLETED_SUCCESSFULLY,4456.584007,0.000010,4456.584017,4456.584007,4456.584017,445658401.747612,2,-1.000000,""
117_updated,w0,python3action_videoprocessing_SampleVideo_50mb_taurus,0.997085,1,2000.000000,1,COMPLETED_SUCCESSFULLY,4377.690485,154.250029,4531.940514,4376.693400,4530.943429,29.374020,29,-1.000000,""
117,w0,python3action_videoprocessing_SampleVideo_50mb,0.000000,1,-1.000000,1,COMPLETED_SUCCESSFULLY,4531.940529,0.000010,4531.940539,4531.940529,4531.940539,453194053.900201,29,-1.000000,""
35_updated,w0,python3action_modeltraining_reviews100mb_nova,0.997085,1,2000.000000,1,COMPLETED_SUCCESSFULLY,4456.584037,79.600010,4536.184047,4455.586952,4535.186962,56.974704,2,-1.000000,""
35,w0,python3action_modeltraining_reviews100mb,0.000000,1,-1.000000,1,COMPLETED_SUCCESSFULLY,4536.184062,0.000010,4536.184072,4536.184062,4536.184072,453618407.225111,2,-1.000000,""
48_updated,w0,python3action_modeltraining_reviews100mb_nova,0.997085,1,2000.000000,1,COMPLETED_SUCCESSFULLY,4536.184092,79.600010,4615.784102,4535.187007,4614.787017,57.974704,2,-1.000000,""
48,w0,python3action_modeltraining_reviews100mb,0.000000,1,-1.000000,1,COMPLETED_SUCCESSFULLY,4615.784117,0.000010,4615.784127,4615.784117,4615.784127,461578412.702610,2,-1.000000,""
122_updated,w0,python3action_videoprocessing_SampleVideo_50mb_taurus,0.997085,1,2000.000000,1,COMPLETED_SUCCESSFULLY,4531.940559,154.250029,4686.190588,4530.943474,4685.193503,30.374020,29,-1.000000,""
122,w0,python3action_videoprocessing_SampleVideo_50mb,0.000000,1,-1.000000,1,COMPLETED_SUCCESSFULLY,4686.190603,0.000010,4686.190613,4686.190603,4686.190613,468619061.300201,29,-1.000000,""
53_updated,w0,python3action_modeltraining_reviews100mb_nova,0.997085,1,2000.000000,1,COMPLETED_SUCCESSFULLY,4615.784147,79.600010,4695.384157,4614.787062,4694.387072,58.974705,2,-1.000000,""
53,w0,python3action_modeltraining_reviews100mb,0.000000,1,-1.000000,1,COMPLETED_SUCCESSFULLY,4695.384172,0.000010,4695.384182,4695.384172,4695.384182,469538418.200201,2,-1.000000,""
63_updated,w0,python3action_modeltraining_reviews100mb_nova,0.997085,1,2000.000000,1,COMPLETED_SUCCESSFULLY,4695.384202,79.600010,4774.984212,4694.387117,4773.987127,59.974705,2,-1.000000,""
63,w0,python3action_modeltraining_reviews100mb,0.000000,1,-1.000000,1,COMPLETED_SUCCESSFULLY,4774.984227,0.000010,4774.984237,4774.984227,4774.984237,477498423.700201,2,-1.000000,""
139_updated,w0,python3action_videoprocessing_SampleVideo_50mb_taurus,0.997085,1,2000.000000,1,COMPLETED_SUCCESSFULLY,4686.190633,154.250029,4840.440662,4685.193548,4839.443577,31.374021,29,-1.000000,""
139,w0,python3action_videoprocessing_SampleVideo_50mb,0.000000,1,-1.000000,1,COMPLETED_SUCCESSFULLY,4840.440677,0.000010,4840.440687,4840.440677,4840.440687,484044068.700201,29,-1.000000,""
74_updated,w0,python3action_modeltraining_reviews100mb_nova,0.997085,1,2000.000000,1,COMPLETED_SUCCESSFULLY,4774.984257,79.600010,4854.584267,4773.987172,4853.587182,60.974706,2,-1.000000,""
74,w0,python3action_modeltraining_reviews100mb,0.000000,1,-1.000000,1,COMPLETED_SUCCESSFULLY,4854.584282,0.000010,4854.584292,4854.584282,4854.584292,485458429.200201,2,-1.000000,""
100_updated,w0,python3action_modeltraining_reviews100mb_nova,0.997085,1,2000.000000,1,COMPLETED_SUCCESSFULLY,4854.584312,79.600010,4934.184322,4853.587227,4933.187237,61.974706,2,-1.000000,""
100,w0,python3action_modeltraining_reviews100mb,0.000000,1,-1.000000,1,COMPLETED_SUCCESSFULLY,4934.184337,0.000010,4934.184347,4934.184337,4934.184347,493418434.700201,2,-1.000000,""
101_updated,w0,python3action_modeltraining_reviews50mb_nova,0.997085,1,2000.000000,1,COMPLETED_SUCCESSFULLY,4934.184367,42.399990,4976.584357,4933.187282,4975.587272,117.348783,2,-1.000000,""
101,w0,python3action_modeltraining_reviews50mb,0.000000,1,-1.000000,1,COMPLETED_SUCCESSFULLY,4976.584372,0.000010,4976.584382,4976.584372,4976.584382,497658438.223907,2,-1.000000,""
187_updated,w0,python3action_videoprocessing_SampleVideo_50mb_taurus,0.997085,1,2000.000000,1,COMPLETED_SUCCESSFULLY,4840.440707,154.250029,4994.690736,4839.443622,4993.693651,32.374021,29,-1.000000,""
187,w0,python3action_videoprocessing_SampleVideo_50mb,0.000000,1,-1.000000,1,COMPLETED_SUCCESSFULLY,4994.690751,0.000010,4994.690761,4994.690751,4994.690761,499469076.100201,29,-1.000000,""
108_updated,w0,python3action_modeltraining_reviews50mb_nova,0.997085,1,2000.000000,1,COMPLETED_SUCCESSFULLY,4976.584402,42.399990,5018.984392,4975.587317,5017.987307,118.348785,2,-1.000000,""
108,w0,python3action_modeltraining_reviews50mb,0.000000,1,-1.000000,1,COMPLETED_SUCCESSFULLY,5018.984407,0.000010,5018.984417,5018.984407,5018.984417,501898441.747613,2,-1.000000,""
109_updated,w0,python3action_modeltraining_reviews100mb_nova,0.997085,1,2000.000000,1,COMPLETED_SUCCESSFULLY,5018.984437,79.600010,5098.584447,5017.987352,5097.587362,64.040034,2,-1.000000,""
109,w0,python3action_modeltraining_reviews100mb,0.000000,1,-1.000000,1,COMPLETED_SUCCESSFULLY,5098.584462,0.000010,5098.584472,5098.584462,5098.584472,509858447.225111,2,-1.000000,""
188_updated,w0,python3action_videoprocessing_SampleVideo_50mb_taurus,0.997085,1,2000.000000,1,COMPLETED_SUCCESSFULLY,4994.690781,154.250029,5148.940810,4993.693696,5147.943725,33.374021,29,-1.000000,""
188,w0,python3action_videoprocessing_SampleVideo_50mb,0.000000,1,-1.000000,1,COMPLETED_SUCCESSFULLY,5148.940825,0.000010,5148.940835,5148.940825,5148.940835,514894083.500201,29,-1.000000,""
112_updated,w0,python3action_modeltraining_reviews100mb_nova,0.997085,1,2000.000000,1,COMPLETED_SUCCESSFULLY,5098.584492,79.600010,5178.184502,5097.587407,5177.187417,65.040035,2,-1.000000,""
112,w0,python3action_modeltraining_reviews100mb,0.000000,1,-1.000000,1,COMPLETED_SUCCESSFULLY,5178.184517,0.000010,5178.184527,5178.184517,5178.184527,517818452.702610,2,-1.000000,""
131_updated,w0,python3action_modeltraining_reviews100mb_nova,0.997085,1,2000.000000,1,COMPLETED_SUCCESSFULLY,5178.184547,79.600010,5257.784557,5177.187462,5256.787472,66.040036,2,-1.000000,""
131,w0,python3action_modeltraining_reviews100mb,0.000000,1,-1.000000,1,COMPLETED_SUCCESSFULLY,5257.784572,0.000010,5257.784582,5257.784572,5257.784582,525778458.200201,2,-1.000000,""
141_updated,w0,python3action_modeltraining_reviews100mb_nova,0.997085,1,2000.000000,1,COMPLETED_SUCCESSFULLY,5257.784602,79.600010,5337.384612,5256.787517,5336.387527,67.040036,2,-1.000000,""
141,w0,python3action_modeltraining_reviews100mb,0.000000,1,-1.000000,1,COMPLETED_SUCCESSFULLY,5337.384627,0.000010,5337.384637,5337.384627,5337.384637,533738463.700201,2,-1.000000,""
150_updated,w0,python3action_modeltraining_reviews100mb_nova,0.997085,1,2000.000000,1,COMPLETED_SUCCESSFULLY,5337.384657,79.600010,5416.984667,5336.387572,5415.987582,68.040037,2,-1.000000,""
150,w0,python3action_modeltraining_reviews100mb,0.000000,1,-1.000000,1,COMPLETED_SUCCESSFULLY,5416.984682,0.000010,5416.984692,5416.984682,5416.984692,541698469.200201,2,-1.000000,""
157_updated,w0,python3action_modeltraining_reviews50mb_nova,0.997085,1,2000.000000,1,COMPLETED_SUCCESSFULLY,5416.984712,42.399990,5459.384702,5415.987627,5458.387617,128.735587,2,-1.000000,""
157,w0,python3action_modeltraining_reviews50mb,0.000000,1,-1.000000,1,COMPLETED_SUCCESSFULLY,5459.384717,0.000010,5459.384727,5459.384717,5459.384727,545938472.723907,2,-1.000000,""
180_updated,w0,python3action_modeltraining_reviews50mb_nova,0.997085,1,2000.000000,1,COMPLETED_SUCCESSFULLY,5459.384747,42.399990,5501.784737,5458.387662,5500.787652,129.735588,2,-1.000000,""
180,w0,python3action_modeltraining_reviews50mb,0.000000,1,-1.000000,1,COMPLETED_SUCCESSFULLY,5501.784752,0.000010,5501.784762,5501.784752,5501.784762,550178476.247613,2,-1.000000,""
182_updated,w0,python3action_modeltraining_reviews50mb_nova,0.997085,1,2000.000000,1,COMPLETED_SUCCESSFULLY,5501.784782,42.399990,5544.184773,5500.787697,5543.187688,130.735589,2,-1.000000,""
182,w0,python3action_modeltraining_reviews50mb,0.000000,1,-1.000000,1,COMPLETED_SUCCESSFULLY,5544.184788,0.000010,5544.184798,5544.184788,5544.184798,554418479.800201,2,-1.000000,""
192_updated,w0,python3action_modeltraining_reviews50mb_nova,0.997085,1,2000.000000,1,COMPLETED_SUCCESSFULLY,5544.184818,42.399990,5586.584808,5543.187733,5585.587723,131.735590,2,-1.000000,""
192,w0,python3action_modeltraining_reviews50mb,0.000000,1,-1.000000,1,COMPLETED_SUCCESSFULLY,5586.584823,0.000010,5586.584833,5586.584823,5586.584833,558658483.323907,2,-1.000000,""
194_updated,w0,python3action_modeltraining_reviews50mb_nova,0.997085,1,2000.000000,1,COMPLETED_SUCCESSFULLY,5586.584853,42.399990,5628.984843,5585.587768,5627.987758,132.735591,2,-1.000000,""
194,w0,python3action_modeltraining_reviews50mb,0.000000,1,-1.000000,1,COMPLETED_SUCCESSFULLY,5628.984858,0.000010,5628.984868,5628.984858,5628.984868,562898486.847613,2,-1.000000,""
python3action_pyaes_job1_1,w0,python3action_pyaes_reduced_0.85,0.997085,1,2000.000000,1,COMPLETED_SUCCESSFULLY,5628.984888,0.320244,5629.305132,5627.987803,5628.308047,17575.076171,2,-1.000000,""
1_updated,w0,python3action_pyaes_4000_nova,0.997085,1,2000.000000,1,COMPLETED_SUCCESSFULLY,5629.305147,139.600010,5768.905157,5628.308062,5767.908072,41.317390,2,-1.000000,""
1,w0,python3action_pyaes_4000,0.000000,1,-1.000000,1,COMPLETED_SUCCESSFULLY,5768.905172,0.000010,5768.905182,5768.905172,5768.905182,576890518.200201,2,-1.000000,""
2_updated,w0,python3action_pyaes_3000_nova,0.997085,1,2000.000000,1,COMPLETED_SUCCESSFULLY,5768.905202,78.200020,5847.105222,5767.908117,5846.108137,74.758397,2,-1.000000,""
2,w0,python3action_pyaes_3000,0.000000,1,-1.000000,1,COMPLETED_SUCCESSFULLY,5847.105237,0.000010,5847.105247,5847.105237,5847.105247,584710524.700201,2,-1.000000,""
5_updated,w0,python3action_pyaes_4000_nova,0.997085,1,2000.000000,1,COMPLETED_SUCCESSFULLY,5847.105267,139.600010,5986.705277,5846.108182,5985.708192,42.877563,2,-1.000000,""
5,w0,python3action_pyaes_4000,0.000000,1,-1.000000,1,COMPLETED_SUCCESSFULLY,5986.705292,0.000010,5986.705302,5986.705292,5986.705302,598670530.200201,2,-1.000000,""
6_updated,w0,python3action_pyaes_3000_nova,0.997085,1,2000.000000,1,COMPLETED_SUCCESSFULLY,5986.705322,78.200020,6064.905342,5985.708237,6063.908257,77.543564,2,-1.000000,""
6,w0,python3action_pyaes_3000,0.000000,1,-1.000000,1,COMPLETED_SUCCESSFULLY,6064.905357,0.000010,6064.905367,6064.905357,6064.905367,606490536.700201,2,-1.000000,""
38_updated,w0,python3action_pyaes_4000_nova,0.997085,1,2000.000000,1,COMPLETED_SUCCESSFULLY,6064.905387,139.600010,6204.505397,6063.908302,6203.508312,44.437736,2,-1.000000,""
38,w0,python3action_pyaes_4000,0.000000,1,-1.000000,1,COMPLETED_SUCCESSFULLY,6204.505412,0.000010,6204.505422,6204.505412,6204.505422,620450542.200201,2,-1.000000,""
42_updated,w0,python3action_pyaes_4000_nova,0.997085,1,2000.000000,1,COMPLETED_SUCCESSFULLY,6204.505442,139.600010,6344.105452,6203.508357,6343.108367,45.437736,2,-1.000000,""
42,w0,python3action_pyaes_4000,0.000000,1,-1.000000,1,COMPLETED_SUCCESSFULLY,6344.105467,0.000010,6344.105477,6344.105467,6344.105477,634410547.700201,2,-1.000000,""
49_updated,w0,python3action_pyaes_3000_nova,0.997085,1,2000.000000,1,COMPLETED_SUCCESSFULLY,6344.105497,78.200020,6422.305517,6343.108412,6421.308432,82.113898,2,-1.000000,""
49,w0,python3action_pyaes_3000,0.000000,1,-1.000000,1,COMPLETED_SUCCESSFULLY,6422.305532,0.000010,6422.305542,6422.305532,6422.305542,642230554.200201,2,-1.000000,""
75_updated,w0,python3action_pyaes_4000_nova,0.997085,1,2000.000000,1,COMPLETED_SUCCESSFULLY,6422.305562,139.600010,6561.905572,6421.308477,6560.908487,46.997909,2,-1.000000,""
75,w0,python3action_pyaes_4000,0.000000,1,-1.000000,1,COMPLETED_SUCCESSFULLY,6561.905587,0.000010,6561.905597,6561.905587,6561.905597,656190559.700201,2,-1.000000,""
80_updated,w0,python3action_pyaes_3000_nova,0.997085,1,2000.000000,1,COMPLETED_SUCCESSFULLY,6561.905617,78.200020,6640.105637,6560.908532,6639.108552,84.899065,2,-1.000000,""
80,w0,python3action_pyaes_3000,0.000000,1,-1.000000,1,COMPLETED_SUCCESSFULLY,6640.105652,0.000010,6640.105662,6640.105652,6640.105662,664010566.200201,2,-1.000000,""
82_updated,w0,python3action_pyaes_3000_nova,0.997085,1,2000.000000,1,COMPLETED_SUCCESSFULLY,6640.105682,78.200020,6718.305702,6639.108597,6717.308617,85.899066,2,-1.000000,""
82,w0,python3action_pyaes_3000,0.000000,1,-1.000000,1,COMPLETED_SUCCESSFULLY,6718.305717,0.000010,6718.305727,6718.305717,6718.305727,671830572.700201,2,-1.000000,""
88_updated,w0,python3action_pyaes_3000_nova,0.997085,1,2000.000000,1,COMPLETED_SUCCESSFULLY,6718.305747,78.200020,6796.505767,6717.308662,6795.508682,86.899066,2,-1.000000,""
88,w0,python3action_pyaes_3000,0.000000,1,-1.000000,1,COMPLETED_SUCCESSFULLY,6796.505782,0.000010,6796.505792,6796.505782,6796.505792,679650579.200201,2,-1.000000,""
89_updated,w0,python3action_pyaes_3000_nova,0.997085,1,2000.000000,1,COMPLETED_SUCCESSFULLY,6796.505812,78.200020,6874.705832,6795.508727,6873.708747,87.899067,2,-1.000000,""
89,w0,python3action_pyaes_3000,0.000000,1,-1.000000,1,COMPLETED_SUCCESSFULLY,6874.705847,0.000010,6874.705857,6874.705847,6874.705857,687470585.700201,2,-1.000000,""
97_updated,w0,python3action_pyaes_4000_nova,0.997085,1,2000.000000,1,COMPLETED_SUCCESSFULLY,6874.705877,139.600010,7014.305887,6873.708792,7013.308802,50.238598,2,-1.000000,""
97,w0,python3action_pyaes_4000,0.000000,1,-1.000000,1,COMPLETED_SUCCESSFULLY,7014.305902,0.000010,7014.305912,7014.305902,7014.305912,701430591.200201,2,-1.000000,""
98_updated,w0,python3action_pyaes_3000_nova,0.997085,1,2000.000000,1,COMPLETED_SUCCESSFULLY,7014.305932,78.200020,7092.505952,7013.308847,7091.508867,90.684234,2,-1.000000,""
98,w0,python3action_pyaes_3000,0.000000,1,-1.000000,1,COMPLETED_SUCCESSFULLY,7092.505967,0.000010,7092.505977,7092.505967,7092.505977,709250597.700201,2,-1.000000,""
103_updated,w0,python3action_pyaes_3000_nova,0.997085,1,2000.000000,1,COMPLETED_SUCCESSFULLY,7092.505997,78.200020,7170.706017,7091.508912,7169.708932,91.684235,2,-1.000000,""
103,w0,python3action_pyaes_3000,0.000000,1,-1.000000,1,COMPLETED_SUCCESSFULLY,7170.706032,0.000010,7170.706042,7170.706032,7170.706042,717070604.200201,2,-1.000000,""
107_updated,w0,python3action_pyaes_4000_nova,0.997085,1,2000.000000,1,COMPLETED_SUCCESSFULLY,7170.706062,139.600010,7310.306072,7169.708977,7309.308987,52.358943,2,-1.000000,""
107,w0,python3action_pyaes_4000,0.000000,1,-1.000000,1,COMPLETED_SUCCESSFULLY,7310.306087,0.000010,7310.306097,7310.306087,7310.306097,731030609.700201,2,-1.000000,""
110_updated,w0,python3action_pyaes_4000_nova,0.997085,1,2000.000000,1,COMPLETED_SUCCESSFULLY,7310.306117,139.600010,7449.906127,7309.309032,7448.909042,53.358944,2,-1.000000,""
110,w0,python3action_pyaes_4000,0.000000,1,-1.000000,1,COMPLETED_SUCCESSFULLY,7449.906142,0.000010,7449.906152,7449.906142,7449.906152,744990615.200201,2,-1.000000,""
113_updated,w0,python3action_pyaes_4000_nova,0.997085,1,2000.000000,1,COMPLETED_SUCCESSFULLY,7449.906172,139.600010,7589.506182,7448.909087,7588.509097,54.358944,2,-1.000000,""
113,w0,python3action_pyaes_4000,0.000000,1,-1.000000,1,COMPLETED_SUCCESSFULLY,7589.506197,0.000010,7589.506207,7589.506197,7589.506207,758950620.700201,2,-1.000000,""
124_updated,w0,python3action_pyaes_4000_nova,0.997085,1,2000.000000,1,COMPLETED_SUCCESSFULLY,7589.506227,139.600010,7729.106237,7588.509142,7728.109152,55.358944,2,-1.000000,""
124,w0,python3action_pyaes_4000,0.000000,1,-1.000000,1,COMPLETED_SUCCESSFULLY,7729.106252,0.000010,7729.106262,7729.106252,7729.106262,772910626.200201,2,-1.000000,""
128_updated,w0,python3action_pyaes_3000_nova,0.997085,1,2000.000000,1,COMPLETED_SUCCESSFULLY,7729.106282,78.200020,7807.306302,7728.109197,7806.309217,99.824901,2,-1.000000,""
128,w0,python3action_pyaes_3000,0.000000,1,-1.000000,1,COMPLETED_SUCCESSFULLY,7807.306317,0.000010,7807.306327,7807.306317,7807.306327,780730632.700201,2,-1.000000,""
142_updated,w0,python3action_pyaes_4000_nova,0.997085,1,2000.000000,1,COMPLETED_SUCCESSFULLY,7807.306347,139.600010,7946.906357,7806.309262,7945.909272,56.919117,2,-1.000000,""
142,w0,python3action_pyaes_4000,0.000000,1,-1.000000,1,COMPLETED_SUCCESSFULLY,7946.906372,0.000010,7946.906382,7946.906372,7946.906382,794690638.200201,2,-1.000000,""
158_updated,w0,python3action_pyaes_4000_nova,0.997085,1,2000.000000,1,COMPLETED_SUCCESSFULLY,7946.906402,139.600010,8086.506412,7945.909317,8085.509327,57.919117,2,-1.000000,""
158,w0,python3action_pyaes_4000,0.000000,1,-1.000000,1,COMPLETED_SUCCESSFULLY,8086.506427,0.000010,8086.506437,8086.506427,8086.506437,808650643.700201,2,-1.000000,""
165_updated,w0,python3action_pyaes_3000_nova,0.997085,1,2000.000000,1,COMPLETED_SUCCESSFULLY,8086.506457,78.200020,8164.706477,8085.509372,8163.709392,104.395235,2,-1.000000,""
165,w0,python3action_pyaes_3000,0.000000,1,-1.000000,1,COMPLETED_SUCCESSFULLY,8164.706492,0.000010,8164.706502,8164.706492,8164.706502,816470650.200201,2,-1.000000,""
178_updated,w0,python3action_pyaes_3000_nova,0.997085,1,2000.000000,1,COMPLETED_SUCCESSFULLY,8164.706522,78.200020,8242.906542,8163.709437,8241.909457,105.395235,2,-1.000000,""
178,w0,python3action_pyaes_3000,0.000000,1,-1.000000,1,COMPLETED_SUCCESSFULLY,8242.906557,0.000010,8242.906567,8242.906557,8242.906567,824290656.700201,2,-1.000000,""
198_updated,w0,python3action_pyaes_4000_nova,0.997085,1,2000.000000,1,COMPLETED_SUCCESSFULLY,8242.906587,139.600010,8382.506597,8241.909502,8381.509512,60.039462,2,-1.000000,""
198,w0,python3action_pyaes_4000,0.000000,1,-1.000000,1,COMPLETED_SUCCESSFULLY,8382.506612,0.000010,8382.506622,8382.506612,8382.506622,838250662.200201,2,-1.000000,""
python3action_video_processing_job12_1,w0,python3action_video_processing_reduced_1.89,0.997085,1,2000.000000,1,COMPLETED_SUCCESSFULLY,8382.506642,0.000000,8382.506642,8381.509557,8381.509557,170658652152663.843750,2,-1.000000,""
12_updated,w0,python3action_videoprocessing_SampleVideo_30mb_nova,0.997085,1,2000.000000,1,COMPLETED_SUCCESSFULLY,8382.506672,106.799980,8489.306652,8381.509587,8488.309567,79.478569,2,-1.000000,""
12,w0,python3action_videoprocessing_SampleVideo_30mb,0.000000,1,-1.000000,1,COMPLETED_SUCCESSFULLY,8489.306667,0.000010,8489.306677,8489.306667,8489.306677,848930667.747412,2,-1.000000,""
26_updated,w0,python3action_videoprocessing_SampleVideo_30mb_nova,0.997085,1,2000.000000,1,COMPLETED_SUCCESSFULLY,8489.306697,106.799980,8596.106678,8488.309612,8595.109593,80.478569,2,-1.000000,""
26,w0,python3action_videoprocessing_SampleVideo_30mb,0.000000,1,-1.000000,1,COMPLETED_SUCCESSFULLY,8596.106693,0.000010,8596.106703,8596.106693,8596.106703,859610670.300201,2,-1.000000,""
30_updated,w0,python3action_videoprocessing_SampleVideo_30mb_nova,0.997085,1,2000.000000,1,COMPLETED_SUCCESSFULLY,8596.106723,106.799980,8702.906703,8595.109638,8701.909618,81.478569,2,-1.000000,""
30,w0,python3action_videoprocessing_SampleVideo_30mb,0.000000,1,-1.000000,1,COMPLETED_SUCCESSFULLY,8702.906718,0.000010,8702.906728,8702.906718,8702.906728,870290672.847010,2,-1.000000,""
32_updated,w0,python3action_videoprocessing_SampleVideo_30mb_nova,0.997085,1,2000.000000,1,COMPLETED_SUCCESSFULLY,8702.906748,106.799980,8809.706729,8701.909663,8808.709644,82.478570,2,-1.000000,""
32,w0,python3action_videoprocessing_SampleVideo_30mb,0.000000,1,-1.000000,1,COMPLETED_SUCCESSFULLY,8809.706744,0.000010,8809.706754,8809.706744,8809.706754,880970675.400201,2,-1.000000,""
34_updated,w0,python3action_videoprocessing_SampleVideo_30mb_nova,0.997085,1,2000.000000,1,COMPLETED_SUCCESSFULLY,8809.706774,106.799980,8916.506754,8808.709689,8915.509669,83.478570,2,-1.000000,""
34,w0,python3action_videoprocessing_SampleVideo_30mb,0.000000,1,-1.000000,1,COMPLETED_SUCCESSFULLY,8916.506769,0.000010,8916.506779,8916.506769,8916.506779,891650677.947010,2,-1.000000,""
51_updated,w0,python3action_videoprocessing_SampleVideo_30mb_nova,0.997085,1,2000.000000,1,COMPLETED_SUCCESSFULLY,8916.506799,106.799980,9023.306780,8915.509714,9022.309695,84.478571,2,-1.000000,""
51,w0,python3action_videoprocessing_SampleVideo_30mb,0.000000,1,-1.000000,1,COMPLETED_SUCCESSFULLY,9023.306795,0.000010,9023.306805,9023.306795,9023.306805,902330680.500201,2,-1.000000,""
66_updated,w0,python3action_videoprocessing_SampleVideo_30mb_nova,0.997085,1,2000.000000,1,COMPLETED_SUCCESSFULLY,9023.306825,106.799980,9130.106805,9022.309740,9129.109720,85.478571,2,-1.000000,""
66,w0,python3action_videoprocessing_SampleVideo_30mb,0.000000,1,-1.000000,1,COMPLETED_SUCCESSFULLY,9130.106820,0.000010,9130.106830,9130.106820,9130.106830,913010683.047010,2,-1.000000,""
81_updated,w0,python3action_videoprocessing_SampleVideo_30mb_nova,0.997085,1,2000.000000,1,COMPLETED_SUCCESSFULLY,9130.106850,106.799980,9236.906831,9129.109765,9235.909746,86.478571,2,-1.000000,""
81,w0,python3action_videoprocessing_SampleVideo_30mb,0.000000,1,-1.000000,1,COMPLETED_SUCCESSFULLY,9236.906846,0.000010,9236.906856,9236.906846,9236.906856,923690685.600201,2,-1.000000,""
92_updated,w0,python3action_videoprocessing_SampleVideo_30mb_nova,0.997085,1,2000.000000,1,COMPLETED_SUCCESSFULLY,9236.906876,106.799980,9343.706856,9235.909791,9342.709771,87.478572,2,-1.000000,""
92,w0,python3action_videoprocessing_SampleVideo_30mb,0.000000,1,-1.000000,1,COMPLETED_SUCCESSFULLY,9343.706871,0.000010,9343.706881,9343.706871,9343.706881,934370688.147010,2,-1.000000,""
94_updated,w0,python3action_videoprocessing_SampleVideo_30mb_nova,0.997085,1,2000.000000,1,COMPLETED_SUCCESSFULLY,9343.706901,106.799980,9450.506882,9342.709816,9449.509797,88.478572,2,-1.000000,""
94,w0,python3action_videoprocessing_SampleVideo_30mb,0.000000,1,-1.000000,1,COMPLETED_SUCCESSFULLY,9450.506897,0.000010,9450.506907,9450.506897,9450.506907,945050690.700201,2,-1.000000,""
105_updated,w0,python3action_videoprocessing_SampleVideo_30mb_nova,0.997085,1,2000.000000,1,COMPLETED_SUCCESSFULLY,9450.506927,106.799980,9557.306907,9449.509842,9556.309822,89.478573,2,-1.000000,""
105,w0,python3action_videoprocessing_SampleVideo_30mb,0.000000,1,-1.000000,1,COMPLETED_SUCCESSFULLY,9557.306922,0.000010,9557.306932,9557.306922,9557.306932,955730693.247010,2,-1.000000,""
138_updated,w0,python3action_videoprocessing_SampleVideo_30mb_nova,0.997085,1,2000.000000,1,COMPLETED_SUCCESSFULLY,9557.306952,106.799980,9664.106933,9556.309867,9663.109848,90.478573,2,-1.000000,""
138,w0,python3action_videoprocessing_SampleVideo_30mb,0.000000,1,-1.000000,1,COMPLETED_SUCCESSFULLY,9664.106948,0.000010,9664.106958,9664.106948,9664.106958,966410695.800201,2,-1.000000,""
145_updated,w0,python3action_videoprocessing_SampleVideo_30mb_nova,0.997085,1,2000.000000,1,COMPLETED_SUCCESSFULLY,9664.106978,106.799980,9770.906958,9663.109893,9769.909873,91.478574,2,-1.000000,""
145,w0,python3action_videoprocessing_SampleVideo_30mb,0.000000,1,-1.000000,1,COMPLETED_SUCCESSFULLY,9770.906973,0.000010,9770.906983,9770.906973,9770.906983,977090698.347010,2,-1.000000,""
153_updated,w0,python3action_videoprocessing_SampleVideo_30mb_nova,0.997085,1,2000.000000,1,COMPLETED_SUCCESSFULLY,9770.907003,106.799980,9877.706984,9769.909918,9876.709899,92.478574,2,-1.000000,""
153,w0,python3action_videoprocessing_SampleVideo_30mb,0.000000,1,-1.000000,1,COMPLETED_SUCCESSFULLY,9877.706999,0.000010,9877.707009,9877.706999,9877.707009,987770700.900201,2,-1.000000,""
156_updated,w0,python3action_videoprocessing_SampleVideo_30mb_nova,0.997085,1,2000.000000,1,COMPLETED_SUCCESSFULLY,9877.707029,106.799980,9984.507009,9876.709944,9983.509924,93.478574,2,-1.000000,""
156,w0,python3action_videoprocessing_SampleVideo_30mb,0.000000,1,-1.000000,1,COMPLETED_SUCCESSFULLY,9984.507024,0.000010,9984.507034,9984.507024,9984.507034,998450703.447010,2,-1.000000,""
166_updated,w0,python3action_videoprocessing_SampleVideo_30mb_nova,0.997085,1,2000.000000,1,COMPLETED_SUCCESSFULLY,9984.507054,106.799980,10091.307035,9983.509969,10090.309950,94.478575,2,-1.000000,""
166,w0,python3action_videoprocessing_SampleVideo_30mb,0.000000,1,-1.000000,1,COMPLETED_SUCCESSFULLY,10091.307050,0.000010,10091.307060,10091.307050,10091.307060,1009130706.000201,2,-1.000000,""
173_updated,w0,python3action_videoprocessing_SampleVideo_30mb_nova,0.997085,1,2000.000000,1,COMPLETED_SUCCESSFULLY,10091.307080,106.799980,10198.107060,10090.309995,10197.109975,95.478575,2,-1.000000,""
173,w0,python3action_videoprocessing_SampleVideo_30mb,0.000000,1,-1.000000,1,COMPLETED_SUCCESSFULLY,10198.107075,0.000010,10198.107085,10198.107075,10198.107085,1019810708.547010,2,-1.000000,""
189_updated,w0,python3action_videoprocessing_SampleVideo_30mb_nova,0.997085,1,2000.000000,1,COMPLETED_SUCCESSFULLY,10198.107105,106.799980,10304.907086,10197.110020,10303.910001,96.478576,2,-1.000000,""
189,w0,python3action_videoprocessing_SampleVideo_30mb,0.000000,1,-1.000000,1,COMPLETED_SUCCESSFULLY,10304.907101,0.000010,10304.907111,10304.907101,10304.907111,1030490711.100201,2,-1.000000,""
190_updated,w0,python3action_videoprocessing_SampleVideo_30mb_nova,0.997085,1,2000.000000,1,COMPLETED_SUCCESSFULLY,10304.907131,106.799980,10411.707111,10303.910046,10410.710026,97.478576,2,-1.000000,""
190,w0,python3action_videoprocessing_SampleVideo_30mb,0.000000,1,-1.000000,1,COMPLETED_SUCCESSFULLY,10411.707126,0.000010,10411.707136,10411.707126,10411.707136,1041170713.647010,2,-1.000000,""
196_updated,w0,python3action_videoprocessing_SampleVideo_30mb_nova,0.997085,1,2000.000000,1,COMPLETED_SUCCESSFULLY,10411.707156,106.799980,10518.507137,10410.710071,10517.510052,98.478577,2,-1.000000,""
196,w0,python3action_videoprocessing_SampleVideo_30mb,0.000000,1,-1.000000,1,COMPLETED_SUCCESSFULLY,10518.507152,0.000010,10518.507162,10518.507152,10518.507162,1051850716.200201,2,-1.000000,""
199_updated,w0,python3action_videoprocessing_SampleVideo_30mb_nova,0.997085,1,2000.000000,1,COMPLETED_SUCCESSFULLY,10518.507182,106.799980,10625.307162,10517.510097,10624.310077,99.478577,2,-1.000000,""
199,w0,python3action_videoprocessing_SampleVideo_30mb,0.000000,1,-1.000000,1,COMPLETED_SUCCESSFULLY,10625.307177,0.000010,10625.307187,10625.307177,10625.307187,1062530718.747010,2,-1.000000,""
