job_id,workload_name,profile,submission_time,requested_number_of_resources,requested_time,success,final_state,starting_time,execution_time,finish_time,waiting_time,turnaround_time,stretch,allocated_resources,consumed_energy,metadata
python3action_chameleon_job0_0,w0,python3action_chameleon,0.997085,1,2000.000000,1,COMPLETED_SUCCESSFULLY,1.002100,0.243006,1.245106,0.005015,0.248021,1.020637,0,-1.000000,""
python3action_pyaes_job7_2,w0,python3action_pyaes,0.997085,1,2000.000000,1,COMPLETED_SUCCESSFULLY,1.002130,0.867914,1.870044,0.005045,0.872959,1.005813,4,-1.000000,""
python3action_chameleon_job34_3,w0,python3action_chameleon,0.997085,1,2000.000000,1,COMPLETED_SUCCESSFULLY,1.002145,0.892694,1.894839,0.005060,0.897754,1.005668,5,-1.000000,""
python3action_linpack_job8_5,w0,python3action_linpack,0.997085,1,2000.000000,1,COMPLETED_SUCCESSFULLY,1.002175,5.760927,6.763102,0.005090,5.766017,1.000884,11,-1.000000,""
0_updated,w0,python3action_chameleon_2000_neowise,0.997085,1,2000.000000,1,COMPLETED_SUCCESSFULLY,1.245121,24.200002,25.445123,0.248036,24.448038,1.010249,0,-1.000000,""
0,w0,python3action_chameleon_2000,0.000000,1,-1.000000,1,COMPLETED_SUCCESSFULLY,25.445138,0.000010,25.445148,25.445138,25.445148,2544514.822787,0,-1.000000,""
python3action_facedetection_job13_4,w0,python3action_facedetection,0.997085,1,2000.000000,1,COMPLETED_SUCCESSFULLY,1.002160,30.499683,31.501843,0.005075,30.504758,1.000166,6,-1.000000,""
1_updated,w0,python3action_chameleon_2000_neowise,0.997085,1,2000.000000,1,COMPLETED_SUCCESSFULLY,25.445168,24.200002,49.645170,24.448083,48.648085,2.010251,0,-1.000000,""
1,w0,python3action_chameleon_2000,0.000000,1,-1.000000,1,COMPLETED_SUCCESSFULLY,49.645185,0.000010,49.645195,49.645185,49.645195,4964519.545775,0,-1.000000,""
python3action_facedetection_job2_1,w0,python3action_facedetection,0.997085,1,2000.000000,1,COMPLETED_SUCCESSFULLY,1.002115,72.012455,73.014570,0.005030,72.017485,1.000070,2,-1.000000,""
38_updated,w0,python3action_chameleon_2000_neowise,0.997085,1,2000.000000,1,COMPLETED_SUCCESSFULLY,49.645215,24.200002,73.845218,48.648130,72.848133,3.010253,0,-1.000000,""
38,w0,python3action_chameleon_2000,0.000000,1,-1.000000,1,COMPLETED_SUCCESSFULLY,73.845233,0.000010,73.845243,73.845233,73.845243,7384524.300201,0,-1.000000,""
34_updated,w0,python3action_chameleon_3000_yeti,0.997085,1,2000.000000,1,COMPLETED_SUCCESSFULLY,1.894854,93.000000,94.894854,0.897769,93.897769,1.009653,5,-1.000000,""
34,w0,python3action_chameleon_3000,0.000000,1,-1.000000,1,COMPLETED_SUCCESSFULLY,94.894869,0.000010,94.894879,94.894869,94.894879,9489487.949564,5,-1.000000,""
41_updated,w0,python3action_chameleon_2000_neowise,0.997085,1,2000.000000,1,COMPLETED_SUCCESSFULLY,73.845263,24.200002,98.045265,72.848178,97.048180,4.010255,0,-1.000000,""
41,w0,python3action_chameleon_2000,0.000000,1,-1.000000,1,COMPLETED_SUCCESSFULLY,98.045280,0.000010,98.045290,98.045280,98.045290,9804529.023189,0,-1.000000,""
7_updated,w0,python3action_pyaes_4000_troll,0.997085,1,2000.000000,1,COMPLETED_SUCCESSFULLY,1.870059,102.333333,104.203392,0.872974,103.206307,1.008531,4,-1.000000,""
7,w0,python3action_pyaes_4000,0.000000,1,-1.000000,1,COMPLETED_SUCCESSFULLY,104.203407,0.000010,104.203417,104.203407,104.203417,10420341.733735,4,-1.000000,""
8_updated,w0,python3action_linpack_6000_orion,0.997085,1,2000.000000,1,COMPLETED_SUCCESSFULLY,6.763117,106.000000,112.763117,5.766032,111.766032,1.054397,11,-1.000000,""
8,w0,python3action_linpack_6000,0.000000,1,-1.000000,1,COMPLETED_SUCCESSFULLY,112.763132,0.000010,112.763142,112.763132,112.763142,11276314.224476,11,-1.000000,""
44_updated,w0,python3action_chameleon_2000_neowise,0.997085,1,2000.000000,1,COMPLETED_SUCCESSFULLY,98.045310,24.200002,122.245312,97.048225,121.248227,5.010257,0,-1.000000,""
44,w0,python3action_chameleon_2000,0.000000,1,-1.000000,1,COMPLETED_SUCCESSFULLY,122.245327,0.000010,122.245337,122.245327,122.245337,12224533.746176,0,-1.000000,""
64_updated,w0,python3action_chameleon_2000_neowise,0.997085,1,2000.000000,1,COMPLETED_SUCCESSFULLY,122.245357,24.200002,146.445360,121.248272,145.448275,6.010259,0,-1.000000,""
64,w0,python3action_chameleon_2000,0.000000,1,-1.000000,1,COMPLETED_SUCCESSFULLY,146.445375,0.000010,146.445385,146.445375,146.445385,14644538.500201,0,-1.000000,""
20_updated,w0,python3action_pyaes_3000_troll,0.997085,1,2000.000000,1,COMPLETED_SUCCESSFULLY,104.203437,57.166677,161.370114,103.206352,160.373029,2.805359,4,-1.000000,""
20,w0,python3action_pyaes_3000,0.000000,1,-1.000000,1,COMPLETED_SUCCESSFULLY,161.370129,0.000010,161.370139,161.370129,161.370139,16137013.900201,4,-1.000000,""
70_updated,w0,python3action_chameleon_2000_neowise,0.997085,1,2000.000000,1,COMPLETED_SUCCESSFULLY,146.445405,24.200002,170.645407,145.448320,169.648322,7.010261,0,-1.000000,""
70,w0,python3action_chameleon_2000,0.000000,1,-1.000000,1,COMPLETED_SUCCESSFULLY,170.645422,0.000010,170.645432,170.645422,170.645432,17064543.223189,0,-1.000000,""
72_updated,w0,python3action_chameleon_3000_yeti,0.997085,1,2000.000000,1,COMPLETED_SUCCESSFULLY,94.894899,93.000000,187.894899,93.897814,186.897814,2.009654,5,-1.000000,""
72,w0,python3action_chameleon_3000,0.000000,1,-1.000000,1,COMPLETED_SUCCESSFULLY,187.894915,0.000010,187.894925,187.894915,187.894925,18789492.450166,5,-1.000000,""
13_updated,w0,python3action_facedetection_SampleVideo_30mb_nova,0.997085,1,2000.000000,1,COMPLETED_SUCCESSFULLY,31.501858,160.399990,191.901848,30.504773,190.904763,1.190179,6,-1.000000,""
13,w0,python3action_facedetection_SampleVideo_30mb,0.000000,1,-1.000000,1,COMPLETED_SUCCESSFULLY,191.901863,0.000010,191.901873,191.901863,191.901873,19190187.323505,6,-1.000000,""
2_updated,w0,python3action_facedetection_SampleVideo_50mb_taurus,0.997085,1,2000.000000,1,COMPLETED_SUCCESSFULLY,73.014585,134.600046,207.614631,72.017500,206.617546,1.535048,2,-1.000000,""
2,w0,python3action_facedetection_SampleVideo_50mb,0.000000,1,-1.000000,1,COMPLETED_SUCCESSFULLY,207.614646,0.000010,207.614656,207.614646,207.614656,20761465.644962,2,-1.000000,""
26_updated,w0,python3action_linpack_6000_orion,0.997085,1,2000.000000,1,COMPLETED_SUCCESSFULLY,112.763162,106.000000,218.763162,111.766077,217.766077,2.054397,11,-1.000000,""
26,w0,python3action_linpack_6000,0.000000,1,-1.000000,1,COMPLETED_SUCCESSFULLY,218.763177,0.000010,218.763187,218.763177,218.763187,21876318.725078,11,-1.000000,""
75_updated,w0,python3action_chameleon_3000_neowise,0.997085,1,2000.000000,1,COMPLETED_SUCCESSFULLY,170.645452,55.799998,226.445450,169.648367,225.448365,4.040293,0,-1.000000,""
75,w0,python3action_chameleon_3000,0.000000,1,-1.000000,1,COMPLETED_SUCCESSFULLY,226.445465,0.000010,226.445475,226.445465,226.445475,22644547.501406,0,-1.000000,""
90_updated,w0,python3action_chameleon_2000_neowise,0.997085,1,2000.000000,1,COMPLETED_SUCCESSFULLY,226.445495,24.200002,250.645497,225.448410,249.648412,10.316049,0,-1.000000,""
90,w0,python3action_chameleon_2000,0.000000,1,-1.000000,1,COMPLETED_SUCCESSFULLY,250.645512,0.000010,250.645522,250.645512,250.645522,25064552.224393,0,-1.000000,""
23_updated,w0,python3action_pyaes_4000_troll,0.997085,1,2000.000000,1,COMPLETED_SUCCESSFULLY,161.370159,102.333333,263.703492,160.373074,262.706407,2.567164,4,-1.000000,""
23,w0,python3action_pyaes_4000,0.000000,1,-1.000000,1,COMPLETED_SUCCESSFULLY,263.703507,0.000010,263.703517,263.703507,263.703517,26370351.734137,4,-1.000000,""
98_updated,w0,python3action_chameleon_2000_neowise,0.997085,1,2000.000000,1,COMPLETED_SUCCESSFULLY,250.645542,24.200002,274.845544,249.648457,273.848459,11.316051,0,-1.000000,""
98,w0,python3action_chameleon_2000,0.000000,1,-1.000000,1,COMPLETED_SUCCESSFULLY,274.845559,0.000010,274.845569,274.845559,274.845569,27484556.947381,0,-1.000000,""
84_updated,w0,python3action_chameleon_3000_yeti,0.997085,1,2000.000000,1,COMPLETED_SUCCESSFULLY,187.894945,93.000000,280.894945,186.897860,279.897860,3.009654,5,-1.000000,""
84,w0,python3action_chameleon_3000,0.000000,1,-1.000000,1,COMPLETED_SUCCESSFULLY,280.894960,0.000010,280.894970,280.894960,280.894970,28089497.000402,5,-1.000000,""
132_updated,w0,python3action_chameleon_2000_neowise,0.997085,1,2000.000000,1,COMPLETED_SUCCESSFULLY,274.845589,24.200002,299.045592,273.848504,298.048507,12.316053,0,-1.000000,""
132,w0,python3action_chameleon_2000,0.000000,1,-1.000000,1,COMPLETED_SUCCESSFULLY,299.045607,0.000010,299.045617,299.045607,299.045617,29904561.700201,0,-1.000000,""
27_updated,w0,python3action_pyaes_3000_troll,0.997085,1,2000.000000,1,COMPLETED_SUCCESSFULLY,263.703537,57.166677,320.870214,262.706452,319.873129,5.595447,4,-1.000000,""
27,w0,python3action_pyaes_3000,0.000000,1,-1.000000,1,COMPLETED_SUCCESSFULLY,320.870229,0.000010,320.870239,320.870229,320.870239,32087023.900201,4,-1.000000,""
137_updated,w0,python3action_chameleon_2000_neowise,0.997085,1,2000.000000,1,COMPLETED_SUCCESSFULLY,299.045637,24.200002,323.245639,298.048552,322.248554,13.316055,0,-1.000000,""
137,w0,python3action_chameleon_2000,0.000000,1,-1.000000,1,COMPLETED_SUCCESSFULLY,323.245654,0.000010,323.245664,323.245654,323.245664,32324566.423189,0,-1.000000,""
29_updated,w0,python3action_linpack_6000_orion,0.997085,1,2000.000000,1,COMPLETED_SUCCESSFULLY,218.763207,106.000000,324.763207,217.766122,323.766122,3.054397,11,-1.000000,""
29,w0,python3action_linpack_6000,0.000000,1,-1.000000,1,COMPLETED_SUCCESSFULLY,324.763222,0.000010,324.763232,324.763222,324.763232,32476323.225681,11,-1.000000,""
6_updated,w0,python3action_facedetection_SampleVideo_50mb_taurus,0.997085,1,2000.000000,1,COMPLETED_SUCCESSFULLY,207.614676,134.600046,342.214723,206.617591,341.217638,2.535048,2,-1.000000,""
6,w0,python3action_facedetection_SampleVideo_50mb,0.000000,1,-1.000000,1,COMPLETED_SUCCESSFULLY,342.214738,0.000010,342.214748,342.214738,342.214748,34221474.800201,2,-1.000000,""
139_updated,w0,python3action_chameleon_2000_neowise,0.997085,1,2000.000000,1,COMPLETED_SUCCESSFULLY,323.245684,24.200002,347.445686,322.248599,346.448601,14.316057,0,-1.000000,""
139,w0,python3action_chameleon_2000,0.000000,1,-1.000000,1,COMPLETED_SUCCESSFULLY,347.445701,0.000010,347.445711,347.445701,347.445711,34744571.146176,0,-1.000000,""
21_updated,w0,python3action_facedetection_SampleVideo_30mb_nova,0.997085,1,2000.000000,1,COMPLETED_SUCCESSFULLY,191.901893,160.399990,352.301883,190.904808,351.304798,2.190180,6,-1.000000,""
21,w0,python3action_facedetection_SampleVideo_30mb,0.000000,1,-1.000000,1,COMPLETED_SUCCESSFULLY,352.301898,0.000010,352.301908,352.301898,352.301908,35230190.847211,6,-1.000000,""
153_updated,w0,python3action_chameleon_2000_neowise,0.997085,1,2000.000000,1,COMPLETED_SUCCESSFULLY,347.445731,24.200002,371.645734,346.448646,370.648649,15.316058,0,-1.000000,""
153,w0,python3action_chameleon_2000,0.000000,1,-1.000000,1,COMPLETED_SUCCESSFULLY,371.645749,0.000010,371.645759,371.645749,371.645759,37164575.900201,0,-1.000000,""
85_updated,w0,python3action_chameleon_3000_yeti,0.997085,1,2000.000000,1,COMPLETED_SUCCESSFULLY,280.894990,93.000000,373.894990,279.897905,372.897905,4.009655,5,-1.000000,""
85,w0,python3action_chameleon_3000,0.000000,1,-1.000000,1,COMPLETED_SUCCESSFULLY,373.895005,0.000010,373.895015,373.895005,373.895015,37389501.501004,5,-1.000000,""
32_updated,w0,python3action_pyaes_3000_troll,0.997085,1,2000.000000,1,COMPLETED_SUCCESSFULLY,320.870259,57.166677,378.036936,319.873174,377.039851,6.595448,4,-1.000000,""
32,w0,python3action_pyaes_3000,0.000000,1,-1.000000,1,COMPLETED_SUCCESSFULLY,378.036951,0.000010,378.036961,378.036951,378.036961,37803696.100201,4,-1.000000,""
170_updated,w0,python3action_chameleon_2000_neowise,0.997085,1,2000.000000,1,COMPLETED_SUCCESSFULLY,371.645779,24.200002,395.845781,370.648694,394.848696,16.316060,0,-1.000000,""
170,w0,python3action_chameleon_2000,0.000000,1,-1.000000,1,COMPLETED_SUCCESSFULLY,395.845796,0.000010,395.845806,395.845796,395.845806,39584580.623189,0,-1.000000,""
173_updated,w0,python3action_chameleon_2000_neowise,0.997085,1,2000.000000,1,COMPLETED_SUCCESSFULLY,395.845826,24.200002,420.045828,394.848741,419.048743,17.316062,0,-1.000000,""
173,w0,python3action_chameleon_2000,0.000000,1,-1.000000,1,COMPLETED_SUCCESSFULLY,420.045843,0.000010,420.045853,420.045843,420.045853,42004585.346176,0,-1.000000,""
50_updated,w0,python3action_linpack_6000_orion,0.997085,1,2000.000000,1,COMPLETED_SUCCESSFULLY,324.763252,106.000000,430.763252,323.766167,429.766167,4.054398,11,-1.000000,""
50,w0,python3action_linpack_6000,0.000000,1,-1.000000,1,COMPLETED_SUCCESSFULLY,430.763267,0.000010,430.763277,430.763267,430.763277,43076327.726283,11,-1.000000,""
181_updated,w0,python3action_chameleon_2000_neowise,0.997085,1,2000.000000,1,COMPLETED_SUCCESSFULLY,420.045873,24.200002,444.245876,419.048788,443.248791,18.316064,0,-1.000000,""
181,w0,python3action_chameleon_2000,0.000000,1,-1.000000,1,COMPLETED_SUCCESSFULLY,444.245891,0.000010,444.245901,444.245891,444.245901,44424590.100201,0,-1.000000,""
119_updated,w0,python3action_chameleon_3000_yeti,0.997085,1,2000.000000,1,COMPLETED_SUCCESSFULLY,373.895035,93.000000,466.895035,372.897950,465.897950,5.009655,5,-1.000000,""
119,w0,python3action_chameleon_3000,0.000000,1,-1.000000,1,COMPLETED_SUCCESSFULLY,466.895050,0.000010,466.895060,466.895050,466.895060,46689506.001607,5,-1.000000,""
182_updated,w0,python3action_chameleon_2000_neowise,0.997085,1,2000.000000,1,COMPLETED_SUCCESSFULLY,444.245921,24.200002,468.445923,443.248836,467.448838,19.316066,0,-1.000000,""
182,w0,python3action_chameleon_2000,0.000000,1,-1.000000,1,COMPLETED_SUCCESSFULLY,468.445938,0.000010,468.445948,468.445938,468.445948,46844594.823189,0,-1.000000,""
14_updated,w0,python3action_facedetection_SampleVideo_50mb_taurus,0.997085,1,2000.000000,1,COMPLETED_SUCCESSFULLY,342.214768,134.600046,476.814814,341.217683,475.817729,3.535049,2,-1.000000,""
14,w0,python3action_facedetection_SampleVideo_50mb,0.000000,1,-1.000000,1,COMPLETED_SUCCESSFULLY,476.814829,0.000010,476.814839,476.814829,476.814839,47681483.913881,2,-1.000000,""
39_updated,w0,python3action_pyaes_4000_troll,0.997085,1,2000.000000,1,COMPLETED_SUCCESSFULLY,378.036981,102.333333,480.370314,377.039896,479.373229,4.684429,4,-1.000000,""
39,w0,python3action_pyaes_4000,0.000000,1,-1.000000,1,COMPLETED_SUCCESSFULLY,480.370329,0.000010,480.370339,480.370329,480.370339,48037033.934137,4,-1.000000,""
184_updated,w0,python3action_chameleon_2000_neowise,0.997085,1,2000.000000,1,COMPLETED_SUCCESSFULLY,468.445968,24.200002,492.645970,467.448883,491.648885,20.316068,0,-1.000000,""
184,w0,python3action_chameleon_2000,0.000000,1,-1.000000,1,COMPLETED_SUCCESSFULLY,492.645985,0.000010,492.645995,492.645985,492.645995,49264599.546176,0,-1.000000,""
python3action_image_processing_job4_1,w0,python3action_image_processing,0.997085,1,2000.000000,1,COMPLETED_SUCCESSFULLY,492.646015,3.471546,496.117561,491.648930,495.120476,142.622481,0,-1.000000,""
46_updated,w0,python3action_facedetection_SampleVideo_30mb_nova,0.997085,1,2000.000000,1,COMPLETED_SUCCESSFULLY,352.301928,160.399990,512.701919,351.304843,511.704834,3.190180,6,-1.000000,""
46,w0,python3action_facedetection_SampleVideo_30mb,0.000000,1,-1.000000,1,COMPLETED_SUCCESSFULLY,512.701934,0.000010,512.701944,512.701934,512.701944,51270194.400201,6,-1.000000,""
4_updated,w0,python3action_imageprocessing_SampleImage_60mb_neowise,0.997085,1,2000.000000,1,COMPLETED_SUCCESSFULLY,496.117576,37.500000,533.617576,495.120491,532.620491,14.203213,0,-1.000000,""
4,w0,python3action_imageprocessing_SampleImage_60mb,0.000000,1,-1.000000,1,COMPLETED_SUCCESSFULLY,533.617591,0.000010,533.617601,533.617591,533.617601,53361760.127005,0,-1.000000,""
96_updated,w0,python3action_linpack_6000_orion,0.997085,1,2000.000000,1,COMPLETED_SUCCESSFULLY,430.763297,106.000000,536.763297,429.766212,535.766212,5.054398,11,-1.000000,""
96,w0,python3action_linpack_6000,0.000000,1,-1.000000,1,COMPLETED_SUCCESSFULLY,536.763312,0.000010,536.763322,536.763312,536.763322,53676332.226886,11,-1.000000,""
52_updated,w0,python3action_pyaes_3000_troll,0.997085,1,2000.000000,1,COMPLETED_SUCCESSFULLY,480.370359,57.166677,537.537036,479.373274,536.539951,9.385537,4,-1.000000,""
52,w0,python3action_pyaes_3000,0.000000,1,-1.000000,1,COMPLETED_SUCCESSFULLY,537.537051,0.000010,537.537061,537.537051,537.537061,53753706.100201,4,-1.000000,""
125_updated,w0,python3action_chameleon_3000_yeti,0.997085,1,2000.000000,1,COMPLETED_SUCCESSFULLY,466.895080,93.000000,559.895080,465.897995,558.897995,6.009656,5,-1.000000,""
125,w0,python3action_chameleon_3000,0.000000,1,-1.000000,1,COMPLETED_SUCCESSFULLY,559.895095,0.000010,559.895105,559.895095,559.895105,55989510.502209,5,-1.000000,""
36_updated,w0,python3action_imageprocessing_SampleImage_60mb_neowise,0.997085,1,2000.000000,1,COMPLETED_SUCCESSFULLY,533.617621,37.500000,571.117621,532.620536,570.120536,15.203214,0,-1.000000,""
36,w0,python3action_imageprocessing_SampleImage_60mb,0.000000,1,-1.000000,1,COMPLETED_SUCCESSFULLY,571.117636,0.000010,571.117646,571.117636,571.117646,57111764.627607,0,-1.000000,""
91_updated,w0,python3action_pyaes_3000_troll,0.997085,1,2000.000000,1,COMPLETED_SUCCESSFULLY,537.537081,57.166677,594.703758,536.539996,593.706673,10.385538,4,-1.000000,""
91,w0,python3action_pyaes_3000,0.000000,1,-1.000000,1,COMPLETED_SUCCESSFULLY,594.703773,0.000010,594.703783,594.703773,594.703783,59470378.300201,4,-1.000000,""
49_updated,w0,python3action_imageprocessing_SampleImage_60mb_neowise,0.997085,1,2000.000000,1,COMPLETED_SUCCESSFULLY,571.117666,37.500000,608.617666,570.120581,607.620581,16.203216,0,-1.000000,""
49,w0,python3action_imageprocessing_SampleImage_60mb,0.000000,1,-1.000000,1,COMPLETED_SUCCESSFULLY,608.617681,0.000010,608.617691,608.617681,608.617691,60861769.128210,0,-1.000000,""
48_updated,w0,python3action_facedetection_SampleVideo_50mb_taurus,0.997085,1,2000.000000,1,COMPLETED_SUCCESSFULLY,476.814859,134.600046,611.414905,475.817774,610.417820,4.535049,2,-1.000000,""
48,w0,python3action_facedetection_SampleVideo_50mb,0.000000,1,-1.000000,1,COMPLETED_SUCCESSFULLY,611.414920,0.000010,611.414930,611.414920,611.414930,61141493.027562,2,-1.000000,""
111_updated,w0,python3action_linpack_6000_orion,0.997085,1,2000.000000,1,COMPLETED_SUCCESSFULLY,536.763342,106.000000,642.763342,535.766257,641.766257,6.054399,11,-1.000000,""
111,w0,python3action_linpack_6000,0.000000,1,-1.000000,1,COMPLETED_SUCCESSFULLY,642.763357,0.000010,642.763367,642.763357,642.763367,64276336.727488,11,-1.000000,""
59_updated,w0,python3action_imageprocessing_SampleImage_60mb_neowise,0.997085,1,2000.000000,1,COMPLETED_SUCCESSFULLY,608.617711,37.500000,646.117711,607.620626,645.120626,17.203217,0,-1.000000,""
59,w0,python3action_imageprocessing_SampleImage_60mb,0.000000,1,-1.000000,1,COMPLETED_SUCCESSFULLY,646.117726,0.000010,646.117736,646.117726,646.117736,64611773.628812,0,-1.000000,""
105_updated,w0,python3action_pyaes_3000_troll,0.997085,1,2000.000000,1,COMPLETED_SUCCESSFULLY,594.703803,57.166677,651.870480,593.706718,650.873395,11.385538,4,-1.000000,""
105,w0,python3action_pyaes_3000,0.000000,1,-1.000000,1,COMPLETED_SUCCESSFULLY,651.870495,0.000010,651.870505,651.870495,651.870505,65187050.500201,4,-1.000000,""
129_updated,w0,python3action_chameleon_3000_yeti,0.997085,1,2000.000000,1,COMPLETED_SUCCESSFULLY,559.895125,93.000000,652.895125,558.898040,651.898040,7.009656,5,-1.000000,""
129,w0,python3action_chameleon_3000,0.000000,1,-1.000000,1,COMPLETED_SUCCESSFULLY,652.895140,0.000010,652.895150,652.895140,652.895150,65289515.002811,5,-1.000000,""
54_updated,w0,python3action_facedetection_SampleVideo_30mb_nova,0.997085,1,2000.000000,1,COMPLETED_SUCCESSFULLY,512.701964,160.399990,673.101954,511.704879,672.104869,4.190180,6,-1.000000,""
54,w0,python3action_facedetection_SampleVideo_30mb,0.000000,1,-1.000000,1,COMPLETED_SUCCESSFULLY,673.101969,0.000010,673.101979,673.101969,673.101979,67310197.923907,6,-1.000000,""
65_updated,w0,python3action_imageprocessing_SampleImage_60mb_neowise,0.997085,1,2000.000000,1,COMPLETED_SUCCESSFULLY,646.117756,37.500000,683.617756,645.120671,682.620671,18.203218,0,-1.000000,""
65,w0,python3action_imageprocessing_SampleImage_60mb,0.000000,1,-1.000000,1,COMPLETED_SUCCESSFULLY,683.617771,0.000010,683.617781,683.617771,683.617781,68361778.129414,0,-1.000000,""
77_updated,w0,python3action_imageprocessing_SampleImage_60mb_neowise,0.997085,1,2000.000000,1,COMPLETED_SUCCESSFULLY,683.617801,37.500000,721.117801,682.620716,720.120716,19.203219,0,-1.000000,""
77,w0,python3action_imageprocessing_SampleImage_60mb,0.000000,1,-1.000000,1,COMPLETED_SUCCESSFULLY,721.117816,0.000010,721.117826,721.117816,721.117826,72111782.630017,0,-1.000000,""
142_updated,w0,python3action_chameleon_3000_yeti,0.997085,1,2000.000000,1,COMPLETED_SUCCESSFULLY,652.895170,93.000000,745.895170,651.898085,744.898085,8.009657,5,-1.000000,""
142,w0,python3action_chameleon_3000,0.000000,1,-1.000000,1,COMPLETED_SUCCESSFULLY,745.895185,0.000010,745.895195,745.895185,745.895195,74589519.503414,5,-1.000000,""
62_updated,w0,python3action_facedetection_SampleVideo_50mb_taurus,0.997085,1,2000.000000,1,COMPLETED_SUCCESSFULLY,611.414950,134.600046,746.014996,610.417865,745.017911,5.535049,2,-1.000000,""
62,w0,python3action_facedetection_SampleVideo_50mb,0.000000,1,-1.000000,1,COMPLETED_SUCCESSFULLY,746.015011,0.000010,746.015021,746.015011,746.015021,74601502.141242,2,-1.000000,""
127_updated,w0,python3action_linpack_6000_orion,0.997085,1,2000.000000,1,COMPLETED_SUCCESSFULLY,642.763387,106.000000,748.763387,641.766302,747.766302,7.054399,11,-1.000000,""
127,w0,python3action_linpack_6000,0.000000,1,-1.000000,1,COMPLETED_SUCCESSFULLY,748.763402,0.000010,748.763412,748.763402,748.763412,74876341.228090,11,-1.000000,""
114_updated,w0,python3action_pyaes_4000_troll,0.997085,1,2000.000000,1,COMPLETED_SUCCESSFULLY,651.870525,102.333333,754.203858,650.873440,753.206773,7.360327,4,-1.000000,""
114,w0,python3action_pyaes_4000,0.000000,1,-1.000000,1,COMPLETED_SUCCESSFULLY,754.203873,0.000010,754.203883,754.203873,754.203883,75420388.334137,4,-1.000000,""
97_updated,w0,python3action_imageprocessing_SampleImage_60mb_neowise,0.997085,1,2000.000000,1,COMPLETED_SUCCESSFULLY,721.117846,37.500000,758.617846,720.120761,757.620761,20.203220,0,-1.000000,""
97,w0,python3action_imageprocessing_SampleImage_60mb,0.000000,1,-1.000000,1,COMPLETED_SUCCESSFULLY,758.617861,0.000010,758.617871,758.617861,758.617871,75861787.130619,0,-1.000000,""
109_updated,w0,python3action_imageprocessing_SampleImage_60mb_neowise,0.997085,1,2000.000000,1,COMPLETED_SUCCESSFULLY,758.617891,37.500000,796.117891,757.620806,795.120806,21.203222,0,-1.000000,""
109,w0,python3action_imageprocessing_SampleImage_60mb,0.000000,1,-1.000000,1,COMPLETED_SUCCESSFULLY,796.117906,0.000010,796.117916,796.117906,796.117916,79611791.631222,0,-1.000000,""
76_updated,w0,python3action_facedetection_SampleVideo_30mb_nova,0.997085,1,2000.000000,1,COMPLETED_SUCCESSFULLY,673.101999,160.399990,833.501989,672.104914,832.504904,5.190181,6,-1.000000,""
76,w0,python3action_facedetection_SampleVideo_30mb,0.000000,1,-1.000000,1,COMPLETED_SUCCESSFULLY,833.502004,0.000010,833.502014,833.502004,833.502014,83350201.447613,6,-1.000000,""
162_updated,w0,python3action_imageprocessing_SampleImage_60mb_neowise,0.997085,1,2000.000000,1,COMPLETED_SUCCESSFULLY,796.117936,37.500000,833.617936,795.120851,832.620851,22.203223,0,-1.000000,""
162,w0,python3action_imageprocessing_SampleImage_60mb,0.000000,1,-1.000000,1,COMPLETED_SUCCESSFULLY,833.617951,0.000010,833.617961,833.617951,833.617961,83361796.131824,0,-1.000000,""
167_updated,w0,python3action_chameleon_3000_yeti,0.997085,1,2000.000000,1,COMPLETED_SUCCESSFULLY,745.895215,93.000000,838.895215,744.898130,837.898130,9.009657,5,-1.000000,""
167,w0,python3action_chameleon_3000,0.000000,1,-1.000000,1,COMPLETED_SUCCESSFULLY,838.895230,0.000010,838.895240,838.895230,838.895240,83889524.004016,5,-1.000000,""
133_updated,w0,python3action_linpack_6000_orion,0.997085,1,2000.000000,1,COMPLETED_SUCCESSFULLY,748.763432,106.000000,854.763432,747.766347,853.766347,8.054400,11,-1.000000,""
133,w0,python3action_linpack_6000,0.000000,1,-1.000000,1,COMPLETED_SUCCESSFULLY,854.763447,0.000010,854.763457,854.763447,854.763457,85476345.728693,11,-1.000000,""
115_updated,w0,python3action_pyaes_4000_troll,0.997085,1,2000.000000,1,COMPLETED_SUCCESSFULLY,754.203903,102.333333,856.537237,753.206818,855.540152,8.360327,4,-1.000000,""
115,w0,python3action_pyaes_4000,0.000000,1,-1.000000,1,COMPLETED_SUCCESSFULLY,856.537252,0.000010,856.537262,856.537252,856.537262,85653726.200201,4,-1.000000,""
192_updated,w0,python3action_imageprocessing_SampleImage_60mb_neowise,0.997085,1,2000.000000,1,COMPLETED_SUCCESSFULLY,833.617981,37.500000,871.117981,832.620896,870.120896,23.203224,0,-1.000000,""
192,w0,python3action_imageprocessing_SampleImage_60mb,0.000000,1,-1.000000,1,COMPLETED_SUCCESSFULLY,871.117996,0.000010,871.118006,871.117996,871.118006,87111800.632426,0,-1.000000,""
123_updated,w0,python3action_facedetection_SampleVideo_50mb_taurus,0.997085,1,2000.000000,1,COMPLETED_SUCCESSFULLY,746.015041,134.600046,880.615088,745.017956,879.618003,6.535050,2,-1.000000,""
123,w0,python3action_facedetection_SampleVideo_50mb,0.000000,1,-1.000000,1,COMPLETED_SUCCESSFULLY,880.615103,0.000010,880.615113,880.615103,880.615113,88061511.300201,2,-1.000000,""
195_updated,w0,python3action_imageprocessing_SampleImage_60mb_neowise,0.997085,1,2000.000000,1,COMPLETED_SUCCESSFULLY,871.118026,37.500000,908.618026,870.120941,907.620941,24.203225,0,-1.000000,""
195,w0,python3action_imageprocessing_SampleImage_60mb,0.000000,1,-1.000000,1,COMPLETED_SUCCESSFULLY,908.618041,0.000010,908.618051,908.618041,908.618051,90861805.133029,0,-1.000000,""
python3action_modeltraining_job11_1,w0,python3action_modeltraining_reduced_0.94,0.997085,1,2000.000000,1,COMPLETED_SUCCESSFULLY,908.618071,0.204209,908.822280,907.620986,907.825195,4445.578195,0,-1.000000,""
121_updated,w0,python3action_pyaes_3000_troll,0.997085,1,2000.000000,1,COMPLETED_SUCCESSFULLY,856.537282,57.166677,913.703959,855.540197,912.706874,15.965715,4,-1.000000,""
121,w0,python3action_pyaes_3000,0.000000,1,-1.000000,1,COMPLETED_SUCCESSFULLY,913.703974,0.000010,913.703984,913.703974,913.703984,91370398.400201,4,-1.000000,""
11_updated,w0,python3action_modeltraining_reviews50mb_neowise,0.997085,1,2000.000000,1,COMPLETED_SUCCESSFULLY,908.822295,22.799998,931.622293,907.825210,930.625208,40.816899,0,-1.000000,""
11,w0,python3action_modeltraining_reviews50mb,0.000000,1,-1.000000,1,COMPLETED_SUCCESSFULLY,931.622308,0.000010,931.622318,931.622308,931.622318,93162231.800201,0,-1.000000,""
174_updated,w0,python3action_chameleon_3000_yeti,0.997085,1,2000.000000,1,COMPLETED_SUCCESSFULLY,838.895260,93.000000,931.895260,837.898175,930.898175,10.009658,5,-1.000000,""
174,w0,python3action_chameleon_3000,0.000000,1,-1.000000,1,COMPLETED_SUCCESSFULLY,931.895275,0.000010,931.895285,931.895275,931.895285,93189528.504619,5,-1.000000,""
22_updated,w0,python3action_modeltraining_reviews50mb_neowise,0.997085,1,2000.000000,1,COMPLETED_SUCCESSFULLY,931.622338,22.799998,954.422336,930.625253,953.425251,41.816901,0,-1.000000,""
22,w0,python3action_modeltraining_reviews50mb,0.000000,1,-1.000000,1,COMPLETED_SUCCESSFULLY,954.422351,0.000010,954.422361,954.422351,954.422361,95442236.100201,0,-1.000000,""
148_updated,w0,python3action_linpack_6000_orion,0.997085,1,2000.000000,1,COMPLETED_SUCCESSFULLY,854.763477,106.000000,960.763477,853.766392,959.766392,9.054400,11,-1.000000,""
148,w0,python3action_linpack_6000,0.000000,1,-1.000000,1,COMPLETED_SUCCESSFULLY,960.763492,0.000010,960.763502,960.763492,960.763502,96076350.229295,11,-1.000000,""
130_updated,w0,python3action_pyaes_3000_troll,0.997085,1,2000.000000,1,COMPLETED_SUCCESSFULLY,913.704004,57.166677,970.870681,912.706919,969.873596,16.965716,4,-1.000000,""
130,w0,python3action_pyaes_3000,0.000000,1,-1.000000,1,COMPLETED_SUCCESSFULLY,970.870696,0.000010,970.870706,970.870696,970.870706,97087070.600201,4,-1.000000,""
28_updated,w0,python3action_modeltraining_reviews50mb_neowise,0.997085,1,2000.000000,1,COMPLETED_SUCCESSFULLY,954.422381,22.799998,977.222379,953.425296,976.225294,42.816903,0,-1.000000,""
28,w0,python3action_modeltraining_reviews50mb,0.000000,1,-1.000000,1,COMPLETED_SUCCESSFULLY,977.222394,0.000010,977.222404,977.222394,977.222404,97722240.400201,0,-1.000000,""
78_updated,w0,python3action_facedetection_SampleVideo_30mb_nova,0.997085,1,2000.000000,1,COMPLETED_SUCCESSFULLY,833.502034,160.399990,993.902025,832.504949,992.904940,6.190181,6,-1.000000,""
78,w0,python3action_facedetection_SampleVideo_30mb,0.000000,1,-1.000000,1,COMPLETED_SUCCESSFULLY,993.902040,0.000010,993.902050,993.902040,993.902050,99390205.000201,6,-1.000000,""
134_updated,w0,python3action_facedetection_SampleVideo_50mb_taurus,0.997085,1,2000.000000,1,COMPLETED_SUCCESSFULLY,880.615133,134.600046,1015.215179,879.618048,1014.218094,7.535050,2,-1.000000,""
134,w0,python3action_facedetection_SampleVideo_50mb,0.000000,1,-1.000000,1,COMPLETED_SUCCESSFULLY,1015.215194,0.000010,1015.215204,1015.215194,1015.215204,101521520.413881,2,-1.000000,""
30_updated,w0,python3action_modeltraining_reviews100mb_neowise,0.997085,1,2000.000000,1,COMPLETED_SUCCESSFULLY,977.222424,43.399999,1020.622423,976.225339,1019.625338,23.493672,0,-1.000000,""
30,w0,python3action_modeltraining_reviews100mb,0.000000,1,-1.000000,1,COMPLETED_SUCCESSFULLY,1020.622438,0.000010,1020.622448,1020.622438,1020.622448,102062244.800201,0,-1.000000,""
186_updated,w0,python3action_chameleon_3000_yeti,0.997085,1,2000.000000,1,COMPLETED_SUCCESSFULLY,931.895305,93.000000,1024.895305,930.898220,1023.898220,11.009658,5,-1.000000,""
186,w0,python3action_chameleon_3000,0.000000,1,-1.000000,1,COMPLETED_SUCCESSFULLY,1024.895320,0.000010,1024.895330,1024.895320,1024.895330,102489533.005221,5,-1.000000,""
152_updated,w0,python3action_pyaes_3000_troll,0.997085,1,2000.000000,1,COMPLETED_SUCCESSFULLY,970.870726,57.166677,1028.037403,969.873641,1027.040318,17.965717,4,-1.000000,""
152,w0,python3action_pyaes_3000,0.000000,1,-1.000000,1,COMPLETED_SUCCESSFULLY,1028.037418,0.000010,1028.037428,1028.037418,1028.037428,102803742.800201,4,-1.000000,""
37_updated,w0,python3action_modeltraining_reviews50mb_neowise,0.997085,1,2000.000000,1,COMPLETED_SUCCESSFULLY,1020.622468,22.799998,1043.422466,1019.625383,1042.425381,45.720416,0,-1.000000,""
37,w0,python3action_modeltraining_reviews50mb,0.000000,1,-1.000000,1,COMPLETED_SUCCESSFULLY,1043.422481,0.000010,1043.422491,1043.422481,1043.422491,104342249.100201,0,-1.000000,""
40_updated,w0,python3action_modeltraining_reviews50mb_neowise,0.997085,1,2000.000000,1,COMPLETED_SUCCESSFULLY,1043.422511,22.799998,1066.222509,1042.425426,1065.225424,46.720418,0,-1.000000,""
40,w0,python3action_modeltraining_reviews50mb,0.000000,1,-1.000000,1,COMPLETED_SUCCESSFULLY,1066.222524,0.000010,1066.222534,1066.222524,1066.222534,106622253.400201,0,-1.000000,""
164_updated,w0,python3action_linpack_6000_orion,0.997085,1,2000.000000,1,COMPLETED_SUCCESSFULLY,960.763522,106.000000,1066.763522,959.766437,1065.766437,10.054400,11,-1.000000,""
164,w0,python3action_linpack_6000,0.000000,1,-1.000000,1,COMPLETED_SUCCESSFULLY,1066.763537,0.000010,1066.763547,1066.763537,1066.763547,106676354.729897,11,-1.000000,""
156_updated,w0,python3action_pyaes_3000_troll,0.997085,1,2000.000000,1,COMPLETED_SUCCESSFULLY,1028.037448,57.166677,1085.204125,1027.040363,1084.207040,18.965718,4,-1.000000,""
156,w0,python3action_pyaes_3000,0.000000,1,-1.000000,1,COMPLETED_SUCCESSFULLY,1085.204140,0.000010,1085.204150,1085.204140,1085.204150,108520415.000201,4,-1.000000,""
53_updated,w0,python3action_modeltraining_reviews50mb_neowise,0.997085,1,2000.000000,1,COMPLETED_SUCCESSFULLY,1066.222554,22.799998,1089.022552,1065.225469,1088.025467,47.720420,0,-1.000000,""
53,w0,python3action_modeltraining_reviews50mb,0.000000,1,-1.000000,1,COMPLETED_SUCCESSFULLY,1089.022567,0.000010,1089.022577,1089.022567,1089.022577,108902257.700201,0,-1.000000,""
60_updated,w0,python3action_modeltraining_reviews50mb_neowise,0.997085,1,2000.000000,1,COMPLETED_SUCCESSFULLY,1089.022597,22.799998,1111.822595,1088.025512,1110.825510,48.720422,0,-1.000000,""
60,w0,python3action_modeltraining_reviews50mb,0.000000,1,-1.000000,1,COMPLETED_SUCCESSFULLY,1111.822610,0.000010,1111.822620,1111.822610,1111.822620,111182262.000201,0,-1.000000,""
187_updated,w0,python3action_chameleon_3000_yeti,0.997085,1,2000.000000,1,COMPLETED_SUCCESSFULLY,1024.895350,93.000000,1117.895350,1023.898265,1116.898265,12.009659,5,-1.000000,""
187,w0,python3action_chameleon_3000,0.000000,1,-1.000000,1,COMPLETED_SUCCESSFULLY,1117.895365,0.000010,1117.895375,1117.895365,1117.895375,111789537.505823,5,-1.000000,""
82_updated,w0,python3action_modeltraining_reviews50mb_neowise,0.997085,1,2000.000000,1,COMPLETED_SUCCESSFULLY,1111.822640,22.799998,1134.622638,1110.825555,1133.625553,49.720424,0,-1.000000,""
82,w0,python3action_modeltraining_reviews50mb,0.000000,1,-1.000000,1,COMPLETED_SUCCESSFULLY,1134.622653,0.000010,1134.622663,1134.622653,1134.622663,113462266.300201,0,-1.000000,""
158_updated,w0,python3action_pyaes_3000_troll,0.997085,1,2000.000000,1,COMPLETED_SUCCESSFULLY,1085.204170,57.166677,1142.370847,1084.207085,1141.373762,19.965718,4,-1.000000,""
158,w0,python3action_pyaes_3000,0.000000,1,-1.000000,1,COMPLETED_SUCCESSFULLY,1142.370862,0.000010,1142.370872,1142.370862,1142.370872,114237087.200201,4,-1.000000,""
160_updated,w0,python3action_facedetection_SampleVideo_50mb_taurus,0.997085,1,2000.000000,1,COMPLETED_SUCCESSFULLY,1015.215224,134.600046,1149.815270,1014.218139,1148.818185,8.535050,2,-1.000000,""
160,w0,python3action_facedetection_SampleVideo_50mb,0.000000,1,-1.000000,1,COMPLETED_SUCCESSFULLY,1149.815285,0.000010,1149.815295,1149.815285,1149.815295,114981529.527562,2,-1.000000,""
79_updated,w0,python3action_facedetection_SampleVideo_30mb_nova,0.997085,1,2000.000000,1,COMPLETED_SUCCESSFULLY,993.902070,160.399990,1154.302060,992.904985,1153.304975,7.190181,6,-1.000000,""
79,w0,python3action_facedetection_SampleVideo_30mb,0.000000,1,-1.000000,1,COMPLETED_SUCCESSFULLY,1154.302075,0.000010,1154.302085,1154.302075,1154.302085,115430208.523907,6,-1.000000,""
83_updated,w0,python3action_modeltraining_reviews50mb_neowise,0.997085,1,2000.000000,1,COMPLETED_SUCCESSFULLY,1134.622683,22.799998,1157.422681,1133.625598,1156.425596,50.720426,0,-1.000000,""
83,w0,python3action_modeltraining_reviews50mb,0.000000,1,-1.000000,1,COMPLETED_SUCCESSFULLY,1157.422696,0.000010,1157.422706,1157.422696,1157.422706,115742270.600201,0,-1.000000,""
python3action_image_processing_job42_2,w0,python3action_image_processing_reduced_0.86,0.997085,1,2000.000000,1,COMPLETED_SUCCESSFULLY,1149.815315,9.731413,1159.546728,1148.818230,1158.549643,119.052563,2,-1.000000,""
171_updated,w0,python3action_linpack_6000_orion,0.997085,1,2000.000000,1,COMPLETED_SUCCESSFULLY,1066.763567,106.000000,1172.763567,1065.766482,1171.766482,11.054401,11,-1.000000,""
171,w0,python3action_linpack_6000,0.000000,1,-1.000000,1,COMPLETED_SUCCESSFULLY,1172.763582,0.000010,1172.763592,1172.763582,1172.763592,117276359.230500,11,-1.000000,""
93_updated,w0,python3action_modeltraining_reviews50mb_neowise,0.997085,1,2000.000000,1,COMPLETED_SUCCESSFULLY,1157.422726,22.799998,1180.222724,1156.425641,1179.225639,51.720428,0,-1.000000,""
93,w0,python3action_modeltraining_reviews50mb,0.000000,1,-1.000000,1,COMPLETED_SUCCESSFULLY,1180.222739,0.000010,1180.222749,1180.222739,1180.222749,118022274.900201,0,-1.000000,""
42_updated,w0,python3action_imageprocessing_SampleImage_40mb_taurus,0.997085,1,2000.000000,1,COMPLETED_SUCCESSFULLY,1159.546743,32.600046,1192.146789,1158.549658,1191.149704,36.538283,2,-1.000000,""
42,w0,python3action_imageprocessing_SampleImage_40mb,0.000000,1,-1.000000,1,COMPLETED_SUCCESSFULLY,1192.146804,0.000010,1192.146814,1192.146804,1192.146814,119214681.429427,2,-1.000000,""
191_updated,w0,python3action_chameleon_3000_yeti,0.997085,1,2000.000000,1,COMPLETED_SUCCESSFULLY,1117.895395,93.000000,1210.895395,1116.898310,1209.898310,13.009659,5,-1.000000,""
191,w0,python3action_chameleon_3000,0.000000,1,-1.000000,1,COMPLETED_SUCCESSFULLY,1210.895410,0.000010,1210.895420,1210.895410,1210.895420,121089542.006426,5,-1.000000,""
100_updated,w0,python3action_modeltraining_reviews100mb_neowise,0.997085,1,2000.000000,1,COMPLETED_SUCCESSFULLY,1180.222769,43.399999,1223.622768,1179.225684,1222.625683,28.171099,0,-1.000000,""
100,w0,python3action_modeltraining_reviews100mb,0.000000,1,-1.000000,1,COMPLETED_SUCCESSFULLY,1223.622783,0.000010,1223.622793,1223.622783,1223.622793,122362279.300201,0,-1.000000,""
66_updated,w0,python3action_imageprocessing_SampleImage_40mb_taurus,0.997085,1,2000.000000,1,COMPLETED_SUCCESSFULLY,1192.146834,32.600046,1224.746880,1191.149749,1223.749795,37.538284,2,-1.000000,""
66,w0,python3action_imageprocessing_SampleImage_40mb,0.000000,1,-1.000000,1,COMPLETED_SUCCESSFULLY,1224.746895,0.000010,1224.746905,1224.746895,1224.746905,122474690.543107,2,-1.000000,""
161_updated,w0,python3action_pyaes_4000_troll,0.997085,1,2000.000000,1,COMPLETED_SUCCESSFULLY,1142.370892,102.333333,1244.704225,1141.373807,1243.707140,12.153490,4,-1.000000,""
161,w0,python3action_pyaes_4000,0.000000,1,-1.000000,1,COMPLETED_SUCCESSFULLY,1244.704240,0.000010,1244.704250,1244.704240,1244.704250,124470425.034136,4,-1.000000,""
108_updated,w0,python3action_modeltraining_reviews50mb_neowise,0.997085,1,2000.000000,1,COMPLETED_SUCCESSFULLY,1223.622813,22.799998,1246.422811,1222.625728,1245.425726,54.623941,0,-1.000000,""
108,w0,python3action_modeltraining_reviews50mb,0.000000,1,-1.000000,1,COMPLETED_SUCCESSFULLY,1246.422826,0.000010,1246.422836,1246.422826,1246.422836,124642283.600201,0,-1.000000,""
80_updated,w0,python3action_imageprocessing_SampleImage_40mb_taurus,0.997085,1,2000.000000,1,COMPLETED_SUCCESSFULLY,1224.746925,32.600046,1257.346972,1223.749840,1256.349887,38.538286,2,-1.000000,""
80,w0,python3action_imageprocessing_SampleImage_40mb,0.000000,1,-1.000000,1,COMPLETED_SUCCESSFULLY,1257.346987,0.000010,1257.346997,1257.346987,1257.346997,125734699.700201,2,-1.000000,""
110_updated,w0,python3action_modeltraining_reviews50mb_neowise,0.997085,1,2000.000000,1,COMPLETED_SUCCESSFULLY,1246.422856,22.799998,1269.222854,1245.425771,1268.225769,55.623943,0,-1.000000,""
110,w0,python3action_modeltraining_reviews50mb,0.000000,1,-1.000000,1,COMPLETED_SUCCESSFULLY,1269.222869,0.000010,1269.222879,1269.222869,1269.222879,126922287.900201,0,-1.000000,""
178_updated,w0,python3action_linpack_6000_orion,0.997085,1,2000.000000,1,COMPLETED_SUCCESSFULLY,1172.763612,106.000000,1278.763612,1171.766527,1277.766527,12.054401,11,-1.000000,""
178,w0,python3action_linpack_6000,0.000000,1,-1.000000,1,COMPLETED_SUCCESSFULLY,1278.763627,0.000010,1278.763637,1278.763627,1278.763637,127876363.731102,11,-1.000000,""
89_updated,w0,python3action_imageprocessing_SampleImage_40mb_taurus,0.997085,1,2000.000000,1,COMPLETED_SUCCESSFULLY,1257.347017,32.600046,1289.947063,1256.349932,1288.949978,39.538287,2,-1.000000,""
89,w0,python3action_imageprocessing_SampleImage_40mb,0.000000,1,-1.000000,1,COMPLETED_SUCCESSFULLY,1289.947078,0.000010,1289.947088,1289.947078,1289.947088,128994708.813881,2,-1.000000,""
113_updated,w0,python3action_modeltraining_reviews50mb_neowise,0.997085,1,2000.000000,1,COMPLETED_SUCCESSFULLY,1269.222899,22.799998,1292.022897,1268.225814,1291.025812,56.623945,0,-1.000000,""
113,w0,python3action_modeltraining_reviews50mb,0.000000,1,-1.000000,1,COMPLETED_SUCCESSFULLY,1292.022912,0.000010,1292.022922,1292.022912,1292.022922,129202292.200201,0,-1.000000,""
196_updated,w0,python3action_chameleon_3000_yeti,0.997085,1,2000.000000,1,COMPLETED_SUCCESSFULLY,1210.895440,93.000000,1303.895440,1209.898355,1302.898355,14.009660,5,-1.000000,""
196,w0,python3action_chameleon_3000,0.000000,1,-1.000000,1,COMPLETED_SUCCESSFULLY,1303.895455,0.000010,1303.895465,1303.895455,1303.895465,130389546.507028,5,-1.000000,""
88_updated,w0,python3action_facedetection_SampleVideo_30mb_nova,0.997085,1,2000.000000,1,COMPLETED_SUCCESSFULLY,1154.302105,160.399990,1314.702095,1153.305020,1313.705010,8.190181,6,-1.000000,""
88,w0,python3action_facedetection_SampleVideo_30mb,0.000000,1,-1.000000,1,COMPLETED_SUCCESSFULLY,1314.702110,0.000010,1314.702120,1314.702110,1314.702120,131470212.047613,6,-1.000000,""
141_updated,w0,python3action_modeltraining_reviews50mb_neowise,0.997085,1,2000.000000,1,COMPLETED_SUCCESSFULLY,1292.022942,22.799998,1314.822940,1291.025857,1313.825855,57.623947,0,-1.000000,""
141,w0,python3action_modeltraining_reviews50mb,0.000000,1,-1.000000,1,COMPLETED_SUCCESSFULLY,1314.822955,0.000010,1314.822965,1314.822955,1314.822965,131482296.500201,0,-1.000000,""
117_updated,w0,python3action_imageprocessing_SampleImage_40mb_taurus,0.997085,1,2000.000000,1,COMPLETED_SUCCESSFULLY,1289.947108,32.600046,1322.547154,1288.950023,1321.550069,40.538288,2,-1.000000,""
117,w0,python3action_imageprocessing_SampleImage_40mb,0.000000,1,-1.000000,1,COMPLETED_SUCCESSFULLY,1322.547169,0.000010,1322.547179,1322.547169,1322.547179,132254717.927562,2,-1.000000,""
147_updated,w0,python3action_modeltraining_reviews50mb_neowise,0.997085,1,2000.000000,1,COMPLETED_SUCCESSFULLY,1314.822985,22.799998,1337.622983,1313.825900,1336.625898,58.623949,0,-1.000000,""
147,w0,python3action_modeltraining_reviews50mb,0.000000,1,-1.000000,1,COMPLETED_SUCCESSFULLY,1337.622998,0.000010,1337.623008,1337.622998,1337.623008,133762300.800201,0,-1.000000,""
177_updated,w0,python3action_pyaes_4000_troll,0.997085,1,2000.000000,1,COMPLETED_SUCCESSFULLY,1244.704270,102.333333,1347.037604,1243.707185,1346.040519,13.153490,4,-1.000000,""
177,w0,python3action_pyaes_4000,0.000000,1,-1.000000,1,COMPLETED_SUCCESSFULLY,1347.037619,0.000010,1347.037629,1347.037619,1347.037629,134703762.900201,4,-1.000000,""
150_updated,w0,python3action_imageprocessing_SampleImage_40mb_taurus,0.997085,1,2000.000000,1,COMPLETED_SUCCESSFULLY,1322.547199,32.600046,1355.147245,1321.550114,1354.150160,41.538290,2,-1.000000,""
150,w0,python3action_imageprocessing_SampleImage_40mb,0.000000,1,-1.000000,1,COMPLETED_SUCCESSFULLY,1355.147260,0.000010,1355.147270,1355.147260,1355.147270,135514727.041242,2,-1.000000,""
154_updated,w0,python3action_modeltraining_reviews50mb_neowise,0.997085,1,2000.000000,1,COMPLETED_SUCCESSFULLY,1337.623028,22.799998,1360.423026,1336.625943,1359.425941,59.623951,0,-1.000000,""
154,w0,python3action_modeltraining_reviews50mb,0.000000,1,-1.000000,1,COMPLETED_SUCCESSFULLY,1360.423041,0.000010,1360.423051,1360.423041,1360.423051,136042305.100201,0,-1.000000,""
165_updated,w0,python3action_modeltraining_reviews50mb_neowise,0.997085,1,2000.000000,1,COMPLETED_SUCCESSFULLY,1360.423071,22.799998,1383.223069,1359.425986,1382.225984,60.623953,0,-1.000000,""
165,w0,python3action_modeltraining_reviews50mb,0.000000,1,-1.000000,1,COMPLETED_SUCCESSFULLY,1383.223084,0.000010,1383.223094,1383.223084,1383.223094,138322309.400201,0,-1.000000,""
168_updated,w0,python3action_imageprocessing_SampleImage_40mb_taurus,0.997085,1,2000.000000,1,COMPLETED_SUCCESSFULLY,1355.147290,32.600046,1387.747337,1354.150205,1386.750252,42.538291,2,-1.000000,""
168,w0,python3action_imageprocessing_SampleImage_40mb,0.000000,1,-1.000000,1,COMPLETED_SUCCESSFULLY,1387.747352,0.000010,1387.747362,1387.747352,1387.747362,138774736.200201,2,-1.000000,""
189_updated,w0,python3action_pyaes_3000_troll,0.997085,1,2000.000000,1,COMPLETED_SUCCESSFULLY,1347.037649,57.166677,1404.204326,1346.040564,1403.207241,24.545895,4,-1.000000,""
189,w0,python3action_pyaes_3000,0.000000,1,-1.000000,1,COMPLETED_SUCCESSFULLY,1404.204341,0.000010,1404.204351,1404.204341,1404.204351,140420435.100201,4,-1.000000,""
172_updated,w0,python3action_imageprocessing_SampleImage_40mb_taurus,0.997085,1,2000.000000,1,COMPLETED_SUCCESSFULLY,1387.747382,32.600046,1420.347428,1386.750297,1419.350343,43.538292,2,-1.000000,""
172,w0,python3action_imageprocessing_SampleImage_40mb,0.000000,1,-1.000000,1,COMPLETED_SUCCESSFULLY,1420.347443,0.000010,1420.347453,1420.347443,1420.347453,142034745.313881,2,-1.000000,""
166_updated,w0,python3action_modeltraining_reviews100mb_neowise,0.997085,1,2000.000000,1,COMPLETED_SUCCESSFULLY,1383.223114,43.399999,1426.623113,1382.226029,1425.626028,32.848527,0,-1.000000,""
166,w0,python3action_modeltraining_reviews100mb,0.000000,1,-1.000000,1,COMPLETED_SUCCESSFULLY,1426.623128,0.000010,1426.623138,1426.623128,1426.623138,142662313.800201,0,-1.000000,""
188_updated,w0,python3action_imageprocessing_SampleImage_40mb_taurus,0.997085,1,2000.000000,1,COMPLETED_SUCCESSFULLY,1420.347473,32.600046,1452.947519,1419.350388,1451.950434,44.538294,2,-1.000000,""
188,w0,python3action_imageprocessing_SampleImage_40mb,0.000000,1,-1.000000,1,COMPLETED_SUCCESSFULLY,1452.947534,0.000010,1452.947544,1452.947534,1452.947544,145294754.427562,2,-1.000000,""
python3action_linpack_job12_2,w0,python3action_linpack,0.997085,1,2000.000000,1,COMPLETED_SUCCESSFULLY,1452.947564,5.760927,1458.708492,1451.950479,1457.711407,253.034164,2,-1.000000,""
199_updated,w0,python3action_pyaes_3000_troll,0.997085,1,2000.000000,1,COMPLETED_SUCCESSFULLY,1404.204371,57.166677,1461.371048,1403.207286,1460.373963,25.545896,4,-1.000000,""
199,w0,python3action_pyaes_3000,0.000000,1,-1.000000,1,COMPLETED_SUCCESSFULLY,1461.371063,0.000010,1461.371073,1461.371063,1461.371073,146137107.300201,4,-1.000000,""
183_updated,w0,python3action_modeltraining_reviews100mb_neowise,0.997085,1,2000.000000,1,COMPLETED_SUCCESSFULLY,1426.623158,43.399999,1470.023157,1425.626073,1469.026072,33.848528,0,-1.000000,""
183,w0,python3action_modeltraining_reviews100mb,0.000000,1,-1.000000,1,COMPLETED_SUCCESSFULLY,1470.023172,0.000010,1470.023182,1470.023172,1470.023182,147002318.200201,0,-1.000000,""
159_updated,w0,python3action_facedetection_SampleVideo_30mb_nova,0.997085,1,2000.000000,1,COMPLETED_SUCCESSFULLY,1314.702140,160.399990,1475.102131,1313.705055,1474.105046,9.190182,6,-1.000000,""
159,w0,python3action_facedetection_SampleVideo_30mb,0.000000,1,-1.000000,1,COMPLETED_SUCCESSFULLY,1475.102146,0.000010,1475.102156,1475.102146,1475.102156,147510215.600201,6,-1.000000,""
python3action_floatoperation_job3_5,w0,python3action_floatoperation,0.997085,1,2000.000000,1,COMPLETED_SUCCESSFULLY,1475.102176,2.439945,1477.542121,1474.105091,1476.545036,605.154976,6,-1.000000,""
12_updated,w0,python3action_linpack_5000_taurus,0.997085,1,2000.000000,1,COMPLETED_SUCCESSFULLY,1458.708507,38.500058,1497.208565,1457.711422,1496.211480,38.862578,2,-1.000000,""
12,w0,python3action_linpack_5000,0.000000,1,-1.000000,1,COMPLETED_SUCCESSFULLY,1497.208580,0.000010,1497.208590,1497.208580,1497.208590,149720859.000201,2,-1.000000,""
35_updated,w0,python3action_linpack_5000_taurus,0.997085,1,2000.000000,1,COMPLETED_SUCCESSFULLY,1497.208610,38.500058,1535.708668,1496.211525,1534.711583,39.862579,2,-1.000000,""
35,w0,python3action_linpack_5000,0.000000,1,-1.000000,1,COMPLETED_SUCCESSFULLY,1535.708683,0.000010,1535.708693,1535.708683,1535.708693,153570869.300201,2,-1.000000,""
3_updated,w0,python3action_floatoperation_100000000_nova,0.997085,1,2000.000000,1,COMPLETED_SUCCESSFULLY,1477.542136,66.200020,1543.742156,1476.545051,1542.745071,23.304299,6,-1.000000,""
3,w0,python3action_floatoperation_100000000,0.000000,1,-1.000000,1,COMPLETED_SUCCESSFULLY,1543.742171,0.000010,1543.742181,1543.742171,1543.742181,154374218.100201,6,-1.000000,""
51_updated,w0,python3action_linpack_5000_taurus,0.997085,1,2000.000000,1,COMPLETED_SUCCESSFULLY,1535.708713,38.500058,1574.208771,1534.711628,1573.211686,40.862580,2,-1.000000,""
51,w0,python3action_linpack_5000,0.000000,1,-1.000000,1,COMPLETED_SUCCESSFULLY,1574.208786,0.000010,1574.208796,1574.208786,1574.208796,157420879.600201,2,-1.000000,""
63_updated,w0,python3action_linpack_5000_taurus,0.997085,1,2000.000000,1,COMPLETED_SUCCESSFULLY,1574.208816,38.500058,1612.708874,1573.211731,1611.711789,41.862581,2,-1.000000,""
63,w0,python3action_linpack_5000,0.000000,1,-1.000000,1,COMPLETED_SUCCESSFULLY,1612.708889,0.000010,1612.708899,1612.708889,1612.708899,161270889.900201,2,-1.000000,""
69_updated,w0,python3action_linpack_5000_taurus,0.997085,1,2000.000000,1,COMPLETED_SUCCESSFULLY,1612.708919,38.500058,1651.208977,1611.711834,1650.211892,42.862582,2,-1.000000,""
69,w0,python3action_linpack_5000,0.000000,1,-1.000000,1,COMPLETED_SUCCESSFULLY,1651.208992,0.000010,1651.209002,1651.208992,1651.209002,165120900.200201,2,-1.000000,""
5_updated,w0,python3action_floatoperation_200000000_nova,0.997085,1,2000.000000,1,COMPLETED_SUCCESSFULLY,1543.742201,135.399990,1679.142191,1542.745116,1678.145106,12.393982,6,-1.000000,""
5,w0,python3action_floatoperation_200000000,0.000000,1,-1.000000,1,COMPLETED_SUCCESSFULLY,1679.142206,0.000010,1679.142216,1679.142206,1679.142216,167914221.623907,6,-1.000000,""
73_updated,w0,python3action_linpack_6000_taurus,0.997085,1,2000.000000,1,COMPLETED_SUCCESSFULLY,1651.209022,157.600046,1808.809068,1650.211937,1807.811983,11.470885,2,-1.000000,""
73,w0,python3action_linpack_6000,0.000000,1,-1.000000,1,COMPLETED_SUCCESSFULLY,1808.809083,0.000010,1808.809093,1808.809083,1808.809093,180880909.313881,2,-1.000000,""
9_updated,w0,python3action_floatoperation_200000000_nova,0.997085,1,2000.000000,1,COMPLETED_SUCCESSFULLY,1679.142236,135.399990,1814.542226,1678.145151,1813.545141,13.393983,6,-1.000000,""
9,w0,python3action_floatoperation_200000000,0.000000,1,-1.000000,1,COMPLETED_SUCCESSFULLY,1814.542241,0.000010,1814.542251,1814.542241,1814.542251,181454225.147613,6,-1.000000,""
15_updated,w0,python3action_floatoperation_100000000_nova,0.997085,1,2000.000000,1,COMPLETED_SUCCESSFULLY,1814.542271,66.200020,1880.742291,1813.545186,1879.745206,28.394934,6,-1.000000,""
15,w0,python3action_floatoperation_100000000,0.000000,1,-1.000000,1,COMPLETED_SUCCESSFULLY,1880.742306,0.000010,1880.742316,1880.742306,1880.742316,188074231.602008,6,-1.000000,""
17_updated,w0,python3action_floatoperation_100000000_nova,0.997085,1,2000.000000,1,COMPLETED_SUCCESSFULLY,1880.742336,66.200020,1946.942356,1879.745251,1945.945271,29.394935,6,-1.000000,""
17,w0,python3action_floatoperation_100000000,0.000000,1,-1.000000,1,COMPLETED_SUCCESSFULLY,1946.942371,0.000010,1946.942381,1946.942371,1946.942381,194694238.100201,6,-1.000000,""
99_updated,w0,python3action_linpack_6000_taurus,0.997085,1,2000.000000,1,COMPLETED_SUCCESSFULLY,1808.809113,157.600046,1966.409159,1807.812028,1965.412074,12.470885,2,-1.000000,""
99,w0,python3action_linpack_6000,0.000000,1,-1.000000,1,COMPLETED_SUCCESSFULLY,1966.409174,0.000010,1966.409184,1966.409174,1966.409184,196640918.427562,2,-1.000000,""
112_updated,w0,python3action_linpack_5000_taurus,0.997085,1,2000.000000,1,COMPLETED_SUCCESSFULLY,1966.409204,38.500058,2004.909262,1965.412119,2003.912177,52.049589,2,-1.000000,""
112,w0,python3action_linpack_5000,0.000000,1,-1.000000,1,COMPLETED_SUCCESSFULLY,2004.909277,0.000010,2004.909287,2004.909277,2004.909287,200490928.700201,2,-1.000000,""
122_updated,w0,python3action_linpack_5000_taurus,0.997085,1,2000.000000,1,COMPLETED_SUCCESSFULLY,2004.909307,38.500058,2043.409365,2003.912222,2042.412280,53.049590,2,-1.000000,""
122,w0,python3action_linpack_5000,0.000000,1,-1.000000,1,COMPLETED_SUCCESSFULLY,2043.409380,0.000010,2043.409390,2043.409380,2043.409390,204340939.000201,2,-1.000000,""
151_updated,w0,python3action_linpack_5000_taurus,0.997085,1,2000.000000,1,COMPLETED_SUCCESSFULLY,2043.409410,38.500058,2081.909468,2042.412325,2080.912383,54.049591,2,-1.000000,""
151,w0,python3action_linpack_5000,0.000000,1,-1.000000,1,COMPLETED_SUCCESSFULLY,2081.909483,0.000010,2081.909493,2081.909483,2081.909493,208190949.300201,2,-1.000000,""
19_updated,w0,python3action_floatoperation_200000000_nova,0.997085,1,2000.000000,1,COMPLETED_SUCCESSFULLY,1946.942401,135.399990,2082.342391,1945.945316,2081.345306,15.371828,6,-1.000000,""
19,w0,python3action_floatoperation_200000000,0.000000,1,-1.000000,1,COMPLETED_SUCCESSFULLY,2082.342406,0.000010,2082.342416,2082.342406,2082.342416,208234241.623907,6,-1.000000,""
155_updated,w0,python3action_linpack_5000_taurus,0.997085,1,2000.000000,1,COMPLETED_SUCCESSFULLY,2081.909513,38.500058,2120.409571,2080.912428,2119.412486,55.049593,2,-1.000000,""
155,w0,python3action_linpack_5000,0.000000,1,-1.000000,1,COMPLETED_SUCCESSFULLY,2120.409586,0.000010,2120.409596,2120.409586,2120.409596,212040959.600201,2,-1.000000,""
24_updated,w0,python3action_floatoperation_100000000_nova,0.997085,1,2000.000000,1,COMPLETED_SUCCESSFULLY,2082.342436,66.200020,2148.542456,2081.345351,2147.545371,32.440253,6,-1.000000,""
24,w0,python3action_floatoperation_100000000,0.000000,1,-1.000000,1,COMPLETED_SUCCESSFULLY,2148.542471,0.000010,2148.542481,2148.542471,2148.542481,214854248.100201,6,-1.000000,""
163_updated,w0,python3action_linpack_5000_taurus,0.997085,1,2000.000000,1,COMPLETED_SUCCESSFULLY,2120.409616,38.500058,2158.909674,2119.412531,2157.912589,56.049594,2,-1.000000,""
163,w0,python3action_linpack_5000,0.000000,1,-1.000000,1,COMPLETED_SUCCESSFULLY,2158.909689,0.000010,2158.909699,2158.909689,2158.909699,215890969.900201,2,-1.000000,""
python3action_video_processing_job10_2,w0,python3action_video_processing_reduced_1.83,0.997085,1,2000.000000,1,COMPLETED_SUCCESSFULLY,2158.909719,0.000000,2158.909719,2157.912634,2157.912634,18682283722948.714844,2,-1.000000,""
25_updated,w0,python3action_floatoperation_100000000_nova,0.997085,1,2000.000000,1,COMPLETED_SUCCESSFULLY,2148.542501,66.200020,2214.742521,2147.545416,2213.745436,33.440254,6,-1.000000,""
25,w0,python3action_floatoperation_100000000,0.000000,1,-1.000000,1,COMPLETED_SUCCESSFULLY,2214.742536,0.000010,2214.742546,2214.742536,2214.742546,221474254.600201,6,-1.000000,""
55_updated,w0,python3action_floatoperation_100000000_nova,0.997085,1,2000.000000,1,COMPLETED_SUCCESSFULLY,2214.742566,66.200020,2280.942586,2213.745481,2279.945501,34.440254,6,-1.000000,""
55,w0,python3action_floatoperation_100000000,0.000000,1,-1.000000,1,COMPLETED_SUCCESSFULLY,2280.942601,0.000010,2280.942611,2280.942601,2280.942611,228094261.100201,6,-1.000000,""
10_updated,w0,python3action_videoprocessing_SampleVideo_50mb_taurus,0.997085,1,2000.000000,1,COMPLETED_SUCCESSFULLY,2158.909749,154.250029,2313.159778,2157.912664,2312.162693,14.989707,2,-1.000000,""
10,w0,python3action_videoprocessing_SampleVideo_50mb,0.000000,1,-1.000000,1,COMPLETED_SUCCESSFULLY,2313.159793,0.000010,2313.159803,2313.159793,2313.159803,231315980.300201,2,-1.000000,""
57_updated,w0,python3action_floatoperation_100000000_nova,0.997085,1,2000.000000,1,COMPLETED_SUCCESSFULLY,2280.942631,66.200020,2347.142651,2279.945546,2346.145566,35.440255,6,-1.000000,""
57,w0,python3action_floatoperation_100000000,0.000000,1,-1.000000,1,COMPLETED_SUCCESSFULLY,2347.142666,0.000010,2347.142676,2347.142666,2347.142676,234714267.600201,6,-1.000000,""
61_updated,w0,python3action_floatoperation_100000000_nova,0.997085,1,2000.000000,1,COMPLETED_SUCCESSFULLY,2347.142696,66.200020,2413.342716,2346.145611,2412.345631,36.440256,6,-1.000000,""
61,w0,python3action_floatoperation_100000000,0.000000,1,-1.000000,1,COMPLETED_SUCCESSFULLY,2413.342731,0.000010,2413.342741,2413.342731,2413.342741,241334274.100201,6,-1.000000,""
16_updated,w0,python3action_videoprocessing_SampleVideo_50mb_taurus,0.997085,1,2000.000000,1,COMPLETED_SUCCESSFULLY,2313.159823,154.250029,2467.409852,2312.162738,2466.412767,15.989707,2,-1.000000,""
16,w0,python3action_videoprocessing_SampleVideo_50mb,0.000000,1,-1.000000,1,COMPLETED_SUCCESSFULLY,2467.409867,0.000010,2467.409877,2467.409867,2467.409877,246740987.700201,2,-1.000000,""
71_updated,w0,python3action_floatoperation_100000000_nova,0.997085,1,2000.000000,1,COMPLETED_SUCCESSFULLY,2413.342761,66.200020,2479.542781,2412.345676,2478.545696,37.440256,6,-1.000000,""
71,w0,python3action_floatoperation_100000000,0.000000,1,-1.000000,1,COMPLETED_SUCCESSFULLY,2479.542796,0.000010,2479.542806,2479.542796,2479.542806,247954280.600201,6,-1.000000,""
95_updated,w0,python3action_floatoperation_100000000_nova,0.997085,1,2000.000000,1,COMPLETED_SUCCESSFULLY,2479.542826,66.200020,2545.742846,2478.545741,2544.745761,38.440257,6,-1.000000,""
95,w0,python3action_floatoperation_100000000,0.000000,1,-1.000000,1,COMPLETED_SUCCESSFULLY,2545.742861,0.000010,2545.742871,2545.742861,2545.742871,254574287.100201,6,-1.000000,""
101_updated,w0,python3action_floatoperation_100000000_nova,0.997085,1,2000.000000,1,COMPLETED_SUCCESSFULLY,2545.742891,66.200020,2611.942911,2544.745806,2610.945826,39.440258,6,-1.000000,""
101,w0,python3action_floatoperation_100000000,0.000000,1,-1.000000,1,COMPLETED_SUCCESSFULLY,2611.942926,0.000010,2611.942936,2611.942926,2611.942936,261194293.600201,6,-1.000000,""
33_updated,w0,python3action_videoprocessing_SampleVideo_50mb_taurus,0.997085,1,2000.000000,1,COMPLETED_SUCCESSFULLY,2467.409897,154.250029,2621.659926,2466.412812,2620.662841,16.989707,2,-1.000000,""
33,w0,python3action_videoprocessing_SampleVideo_50mb,0.000000,1,-1.000000,1,COMPLETED_SUCCESSFULLY,2621.659941,0.000010,2621.659951,2621.659941,2621.659951,262165995.100201,2,-1.000000,""
104_updated,w0,python3action_floatoperation_100000000_nova,0.997085,1,2000.000000,1,COMPLETED_SUCCESSFULLY,2611.942956,66.200020,2678.142976,2610.945871,2677.145891,40.440258,6,-1.000000,""
104,w0,python3action_floatoperation_100000000,0.000000,1,-1.000000,1,COMPLETED_SUCCESSFULLY,2678.142991,0.000010,2678.143001,2678.142991,2678.143001,267814300.100201,6,-1.000000,""
43_updated,w0,python3action_videoprocessing_SampleVideo_50mb_taurus,0.997085,1,2000.000000,1,COMPLETED_SUCCESSFULLY,2621.659971,154.250029,2775.910000,2620.662886,2774.912915,17.989708,2,-1.000000,""
43,w0,python3action_videoprocessing_SampleVideo_50mb,0.000000,1,-1.000000,1,COMPLETED_SUCCESSFULLY,2775.910015,0.000010,2775.910025,2775.910015,2775.910025,277591002.500201,2,-1.000000,""
116_updated,w0,python3action_floatoperation_200000000_nova,0.997085,1,2000.000000,1,COMPLETED_SUCCESSFULLY,2678.143021,135.399990,2813.543011,2677.145936,2812.545926,20.772128,6,-1.000000,""
116,w0,python3action_floatoperation_200000000,0.000000,1,-1.000000,1,COMPLETED_SUCCESSFULLY,2813.543026,0.000010,2813.543036,2813.543026,2813.543036,281354303.623907,6,-1.000000,""
136_updated,w0,python3action_floatoperation_100000000_nova,0.997085,1,2000.000000,1,COMPLETED_SUCCESSFULLY,2813.543056,66.200020,2879.743076,2812.545971,2878.745991,43.485576,6,-1.000000,""
136,w0,python3action_floatoperation_100000000,0.000000,1,-1.000000,1,COMPLETED_SUCCESSFULLY,2879.743091,0.000010,2879.743101,2879.743091,2879.743101,287974310.100201,6,-1.000000,""
106_updated,w0,python3action_videoprocessing_SampleVideo_50mb_taurus,0.997085,1,2000.000000,1,COMPLETED_SUCCESSFULLY,2775.910045,154.250029,2930.160074,2774.912960,2929.162989,18.989708,2,-1.000000,""
106,w0,python3action_videoprocessing_SampleVideo_50mb,0.000000,1,-1.000000,1,COMPLETED_SUCCESSFULLY,2930.160089,0.000010,2930.160099,2930.160089,2930.160099,293016009.900201,2,-1.000000,""
149_updated,w0,python3action_floatoperation_100000000_nova,0.997085,1,2000.000000,1,COMPLETED_SUCCESSFULLY,2879.743121,66.200020,2945.943141,2878.746036,2944.946056,44.485577,6,-1.000000,""
149,w0,python3action_floatoperation_100000000,0.000000,1,-1.000000,1,COMPLETED_SUCCESSFULLY,2945.943156,0.000010,2945.943166,2945.943156,2945.943166,294594316.600201,6,-1.000000,""
169_updated,w0,python3action_floatoperation_100000000_nova,0.997085,1,2000.000000,1,COMPLETED_SUCCESSFULLY,2945.943186,66.200020,3012.143206,2944.946101,3011.146121,45.485578,6,-1.000000,""
169,w0,python3action_floatoperation_100000000,0.000000,1,-1.000000,1,COMPLETED_SUCCESSFULLY,3012.143221,0.000010,3012.143231,3012.143221,3012.143231,301214323.100201,6,-1.000000,""
135_updated,w0,python3action_videoprocessing_SampleVideo_50mb_taurus,0.997085,1,2000.000000,1,COMPLETED_SUCCESSFULLY,2930.160119,154.250029,3084.410148,2929.163034,3083.413063,19.989708,2,-1.000000,""
135,w0,python3action_videoprocessing_SampleVideo_50mb,0.000000,1,-1.000000,1,COMPLETED_SUCCESSFULLY,3084.410163,0.000010,3084.410173,3084.410163,3084.410173,308441017.300201,2,-1.000000,""
180_updated,w0,python3action_floatoperation_200000000_nova,0.997085,1,2000.000000,1,COMPLETED_SUCCESSFULLY,3012.143251,135.399990,3147.543241,3011.146166,3146.546156,23.238895,6,-1.000000,""
180,w0,python3action_floatoperation_200000000,0.000000,1,-1.000000,1,COMPLETED_SUCCESSFULLY,3147.543256,0.000010,3147.543266,3147.543256,3147.543266,314754326.623907,6,-1.000000,""
140_updated,w0,python3action_videoprocessing_SampleVideo_50mb_taurus,0.997085,1,2000.000000,1,COMPLETED_SUCCESSFULLY,3084.410193,154.250029,3238.660222,3083.413108,3237.663137,20.989708,2,-1.000000,""
140,w0,python3action_videoprocessing_SampleVideo_50mb,0.000000,1,-1.000000,1,COMPLETED_SUCCESSFULLY,3238.660237,0.000010,3238.660247,3238.660237,3238.660247,323866024.700201,2,-1.000000,""
185_updated,w0,python3action_floatoperation_200000000_nova,0.997085,1,2000.000000,1,COMPLETED_SUCCESSFULLY,3147.543286,135.399990,3282.943276,3146.546201,3281.946191,24.238895,6,-1.000000,""
185,w0,python3action_floatoperation_200000000,0.000000,1,-1.000000,1,COMPLETED_SUCCESSFULLY,3282.943291,0.000010,3282.943301,3282.943291,3282.943301,328294330.147613,6,-1.000000,""
python3action_modeltraining_job45_5,w0,python3action_modeltraining_reduced_0.94,0.997085,1,2000.000000,1,COMPLETED_SUCCESSFULLY,3282.943321,1.794099,3284.737420,3281.946236,3283.740335,1830.300551,6,-1.000000,""
45_updated,w0,python3action_modeltraining_reviews100mb_nova,0.997085,1,2000.000000,1,COMPLETED_SUCCESSFULLY,3284.737435,79.600010,3364.337445,3283.740350,3363.340360,42.253014,6,-1.000000,""
45,w0,python3action_modeltraining_reviews100mb,0.000000,1,-1.000000,1,COMPLETED_SUCCESSFULLY,3364.337460,0.000010,3364.337470,3364.337460,3364.337470,336433747.022423,6,-1.000000,""
144_updated,w0,python3action_videoprocessing_SampleVideo_50mb_taurus,0.997085,1,2000.000000,1,COMPLETED_SUCCESSFULLY,3238.660267,154.250029,3392.910296,3237.663182,3391.913211,21.989709,2,-1.000000,""
144,w0,python3action_videoprocessing_SampleVideo_50mb,0.000000,1,-1.000000,1,COMPLETED_SUCCESSFULLY,3392.910311,0.000010,3392.910321,3392.910311,3392.910321,339291032.100201,2,-1.000000,""
67_updated,w0,python3action_modeltraining_reviews100mb_nova,0.997085,1,2000.000000,1,COMPLETED_SUCCESSFULLY,3364.337490,79.600010,3443.937500,3363.340405,3442.940415,43.253015,6,-1.000000,""
67,w0,python3action_modeltraining_reviews100mb,0.000000,1,-1.000000,1,COMPLETED_SUCCESSFULLY,3443.937515,0.000010,3443.937525,3443.937515,3443.937525,344393752.500201,6,-1.000000,""
107_updated,w0,python3action_modeltraining_reviews100mb_nova,0.997085,1,2000.000000,1,COMPLETED_SUCCESSFULLY,3443.937545,79.600010,3523.537555,3442.940460,3522.540470,44.253016,6,-1.000000,""
107,w0,python3action_modeltraining_reviews100mb,0.000000,1,-1.000000,1,COMPLETED_SUCCESSFULLY,3523.537570,0.000010,3523.537580,3523.537570,3523.537580,352353758.000201,6,-1.000000,""
175_updated,w0,python3action_videoprocessing_SampleVideo_50mb_taurus,0.997085,1,2000.000000,1,COMPLETED_SUCCESSFULLY,3392.910341,154.250029,3547.160370,3391.913256,3546.163285,22.989709,2,-1.000000,""
175,w0,python3action_videoprocessing_SampleVideo_50mb,0.000000,1,-1.000000,1,COMPLETED_SUCCESSFULLY,3547.160385,0.000010,3547.160395,3547.160385,3547.160395,354716039.500201,2,-1.000000,""
138_updated,w0,python3action_modeltraining_reviews100mb_nova,0.997085,1,2000.000000,1,COMPLETED_SUCCESSFULLY,3523.537600,79.600010,3603.137610,3522.540515,3602.140525,45.253016,6,-1.000000,""
138,w0,python3action_modeltraining_reviews100mb,0.000000,1,-1.000000,1,COMPLETED_SUCCESSFULLY,3603.137625,0.000010,3603.137635,3603.137625,3603.137635,360313763.500201,6,-1.000000,""
194_updated,w0,python3action_modeltraining_reviews100mb_nova,0.997085,1,2000.000000,1,COMPLETED_SUCCESSFULLY,3603.137655,79.600010,3682.737665,3602.140570,3681.740580,46.253017,6,-1.000000,""
194,w0,python3action_modeltraining_reviews100mb,0.000000,1,-1.000000,1,COMPLETED_SUCCESSFULLY,3682.737680,0.000010,3682.737690,3682.737680,3682.737690,368273769.000201,6,-1.000000,""
python3action_pyaes_job68_5,w0,python3action_pyaes,0.997085,1,2000.000000,1,COMPLETED_SUCCESSFULLY,3682.737710,2.134958,3684.872668,3681.740625,3683.875583,1725.502409,6,-1.000000,""
176_updated,w0,python3action_videoprocessing_SampleVideo_50mb_taurus,0.997085,1,2000.000000,1,COMPLETED_SUCCESSFULLY,3547.160415,154.250029,3701.410444,3546.163330,3700.413359,23.989709,2,-1.000000,""
176,w0,python3action_videoprocessing_SampleVideo_50mb,0.000000,1,-1.000000,1,COMPLETED_SUCCESSFULLY,3701.410459,0.000010,3701.410469,3701.410459,3701.410469,370141046.900201,2,-1.000000,""
68_updated,w0,python3action_pyaes_4000_nova,0.997085,1,2000.000000,1,COMPLETED_SUCCESSFULLY,3684.872683,139.600010,3824.472693,3683.875598,3823.475608,27.388792,6,-1.000000,""
68,w0,python3action_pyaes_4000,0.000000,1,-1.000000,1,COMPLETED_SUCCESSFULLY,3824.472708,0.000010,3824.472718,3824.472708,3824.472718,382447271.801669,6,-1.000000,""
190_updated,w0,python3action_videoprocessing_SampleVideo_50mb_taurus,0.997085,1,2000.000000,1,COMPLETED_SUCCESSFULLY,3701.410489,154.250029,3855.660518,3700.413404,3854.663433,24.989710,2,-1.000000,""
190,w0,python3action_videoprocessing_SampleVideo_50mb,0.000000,1,-1.000000,1,COMPLETED_SUCCESSFULLY,3855.660533,0.000010,3855.660543,3855.660533,3855.660543,385566054.300201,2,-1.000000,""
120_updated,w0,python3action_pyaes_4000_nova,0.997085,1,2000.000000,1,COMPLETED_SUCCESSFULLY,3824.472738,139.600010,3964.072748,3823.475653,3963.075663,28.388792,6,-1.000000,""
120,w0,python3action_pyaes_4000,0.000000,1,-1.000000,1,COMPLETED_SUCCESSFULLY,3964.072763,0.000010,3964.072773,3964.072763,3964.072773,396407277.300201,6,-1.000000,""
193_updated,w0,python3action_videoprocessing_SampleVideo_50mb_taurus,0.997085,1,2000.000000,1,COMPLETED_SUCCESSFULLY,3855.660563,154.250029,4009.910592,3854.663478,4008.913507,25.989710,2,-1.000000,""
193,w0,python3action_videoprocessing_SampleVideo_50mb,0.000000,1,-1.000000,1,COMPLETED_SUCCESSFULLY,4009.910607,0.000010,4009.910617,4009.910607,4009.910617,400991061.700201,2,-1.000000,""
143_updated,w0,python3action_pyaes_4000_nova,0.997085,1,2000.000000,1,COMPLETED_SUCCESSFULLY,3964.072793,139.600010,4103.672803,3963.075708,4102.675718,29.388792,6,-1.000000,""
143,w0,python3action_pyaes_4000,0.000000,1,-1.000000,1,COMPLETED_SUCCESSFULLY,4103.672818,0.000010,4103.672828,4103.672818,4103.672828,410367282.800201,6,-1.000000,""
146_updated,w0,python3action_pyaes_4000_nova,0.997085,1,2000.000000,1,COMPLETED_SUCCESSFULLY,4103.672848,139.600010,4243.272858,4102.675763,4242.275773,30.388793,6,-1.000000,""
146,w0,python3action_pyaes_4000,0.000000,1,-1.000000,1,COMPLETED_SUCCESSFULLY,4243.272873,0.000010,4243.272883,4243.272873,4243.272883,424327288.300201,6,-1.000000,""
179_updated,w0,python3action_pyaes_4000_nova,0.997085,1,2000.000000,1,COMPLETED_SUCCESSFULLY,4243.272903,139.600010,4382.872913,4242.275818,4381.875828,31.388793,6,-1.000000,""
179,w0,python3action_pyaes_4000,0.000000,1,-1.000000,1,COMPLETED_SUCCESSFULLY,4382.872928,0.000010,4382.872938,4382.872928,4382.872938,438287293.800201,6,-1.000000,""
198_updated,w0,python3action_pyaes_4000_nova,0.997085,1,2000.000000,1,COMPLETED_SUCCESSFULLY,4382.872958,139.600010,4522.472968,4381.875873,4521.475883,32.388793,6,-1.000000,""
198,w0,python3action_pyaes_4000,0.000000,1,-1.000000,1,COMPLETED_SUCCESSFULLY,4522.472983,0.000010,4522.472993,4522.472983,4522.472993,452247299.300201,6,-1.000000,""
python3action_video_processing_job18_5,w0,python3action_video_processing_reduced_1.89,0.997085,1,2000.000000,1,COMPLETED_SUCCESSFULLY,4522.473013,0.000000,4522.473013,4521.475928,4521.475928,92063247362073.281250,6,-1.000000,""
18_updated,w0,python3action_videoprocessing_SampleVideo_50mb_nova,0.997085,1,2000.000000,1,COMPLETED_SUCCESSFULLY,4522.473043,139.600010,4662.073053,4521.475958,4661.075968,33.388794,6,-1.000000,""
18,w0,python3action_videoprocessing_SampleVideo_50mb,0.000000,1,-1.000000,1,COMPLETED_SUCCESSFULLY,4662.073068,0.000010,4662.073078,4662.073068,4662.073078,466207307.800201,6,-1.000000,""
31_updated,w0,python3action_videoprocessing_SampleVideo_30mb_nova,0.997085,1,2000.000000,1,COMPLETED_SUCCESSFULLY,4662.073098,106.799980,4768.873078,4661.076013,4767.875993,44.643042,6,-1.000000,""
31,w0,python3action_videoprocessing_SampleVideo_30mb,0.000000,1,-1.000000,1,COMPLETED_SUCCESSFULLY,4768.873093,0.000010,4768.873103,4768.873093,4768.873103,476887310.347010,6,-1.000000,""
47_updated,w0,python3action_videoprocessing_SampleVideo_30mb_nova,0.997085,1,2000.000000,1,COMPLETED_SUCCESSFULLY,4768.873123,106.799980,4875.673104,4767.876038,4874.676019,45.643042,6,-1.000000,""
47,w0,python3action_videoprocessing_SampleVideo_30mb,0.000000,1,-1.000000,1,COMPLETED_SUCCESSFULLY,4875.673119,0.000010,4875.673129,4875.673119,4875.673129,487567312.900201,6,-1.000000,""
56_updated,w0,python3action_videoprocessing_SampleVideo_30mb_nova,0.997085,1,2000.000000,1,COMPLETED_SUCCESSFULLY,4875.673149,106.799980,4982.473129,4874.676064,4981.476044,46.643043,6,-1.000000,""
56,w0,python3action_videoprocessing_SampleVideo_30mb,0.000000,1,-1.000000,1,COMPLETED_SUCCESSFULLY,4982.473144,0.000010,4982.473154,4982.473144,4982.473154,498247315.447010,6,-1.000000,""
58_updated,w0,python3action_videoprocessing_SampleVideo_30mb_nova,0.997085,1,2000.000000,1,COMPLETED_SUCCESSFULLY,4982.473174,106.799980,5089.273155,4981.476089,5088.276070,47.643043,6,-1.000000,""
58,w0,python3action_videoprocessing_SampleVideo_30mb,0.000000,1,-1.000000,1,COMPLETED_SUCCESSFULLY,5089.273170,0.000010,5089.273180,5089.273170,5089.273180,508927318.000201,6,-1.000000,""
74_updated,w0,python3action_videoprocessing_SampleVideo_30mb_nova,0.997085,1,2000.000000,1,COMPLETED_SUCCESSFULLY,5089.273200,106.799980,5196.073180,5088.276115,5195.076095,48.643044,6,-1.000000,""
74,w0,python3action_videoprocessing_SampleVideo_30mb,0.000000,1,-1.000000,1,COMPLETED_SUCCESSFULLY,5196.073195,0.000010,5196.073205,5196.073195,5196.073205,519607320.547010,6,-1.000000,""
81_updated,w0,python3action_videoprocessing_SampleVideo_30mb_nova,0.997085,1,2000.000000,1,COMPLETED_SUCCESSFULLY,5196.073225,106.799980,5302.873206,5195.076140,5301.876121,49.643044,6,-1.000000,""
81,w0,python3action_videoprocessing_SampleVideo_30mb,0.000000,1,-1.000000,1,COMPLETED_SUCCESSFULLY,5302.873221,0.000010,5302.873231,5302.873221,5302.873231,530287323.100201,6,-1.000000,""
86_updated,w0,python3action_videoprocessing_SampleVideo_30mb_nova,0.997085,1,2000.000000,1,COMPLETED_SUCCESSFULLY,5302.873251,106.799980,5409.673231,5301.876166,5408.676146,50.643044,6,-1.000000,""
86,w0,python3action_videoprocessing_SampleVideo_30mb,0.000000,1,-1.000000,1,COMPLETED_SUCCESSFULLY,5409.673246,0.000010,5409.673256,5409.673246,5409.673256,540967325.647010,6,-1.000000,""
87_updated,w0,python3action_videoprocessing_SampleVideo_30mb_nova,0.997085,1,2000.000000,1,COMPLETED_SUCCESSFULLY,5409.673276,106.799980,5516.473257,5408.676191,5515.476172,51.643045,6,-1.000000,""
87,w0,python3action_videoprocessing_SampleVideo_30mb,0.000000,1,-1.000000,1,COMPLETED_SUCCESSFULLY,5516.473272,0.000010,5516.473282,5516.473272,5516.473282,551647328.200201,6,-1.000000,""
92_updated,w0,python3action_videoprocessing_SampleVideo_50mb_nova,0.997085,1,2000.000000,1,COMPLETED_SUCCESSFULLY,5516.473302,139.600010,5656.073312,5515.476217,5655.076227,40.509139,6,-1.000000,""
92,w0,python3action_videoprocessing_SampleVideo_50mb,0.000000,1,-1.000000,1,COMPLETED_SUCCESSFULLY,5656.073327,0.000010,5656.073337,5656.073327,5656.073337,565607333.700201,6,-1.000000,""
94_updated,w0,python3action_videoprocessing_SampleVideo_30mb_nova,0.997085,1,2000.000000,1,COMPLETED_SUCCESSFULLY,5656.073357,106.799980,5762.873337,5655.076272,5761.876252,53.950162,6,-1.000000,""
94,w0,python3action_videoprocessing_SampleVideo_30mb,0.000000,1,-1.000000,1,COMPLETED_SUCCESSFULLY,5762.873352,0.000010,5762.873362,5762.873352,5762.873362,576287336.247010,6,-1.000000,""
102_updated,w0,python3action_videoprocessing_SampleVideo_30mb_nova,0.997085,1,2000.000000,1,COMPLETED_SUCCESSFULLY,5762.873382,106.799980,5869.673363,5761.876297,5868.676278,54.950162,6,-1.000000,""
102,w0,python3action_videoprocessing_SampleVideo_30mb,0.000000,1,-1.000000,1,COMPLETED_SUCCESSFULLY,5869.673378,0.000010,5869.673388,5869.673378,5869.673388,586967338.800201,6,-1.000000,""
103_updated,w0,python3action_videoprocessing_SampleVideo_30mb_nova,0.997085,1,2000.000000,1,COMPLETED_SUCCESSFULLY,5869.673408,106.799980,5976.473388,5868.676323,5975.476303,55.950163,6,-1.000000,""
103,w0,python3action_videoprocessing_SampleVideo_30mb,0.000000,1,-1.000000,1,COMPLETED_SUCCESSFULLY,5976.473403,0.000010,5976.473413,5976.473403,5976.473413,597647341.347010,6,-1.000000,""
118_updated,w0,python3action_videoprocessing_SampleVideo_50mb_nova,0.997085,1,2000.000000,1,COMPLETED_SUCCESSFULLY,5976.473433,139.600010,6116.073443,5975.476348,6115.076358,43.804269,6,-1.000000,""
118,w0,python3action_videoprocessing_SampleVideo_50mb,0.000000,1,-1.000000,1,COMPLETED_SUCCESSFULLY,6116.073458,0.000010,6116.073468,6116.073458,6116.073468,611607346.824509,6,-1.000000,""
124_updated,w0,python3action_videoprocessing_SampleVideo_30mb_nova,0.997085,1,2000.000000,1,COMPLETED_SUCCESSFULLY,6116.073488,106.799980,6222.873469,6115.076403,6221.876384,58.257280,6,-1.000000,""
124,w0,python3action_videoprocessing_SampleVideo_30mb,0.000000,1,-1.000000,1,COMPLETED_SUCCESSFULLY,6222.873484,0.000010,6222.873494,6222.873484,6222.873494,622287349.400201,6,-1.000000,""
126_updated,w0,python3action_videoprocessing_SampleVideo_30mb_nova,0.997085,1,2000.000000,1,COMPLETED_SUCCESSFULLY,6222.873514,106.799980,6329.673494,6221.876429,6328.676409,59.257281,6,-1.000000,""
126,w0,python3action_videoprocessing_SampleVideo_30mb,0.000000,1,-1.000000,1,COMPLETED_SUCCESSFULLY,6329.673509,0.000010,6329.673519,6329.673509,6329.673519,632967351.947010,6,-1.000000,""
128_updated,w0,python3action_videoprocessing_SampleVideo_30mb_nova,0.997085,1,2000.000000,1,COMPLETED_SUCCESSFULLY,6329.673539,106.799980,6436.473520,6328.676454,6435.476435,60.257281,6,-1.000000,""
128,w0,python3action_videoprocessing_SampleVideo_30mb,0.000000,1,-1.000000,1,COMPLETED_SUCCESSFULLY,6436.473535,0.000010,6436.473545,6436.473535,6436.473545,643647354.500201,6,-1.000000,""
131_updated,w0,python3action_videoprocessing_SampleVideo_30mb_nova,0.997085,1,2000.000000,1,COMPLETED_SUCCESSFULLY,6436.473565,106.799980,6543.273545,6435.476480,6542.276460,61.257281,6,-1.000000,""
131,w0,python3action_videoprocessing_SampleVideo_30mb,0.000000,1,-1.000000,1,COMPLETED_SUCCESSFULLY,6543.273560,0.000010,6543.273570,6543.273560,6543.273570,654327357.047010,6,-1.000000,""
145_updated,w0,python3action_videoprocessing_SampleVideo_30mb_nova,0.997085,1,2000.000000,1,COMPLETED_SUCCESSFULLY,6543.273590,106.799980,6650.073571,6542.276505,6649.076486,62.257282,6,-1.000000,""
145,w0,python3action_videoprocessing_SampleVideo_30mb,0.000000,1,-1.000000,1,COMPLETED_SUCCESSFULLY,6650.073586,0.000010,6650.073596,6650.073586,6650.073596,665007359.600201,6,-1.000000,""
157_updated,w0,python3action_videoprocessing_SampleVideo_30mb_nova,0.997085,1,2000.000000,1,COMPLETED_SUCCESSFULLY,6650.073616,106.799980,6756.873596,6649.076531,6755.876511,63.257282,6,-1.000000,""
157,w0,python3action_videoprocessing_SampleVideo_30mb,0.000000,1,-1.000000,1,COMPLETED_SUCCESSFULLY,6756.873611,0.000010,6756.873621,6756.873611,6756.873621,675687362.147010,6,-1.000000,""
197_updated,w0,python3action_videoprocessing_SampleVideo_30mb_nova,0.997085,1,2000.000000,1,COMPLETED_SUCCESSFULLY,6756.873641,106.799980,6863.673622,6755.876556,6862.676537,64.257283,6,-1.000000,""
197,w0,python3action_videoprocessing_SampleVideo_30mb,0.000000,1,-1.000000,1,COMPLETED_SUCCESSFULLY,6863.673637,0.000010,6863.673647,6863.673637,6863.673647,686367364.700201,6,-1.000000,""
