job_id,workload_name,profile,submission_time,requested_number_of_resources,requested_time,success,final_state,starting_time,execution_time,finish_time,waiting_time,turnaround_time,stretch,allocated_resources,consumed_energy,metadata
python3action_chameleon_job15_3,w0,python3action_chameleon,0.997085,1,2000.000000,1,COMPLETED_SUCCESSFULLY,1.002145,0.867914,1.870059,0.005060,0.872974,1.005830,44,-1.000000,""
python3action_chameleon_job13_4,w0,python3action_chameleon,0.997085,1,2000.000000,1,COMPLETED_SUCCESSFULLY,1.002160,0.892694,1.894854,0.005075,0.897769,1.005685,49,-1.000000,""
python3action_facedetection_job11_0,w0,python3action_facedetection,0.997085,1,2000.000000,1,COMPLETED_SUCCESSFULLY,1.002100,30.499683,31.501783,0.005015,30.504698,1.000164,2,-1.000000,""
15_updated,w0,python3action_chameleon_2000_troll,0.997085,1,2000.000000,1,COMPLETED_SUCCESSFULLY,1.870074,39.500010,41.370084,0.872989,40.372999,1.022101,44,-1.000000,""
15,w0,python3action_chameleon_2000,0.000000,1,-1.000000,1,COMPLETED_SUCCESSFULLY,41.370099,0.000010,41.370109,41.370099,41.370109,4137010.900201,44,-1.000000,""
python3action_image_processing_job5_1,w0,python3action_image_processing,0.997085,1,2000.000000,1,COMPLETED_SUCCESSFULLY,1.002115,72.012455,73.014570,0.005030,72.017485,1.000070,26,-1.000000,""
python3action_facedetection_job16_2,w0,python3action_facedetection,0.997085,1,2000.000000,1,COMPLETED_SUCCESSFULLY,1.002130,72.012455,73.014585,0.005045,72.017500,1.000070,29,-1.000000,""
13_updated,w0,python3action_chameleon_3000_yeti,0.997085,1,2000.000000,1,COMPLETED_SUCCESSFULLY,1.894869,93.000000,94.894869,0.897784,93.897784,1.009654,49,-1.000000,""
13,w0,python3action_chameleon_3000,0.000000,1,-1.000000,1,COMPLETED_SUCCESSFULLY,94.894884,0.000010,94.894894,94.894884,94.894894,9489489.449765,49,-1.000000,""
24_updated,w0,python3action_chameleon_3000_troll,0.997085,1,2000.000000,1,COMPLETED_SUCCESSFULLY,41.370129,94.000000,135.370129,40.373044,134.373044,1.429500,44,-1.000000,""
24,w0,python3action_chameleon_3000,0.000000,1,-1.000000,1,COMPLETED_SUCCESSFULLY,135.370144,0.000010,135.370154,135.370144,135.370154,13537015.400803,44,-1.000000,""
5_updated,w0,python3action_imageprocessing_SampleImage_60mb_orion,0.997085,1,2000.000000,1,COMPLETED_SUCCESSFULLY,73.014585,88.000000,161.014585,72.017500,160.017500,1.818381,26,-1.000000,""
5,w0,python3action_imageprocessing_SampleImage_60mb,0.000000,1,-1.000000,1,COMPLETED_SUCCESSFULLY,161.014600,0.000010,161.014610,161.014600,161.014610,16101461.031884,26,-1.000000,""
17_updated,w0,python3action_chameleon_3000_yeti,0.997085,1,2000.000000,1,COMPLETED_SUCCESSFULLY,94.894915,93.000000,187.894915,93.897830,186.897830,2.009654,49,-1.000000,""
17,w0,python3action_chameleon_3000,0.000000,1,-1.000000,1,COMPLETED_SUCCESSFULLY,187.894930,0.000010,187.894940,187.894930,187.894940,18789494.000201,49,-1.000000,""
11_updated,w0,python3action_facedetection_SampleVideo_30mb_nova,0.997085,1,2000.000000,1,COMPLETED_SUCCESSFULLY,31.501798,160.399990,191.901788,30.504713,190.904703,1.190179,2,-1.000000,""
11,w0,python3action_facedetection_SampleVideo_30mb,0.000000,1,-1.000000,1,COMPLETED_SUCCESSFULLY,191.901803,0.000010,191.901813,191.901803,191.901813,19190181.323505,2,-1.000000,""
16_updated,w0,python3action_facedetection_SampleVideo_50mb_taurus,0.997085,1,2000.000000,1,COMPLETED_SUCCESSFULLY,73.014615,134.600046,207.614661,72.017530,206.617576,1.535048,29,-1.000000,""
16,w0,python3action_facedetection_SampleVideo_50mb,0.000000,1,-1.000000,1,COMPLETED_SUCCESSFULLY,207.614676,0.000010,207.614686,207.614676,207.614686,20761468.645363,29,-1.000000,""
36_updated,w0,python3action_chameleon_3000_troll,0.997085,1,2000.000000,1,COMPLETED_SUCCESSFULLY,135.370174,94.000000,229.370174,134.373089,228.373089,2.429501,44,-1.000000,""
36,w0,python3action_chameleon_3000,0.000000,1,-1.000000,1,COMPLETED_SUCCESSFULLY,229.370189,0.000010,229.370199,229.370189,229.370199,22937019.901406,44,-1.000000,""
140_updated,w0,python3action_imageprocessing_SampleImage_60mb_orion,0.997085,1,2000.000000,1,COMPLETED_SUCCESSFULLY,161.014630,88.000000,249.014630,160.017545,248.017545,2.818381,26,-1.000000,""
140,w0,python3action_imageprocessing_SampleImage_60mb,0.000000,1,-1.000000,1,COMPLETED_SUCCESSFULLY,249.014645,0.000010,249.014655,249.014645,249.014655,24901465.532486,26,-1.000000,""
python3action_linpack_job9_2,w0,python3action_linpack,0.997085,1,2000.000000,1,COMPLETED_SUCCESSFULLY,249.014675,5.760927,254.775603,248.017590,253.778518,44.051679,26,-1.000000,""
39_updated,w0,python3action_chameleon_2000_troll,0.997085,1,2000.000000,1,COMPLETED_SUCCESSFULLY,229.370219,39.500010,268.870229,228.373134,267.873144,6.781597,44,-1.000000,""
39,w0,python3action_chameleon_2000,0.000000,1,-1.000000,1,COMPLETED_SUCCESSFULLY,268.870244,0.000010,268.870254,268.870244,268.870254,26887025.400201,44,-1.000000,""
20_updated,w0,python3action_chameleon_3000_yeti,0.997085,1,2000.000000,1,COMPLETED_SUCCESSFULLY,187.894960,93.000000,280.894960,186.897875,279.897875,3.009655,49,-1.000000,""
20,w0,python3action_chameleon_3000,0.000000,1,-1.000000,1,COMPLETED_SUCCESSFULLY,280.894975,0.000010,280.894985,280.894975,280.894985,28089498.500803,49,-1.000000,""
44_updated,w0,python3action_chameleon_2000_troll,0.997085,1,2000.000000,1,COMPLETED_SUCCESSFULLY,268.870274,39.500010,308.370284,267.873189,307.373199,7.781598,44,-1.000000,""
44,w0,python3action_chameleon_2000,0.000000,1,-1.000000,1,COMPLETED_SUCCESSFULLY,308.370299,0.000010,308.370309,308.370299,308.370309,30837030.900201,44,-1.000000,""
45_updated,w0,python3action_facedetection_SampleVideo_50mb_taurus,0.997085,1,2000.000000,1,COMPLETED_SUCCESSFULLY,207.614706,134.600046,342.214753,206.617621,341.217668,2.535049,29,-1.000000,""
45,w0,python3action_facedetection_SampleVideo_50mb,0.000000,1,-1.000000,1,COMPLETED_SUCCESSFULLY,342.214768,0.000010,342.214778,342.214768,342.214778,34221477.800201,29,-1.000000,""
56_updated,w0,python3action_chameleon_2000_troll,0.997085,1,2000.000000,1,COMPLETED_SUCCESSFULLY,308.370329,39.500010,347.870339,307.373244,346.873254,8.781599,44,-1.000000,""
56,w0,python3action_chameleon_2000,0.000000,1,-1.000000,1,COMPLETED_SUCCESSFULLY,347.870354,0.000010,347.870364,347.870354,347.870364,34787036.400201,44,-1.000000,""
27_updated,w0,python3action_facedetection_SampleVideo_30mb_nova,0.997085,1,2000.000000,1,COMPLETED_SUCCESSFULLY,191.901833,160.399990,352.301823,190.904748,351.304738,2.190179,2,-1.000000,""
27,w0,python3action_facedetection_SampleVideo_30mb,0.000000,1,-1.000000,1,COMPLETED_SUCCESSFULLY,352.301838,0.000010,352.301848,352.301838,352.301848,35230184.847211,2,-1.000000,""
9_updated,w0,python3action_linpack_6000_orion,0.997085,1,2000.000000,1,COMPLETED_SUCCESSFULLY,254.775618,106.000000,360.775618,253.778533,359.778533,3.394137,26,-1.000000,""
9,w0,python3action_linpack_6000,0.000000,1,-1.000000,1,COMPLETED_SUCCESSFULLY,360.775633,0.000010,360.775643,360.775633,360.775643,36077564.300402,26,-1.000000,""
70_updated,w0,python3action_chameleon_3000_yeti,0.997085,1,2000.000000,1,COMPLETED_SUCCESSFULLY,280.895005,93.000000,373.895005,279.897920,372.897920,4.009655,49,-1.000000,""
70,w0,python3action_chameleon_3000,0.000000,1,-1.000000,1,COMPLETED_SUCCESSFULLY,373.895020,0.000010,373.895030,373.895020,373.895030,37389503.001406,49,-1.000000,""
68_updated,w0,python3action_chameleon_2000_troll,0.997085,1,2000.000000,1,COMPLETED_SUCCESSFULLY,347.870384,39.500010,387.370394,346.873299,386.373309,9.781600,44,-1.000000,""
68,w0,python3action_chameleon_2000,0.000000,1,-1.000000,1,COMPLETED_SUCCESSFULLY,387.370409,0.000010,387.370419,387.370409,387.370419,38737041.900201,44,-1.000000,""
99_updated,w0,python3action_linpack_6000_orion,0.997085,1,2000.000000,1,COMPLETED_SUCCESSFULLY,360.775663,106.000000,466.775663,359.778578,465.778578,4.394138,26,-1.000000,""
99,w0,python3action_linpack_6000,0.000000,1,-1.000000,1,COMPLETED_SUCCESSFULLY,466.775678,0.000010,466.775688,466.775678,466.775688,46677568.801004,26,-1.000000,""
92_updated,w0,python3action_chameleon_3000_yeti,0.997085,1,2000.000000,1,COMPLETED_SUCCESSFULLY,373.895050,93.000000,466.895050,372.897965,465.897965,5.009656,49,-1.000000,""
92,w0,python3action_chameleon_3000,0.000000,1,-1.000000,1,COMPLETED_SUCCESSFULLY,466.895065,0.000010,466.895075,466.895065,466.895075,46689507.502008,49,-1.000000,""
53_updated,w0,python3action_facedetection_SampleVideo_50mb_taurus,0.997085,1,2000.000000,1,COMPLETED_SUCCESSFULLY,342.214798,134.600046,476.814844,341.217713,475.817759,3.535049,29,-1.000000,""
53,w0,python3action_facedetection_SampleVideo_50mb,0.000000,1,-1.000000,1,COMPLETED_SUCCESSFULLY,476.814859,0.000010,476.814869,476.814859,476.814869,47681486.913881,29,-1.000000,""
77_updated,w0,python3action_chameleon_3000_troll,0.997085,1,2000.000000,1,COMPLETED_SUCCESSFULLY,387.370439,94.000000,481.370439,386.373354,480.373354,5.110355,44,-1.000000,""
77,w0,python3action_chameleon_3000,0.000000,1,-1.000000,1,COMPLETED_SUCCESSFULLY,481.370454,0.000010,481.370464,481.370454,481.370464,48137046.400803,44,-1.000000,""
55_updated,w0,python3action_facedetection_SampleVideo_30mb_nova,0.997085,1,2000.000000,1,COMPLETED_SUCCESSFULLY,352.301868,160.399990,512.701859,351.304783,511.704774,3.190180,2,-1.000000,""
55,w0,python3action_facedetection_SampleVideo_30mb,0.000000,1,-1.000000,1,COMPLETED_SUCCESSFULLY,512.701874,0.000010,512.701884,512.701874,512.701884,51270188.400201,2,-1.000000,""
114_updated,w0,python3action_chameleon_3000_yeti,0.997085,1,2000.000000,1,COMPLETED_SUCCESSFULLY,466.895095,93.000000,559.895095,465.898010,558.898010,6.009656,49,-1.000000,""
114,w0,python3action_chameleon_3000,0.000000,1,-1.000000,1,COMPLETED_SUCCESSFULLY,559.895110,0.000010,559.895120,559.895110,559.895120,55989512.002611,49,-1.000000,""
102_updated,w0,python3action_linpack_6000_orion,0.997085,1,2000.000000,1,COMPLETED_SUCCESSFULLY,466.775708,106.000000,572.775708,465.778623,571.778623,5.394138,26,-1.000000,""
102,w0,python3action_linpack_6000,0.000000,1,-1.000000,1,COMPLETED_SUCCESSFULLY,572.775723,0.000010,572.775733,572.775723,572.775733,57277573.301607,26,-1.000000,""
79_updated,w0,python3action_chameleon_3000_troll,0.997085,1,2000.000000,1,COMPLETED_SUCCESSFULLY,481.370484,94.000000,575.370484,480.373399,574.373399,6.110355,44,-1.000000,""
79,w0,python3action_chameleon_3000,0.000000,1,-1.000000,1,COMPLETED_SUCCESSFULLY,575.370499,0.000010,575.370509,575.370499,575.370509,57537050.901406,44,-1.000000,""
69_updated,w0,python3action_facedetection_SampleVideo_50mb_taurus,0.997085,1,2000.000000,1,COMPLETED_SUCCESSFULLY,476.814889,134.600046,611.414935,475.817804,610.417850,4.535049,29,-1.000000,""
69,w0,python3action_facedetection_SampleVideo_50mb,0.000000,1,-1.000000,1,COMPLETED_SUCCESSFULLY,611.414950,0.000010,611.414960,611.414950,611.414960,61141496.027562,29,-1.000000,""
93_updated,w0,python3action_chameleon_2000_troll,0.997085,1,2000.000000,1,COMPLETED_SUCCESSFULLY,575.370529,39.500010,614.870539,574.373444,613.873454,15.541096,44,-1.000000,""
93,w0,python3action_chameleon_2000,0.000000,1,-1.000000,1,COMPLETED_SUCCESSFULLY,614.870554,0.000010,614.870564,614.870554,614.870564,61487056.400201,44,-1.000000,""
59_updated,w0,python3action_facedetection_SampleVideo_30mb_nova,0.997085,1,2000.000000,1,COMPLETED_SUCCESSFULLY,512.701904,160.399990,673.101894,511.704819,672.104809,4.190180,2,-1.000000,""
59,w0,python3action_facedetection_SampleVideo_30mb,0.000000,1,-1.000000,1,COMPLETED_SUCCESSFULLY,673.101909,0.000010,673.101919,673.101909,673.101919,67310191.923907,2,-1.000000,""
116_updated,w0,python3action_linpack_6000_orion,0.997085,1,2000.000000,1,COMPLETED_SUCCESSFULLY,572.775753,106.000000,678.775753,571.778668,677.778668,6.394138,26,-1.000000,""
116,w0,python3action_linpack_6000,0.000000,1,-1.000000,1,COMPLETED_SUCCESSFULLY,678.775768,0.000010,678.775778,678.775768,678.775778,67877577.802209,26,-1.000000,""
98_updated,w0,python3action_chameleon_3000_troll,0.997085,1,2000.000000,1,COMPLETED_SUCCESSFULLY,614.870584,94.000000,708.870584,613.873499,707.873499,7.530569,44,-1.000000,""
98,w0,python3action_chameleon_3000,0.000000,1,-1.000000,1,COMPLETED_SUCCESSFULLY,708.870599,0.000010,708.870609,708.870599,708.870609,70887060.900803,44,-1.000000,""
128_updated,w0,python3action_facedetection_SampleVideo_50mb_taurus,0.997085,1,2000.000000,1,COMPLETED_SUCCESSFULLY,611.414980,134.600046,746.015026,610.417895,745.017941,5.535050,29,-1.000000,""
128,w0,python3action_facedetection_SampleVideo_50mb,0.000000,1,-1.000000,1,COMPLETED_SUCCESSFULLY,746.015041,0.000010,746.015051,746.015041,746.015051,74601505.141242,29,-1.000000,""
135_updated,w0,python3action_linpack_6000_orion,0.997085,1,2000.000000,1,COMPLETED_SUCCESSFULLY,678.775798,106.000000,784.775798,677.778713,783.778713,7.394139,26,-1.000000,""
135,w0,python3action_linpack_6000,0.000000,1,-1.000000,1,COMPLETED_SUCCESSFULLY,784.775813,0.000010,784.775823,784.775813,784.775823,78477582.302811,26,-1.000000,""
110_updated,w0,python3action_chameleon_3000_troll,0.997085,1,2000.000000,1,COMPLETED_SUCCESSFULLY,708.870629,94.000000,802.870629,707.873544,801.873544,8.530570,44,-1.000000,""
110,w0,python3action_chameleon_3000,0.000000,1,-1.000000,1,COMPLETED_SUCCESSFULLY,802.870644,0.000010,802.870654,802.870644,802.870654,80287065.401406,44,-1.000000,""
65_updated,w0,python3action_facedetection_SampleVideo_30mb_nova,0.997085,1,2000.000000,1,COMPLETED_SUCCESSFULLY,673.101939,160.399990,833.501929,672.104854,832.504844,5.190180,2,-1.000000,""
65,w0,python3action_facedetection_SampleVideo_30mb,0.000000,1,-1.000000,1,COMPLETED_SUCCESSFULLY,833.501944,0.000010,833.501954,833.501944,833.501954,83350195.447613,2,-1.000000,""
131_updated,w0,python3action_facedetection_SampleVideo_50mb_taurus,0.997085,1,2000.000000,1,COMPLETED_SUCCESSFULLY,746.015071,134.600046,880.615118,745.017986,879.618033,6.535050,29,-1.000000,""
131,w0,python3action_facedetection_SampleVideo_50mb,0.000000,1,-1.000000,1,COMPLETED_SUCCESSFULLY,880.615133,0.000010,880.615143,880.615133,880.615143,88061514.300201,29,-1.000000,""
139_updated,w0,python3action_linpack_6000_orion,0.997085,1,2000.000000,1,COMPLETED_SUCCESSFULLY,784.775843,106.000000,890.775843,783.778758,889.778758,8.394139,26,-1.000000,""
139,w0,python3action_linpack_6000,0.000000,1,-1.000000,1,COMPLETED_SUCCESSFULLY,890.775858,0.000010,890.775868,890.775858,890.775868,89077586.803414,26,-1.000000,""
121_updated,w0,python3action_chameleon_3000_troll,0.997085,1,2000.000000,1,COMPLETED_SUCCESSFULLY,802.870674,94.000000,896.870674,801.873589,895.873589,9.530570,44,-1.000000,""
121,w0,python3action_chameleon_3000,0.000000,1,-1.000000,1,COMPLETED_SUCCESSFULLY,896.870689,0.000010,896.870699,896.870689,896.870699,89687069.902008,44,-1.000000,""
122_updated,w0,python3action_chameleon_2000_troll,0.997085,1,2000.000000,1,COMPLETED_SUCCESSFULLY,896.870719,39.500010,936.370729,895.873634,935.373644,23.680339,44,-1.000000,""
122,w0,python3action_chameleon_2000,0.000000,1,-1.000000,1,COMPLETED_SUCCESSFULLY,936.370744,0.000010,936.370754,936.370744,936.370754,93637075.400201,44,-1.000000,""
132_updated,w0,python3action_chameleon_2000_troll,0.997085,1,2000.000000,1,COMPLETED_SUCCESSFULLY,936.370774,39.500010,975.870784,935.373689,974.873699,24.680341,44,-1.000000,""
132,w0,python3action_chameleon_2000,0.000000,1,-1.000000,1,COMPLETED_SUCCESSFULLY,975.870799,0.000010,975.870809,975.870799,975.870809,97587080.900201,44,-1.000000,""
101_updated,w0,python3action_facedetection_SampleVideo_30mb_nova,0.997085,1,2000.000000,1,COMPLETED_SUCCESSFULLY,833.501974,160.399990,993.901965,832.504889,992.904880,6.190180,2,-1.000000,""
101,w0,python3action_facedetection_SampleVideo_30mb,0.000000,1,-1.000000,1,COMPLETED_SUCCESSFULLY,993.901980,0.000010,993.901990,993.901980,993.901990,99390199.000201,2,-1.000000,""
145_updated,w0,python3action_linpack_6000_orion,0.997085,1,2000.000000,1,COMPLETED_SUCCESSFULLY,890.775888,106.000000,996.775888,889.778803,995.778803,9.394140,26,-1.000000,""
145,w0,python3action_linpack_6000,0.000000,1,-1.000000,1,COMPLETED_SUCCESSFULLY,996.775903,0.000010,996.775913,996.775903,996.775913,99677591.304016,26,-1.000000,""
137_updated,w0,python3action_facedetection_SampleVideo_50mb_taurus,0.997085,1,2000.000000,1,COMPLETED_SUCCESSFULLY,880.615163,134.600046,1015.215209,879.618078,1014.218124,7.535050,29,-1.000000,""
137,w0,python3action_facedetection_SampleVideo_50mb,0.000000,1,-1.000000,1,COMPLETED_SUCCESSFULLY,1015.215224,0.000010,1015.215234,1015.215224,1015.215234,101521523.413881,29,-1.000000,""
136_updated,w0,python3action_chameleon_2000_troll,0.997085,1,2000.000000,1,COMPLETED_SUCCESSFULLY,975.870829,39.500010,1015.370839,974.873744,1014.373754,25.680342,44,-1.000000,""
136,w0,python3action_chameleon_2000,0.000000,1,-1.000000,1,COMPLETED_SUCCESSFULLY,1015.370854,0.000010,1015.370864,1015.370854,1015.370864,101537086.400201,44,-1.000000,""
162_updated,w0,python3action_linpack_6000_orion,0.997085,1,2000.000000,1,COMPLETED_SUCCESSFULLY,996.775933,106.000000,1102.775933,995.778848,1101.778848,10.394140,26,-1.000000,""
162,w0,python3action_linpack_6000,0.000000,1,-1.000000,1,COMPLETED_SUCCESSFULLY,1102.775948,0.000010,1102.775958,1102.775948,1102.775958,110277595.804618,26,-1.000000,""
158_updated,w0,python3action_chameleon_3000_troll,0.997085,1,2000.000000,1,COMPLETED_SUCCESSFULLY,1015.370884,94.000000,1109.370884,1014.373799,1108.373799,11.791211,44,-1.000000,""
158,w0,python3action_chameleon_3000,0.000000,1,-1.000000,1,COMPLETED_SUCCESSFULLY,1109.370899,0.000010,1109.370909,1109.370899,1109.370909,110937090.900803,44,-1.000000,""
167_updated,w0,python3action_facedetection_SampleVideo_50mb_taurus,0.997085,1,2000.000000,1,COMPLETED_SUCCESSFULLY,1015.215254,134.600046,1149.815300,1014.218169,1148.818215,8.535051,29,-1.000000,""
167,w0,python3action_facedetection_SampleVideo_50mb,0.000000,1,-1.000000,1,COMPLETED_SUCCESSFULLY,1149.815315,0.000010,1149.815325,1149.815315,1149.815325,114981532.527562,29,-1.000000,""
111_updated,w0,python3action_facedetection_SampleVideo_30mb_nova,0.997085,1,2000.000000,1,COMPLETED_SUCCESSFULLY,993.902010,160.399990,1154.302000,992.904925,1153.304915,7.190181,2,-1.000000,""
111,w0,python3action_facedetection_SampleVideo_30mb,0.000000,1,-1.000000,1,COMPLETED_SUCCESSFULLY,1154.302015,0.000010,1154.302025,1154.302015,1154.302025,115430202.523907,2,-1.000000,""
159_updated,w0,python3action_chameleon_3000_troll,0.997085,1,2000.000000,1,COMPLETED_SUCCESSFULLY,1109.370929,94.000000,1203.370929,1108.373844,1202.373844,12.791211,44,-1.000000,""
159,w0,python3action_chameleon_3000,0.000000,1,-1.000000,1,COMPLETED_SUCCESSFULLY,1203.370944,0.000010,1203.370954,1203.370944,1203.370954,120337095.401406,44,-1.000000,""
176_updated,w0,python3action_linpack_6000_orion,0.997085,1,2000.000000,1,COMPLETED_SUCCESSFULLY,1102.775978,106.000000,1208.775978,1101.778893,1207.778893,11.394141,26,-1.000000,""
176,w0,python3action_linpack_6000,0.000000,1,-1.000000,1,COMPLETED_SUCCESSFULLY,1208.775993,0.000010,1208.776003,1208.775993,1208.776003,120877600.305221,26,-1.000000,""
170_updated,w0,python3action_chameleon_2000_troll,0.997085,1,2000.000000,1,COMPLETED_SUCCESSFULLY,1203.370974,39.500010,1242.870984,1202.373889,1241.873899,31.439838,44,-1.000000,""
170,w0,python3action_chameleon_2000,0.000000,1,-1.000000,1,COMPLETED_SUCCESSFULLY,1242.870999,0.000010,1242.871009,1242.870999,1242.871009,124287100.900201,44,-1.000000,""
python3action_image_processing_job21_4,w0,python3action_image_processing,0.997085,1,2000.000000,1,COMPLETED_SUCCESSFULLY,1242.871029,12.398880,1255.269909,1241.873944,1254.272824,101.160171,44,-1.000000,""
186_updated,w0,python3action_facedetection_SampleVideo_50mb_taurus,0.997085,1,2000.000000,1,COMPLETED_SUCCESSFULLY,1149.815345,134.600046,1284.415391,1148.818260,1283.418306,9.535051,29,-1.000000,""
186,w0,python3action_facedetection_SampleVideo_50mb,0.000000,1,-1.000000,1,COMPLETED_SUCCESSFULLY,1284.415406,0.000010,1284.415416,1284.415406,1284.415416,128441541.641242,29,-1.000000,""
117_updated,w0,python3action_facedetection_SampleVideo_30mb_nova,0.997085,1,2000.000000,1,COMPLETED_SUCCESSFULLY,1154.302045,160.399990,1314.702035,1153.304960,1313.704950,8.190181,2,-1.000000,""
117,w0,python3action_facedetection_SampleVideo_30mb,0.000000,1,-1.000000,1,COMPLETED_SUCCESSFULLY,1314.702050,0.000010,1314.702060,1314.702050,1314.702060,131470206.047613,2,-1.000000,""
177_updated,w0,python3action_linpack_6000_orion,0.997085,1,2000.000000,1,COMPLETED_SUCCESSFULLY,1208.776023,106.000000,1314.776023,1207.778938,1313.778938,12.394141,26,-1.000000,""
177,w0,python3action_linpack_6000,0.000000,1,-1.000000,1,COMPLETED_SUCCESSFULLY,1314.776038,0.000010,1314.776048,1314.776038,1314.776048,131477604.805823,26,-1.000000,""
21_updated,w0,python3action_imageprocessing_SampleImage_60mb_troll,0.997085,1,2000.000000,1,COMPLETED_SUCCESSFULLY,1255.269924,62.000000,1317.269924,1254.272839,1316.272839,21.230207,44,-1.000000,""
21,w0,python3action_imageprocessing_SampleImage_60mb,0.000000,1,-1.000000,1,COMPLETED_SUCCESSFULLY,1317.269939,0.000010,1317.269949,1317.269939,1317.269949,131726994.909582,44,-1.000000,""
22_updated,w0,python3action_imageprocessing_SampleImage_60mb_troll,0.997085,1,2000.000000,1,COMPLETED_SUCCESSFULLY,1317.269969,62.000000,1379.269969,1316.272884,1378.272884,22.230208,44,-1.000000,""
22,w0,python3action_imageprocessing_SampleImage_60mb,0.000000,1,-1.000000,1,COMPLETED_SUCCESSFULLY,1379.269984,0.000010,1379.269994,1379.269984,1379.269994,137926999.410184,44,-1.000000,""
199_updated,w0,python3action_facedetection_SampleVideo_50mb_taurus,0.997085,1,2000.000000,1,COMPLETED_SUCCESSFULLY,1284.415436,134.600046,1419.015483,1283.418351,1418.018398,10.535051,29,-1.000000,""
199,w0,python3action_facedetection_SampleVideo_50mb,0.000000,1,-1.000000,1,COMPLETED_SUCCESSFULLY,1419.015498,0.000010,1419.015508,1419.015498,1419.015508,141901550.800201,29,-1.000000,""
185_updated,w0,python3action_linpack_6000_orion,0.997085,1,2000.000000,1,COMPLETED_SUCCESSFULLY,1314.776068,106.000000,1420.776068,1313.778983,1419.778983,13.394141,26,-1.000000,""
185,w0,python3action_linpack_6000,0.000000,1,-1.000000,1,COMPLETED_SUCCESSFULLY,1420.776083,0.000010,1420.776093,1420.776083,1420.776093,142077609.306426,26,-1.000000,""
python3action_image_processing_job14_3,w0,python3action_image_processing_reduced_0.86,0.997085,1,2000.000000,1,COMPLETED_SUCCESSFULLY,1419.015528,9.731413,1428.746941,1418.018443,1427.749856,146.715577,29,-1.000000,""
48_updated,w0,python3action_imageprocessing_SampleImage_60mb_troll,0.997085,1,2000.000000,1,COMPLETED_SUCCESSFULLY,1379.270014,62.000000,1441.270014,1378.272929,1440.272929,23.230209,44,-1.000000,""
48,w0,python3action_imageprocessing_SampleImage_60mb,0.000000,1,-1.000000,1,COMPLETED_SUCCESSFULLY,1441.270029,0.000010,1441.270039,1441.270029,1441.270039,144127003.910787,44,-1.000000,""
14_updated,w0,python3action_imageprocessing_SampleImage_40mb_taurus,0.997085,1,2000.000000,1,COMPLETED_SUCCESSFULLY,1428.746956,32.600046,1461.347002,1427.749871,1460.349917,44.795946,29,-1.000000,""
14,w0,python3action_imageprocessing_SampleImage_40mb,0.000000,1,-1.000000,1,COMPLETED_SUCCESSFULLY,1461.347017,0.000010,1461.347027,1461.347017,1461.347027,146134702.713480,29,-1.000000,""
119_updated,w0,python3action_facedetection_SampleVideo_30mb_nova,0.997085,1,2000.000000,1,COMPLETED_SUCCESSFULLY,1314.702080,160.399990,1475.102071,1313.704995,1474.104986,9.190181,2,-1.000000,""
119,w0,python3action_facedetection_SampleVideo_30mb,0.000000,1,-1.000000,1,COMPLETED_SUCCESSFULLY,1475.102086,0.000010,1475.102096,1475.102086,1475.102096,147510209.600201,2,-1.000000,""
46_updated,w0,python3action_imageprocessing_SampleImage_40mb_taurus,0.997085,1,2000.000000,1,COMPLETED_SUCCESSFULLY,1461.347047,32.600046,1493.947093,1460.349962,1492.950008,45.795948,29,-1.000000,""
46,w0,python3action_imageprocessing_SampleImage_40mb,0.000000,1,-1.000000,1,COMPLETED_SUCCESSFULLY,1493.947108,0.000010,1493.947118,1493.947108,1493.947118,149394711.827160,29,-1.000000,""
71_updated,w0,python3action_imageprocessing_SampleImage_60mb_troll,0.997085,1,2000.000000,1,COMPLETED_SUCCESSFULLY,1441.270059,62.000000,1503.270059,1440.272974,1502.272974,24.230209,44,-1.000000,""
71,w0,python3action_imageprocessing_SampleImage_60mb,0.000000,1,-1.000000,1,COMPLETED_SUCCESSFULLY,1503.270074,0.000010,1503.270084,1503.270074,1503.270084,150327008.411389,44,-1.000000,""
47_updated,w0,python3action_imageprocessing_SampleImage_40mb_taurus,0.997085,1,2000.000000,1,COMPLETED_SUCCESSFULLY,1493.947138,32.600046,1526.547184,1492.950053,1525.550099,46.795949,29,-1.000000,""
47,w0,python3action_imageprocessing_SampleImage_40mb,0.000000,1,-1.000000,1,COMPLETED_SUCCESSFULLY,1526.547199,0.000010,1526.547209,1526.547199,1526.547209,152654720.940841,29,-1.000000,""
62_updated,w0,python3action_imageprocessing_SampleImage_40mb_taurus,0.997085,1,2000.000000,1,COMPLETED_SUCCESSFULLY,1526.547229,32.600046,1559.147276,1525.550144,1558.150191,47.795950,29,-1.000000,""
62,w0,python3action_imageprocessing_SampleImage_40mb,0.000000,1,-1.000000,1,COMPLETED_SUCCESSFULLY,1559.147291,0.000010,1559.147301,1559.147291,1559.147301,155914730.100201,29,-1.000000,""
147_updated,w0,python3action_imageprocessing_SampleImage_60mb_troll,0.997085,1,2000.000000,1,COMPLETED_SUCCESSFULLY,1503.270104,62.000000,1565.270104,1502.273019,1564.273019,25.230210,44,-1.000000,""
147,w0,python3action_imageprocessing_SampleImage_60mb,0.000000,1,-1.000000,1,COMPLETED_SUCCESSFULLY,1565.270119,0.000010,1565.270129,1565.270119,1565.270129,156527012.911992,44,-1.000000,""
72_updated,w0,python3action_imageprocessing_SampleImage_40mb_taurus,0.997085,1,2000.000000,1,COMPLETED_SUCCESSFULLY,1559.147321,32.600046,1591.747367,1558.150236,1590.750282,48.795952,29,-1.000000,""
72,w0,python3action_imageprocessing_SampleImage_40mb,0.000000,1,-1.000000,1,COMPLETED_SUCCESSFULLY,1591.747382,0.000010,1591.747392,1591.747382,1591.747392,159174739.213881,29,-1.000000,""
108_updated,w0,python3action_imageprocessing_SampleImage_40mb_taurus,0.997085,1,2000.000000,1,COMPLETED_SUCCESSFULLY,1591.747412,32.600046,1624.347458,1590.750327,1623.350373,49.795953,29,-1.000000,""
108,w0,python3action_imageprocessing_SampleImage_40mb,0.000000,1,-1.000000,1,COMPLETED_SUCCESSFULLY,1624.347473,0.000010,1624.347483,1624.347473,1624.347483,162434748.327562,29,-1.000000,""
175_updated,w0,python3action_imageprocessing_SampleImage_60mb_troll,0.997085,1,2000.000000,1,COMPLETED_SUCCESSFULLY,1565.270149,62.000000,1627.270149,1564.273064,1626.273064,26.230211,44,-1.000000,""
175,w0,python3action_imageprocessing_SampleImage_60mb,0.000000,1,-1.000000,1,COMPLETED_SUCCESSFULLY,1627.270164,0.000010,1627.270174,1627.270164,1627.270174,162727017.412594,44,-1.000000,""
125_updated,w0,python3action_facedetection_SampleVideo_30mb_nova,0.997085,1,2000.000000,1,COMPLETED_SUCCESSFULLY,1475.102116,160.399990,1635.502106,1474.105031,1634.505021,10.190182,2,-1.000000,""
125,w0,python3action_facedetection_SampleVideo_30mb,0.000000,1,-1.000000,1,COMPLETED_SUCCESSFULLY,1635.502121,0.000010,1635.502131,1635.502121,1635.502131,163550213.123907,2,-1.000000,""
141_updated,w0,python3action_imageprocessing_SampleImage_40mb_taurus,0.997085,1,2000.000000,1,COMPLETED_SUCCESSFULLY,1624.347503,32.600046,1656.947549,1623.350418,1655.950464,50.795955,29,-1.000000,""
141,w0,python3action_imageprocessing_SampleImage_40mb,0.000000,1,-1.000000,1,COMPLETED_SUCCESSFULLY,1656.947564,0.000010,1656.947574,1656.947564,1656.947574,165694757.441242,29,-1.000000,""
192_updated,w0,python3action_imageprocessing_SampleImage_60mb_troll,0.997085,1,2000.000000,1,COMPLETED_SUCCESSFULLY,1627.270194,62.000000,1689.270194,1626.273109,1688.273109,27.230211,44,-1.000000,""
192,w0,python3action_imageprocessing_SampleImage_60mb,0.000000,1,-1.000000,1,COMPLETED_SUCCESSFULLY,1689.270209,0.000010,1689.270219,1689.270209,1689.270219,168927021.913196,44,-1.000000,""
python3action_pyaes_job91_4,w0,python3action_pyaes_reduced_0.85,0.997085,1,2000.000000,1,COMPLETED_SUCCESSFULLY,1689.270239,0.130187,1689.400426,1688.273154,1688.403341,12969.057580,44,-1.000000,""
152_updated,w0,python3action_imageprocessing_SampleImage_40mb_taurus,0.997085,1,2000.000000,1,COMPLETED_SUCCESSFULLY,1656.947594,32.600046,1689.547641,1655.950509,1688.550556,51.795956,29,-1.000000,""
152,w0,python3action_imageprocessing_SampleImage_40mb,0.000000,1,-1.000000,1,COMPLETED_SUCCESSFULLY,1689.547656,0.000010,1689.547666,1689.547656,1689.547666,168954766.600201,29,-1.000000,""
196_updated,w0,python3action_imageprocessing_SampleImage_40mb_taurus,0.997085,1,2000.000000,1,COMPLETED_SUCCESSFULLY,1689.547686,32.600046,1722.147732,1688.550601,1721.150647,52.795957,29,-1.000000,""
196,w0,python3action_imageprocessing_SampleImage_40mb,0.000000,1,-1.000000,1,COMPLETED_SUCCESSFULLY,1722.147747,0.000010,1722.147757,1722.147747,1722.147757,172214775.713881,29,-1.000000,""
python3action_linpack_job7_3,w0,python3action_linpack,0.997085,1,2000.000000,1,COMPLETED_SUCCESSFULLY,1722.147777,5.760927,1727.908704,1721.150692,1726.911619,299.762790,29,-1.000000,""
91_updated,w0,python3action_pyaes_3000_troll,0.997085,1,2000.000000,1,COMPLETED_SUCCESSFULLY,1689.400441,57.166677,1746.567118,1688.403356,1745.570033,30.534747,44,-1.000000,""
91,w0,python3action_pyaes_3000,0.000000,1,-1.000000,1,COMPLETED_SUCCESSFULLY,1746.567133,0.000010,1746.567143,1746.567133,1746.567143,174656714.300201,44,-1.000000,""
7_updated,w0,python3action_linpack_5000_taurus,0.997085,1,2000.000000,1,COMPLETED_SUCCESSFULLY,1727.908719,38.500058,1766.408777,1726.911634,1765.411692,45.854780,29,-1.000000,""
7,w0,python3action_linpack_5000,0.000000,1,-1.000000,1,COMPLETED_SUCCESSFULLY,1766.408792,0.000010,1766.408802,1766.408792,1766.408802,176640880.203901,29,-1.000000,""
127_updated,w0,python3action_facedetection_SampleVideo_30mb_nova,0.997085,1,2000.000000,1,COMPLETED_SUCCESSFULLY,1635.502151,160.399990,1795.902141,1634.505066,1794.905056,11.190182,2,-1.000000,""
127,w0,python3action_facedetection_SampleVideo_30mb,0.000000,1,-1.000000,1,COMPLETED_SUCCESSFULLY,1795.902156,0.000010,1795.902166,1795.902156,1795.902166,179590216.647613,2,-1.000000,""
96_updated,w0,python3action_pyaes_3000_troll,0.997085,1,2000.000000,1,COMPLETED_SUCCESSFULLY,1746.567163,57.166677,1803.733840,1745.570078,1802.736755,31.534748,44,-1.000000,""
96,w0,python3action_pyaes_3000,0.000000,1,-1.000000,1,COMPLETED_SUCCESSFULLY,1803.733855,0.000010,1803.733865,1803.733855,1803.733865,180373386.500201,44,-1.000000,""
8_updated,w0,python3action_linpack_5000_taurus,0.997085,1,2000.000000,1,COMPLETED_SUCCESSFULLY,1766.408822,38.500058,1804.908880,1765.411737,1803.911795,46.854782,29,-1.000000,""
8,w0,python3action_linpack_5000,0.000000,1,-1.000000,1,COMPLETED_SUCCESSFULLY,1804.908895,0.000010,1804.908905,1804.908895,1804.908905,180490890.500201,29,-1.000000,""
30_updated,w0,python3action_linpack_5000_taurus,0.997085,1,2000.000000,1,COMPLETED_SUCCESSFULLY,1804.908925,38.500058,1843.408983,1803.911840,1842.411898,47.854783,29,-1.000000,""
30,w0,python3action_linpack_5000,0.000000,1,-1.000000,1,COMPLETED_SUCCESSFULLY,1843.408998,0.000010,1843.409008,1843.408998,1843.409008,184340900.800201,29,-1.000000,""
171_updated,w0,python3action_pyaes_3000_troll,0.997085,1,2000.000000,1,COMPLETED_SUCCESSFULLY,1803.733885,57.166677,1860.900562,1802.736800,1859.903477,32.534749,44,-1.000000,""
171,w0,python3action_pyaes_3000,0.000000,1,-1.000000,1,COMPLETED_SUCCESSFULLY,1860.900577,0.000010,1860.900587,1860.900577,1860.900587,186090058.700201,44,-1.000000,""
52_updated,w0,python3action_linpack_5000_taurus,0.997085,1,2000.000000,1,COMPLETED_SUCCESSFULLY,1843.409028,38.500058,1881.909086,1842.411943,1880.912001,48.854784,29,-1.000000,""
52,w0,python3action_linpack_5000,0.000000,1,-1.000000,1,COMPLETED_SUCCESSFULLY,1881.909101,0.000010,1881.909111,1881.909101,1881.909111,188190911.100201,29,-1.000000,""
66_updated,w0,python3action_linpack_5000_taurus,0.997085,1,2000.000000,1,COMPLETED_SUCCESSFULLY,1881.909131,38.500058,1920.409189,1880.912046,1919.412104,49.854785,29,-1.000000,""
66,w0,python3action_linpack_5000,0.000000,1,-1.000000,1,COMPLETED_SUCCESSFULLY,1920.409204,0.000010,1920.409214,1920.409204,1920.409214,192040921.400201,29,-1.000000,""
161_updated,w0,python3action_facedetection_SampleVideo_30mb_nova,0.997085,1,2000.000000,1,COMPLETED_SUCCESSFULLY,1795.902186,160.399990,1956.302177,1794.905101,1955.305092,12.190182,2,-1.000000,""
161,w0,python3action_facedetection_SampleVideo_30mb,0.000000,1,-1.000000,1,COMPLETED_SUCCESSFULLY,1956.302192,0.000010,1956.302202,1956.302192,1956.302202,195630220.200201,2,-1.000000,""
python3action_floatoperation_job0_1,w0,python3action_floatoperation,0.997085,1,2000.000000,1,COMPLETED_SUCCESSFULLY,1956.302222,2.439945,1958.742167,1955.305137,1957.745082,802.372532,2,-1.000000,""
75_updated,w0,python3action_linpack_5000_taurus,0.997085,1,2000.000000,1,COMPLETED_SUCCESSFULLY,1920.409234,38.500058,1958.909292,1919.412149,1957.912207,50.854786,29,-1.000000,""
75,w0,python3action_linpack_5000,0.000000,1,-1.000000,1,COMPLETED_SUCCESSFULLY,1958.909307,0.000010,1958.909317,1958.909307,1958.909317,195890931.700201,29,-1.000000,""
78_updated,w0,python3action_linpack_5000_taurus,0.997085,1,2000.000000,1,COMPLETED_SUCCESSFULLY,1958.909337,38.500058,1997.409395,1957.912252,1996.412310,51.854788,29,-1.000000,""
78,w0,python3action_linpack_5000,0.000000,1,-1.000000,1,COMPLETED_SUCCESSFULLY,1997.409410,0.000010,1997.409420,1997.409410,1997.409420,199740942.000201,29,-1.000000,""
82_updated,w0,python3action_linpack_5000_taurus,0.997085,1,2000.000000,1,COMPLETED_SUCCESSFULLY,1997.409440,38.500058,2035.909498,1996.412355,2034.912413,52.854789,29,-1.000000,""
82,w0,python3action_linpack_5000,0.000000,1,-1.000000,1,COMPLETED_SUCCESSFULLY,2035.909513,0.000010,2035.909523,2035.909513,2035.909523,203590952.300201,29,-1.000000,""
95_updated,w0,python3action_linpack_5000_taurus,0.997085,1,2000.000000,1,COMPLETED_SUCCESSFULLY,2035.909543,38.500058,2074.409601,2034.912458,2073.412516,53.854790,29,-1.000000,""
95,w0,python3action_linpack_5000,0.000000,1,-1.000000,1,COMPLETED_SUCCESSFULLY,2074.409616,0.000010,2074.409626,2074.409616,2074.409626,207440962.600201,29,-1.000000,""
0_updated,w0,python3action_floatoperation_200000000_nova,0.997085,1,2000.000000,1,COMPLETED_SUCCESSFULLY,1958.742182,135.399990,2094.142173,1957.745097,2093.145088,15.458975,2,-1.000000,""
0,w0,python3action_floatoperation_200000000,0.000000,1,-1.000000,1,COMPLETED_SUCCESSFULLY,2094.142188,0.000010,2094.142198,2094.142188,2094.142198,209414219.800201,2,-1.000000,""
100_updated,w0,python3action_linpack_5000_taurus,0.997085,1,2000.000000,1,COMPLETED_SUCCESSFULLY,2074.409646,38.500058,2112.909704,2073.412561,2111.912619,54.854791,29,-1.000000,""
100,w0,python3action_linpack_5000,0.000000,1,-1.000000,1,COMPLETED_SUCCESSFULLY,2112.909719,0.000010,2112.909729,2112.909719,2112.909729,211290972.900201,29,-1.000000,""
120_updated,w0,python3action_linpack_5000_taurus,0.997085,1,2000.000000,1,COMPLETED_SUCCESSFULLY,2112.909749,38.500058,2151.409807,2111.912664,2150.412722,55.854792,29,-1.000000,""
120,w0,python3action_linpack_5000,0.000000,1,-1.000000,1,COMPLETED_SUCCESSFULLY,2151.409822,0.000010,2151.409832,2151.409822,2151.409832,215140983.200201,29,-1.000000,""
3_updated,w0,python3action_floatoperation_100000000_nova,0.997085,1,2000.000000,1,COMPLETED_SUCCESSFULLY,2094.142218,66.200020,2160.342238,2093.145133,2159.345153,32.618497,2,-1.000000,""
3,w0,python3action_floatoperation_100000000,0.000000,1,-1.000000,1,COMPLETED_SUCCESSFULLY,2160.342253,0.000010,2160.342263,2160.342253,2160.342263,216034226.300201,2,-1.000000,""
166_updated,w0,python3action_linpack_5000_taurus,0.997085,1,2000.000000,1,COMPLETED_SUCCESSFULLY,2151.409852,38.500058,2189.909910,2150.412767,2188.912825,56.854793,29,-1.000000,""
166,w0,python3action_linpack_5000,0.000000,1,-1.000000,1,COMPLETED_SUCCESSFULLY,2189.909925,0.000010,2189.909935,2189.909925,2189.909935,218990993.500201,29,-1.000000,""
18_updated,w0,python3action_floatoperation_100000000_nova,0.997085,1,2000.000000,1,COMPLETED_SUCCESSFULLY,2160.342283,66.200020,2226.542303,2159.345198,2225.545218,33.618498,2,-1.000000,""
18,w0,python3action_floatoperation_100000000,0.000000,1,-1.000000,1,COMPLETED_SUCCESSFULLY,2226.542318,0.000010,2226.542328,2226.542318,2226.542328,222654232.800201,2,-1.000000,""
169_updated,w0,python3action_linpack_5000_taurus,0.997085,1,2000.000000,1,COMPLETED_SUCCESSFULLY,2189.909955,38.500058,2228.410013,2188.912870,2227.412928,57.854795,29,-1.000000,""
169,w0,python3action_linpack_5000,0.000000,1,-1.000000,1,COMPLETED_SUCCESSFULLY,2228.410028,0.000010,2228.410038,2228.410028,2228.410038,222841003.800201,29,-1.000000,""
184_updated,w0,python3action_linpack_5000_taurus,0.997085,1,2000.000000,1,COMPLETED_SUCCESSFULLY,2228.410058,38.500058,2266.910116,2227.412973,2265.913031,58.854796,29,-1.000000,""
184,w0,python3action_linpack_5000,0.000000,1,-1.000000,1,COMPLETED_SUCCESSFULLY,2266.910131,0.000010,2266.910141,2266.910131,2266.910141,226691014.100201,29,-1.000000,""
187_updated,w0,python3action_linpack_5000_taurus,0.997085,1,2000.000000,1,COMPLETED_SUCCESSFULLY,2266.910161,38.500058,2305.410219,2265.913076,2304.413134,59.854797,29,-1.000000,""
187,w0,python3action_linpack_5000,0.000000,1,-1.000000,1,COMPLETED_SUCCESSFULLY,2305.410234,0.000010,2305.410244,2305.410234,2305.410244,230541024.400201,29,-1.000000,""
194_updated,w0,python3action_linpack_5000_taurus,0.997085,1,2000.000000,1,COMPLETED_SUCCESSFULLY,2305.410264,38.500058,2343.910322,2304.413179,2342.913237,60.854798,29,-1.000000,""
194,w0,python3action_linpack_5000,0.000000,1,-1.000000,1,COMPLETED_SUCCESSFULLY,2343.910337,0.000010,2343.910347,2343.910337,2343.910347,234391034.700201,29,-1.000000,""
19_updated,w0,python3action_floatoperation_200000000_nova,0.997085,1,2000.000000,1,COMPLETED_SUCCESSFULLY,2226.542348,135.399990,2361.942338,2225.545263,2360.945253,17.436820,2,-1.000000,""
19,w0,python3action_floatoperation_200000000,0.000000,1,-1.000000,1,COMPLETED_SUCCESSFULLY,2361.942353,0.000010,2361.942363,2361.942353,2361.942363,236194236.323907,2,-1.000000,""
197_updated,w0,python3action_linpack_5000_taurus,0.997085,1,2000.000000,1,COMPLETED_SUCCESSFULLY,2343.910367,38.500058,2382.410425,2342.913282,2381.413340,61.854799,29,-1.000000,""
197,w0,python3action_linpack_5000,0.000000,1,-1.000000,1,COMPLETED_SUCCESSFULLY,2382.410440,0.000010,2382.410450,2382.410440,2382.410450,238241045.000201,29,-1.000000,""
python3action_modeltraining_job25_3,w0,python3action_modeltraining_reduced_1.88,0.997085,1,2000.000000,1,COMPLETED_SUCCESSFULLY,2382.410470,0.000000,2382.410470,2381.413385,2381.413385,20617257538233.507812,29,-1.000000,""
29_updated,w0,python3action_floatoperation_100000000_nova,0.997085,1,2000.000000,1,COMPLETED_SUCCESSFULLY,2361.942383,66.200020,2428.142403,2360.945298,2427.145318,36.663816,2,-1.000000,""
29,w0,python3action_floatoperation_100000000,0.000000,1,-1.000000,1,COMPLETED_SUCCESSFULLY,2428.142418,0.000010,2428.142428,2428.142418,2428.142428,242814242.800201,2,-1.000000,""
25_updated,w0,python3action_modeltraining_reviews100mb_taurus,0.997085,1,2000.000000,1,COMPLETED_SUCCESSFULLY,2382.410500,88.199977,2470.610477,2381.413415,2469.613392,28.000159,29,-1.000000,""
25,w0,python3action_modeltraining_reviews100mb,0.000000,1,-1.000000,1,COMPLETED_SUCCESSFULLY,2470.610492,0.000010,2470.610502,2470.610492,2470.610502,247061050.200201,29,-1.000000,""
31_updated,w0,python3action_floatoperation_100000000_nova,0.997085,1,2000.000000,1,COMPLETED_SUCCESSFULLY,2428.142448,66.200020,2494.342468,2427.145363,2493.345383,37.663816,2,-1.000000,""
31,w0,python3action_floatoperation_100000000,0.000000,1,-1.000000,1,COMPLETED_SUCCESSFULLY,2494.342483,0.000010,2494.342493,2494.342483,2494.342493,249434249.300201,2,-1.000000,""
33_updated,w0,python3action_modeltraining_reviews100mb_taurus,0.997085,1,2000.000000,1,COMPLETED_SUCCESSFULLY,2470.610522,88.199977,2558.810499,2469.613437,2557.813414,29.000160,29,-1.000000,""
33,w0,python3action_modeltraining_reviews100mb,0.000000,1,-1.000000,1,COMPLETED_SUCCESSFULLY,2558.810514,0.000010,2558.810524,2558.810514,2558.810524,255881052.400201,29,-1.000000,""
34_updated,w0,python3action_floatoperation_200000000_nova,0.997085,1,2000.000000,1,COMPLETED_SUCCESSFULLY,2494.342513,135.399990,2629.742503,2493.345428,2628.745418,19.414665,2,-1.000000,""
34,w0,python3action_floatoperation_200000000,0.000000,1,-1.000000,1,COMPLETED_SUCCESSFULLY,2629.742518,0.000010,2629.742528,2629.742518,2629.742528,262974252.823907,2,-1.000000,""
41_updated,w0,python3action_modeltraining_reviews100mb_taurus,0.997085,1,2000.000000,1,COMPLETED_SUCCESSFULLY,2558.810544,88.199977,2647.010521,2557.813459,2646.013436,30.000160,29,-1.000000,""
41,w0,python3action_modeltraining_reviews100mb,0.000000,1,-1.000000,1,COMPLETED_SUCCESSFULLY,2647.010536,0.000010,2647.010546,2647.010536,2647.010546,264701054.600201,29,-1.000000,""
35_updated,w0,python3action_floatoperation_100000000_nova,0.997085,1,2000.000000,1,COMPLETED_SUCCESSFULLY,2629.742548,66.200020,2695.942568,2628.745463,2694.945483,40.709134,2,-1.000000,""
35,w0,python3action_floatoperation_100000000,0.000000,1,-1.000000,1,COMPLETED_SUCCESSFULLY,2695.942583,0.000010,2695.942593,2695.942583,2695.942593,269594259.300201,2,-1.000000,""
81_updated,w0,python3action_modeltraining_reviews100mb_taurus,0.997085,1,2000.000000,1,COMPLETED_SUCCESSFULLY,2647.010566,88.199977,2735.210543,2646.013481,2734.213458,31.000161,29,-1.000000,""
81,w0,python3action_modeltraining_reviews100mb,0.000000,1,-1.000000,1,COMPLETED_SUCCESSFULLY,2735.210558,0.000010,2735.210568,2735.210558,2735.210568,273521056.800201,29,-1.000000,""
37_updated,w0,python3action_floatoperation_100000000_nova,0.997085,1,2000.000000,1,COMPLETED_SUCCESSFULLY,2695.942613,66.200020,2762.142633,2694.945528,2761.145548,41.709135,2,-1.000000,""
37,w0,python3action_floatoperation_100000000,0.000000,1,-1.000000,1,COMPLETED_SUCCESSFULLY,2762.142648,0.000010,2762.142658,2762.142648,2762.142658,276214265.800201,2,-1.000000,""
83_updated,w0,python3action_modeltraining_reviews100mb_taurus,0.997085,1,2000.000000,1,COMPLETED_SUCCESSFULLY,2735.210588,88.199977,2823.410565,2734.213503,2822.413480,32.000161,29,-1.000000,""
83,w0,python3action_modeltraining_reviews100mb,0.000000,1,-1.000000,1,COMPLETED_SUCCESSFULLY,2823.410580,0.000010,2823.410590,2823.410580,2823.410590,282341059.000201,29,-1.000000,""
42_updated,w0,python3action_floatoperation_200000000_nova,0.997085,1,2000.000000,1,COMPLETED_SUCCESSFULLY,2762.142678,135.399990,2897.542668,2761.145593,2896.545583,21.392510,2,-1.000000,""
42,w0,python3action_floatoperation_200000000,0.000000,1,-1.000000,1,COMPLETED_SUCCESSFULLY,2897.542683,0.000010,2897.542693,2897.542683,2897.542693,289754269.323907,2,-1.000000,""
103_updated,w0,python3action_modeltraining_reviews100mb_taurus,0.997085,1,2000.000000,1,COMPLETED_SUCCESSFULLY,2823.410610,88.199977,2911.610587,2822.413525,2910.613502,33.000162,29,-1.000000,""
103,w0,python3action_modeltraining_reviews100mb,0.000000,1,-1.000000,1,COMPLETED_SUCCESSFULLY,2911.610602,0.000010,2911.610612,2911.610602,2911.610612,291161061.200201,29,-1.000000,""
118_updated,w0,python3action_modeltraining_reviews100mb_taurus,0.997085,1,2000.000000,1,COMPLETED_SUCCESSFULLY,2911.610632,88.199977,2999.810609,2910.613547,2998.813524,34.000162,29,-1.000000,""
118,w0,python3action_modeltraining_reviews100mb,0.000000,1,-1.000000,1,COMPLETED_SUCCESSFULLY,2999.810624,0.000010,2999.810634,2999.810624,2999.810634,299981063.400201,29,-1.000000,""
60_updated,w0,python3action_floatoperation_200000000_nova,0.997085,1,2000.000000,1,COMPLETED_SUCCESSFULLY,2897.542713,135.399990,3032.942703,2896.545628,3031.945618,22.392510,2,-1.000000,""
60,w0,python3action_floatoperation_200000000,0.000000,1,-1.000000,1,COMPLETED_SUCCESSFULLY,3032.942718,0.000010,3032.942728,3032.942718,3032.942728,303294272.847613,2,-1.000000,""
124_updated,w0,python3action_modeltraining_reviews100mb_taurus,0.997085,1,2000.000000,1,COMPLETED_SUCCESSFULLY,2999.810654,88.199977,3088.010631,2998.813569,3087.013546,35.000163,29,-1.000000,""
124,w0,python3action_modeltraining_reviews100mb,0.000000,1,-1.000000,1,COMPLETED_SUCCESSFULLY,3088.010646,0.000010,3088.010656,3088.010646,3088.010656,308801065.600201,29,-1.000000,""
63_updated,w0,python3action_floatoperation_100000000_nova,0.997085,1,2000.000000,1,COMPLETED_SUCCESSFULLY,3032.942748,66.200020,3099.142768,3031.945663,3098.145683,46.799770,2,-1.000000,""
63,w0,python3action_floatoperation_100000000,0.000000,1,-1.000000,1,COMPLETED_SUCCESSFULLY,3099.142783,0.000010,3099.142793,3099.142783,3099.142793,309914279.302009,2,-1.000000,""
133_updated,w0,python3action_modeltraining_reviews100mb_taurus,0.997085,1,2000.000000,1,COMPLETED_SUCCESSFULLY,3088.010676,88.199977,3176.210653,3087.013591,3175.213568,36.000163,29,-1.000000,""
133,w0,python3action_modeltraining_reviews100mb,0.000000,1,-1.000000,1,COMPLETED_SUCCESSFULLY,3176.210668,0.000010,3176.210678,3176.210668,3176.210678,317621067.800201,29,-1.000000,""
84_updated,w0,python3action_floatoperation_200000000_nova,0.997085,1,2000.000000,1,COMPLETED_SUCCESSFULLY,3099.142813,135.399990,3234.542803,3098.145728,3233.545718,23.881432,2,-1.000000,""
84,w0,python3action_floatoperation_200000000,0.000000,1,-1.000000,1,COMPLETED_SUCCESSFULLY,3234.542818,0.000010,3234.542828,3234.542818,3234.542828,323454282.825715,2,-1.000000,""
153_updated,w0,python3action_modeltraining_reviews100mb_taurus,0.997085,1,2000.000000,1,COMPLETED_SUCCESSFULLY,3176.210698,88.199977,3264.410675,3175.213613,3263.413590,37.000164,29,-1.000000,""
153,w0,python3action_modeltraining_reviews100mb,0.000000,1,-1.000000,1,COMPLETED_SUCCESSFULLY,3264.410690,0.000010,3264.410700,3264.410690,3264.410700,326441070.000201,29,-1.000000,""
88_updated,w0,python3action_floatoperation_100000000_nova,0.997085,1,2000.000000,1,COMPLETED_SUCCESSFULLY,3234.542848,66.200020,3300.742868,3233.545763,3299.745783,49.845088,2,-1.000000,""
88,w0,python3action_floatoperation_100000000,0.000000,1,-1.000000,1,COMPLETED_SUCCESSFULLY,3300.742883,0.000010,3300.742893,3300.742883,3300.742893,330074289.300201,2,-1.000000,""
155_updated,w0,python3action_modeltraining_reviews100mb_taurus,0.997085,1,2000.000000,1,COMPLETED_SUCCESSFULLY,3264.410720,88.199977,3352.610697,3263.413635,3351.613612,38.000164,29,-1.000000,""
155,w0,python3action_modeltraining_reviews100mb,0.000000,1,-1.000000,1,COMPLETED_SUCCESSFULLY,3352.610712,0.000010,3352.610722,3352.610712,3352.610722,335261072.200201,29,-1.000000,""
94_updated,w0,python3action_floatoperation_100000000_nova,0.997085,1,2000.000000,1,COMPLETED_SUCCESSFULLY,3300.742913,66.200020,3366.942933,3299.745828,3365.945848,50.845088,2,-1.000000,""
94,w0,python3action_floatoperation_100000000,0.000000,1,-1.000000,1,COMPLETED_SUCCESSFULLY,3366.942948,0.000010,3366.942958,3366.942948,3366.942958,336694295.800201,2,-1.000000,""
172_updated,w0,python3action_modeltraining_reviews100mb_taurus,0.997085,1,2000.000000,1,COMPLETED_SUCCESSFULLY,3352.610742,88.199977,3440.810719,3351.613657,3439.813634,39.000165,29,-1.000000,""
172,w0,python3action_modeltraining_reviews100mb,0.000000,1,-1.000000,1,COMPLETED_SUCCESSFULLY,3440.810734,0.000010,3440.810744,3440.810734,3440.810744,344081074.400201,29,-1.000000,""
python3action_video_processing_job49_3,w0,python3action_video_processing_reduced_2.8,0.997085,1,2000.000000,1,COMPLETED_SUCCESSFULLY,3440.810764,0.000000,3440.810764,3439.813679,3439.813679,29780434153151.121094,29,-1.000000,""
97_updated,w0,python3action_floatoperation_200000000_nova,0.997085,1,2000.000000,1,COMPLETED_SUCCESSFULLY,3366.942978,135.399990,3502.342968,3365.945893,3501.345883,25.859277,2,-1.000000,""
97,w0,python3action_floatoperation_200000000,0.000000,1,-1.000000,1,COMPLETED_SUCCESSFULLY,3502.342983,0.000010,3502.342993,3502.342983,3502.342993,350234299.323907,2,-1.000000,""
49_updated,w0,python3action_videoprocessing_SampleVideo_50mb_taurus,0.997085,1,2000.000000,1,COMPLETED_SUCCESSFULLY,3440.810794,154.250029,3595.060823,3439.813709,3594.063738,23.300247,29,-1.000000,""
49,w0,python3action_videoprocessing_SampleVideo_50mb,0.000000,1,-1.000000,1,COMPLETED_SUCCESSFULLY,3595.060838,0.000010,3595.060848,3595.060838,3595.060848,359506084.800201,29,-1.000000,""
113_updated,w0,python3action_floatoperation_200000000_nova,0.997085,1,2000.000000,1,COMPLETED_SUCCESSFULLY,3502.343013,135.399990,3637.743003,3501.345928,3636.745918,26.859278,2,-1.000000,""
113,w0,python3action_floatoperation_200000000,0.000000,1,-1.000000,1,COMPLETED_SUCCESSFULLY,3637.743018,0.000010,3637.743028,3637.743018,3637.743028,363774302.847613,2,-1.000000,""
144_updated,w0,python3action_floatoperation_100000000_nova,0.997085,1,2000.000000,1,COMPLETED_SUCCESSFULLY,3637.743048,66.200020,3703.943068,3636.745963,3702.945983,55.935723,2,-1.000000,""
144,w0,python3action_floatoperation_100000000,0.000000,1,-1.000000,1,COMPLETED_SUCCESSFULLY,3703.943083,0.000010,3703.943093,3703.943083,3703.943093,370394309.302009,2,-1.000000,""
58_updated,w0,python3action_videoprocessing_SampleVideo_50mb_taurus,0.997085,1,2000.000000,1,COMPLETED_SUCCESSFULLY,3595.060868,154.250029,3749.310897,3594.063783,3748.313812,24.300247,29,-1.000000,""
58,w0,python3action_videoprocessing_SampleVideo_50mb,0.000000,1,-1.000000,1,COMPLETED_SUCCESSFULLY,3749.310912,0.000010,3749.310922,3749.310912,3749.310922,374931092.200201,29,-1.000000,""
148_updated,w0,python3action_floatoperation_200000000_nova,0.997085,1,2000.000000,1,COMPLETED_SUCCESSFULLY,3703.943113,135.399990,3839.343103,3702.946028,3838.346018,28.348200,2,-1.000000,""
148,w0,python3action_floatoperation_200000000,0.000000,1,-1.000000,1,COMPLETED_SUCCESSFULLY,3839.343118,0.000010,3839.343128,3839.343118,3839.343128,383934312.825715,2,-1.000000,""
76_updated,w0,python3action_videoprocessing_SampleVideo_50mb_taurus,0.997085,1,2000.000000,1,COMPLETED_SUCCESSFULLY,3749.310942,154.250029,3903.560971,3748.313857,3902.563886,25.300247,29,-1.000000,""
76,w0,python3action_videoprocessing_SampleVideo_50mb,0.000000,1,-1.000000,1,COMPLETED_SUCCESSFULLY,3903.560986,0.000010,3903.560996,3903.560986,3903.560996,390356099.600201,29,-1.000000,""
149_updated,w0,python3action_floatoperation_100000000_nova,0.997085,1,2000.000000,1,COMPLETED_SUCCESSFULLY,3839.343148,66.200020,3905.543168,3838.346063,3904.546083,58.981041,2,-1.000000,""
149,w0,python3action_floatoperation_100000000,0.000000,1,-1.000000,1,COMPLETED_SUCCESSFULLY,3905.543183,0.000010,3905.543193,3905.543183,3905.543193,390554319.300201,2,-1.000000,""
154_updated,w0,python3action_floatoperation_100000000_nova,0.997085,1,2000.000000,1,COMPLETED_SUCCESSFULLY,3905.543213,66.200020,3971.743233,3904.546128,3970.746148,59.981042,2,-1.000000,""
154,w0,python3action_floatoperation_100000000,0.000000,1,-1.000000,1,COMPLETED_SUCCESSFULLY,3971.743248,0.000010,3971.743258,3971.743248,3971.743258,397174325.800201,2,-1.000000,""
160_updated,w0,python3action_floatoperation_100000000_nova,0.997085,1,2000.000000,1,COMPLETED_SUCCESSFULLY,3971.743278,66.200020,4037.943298,3970.746193,4036.946213,60.981043,2,-1.000000,""
160,w0,python3action_floatoperation_100000000,0.000000,1,-1.000000,1,COMPLETED_SUCCESSFULLY,4037.943313,0.000010,4037.943323,4037.943313,4037.943323,403794332.300201,2,-1.000000,""
85_updated,w0,python3action_videoprocessing_SampleVideo_50mb_taurus,0.997085,1,2000.000000,1,COMPLETED_SUCCESSFULLY,3903.561016,154.250029,4057.811045,3902.563931,4056.813960,26.300248,29,-1.000000,""
85,w0,python3action_videoprocessing_SampleVideo_50mb,0.000000,1,-1.000000,1,COMPLETED_SUCCESSFULLY,4057.811060,0.000010,4057.811070,4057.811060,4057.811070,405781107.000201,29,-1.000000,""
164_updated,w0,python3action_floatoperation_200000000_nova,0.997085,1,2000.000000,1,COMPLETED_SUCCESSFULLY,4037.943343,135.399990,4173.343333,4036.946258,4172.346248,30.814967,2,-1.000000,""
164,w0,python3action_floatoperation_200000000,0.000000,1,-1.000000,1,COMPLETED_SUCCESSFULLY,4173.343348,0.000010,4173.343358,4173.343348,4173.343358,417334335.823907,2,-1.000000,""
90_updated,w0,python3action_videoprocessing_SampleVideo_50mb_taurus,0.997085,1,2000.000000,1,COMPLETED_SUCCESSFULLY,4057.811090,154.250029,4212.061119,4056.814005,4211.064034,27.300248,29,-1.000000,""
90,w0,python3action_videoprocessing_SampleVideo_50mb,0.000000,1,-1.000000,1,COMPLETED_SUCCESSFULLY,4212.061134,0.000010,4212.061144,4212.061134,4212.061144,421206114.400201,29,-1.000000,""
168_updated,w0,python3action_floatoperation_200000000_nova,0.997085,1,2000.000000,1,COMPLETED_SUCCESSFULLY,4173.343378,135.399990,4308.743368,4172.346293,4307.746283,31.814967,2,-1.000000,""
168,w0,python3action_floatoperation_200000000,0.000000,1,-1.000000,1,COMPLETED_SUCCESSFULLY,4308.743383,0.000010,4308.743393,4308.743383,4308.743393,430874339.347613,2,-1.000000,""
106_updated,w0,python3action_videoprocessing_SampleVideo_50mb_taurus,0.997085,1,2000.000000,1,COMPLETED_SUCCESSFULLY,4212.061164,154.250029,4366.311193,4211.064079,4365.314108,28.300248,29,-1.000000,""
106,w0,python3action_videoprocessing_SampleVideo_50mb,0.000000,1,-1.000000,1,COMPLETED_SUCCESSFULLY,4366.311208,0.000010,4366.311218,4366.311208,4366.311218,436631121.800201,29,-1.000000,""
182_updated,w0,python3action_floatoperation_200000000_nova,0.997085,1,2000.000000,1,COMPLETED_SUCCESSFULLY,4308.743413,135.399990,4444.143404,4307.746328,4443.146319,32.814968,2,-1.000000,""
182,w0,python3action_floatoperation_200000000,0.000000,1,-1.000000,1,COMPLETED_SUCCESSFULLY,4444.143419,0.000010,4444.143429,4444.143419,4444.143429,444414342.900201,2,-1.000000,""
183_updated,w0,python3action_videoprocessing_SampleVideo_50mb_taurus,0.997085,1,2000.000000,1,COMPLETED_SUCCESSFULLY,4366.311238,154.250029,4520.561267,4365.314153,4519.564182,29.300249,29,-1.000000,""
183,w0,python3action_videoprocessing_SampleVideo_50mb,0.000000,1,-1.000000,1,COMPLETED_SUCCESSFULLY,4520.561282,0.000010,4520.561292,4520.561282,4520.561292,452056129.200201,29,-1.000000,""
188_updated,w0,python3action_floatoperation_200000000_nova,0.997085,1,2000.000000,1,COMPLETED_SUCCESSFULLY,4444.143449,135.399990,4579.543439,4443.146364,4578.546354,33.814968,2,-1.000000,""
188,w0,python3action_floatoperation_200000000,0.000000,1,-1.000000,1,COMPLETED_SUCCESSFULLY,4579.543454,0.000010,4579.543464,4579.543454,4579.543464,457954346.423907,2,-1.000000,""
195_updated,w0,python3action_videoprocessing_SampleVideo_50mb_taurus,0.997085,1,2000.000000,1,COMPLETED_SUCCESSFULLY,4520.561312,154.250029,4674.811341,4519.564227,4673.814256,30.300249,29,-1.000000,""
195,w0,python3action_videoprocessing_SampleVideo_50mb,0.000000,1,-1.000000,1,COMPLETED_SUCCESSFULLY,4674.811356,0.000010,4674.811366,4674.811356,4674.811366,467481136.600201,29,-1.000000,""
189_updated,w0,python3action_floatoperation_200000000_nova,0.997085,1,2000.000000,1,COMPLETED_SUCCESSFULLY,4579.543484,135.399990,4714.943474,4578.546399,4713.946389,34.814968,2,-1.000000,""
189,w0,python3action_floatoperation_200000000,0.000000,1,-1.000000,1,COMPLETED_SUCCESSFULLY,4714.943489,0.000010,4714.943499,4714.943489,4714.943499,471494349.947612,2,-1.000000,""
198_updated,w0,python3action_videoprocessing_SampleVideo_50mb_taurus,0.997085,1,2000.000000,1,COMPLETED_SUCCESSFULLY,4674.811386,154.250029,4829.061415,4673.814301,4828.064330,31.300249,29,-1.000000,""
198,w0,python3action_videoprocessing_SampleVideo_50mb,0.000000,1,-1.000000,1,COMPLETED_SUCCESSFULLY,4829.061430,0.000010,4829.061440,4829.061430,4829.061440,482906144.000201,29,-1.000000,""
190_updated,w0,python3action_floatoperation_200000000_nova,0.997085,1,2000.000000,1,COMPLETED_SUCCESSFULLY,4714.943519,135.399990,4850.343510,4713.946434,4849.346425,35.814969,2,-1.000000,""
190,w0,python3action_floatoperation_200000000,0.000000,1,-1.000000,1,COMPLETED_SUCCESSFULLY,4850.343525,0.000010,4850.343535,4850.343525,4850.343535,485034353.500201,2,-1.000000,""
191_updated,w0,python3action_floatoperation_100000000_nova,0.997085,1,2000.000000,1,COMPLETED_SUCCESSFULLY,4850.343555,66.200020,4916.543575,4849.346470,4915.546490,74.252946,2,-1.000000,""
191,w0,python3action_floatoperation_100000000,0.000000,1,-1.000000,1,COMPLETED_SUCCESSFULLY,4916.543590,0.000010,4916.543600,4916.543590,4916.543600,491654360.000201,2,-1.000000,""
python3action_modeltraining_job4_1,w0,python3action_modeltraining_reduced_0.94,0.997085,1,2000.000000,1,COMPLETED_SUCCESSFULLY,4916.543620,0.000000,4916.543620,4915.546535,4915.546535,100087047631725.984375,2,-1.000000,""
4_updated,w0,python3action_modeltraining_reviews100mb_nova,0.997085,1,2000.000000,1,COMPLETED_SUCCESSFULLY,4916.543650,79.600010,4996.143660,4915.546565,4995.146575,62.753090,2,-1.000000,""
4,w0,python3action_modeltraining_reviews100mb,0.000000,1,-1.000000,1,COMPLETED_SUCCESSFULLY,4996.143675,0.000010,4996.143685,4996.143675,4996.143685,499614368.500201,2,-1.000000,""
6_updated,w0,python3action_modeltraining_reviews50mb_nova,0.997085,1,2000.000000,1,COMPLETED_SUCCESSFULLY,4996.143705,42.399990,5038.543695,4995.146620,5037.546610,118.810089,2,-1.000000,""
6,w0,python3action_modeltraining_reviews50mb,0.000000,1,-1.000000,1,COMPLETED_SUCCESSFULLY,5038.543710,0.000010,5038.543720,5038.543710,5038.543720,503854372.023907,2,-1.000000,""
23_updated,w0,python3action_modeltraining_reviews50mb_nova,0.997085,1,2000.000000,1,COMPLETED_SUCCESSFULLY,5038.543740,42.399990,5080.943730,5037.546655,5079.946645,119.810090,2,-1.000000,""
23,w0,python3action_modeltraining_reviews50mb,0.000000,1,-1.000000,1,COMPLETED_SUCCESSFULLY,5080.943745,0.000010,5080.943755,5080.943745,5080.943755,508094375.547613,2,-1.000000,""
28_updated,w0,python3action_modeltraining_reviews100mb_nova,0.997085,1,2000.000000,1,COMPLETED_SUCCESSFULLY,5080.943775,79.600010,5160.543785,5079.946690,5159.546700,64.818418,2,-1.000000,""
28,w0,python3action_modeltraining_reviews100mb,0.000000,1,-1.000000,1,COMPLETED_SUCCESSFULLY,5160.543800,0.000010,5160.543810,5160.543800,5160.543810,516054381.025111,2,-1.000000,""
50_updated,w0,python3action_modeltraining_reviews100mb_nova,0.997085,1,2000.000000,1,COMPLETED_SUCCESSFULLY,5160.543830,79.600010,5240.143840,5159.546745,5239.146755,65.818418,2,-1.000000,""
50,w0,python3action_modeltraining_reviews100mb,0.000000,1,-1.000000,1,COMPLETED_SUCCESSFULLY,5240.143855,0.000010,5240.143865,5240.143855,5240.143865,524014386.502610,2,-1.000000,""
54_updated,w0,python3action_modeltraining_reviews50mb_nova,0.997085,1,2000.000000,1,COMPLETED_SUCCESSFULLY,5240.143885,42.399990,5282.543875,5239.146800,5281.546790,124.564811,2,-1.000000,""
54,w0,python3action_modeltraining_reviews50mb,0.000000,1,-1.000000,1,COMPLETED_SUCCESSFULLY,5282.543890,0.000010,5282.543900,5282.543890,5282.543900,528254390.026316,2,-1.000000,""
57_updated,w0,python3action_modeltraining_reviews50mb_nova,0.997085,1,2000.000000,1,COMPLETED_SUCCESSFULLY,5282.543920,42.399990,5324.943910,5281.546835,5323.946825,125.564813,2,-1.000000,""
57,w0,python3action_modeltraining_reviews50mb,0.000000,1,-1.000000,1,COMPLETED_SUCCESSFULLY,5324.943926,0.000010,5324.943936,5324.943926,5324.943936,532494393.550022,2,-1.000000,""
105_updated,w0,python3action_modeltraining_reviews50mb_nova,0.997085,1,2000.000000,1,COMPLETED_SUCCESSFULLY,5324.943956,42.399990,5367.343946,5323.946871,5366.346861,126.564814,2,-1.000000,""
105,w0,python3action_modeltraining_reviews50mb,0.000000,1,-1.000000,1,COMPLETED_SUCCESSFULLY,5367.343961,0.000010,5367.343971,5367.343961,5367.343971,536734397.123505,2,-1.000000,""
112_updated,w0,python3action_modeltraining_reviews50mb_nova,0.997085,1,2000.000000,1,COMPLETED_SUCCESSFULLY,5367.343991,42.399990,5409.743981,5366.346906,5408.746896,127.564815,2,-1.000000,""
112,w0,python3action_modeltraining_reviews50mb,0.000000,1,-1.000000,1,COMPLETED_SUCCESSFULLY,5409.743996,0.000010,5409.744006,5409.743996,5409.744006,540974400.647211,2,-1.000000,""
115_updated,w0,python3action_modeltraining_reviews50mb_nova,0.997085,1,2000.000000,1,COMPLETED_SUCCESSFULLY,5409.744026,42.399990,5452.144017,5408.746941,5451.146932,128.564816,2,-1.000000,""
115,w0,python3action_modeltraining_reviews50mb,0.000000,1,-1.000000,1,COMPLETED_SUCCESSFULLY,5452.144032,0.000010,5452.144042,5452.144032,5452.144042,545214404.200201,2,-1.000000,""
156_updated,w0,python3action_modeltraining_reviews100mb_nova,0.997085,1,2000.000000,1,COMPLETED_SUCCESSFULLY,5452.144062,79.600010,5531.744072,5451.146977,5530.746987,69.481738,2,-1.000000,""
156,w0,python3action_modeltraining_reviews100mb,0.000000,1,-1.000000,1,COMPLETED_SUCCESSFULLY,5531.744087,0.000010,5531.744097,5531.744087,5531.744097,553174409.700201,2,-1.000000,""
165_updated,w0,python3action_modeltraining_reviews50mb_nova,0.997085,1,2000.000000,1,COMPLETED_SUCCESSFULLY,5531.744117,42.399990,5574.144107,5530.747032,5573.147022,131.442177,2,-1.000000,""
165,w0,python3action_modeltraining_reviews50mb,0.000000,1,-1.000000,1,COMPLETED_SUCCESSFULLY,5574.144122,0.000010,5574.144132,5574.144122,5574.144132,557414413.223907,2,-1.000000,""
174_updated,w0,python3action_modeltraining_reviews50mb_nova,0.997085,1,2000.000000,1,COMPLETED_SUCCESSFULLY,5574.144152,42.399990,5616.544142,5573.147067,5615.547057,132.442178,2,-1.000000,""
174,w0,python3action_modeltraining_reviews50mb,0.000000,1,-1.000000,1,COMPLETED_SUCCESSFULLY,5616.544157,0.000010,5616.544167,5616.544157,5616.544167,561654416.747613,2,-1.000000,""
180_updated,w0,python3action_modeltraining_reviews50mb_nova,0.997085,1,2000.000000,1,COMPLETED_SUCCESSFULLY,5616.544187,42.399990,5658.944178,5615.547102,5657.947093,133.442179,2,-1.000000,""
180,w0,python3action_modeltraining_reviews50mb,0.000000,1,-1.000000,1,COMPLETED_SUCCESSFULLY,5658.944193,0.000010,5658.944203,5658.944193,5658.944203,565894420.300201,2,-1.000000,""
193_updated,w0,python3action_modeltraining_reviews100mb_nova,0.997085,1,2000.000000,1,COMPLETED_SUCCESSFULLY,5658.944223,79.600010,5738.544233,5657.947138,5737.547148,72.079729,2,-1.000000,""
193,w0,python3action_modeltraining_reviews100mb,0.000000,1,-1.000000,1,COMPLETED_SUCCESSFULLY,5738.544248,0.000010,5738.544258,5738.544248,5738.544258,573854425.800201,2,-1.000000,""
python3action_pyaes_job12_1,w0,python3action_pyaes,0.997085,1,2000.000000,1,COMPLETED_SUCCESSFULLY,5738.544278,2.134958,5740.679236,5737.547193,5739.682151,2688.428303,2,-1.000000,""
12_updated,w0,python3action_pyaes_3000_nova,0.997085,1,2000.000000,1,COMPLETED_SUCCESSFULLY,5740.679251,78.200020,5818.879271,5739.682166,5817.882186,74.397452,2,-1.000000,""
12,w0,python3action_pyaes_3000,0.000000,1,-1.000000,1,COMPLETED_SUCCESSFULLY,5818.879286,0.000010,5818.879296,5818.879286,5818.879296,581887929.600201,2,-1.000000,""
32_updated,w0,python3action_pyaes_4000_nova,0.997085,1,2000.000000,1,COMPLETED_SUCCESSFULLY,5818.879316,139.600010,5958.479326,5817.882231,5957.482241,42.675371,2,-1.000000,""
32,w0,python3action_pyaes_4000,0.000000,1,-1.000000,1,COMPLETED_SUCCESSFULLY,5958.479341,0.000010,5958.479351,5958.479341,5958.479351,595847935.100201,2,-1.000000,""
38_updated,w0,python3action_pyaes_4000_nova,0.997085,1,2000.000000,1,COMPLETED_SUCCESSFULLY,5958.479371,139.600010,6098.079381,5957.482286,6097.082296,43.675372,2,-1.000000,""
38,w0,python3action_pyaes_4000,0.000000,1,-1.000000,1,COMPLETED_SUCCESSFULLY,6098.079396,0.000010,6098.079406,6098.079396,6098.079406,609807940.600201,2,-1.000000,""
43_updated,w0,python3action_pyaes_3000_nova,0.997085,1,2000.000000,1,COMPLETED_SUCCESSFULLY,6098.079426,78.200020,6176.279446,6097.082341,6175.282361,78.967785,2,-1.000000,""
43,w0,python3action_pyaes_3000,0.000000,1,-1.000000,1,COMPLETED_SUCCESSFULLY,6176.279461,0.000010,6176.279471,6176.279461,6176.279471,617627947.100201,2,-1.000000,""
51_updated,w0,python3action_pyaes_3000_nova,0.997085,1,2000.000000,1,COMPLETED_SUCCESSFULLY,6176.279491,78.200020,6254.479511,6175.282406,6253.482426,79.967786,2,-1.000000,""
51,w0,python3action_pyaes_3000,0.000000,1,-1.000000,1,COMPLETED_SUCCESSFULLY,6254.479526,0.000010,6254.479536,6254.479526,6254.479536,625447953.600201,2,-1.000000,""
61_updated,w0,python3action_pyaes_3000_nova,0.997085,1,2000.000000,1,COMPLETED_SUCCESSFULLY,6254.479556,78.200020,6332.679576,6253.482471,6331.682491,80.967787,2,-1.000000,""
61,w0,python3action_pyaes_3000,0.000000,1,-1.000000,1,COMPLETED_SUCCESSFULLY,6332.679591,0.000010,6332.679601,6332.679591,6332.679601,633267960.100201,2,-1.000000,""
64_updated,w0,python3action_pyaes_3000_nova,0.997085,1,2000.000000,1,COMPLETED_SUCCESSFULLY,6332.679621,78.200020,6410.879641,6331.682536,6409.882556,81.967787,2,-1.000000,""
64,w0,python3action_pyaes_3000,0.000000,1,-1.000000,1,COMPLETED_SUCCESSFULLY,6410.879656,0.000010,6410.879666,6410.879656,6410.879666,641087966.600201,2,-1.000000,""
67_updated,w0,python3action_pyaes_3000_nova,0.997085,1,2000.000000,1,COMPLETED_SUCCESSFULLY,6410.879686,78.200020,6489.079706,6409.882601,6488.082621,82.967788,2,-1.000000,""
67,w0,python3action_pyaes_3000,0.000000,1,-1.000000,1,COMPLETED_SUCCESSFULLY,6489.079721,0.000010,6489.079731,6489.079721,6489.079731,648907973.100201,2,-1.000000,""
74_updated,w0,python3action_pyaes_4000_nova,0.997085,1,2000.000000,1,COMPLETED_SUCCESSFULLY,6489.079751,139.600010,6628.679761,6488.082666,6627.682676,47.476234,2,-1.000000,""
74,w0,python3action_pyaes_4000,0.000000,1,-1.000000,1,COMPLETED_SUCCESSFULLY,6628.679776,0.000010,6628.679786,6628.679776,6628.679786,662867978.600201,2,-1.000000,""
80_updated,w0,python3action_pyaes_3000_nova,0.997085,1,2000.000000,1,COMPLETED_SUCCESSFULLY,6628.679806,78.200020,6706.879826,6627.682721,6705.882741,85.752955,2,-1.000000,""
80,w0,python3action_pyaes_3000,0.000000,1,-1.000000,1,COMPLETED_SUCCESSFULLY,6706.879841,0.000010,6706.879851,6706.879841,6706.879851,670687985.100201,2,-1.000000,""
86_updated,w0,python3action_pyaes_3000_nova,0.997085,1,2000.000000,1,COMPLETED_SUCCESSFULLY,6706.879871,78.200020,6785.079891,6705.882786,6784.082806,86.752955,2,-1.000000,""
86,w0,python3action_pyaes_3000,0.000000,1,-1.000000,1,COMPLETED_SUCCESSFULLY,6785.079906,0.000010,6785.079916,6785.079906,6785.079916,678507991.600201,2,-1.000000,""
89_updated,w0,python3action_pyaes_3000_nova,0.997085,1,2000.000000,1,COMPLETED_SUCCESSFULLY,6785.079936,78.200020,6863.279956,6784.082851,6862.282871,87.752956,2,-1.000000,""
89,w0,python3action_pyaes_3000,0.000000,1,-1.000000,1,COMPLETED_SUCCESSFULLY,6863.279971,0.000010,6863.279981,6863.279971,6863.279981,686327998.100201,2,-1.000000,""
104_updated,w0,python3action_pyaes_3000_nova,0.997085,1,2000.000000,1,COMPLETED_SUCCESSFULLY,6863.280001,78.200020,6941.480021,6862.282916,6940.482936,88.752957,2,-1.000000,""
104,w0,python3action_pyaes_3000,0.000000,1,-1.000000,1,COMPLETED_SUCCESSFULLY,6941.480036,0.000010,6941.480046,6941.480036,6941.480046,694148004.600201,2,-1.000000,""
123_updated,w0,python3action_pyaes_3000_nova,0.997085,1,2000.000000,1,COMPLETED_SUCCESSFULLY,6941.480066,78.200020,7019.680086,6940.482981,7018.683001,89.752957,2,-1.000000,""
123,w0,python3action_pyaes_3000,0.000000,1,-1.000000,1,COMPLETED_SUCCESSFULLY,7019.680101,0.000010,7019.680111,7019.680101,7019.680111,701968011.100201,2,-1.000000,""
126_updated,w0,python3action_pyaes_4000_nova,0.997085,1,2000.000000,1,COMPLETED_SUCCESSFULLY,7019.680131,139.600010,7159.280141,7018.683046,7158.283056,51.277096,2,-1.000000,""
126,w0,python3action_pyaes_4000,0.000000,1,-1.000000,1,COMPLETED_SUCCESSFULLY,7159.280156,0.000010,7159.280166,7159.280156,7159.280166,715928016.600201,2,-1.000000,""
129_updated,w0,python3action_pyaes_3000_nova,0.997085,1,2000.000000,1,COMPLETED_SUCCESSFULLY,7159.280186,78.200020,7237.480206,7158.283101,7236.483121,92.538124,2,-1.000000,""
129,w0,python3action_pyaes_3000,0.000000,1,-1.000000,1,COMPLETED_SUCCESSFULLY,7237.480221,0.000010,7237.480231,7237.480221,7237.480231,723748023.100201,2,-1.000000,""
130_updated,w0,python3action_pyaes_4000_nova,0.997085,1,2000.000000,1,COMPLETED_SUCCESSFULLY,7237.480251,139.600010,7377.080261,7236.483166,7376.083176,52.837268,2,-1.000000,""
130,w0,python3action_pyaes_4000,0.000000,1,-1.000000,1,COMPLETED_SUCCESSFULLY,7377.080276,0.000010,7377.080286,7377.080276,7377.080286,737708028.600201,2,-1.000000,""
134_updated,w0,python3action_pyaes_4000_nova,0.997085,1,2000.000000,1,COMPLETED_SUCCESSFULLY,7377.080306,139.600010,7516.680316,7376.083221,7515.683231,53.837269,2,-1.000000,""
134,w0,python3action_pyaes_4000,0.000000,1,-1.000000,1,COMPLETED_SUCCESSFULLY,7516.680331,0.000010,7516.680341,7516.680331,7516.680341,751668034.100201,2,-1.000000,""
138_updated,w0,python3action_pyaes_4000_nova,0.997085,1,2000.000000,1,COMPLETED_SUCCESSFULLY,7516.680361,139.600010,7656.280371,7515.683276,7655.283286,54.837269,2,-1.000000,""
138,w0,python3action_pyaes_4000,0.000000,1,-1.000000,1,COMPLETED_SUCCESSFULLY,7656.280386,0.000010,7656.280396,7656.280386,7656.280396,765628039.600201,2,-1.000000,""
143_updated,w0,python3action_pyaes_3000_nova,0.997085,1,2000.000000,1,COMPLETED_SUCCESSFULLY,7656.280416,78.200020,7734.480436,7655.283331,7733.483351,98.893624,2,-1.000000,""
143,w0,python3action_pyaes_3000,0.000000,1,-1.000000,1,COMPLETED_SUCCESSFULLY,7734.480451,0.000010,7734.480461,7734.480451,7734.480461,773448046.100201,2,-1.000000,""
146_updated,w0,python3action_pyaes_4000_nova,0.997085,1,2000.000000,1,COMPLETED_SUCCESSFULLY,7734.480481,139.600010,7874.080491,7733.483396,7873.083406,56.397442,2,-1.000000,""
146,w0,python3action_pyaes_4000,0.000000,1,-1.000000,1,COMPLETED_SUCCESSFULLY,7874.080506,0.000010,7874.080516,7874.080506,7874.080516,787408051.600201,2,-1.000000,""
150_updated,w0,python3action_pyaes_4000_nova,0.997085,1,2000.000000,1,COMPLETED_SUCCESSFULLY,7874.080536,139.600010,8013.680546,7873.083451,8012.683461,57.397442,2,-1.000000,""
150,w0,python3action_pyaes_4000,0.000000,1,-1.000000,1,COMPLETED_SUCCESSFULLY,8013.680561,0.000010,8013.680571,8013.680561,8013.680571,801368057.100201,2,-1.000000,""
151_updated,w0,python3action_pyaes_4000_nova,0.997085,1,2000.000000,1,COMPLETED_SUCCESSFULLY,8013.680591,139.600010,8153.280601,8012.683506,8152.283516,58.397442,2,-1.000000,""
151,w0,python3action_pyaes_4000,0.000000,1,-1.000000,1,COMPLETED_SUCCESSFULLY,8153.280616,0.000010,8153.280626,8153.280616,8153.280626,815328062.600201,2,-1.000000,""
178_updated,w0,python3action_pyaes_3000_nova,0.997085,1,2000.000000,1,COMPLETED_SUCCESSFULLY,8153.280646,78.200020,8231.480666,8152.283561,8230.483581,105.249124,2,-1.000000,""
178,w0,python3action_pyaes_3000,0.000000,1,-1.000000,1,COMPLETED_SUCCESSFULLY,8231.480681,0.000010,8231.480691,8231.480681,8231.480691,823148069.100201,2,-1.000000,""
181_updated,w0,python3action_pyaes_4000_nova,0.997085,1,2000.000000,1,COMPLETED_SUCCESSFULLY,8231.480711,139.600010,8371.080721,8230.483626,8370.083636,59.957615,2,-1.000000,""
181,w0,python3action_pyaes_4000,0.000000,1,-1.000000,1,COMPLETED_SUCCESSFULLY,8371.080736,0.000010,8371.080746,8371.080736,8371.080746,837108074.600201,2,-1.000000,""
python3action_video_processing_job1_1,w0,python3action_video_processing_reduced_1.89,0.997085,1,2000.000000,1,COMPLETED_SUCCESSFULLY,8371.080766,0.000000,8371.080766,8370.083681,8370.083681,170426006161561.500000,2,-1.000000,""
1_updated,w0,python3action_videoprocessing_SampleVideo_30mb_nova,0.997085,1,2000.000000,1,COMPLETED_SUCCESSFULLY,8371.080796,106.799980,8477.880776,8370.083711,8476.883691,79.371585,2,-1.000000,""
1,w0,python3action_videoprocessing_SampleVideo_30mb,0.000000,1,-1.000000,1,COMPLETED_SUCCESSFULLY,8477.880791,0.000010,8477.880801,8477.880791,8477.880801,847788080.147412,2,-1.000000,""
2_updated,w0,python3action_videoprocessing_SampleVideo_30mb_nova,0.997085,1,2000.000000,1,COMPLETED_SUCCESSFULLY,8477.880821,106.799980,8584.680802,8476.883736,8583.683717,80.371585,2,-1.000000,""
2,w0,python3action_videoprocessing_SampleVideo_30mb,0.000000,1,-1.000000,1,COMPLETED_SUCCESSFULLY,8584.680817,0.000010,8584.680827,8584.680817,8584.680827,858468082.700201,2,-1.000000,""
10_updated,w0,python3action_videoprocessing_SampleVideo_30mb_nova,0.997085,1,2000.000000,1,COMPLETED_SUCCESSFULLY,8584.680847,106.799980,8691.480827,8583.683762,8690.483742,81.371586,2,-1.000000,""
10,w0,python3action_videoprocessing_SampleVideo_30mb,0.000000,1,-1.000000,1,COMPLETED_SUCCESSFULLY,8691.480842,0.000010,8691.480852,8691.480842,8691.480852,869148085.247010,2,-1.000000,""
26_updated,w0,python3action_videoprocessing_SampleVideo_30mb_nova,0.997085,1,2000.000000,1,COMPLETED_SUCCESSFULLY,8691.480872,106.799980,8798.280853,8690.483787,8797.283768,82.371586,2,-1.000000,""
26,w0,python3action_videoprocessing_SampleVideo_30mb,0.000000,1,-1.000000,1,COMPLETED_SUCCESSFULLY,8798.280868,0.000010,8798.280878,8798.280868,8798.280878,879828087.800201,2,-1.000000,""
40_updated,w0,python3action_videoprocessing_SampleVideo_30mb_nova,0.997085,1,2000.000000,1,COMPLETED_SUCCESSFULLY,8798.280898,106.799980,8905.080878,8797.283813,8904.083793,83.371586,2,-1.000000,""
40,w0,python3action_videoprocessing_SampleVideo_30mb,0.000000,1,-1.000000,1,COMPLETED_SUCCESSFULLY,8905.080893,0.000010,8905.080903,8905.080893,8905.080903,890508090.347010,2,-1.000000,""
73_updated,w0,python3action_videoprocessing_SampleVideo_30mb_nova,0.997085,1,2000.000000,1,COMPLETED_SUCCESSFULLY,8905.080923,106.799980,9011.880904,8904.083838,9010.883819,84.371587,2,-1.000000,""
73,w0,python3action_videoprocessing_SampleVideo_30mb,0.000000,1,-1.000000,1,COMPLETED_SUCCESSFULLY,9011.880919,0.000010,9011.880929,9011.880919,9011.880929,901188092.900201,2,-1.000000,""
87_updated,w0,python3action_videoprocessing_SampleVideo_30mb_nova,0.997085,1,2000.000000,1,COMPLETED_SUCCESSFULLY,9011.880949,106.799980,9118.680929,9010.883864,9117.683844,85.371587,2,-1.000000,""
87,w0,python3action_videoprocessing_SampleVideo_30mb,0.000000,1,-1.000000,1,COMPLETED_SUCCESSFULLY,9118.680944,0.000010,9118.680954,9118.680944,9118.680954,911868095.447010,2,-1.000000,""
107_updated,w0,python3action_videoprocessing_SampleVideo_30mb_nova,0.997085,1,2000.000000,1,COMPLETED_SUCCESSFULLY,9118.680974,106.799980,9225.480955,9117.683889,9224.483870,86.371588,2,-1.000000,""
107,w0,python3action_videoprocessing_SampleVideo_30mb,0.000000,1,-1.000000,1,COMPLETED_SUCCESSFULLY,9225.480970,0.000010,9225.480980,9225.480970,9225.480980,922548098.000201,2,-1.000000,""
109_updated,w0,python3action_videoprocessing_SampleVideo_30mb_nova,0.997085,1,2000.000000,1,COMPLETED_SUCCESSFULLY,9225.481000,106.799980,9332.280980,9224.483915,9331.283895,87.371588,2,-1.000000,""
109,w0,python3action_videoprocessing_SampleVideo_30mb,0.000000,1,-1.000000,1,COMPLETED_SUCCESSFULLY,9332.280995,0.000010,9332.281005,9332.280995,9332.281005,933228100.547010,2,-1.000000,""
142_updated,w0,python3action_videoprocessing_SampleVideo_30mb_nova,0.997085,1,2000.000000,1,COMPLETED_SUCCESSFULLY,9332.281025,106.799980,9439.081006,9331.283940,9438.083921,88.371588,2,-1.000000,""
142,w0,python3action_videoprocessing_SampleVideo_30mb,0.000000,1,-1.000000,1,COMPLETED_SUCCESSFULLY,9439.081021,0.000010,9439.081031,9439.081021,9439.081031,943908103.100201,2,-1.000000,""
157_updated,w0,python3action_videoprocessing_SampleVideo_30mb_nova,0.997085,1,2000.000000,1,COMPLETED_SUCCESSFULLY,9439.081051,106.799980,9545.881031,9438.083966,9544.883946,89.371589,2,-1.000000,""
157,w0,python3action_videoprocessing_SampleVideo_30mb,0.000000,1,-1.000000,1,COMPLETED_SUCCESSFULLY,9545.881046,0.000010,9545.881056,9545.881046,9545.881056,954588105.647010,2,-1.000000,""
163_updated,w0,python3action_videoprocessing_SampleVideo_30mb_nova,0.997085,1,2000.000000,1,COMPLETED_SUCCESSFULLY,9545.881076,106.799980,9652.681057,9544.883991,9651.683972,90.371589,2,-1.000000,""
163,w0,python3action_videoprocessing_SampleVideo_30mb,0.000000,1,-1.000000,1,COMPLETED_SUCCESSFULLY,9652.681072,0.000010,9652.681082,9652.681072,9652.681082,965268108.200201,2,-1.000000,""
173_updated,w0,python3action_videoprocessing_SampleVideo_30mb_nova,0.997085,1,2000.000000,1,COMPLETED_SUCCESSFULLY,9652.681102,106.799980,9759.481082,9651.684017,9758.483997,91.371590,2,-1.000000,""
173,w0,python3action_videoprocessing_SampleVideo_30mb,0.000000,1,-1.000000,1,COMPLETED_SUCCESSFULLY,9759.481097,0.000010,9759.481107,9759.481097,9759.481107,975948110.747010,2,-1.000000,""
179_updated,w0,python3action_videoprocessing_SampleVideo_30mb_nova,0.997085,1,2000.000000,1,COMPLETED_SUCCESSFULLY,9759.481127,106.799980,9866.281108,9758.484042,9865.284023,92.371590,2,-1.000000,""
179,w0,python3action_videoprocessing_SampleVideo_30mb,0.000000,1,-1.000000,1,COMPLETED_SUCCESSFULLY,9866.281123,0.000010,9866.281133,9866.281123,9866.281133,986628113.300201,2,-1.000000,""
