job_id,workload_name,profile,submission_time,requested_number_of_resources,requested_time,success,final_state,starting_time,execution_time,finish_time,waiting_time,turnaround_time,stretch,allocated_resources,consumed_energy,metadata
python3action_chameleon_job3_3,w0,python3action_chameleon,0.997085,1,2000.000000,1,COMPLETED_SUCCESSFULLY,1.002145,0.867914,1.870059,0.005060,0.872974,1.005830,44,-1.000000,""
python3action_chameleon_job16_4,w0,python3action_chameleon,0.997085,1,2000.000000,1,COMPLETED_SUCCESSFULLY,1.002160,0.892694,1.894854,0.005075,0.897769,1.005685,49,-1.000000,""
python3action_chameleon_job8_2,w0,python3action_chameleon,0.997085,1,2000.000000,1,COMPLETED_SUCCESSFULLY,1.002130,5.040826,6.042956,0.005045,5.045871,1.001001,29,-1.000000,""
python3action_linpack_job6_1,w0,python3action_linpack,0.997085,1,2000.000000,1,COMPLETED_SUCCESSFULLY,1.002115,5.760927,6.763042,0.005030,5.765957,1.000873,26,-1.000000,""
python3action_facedetection_job1_0,w0,python3action_facedetection,0.997085,1,2000.000000,1,COMPLETED_SUCCESSFULLY,1.002100,30.499683,31.501783,0.005015,30.504698,1.000164,2,-1.000000,""
3_updated,w0,python3action_chameleon_2000_troll,0.997085,1,2000.000000,1,COMPLETED_SUCCESSFULLY,1.870074,39.500010,41.370084,0.872989,40.372999,1.022101,44,-1.000000,""
3,w0,python3action_chameleon_2000,0.000000,1,-1.000000,1,COMPLETED_SUCCESSFULLY,41.370099,0.000010,41.370109,41.370099,41.370109,4137010.900201,44,-1.000000,""
8_updated,w0,python3action_chameleon_2000_taurus,0.997085,1,2000.000000,1,COMPLETED_SUCCESSFULLY,6.042971,64.199977,70.242948,5.045886,69.245863,1.078596,29,-1.000000,""
8,w0,python3action_chameleon_2000,0.000000,1,-1.000000,1,COMPLETED_SUCCESSFULLY,70.242963,0.000010,70.242973,70.242963,70.242973,7024297.300201,29,-1.000000,""
15_updated,w0,python3action_chameleon_2000_troll,0.997085,1,2000.000000,1,COMPLETED_SUCCESSFULLY,41.370129,39.500010,80.870139,40.373044,79.873054,2.022102,44,-1.000000,""
15,w0,python3action_chameleon_2000,0.000000,1,-1.000000,1,COMPLETED_SUCCESSFULLY,80.870154,0.000010,80.870164,80.870154,80.870164,8087016.400201,44,-1.000000,""
16_updated,w0,python3action_chameleon_3000_yeti,0.997085,1,2000.000000,1,COMPLETED_SUCCESSFULLY,1.894869,93.000000,94.894869,0.897784,93.897784,1.009654,49,-1.000000,""
16,w0,python3action_chameleon_3000,0.000000,1,-1.000000,1,COMPLETED_SUCCESSFULLY,94.894884,0.000010,94.894894,94.894884,94.894894,9489489.449765,49,-1.000000,""
6_updated,w0,python3action_linpack_6000_orion,0.997085,1,2000.000000,1,COMPLETED_SUCCESSFULLY,6.763057,106.000000,112.763057,5.765972,111.765972,1.054396,26,-1.000000,""
6,w0,python3action_linpack_6000,0.000000,1,-1.000000,1,COMPLETED_SUCCESSFULLY,112.763072,0.000010,112.763082,112.763072,112.763082,11276308.223673,26,-1.000000,""
25_updated,w0,python3action_chameleon_2000_troll,0.997085,1,2000.000000,1,COMPLETED_SUCCESSFULLY,80.870184,39.500010,120.370194,79.873099,119.373109,3.022103,44,-1.000000,""
25,w0,python3action_chameleon_2000,0.000000,1,-1.000000,1,COMPLETED_SUCCESSFULLY,120.370209,0.000010,120.370219,120.370209,120.370219,12037021.900201,44,-1.000000,""
102_updated,w0,python3action_chameleon_2000_taurus,0.997085,1,2000.000000,1,COMPLETED_SUCCESSFULLY,70.242993,64.199977,134.442970,69.245908,133.445885,2.078597,29,-1.000000,""
102,w0,python3action_chameleon_2000,0.000000,1,-1.000000,1,COMPLETED_SUCCESSFULLY,134.442985,0.000010,134.442995,134.442985,134.442995,13444299.500201,29,-1.000000,""
139_updated,w0,python3action_chameleon_3000_yeti,0.997085,1,2000.000000,1,COMPLETED_SUCCESSFULLY,94.894915,93.000000,187.894915,93.897830,186.897830,2.009654,49,-1.000000,""
139,w0,python3action_chameleon_3000,0.000000,1,-1.000000,1,COMPLETED_SUCCESSFULLY,187.894930,0.000010,187.894940,187.894930,187.894940,18789494.000201,49,-1.000000,""
1_updated,w0,python3action_facedetection_SampleVideo_30mb_nova,0.997085,1,2000.000000,1,COMPLETED_SUCCESSFULLY,31.501798,160.399990,191.901788,30.504713,190.904703,1.190179,2,-1.000000,""
1,w0,python3action_facedetection_SampleVideo_30mb,0.000000,1,-1.000000,1,COMPLETED_SUCCESSFULLY,191.901803,0.000010,191.901813,191.901803,191.901813,19190181.323505,2,-1.000000,""
138_updated,w0,python3action_chameleon_2000_taurus,0.997085,1,2000.000000,1,COMPLETED_SUCCESSFULLY,134.443015,64.199977,198.642992,133.445930,197.645907,3.078598,29,-1.000000,""
138,w0,python3action_chameleon_2000,0.000000,1,-1.000000,1,COMPLETED_SUCCESSFULLY,198.643007,0.000010,198.643017,198.643007,198.643017,19864301.700201,29,-1.000000,""
30_updated,w0,python3action_chameleon_3000_troll,0.997085,1,2000.000000,1,COMPLETED_SUCCESSFULLY,120.370239,94.000000,214.370239,119.373154,213.373154,2.269927,44,-1.000000,""
30,w0,python3action_chameleon_3000,0.000000,1,-1.000000,1,COMPLETED_SUCCESSFULLY,214.370254,0.000010,214.370264,214.370254,214.370264,21437026.400803,44,-1.000000,""
9_updated,w0,python3action_linpack_6000_orion,0.997085,1,2000.000000,1,COMPLETED_SUCCESSFULLY,112.763102,106.000000,218.763102,111.766017,217.766017,2.054396,26,-1.000000,""
9,w0,python3action_linpack_6000,0.000000,1,-1.000000,1,COMPLETED_SUCCESSFULLY,218.763117,0.000010,218.763127,218.763117,218.763127,21876312.724275,26,-1.000000,""
python3action_facedetection_job44_3,w0,python3action_facedetection,0.997085,1,2000.000000,1,COMPLETED_SUCCESSFULLY,198.643037,72.012455,270.655492,197.645952,269.658407,3.744608,29,-1.000000,""
168_updated,w0,python3action_chameleon_3000_yeti,0.997085,1,2000.000000,1,COMPLETED_SUCCESSFULLY,187.894960,93.000000,280.894960,186.897875,279.897875,3.009655,49,-1.000000,""
168,w0,python3action_chameleon_3000,0.000000,1,-1.000000,1,COMPLETED_SUCCESSFULLY,280.894975,0.000010,280.894985,280.894975,280.894985,28089498.500803,49,-1.000000,""
36_updated,w0,python3action_chameleon_3000_troll,0.997085,1,2000.000000,1,COMPLETED_SUCCESSFULLY,214.370284,94.000000,308.370284,213.373199,307.373199,3.269928,44,-1.000000,""
36,w0,python3action_chameleon_3000,0.000000,1,-1.000000,1,COMPLETED_SUCCESSFULLY,308.370299,0.000010,308.370309,308.370299,308.370309,30837030.901406,44,-1.000000,""
17_updated,w0,python3action_linpack_6000_orion,0.997085,1,2000.000000,1,COMPLETED_SUCCESSFULLY,218.763147,106.000000,324.763147,217.766062,323.766062,3.054397,26,-1.000000,""
17,w0,python3action_linpack_6000,0.000000,1,-1.000000,1,COMPLETED_SUCCESSFULLY,324.763162,0.000010,324.763172,324.763162,324.763172,32476317.224877,26,-1.000000,""
53_updated,w0,python3action_chameleon_2000_troll,0.997085,1,2000.000000,1,COMPLETED_SUCCESSFULLY,308.370329,39.500010,347.870339,307.373244,346.873254,8.781599,44,-1.000000,""
53,w0,python3action_chameleon_2000,0.000000,1,-1.000000,1,COMPLETED_SUCCESSFULLY,347.870354,0.000010,347.870364,347.870354,347.870364,34787036.400201,44,-1.000000,""
27_updated,w0,python3action_facedetection_SampleVideo_30mb_nova,0.997085,1,2000.000000,1,COMPLETED_SUCCESSFULLY,191.901833,160.399990,352.301823,190.904748,351.304738,2.190179,2,-1.000000,""
27,w0,python3action_facedetection_SampleVideo_30mb,0.000000,1,-1.000000,1,COMPLETED_SUCCESSFULLY,352.301838,0.000010,352.301848,352.301838,352.301848,35230184.847211,2,-1.000000,""
186_updated,w0,python3action_chameleon_3000_yeti,0.997085,1,2000.000000,1,COMPLETED_SUCCESSFULLY,280.895005,93.000000,373.895005,279.897920,372.897920,4.009655,49,-1.000000,""
186,w0,python3action_chameleon_3000,0.000000,1,-1.000000,1,COMPLETED_SUCCESSFULLY,373.895020,0.000010,373.895030,373.895020,373.895030,37389503.001406,49,-1.000000,""
59_updated,w0,python3action_chameleon_2000_troll,0.997085,1,2000.000000,1,COMPLETED_SUCCESSFULLY,347.870384,39.500010,387.370394,346.873299,386.373309,9.781600,44,-1.000000,""
59,w0,python3action_chameleon_2000,0.000000,1,-1.000000,1,COMPLETED_SUCCESSFULLY,387.370409,0.000010,387.370419,387.370409,387.370419,38737041.900201,44,-1.000000,""
44_updated,w0,python3action_facedetection_SampleVideo_50mb_taurus,0.997085,1,2000.000000,1,COMPLETED_SUCCESSFULLY,270.655507,134.600046,405.255553,269.658422,404.258468,3.003405,29,-1.000000,""
44,w0,python3action_facedetection_SampleVideo_50mb,0.000000,1,-1.000000,1,COMPLETED_SUCCESSFULLY,405.255568,0.000010,405.255578,405.255568,405.255578,40525557.845163,29,-1.000000,""
64_updated,w0,python3action_chameleon_2000_troll,0.997085,1,2000.000000,1,COMPLETED_SUCCESSFULLY,387.370439,39.500010,426.870449,386.373354,425.873364,10.781601,44,-1.000000,""
64,w0,python3action_chameleon_2000,0.000000,1,-1.000000,1,COMPLETED_SUCCESSFULLY,426.870464,0.000010,426.870474,426.870464,426.870474,42687047.400201,44,-1.000000,""
20_updated,w0,python3action_linpack_6000_orion,0.997085,1,2000.000000,1,COMPLETED_SUCCESSFULLY,324.763192,106.000000,430.763192,323.766107,429.766107,4.054397,26,-1.000000,""
20,w0,python3action_linpack_6000,0.000000,1,-1.000000,1,COMPLETED_SUCCESSFULLY,430.763207,0.000010,430.763217,430.763207,430.763217,43076321.725480,26,-1.000000,""
32_updated,w0,python3action_facedetection_SampleVideo_30mb_nova,0.997085,1,2000.000000,1,COMPLETED_SUCCESSFULLY,352.301868,160.399990,512.701859,351.304783,511.704774,3.190180,2,-1.000000,""
32,w0,python3action_facedetection_SampleVideo_30mb,0.000000,1,-1.000000,1,COMPLETED_SUCCESSFULLY,512.701874,0.000010,512.701884,512.701874,512.701884,51270188.400201,2,-1.000000,""
88_updated,w0,python3action_chameleon_3000_troll,0.997085,1,2000.000000,1,COMPLETED_SUCCESSFULLY,426.870494,94.000000,520.870494,425.873409,519.873409,5.530568,44,-1.000000,""
88,w0,python3action_chameleon_3000,0.000000,1,-1.000000,1,COMPLETED_SUCCESSFULLY,520.870509,0.000010,520.870519,520.870509,520.870519,52087051.900803,44,-1.000000,""
21_updated,w0,python3action_linpack_6000_orion,0.997085,1,2000.000000,1,COMPLETED_SUCCESSFULLY,430.763237,106.000000,536.763237,429.766152,535.766152,5.054398,26,-1.000000,""
21,w0,python3action_linpack_6000,0.000000,1,-1.000000,1,COMPLETED_SUCCESSFULLY,536.763252,0.000010,536.763262,536.763252,536.763262,53676326.226082,26,-1.000000,""
80_updated,w0,python3action_facedetection_SampleVideo_50mb_taurus,0.997085,1,2000.000000,1,COMPLETED_SUCCESSFULLY,405.255598,134.600046,539.855645,404.258513,538.858560,4.003405,29,-1.000000,""
80,w0,python3action_facedetection_SampleVideo_50mb,0.000000,1,-1.000000,1,COMPLETED_SUCCESSFULLY,539.855660,0.000010,539.855670,539.855660,539.855670,53985567.000201,29,-1.000000,""
111_updated,w0,python3action_chameleon_2000_troll,0.997085,1,2000.000000,1,COMPLETED_SUCCESSFULLY,520.870539,39.500010,560.370549,519.873454,559.373464,14.161350,44,-1.000000,""
111,w0,python3action_chameleon_2000,0.000000,1,-1.000000,1,COMPLETED_SUCCESSFULLY,560.370564,0.000010,560.370574,560.370564,560.370574,56037057.400201,44,-1.000000,""
136_updated,w0,python3action_chameleon_2000_troll,0.997085,1,2000.000000,1,COMPLETED_SUCCESSFULLY,560.370594,39.500010,599.870604,559.373509,598.873519,15.161351,44,-1.000000,""
136,w0,python3action_chameleon_2000,0.000000,1,-1.000000,1,COMPLETED_SUCCESSFULLY,599.870619,0.000010,599.870629,599.870619,599.870629,59987062.900201,44,-1.000000,""
140_updated,w0,python3action_chameleon_2000_troll,0.997085,1,2000.000000,1,COMPLETED_SUCCESSFULLY,599.870649,39.500010,639.370659,598.873564,638.373574,16.161352,44,-1.000000,""
140,w0,python3action_chameleon_2000,0.000000,1,-1.000000,1,COMPLETED_SUCCESSFULLY,639.370674,0.000010,639.370684,639.370674,639.370684,63937068.400201,44,-1.000000,""
45_updated,w0,python3action_linpack_6000_orion,0.997085,1,2000.000000,1,COMPLETED_SUCCESSFULLY,536.763282,106.000000,642.763282,535.766197,641.766197,6.054398,26,-1.000000,""
45,w0,python3action_linpack_6000,0.000000,1,-1.000000,1,COMPLETED_SUCCESSFULLY,642.763297,0.000010,642.763307,642.763297,642.763307,64276330.726685,26,-1.000000,""
35_updated,w0,python3action_facedetection_SampleVideo_30mb_nova,0.997085,1,2000.000000,1,COMPLETED_SUCCESSFULLY,512.701904,160.399990,673.101894,511.704819,672.104809,4.190180,2,-1.000000,""
35,w0,python3action_facedetection_SampleVideo_30mb,0.000000,1,-1.000000,1,COMPLETED_SUCCESSFULLY,673.101909,0.000010,673.101919,673.101909,673.101919,67310191.923907,2,-1.000000,""
85_updated,w0,python3action_facedetection_SampleVideo_50mb_taurus,0.997085,1,2000.000000,1,COMPLETED_SUCCESSFULLY,539.855690,134.600046,674.455736,538.858605,673.458651,5.003406,29,-1.000000,""
85,w0,python3action_facedetection_SampleVideo_50mb,0.000000,1,-1.000000,1,COMPLETED_SUCCESSFULLY,674.455751,0.000010,674.455761,674.455751,674.455761,67445576.113881,29,-1.000000,""
142_updated,w0,python3action_chameleon_2000_troll,0.997085,1,2000.000000,1,COMPLETED_SUCCESSFULLY,639.370704,39.500010,678.870714,638.373619,677.873629,17.161353,44,-1.000000,""
142,w0,python3action_chameleon_2000,0.000000,1,-1.000000,1,COMPLETED_SUCCESSFULLY,678.870729,0.000010,678.870739,678.870729,678.870739,67887073.900201,44,-1.000000,""
146_updated,w0,python3action_chameleon_2000_troll,0.997085,1,2000.000000,1,COMPLETED_SUCCESSFULLY,678.870759,39.500010,718.370769,677.873674,717.373684,18.161355,44,-1.000000,""
146,w0,python3action_chameleon_2000,0.000000,1,-1.000000,1,COMPLETED_SUCCESSFULLY,718.370784,0.000010,718.370794,718.370784,718.370794,71837079.400201,44,-1.000000,""
63_updated,w0,python3action_linpack_6000_orion,0.997085,1,2000.000000,1,COMPLETED_SUCCESSFULLY,642.763327,106.000000,748.763327,641.766242,747.766242,7.054399,26,-1.000000,""
63,w0,python3action_linpack_6000,0.000000,1,-1.000000,1,COMPLETED_SUCCESSFULLY,748.763342,0.000010,748.763352,748.763342,748.763352,74876335.227287,26,-1.000000,""
155_updated,w0,python3action_chameleon_2000_troll,0.997085,1,2000.000000,1,COMPLETED_SUCCESSFULLY,718.370814,39.500010,757.870824,717.373729,756.873739,19.161356,44,-1.000000,""
155,w0,python3action_chameleon_2000,0.000000,1,-1.000000,1,COMPLETED_SUCCESSFULLY,757.870839,0.000010,757.870849,757.870839,757.870849,75787084.900201,44,-1.000000,""
97_updated,w0,python3action_facedetection_SampleVideo_50mb_taurus,0.997085,1,2000.000000,1,COMPLETED_SUCCESSFULLY,674.455781,134.600046,809.055827,673.458696,808.058742,6.003406,29,-1.000000,""
97,w0,python3action_facedetection_SampleVideo_50mb,0.000000,1,-1.000000,1,COMPLETED_SUCCESSFULLY,809.055842,0.000010,809.055852,809.055842,809.055852,80905585.227562,29,-1.000000,""
57_updated,w0,python3action_facedetection_SampleVideo_30mb_nova,0.997085,1,2000.000000,1,COMPLETED_SUCCESSFULLY,673.101939,160.399990,833.501929,672.104854,832.504844,5.190180,2,-1.000000,""
57,w0,python3action_facedetection_SampleVideo_30mb,0.000000,1,-1.000000,1,COMPLETED_SUCCESSFULLY,833.501944,0.000010,833.501954,833.501944,833.501954,83350195.447613,2,-1.000000,""
165_updated,w0,python3action_chameleon_3000_troll,0.997085,1,2000.000000,1,COMPLETED_SUCCESSFULLY,757.870869,94.000000,851.870869,756.873784,850.873784,9.051849,44,-1.000000,""
165,w0,python3action_chameleon_3000,0.000000,1,-1.000000,1,COMPLETED_SUCCESSFULLY,851.870884,0.000010,851.870894,851.870884,851.870894,85187089.400803,44,-1.000000,""
71_updated,w0,python3action_linpack_6000_orion,0.997085,1,2000.000000,1,COMPLETED_SUCCESSFULLY,748.763372,106.000000,854.763372,747.766287,853.766287,8.054399,26,-1.000000,""
71,w0,python3action_linpack_6000,0.000000,1,-1.000000,1,COMPLETED_SUCCESSFULLY,854.763387,0.000010,854.763397,854.763387,854.763397,85476339.727889,26,-1.000000,""
167_updated,w0,python3action_chameleon_2000_troll,0.997085,1,2000.000000,1,COMPLETED_SUCCESSFULLY,851.870914,39.500010,891.370924,850.873829,890.373839,22.541104,44,-1.000000,""
167,w0,python3action_chameleon_2000,0.000000,1,-1.000000,1,COMPLETED_SUCCESSFULLY,891.370939,0.000010,891.370949,891.370939,891.370949,89137094.900201,44,-1.000000,""
103_updated,w0,python3action_facedetection_SampleVideo_50mb_taurus,0.997085,1,2000.000000,1,COMPLETED_SUCCESSFULLY,809.055872,134.600046,943.655918,808.058787,942.658833,7.003406,29,-1.000000,""
103,w0,python3action_facedetection_SampleVideo_50mb,0.000000,1,-1.000000,1,COMPLETED_SUCCESSFULLY,943.655933,0.000010,943.655943,943.655933,943.655943,94365594.341242,29,-1.000000,""
77_updated,w0,python3action_linpack_6000_orion,0.997085,1,2000.000000,1,COMPLETED_SUCCESSFULLY,854.763417,106.000000,960.763417,853.766332,959.766332,9.054399,26,-1.000000,""
77,w0,python3action_linpack_6000,0.000000,1,-1.000000,1,COMPLETED_SUCCESSFULLY,960.763432,0.000010,960.763442,960.763432,960.763442,96076344.228492,26,-1.000000,""
173_updated,w0,python3action_chameleon_3000_troll,0.997085,1,2000.000000,1,COMPLETED_SUCCESSFULLY,891.370969,94.000000,985.370969,890.373884,984.373884,10.472063,44,-1.000000,""
173,w0,python3action_chameleon_3000,0.000000,1,-1.000000,1,COMPLETED_SUCCESSFULLY,985.370984,0.000010,985.370994,985.370984,985.370994,98537099.400803,44,-1.000000,""
65_updated,w0,python3action_facedetection_SampleVideo_30mb_nova,0.997085,1,2000.000000,1,COMPLETED_SUCCESSFULLY,833.501974,160.399990,993.901965,832.504889,992.904880,6.190180,2,-1.000000,""
65,w0,python3action_facedetection_SampleVideo_30mb,0.000000,1,-1.000000,1,COMPLETED_SUCCESSFULLY,993.901980,0.000010,993.901990,993.901980,993.901990,99390199.000201,2,-1.000000,""
84_updated,w0,python3action_linpack_6000_orion,0.997085,1,2000.000000,1,COMPLETED_SUCCESSFULLY,960.763462,106.000000,1066.763462,959.766377,1065.766377,10.054400,26,-1.000000,""
84,w0,python3action_linpack_6000,0.000000,1,-1.000000,1,COMPLETED_SUCCESSFULLY,1066.763477,0.000010,1066.763487,1066.763477,1066.763487,106676348.729094,26,-1.000000,""
113_updated,w0,python3action_facedetection_SampleVideo_50mb_taurus,0.997085,1,2000.000000,1,COMPLETED_SUCCESSFULLY,943.655963,134.600046,1078.256010,942.658878,1077.258925,8.003407,29,-1.000000,""
113,w0,python3action_facedetection_SampleVideo_50mb,0.000000,1,-1.000000,1,COMPLETED_SUCCESSFULLY,1078.256025,0.000010,1078.256035,1078.256025,1078.256035,107825603.500201,29,-1.000000,""
177_updated,w0,python3action_chameleon_3000_troll,0.997085,1,2000.000000,1,COMPLETED_SUCCESSFULLY,985.371014,94.000000,1079.371014,984.373929,1078.373929,11.472063,44,-1.000000,""
177,w0,python3action_chameleon_3000,0.000000,1,-1.000000,1,COMPLETED_SUCCESSFULLY,1079.371029,0.000010,1079.371039,1079.371029,1079.371039,107937103.901406,44,-1.000000,""
179_updated,w0,python3action_chameleon_2000_troll,0.997085,1,2000.000000,1,COMPLETED_SUCCESSFULLY,1079.371059,39.500010,1118.871069,1078.373974,1117.873984,28.300600,44,-1.000000,""
179,w0,python3action_chameleon_2000,0.000000,1,-1.000000,1,COMPLETED_SUCCESSFULLY,1118.871084,0.000010,1118.871094,1118.871084,1118.871094,111887109.400201,44,-1.000000,""
python3action_image_processing_job2_4,w0,python3action_image_processing,0.997085,1,2000.000000,1,COMPLETED_SUCCESSFULLY,1118.871114,12.398880,1131.269994,1117.874029,1130.272909,91.159274,44,-1.000000,""
125_updated,w0,python3action_facedetection_SampleVideo_30mb_nova,0.997085,1,2000.000000,1,COMPLETED_SUCCESSFULLY,993.902010,160.399990,1154.302000,992.904925,1153.304915,7.190181,2,-1.000000,""
125,w0,python3action_facedetection_SampleVideo_30mb,0.000000,1,-1.000000,1,COMPLETED_SUCCESSFULLY,1154.302015,0.000010,1154.302025,1154.302015,1154.302025,115430202.523907,2,-1.000000,""
128_updated,w0,python3action_linpack_6000_orion,0.997085,1,2000.000000,1,COMPLETED_SUCCESSFULLY,1066.763507,106.000000,1172.763507,1065.766422,1171.766422,11.054400,26,-1.000000,""
128,w0,python3action_linpack_6000,0.000000,1,-1.000000,1,COMPLETED_SUCCESSFULLY,1172.763522,0.000010,1172.763532,1172.763522,1172.763532,117276353.229697,26,-1.000000,""
2_updated,w0,python3action_imageprocessing_SampleImage_60mb_troll,0.997085,1,2000.000000,1,COMPLETED_SUCCESSFULLY,1131.270009,62.000000,1193.270009,1130.272924,1192.272924,19.230208,44,-1.000000,""
2,w0,python3action_imageprocessing_SampleImage_60mb,0.000000,1,-1.000000,1,COMPLETED_SUCCESSFULLY,1193.270024,0.000010,1193.270034,1193.270024,1193.270034,119327003.409582,44,-1.000000,""
120_updated,w0,python3action_facedetection_SampleVideo_50mb_taurus,0.997085,1,2000.000000,1,COMPLETED_SUCCESSFULLY,1078.256055,134.600046,1212.856101,1077.258970,1211.859016,9.003407,29,-1.000000,""
120,w0,python3action_facedetection_SampleVideo_50mb,0.000000,1,-1.000000,1,COMPLETED_SUCCESSFULLY,1212.856116,0.000010,1212.856126,1212.856116,1212.856126,121285612.613881,29,-1.000000,""
11_updated,w0,python3action_imageprocessing_SampleImage_60mb_troll,0.997085,1,2000.000000,1,COMPLETED_SUCCESSFULLY,1193.270054,62.000000,1255.270054,1192.272969,1254.272969,20.230209,44,-1.000000,""
11,w0,python3action_imageprocessing_SampleImage_60mb,0.000000,1,-1.000000,1,COMPLETED_SUCCESSFULLY,1255.270069,0.000010,1255.270079,1255.270069,1255.270079,125527007.910184,44,-1.000000,""
178_updated,w0,python3action_linpack_6000_orion,0.997085,1,2000.000000,1,COMPLETED_SUCCESSFULLY,1172.763552,106.000000,1278.763552,1171.766467,1277.766467,12.054401,26,-1.000000,""
178,w0,python3action_linpack_6000,0.000000,1,-1.000000,1,COMPLETED_SUCCESSFULLY,1278.763567,0.000010,1278.763577,1278.763567,1278.763577,127876357.730299,26,-1.000000,""
134_updated,w0,python3action_facedetection_SampleVideo_30mb_nova,0.997085,1,2000.000000,1,COMPLETED_SUCCESSFULLY,1154.302045,160.399990,1314.702035,1153.304960,1313.704950,8.190181,2,-1.000000,""
134,w0,python3action_facedetection_SampleVideo_30mb,0.000000,1,-1.000000,1,COMPLETED_SUCCESSFULLY,1314.702050,0.000010,1314.702060,1314.702050,1314.702060,131470206.047613,2,-1.000000,""
13_updated,w0,python3action_imageprocessing_SampleImage_60mb_troll,0.997085,1,2000.000000,1,COMPLETED_SUCCESSFULLY,1255.270099,62.000000,1317.270099,1254.273014,1316.273014,21.230210,44,-1.000000,""
13,w0,python3action_imageprocessing_SampleImage_60mb,0.000000,1,-1.000000,1,COMPLETED_SUCCESSFULLY,1317.270114,0.000010,1317.270124,1317.270114,1317.270124,131727012.410787,44,-1.000000,""
131_updated,w0,python3action_facedetection_SampleVideo_50mb_taurus,0.997085,1,2000.000000,1,COMPLETED_SUCCESSFULLY,1212.856146,134.600046,1347.456192,1211.859061,1346.459107,10.003407,29,-1.000000,""
131,w0,python3action_facedetection_SampleVideo_50mb,0.000000,1,-1.000000,1,COMPLETED_SUCCESSFULLY,1347.456207,0.000010,1347.456217,1347.456207,1347.456217,134745621.727562,29,-1.000000,""
46_updated,w0,python3action_imageprocessing_SampleImage_60mb_troll,0.997085,1,2000.000000,1,COMPLETED_SUCCESSFULLY,1317.270144,62.000000,1379.270144,1316.273059,1378.273059,22.230211,44,-1.000000,""
46,w0,python3action_imageprocessing_SampleImage_60mb,0.000000,1,-1.000000,1,COMPLETED_SUCCESSFULLY,1379.270159,0.000010,1379.270169,1379.270159,1379.270169,137927016.911389,44,-1.000000,""
192_updated,w0,python3action_linpack_6000_orion,0.997085,1,2000.000000,1,COMPLETED_SUCCESSFULLY,1278.763597,106.000000,1384.763597,1277.766512,1383.766512,13.054401,26,-1.000000,""
192,w0,python3action_linpack_6000,0.000000,1,-1.000000,1,COMPLETED_SUCCESSFULLY,1384.763612,0.000010,1384.763622,1384.763612,1384.763622,138476362.230901,26,-1.000000,""
49_updated,w0,python3action_imageprocessing_SampleImage_60mb_troll,0.997085,1,2000.000000,1,COMPLETED_SUCCESSFULLY,1379.270189,62.000000,1441.270189,1378.273104,1440.273104,23.230211,44,-1.000000,""
49,w0,python3action_imageprocessing_SampleImage_60mb,0.000000,1,-1.000000,1,COMPLETED_SUCCESSFULLY,1441.270204,0.000010,1441.270214,1441.270204,1441.270214,144127021.411992,44,-1.000000,""
137_updated,w0,python3action_facedetection_SampleVideo_30mb_nova,0.997085,1,2000.000000,1,COMPLETED_SUCCESSFULLY,1314.702080,160.399990,1475.102071,1313.704995,1474.104986,9.190181,2,-1.000000,""
137,w0,python3action_facedetection_SampleVideo_30mb,0.000000,1,-1.000000,1,COMPLETED_SUCCESSFULLY,1475.102086,0.000010,1475.102096,1475.102086,1475.102096,147510209.600201,2,-1.000000,""
135_updated,w0,python3action_facedetection_SampleVideo_50mb_taurus,0.997085,1,2000.000000,1,COMPLETED_SUCCESSFULLY,1347.456237,134.600046,1482.056283,1346.459152,1481.059198,11.003408,29,-1.000000,""
135,w0,python3action_facedetection_SampleVideo_50mb,0.000000,1,-1.000000,1,COMPLETED_SUCCESSFULLY,1482.056298,0.000010,1482.056308,1482.056298,1482.056308,148205630.841242,29,-1.000000,""
74_updated,w0,python3action_imageprocessing_SampleImage_60mb_troll,0.997085,1,2000.000000,1,COMPLETED_SUCCESSFULLY,1441.270234,62.000000,1503.270234,1440.273149,1502.273149,24.230212,44,-1.000000,""
74,w0,python3action_imageprocessing_SampleImage_60mb,0.000000,1,-1.000000,1,COMPLETED_SUCCESSFULLY,1503.270249,0.000010,1503.270259,1503.270249,1503.270259,150327025.912594,44,-1.000000,""
82_updated,w0,python3action_imageprocessing_SampleImage_60mb_troll,0.997085,1,2000.000000,1,COMPLETED_SUCCESSFULLY,1503.270279,62.000000,1565.270279,1502.273194,1564.273194,25.230213,44,-1.000000,""
82,w0,python3action_imageprocessing_SampleImage_60mb,0.000000,1,-1.000000,1,COMPLETED_SUCCESSFULLY,1565.270294,0.000010,1565.270304,1565.270294,1565.270304,156527030.413196,44,-1.000000,""
141_updated,w0,python3action_facedetection_SampleVideo_50mb_taurus,0.997085,1,2000.000000,1,COMPLETED_SUCCESSFULLY,1482.056328,134.600046,1616.656375,1481.059243,1615.659290,12.003408,29,-1.000000,""
141,w0,python3action_facedetection_SampleVideo_50mb,0.000000,1,-1.000000,1,COMPLETED_SUCCESSFULLY,1616.656390,0.000010,1616.656400,1616.656390,1616.656400,161665640.000201,29,-1.000000,""
98_updated,w0,python3action_imageprocessing_SampleImage_60mb_troll,0.997085,1,2000.000000,1,COMPLETED_SUCCESSFULLY,1565.270324,62.000000,1627.270324,1564.273239,1626.273239,26.230214,44,-1.000000,""
98,w0,python3action_imageprocessing_SampleImage_60mb,0.000000,1,-1.000000,1,COMPLETED_SUCCESSFULLY,1627.270339,0.000010,1627.270349,1627.270339,1627.270349,162727034.913799,44,-1.000000,""
148_updated,w0,python3action_facedetection_SampleVideo_30mb_nova,0.997085,1,2000.000000,1,COMPLETED_SUCCESSFULLY,1475.102116,160.399990,1635.502106,1474.105031,1634.505021,10.190182,2,-1.000000,""
148,w0,python3action_facedetection_SampleVideo_30mb,0.000000,1,-1.000000,1,COMPLETED_SUCCESSFULLY,1635.502121,0.000010,1635.502131,1635.502121,1635.502131,163550213.123907,2,-1.000000,""
109_updated,w0,python3action_imageprocessing_SampleImage_60mb_troll,0.997085,1,2000.000000,1,COMPLETED_SUCCESSFULLY,1627.270369,62.000000,1689.270369,1626.273284,1688.273284,27.230214,44,-1.000000,""
109,w0,python3action_imageprocessing_SampleImage_60mb,0.000000,1,-1.000000,1,COMPLETED_SUCCESSFULLY,1689.270384,0.000010,1689.270394,1689.270384,1689.270394,168927039.414401,44,-1.000000,""
151_updated,w0,python3action_facedetection_SampleVideo_50mb_taurus,0.997085,1,2000.000000,1,COMPLETED_SUCCESSFULLY,1616.656420,134.600046,1751.256466,1615.659335,1750.259381,13.003408,29,-1.000000,""
151,w0,python3action_facedetection_SampleVideo_50mb,0.000000,1,-1.000000,1,COMPLETED_SUCCESSFULLY,1751.256481,0.000010,1751.256491,1751.256481,1751.256491,175125649.113881,29,-1.000000,""
175_updated,w0,python3action_imageprocessing_SampleImage_60mb_troll,0.997085,1,2000.000000,1,COMPLETED_SUCCESSFULLY,1689.270414,62.000000,1751.270414,1688.273329,1750.273329,28.230215,44,-1.000000,""
175,w0,python3action_imageprocessing_SampleImage_60mb,0.000000,1,-1.000000,1,COMPLETED_SUCCESSFULLY,1751.270429,0.000010,1751.270439,1751.270429,1751.270439,175127043.915004,44,-1.000000,""
184_updated,w0,python3action_facedetection_SampleVideo_30mb_nova,0.997085,1,2000.000000,1,COMPLETED_SUCCESSFULLY,1635.502151,160.399990,1795.902141,1634.505066,1794.905056,11.190182,2,-1.000000,""
184,w0,python3action_facedetection_SampleVideo_30mb,0.000000,1,-1.000000,1,COMPLETED_SUCCESSFULLY,1795.902156,0.000010,1795.902166,1795.902156,1795.902166,179590216.647613,2,-1.000000,""
python3action_floatoperation_job10_1,w0,python3action_floatoperation,0.997085,1,2000.000000,1,COMPLETED_SUCCESSFULLY,1795.902186,2.439945,1798.342132,1794.905101,1797.345047,736.633338,2,-1.000000,""
188_updated,w0,python3action_imageprocessing_SampleImage_60mb_troll,0.997085,1,2000.000000,1,COMPLETED_SUCCESSFULLY,1751.270459,62.000000,1813.270459,1750.273374,1812.273374,29.230216,44,-1.000000,""
188,w0,python3action_imageprocessing_SampleImage_60mb,0.000000,1,-1.000000,1,COMPLETED_SUCCESSFULLY,1813.270474,0.000010,1813.270484,1813.270474,1813.270484,181327048.415606,44,-1.000000,""
193_updated,w0,python3action_imageprocessing_SampleImage_60mb_troll,0.997085,1,2000.000000,1,COMPLETED_SUCCESSFULLY,1813.270504,62.000000,1875.270504,1812.273419,1874.273419,30.230216,44,-1.000000,""
193,w0,python3action_imageprocessing_SampleImage_60mb,0.000000,1,-1.000000,1,COMPLETED_SUCCESSFULLY,1875.270519,0.000010,1875.270529,1875.270519,1875.270529,187527052.916208,44,-1.000000,""
159_updated,w0,python3action_facedetection_SampleVideo_50mb_taurus,0.997085,1,2000.000000,1,COMPLETED_SUCCESSFULLY,1751.256511,134.600046,1885.856557,1750.259426,1884.859472,14.003409,29,-1.000000,""
159,w0,python3action_facedetection_SampleVideo_50mb,0.000000,1,-1.000000,1,COMPLETED_SUCCESSFULLY,1885.856572,0.000010,1885.856582,1885.856572,1885.856582,188585658.227562,29,-1.000000,""
10_updated,w0,python3action_floatoperation_200000000_nova,0.997085,1,2000.000000,1,COMPLETED_SUCCESSFULLY,1798.342147,135.399990,1933.742137,1797.345062,1932.745052,14.274337,2,-1.000000,""
10,w0,python3action_floatoperation_200000000,0.000000,1,-1.000000,1,COMPLETED_SUCCESSFULLY,1933.742152,0.000010,1933.742162,1933.742152,1933.742162,193374216.223505,2,-1.000000,""
170_updated,w0,python3action_facedetection_SampleVideo_50mb_taurus,0.997085,1,2000.000000,1,COMPLETED_SUCCESSFULLY,1885.856602,134.600046,2020.456648,1884.859517,2019.459563,15.003409,29,-1.000000,""
170,w0,python3action_facedetection_SampleVideo_50mb,0.000000,1,-1.000000,1,COMPLETED_SUCCESSFULLY,2020.456663,0.000010,2020.456673,2020.456663,2020.456673,202045667.341242,29,-1.000000,""
python3action_image_processing_job5_3,w0,python3action_image_processing_reduced_0.86,0.997085,1,2000.000000,1,COMPLETED_SUCCESSFULLY,2020.456693,9.731413,2030.188106,2019.459608,2029.191021,208.519672,29,-1.000000,""
5_updated,w0,python3action_imageprocessing_SampleImage_40mb_taurus,0.997085,1,2000.000000,1,COMPLETED_SUCCESSFULLY,2030.188121,32.600046,2062.788167,2029.191036,2061.791082,63.245036,29,-1.000000,""
5,w0,python3action_imageprocessing_SampleImage_40mb,0.000000,1,-1.000000,1,COMPLETED_SUCCESSFULLY,2062.788182,0.000010,2062.788192,2062.788182,2062.788192,206278819.243107,29,-1.000000,""
34_updated,w0,python3action_floatoperation_200000000_nova,0.997085,1,2000.000000,1,COMPLETED_SUCCESSFULLY,1933.742182,135.399990,2069.142172,1932.745097,2068.145087,15.274337,2,-1.000000,""
34,w0,python3action_floatoperation_200000000,0.000000,1,-1.000000,1,COMPLETED_SUCCESSFULLY,2069.142187,0.000010,2069.142197,2069.142187,2069.142197,206914219.747211,2,-1.000000,""
7_updated,w0,python3action_imageprocessing_SampleImage_40mb_taurus,0.997085,1,2000.000000,1,COMPLETED_SUCCESSFULLY,2062.788212,32.600046,2095.388259,2061.791127,2094.391174,64.245037,29,-1.000000,""
7,w0,python3action_imageprocessing_SampleImage_40mb,0.000000,1,-1.000000,1,COMPLETED_SUCCESSFULLY,2095.388274,0.000010,2095.388284,2095.388274,2095.388284,209538828.400201,29,-1.000000,""
14_updated,w0,python3action_imageprocessing_SampleImage_40mb_taurus,0.997085,1,2000.000000,1,COMPLETED_SUCCESSFULLY,2095.388304,32.600046,2127.988350,2094.391219,2126.991265,65.245039,29,-1.000000,""
14,w0,python3action_imageprocessing_SampleImage_40mb,0.000000,1,-1.000000,1,COMPLETED_SUCCESSFULLY,2127.988365,0.000010,2127.988375,2127.988365,2127.988375,212798837.513881,29,-1.000000,""
18_updated,w0,python3action_imageprocessing_SampleImage_40mb_taurus,0.997085,1,2000.000000,1,COMPLETED_SUCCESSFULLY,2127.988395,32.600046,2160.588441,2126.991310,2159.591356,66.245040,29,-1.000000,""
18,w0,python3action_imageprocessing_SampleImage_40mb,0.000000,1,-1.000000,1,COMPLETED_SUCCESSFULLY,2160.588456,0.000010,2160.588466,2160.588456,2160.588466,216058846.627562,29,-1.000000,""
22_updated,w0,python3action_imageprocessing_SampleImage_40mb_taurus,0.997085,1,2000.000000,1,COMPLETED_SUCCESSFULLY,2160.588486,32.600046,2193.188532,2159.591401,2192.191447,67.245041,29,-1.000000,""
22,w0,python3action_imageprocessing_SampleImage_40mb,0.000000,1,-1.000000,1,COMPLETED_SUCCESSFULLY,2193.188547,0.000010,2193.188557,2193.188547,2193.188557,219318855.741242,29,-1.000000,""
42_updated,w0,python3action_floatoperation_200000000_nova,0.997085,1,2000.000000,1,COMPLETED_SUCCESSFULLY,2069.142217,135.399990,2204.542208,2068.145132,2203.545123,16.274337,2,-1.000000,""
42,w0,python3action_floatoperation_200000000,0.000000,1,-1.000000,1,COMPLETED_SUCCESSFULLY,2204.542223,0.000010,2204.542233,2204.542223,2204.542233,220454223.300201,2,-1.000000,""
26_updated,w0,python3action_imageprocessing_SampleImage_40mb_taurus,0.997085,1,2000.000000,1,COMPLETED_SUCCESSFULLY,2193.188577,32.600046,2225.788624,2192.191492,2224.791539,68.245043,29,-1.000000,""
26,w0,python3action_imageprocessing_SampleImage_40mb,0.000000,1,-1.000000,1,COMPLETED_SUCCESSFULLY,2225.788639,0.000010,2225.788649,2225.788639,2225.788649,222578864.900201,29,-1.000000,""
60_updated,w0,python3action_imageprocessing_SampleImage_40mb_taurus,0.997085,1,2000.000000,1,COMPLETED_SUCCESSFULLY,2225.788669,32.600046,2258.388715,2224.791584,2257.391630,69.245044,29,-1.000000,""
60,w0,python3action_imageprocessing_SampleImage_40mb,0.000000,1,-1.000000,1,COMPLETED_SUCCESSFULLY,2258.388730,0.000010,2258.388740,2258.388730,2258.388740,225838874.013881,29,-1.000000,""
81_updated,w0,python3action_imageprocessing_SampleImage_40mb_taurus,0.997085,1,2000.000000,1,COMPLETED_SUCCESSFULLY,2258.388760,32.600046,2290.988806,2257.391675,2289.991721,70.245045,29,-1.000000,""
81,w0,python3action_imageprocessing_SampleImage_40mb,0.000000,1,-1.000000,1,COMPLETED_SUCCESSFULLY,2290.988821,0.000010,2290.988831,2290.988821,2290.988831,229098883.127562,29,-1.000000,""
114_updated,w0,python3action_imageprocessing_SampleImage_40mb_taurus,0.997085,1,2000.000000,1,COMPLETED_SUCCESSFULLY,2290.988851,32.600046,2323.588897,2289.991766,2322.591812,71.245047,29,-1.000000,""
114,w0,python3action_imageprocessing_SampleImage_40mb,0.000000,1,-1.000000,1,COMPLETED_SUCCESSFULLY,2323.588912,0.000010,2323.588922,2323.588912,2323.588922,232358892.241242,29,-1.000000,""
47_updated,w0,python3action_floatoperation_200000000_nova,0.997085,1,2000.000000,1,COMPLETED_SUCCESSFULLY,2204.542253,135.399990,2339.942243,2203.545168,2338.945158,17.274338,2,-1.000000,""
47,w0,python3action_floatoperation_200000000,0.000000,1,-1.000000,1,COMPLETED_SUCCESSFULLY,2339.942258,0.000010,2339.942268,2339.942258,2339.942268,233994226.823907,2,-1.000000,""
116_updated,w0,python3action_imageprocessing_SampleImage_40mb_taurus,0.997085,1,2000.000000,1,COMPLETED_SUCCESSFULLY,2323.588942,32.600046,2356.188989,2322.591857,2355.191904,72.245048,29,-1.000000,""
116,w0,python3action_imageprocessing_SampleImage_40mb,0.000000,1,-1.000000,1,COMPLETED_SUCCESSFULLY,2356.189004,0.000010,2356.189014,2356.189004,2356.189014,235618901.400201,29,-1.000000,""
123_updated,w0,python3action_imageprocessing_SampleImage_40mb_taurus,0.997085,1,2000.000000,1,COMPLETED_SUCCESSFULLY,2356.189034,32.600046,2388.789080,2355.191949,2387.791995,73.245050,29,-1.000000,""
123,w0,python3action_imageprocessing_SampleImage_40mb,0.000000,1,-1.000000,1,COMPLETED_SUCCESSFULLY,2388.789095,0.000010,2388.789105,2388.789095,2388.789105,238878910.513881,29,-1.000000,""
54_updated,w0,python3action_floatoperation_100000000_nova,0.997085,1,2000.000000,1,COMPLETED_SUCCESSFULLY,2339.942288,66.200020,2406.142308,2338.945203,2405.145223,36.331488,2,-1.000000,""
54,w0,python3action_floatoperation_100000000,0.000000,1,-1.000000,1,COMPLETED_SUCCESSFULLY,2406.142323,0.000010,2406.142333,2406.142323,2406.142333,240614233.300201,2,-1.000000,""
164_updated,w0,python3action_imageprocessing_SampleImage_40mb_taurus,0.997085,1,2000.000000,1,COMPLETED_SUCCESSFULLY,2388.789125,32.600046,2421.389171,2387.792040,2420.392086,74.245051,29,-1.000000,""
164,w0,python3action_imageprocessing_SampleImage_40mb,0.000000,1,-1.000000,1,COMPLETED_SUCCESSFULLY,2421.389186,0.000010,2421.389196,2421.389186,2421.389196,242138919.627562,29,-1.000000,""
199_updated,w0,python3action_imageprocessing_SampleImage_40mb_taurus,0.997085,1,2000.000000,1,COMPLETED_SUCCESSFULLY,2421.389216,32.600046,2453.989262,2420.392131,2452.992177,75.245052,29,-1.000000,""
199,w0,python3action_imageprocessing_SampleImage_40mb,0.000000,1,-1.000000,1,COMPLETED_SUCCESSFULLY,2453.989277,0.000010,2453.989287,2453.989277,2453.989287,245398928.741243,29,-1.000000,""
python3action_linpack_job90_3,w0,python3action_linpack_reduced_0.85,0.997085,1,2000.000000,1,COMPLETED_SUCCESSFULLY,2453.989307,0.864139,2454.853447,2452.992222,2453.856362,2839.654410,29,-1.000000,""
56_updated,w0,python3action_floatoperation_200000000_nova,0.997085,1,2000.000000,1,COMPLETED_SUCCESSFULLY,2406.142353,135.399990,2541.542343,2405.145268,2540.545258,18.763260,2,-1.000000,""
56,w0,python3action_floatoperation_200000000,0.000000,1,-1.000000,1,COMPLETED_SUCCESSFULLY,2541.542358,0.000010,2541.542368,2541.542358,2541.542368,254154236.823907,2,-1.000000,""
86_updated,w0,python3action_floatoperation_100000000_nova,0.997085,1,2000.000000,1,COMPLETED_SUCCESSFULLY,2541.542388,66.200020,2607.742408,2540.545303,2606.745323,39.376806,2,-1.000000,""
86,w0,python3action_floatoperation_100000000,0.000000,1,-1.000000,1,COMPLETED_SUCCESSFULLY,2607.742423,0.000010,2607.742433,2607.742423,2607.742433,260774243.300201,2,-1.000000,""
90_updated,w0,python3action_linpack_6000_taurus,0.997085,1,2000.000000,1,COMPLETED_SUCCESSFULLY,2454.853462,157.600046,2612.453508,2453.856377,2611.456423,16.570150,29,-1.000000,""
90,w0,python3action_linpack_6000,0.000000,1,-1.000000,1,COMPLETED_SUCCESSFULLY,2612.453523,0.000010,2612.453533,2612.453523,2612.453533,261245353.313480,29,-1.000000,""
python3action_video_processing_job0_3,w0,python3action_video_processing_reduced_1.83,0.997085,1,2000.000000,1,COMPLETED_SUCCESSFULLY,2612.453553,0.000000,2612.453553,2611.456468,2611.456468,22608872064170.078125,29,-1.000000,""
92_updated,w0,python3action_floatoperation_100000000_nova,0.997085,1,2000.000000,1,COMPLETED_SUCCESSFULLY,2607.742453,66.200020,2673.942473,2606.745368,2672.945388,40.376807,2,-1.000000,""
92,w0,python3action_floatoperation_100000000,0.000000,1,-1.000000,1,COMPLETED_SUCCESSFULLY,2673.942488,0.000010,2673.942498,2673.942488,2673.942498,267394249.800201,2,-1.000000,""
0_updated,w0,python3action_videoprocessing_SampleVideo_50mb_taurus,0.997085,1,2000.000000,1,COMPLETED_SUCCESSFULLY,2612.453583,154.250029,2766.703612,2611.456498,2765.706527,17.930023,29,-1.000000,""
0,w0,python3action_videoprocessing_SampleVideo_50mb,0.000000,1,-1.000000,1,COMPLETED_SUCCESSFULLY,2766.703627,0.000010,2766.703637,2766.703627,2766.703637,276670363.700201,29,-1.000000,""
93_updated,w0,python3action_floatoperation_200000000_nova,0.997085,1,2000.000000,1,COMPLETED_SUCCESSFULLY,2673.942518,135.399990,2809.342508,2672.945433,2808.345423,20.741105,2,-1.000000,""
93,w0,python3action_floatoperation_200000000,0.000000,1,-1.000000,1,COMPLETED_SUCCESSFULLY,2809.342523,0.000010,2809.342533,2809.342523,2809.342533,280934253.323907,2,-1.000000,""
4_updated,w0,python3action_videoprocessing_SampleVideo_50mb_taurus,0.997085,1,2000.000000,1,COMPLETED_SUCCESSFULLY,2766.703657,154.250029,2920.953686,2765.706572,2919.956601,18.930023,29,-1.000000,""
4,w0,python3action_videoprocessing_SampleVideo_50mb,0.000000,1,-1.000000,1,COMPLETED_SUCCESSFULLY,2920.953701,0.000010,2920.953711,2920.953701,2920.953711,292095371.100201,29,-1.000000,""
95_updated,w0,python3action_floatoperation_200000000_nova,0.997085,1,2000.000000,1,COMPLETED_SUCCESSFULLY,2809.342553,135.399990,2944.742543,2808.345468,2943.745458,21.741105,2,-1.000000,""
95,w0,python3action_floatoperation_200000000,0.000000,1,-1.000000,1,COMPLETED_SUCCESSFULLY,2944.742558,0.000010,2944.742568,2944.742558,2944.742568,294474256.847613,2,-1.000000,""
100_updated,w0,python3action_floatoperation_100000000_nova,0.997085,1,2000.000000,1,COMPLETED_SUCCESSFULLY,2944.742588,66.200020,3010.942608,2943.745503,3009.945523,45.467442,2,-1.000000,""
100,w0,python3action_floatoperation_100000000,0.000000,1,-1.000000,1,COMPLETED_SUCCESSFULLY,3010.942623,0.000010,3010.942633,3010.942623,3010.942633,301094263.302008,2,-1.000000,""
40_updated,w0,python3action_videoprocessing_SampleVideo_50mb_taurus,0.997085,1,2000.000000,1,COMPLETED_SUCCESSFULLY,2920.953731,154.250029,3075.203760,2919.956646,3074.206675,19.930023,29,-1.000000,""
40,w0,python3action_videoprocessing_SampleVideo_50mb,0.000000,1,-1.000000,1,COMPLETED_SUCCESSFULLY,3075.203775,0.000010,3075.203785,3075.203775,3075.203785,307520378.500201,29,-1.000000,""
105_updated,w0,python3action_floatoperation_200000000_nova,0.997085,1,2000.000000,1,COMPLETED_SUCCESSFULLY,3010.942653,135.399990,3146.342643,3009.945568,3145.345558,23.230028,2,-1.000000,""
105,w0,python3action_floatoperation_200000000,0.000000,1,-1.000000,1,COMPLETED_SUCCESSFULLY,3146.342658,0.000010,3146.342668,3146.342658,3146.342668,314634266.825715,2,-1.000000,""
43_updated,w0,python3action_videoprocessing_SampleVideo_50mb_taurus,0.997085,1,2000.000000,1,COMPLETED_SUCCESSFULLY,3075.203805,154.250029,3229.453834,3074.206720,3228.456749,20.930024,29,-1.000000,""
43,w0,python3action_videoprocessing_SampleVideo_50mb,0.000000,1,-1.000000,1,COMPLETED_SUCCESSFULLY,3229.453849,0.000010,3229.453859,3229.453849,3229.453859,322945385.900201,29,-1.000000,""
110_updated,w0,python3action_floatoperation_200000000_nova,0.997085,1,2000.000000,1,COMPLETED_SUCCESSFULLY,3146.342688,135.399990,3281.742678,3145.345603,3280.745593,24.230028,2,-1.000000,""
110,w0,python3action_floatoperation_200000000,0.000000,1,-1.000000,1,COMPLETED_SUCCESSFULLY,3281.742693,0.000010,3281.742703,3281.742693,3281.742703,328174270.349421,2,-1.000000,""
52_updated,w0,python3action_videoprocessing_SampleVideo_50mb_taurus,0.997085,1,2000.000000,1,COMPLETED_SUCCESSFULLY,3229.453879,154.250029,3383.703908,3228.456794,3382.706823,21.930024,29,-1.000000,""
52,w0,python3action_videoprocessing_SampleVideo_50mb,0.000000,1,-1.000000,1,COMPLETED_SUCCESSFULLY,3383.703923,0.000010,3383.703933,3383.703923,3383.703933,338370393.300201,29,-1.000000,""
118_updated,w0,python3action_floatoperation_200000000_nova,0.997085,1,2000.000000,1,COMPLETED_SUCCESSFULLY,3281.742723,135.399990,3417.142714,3280.745638,3416.145629,25.230029,2,-1.000000,""
118,w0,python3action_floatoperation_200000000,0.000000,1,-1.000000,1,COMPLETED_SUCCESSFULLY,3417.142729,0.000010,3417.142739,3417.142729,3417.142739,341714273.900201,2,-1.000000,""
70_updated,w0,python3action_videoprocessing_SampleVideo_50mb_taurus,0.997085,1,2000.000000,1,COMPLETED_SUCCESSFULLY,3383.703953,154.250029,3537.953982,3382.706868,3536.956897,22.930024,29,-1.000000,""
70,w0,python3action_videoprocessing_SampleVideo_50mb,0.000000,1,-1.000000,1,COMPLETED_SUCCESSFULLY,3537.953997,0.000010,3537.954007,3537.953997,3537.954007,353795400.700201,29,-1.000000,""
121_updated,w0,python3action_floatoperation_200000000_nova,0.997085,1,2000.000000,1,COMPLETED_SUCCESSFULLY,3417.142759,135.399990,3552.542749,3416.145674,3551.545664,26.230029,2,-1.000000,""
121,w0,python3action_floatoperation_200000000,0.000000,1,-1.000000,1,COMPLETED_SUCCESSFULLY,3552.542764,0.000010,3552.542774,3552.542764,3552.542774,355254277.423907,2,-1.000000,""
145_updated,w0,python3action_floatoperation_100000000_nova,0.997085,1,2000.000000,1,COMPLETED_SUCCESSFULLY,3552.542794,66.200020,3618.742814,3551.545709,3617.745729,54.648711,2,-1.000000,""
145,w0,python3action_floatoperation_100000000,0.000000,1,-1.000000,1,COMPLETED_SUCCESSFULLY,3618.742829,0.000010,3618.742839,3618.742829,3618.742839,361874283.900201,2,-1.000000,""
153_updated,w0,python3action_floatoperation_100000000_nova,0.997085,1,2000.000000,1,COMPLETED_SUCCESSFULLY,3618.742859,66.200020,3684.942879,3617.745774,3683.945794,55.648712,2,-1.000000,""
153,w0,python3action_floatoperation_100000000,0.000000,1,-1.000000,1,COMPLETED_SUCCESSFULLY,3684.942894,0.000010,3684.942904,3684.942894,3684.942904,368494290.400201,2,-1.000000,""
83_updated,w0,python3action_videoprocessing_SampleVideo_50mb_taurus,0.997085,1,2000.000000,1,COMPLETED_SUCCESSFULLY,3537.954027,154.250029,3692.204056,3536.956942,3691.206971,23.930025,29,-1.000000,""
83,w0,python3action_videoprocessing_SampleVideo_50mb,0.000000,1,-1.000000,1,COMPLETED_SUCCESSFULLY,3692.204071,0.000010,3692.204081,3692.204071,3692.204081,369220408.100201,29,-1.000000,""
162_updated,w0,python3action_floatoperation_100000000_nova,0.997085,1,2000.000000,1,COMPLETED_SUCCESSFULLY,3684.942924,66.200020,3751.142944,3683.945839,3750.145859,56.648712,2,-1.000000,""
162,w0,python3action_floatoperation_100000000,0.000000,1,-1.000000,1,COMPLETED_SUCCESSFULLY,3751.142959,0.000010,3751.142969,3751.142959,3751.142969,375114296.900201,2,-1.000000,""
163_updated,w0,python3action_floatoperation_100000000_nova,0.997085,1,2000.000000,1,COMPLETED_SUCCESSFULLY,3751.142989,66.200020,3817.343009,3750.145904,3816.345924,57.648713,2,-1.000000,""
163,w0,python3action_floatoperation_100000000,0.000000,1,-1.000000,1,COMPLETED_SUCCESSFULLY,3817.343024,0.000010,3817.343034,3817.343024,3817.343034,381734303.400201,2,-1.000000,""
106_updated,w0,python3action_videoprocessing_SampleVideo_50mb_taurus,0.997085,1,2000.000000,1,COMPLETED_SUCCESSFULLY,3692.204101,154.250029,3846.454130,3691.207016,3845.457045,24.930025,29,-1.000000,""
106,w0,python3action_videoprocessing_SampleVideo_50mb,0.000000,1,-1.000000,1,COMPLETED_SUCCESSFULLY,3846.454145,0.000010,3846.454155,3846.454145,3846.454155,384645415.500201,29,-1.000000,""
180_updated,w0,python3action_floatoperation_200000000_nova,0.997085,1,2000.000000,1,COMPLETED_SUCCESSFULLY,3817.343054,135.399990,3952.743044,3816.345969,3951.745959,29.185718,2,-1.000000,""
180,w0,python3action_floatoperation_200000000,0.000000,1,-1.000000,1,COMPLETED_SUCCESSFULLY,3952.743059,0.000010,3952.743069,3952.743059,3952.743069,395274306.923907,2,-1.000000,""
119_updated,w0,python3action_videoprocessing_SampleVideo_50mb_taurus,0.997085,1,2000.000000,1,COMPLETED_SUCCESSFULLY,3846.454175,154.250029,4000.704204,3845.457090,3999.707119,25.930025,29,-1.000000,""
119,w0,python3action_videoprocessing_SampleVideo_50mb,0.000000,1,-1.000000,1,COMPLETED_SUCCESSFULLY,4000.704219,0.000010,4000.704229,4000.704219,4000.704229,400070422.900201,29,-1.000000,""
187_updated,w0,python3action_floatoperation_100000000_nova,0.997085,1,2000.000000,1,COMPLETED_SUCCESSFULLY,3952.743089,66.200020,4018.943109,3951.746004,4017.946024,60.694031,2,-1.000000,""
187,w0,python3action_floatoperation_100000000,0.000000,1,-1.000000,1,COMPLETED_SUCCESSFULLY,4018.943124,0.000010,4018.943134,4018.943124,4018.943134,401894313.400201,2,-1.000000,""
python3action_linpack_job12_1,w0,python3action_linpack,0.997085,1,2000.000000,1,COMPLETED_SUCCESSFULLY,4018.943154,2.439945,4021.383099,4017.946069,4020.386014,1647.736129,2,-1.000000,""
12_updated,w0,python3action_linpack_5000_nova,0.997085,1,2000.000000,1,COMPLETED_SUCCESSFULLY,4021.383114,34.600010,4055.983124,4020.386029,4054.986039,117.196095,2,-1.000000,""
12,w0,python3action_linpack_5000,0.000000,1,-1.000000,1,COMPLETED_SUCCESSFULLY,4055.983139,0.000010,4055.983149,4055.983139,4055.983149,405598314.907281,2,-1.000000,""
29_updated,w0,python3action_linpack_5000_nova,0.997085,1,2000.000000,1,COMPLETED_SUCCESSFULLY,4055.983169,34.600010,4090.583179,4054.986084,4089.586094,118.196097,2,-1.000000,""
29,w0,python3action_linpack_5000,0.000000,1,-1.000000,1,COMPLETED_SUCCESSFULLY,4090.583194,0.000010,4090.583204,4090.583194,4090.583204,409058320.400201,2,-1.000000,""
37_updated,w0,python3action_linpack_5000_nova,0.997085,1,2000.000000,1,COMPLETED_SUCCESSFULLY,4090.583224,34.600010,4125.183234,4089.586139,4124.186149,119.196098,2,-1.000000,""
37,w0,python3action_linpack_5000,0.000000,1,-1.000000,1,COMPLETED_SUCCESSFULLY,4125.183249,0.000010,4125.183259,4125.183249,4125.183259,412518325.900201,2,-1.000000,""
132_updated,w0,python3action_videoprocessing_SampleVideo_50mb_taurus,0.997085,1,2000.000000,1,COMPLETED_SUCCESSFULLY,4000.704249,154.250029,4154.954278,3999.707164,4153.957193,26.930025,29,-1.000000,""
132,w0,python3action_videoprocessing_SampleVideo_50mb,0.000000,1,-1.000000,1,COMPLETED_SUCCESSFULLY,4154.954293,0.000010,4154.954303,4154.954293,4154.954303,415495430.300201,29,-1.000000,""
39_updated,w0,python3action_linpack_5000_nova,0.997085,1,2000.000000,1,COMPLETED_SUCCESSFULLY,4125.183279,34.600010,4159.783289,4124.186194,4158.786204,120.196099,2,-1.000000,""
39,w0,python3action_linpack_5000,0.000000,1,-1.000000,1,COMPLETED_SUCCESSFULLY,4159.783304,0.000010,4159.783314,4159.783304,4159.783314,415978331.400201,2,-1.000000,""
55_updated,w0,python3action_linpack_5000_nova,0.997085,1,2000.000000,1,COMPLETED_SUCCESSFULLY,4159.783334,34.600010,4194.383344,4158.786249,4193.386259,121.196100,2,-1.000000,""
55,w0,python3action_linpack_5000,0.000000,1,-1.000000,1,COMPLETED_SUCCESSFULLY,4194.383359,0.000010,4194.383369,4194.383359,4194.383369,419438336.900201,2,-1.000000,""
73_updated,w0,python3action_linpack_5000_nova,0.997085,1,2000.000000,1,COMPLETED_SUCCESSFULLY,4194.383389,34.600010,4228.983399,4193.386304,4227.986314,122.196102,2,-1.000000,""
73,w0,python3action_linpack_5000,0.000000,1,-1.000000,1,COMPLETED_SUCCESSFULLY,4228.983414,0.000010,4228.983424,4228.983414,4228.983424,422898342.400201,2,-1.000000,""
89_updated,w0,python3action_linpack_5000_nova,0.997085,1,2000.000000,1,COMPLETED_SUCCESSFULLY,4228.983444,34.600010,4263.583454,4227.986359,4262.586369,123.196103,2,-1.000000,""
89,w0,python3action_linpack_5000,0.000000,1,-1.000000,1,COMPLETED_SUCCESSFULLY,4263.583469,0.000010,4263.583479,4263.583469,4263.583479,426358347.900201,2,-1.000000,""
122_updated,w0,python3action_linpack_5000_nova,0.997085,1,2000.000000,1,COMPLETED_SUCCESSFULLY,4263.583499,34.600010,4298.183509,4262.586414,4297.186424,124.196104,2,-1.000000,""
122,w0,python3action_linpack_5000,0.000000,1,-1.000000,1,COMPLETED_SUCCESSFULLY,4298.183524,0.000010,4298.183534,4298.183524,4298.183534,429818353.400201,2,-1.000000,""
144_updated,w0,python3action_videoprocessing_SampleVideo_50mb_taurus,0.997085,1,2000.000000,1,COMPLETED_SUCCESSFULLY,4154.954323,154.250029,4309.204352,4153.957238,4308.207267,27.930026,29,-1.000000,""
144,w0,python3action_videoprocessing_SampleVideo_50mb,0.000000,1,-1.000000,1,COMPLETED_SUCCESSFULLY,4309.204367,0.000010,4309.204377,4309.204367,4309.204377,430920437.700201,29,-1.000000,""
126_updated,w0,python3action_linpack_5000_nova,0.997085,1,2000.000000,1,COMPLETED_SUCCESSFULLY,4298.183554,34.600010,4332.783564,4297.186469,4331.786479,125.196106,2,-1.000000,""
126,w0,python3action_linpack_5000,0.000000,1,-1.000000,1,COMPLETED_SUCCESSFULLY,4332.783579,0.000010,4332.783589,4332.783579,4332.783589,433278358.900201,2,-1.000000,""
127_updated,w0,python3action_linpack_5000_nova,0.997085,1,2000.000000,1,COMPLETED_SUCCESSFULLY,4332.783609,34.600010,4367.383619,4331.786524,4366.386534,126.196107,2,-1.000000,""
127,w0,python3action_linpack_5000,0.000000,1,-1.000000,1,COMPLETED_SUCCESSFULLY,4367.383634,0.000010,4367.383644,4367.383634,4367.383644,436738364.400201,2,-1.000000,""
130_updated,w0,python3action_linpack_5000_nova,0.997085,1,2000.000000,1,COMPLETED_SUCCESSFULLY,4367.383664,34.600010,4401.983674,4366.386579,4400.986589,127.196108,2,-1.000000,""
130,w0,python3action_linpack_5000,0.000000,1,-1.000000,1,COMPLETED_SUCCESSFULLY,4401.983689,0.000010,4401.983699,4401.983689,4401.983699,440198369.900201,2,-1.000000,""
147_updated,w0,python3action_linpack_5000_nova,0.997085,1,2000.000000,1,COMPLETED_SUCCESSFULLY,4401.983719,34.600010,4436.583729,4400.986634,4435.586644,128.196110,2,-1.000000,""
147,w0,python3action_linpack_5000,0.000000,1,-1.000000,1,COMPLETED_SUCCESSFULLY,4436.583744,0.000010,4436.583754,4436.583744,4436.583754,443658375.400201,2,-1.000000,""
160_updated,w0,python3action_videoprocessing_SampleVideo_50mb_taurus,0.997085,1,2000.000000,1,COMPLETED_SUCCESSFULLY,4309.204397,154.250029,4463.454426,4308.207312,4462.457341,28.930026,29,-1.000000,""
160,w0,python3action_videoprocessing_SampleVideo_50mb,0.000000,1,-1.000000,1,COMPLETED_SUCCESSFULLY,4463.454441,0.000010,4463.454451,4463.454441,4463.454451,446345445.100201,29,-1.000000,""
152_updated,w0,python3action_linpack_5000_nova,0.997085,1,2000.000000,1,COMPLETED_SUCCESSFULLY,4436.583774,34.600010,4471.183784,4435.586689,4470.186699,129.196111,2,-1.000000,""
152,w0,python3action_linpack_5000,0.000000,1,-1.000000,1,COMPLETED_SUCCESSFULLY,4471.183799,0.000010,4471.183809,4471.183799,4471.183809,447118380.900201,2,-1.000000,""
161_updated,w0,python3action_linpack_5000_nova,0.997085,1,2000.000000,1,COMPLETED_SUCCESSFULLY,4471.183829,34.600010,4505.783839,4470.186744,4504.786754,130.196112,2,-1.000000,""
161,w0,python3action_linpack_5000,0.000000,1,-1.000000,1,COMPLETED_SUCCESSFULLY,4505.783854,0.000010,4505.783864,4505.783854,4505.783864,450578386.400201,2,-1.000000,""
172_updated,w0,python3action_linpack_5000_nova,0.997085,1,2000.000000,1,COMPLETED_SUCCESSFULLY,4505.783884,34.600010,4540.383894,4504.786799,4539.386809,131.196114,2,-1.000000,""
172,w0,python3action_linpack_5000,0.000000,1,-1.000000,1,COMPLETED_SUCCESSFULLY,4540.383909,0.000010,4540.383919,4540.383909,4540.383919,454038391.900201,2,-1.000000,""
181_updated,w0,python3action_linpack_5000_nova,0.997085,1,2000.000000,1,COMPLETED_SUCCESSFULLY,4540.383939,34.600010,4574.983949,4539.386854,4573.986864,132.196115,2,-1.000000,""
181,w0,python3action_linpack_5000,0.000000,1,-1.000000,1,COMPLETED_SUCCESSFULLY,4574.983964,0.000010,4574.983974,4574.983964,4574.983974,457498397.400201,2,-1.000000,""
183_updated,w0,python3action_linpack_5000_nova,0.997085,1,2000.000000,1,COMPLETED_SUCCESSFULLY,4574.983994,34.600010,4609.584004,4573.986909,4608.586919,133.196116,2,-1.000000,""
183,w0,python3action_linpack_5000,0.000000,1,-1.000000,1,COMPLETED_SUCCESSFULLY,4609.584019,0.000010,4609.584029,4609.584019,4609.584029,460958402.900201,2,-1.000000,""
169_updated,w0,python3action_videoprocessing_SampleVideo_50mb_taurus,0.997085,1,2000.000000,1,COMPLETED_SUCCESSFULLY,4463.454471,154.250029,4617.704500,4462.457386,4616.707415,29.930026,29,-1.000000,""
169,w0,python3action_videoprocessing_SampleVideo_50mb,0.000000,1,-1.000000,1,COMPLETED_SUCCESSFULLY,4617.704515,0.000010,4617.704525,4617.704515,4617.704525,461770452.500201,29,-1.000000,""
191_updated,w0,python3action_linpack_5000_nova,0.997085,1,2000.000000,1,COMPLETED_SUCCESSFULLY,4609.584049,34.600010,4644.184059,4608.586964,4643.186974,134.196117,2,-1.000000,""
191,w0,python3action_linpack_5000,0.000000,1,-1.000000,1,COMPLETED_SUCCESSFULLY,4644.184074,0.000010,4644.184084,4644.184074,4644.184084,464418408.400201,2,-1.000000,""
python3action_modeltraining_job19_1,w0,python3action_modeltraining_reduced_0.94,0.997085,1,2000.000000,1,COMPLETED_SUCCESSFULLY,4644.184104,1.794099,4645.978203,4643.187019,4644.981118,2589.032820,2,-1.000000,""
19_updated,w0,python3action_modeltraining_reviews50mb_nova,0.997085,1,2000.000000,1,COMPLETED_SUCCESSFULLY,4645.978218,42.399990,4688.378208,4644.981133,4687.381123,110.551467,2,-1.000000,""
19,w0,python3action_modeltraining_reviews50mb,0.000000,1,-1.000000,1,COMPLETED_SUCCESSFULLY,4688.378223,0.000010,4688.378233,4688.378223,4688.378233,468837823.323505,2,-1.000000,""
23_updated,w0,python3action_modeltraining_reviews50mb_nova,0.997085,1,2000.000000,1,COMPLETED_SUCCESSFULLY,4688.378253,42.399990,4730.778243,4687.381168,4729.781158,111.551468,2,-1.000000,""
23,w0,python3action_modeltraining_reviews50mb,0.000000,1,-1.000000,1,COMPLETED_SUCCESSFULLY,4730.778258,0.000010,4730.778268,4730.778258,4730.778268,473077826.847211,2,-1.000000,""
185_updated,w0,python3action_videoprocessing_SampleVideo_50mb_taurus,0.997085,1,2000.000000,1,COMPLETED_SUCCESSFULLY,4617.704545,154.250029,4771.954574,4616.707460,4770.957489,30.930027,29,-1.000000,""
185,w0,python3action_videoprocessing_SampleVideo_50mb,0.000000,1,-1.000000,1,COMPLETED_SUCCESSFULLY,4771.954589,0.000010,4771.954599,4771.954589,4771.954599,477195459.900201,29,-1.000000,""
28_updated,w0,python3action_modeltraining_reviews50mb_nova,0.997085,1,2000.000000,1,COMPLETED_SUCCESSFULLY,4730.778288,42.399990,4773.178279,4729.781203,4772.181194,112.551469,2,-1.000000,""
28,w0,python3action_modeltraining_reviews50mb,0.000000,1,-1.000000,1,COMPLETED_SUCCESSFULLY,4773.178294,0.000010,4773.178304,4773.178294,4773.178304,477317830.400201,2,-1.000000,""
38_updated,w0,python3action_modeltraining_reviews50mb_nova,0.997085,1,2000.000000,1,COMPLETED_SUCCESSFULLY,4773.178324,42.399990,4815.578314,4772.181239,4814.581229,113.551470,2,-1.000000,""
38,w0,python3action_modeltraining_reviews50mb,0.000000,1,-1.000000,1,COMPLETED_SUCCESSFULLY,4815.578329,0.000010,4815.578339,4815.578329,4815.578339,481557833.923907,2,-1.000000,""
41_updated,w0,python3action_modeltraining_reviews50mb_nova,0.997085,1,2000.000000,1,COMPLETED_SUCCESSFULLY,4815.578359,42.399990,4857.978349,4814.581274,4856.981264,114.551471,2,-1.000000,""
41,w0,python3action_modeltraining_reviews50mb,0.000000,1,-1.000000,1,COMPLETED_SUCCESSFULLY,4857.978364,0.000010,4857.978374,4857.978364,4857.978374,485797837.447613,2,-1.000000,""
51_updated,w0,python3action_modeltraining_reviews50mb_nova,0.997085,1,2000.000000,1,COMPLETED_SUCCESSFULLY,4857.978394,42.399990,4900.378385,4856.981309,4899.381300,115.551472,2,-1.000000,""
51,w0,python3action_modeltraining_reviews50mb,0.000000,1,-1.000000,1,COMPLETED_SUCCESSFULLY,4900.378400,0.000010,4900.378410,4900.378400,4900.378410,490037841.000201,2,-1.000000,""
58_updated,w0,python3action_modeltraining_reviews100mb_nova,0.997085,1,2000.000000,1,COMPLETED_SUCCESSFULLY,4900.378430,79.600010,4979.978440,4899.381345,4978.981355,62.550009,2,-1.000000,""
58,w0,python3action_modeltraining_reviews100mb,0.000000,1,-1.000000,1,COMPLETED_SUCCESSFULLY,4979.978455,0.000010,4979.978465,4979.978455,4979.978465,497997846.500201,2,-1.000000,""
66_updated,w0,python3action_modeltraining_reviews50mb_nova,0.997085,1,2000.000000,1,COMPLETED_SUCCESSFULLY,4979.978485,42.399990,5022.378475,4978.981400,5021.381390,118.428834,2,-1.000000,""
66,w0,python3action_modeltraining_reviews50mb,0.000000,1,-1.000000,1,COMPLETED_SUCCESSFULLY,5022.378490,0.000010,5022.378500,5022.378490,5022.378500,502237850.023907,2,-1.000000,""
68_updated,w0,python3action_modeltraining_reviews50mb_nova,0.997085,1,2000.000000,1,COMPLETED_SUCCESSFULLY,5022.378520,42.399990,5064.778510,5021.381435,5063.781425,119.428835,2,-1.000000,""
68,w0,python3action_modeltraining_reviews50mb,0.000000,1,-1.000000,1,COMPLETED_SUCCESSFULLY,5064.778525,0.000010,5064.778535,5064.778525,5064.778535,506477853.547613,2,-1.000000,""
69_updated,w0,python3action_modeltraining_reviews100mb_nova,0.997085,1,2000.000000,1,COMPLETED_SUCCESSFULLY,5064.778555,79.600010,5144.378565,5063.781470,5143.381480,64.615337,2,-1.000000,""
69,w0,python3action_modeltraining_reviews100mb,0.000000,1,-1.000000,1,COMPLETED_SUCCESSFULLY,5144.378580,0.000010,5144.378590,5144.378580,5144.378590,514437859.025111,2,-1.000000,""
72_updated,w0,python3action_modeltraining_reviews100mb_nova,0.997085,1,2000.000000,1,COMPLETED_SUCCESSFULLY,5144.378610,79.600010,5223.978620,5143.381525,5222.981535,65.615338,2,-1.000000,""
72,w0,python3action_modeltraining_reviews100mb,0.000000,1,-1.000000,1,COMPLETED_SUCCESSFULLY,5223.978635,0.000010,5223.978645,5223.978635,5223.978645,522397864.502610,2,-1.000000,""
87_updated,w0,python3action_modeltraining_reviews50mb_nova,0.997085,1,2000.000000,1,COMPLETED_SUCCESSFULLY,5223.978665,42.399990,5266.378655,5222.981580,5265.381570,124.183556,2,-1.000000,""
87,w0,python3action_modeltraining_reviews50mb,0.000000,1,-1.000000,1,COMPLETED_SUCCESSFULLY,5266.378670,0.000010,5266.378680,5266.378670,5266.378680,526637868.026316,2,-1.000000,""
107_updated,w0,python3action_modeltraining_reviews100mb_nova,0.997085,1,2000.000000,1,COMPLETED_SUCCESSFULLY,5266.378700,79.600010,5345.978710,5265.381615,5344.981625,67.148002,2,-1.000000,""
107,w0,python3action_modeltraining_reviews100mb,0.000000,1,-1.000000,1,COMPLETED_SUCCESSFULLY,5345.978725,0.000010,5345.978735,5345.978725,5345.978735,534597873.503815,2,-1.000000,""
108_updated,w0,python3action_modeltraining_reviews50mb_nova,0.997085,1,2000.000000,1,COMPLETED_SUCCESSFULLY,5345.978755,42.399990,5388.378745,5344.981670,5387.381660,127.060917,2,-1.000000,""
108,w0,python3action_modeltraining_reviews50mb,0.000000,1,-1.000000,1,COMPLETED_SUCCESSFULLY,5388.378760,0.000010,5388.378770,5388.378760,5388.378770,538837877.027521,2,-1.000000,""
115_updated,w0,python3action_modeltraining_reviews100mb_nova,0.997085,1,2000.000000,1,COMPLETED_SUCCESSFULLY,5388.378790,79.600010,5467.978800,5387.381705,5466.981715,68.680666,2,-1.000000,""
115,w0,python3action_modeltraining_reviews100mb,0.000000,1,-1.000000,1,COMPLETED_SUCCESSFULLY,5467.978815,0.000010,5467.978825,5467.978815,5467.978825,546797882.505019,2,-1.000000,""
124_updated,w0,python3action_modeltraining_reviews100mb_nova,0.997085,1,2000.000000,1,COMPLETED_SUCCESSFULLY,5467.978845,79.600010,5547.578855,5466.981760,5546.581770,69.680667,2,-1.000000,""
124,w0,python3action_modeltraining_reviews100mb,0.000000,1,-1.000000,1,COMPLETED_SUCCESSFULLY,5547.578870,0.000010,5547.578880,5547.578870,5547.578880,554757888.000201,2,-1.000000,""
149_updated,w0,python3action_modeltraining_reviews100mb_nova,0.997085,1,2000.000000,1,COMPLETED_SUCCESSFULLY,5547.578900,79.600010,5627.178910,5546.581815,5626.181825,70.680668,2,-1.000000,""
149,w0,python3action_modeltraining_reviews100mb,0.000000,1,-1.000000,1,COMPLETED_SUCCESSFULLY,5627.178925,0.000010,5627.178935,5627.178925,5627.178935,562717893.500201,2,-1.000000,""
154_updated,w0,python3action_modeltraining_reviews50mb_nova,0.997085,1,2000.000000,1,COMPLETED_SUCCESSFULLY,5627.178955,42.399990,5669.578945,5626.181870,5668.581860,133.692999,2,-1.000000,""
154,w0,python3action_modeltraining_reviews50mb,0.000000,1,-1.000000,1,COMPLETED_SUCCESSFULLY,5669.578960,0.000010,5669.578970,5669.578960,5669.578970,566957897.023907,2,-1.000000,""
157_updated,w0,python3action_modeltraining_reviews100mb_nova,0.997085,1,2000.000000,1,COMPLETED_SUCCESSFULLY,5669.578990,79.600010,5749.179000,5668.581905,5748.181915,72.213332,2,-1.000000,""
157,w0,python3action_modeltraining_reviews100mb,0.000000,1,-1.000000,1,COMPLETED_SUCCESSFULLY,5749.179015,0.000010,5749.179025,5749.179015,5749.179025,574917902.501405,2,-1.000000,""
189_updated,w0,python3action_modeltraining_reviews100mb_nova,0.997085,1,2000.000000,1,COMPLETED_SUCCESSFULLY,5749.179045,79.600010,5828.779055,5748.181960,5827.781970,73.213332,2,-1.000000,""
189,w0,python3action_modeltraining_reviews100mb,0.000000,1,-1.000000,1,COMPLETED_SUCCESSFULLY,5828.779070,0.000010,5828.779080,5828.779070,5828.779080,582877908.000201,2,-1.000000,""
194_updated,w0,python3action_modeltraining_reviews100mb_nova,0.997085,1,2000.000000,1,COMPLETED_SUCCESSFULLY,5828.779100,79.600010,5908.379110,5827.782015,5907.382025,74.213333,2,-1.000000,""
194,w0,python3action_modeltraining_reviews100mb,0.000000,1,-1.000000,1,COMPLETED_SUCCESSFULLY,5908.379125,0.000010,5908.379135,5908.379125,5908.379135,590837913.500201,2,-1.000000,""
197_updated,w0,python3action_modeltraining_reviews100mb_nova,0.997085,1,2000.000000,1,COMPLETED_SUCCESSFULLY,5908.379155,79.600010,5987.979165,5907.382070,5986.982080,75.213333,2,-1.000000,""
197,w0,python3action_modeltraining_reviews100mb,0.000000,1,-1.000000,1,COMPLETED_SUCCESSFULLY,5987.979180,0.000010,5987.979190,5987.979180,5987.979190,598797919.000201,2,-1.000000,""
python3action_pyaes_job24_1,w0,python3action_pyaes_reduced_0.85,0.997085,1,2000.000000,1,COMPLETED_SUCCESSFULLY,5987.979210,0.320244,5988.299454,5986.982125,5987.302369,18696.079586,2,-1.000000,""
24_updated,w0,python3action_pyaes_4000_nova,0.997085,1,2000.000000,1,COMPLETED_SUCCESSFULLY,5988.299469,139.600010,6127.899479,5987.302384,6126.902394,43.888983,2,-1.000000,""
24,w0,python3action_pyaes_4000,0.000000,1,-1.000000,1,COMPLETED_SUCCESSFULLY,6127.899494,0.000010,6127.899504,6127.899494,6127.899504,612789950.400201,2,-1.000000,""
48_updated,w0,python3action_pyaes_4000_nova,0.997085,1,2000.000000,1,COMPLETED_SUCCESSFULLY,6127.899524,139.600010,6267.499534,6126.902439,6266.502449,44.888983,2,-1.000000,""
48,w0,python3action_pyaes_4000,0.000000,1,-1.000000,1,COMPLETED_SUCCESSFULLY,6267.499549,0.000010,6267.499559,6267.499549,6267.499559,626749955.900201,2,-1.000000,""
50_updated,w0,python3action_pyaes_4000_nova,0.997085,1,2000.000000,1,COMPLETED_SUCCESSFULLY,6267.499579,139.600010,6407.099589,6266.502494,6406.102504,45.888983,2,-1.000000,""
50,w0,python3action_pyaes_4000,0.000000,1,-1.000000,1,COMPLETED_SUCCESSFULLY,6407.099604,0.000010,6407.099614,6407.099604,6407.099614,640709961.400201,2,-1.000000,""
61_updated,w0,python3action_pyaes_3000_nova,0.997085,1,2000.000000,1,COMPLETED_SUCCESSFULLY,6407.099634,78.200020,6485.299654,6406.102549,6484.302569,82.919449,2,-1.000000,""
61,w0,python3action_pyaes_3000,0.000000,1,-1.000000,1,COMPLETED_SUCCESSFULLY,6485.299669,0.000010,6485.299679,6485.299669,6485.299679,648529967.900201,2,-1.000000,""
62_updated,w0,python3action_pyaes_3000_nova,0.997085,1,2000.000000,1,COMPLETED_SUCCESSFULLY,6485.299699,78.200020,6563.499719,6484.302614,6562.502634,83.919450,2,-1.000000,""
62,w0,python3action_pyaes_3000,0.000000,1,-1.000000,1,COMPLETED_SUCCESSFULLY,6563.499734,0.000010,6563.499744,6563.499734,6563.499744,656349974.400201,2,-1.000000,""
75_updated,w0,python3action_pyaes_3000_nova,0.997085,1,2000.000000,1,COMPLETED_SUCCESSFULLY,6563.499764,78.200020,6641.699784,6562.502679,6640.702699,84.919451,2,-1.000000,""
75,w0,python3action_pyaes_3000,0.000000,1,-1.000000,1,COMPLETED_SUCCESSFULLY,6641.699799,0.000010,6641.699809,6641.699799,6641.699809,664169980.900201,2,-1.000000,""
76_updated,w0,python3action_pyaes_4000_nova,0.997085,1,2000.000000,1,COMPLETED_SUCCESSFULLY,6641.699829,139.600010,6781.299839,6640.702744,6780.302754,48.569501,2,-1.000000,""
76,w0,python3action_pyaes_4000,0.000000,1,-1.000000,1,COMPLETED_SUCCESSFULLY,6781.299854,0.000010,6781.299864,6781.299854,6781.299864,678129986.400201,2,-1.000000,""
79_updated,w0,python3action_pyaes_4000_nova,0.997085,1,2000.000000,1,COMPLETED_SUCCESSFULLY,6781.299884,139.600010,6920.899894,6780.302799,6919.902809,49.569501,2,-1.000000,""
79,w0,python3action_pyaes_4000,0.000000,1,-1.000000,1,COMPLETED_SUCCESSFULLY,6920.899909,0.000010,6920.899919,6920.899909,6920.899919,692089991.900201,2,-1.000000,""
91_updated,w0,python3action_pyaes_4000_nova,0.997085,1,2000.000000,1,COMPLETED_SUCCESSFULLY,6920.899939,139.600010,7060.499949,6919.902854,7059.502864,50.569501,2,-1.000000,""
91,w0,python3action_pyaes_4000,0.000000,1,-1.000000,1,COMPLETED_SUCCESSFULLY,7060.499964,0.000010,7060.499974,7060.499964,7060.499974,706049997.400201,2,-1.000000,""
94_updated,w0,python3action_pyaes_3000_nova,0.997085,1,2000.000000,1,COMPLETED_SUCCESSFULLY,7060.499994,78.200020,7138.700014,7059.502909,7137.702929,91.274951,2,-1.000000,""
94,w0,python3action_pyaes_3000,0.000000,1,-1.000000,1,COMPLETED_SUCCESSFULLY,7138.700029,0.000010,7138.700039,7138.700029,7138.700039,713870003.900201,2,-1.000000,""
96_updated,w0,python3action_pyaes_4000_nova,0.997085,1,2000.000000,1,COMPLETED_SUCCESSFULLY,7138.700059,139.600010,7278.300069,7137.702974,7277.302984,52.129674,2,-1.000000,""
96,w0,python3action_pyaes_4000,0.000000,1,-1.000000,1,COMPLETED_SUCCESSFULLY,7278.300084,0.000010,7278.300094,7278.300084,7278.300094,727830009.400201,2,-1.000000,""
99_updated,w0,python3action_pyaes_4000_nova,0.997085,1,2000.000000,1,COMPLETED_SUCCESSFULLY,7278.300114,139.600010,7417.900124,7277.303029,7416.903039,53.129674,2,-1.000000,""
99,w0,python3action_pyaes_4000,0.000000,1,-1.000000,1,COMPLETED_SUCCESSFULLY,7417.900139,0.000010,7417.900149,7417.900139,7417.900149,741790014.900201,2,-1.000000,""
101_updated,w0,python3action_pyaes_3000_nova,0.997085,1,2000.000000,1,COMPLETED_SUCCESSFULLY,7417.900169,78.200020,7496.100189,7416.903084,7495.103104,95.845284,2,-1.000000,""
101,w0,python3action_pyaes_3000,0.000000,1,-1.000000,1,COMPLETED_SUCCESSFULLY,7496.100204,0.000010,7496.100214,7496.100204,7496.100214,749610021.400201,2,-1.000000,""
104_updated,w0,python3action_pyaes_4000_nova,0.997085,1,2000.000000,1,COMPLETED_SUCCESSFULLY,7496.100234,139.600010,7635.700244,7495.103149,7634.703159,54.689847,2,-1.000000,""
104,w0,python3action_pyaes_4000,0.000000,1,-1.000000,1,COMPLETED_SUCCESSFULLY,7635.700259,0.000010,7635.700269,7635.700259,7635.700269,763570026.900201,2,-1.000000,""
112_updated,w0,python3action_pyaes_4000_nova,0.997085,1,2000.000000,1,COMPLETED_SUCCESSFULLY,7635.700289,139.600010,7775.300299,7634.703204,7774.303214,55.689847,2,-1.000000,""
112,w0,python3action_pyaes_4000,0.000000,1,-1.000000,1,COMPLETED_SUCCESSFULLY,7775.300314,0.000010,7775.300324,7775.300314,7775.300324,777530032.400201,2,-1.000000,""
117_updated,w0,python3action_pyaes_3000_nova,0.997085,1,2000.000000,1,COMPLETED_SUCCESSFULLY,7775.300344,78.200020,7853.500364,7774.303259,7852.503279,100.415618,2,-1.000000,""
117,w0,python3action_pyaes_3000,0.000000,1,-1.000000,1,COMPLETED_SUCCESSFULLY,7853.500379,0.000010,7853.500389,7853.500379,7853.500389,785350038.900201,2,-1.000000,""
129_updated,w0,python3action_pyaes_4000_nova,0.997085,1,2000.000000,1,COMPLETED_SUCCESSFULLY,7853.500409,139.600010,7993.100419,7852.503324,7992.103334,57.250020,2,-1.000000,""
129,w0,python3action_pyaes_4000,0.000000,1,-1.000000,1,COMPLETED_SUCCESSFULLY,7993.100434,0.000010,7993.100444,7993.100434,7993.100444,799310044.400201,2,-1.000000,""
143_updated,w0,python3action_pyaes_3000_nova,0.997085,1,2000.000000,1,COMPLETED_SUCCESSFULLY,7993.100464,78.200020,8071.300484,7992.103379,8070.303399,103.200785,2,-1.000000,""
143,w0,python3action_pyaes_3000,0.000000,1,-1.000000,1,COMPLETED_SUCCESSFULLY,8071.300499,0.000010,8071.300509,8071.300499,8071.300509,807130050.900201,2,-1.000000,""
150_updated,w0,python3action_pyaes_4000_nova,0.997085,1,2000.000000,1,COMPLETED_SUCCESSFULLY,8071.300529,139.600010,8210.900539,8070.303444,8209.903454,58.810193,2,-1.000000,""
150,w0,python3action_pyaes_4000,0.000000,1,-1.000000,1,COMPLETED_SUCCESSFULLY,8210.900554,0.000010,8210.900564,8210.900554,8210.900564,821090056.400201,2,-1.000000,""
158_updated,w0,python3action_pyaes_3000_nova,0.997085,1,2000.000000,1,COMPLETED_SUCCESSFULLY,8210.900584,78.200020,8289.100604,8209.903499,8288.103519,105.985952,2,-1.000000,""
158,w0,python3action_pyaes_3000,0.000000,1,-1.000000,1,COMPLETED_SUCCESSFULLY,8289.100619,0.000010,8289.100629,8289.100619,8289.100629,828910062.900201,2,-1.000000,""
166_updated,w0,python3action_pyaes_4000_nova,0.997085,1,2000.000000,1,COMPLETED_SUCCESSFULLY,8289.100649,139.600010,8428.700659,8288.103564,8427.703574,60.370365,2,-1.000000,""
166,w0,python3action_pyaes_4000,0.000000,1,-1.000000,1,COMPLETED_SUCCESSFULLY,8428.700674,0.000010,8428.700684,8428.700674,8428.700684,842870068.400201,2,-1.000000,""
174_updated,w0,python3action_pyaes_3000_nova,0.997085,1,2000.000000,1,COMPLETED_SUCCESSFULLY,8428.700704,78.200020,8506.900724,8427.703619,8505.903639,108.771119,2,-1.000000,""
174,w0,python3action_pyaes_3000,0.000000,1,-1.000000,1,COMPLETED_SUCCESSFULLY,8506.900739,0.000010,8506.900749,8506.900739,8506.900749,850690074.900201,2,-1.000000,""
176_updated,w0,python3action_pyaes_4000_nova,0.997085,1,2000.000000,1,COMPLETED_SUCCESSFULLY,8506.900769,139.600010,8646.500779,8505.903684,8645.503694,61.930538,2,-1.000000,""
176,w0,python3action_pyaes_4000,0.000000,1,-1.000000,1,COMPLETED_SUCCESSFULLY,8646.500794,0.000010,8646.500804,8646.500794,8646.500804,864650080.400201,2,-1.000000,""
190_updated,w0,python3action_pyaes_3000_nova,0.997085,1,2000.000000,1,COMPLETED_SUCCESSFULLY,8646.500824,78.200020,8724.700844,8645.503739,8723.703759,111.556286,2,-1.000000,""
190,w0,python3action_pyaes_3000,0.000000,1,-1.000000,1,COMPLETED_SUCCESSFULLY,8724.700859,0.000010,8724.700869,8724.700859,8724.700869,872470086.900201,2,-1.000000,""
195_updated,w0,python3action_pyaes_4000_nova,0.997085,1,2000.000000,1,COMPLETED_SUCCESSFULLY,8724.700889,139.600010,8864.300899,8723.703804,8863.303814,63.490711,2,-1.000000,""
195,w0,python3action_pyaes_4000,0.000000,1,-1.000000,1,COMPLETED_SUCCESSFULLY,8864.300914,0.000010,8864.300924,8864.300914,8864.300924,886430092.400201,2,-1.000000,""
196_updated,w0,python3action_pyaes_3000_nova,0.997085,1,2000.000000,1,COMPLETED_SUCCESSFULLY,8864.300944,78.200020,8942.500964,8863.303859,8941.503879,114.341453,2,-1.000000,""
196,w0,python3action_pyaes_3000,0.000000,1,-1.000000,1,COMPLETED_SUCCESSFULLY,8942.500979,0.000010,8942.500989,8942.500979,8942.500989,894250098.900201,2,-1.000000,""
python3action_video_processing_job31_1,w0,python3action_video_processing_reduced_1.89,0.997085,1,2000.000000,1,COMPLETED_SUCCESSFULLY,8942.501009,0.000000,8942.501009,8941.503924,8941.503924,182060880263877.937500,2,-1.000000,""
31_updated,w0,python3action_videoprocessing_SampleVideo_30mb_nova,0.997085,1,2000.000000,1,COMPLETED_SUCCESSFULLY,8942.501039,106.799980,9049.301019,8941.503954,9048.303934,84.721962,2,-1.000000,""
31,w0,python3action_videoprocessing_SampleVideo_30mb,0.000000,1,-1.000000,1,COMPLETED_SUCCESSFULLY,9049.301034,0.000010,9049.301044,9049.301034,9049.301044,904930104.447412,2,-1.000000,""
33_updated,w0,python3action_videoprocessing_SampleVideo_30mb_nova,0.997085,1,2000.000000,1,COMPLETED_SUCCESSFULLY,9049.301064,106.799980,9156.101045,9048.303979,9155.103960,85.721963,2,-1.000000,""
33,w0,python3action_videoprocessing_SampleVideo_30mb,0.000000,1,-1.000000,1,COMPLETED_SUCCESSFULLY,9156.101060,0.000010,9156.101070,9156.101060,9156.101070,915610107.000201,2,-1.000000,""
67_updated,w0,python3action_videoprocessing_SampleVideo_30mb_nova,0.997085,1,2000.000000,1,COMPLETED_SUCCESSFULLY,9156.101090,106.799980,9262.901070,9155.104005,9261.903985,86.721963,2,-1.000000,""
67,w0,python3action_videoprocessing_SampleVideo_30mb,0.000000,1,-1.000000,1,COMPLETED_SUCCESSFULLY,9262.901085,0.000010,9262.901095,9262.901085,9262.901095,926290109.547010,2,-1.000000,""
78_updated,w0,python3action_videoprocessing_SampleVideo_30mb_nova,0.997085,1,2000.000000,1,COMPLETED_SUCCESSFULLY,9262.901115,106.799980,9369.701096,9261.904030,9368.704011,87.721964,2,-1.000000,""
78,w0,python3action_videoprocessing_SampleVideo_30mb,0.000000,1,-1.000000,1,COMPLETED_SUCCESSFULLY,9369.701111,0.000010,9369.701121,9369.701111,9369.701121,936970112.100201,2,-1.000000,""
133_updated,w0,python3action_videoprocessing_SampleVideo_30mb_nova,0.997085,1,2000.000000,1,COMPLETED_SUCCESSFULLY,9369.701141,106.799980,9476.501121,9368.704056,9475.504036,88.721964,2,-1.000000,""
133,w0,python3action_videoprocessing_SampleVideo_30mb,0.000000,1,-1.000000,1,COMPLETED_SUCCESSFULLY,9476.501136,0.000010,9476.501146,9476.501136,9476.501146,947650114.647010,2,-1.000000,""
156_updated,w0,python3action_videoprocessing_SampleVideo_50mb_nova,0.997085,1,2000.000000,1,COMPLETED_SUCCESSFULLY,9476.501166,139.600010,9616.101176,9475.504081,9615.104091,68.876099,2,-1.000000,""
156,w0,python3action_videoprocessing_SampleVideo_50mb,0.000000,1,-1.000000,1,COMPLETED_SUCCESSFULLY,9616.101191,0.000010,9616.101201,9616.101191,9616.101201,961610120.124509,2,-1.000000,""
171_updated,w0,python3action_videoprocessing_SampleVideo_30mb_nova,0.997085,1,2000.000000,1,COMPLETED_SUCCESSFULLY,9616.101221,106.799980,9722.901202,9615.104136,9721.904117,91.029081,2,-1.000000,""
171,w0,python3action_videoprocessing_SampleVideo_30mb,0.000000,1,-1.000000,1,COMPLETED_SUCCESSFULLY,9722.901217,0.000010,9722.901227,9722.901217,9722.901227,972290122.700201,2,-1.000000,""
182_updated,w0,python3action_videoprocessing_SampleVideo_30mb_nova,0.997085,1,2000.000000,1,COMPLETED_SUCCESSFULLY,9722.901247,106.799980,9829.701227,9721.904162,9828.704142,92.029082,2,-1.000000,""
182,w0,python3action_videoprocessing_SampleVideo_30mb,0.000000,1,-1.000000,1,COMPLETED_SUCCESSFULLY,9829.701242,0.000010,9829.701252,9829.701242,9829.701252,982970125.247010,2,-1.000000,""
198_updated,w0,python3action_videoprocessing_SampleVideo_50mb_nova,0.997085,1,2000.000000,1,COMPLETED_SUCCESSFULLY,9829.701272,139.600010,9969.301282,9828.704187,9968.304197,71.406186,2,-1.000000,""
198,w0,python3action_videoprocessing_SampleVideo_50mb,0.000000,1,-1.000000,1,COMPLETED_SUCCESSFULLY,9969.301297,0.000010,9969.301307,9969.301297,9969.301307,996930130.724509,2,-1.000000,""
