job_id,workload_name,profile,submission_time,requested_number_of_resources,requested_time,success,final_state,starting_time,execution_time,finish_time,waiting_time,turnaround_time,stretch,allocated_resources,consumed_energy,metadata
python3action_chameleon_job4_3,w0,python3action_chameleon,0.997085,1,2000.000000,1,COMPLETED_SUCCESSFULLY,1.002145,0.867914,1.870059,0.005060,0.872974,1.005830,44,-1.000000,""
python3action_chameleon_job15_4,w0,python3action_chameleon,0.997085,1,2000.000000,1,COMPLETED_SUCCESSFULLY,1.002160,0.892694,1.894854,0.005075,0.897769,1.005685,49,-1.000000,""
python3action_facedetection_job0_0,w0,python3action_facedetection,0.997085,1,2000.000000,1,COMPLETED_SUCCESSFULLY,1.002100,30.499683,31.501783,0.005015,30.504698,1.000164,2,-1.000000,""
4_updated,w0,python3action_chameleon_2000_troll,0.997085,1,2000.000000,1,COMPLETED_SUCCESSFULLY,1.870074,39.500010,41.370084,0.872989,40.372999,1.022101,44,-1.000000,""
4,w0,python3action_chameleon_2000,0.000000,1,-1.000000,1,COMPLETED_SUCCESSFULLY,41.370099,0.000010,41.370109,41.370099,41.370109,4137010.900201,44,-1.000000,""
python3action_image_processing_job83_1,w0,python3action_image_processing,0.997085,1,2000.000000,1,COMPLETED_SUCCESSFULLY,1.002115,72.012455,73.014570,0.005030,72.017485,1.000070,26,-1.000000,""
python3action_facedetection_job32_2,w0,python3action_facedetection,0.997085,1,2000.000000,1,COMPLETED_SUCCESSFULLY,1.002130,72.012455,73.014585,0.005045,72.017500,1.000070,29,-1.000000,""
10_updated,w0,python3action_chameleon_2000_troll,0.997085,1,2000.000000,1,COMPLETED_SUCCESSFULLY,41.370129,39.500010,80.870139,40.373044,79.873054,2.022102,44,-1.000000,""
10,w0,python3action_chameleon_2000,0.000000,1,-1.000000,1,COMPLETED_SUCCESSFULLY,80.870154,0.000010,80.870164,80.870154,80.870164,8087016.400201,44,-1.000000,""
15_updated,w0,python3action_chameleon_3000_yeti,0.997085,1,2000.000000,1,COMPLETED_SUCCESSFULLY,1.894869,93.000000,94.894869,0.897784,93.897784,1.009654,49,-1.000000,""
15,w0,python3action_chameleon_3000,0.000000,1,-1.000000,1,COMPLETED_SUCCESSFULLY,94.894884,0.000010,94.894894,94.894884,94.894894,9489489.449765,49,-1.000000,""
13_updated,w0,python3action_chameleon_2000_troll,0.997085,1,2000.000000,1,COMPLETED_SUCCESSFULLY,80.870184,39.500010,120.370194,79.873099,119.373109,3.022103,44,-1.000000,""
13,w0,python3action_chameleon_2000,0.000000,1,-1.000000,1,COMPLETED_SUCCESSFULLY,120.370209,0.000010,120.370219,120.370209,120.370219,12037021.900201,44,-1.000000,""
83_updated,w0,python3action_imageprocessing_SampleImage_60mb_orion,0.997085,1,2000.000000,1,COMPLETED_SUCCESSFULLY,73.014585,88.000000,161.014585,72.017500,160.017500,1.818381,26,-1.000000,""
83,w0,python3action_imageprocessing_SampleImage_60mb,0.000000,1,-1.000000,1,COMPLETED_SUCCESSFULLY,161.014600,0.000010,161.014610,161.014600,161.014610,16101461.031884,26,-1.000000,""
28_updated,w0,python3action_chameleon_3000_yeti,0.997085,1,2000.000000,1,COMPLETED_SUCCESSFULLY,94.894915,93.000000,187.894915,93.897830,186.897830,2.009654,49,-1.000000,""
28,w0,python3action_chameleon_3000,0.000000,1,-1.000000,1,COMPLETED_SUCCESSFULLY,187.894930,0.000010,187.894940,187.894930,187.894940,18789494.000201,49,-1.000000,""
0_updated,w0,python3action_facedetection_SampleVideo_30mb_nova,0.997085,1,2000.000000,1,COMPLETED_SUCCESSFULLY,31.501798,160.399990,191.901788,30.504713,190.904703,1.190179,2,-1.000000,""
0,w0,python3action_facedetection_SampleVideo_30mb,0.000000,1,-1.000000,1,COMPLETED_SUCCESSFULLY,191.901803,0.000010,191.901813,191.901803,191.901813,19190181.323505,2,-1.000000,""
32_updated,w0,python3action_facedetection_SampleVideo_50mb_taurus,0.997085,1,2000.000000,1,COMPLETED_SUCCESSFULLY,73.014615,134.600046,207.614661,72.017530,206.617576,1.535048,29,-1.000000,""
32,w0,python3action_facedetection_SampleVideo_50mb,0.000000,1,-1.000000,1,COMPLETED_SUCCESSFULLY,207.614676,0.000010,207.614686,207.614676,207.614686,20761468.645363,29,-1.000000,""
29_updated,w0,python3action_chameleon_3000_troll,0.997085,1,2000.000000,1,COMPLETED_SUCCESSFULLY,120.370239,94.000000,214.370239,119.373154,213.373154,2.269927,44,-1.000000,""
29,w0,python3action_chameleon_3000,0.000000,1,-1.000000,1,COMPLETED_SUCCESSFULLY,214.370254,0.000010,214.370264,214.370254,214.370264,21437026.400803,44,-1.000000,""
156_updated,w0,python3action_imageprocessing_SampleImage_60mb_orion,0.997085,1,2000.000000,1,COMPLETED_SUCCESSFULLY,161.014630,88.000000,249.014630,160.017545,248.017545,2.818381,26,-1.000000,""
156,w0,python3action_imageprocessing_SampleImage_60mb,0.000000,1,-1.000000,1,COMPLETED_SUCCESSFULLY,249.014645,0.000010,249.014655,249.014645,249.014655,24901465.532486,26,-1.000000,""
35_updated,w0,python3action_chameleon_3000_yeti,0.997085,1,2000.000000,1,COMPLETED_SUCCESSFULLY,187.894960,93.000000,280.894960,186.897875,279.897875,3.009655,49,-1.000000,""
35,w0,python3action_chameleon_3000,0.000000,1,-1.000000,1,COMPLETED_SUCCESSFULLY,280.894975,0.000010,280.894985,280.894975,280.894985,28089498.500803,49,-1.000000,""
34_updated,w0,python3action_chameleon_3000_troll,0.997085,1,2000.000000,1,COMPLETED_SUCCESSFULLY,214.370284,94.000000,308.370284,213.373199,307.373199,3.269928,44,-1.000000,""
34,w0,python3action_chameleon_3000,0.000000,1,-1.000000,1,COMPLETED_SUCCESSFULLY,308.370299,0.000010,308.370309,308.370299,308.370309,30837030.901406,44,-1.000000,""
178_updated,w0,python3action_imageprocessing_SampleImage_60mb_orion,0.997085,1,2000.000000,1,COMPLETED_SUCCESSFULLY,249.014675,88.000000,337.014675,248.017590,336.017590,3.818382,26,-1.000000,""
178,w0,python3action_imageprocessing_SampleImage_60mb,0.000000,1,-1.000000,1,COMPLETED_SUCCESSFULLY,337.014690,0.000010,337.014700,337.014690,337.014700,33701470.033089,26,-1.000000,""
39_updated,w0,python3action_facedetection_SampleVideo_50mb_taurus,0.997085,1,2000.000000,1,COMPLETED_SUCCESSFULLY,207.614706,134.600046,342.214753,206.617621,341.217668,2.535049,29,-1.000000,""
39,w0,python3action_facedetection_SampleVideo_50mb,0.000000,1,-1.000000,1,COMPLETED_SUCCESSFULLY,342.214768,0.000010,342.214778,342.214768,342.214778,34221477.800201,29,-1.000000,""
python3action_linpack_job21_2,w0,python3action_linpack,0.997085,1,2000.000000,1,COMPLETED_SUCCESSFULLY,337.014720,5.760927,342.775648,336.017635,341.778563,59.327006,26,-1.000000,""
17_updated,w0,python3action_facedetection_SampleVideo_30mb_nova,0.997085,1,2000.000000,1,COMPLETED_SUCCESSFULLY,191.901833,160.399990,352.301823,190.904748,351.304738,2.190179,2,-1.000000,""
17,w0,python3action_facedetection_SampleVideo_30mb,0.000000,1,-1.000000,1,COMPLETED_SUCCESSFULLY,352.301838,0.000010,352.301848,352.301838,352.301848,35230184.847211,2,-1.000000,""
37_updated,w0,python3action_chameleon_3000_yeti,0.997085,1,2000.000000,1,COMPLETED_SUCCESSFULLY,280.895005,93.000000,373.895005,279.897920,372.897920,4.009655,49,-1.000000,""
37,w0,python3action_chameleon_3000,0.000000,1,-1.000000,1,COMPLETED_SUCCESSFULLY,373.895020,0.000010,373.895030,373.895020,373.895030,37389503.001406,49,-1.000000,""
74_updated,w0,python3action_chameleon_3000_troll,0.997085,1,2000.000000,1,COMPLETED_SUCCESSFULLY,308.370329,94.000000,402.370329,307.373244,401.373244,4.269928,44,-1.000000,""
74,w0,python3action_chameleon_3000,0.000000,1,-1.000000,1,COMPLETED_SUCCESSFULLY,402.370344,0.000010,402.370354,402.370344,402.370354,40237035.402008,44,-1.000000,""
76_updated,w0,python3action_chameleon_2000_troll,0.997085,1,2000.000000,1,COMPLETED_SUCCESSFULLY,402.370374,39.500010,441.870384,401.373289,440.873299,11.161347,44,-1.000000,""
76,w0,python3action_chameleon_2000,0.000000,1,-1.000000,1,COMPLETED_SUCCESSFULLY,441.870399,0.000010,441.870409,441.870399,441.870409,44187040.900201,44,-1.000000,""
21_updated,w0,python3action_linpack_6000_orion,0.997085,1,2000.000000,1,COMPLETED_SUCCESSFULLY,342.775663,106.000000,448.775663,341.778578,447.778578,4.224326,26,-1.000000,""
21,w0,python3action_linpack_6000,0.000000,1,-1.000000,1,COMPLETED_SUCCESSFULLY,448.775678,0.000010,448.775688,448.775678,448.775688,44877568.800402,26,-1.000000,""
193_updated,w0,python3action_chameleon_3000_yeti,0.997085,1,2000.000000,1,COMPLETED_SUCCESSFULLY,373.895050,93.000000,466.895050,372.897965,465.897965,5.009656,49,-1.000000,""
193,w0,python3action_chameleon_3000,0.000000,1,-1.000000,1,COMPLETED_SUCCESSFULLY,466.895065,0.000010,466.895075,466.895065,466.895075,46689507.502008,49,-1.000000,""
48_updated,w0,python3action_facedetection_SampleVideo_50mb_taurus,0.997085,1,2000.000000,1,COMPLETED_SUCCESSFULLY,342.214798,134.600046,476.814844,341.217713,475.817759,3.535049,29,-1.000000,""
48,w0,python3action_facedetection_SampleVideo_50mb,0.000000,1,-1.000000,1,COMPLETED_SUCCESSFULLY,476.814859,0.000010,476.814869,476.814859,476.814869,47681486.913881,29,-1.000000,""
45_updated,w0,python3action_facedetection_SampleVideo_30mb_nova,0.997085,1,2000.000000,1,COMPLETED_SUCCESSFULLY,352.301868,160.399990,512.701859,351.304783,511.704774,3.190180,2,-1.000000,""
45,w0,python3action_facedetection_SampleVideo_30mb,0.000000,1,-1.000000,1,COMPLETED_SUCCESSFULLY,512.701874,0.000010,512.701884,512.701874,512.701884,51270188.400201,2,-1.000000,""
88_updated,w0,python3action_chameleon_3000_troll,0.997085,1,2000.000000,1,COMPLETED_SUCCESSFULLY,441.870429,94.000000,535.870429,440.873344,534.873344,5.690142,44,-1.000000,""
88,w0,python3action_chameleon_3000,0.000000,1,-1.000000,1,COMPLETED_SUCCESSFULLY,535.870444,0.000010,535.870454,535.870444,535.870454,53587045.400803,44,-1.000000,""
46_updated,w0,python3action_linpack_6000_orion,0.997085,1,2000.000000,1,COMPLETED_SUCCESSFULLY,448.775708,106.000000,554.775708,447.778623,553.778623,5.224327,26,-1.000000,""
46,w0,python3action_linpack_6000,0.000000,1,-1.000000,1,COMPLETED_SUCCESSFULLY,554.775723,0.000010,554.775733,554.775723,554.775733,55477573.301004,26,-1.000000,""
108_updated,w0,python3action_chameleon_2000_troll,0.997085,1,2000.000000,1,COMPLETED_SUCCESSFULLY,535.870474,39.500010,575.370484,534.873389,574.373399,14.541095,44,-1.000000,""
108,w0,python3action_chameleon_2000,0.000000,1,-1.000000,1,COMPLETED_SUCCESSFULLY,575.370499,0.000010,575.370509,575.370499,575.370509,57537050.900201,44,-1.000000,""
52_updated,w0,python3action_facedetection_SampleVideo_50mb_taurus,0.997085,1,2000.000000,1,COMPLETED_SUCCESSFULLY,476.814889,134.600046,611.414935,475.817804,610.417850,4.535049,29,-1.000000,""
52,w0,python3action_facedetection_SampleVideo_50mb,0.000000,1,-1.000000,1,COMPLETED_SUCCESSFULLY,611.414950,0.000010,611.414960,611.414950,611.414960,61141496.027562,29,-1.000000,""
51_updated,w0,python3action_linpack_6000_orion,0.997085,1,2000.000000,1,COMPLETED_SUCCESSFULLY,554.775753,106.000000,660.775753,553.778668,659.778668,6.224327,26,-1.000000,""
51,w0,python3action_linpack_6000,0.000000,1,-1.000000,1,COMPLETED_SUCCESSFULLY,660.775768,0.000010,660.775778,660.775768,660.775778,66077577.801606,26,-1.000000,""
118_updated,w0,python3action_chameleon_3000_troll,0.997085,1,2000.000000,1,COMPLETED_SUCCESSFULLY,575.370529,94.000000,669.370529,574.373444,668.373444,7.110356,44,-1.000000,""
118,w0,python3action_chameleon_3000,0.000000,1,-1.000000,1,COMPLETED_SUCCESSFULLY,669.370544,0.000010,669.370554,669.370544,669.370554,66937055.400803,44,-1.000000,""
62_updated,w0,python3action_facedetection_SampleVideo_30mb_nova,0.997085,1,2000.000000,1,COMPLETED_SUCCESSFULLY,512.701904,160.399990,673.101894,511.704819,672.104809,4.190180,2,-1.000000,""
62,w0,python3action_facedetection_SampleVideo_30mb,0.000000,1,-1.000000,1,COMPLETED_SUCCESSFULLY,673.101909,0.000010,673.101919,673.101909,673.101919,67310191.923907,2,-1.000000,""
54_updated,w0,python3action_facedetection_SampleVideo_50mb_taurus,0.997085,1,2000.000000,1,COMPLETED_SUCCESSFULLY,611.414980,134.600046,746.015026,610.417895,745.017941,5.535050,29,-1.000000,""
54,w0,python3action_facedetection_SampleVideo_50mb,0.000000,1,-1.000000,1,COMPLETED_SUCCESSFULLY,746.015041,0.000010,746.015051,746.015041,746.015051,74601505.141242,29,-1.000000,""
182_updated,w0,python3action_chameleon_3000_troll,0.997085,1,2000.000000,1,COMPLETED_SUCCESSFULLY,669.370574,94.000000,763.370574,668.373489,762.373489,8.110356,44,-1.000000,""
182,w0,python3action_chameleon_3000,0.000000,1,-1.000000,1,COMPLETED_SUCCESSFULLY,763.370589,0.000010,763.370599,763.370589,763.370599,76337059.901406,44,-1.000000,""
87_updated,w0,python3action_linpack_6000_orion,0.997085,1,2000.000000,1,COMPLETED_SUCCESSFULLY,660.775798,106.000000,766.775798,659.778713,765.778713,7.224327,26,-1.000000,""
87,w0,python3action_linpack_6000,0.000000,1,-1.000000,1,COMPLETED_SUCCESSFULLY,766.775813,0.000010,766.775823,766.775813,766.775823,76677582.302209,26,-1.000000,""
197_updated,w0,python3action_chameleon_2000_troll,0.997085,1,2000.000000,1,COMPLETED_SUCCESSFULLY,763.370619,39.500010,802.870629,762.373534,801.873544,20.300591,44,-1.000000,""
197,w0,python3action_chameleon_2000,0.000000,1,-1.000000,1,COMPLETED_SUCCESSFULLY,802.870644,0.000010,802.870654,802.870644,802.870654,80287065.400201,44,-1.000000,""
python3action_image_processing_job1_4,w0,python3action_image_processing,0.997085,1,2000.000000,1,COMPLETED_SUCCESSFULLY,802.870674,12.398880,815.269554,801.873589,814.272469,65.673066,44,-1.000000,""
80_updated,w0,python3action_facedetection_SampleVideo_30mb_nova,0.997085,1,2000.000000,1,COMPLETED_SUCCESSFULLY,673.101939,160.399990,833.501929,672.104854,832.504844,5.190180,2,-1.000000,""
80,w0,python3action_facedetection_SampleVideo_30mb,0.000000,1,-1.000000,1,COMPLETED_SUCCESSFULLY,833.501944,0.000010,833.501954,833.501944,833.501954,83350195.447613,2,-1.000000,""
94_updated,w0,python3action_linpack_6000_orion,0.997085,1,2000.000000,1,COMPLETED_SUCCESSFULLY,766.775843,106.000000,872.775843,765.778758,871.778758,8.224328,26,-1.000000,""
94,w0,python3action_linpack_6000,0.000000,1,-1.000000,1,COMPLETED_SUCCESSFULLY,872.775858,0.000010,872.775868,872.775858,872.775868,87277586.802811,26,-1.000000,""
1_updated,w0,python3action_imageprocessing_SampleImage_60mb_troll,0.997085,1,2000.000000,1,COMPLETED_SUCCESSFULLY,815.269569,62.000000,877.269569,814.272484,876.272484,14.133427,44,-1.000000,""
1,w0,python3action_imageprocessing_SampleImage_60mb,0.000000,1,-1.000000,1,COMPLETED_SUCCESSFULLY,877.269584,0.000010,877.269594,877.269584,877.269594,87726959.409582,44,-1.000000,""
84_updated,w0,python3action_facedetection_SampleVideo_50mb_taurus,0.997085,1,2000.000000,1,COMPLETED_SUCCESSFULLY,746.015071,134.600046,880.615118,745.017986,879.618033,6.535050,29,-1.000000,""
84,w0,python3action_facedetection_SampleVideo_50mb,0.000000,1,-1.000000,1,COMPLETED_SUCCESSFULLY,880.615133,0.000010,880.615143,880.615133,880.615143,88061514.300201,29,-1.000000,""
8_updated,w0,python3action_imageprocessing_SampleImage_60mb_troll,0.997085,1,2000.000000,1,COMPLETED_SUCCESSFULLY,877.269614,62.000000,939.269614,876.272529,938.272529,15.133428,44,-1.000000,""
8,w0,python3action_imageprocessing_SampleImage_60mb,0.000000,1,-1.000000,1,COMPLETED_SUCCESSFULLY,939.269629,0.000010,939.269639,939.269629,939.269639,93926963.910184,44,-1.000000,""
99_updated,w0,python3action_linpack_6000_orion,0.997085,1,2000.000000,1,COMPLETED_SUCCESSFULLY,872.775888,106.000000,978.775888,871.778803,977.778803,9.224328,26,-1.000000,""
99,w0,python3action_linpack_6000,0.000000,1,-1.000000,1,COMPLETED_SUCCESSFULLY,978.775903,0.000010,978.775913,978.775903,978.775913,97877591.303414,26,-1.000000,""
93_updated,w0,python3action_facedetection_SampleVideo_30mb_nova,0.997085,1,2000.000000,1,COMPLETED_SUCCESSFULLY,833.501974,160.399990,993.901965,832.504889,992.904880,6.190180,2,-1.000000,""
93,w0,python3action_facedetection_SampleVideo_30mb,0.000000,1,-1.000000,1,COMPLETED_SUCCESSFULLY,993.901980,0.000010,993.901990,993.901980,993.901990,99390199.000201,2,-1.000000,""
41_updated,w0,python3action_imageprocessing_SampleImage_60mb_troll,0.997085,1,2000.000000,1,COMPLETED_SUCCESSFULLY,939.269659,62.000000,1001.269659,938.272574,1000.272574,16.133429,44,-1.000000,""
41,w0,python3action_imageprocessing_SampleImage_60mb,0.000000,1,-1.000000,1,COMPLETED_SUCCESSFULLY,1001.269674,0.000010,1001.269684,1001.269674,1001.269684,100126968.410787,44,-1.000000,""
95_updated,w0,python3action_facedetection_SampleVideo_50mb_taurus,0.997085,1,2000.000000,1,COMPLETED_SUCCESSFULLY,880.615163,134.600046,1015.215209,879.618078,1014.218124,7.535050,29,-1.000000,""
95,w0,python3action_facedetection_SampleVideo_50mb,0.000000,1,-1.000000,1,COMPLETED_SUCCESSFULLY,1015.215224,0.000010,1015.215234,1015.215224,1015.215234,101521523.413881,29,-1.000000,""
53_updated,w0,python3action_imageprocessing_SampleImage_60mb_troll,0.997085,1,2000.000000,1,COMPLETED_SUCCESSFULLY,1001.269704,62.000000,1063.269704,1000.272619,1062.272619,17.133429,44,-1.000000,""
53,w0,python3action_imageprocessing_SampleImage_60mb,0.000000,1,-1.000000,1,COMPLETED_SUCCESSFULLY,1063.269719,0.000010,1063.269729,1063.269719,1063.269729,106326972.911389,44,-1.000000,""
105_updated,w0,python3action_linpack_6000_orion,0.997085,1,2000.000000,1,COMPLETED_SUCCESSFULLY,978.775933,106.000000,1084.775933,977.778848,1083.778848,10.224329,26,-1.000000,""
105,w0,python3action_linpack_6000,0.000000,1,-1.000000,1,COMPLETED_SUCCESSFULLY,1084.775948,0.000010,1084.775958,1084.775948,1084.775958,108477595.804016,26,-1.000000,""
64_updated,w0,python3action_imageprocessing_SampleImage_60mb_troll,0.997085,1,2000.000000,1,COMPLETED_SUCCESSFULLY,1063.269749,62.000000,1125.269749,1062.272664,1124.272664,18.133430,44,-1.000000,""
64,w0,python3action_imageprocessing_SampleImage_60mb,0.000000,1,-1.000000,1,COMPLETED_SUCCESSFULLY,1125.269764,0.000010,1125.269774,1125.269764,1125.269774,112526977.411992,44,-1.000000,""
97_updated,w0,python3action_facedetection_SampleVideo_50mb_taurus,0.997085,1,2000.000000,1,COMPLETED_SUCCESSFULLY,1015.215254,134.600046,1149.815300,1014.218169,1148.818215,8.535051,29,-1.000000,""
97,w0,python3action_facedetection_SampleVideo_50mb,0.000000,1,-1.000000,1,COMPLETED_SUCCESSFULLY,1149.815315,0.000010,1149.815325,1149.815315,1149.815325,114981532.527562,29,-1.000000,""
110_updated,w0,python3action_facedetection_SampleVideo_30mb_nova,0.997085,1,2000.000000,1,COMPLETED_SUCCESSFULLY,993.902010,160.399990,1154.302000,992.904925,1153.304915,7.190181,2,-1.000000,""
110,w0,python3action_facedetection_SampleVideo_30mb,0.000000,1,-1.000000,1,COMPLETED_SUCCESSFULLY,1154.302015,0.000010,1154.302025,1154.302015,1154.302025,115430202.523907,2,-1.000000,""
68_updated,w0,python3action_imageprocessing_SampleImage_60mb_troll,0.997085,1,2000.000000,1,COMPLETED_SUCCESSFULLY,1125.269794,62.000000,1187.269794,1124.272709,1186.272709,19.133431,44,-1.000000,""
68,w0,python3action_imageprocessing_SampleImage_60mb,0.000000,1,-1.000000,1,COMPLETED_SUCCESSFULLY,1187.269809,0.000010,1187.269819,1187.269809,1187.269819,118726981.912594,44,-1.000000,""
148_updated,w0,python3action_linpack_6000_orion,0.997085,1,2000.000000,1,COMPLETED_SUCCESSFULLY,1084.775978,106.000000,1190.775978,1083.778893,1189.778893,11.224329,26,-1.000000,""
148,w0,python3action_linpack_6000,0.000000,1,-1.000000,1,COMPLETED_SUCCESSFULLY,1190.775993,0.000010,1190.776003,1190.775993,1190.776003,119077600.304618,26,-1.000000,""
78_updated,w0,python3action_imageprocessing_SampleImage_60mb_troll,0.997085,1,2000.000000,1,COMPLETED_SUCCESSFULLY,1187.269839,62.000000,1249.269839,1186.272754,1248.272754,20.133432,44,-1.000000,""
78,w0,python3action_imageprocessing_SampleImage_60mb,0.000000,1,-1.000000,1,COMPLETED_SUCCESSFULLY,1249.269854,0.000010,1249.269864,1249.269854,1249.269864,124926986.413196,44,-1.000000,""
101_updated,w0,python3action_facedetection_SampleVideo_50mb_taurus,0.997085,1,2000.000000,1,COMPLETED_SUCCESSFULLY,1149.815345,134.600046,1284.415391,1148.818260,1283.418306,9.535051,29,-1.000000,""
101,w0,python3action_facedetection_SampleVideo_50mb,0.000000,1,-1.000000,1,COMPLETED_SUCCESSFULLY,1284.415406,0.000010,1284.415416,1284.415406,1284.415416,128441541.641242,29,-1.000000,""
152_updated,w0,python3action_linpack_6000_orion,0.997085,1,2000.000000,1,COMPLETED_SUCCESSFULLY,1190.776023,106.000000,1296.776023,1189.778938,1295.778938,12.224330,26,-1.000000,""
152,w0,python3action_linpack_6000,0.000000,1,-1.000000,1,COMPLETED_SUCCESSFULLY,1296.776038,0.000010,1296.776048,1296.776038,1296.776048,129677604.805221,26,-1.000000,""
79_updated,w0,python3action_imageprocessing_SampleImage_60mb_troll,0.997085,1,2000.000000,1,COMPLETED_SUCCESSFULLY,1249.269884,62.000000,1311.269884,1248.272799,1310.272799,21.133432,44,-1.000000,""
79,w0,python3action_imageprocessing_SampleImage_60mb,0.000000,1,-1.000000,1,COMPLETED_SUCCESSFULLY,1311.269899,0.000010,1311.269909,1311.269899,1311.269909,131126990.913799,44,-1.000000,""
137_updated,w0,python3action_facedetection_SampleVideo_30mb_nova,0.997085,1,2000.000000,1,COMPLETED_SUCCESSFULLY,1154.302045,160.399990,1314.702035,1153.304960,1313.704950,8.190181,2,-1.000000,""
137,w0,python3action_facedetection_SampleVideo_30mb,0.000000,1,-1.000000,1,COMPLETED_SUCCESSFULLY,1314.702050,0.000010,1314.702060,1314.702050,1314.702060,131470206.047613,2,-1.000000,""
90_updated,w0,python3action_imageprocessing_SampleImage_60mb_troll,0.997085,1,2000.000000,1,COMPLETED_SUCCESSFULLY,1311.269929,62.000000,1373.269929,1310.272844,1372.272844,22.133433,44,-1.000000,""
90,w0,python3action_imageprocessing_SampleImage_60mb,0.000000,1,-1.000000,1,COMPLETED_SUCCESSFULLY,1373.269944,0.000010,1373.269954,1373.269944,1373.269954,137326995.414401,44,-1.000000,""
186_updated,w0,python3action_linpack_6000_orion,0.997085,1,2000.000000,1,COMPLETED_SUCCESSFULLY,1296.776068,106.000000,1402.776068,1295.778983,1401.778983,13.224330,26,-1.000000,""
186,w0,python3action_linpack_6000,0.000000,1,-1.000000,1,COMPLETED_SUCCESSFULLY,1402.776083,0.000010,1402.776093,1402.776083,1402.776093,140277609.305823,26,-1.000000,""
129_updated,w0,python3action_facedetection_SampleVideo_50mb_taurus,0.997085,1,2000.000000,1,COMPLETED_SUCCESSFULLY,1284.415436,134.600046,1419.015483,1283.418351,1418.018398,10.535051,29,-1.000000,""
129,w0,python3action_facedetection_SampleVideo_50mb,0.000000,1,-1.000000,1,COMPLETED_SUCCESSFULLY,1419.015498,0.000010,1419.015508,1419.015498,1419.015508,141901550.800201,29,-1.000000,""
109_updated,w0,python3action_imageprocessing_SampleImage_60mb_troll,0.997085,1,2000.000000,1,COMPLETED_SUCCESSFULLY,1373.269974,62.000000,1435.269974,1372.272889,1434.272889,23.133434,44,-1.000000,""
109,w0,python3action_imageprocessing_SampleImage_60mb,0.000000,1,-1.000000,1,COMPLETED_SUCCESSFULLY,1435.269989,0.000010,1435.269999,1435.269989,1435.269999,143526999.915004,44,-1.000000,""
150_updated,w0,python3action_facedetection_SampleVideo_30mb_nova,0.997085,1,2000.000000,1,COMPLETED_SUCCESSFULLY,1314.702080,160.399990,1475.102071,1313.704995,1474.104986,9.190181,2,-1.000000,""
150,w0,python3action_facedetection_SampleVideo_30mb,0.000000,1,-1.000000,1,COMPLETED_SUCCESSFULLY,1475.102086,0.000010,1475.102096,1475.102086,1475.102096,147510209.600201,2,-1.000000,""
125_updated,w0,python3action_imageprocessing_SampleImage_60mb_troll,0.997085,1,2000.000000,1,COMPLETED_SUCCESSFULLY,1435.270019,62.000000,1497.270019,1434.272934,1496.272934,24.133434,44,-1.000000,""
125,w0,python3action_imageprocessing_SampleImage_60mb,0.000000,1,-1.000000,1,COMPLETED_SUCCESSFULLY,1497.270034,0.000010,1497.270044,1497.270034,1497.270044,149727004.415606,44,-1.000000,""
138_updated,w0,python3action_facedetection_SampleVideo_50mb_taurus,0.997085,1,2000.000000,1,COMPLETED_SUCCESSFULLY,1419.015528,134.600046,1553.615574,1418.018443,1552.618489,11.535052,29,-1.000000,""
138,w0,python3action_facedetection_SampleVideo_50mb,0.000000,1,-1.000000,1,COMPLETED_SUCCESSFULLY,1553.615589,0.000010,1553.615599,1553.615589,1553.615599,155361559.913881,29,-1.000000,""
151_updated,w0,python3action_imageprocessing_SampleImage_60mb_troll,0.997085,1,2000.000000,1,COMPLETED_SUCCESSFULLY,1497.270064,62.000000,1559.270064,1496.272979,1558.272979,25.133435,44,-1.000000,""
151,w0,python3action_imageprocessing_SampleImage_60mb,0.000000,1,-1.000000,1,COMPLETED_SUCCESSFULLY,1559.270079,0.000010,1559.270089,1559.270079,1559.270089,155927008.916208,44,-1.000000,""
153_updated,w0,python3action_imageprocessing_SampleImage_60mb_troll,0.997085,1,2000.000000,1,COMPLETED_SUCCESSFULLY,1559.270109,62.000000,1621.270109,1558.273024,1620.273024,26.133436,44,-1.000000,""
153,w0,python3action_imageprocessing_SampleImage_60mb,0.000000,1,-1.000000,1,COMPLETED_SUCCESSFULLY,1621.270124,0.000010,1621.270134,1621.270124,1621.270134,162127013.416811,44,-1.000000,""
157_updated,w0,python3action_facedetection_SampleVideo_30mb_nova,0.997085,1,2000.000000,1,COMPLETED_SUCCESSFULLY,1475.102116,160.399990,1635.502106,1474.105031,1634.505021,10.190182,2,-1.000000,""
157,w0,python3action_facedetection_SampleVideo_30mb,0.000000,1,-1.000000,1,COMPLETED_SUCCESSFULLY,1635.502121,0.000010,1635.502131,1635.502121,1635.502131,163550213.123907,2,-1.000000,""
170_updated,w0,python3action_imageprocessing_SampleImage_60mb_troll,0.997085,1,2000.000000,1,COMPLETED_SUCCESSFULLY,1621.270154,62.000000,1683.270154,1620.273069,1682.273069,27.133437,44,-1.000000,""
170,w0,python3action_imageprocessing_SampleImage_60mb,0.000000,1,-1.000000,1,COMPLETED_SUCCESSFULLY,1683.270169,0.000010,1683.270179,1683.270169,1683.270179,168327017.917413,44,-1.000000,""
155_updated,w0,python3action_facedetection_SampleVideo_50mb_taurus,0.997085,1,2000.000000,1,COMPLETED_SUCCESSFULLY,1553.615619,134.600046,1688.215665,1552.618534,1687.218580,12.535052,29,-1.000000,""
155,w0,python3action_facedetection_SampleVideo_50mb,0.000000,1,-1.000000,1,COMPLETED_SUCCESSFULLY,1688.215680,0.000010,1688.215690,1688.215680,1688.215690,168821569.027562,29,-1.000000,""
171_updated,w0,python3action_imageprocessing_SampleImage_60mb_troll,0.997085,1,2000.000000,1,COMPLETED_SUCCESSFULLY,1683.270199,62.000000,1745.270199,1682.273114,1744.273114,28.133437,44,-1.000000,""
171,w0,python3action_imageprocessing_SampleImage_60mb,0.000000,1,-1.000000,1,COMPLETED_SUCCESSFULLY,1745.270214,0.000010,1745.270224,1745.270214,1745.270224,174527022.418016,44,-1.000000,""
159_updated,w0,python3action_facedetection_SampleVideo_30mb_nova,0.997085,1,2000.000000,1,COMPLETED_SUCCESSFULLY,1635.502151,160.399990,1795.902141,1634.505066,1794.905056,11.190182,2,-1.000000,""
159,w0,python3action_facedetection_SampleVideo_30mb,0.000000,1,-1.000000,1,COMPLETED_SUCCESSFULLY,1795.902156,0.000010,1795.902166,1795.902156,1795.902166,179590216.647613,2,-1.000000,""
173_updated,w0,python3action_imageprocessing_SampleImage_60mb_troll,0.997085,1,2000.000000,1,COMPLETED_SUCCESSFULLY,1745.270244,62.000000,1807.270244,1744.273159,1806.273159,29.133438,44,-1.000000,""
173,w0,python3action_imageprocessing_SampleImage_60mb,0.000000,1,-1.000000,1,COMPLETED_SUCCESSFULLY,1807.270259,0.000010,1807.270269,1807.270259,1807.270269,180727026.918618,44,-1.000000,""
160_updated,w0,python3action_facedetection_SampleVideo_50mb_taurus,0.997085,1,2000.000000,1,COMPLETED_SUCCESSFULLY,1688.215710,134.600046,1822.815756,1687.218625,1821.818671,13.535052,29,-1.000000,""
160,w0,python3action_facedetection_SampleVideo_50mb,0.000000,1,-1.000000,1,COMPLETED_SUCCESSFULLY,1822.815771,0.000010,1822.815781,1822.815771,1822.815781,182281578.141242,29,-1.000000,""
175_updated,w0,python3action_imageprocessing_SampleImage_60mb_troll,0.997085,1,2000.000000,1,COMPLETED_SUCCESSFULLY,1807.270289,62.000000,1869.270289,1806.273204,1868.273204,30.133439,44,-1.000000,""
175,w0,python3action_imageprocessing_SampleImage_60mb,0.000000,1,-1.000000,1,COMPLETED_SUCCESSFULLY,1869.270304,0.000010,1869.270314,1869.270304,1869.270314,186927031.419220,44,-1.000000,""
183_updated,w0,python3action_imageprocessing_SampleImage_60mb_troll,0.997085,1,2000.000000,1,COMPLETED_SUCCESSFULLY,1869.270334,62.000000,1931.270334,1868.273249,1930.273249,31.133440,44,-1.000000,""
183,w0,python3action_imageprocessing_SampleImage_60mb,0.000000,1,-1.000000,1,COMPLETED_SUCCESSFULLY,1931.270349,0.000010,1931.270359,1931.270349,1931.270359,193127035.919823,44,-1.000000,""
165_updated,w0,python3action_facedetection_SampleVideo_30mb_nova,0.997085,1,2000.000000,1,COMPLETED_SUCCESSFULLY,1795.902186,160.399990,1956.302177,1794.905101,1955.305092,12.190182,2,-1.000000,""
165,w0,python3action_facedetection_SampleVideo_30mb,0.000000,1,-1.000000,1,COMPLETED_SUCCESSFULLY,1956.302192,0.000010,1956.302202,1956.302192,1956.302202,195630220.200201,2,-1.000000,""
169_updated,w0,python3action_facedetection_SampleVideo_50mb_taurus,0.997085,1,2000.000000,1,COMPLETED_SUCCESSFULLY,1822.815801,134.600046,1957.415848,1821.818716,1956.418763,14.535053,29,-1.000000,""
169,w0,python3action_facedetection_SampleVideo_50mb,0.000000,1,-1.000000,1,COMPLETED_SUCCESSFULLY,1957.415863,0.000010,1957.415873,1957.415863,1957.415873,195741587.300201,29,-1.000000,""
185_updated,w0,python3action_facedetection_SampleVideo_50mb_taurus,0.997085,1,2000.000000,1,COMPLETED_SUCCESSFULLY,1957.415893,134.600046,2092.015939,1956.418808,2091.018854,15.535053,29,-1.000000,""
185,w0,python3action_facedetection_SampleVideo_50mb,0.000000,1,-1.000000,1,COMPLETED_SUCCESSFULLY,2092.015954,0.000010,2092.015964,2092.015954,2092.015964,209201596.413881,29,-1.000000,""
167_updated,w0,python3action_facedetection_SampleVideo_30mb_nova,0.997085,1,2000.000000,1,COMPLETED_SUCCESSFULLY,1956.302222,160.399990,2116.702212,1955.305137,2115.705127,13.190182,2,-1.000000,""
167,w0,python3action_facedetection_SampleVideo_30mb,0.000000,1,-1.000000,1,COMPLETED_SUCCESSFULLY,2116.702227,0.000010,2116.702237,2116.702227,2116.702237,211670223.723907,2,-1.000000,""
190_updated,w0,python3action_facedetection_SampleVideo_50mb_taurus,0.997085,1,2000.000000,1,COMPLETED_SUCCESSFULLY,2092.015984,134.600046,2226.616030,2091.018899,2225.618945,16.535053,29,-1.000000,""
190,w0,python3action_facedetection_SampleVideo_50mb,0.000000,1,-1.000000,1,COMPLETED_SUCCESSFULLY,2226.616045,0.000010,2226.616055,2226.616045,2226.616055,222661605.527562,29,-1.000000,""
python3action_image_processing_job33_3,w0,python3action_image_processing_reduced_0.86,0.997085,1,2000.000000,1,COMPLETED_SUCCESSFULLY,2226.616075,9.731413,2236.347488,2225.618990,2235.350403,229.704610,29,-1.000000,""
33_updated,w0,python3action_imageprocessing_SampleImage_40mb_taurus,0.997085,1,2000.000000,1,COMPLETED_SUCCESSFULLY,2236.347503,32.600046,2268.947549,2235.350418,2267.950464,69.568934,29,-1.000000,""
33,w0,python3action_imageprocessing_SampleImage_40mb,0.000000,1,-1.000000,1,COMPLETED_SUCCESSFULLY,2268.947564,0.000010,2268.947574,2268.947564,2268.947574,226894757.429427,29,-1.000000,""
172_updated,w0,python3action_facedetection_SampleVideo_30mb_nova,0.997085,1,2000.000000,1,COMPLETED_SUCCESSFULLY,2116.702257,160.399990,2277.102247,2115.705172,2276.105162,14.190183,2,-1.000000,""
172,w0,python3action_facedetection_SampleVideo_30mb,0.000000,1,-1.000000,1,COMPLETED_SUCCESSFULLY,2277.102262,0.000010,2277.102272,2277.102262,2277.102272,227710227.247613,2,-1.000000,""
47_updated,w0,python3action_imageprocessing_SampleImage_40mb_taurus,0.997085,1,2000.000000,1,COMPLETED_SUCCESSFULLY,2268.947594,32.600046,2301.547640,2267.950509,2300.550555,70.568936,29,-1.000000,""
47,w0,python3action_imageprocessing_SampleImage_40mb,0.000000,1,-1.000000,1,COMPLETED_SUCCESSFULLY,2301.547655,0.000010,2301.547665,2301.547655,2301.547665,230154766.543108,29,-1.000000,""
50_updated,w0,python3action_imageprocessing_SampleImage_40mb_taurus,0.997085,1,2000.000000,1,COMPLETED_SUCCESSFULLY,2301.547685,32.600046,2334.147732,2300.550600,2333.150647,71.568937,29,-1.000000,""
50,w0,python3action_imageprocessing_SampleImage_40mb,0.000000,1,-1.000000,1,COMPLETED_SUCCESSFULLY,2334.147747,0.000010,2334.147757,2334.147747,2334.147757,233414775.700201,29,-1.000000,""
56_updated,w0,python3action_imageprocessing_SampleImage_40mb_taurus,0.997085,1,2000.000000,1,COMPLETED_SUCCESSFULLY,2334.147777,32.600046,2366.747823,2333.150692,2365.750738,72.568938,29,-1.000000,""
56,w0,python3action_imageprocessing_SampleImage_40mb,0.000000,1,-1.000000,1,COMPLETED_SUCCESSFULLY,2366.747838,0.000010,2366.747848,2366.747838,2366.747848,236674784.813881,29,-1.000000,""
89_updated,w0,python3action_imageprocessing_SampleImage_40mb_taurus,0.997085,1,2000.000000,1,COMPLETED_SUCCESSFULLY,2366.747868,32.600046,2399.347914,2365.750783,2398.350829,73.568940,29,-1.000000,""
89,w0,python3action_imageprocessing_SampleImage_40mb,0.000000,1,-1.000000,1,COMPLETED_SUCCESSFULLY,2399.347929,0.000010,2399.347939,2399.347929,2399.347939,239934793.927562,29,-1.000000,""
92_updated,w0,python3action_imageprocessing_SampleImage_40mb_taurus,0.997085,1,2000.000000,1,COMPLETED_SUCCESSFULLY,2399.347959,32.600046,2431.948005,2398.350874,2430.950920,74.568941,29,-1.000000,""
92,w0,python3action_imageprocessing_SampleImage_40mb,0.000000,1,-1.000000,1,COMPLETED_SUCCESSFULLY,2431.948020,0.000010,2431.948030,2431.948020,2431.948030,243194803.041242,29,-1.000000,""
191_updated,w0,python3action_facedetection_SampleVideo_30mb_nova,0.997085,1,2000.000000,1,COMPLETED_SUCCESSFULLY,2277.102292,160.399990,2437.502283,2276.105207,2436.505198,15.190183,2,-1.000000,""
191,w0,python3action_facedetection_SampleVideo_30mb,0.000000,1,-1.000000,1,COMPLETED_SUCCESSFULLY,2437.502298,0.000010,2437.502308,2437.502298,2437.502308,243750230.800201,2,-1.000000,""
python3action_floatoperation_job6_1,w0,python3action_floatoperation,0.997085,1,2000.000000,1,COMPLETED_SUCCESSFULLY,2437.502328,2.439945,2439.942273,2436.505243,2438.945188,999.590112,2,-1.000000,""
96_updated,w0,python3action_imageprocessing_SampleImage_40mb_taurus,0.997085,1,2000.000000,1,COMPLETED_SUCCESSFULLY,2431.948050,32.600046,2464.548097,2430.950965,2463.551012,75.568942,29,-1.000000,""
96,w0,python3action_imageprocessing_SampleImage_40mb,0.000000,1,-1.000000,1,COMPLETED_SUCCESSFULLY,2464.548112,0.000010,2464.548122,2464.548112,2464.548122,246454812.200201,29,-1.000000,""
117_updated,w0,python3action_imageprocessing_SampleImage_40mb_taurus,0.997085,1,2000.000000,1,COMPLETED_SUCCESSFULLY,2464.548142,32.600046,2497.148188,2463.551057,2496.151103,76.568944,29,-1.000000,""
117,w0,python3action_imageprocessing_SampleImage_40mb,0.000000,1,-1.000000,1,COMPLETED_SUCCESSFULLY,2497.148203,0.000010,2497.148213,2497.148203,2497.148213,249714821.313881,29,-1.000000,""
6_updated,w0,python3action_floatoperation_100000000_nova,0.997085,1,2000.000000,1,COMPLETED_SUCCESSFULLY,2439.942288,66.200020,2506.142308,2438.945203,2505.145223,37.842062,2,-1.000000,""
6,w0,python3action_floatoperation_100000000,0.000000,1,-1.000000,1,COMPLETED_SUCCESSFULLY,2506.142323,0.000010,2506.142333,2506.142323,2506.142333,250614233.300201,2,-1.000000,""
135_updated,w0,python3action_imageprocessing_SampleImage_40mb_taurus,0.997085,1,2000.000000,1,COMPLETED_SUCCESSFULLY,2497.148233,32.600046,2529.748279,2496.151148,2528.751194,77.568945,29,-1.000000,""
135,w0,python3action_imageprocessing_SampleImage_40mb,0.000000,1,-1.000000,1,COMPLETED_SUCCESSFULLY,2529.748294,0.000010,2529.748304,2529.748294,2529.748304,252974830.427562,29,-1.000000,""
146_updated,w0,python3action_imageprocessing_SampleImage_40mb_taurus,0.997085,1,2000.000000,1,COMPLETED_SUCCESSFULLY,2529.748324,32.600046,2562.348370,2528.751239,2561.351285,78.568947,29,-1.000000,""
146,w0,python3action_imageprocessing_SampleImage_40mb,0.000000,1,-1.000000,1,COMPLETED_SUCCESSFULLY,2562.348385,0.000010,2562.348395,2562.348385,2562.348395,256234839.541243,29,-1.000000,""
18_updated,w0,python3action_floatoperation_100000000_nova,0.997085,1,2000.000000,1,COMPLETED_SUCCESSFULLY,2506.142353,66.200020,2572.342373,2505.145268,2571.345288,38.842062,2,-1.000000,""
18,w0,python3action_floatoperation_100000000,0.000000,1,-1.000000,1,COMPLETED_SUCCESSFULLY,2572.342388,0.000010,2572.342398,2572.342388,2572.342398,257234239.800201,2,-1.000000,""
161_updated,w0,python3action_imageprocessing_SampleImage_40mb_taurus,0.997085,1,2000.000000,1,COMPLETED_SUCCESSFULLY,2562.348415,32.600046,2594.948462,2561.351330,2593.951377,79.568948,29,-1.000000,""
161,w0,python3action_imageprocessing_SampleImage_40mb,0.000000,1,-1.000000,1,COMPLETED_SUCCESSFULLY,2594.948477,0.000010,2594.948487,2594.948477,2594.948487,259494848.700201,29,-1.000000,""
166_updated,w0,python3action_imageprocessing_SampleImage_40mb_taurus,0.997085,1,2000.000000,1,COMPLETED_SUCCESSFULLY,2594.948507,32.600046,2627.548553,2593.951422,2626.551468,80.568949,29,-1.000000,""
166,w0,python3action_imageprocessing_SampleImage_40mb,0.000000,1,-1.000000,1,COMPLETED_SUCCESSFULLY,2627.548568,0.000010,2627.548578,2627.548568,2627.548578,262754857.813881,29,-1.000000,""
20_updated,w0,python3action_floatoperation_100000000_nova,0.997085,1,2000.000000,1,COMPLETED_SUCCESSFULLY,2572.342418,66.200020,2638.542438,2571.345333,2637.545353,39.842063,2,-1.000000,""
20,w0,python3action_floatoperation_100000000,0.000000,1,-1.000000,1,COMPLETED_SUCCESSFULLY,2638.542453,0.000010,2638.542463,2638.542453,2638.542463,263854246.300201,2,-1.000000,""
179_updated,w0,python3action_imageprocessing_SampleImage_40mb_taurus,0.997085,1,2000.000000,1,COMPLETED_SUCCESSFULLY,2627.548598,32.600046,2660.148644,2626.551513,2659.151559,81.568951,29,-1.000000,""
179,w0,python3action_imageprocessing_SampleImage_40mb,0.000000,1,-1.000000,1,COMPLETED_SUCCESSFULLY,2660.148659,0.000010,2660.148669,2660.148659,2660.148669,266014866.927562,29,-1.000000,""
python3action_modeltraining_job19_3,w0,python3action_modeltraining_reduced_1.88,0.997085,1,2000.000000,1,COMPLETED_SUCCESSFULLY,2660.148689,0.000000,2660.148689,2659.151604,2659.151604,23021796133266.082031,29,-1.000000,""
19_updated,w0,python3action_modeltraining_reviews100mb_taurus,0.997085,1,2000.000000,1,COMPLETED_SUCCESSFULLY,2660.148719,88.199977,2748.348696,2659.151634,2747.351611,31.149119,29,-1.000000,""
19,w0,python3action_modeltraining_reviews100mb,0.000000,1,-1.000000,1,COMPLETED_SUCCESSFULLY,2748.348711,0.000010,2748.348721,2748.348711,2748.348721,274834872.122027,29,-1.000000,""
22_updated,w0,python3action_floatoperation_200000000_nova,0.997085,1,2000.000000,1,COMPLETED_SUCCESSFULLY,2638.542483,135.399990,2773.942473,2637.545398,2772.945388,20.479657,2,-1.000000,""
22,w0,python3action_floatoperation_200000000,0.000000,1,-1.000000,1,COMPLETED_SUCCESSFULLY,2773.942488,0.000010,2773.942498,2773.942488,2773.942498,277394249.823907,2,-1.000000,""
38_updated,w0,python3action_modeltraining_reviews100mb_taurus,0.997085,1,2000.000000,1,COMPLETED_SUCCESSFULLY,2748.348741,88.199977,2836.548718,2747.351656,2835.551633,32.149120,29,-1.000000,""
38,w0,python3action_modeltraining_reviews100mb,0.000000,1,-1.000000,1,COMPLETED_SUCCESSFULLY,2836.548733,0.000010,2836.548743,2836.548733,2836.548743,283654874.316091,29,-1.000000,""
24_updated,w0,python3action_floatoperation_200000000_nova,0.997085,1,2000.000000,1,COMPLETED_SUCCESSFULLY,2773.942518,135.399990,2909.342508,2772.945433,2908.345423,21.479658,2,-1.000000,""
24,w0,python3action_floatoperation_200000000,0.000000,1,-1.000000,1,COMPLETED_SUCCESSFULLY,2909.342523,0.000010,2909.342533,2909.342523,2909.342533,290934253.347613,2,-1.000000,""
65_updated,w0,python3action_modeltraining_reviews100mb_taurus,0.997085,1,2000.000000,1,COMPLETED_SUCCESSFULLY,2836.548763,88.199977,2924.748740,2835.551678,2923.751655,33.149120,29,-1.000000,""
65,w0,python3action_modeltraining_reviews100mb,0.000000,1,-1.000000,1,COMPLETED_SUCCESSFULLY,2924.748755,0.000010,2924.748765,2924.748755,2924.748765,292474876.510154,29,-1.000000,""
python3action_video_processing_job9_3,w0,python3action_video_processing_reduced_2.8,0.997085,1,2000.000000,1,COMPLETED_SUCCESSFULLY,2924.748785,0.000000,2924.748785,2923.751700,2923.751700,25312590480283.757812,29,-1.000000,""
25_updated,w0,python3action_floatoperation_200000000_nova,0.997085,1,2000.000000,1,COMPLETED_SUCCESSFULLY,2909.342553,135.399990,3044.742544,2908.345468,3043.745459,22.479658,2,-1.000000,""
25,w0,python3action_floatoperation_200000000,0.000000,1,-1.000000,1,COMPLETED_SUCCESSFULLY,3044.742559,0.000010,3044.742569,3044.742559,3044.742569,304474256.900201,2,-1.000000,""
9_updated,w0,python3action_videoprocessing_SampleVideo_50mb_taurus,0.997085,1,2000.000000,1,COMPLETED_SUCCESSFULLY,2924.748815,154.250029,3078.998844,2923.751730,3078.001759,19.954627,29,-1.000000,""
9,w0,python3action_videoprocessing_SampleVideo_50mb,0.000000,1,-1.000000,1,COMPLETED_SUCCESSFULLY,3078.998859,0.000010,3078.998869,3078.998859,3078.998869,307899886.900201,29,-1.000000,""
30_updated,w0,python3action_floatoperation_100000000_nova,0.997085,1,2000.000000,1,COMPLETED_SUCCESSFULLY,3044.742589,66.200020,3110.942609,3043.745504,3109.945524,46.978015,2,-1.000000,""
30,w0,python3action_floatoperation_100000000,0.000000,1,-1.000000,1,COMPLETED_SUCCESSFULLY,3110.942624,0.000010,3110.942634,3110.942624,3110.942634,311094263.400201,2,-1.000000,""
31_updated,w0,python3action_floatoperation_100000000_nova,0.997085,1,2000.000000,1,COMPLETED_SUCCESSFULLY,3110.942654,66.200020,3177.142674,3109.945569,3176.145589,47.978016,2,-1.000000,""
31,w0,python3action_floatoperation_100000000,0.000000,1,-1.000000,1,COMPLETED_SUCCESSFULLY,3177.142689,0.000010,3177.142699,3177.142689,3177.142699,317714269.900201,2,-1.000000,""
55_updated,w0,python3action_videoprocessing_SampleVideo_50mb_taurus,0.997085,1,2000.000000,1,COMPLETED_SUCCESSFULLY,3078.998889,154.250029,3233.248918,3078.001804,3232.251833,20.954627,29,-1.000000,""
55,w0,python3action_videoprocessing_SampleVideo_50mb,0.000000,1,-1.000000,1,COMPLETED_SUCCESSFULLY,3233.248933,0.000010,3233.248943,3233.248933,3233.248943,323324894.300201,29,-1.000000,""
36_updated,w0,python3action_floatoperation_100000000_nova,0.997085,1,2000.000000,1,COMPLETED_SUCCESSFULLY,3177.142719,66.200020,3243.342739,3176.145634,3242.345654,48.978017,2,-1.000000,""
36,w0,python3action_floatoperation_100000000,0.000000,1,-1.000000,1,COMPLETED_SUCCESSFULLY,3243.342754,0.000010,3243.342764,3243.342754,3243.342764,324334276.400201,2,-1.000000,""
43_updated,w0,python3action_floatoperation_100000000_nova,0.997085,1,2000.000000,1,COMPLETED_SUCCESSFULLY,3243.342784,66.200020,3309.542804,3242.345699,3308.545719,49.978017,2,-1.000000,""
43,w0,python3action_floatoperation_100000000,0.000000,1,-1.000000,1,COMPLETED_SUCCESSFULLY,3309.542819,0.000010,3309.542829,3309.542819,3309.542829,330954282.900201,2,-1.000000,""
58_updated,w0,python3action_videoprocessing_SampleVideo_50mb_taurus,0.997085,1,2000.000000,1,COMPLETED_SUCCESSFULLY,3233.248963,154.250029,3387.498992,3232.251878,3386.501907,21.954627,29,-1.000000,""
58,w0,python3action_videoprocessing_SampleVideo_50mb,0.000000,1,-1.000000,1,COMPLETED_SUCCESSFULLY,3387.499007,0.000010,3387.499017,3387.499007,3387.499017,338749901.700201,29,-1.000000,""
44_updated,w0,python3action_floatoperation_200000000_nova,0.997085,1,2000.000000,1,COMPLETED_SUCCESSFULLY,3309.542849,135.399990,3444.942839,3308.545764,3443.945754,25.435347,2,-1.000000,""
44,w0,python3action_floatoperation_200000000,0.000000,1,-1.000000,1,COMPLETED_SUCCESSFULLY,3444.942854,0.000010,3444.942864,3444.942854,3444.942864,344494286.423907,2,-1.000000,""
57_updated,w0,python3action_floatoperation_100000000_nova,0.997085,1,2000.000000,1,COMPLETED_SUCCESSFULLY,3444.942884,66.200020,3511.142904,3443.945799,3510.145819,53.023335,2,-1.000000,""
57,w0,python3action_floatoperation_100000000,0.000000,1,-1.000000,1,COMPLETED_SUCCESSFULLY,3511.142919,0.000010,3511.142929,3511.142919,3511.142929,351114292.900201,2,-1.000000,""
59_updated,w0,python3action_videoprocessing_SampleVideo_50mb_taurus,0.997085,1,2000.000000,1,COMPLETED_SUCCESSFULLY,3387.499037,154.250029,3541.749066,3386.501952,3540.751981,22.954628,29,-1.000000,""
59,w0,python3action_videoprocessing_SampleVideo_50mb,0.000000,1,-1.000000,1,COMPLETED_SUCCESSFULLY,3541.749081,0.000010,3541.749091,3541.749081,3541.749091,354174909.100201,29,-1.000000,""
60_updated,w0,python3action_floatoperation_100000000_nova,0.997085,1,2000.000000,1,COMPLETED_SUCCESSFULLY,3511.142949,66.200020,3577.342969,3510.145864,3576.345884,54.023336,2,-1.000000,""
60,w0,python3action_floatoperation_100000000,0.000000,1,-1.000000,1,COMPLETED_SUCCESSFULLY,3577.342984,0.000010,3577.342994,3577.342984,3577.342994,357734299.400201,2,-1.000000,""
73_updated,w0,python3action_floatoperation_100000000_nova,0.997085,1,2000.000000,1,COMPLETED_SUCCESSFULLY,3577.343014,66.200020,3643.543034,3576.345929,3642.545949,55.023336,2,-1.000000,""
73,w0,python3action_floatoperation_100000000,0.000000,1,-1.000000,1,COMPLETED_SUCCESSFULLY,3643.543049,0.000010,3643.543059,3643.543049,3643.543059,364354305.900201,2,-1.000000,""
102_updated,w0,python3action_videoprocessing_SampleVideo_50mb_taurus,0.997085,1,2000.000000,1,COMPLETED_SUCCESSFULLY,3541.749111,154.250029,3695.999140,3540.752026,3695.002055,23.954628,29,-1.000000,""
102,w0,python3action_videoprocessing_SampleVideo_50mb,0.000000,1,-1.000000,1,COMPLETED_SUCCESSFULLY,3695.999155,0.000010,3695.999165,3695.999155,3695.999165,369599916.500201,29,-1.000000,""
91_updated,w0,python3action_floatoperation_200000000_nova,0.997085,1,2000.000000,1,COMPLETED_SUCCESSFULLY,3643.543079,135.399990,3778.943069,3642.545994,3777.945984,27.902114,2,-1.000000,""
91,w0,python3action_floatoperation_200000000,0.000000,1,-1.000000,1,COMPLETED_SUCCESSFULLY,3778.943084,0.000010,3778.943094,3778.943084,3778.943094,377894309.423907,2,-1.000000,""
98_updated,w0,python3action_floatoperation_100000000_nova,0.997085,1,2000.000000,1,COMPLETED_SUCCESSFULLY,3778.943114,66.200020,3845.143134,3777.946029,3844.146049,58.068654,2,-1.000000,""
98,w0,python3action_floatoperation_100000000,0.000000,1,-1.000000,1,COMPLETED_SUCCESSFULLY,3845.143149,0.000010,3845.143159,3845.143149,3845.143159,384514315.900201,2,-1.000000,""
116_updated,w0,python3action_videoprocessing_SampleVideo_50mb_taurus,0.997085,1,2000.000000,1,COMPLETED_SUCCESSFULLY,3695.999185,154.250029,3850.249214,3695.002100,3849.252129,24.954628,29,-1.000000,""
116,w0,python3action_videoprocessing_SampleVideo_50mb,0.000000,1,-1.000000,1,COMPLETED_SUCCESSFULLY,3850.249229,0.000010,3850.249239,3850.249229,3850.249239,385024923.900201,29,-1.000000,""
100_updated,w0,python3action_floatoperation_200000000_nova,0.997085,1,2000.000000,1,COMPLETED_SUCCESSFULLY,3845.143179,135.399990,3980.543169,3844.146094,3979.546084,29.391037,2,-1.000000,""
100,w0,python3action_floatoperation_200000000,0.000000,1,-1.000000,1,COMPLETED_SUCCESSFULLY,3980.543184,0.000010,3980.543194,3980.543184,3980.543194,398054319.423907,2,-1.000000,""
134_updated,w0,python3action_videoprocessing_SampleVideo_50mb_taurus,0.997085,1,2000.000000,1,COMPLETED_SUCCESSFULLY,3850.249259,154.250029,4004.499288,3849.252174,4003.502203,25.954629,29,-1.000000,""
134,w0,python3action_videoprocessing_SampleVideo_50mb,0.000000,1,-1.000000,1,COMPLETED_SUCCESSFULLY,4004.499303,0.000010,4004.499313,4004.499303,4004.499313,400449931.300201,29,-1.000000,""
103_updated,w0,python3action_floatoperation_100000000_nova,0.997085,1,2000.000000,1,COMPLETED_SUCCESSFULLY,3980.543214,66.200020,4046.743234,3979.546129,4045.746149,61.113972,2,-1.000000,""
103,w0,python3action_floatoperation_100000000,0.000000,1,-1.000000,1,COMPLETED_SUCCESSFULLY,4046.743249,0.000010,4046.743259,4046.743249,4046.743259,404674325.900201,2,-1.000000,""
136_updated,w0,python3action_videoprocessing_SampleVideo_50mb_taurus,0.997085,1,2000.000000,1,COMPLETED_SUCCESSFULLY,4004.499333,154.250029,4158.749362,4003.502248,4157.752277,26.954629,29,-1.000000,""
136,w0,python3action_videoprocessing_SampleVideo_50mb,0.000000,1,-1.000000,1,COMPLETED_SUCCESSFULLY,4158.749377,0.000010,4158.749387,4158.749377,4158.749387,415874938.700201,29,-1.000000,""
113_updated,w0,python3action_floatoperation_200000000_nova,0.997085,1,2000.000000,1,COMPLETED_SUCCESSFULLY,4046.743279,135.399990,4182.143269,4045.746194,4181.146184,30.879959,2,-1.000000,""
113,w0,python3action_floatoperation_200000000,0.000000,1,-1.000000,1,COMPLETED_SUCCESSFULLY,4182.143284,0.000010,4182.143294,4182.143284,4182.143294,418214329.423907,2,-1.000000,""
139_updated,w0,python3action_videoprocessing_SampleVideo_50mb_taurus,0.997085,1,2000.000000,1,COMPLETED_SUCCESSFULLY,4158.749407,154.250029,4312.999436,4157.752322,4312.002351,27.954629,29,-1.000000,""
139,w0,python3action_videoprocessing_SampleVideo_50mb,0.000000,1,-1.000000,1,COMPLETED_SUCCESSFULLY,4312.999451,0.000010,4312.999461,4312.999451,4312.999461,431299946.100201,29,-1.000000,""
119_updated,w0,python3action_floatoperation_200000000_nova,0.997085,1,2000.000000,1,COMPLETED_SUCCESSFULLY,4182.143314,135.399990,4317.543304,4181.146229,4316.546219,31.879960,2,-1.000000,""
119,w0,python3action_floatoperation_200000000,0.000000,1,-1.000000,1,COMPLETED_SUCCESSFULLY,4317.543319,0.000010,4317.543329,4317.543319,4317.543329,431754332.947613,2,-1.000000,""
120_updated,w0,python3action_floatoperation_200000000_nova,0.997085,1,2000.000000,1,COMPLETED_SUCCESSFULLY,4317.543349,135.399990,4452.943340,4316.546264,4451.946255,32.879960,2,-1.000000,""
120,w0,python3action_floatoperation_200000000,0.000000,1,-1.000000,1,COMPLETED_SUCCESSFULLY,4452.943355,0.000010,4452.943365,4452.943355,4452.943365,445294336.500201,2,-1.000000,""
145_updated,w0,python3action_videoprocessing_SampleVideo_50mb_taurus,0.997085,1,2000.000000,1,COMPLETED_SUCCESSFULLY,4312.999481,154.250029,4467.249510,4312.002396,4466.252425,28.954629,29,-1.000000,""
145,w0,python3action_videoprocessing_SampleVideo_50mb,0.000000,1,-1.000000,1,COMPLETED_SUCCESSFULLY,4467.249525,0.000010,4467.249535,4467.249525,4467.249535,446724953.500201,29,-1.000000,""
123_updated,w0,python3action_floatoperation_100000000_nova,0.997085,1,2000.000000,1,COMPLETED_SUCCESSFULLY,4452.943385,66.200020,4519.143405,4451.946300,4518.146320,68.249924,2,-1.000000,""
123,w0,python3action_floatoperation_100000000,0.000000,1,-1.000000,1,COMPLETED_SUCCESSFULLY,4519.143420,0.000010,4519.143430,4519.143420,4519.143430,451914343.000201,2,-1.000000,""
149_updated,w0,python3action_videoprocessing_SampleVideo_50mb_taurus,0.997085,1,2000.000000,1,COMPLETED_SUCCESSFULLY,4467.249555,154.250029,4621.499584,4466.252470,4620.502499,29.954630,29,-1.000000,""
149,w0,python3action_videoprocessing_SampleVideo_50mb,0.000000,1,-1.000000,1,COMPLETED_SUCCESSFULLY,4621.499599,0.000010,4621.499609,4621.499599,4621.499609,462149960.900201,29,-1.000000,""
126_updated,w0,python3action_floatoperation_200000000_nova,0.997085,1,2000.000000,1,COMPLETED_SUCCESSFULLY,4519.143450,135.399990,4654.543440,4518.146365,4653.546355,34.368883,2,-1.000000,""
126,w0,python3action_floatoperation_200000000,0.000000,1,-1.000000,1,COMPLETED_SUCCESSFULLY,4654.543455,0.000010,4654.543465,4654.543455,4654.543465,465454346.523907,2,-1.000000,""
158_updated,w0,python3action_videoprocessing_SampleVideo_50mb_taurus,0.997085,1,2000.000000,1,COMPLETED_SUCCESSFULLY,4621.499629,154.250029,4775.749658,4620.502544,4774.752573,30.954630,29,-1.000000,""
158,w0,python3action_videoprocessing_SampleVideo_50mb,0.000000,1,-1.000000,1,COMPLETED_SUCCESSFULLY,4775.749673,0.000010,4775.749683,4775.749673,4775.749683,477574968.300201,29,-1.000000,""
130_updated,w0,python3action_floatoperation_200000000_nova,0.997085,1,2000.000000,1,COMPLETED_SUCCESSFULLY,4654.543485,135.399990,4789.943475,4653.546400,4788.946390,35.368883,2,-1.000000,""
130,w0,python3action_floatoperation_200000000,0.000000,1,-1.000000,1,COMPLETED_SUCCESSFULLY,4789.943490,0.000010,4789.943500,4789.943490,4789.943500,478994350.047612,2,-1.000000,""
132_updated,w0,python3action_floatoperation_100000000_nova,0.997085,1,2000.000000,1,COMPLETED_SUCCESSFULLY,4789.943520,66.200020,4856.143540,4788.946435,4855.146455,73.340559,2,-1.000000,""
132,w0,python3action_floatoperation_100000000,0.000000,1,-1.000000,1,COMPLETED_SUCCESSFULLY,4856.143555,0.000010,4856.143565,4856.143555,4856.143565,485614356.502007,2,-1.000000,""
164_updated,w0,python3action_videoprocessing_SampleVideo_50mb_taurus,0.997085,1,2000.000000,1,COMPLETED_SUCCESSFULLY,4775.749703,154.250029,4929.999732,4774.752618,4929.002647,31.954630,29,-1.000000,""
164,w0,python3action_videoprocessing_SampleVideo_50mb,0.000000,1,-1.000000,1,COMPLETED_SUCCESSFULLY,4929.999747,0.000010,4929.999757,4929.999747,4929.999757,492999975.700201,29,-1.000000,""
141_updated,w0,python3action_floatoperation_200000000_nova,0.997085,1,2000.000000,1,COMPLETED_SUCCESSFULLY,4856.143585,135.399990,4991.543575,4855.146500,4990.546490,36.857805,2,-1.000000,""
141,w0,python3action_floatoperation_200000000,0.000000,1,-1.000000,1,COMPLETED_SUCCESSFULLY,4991.543590,0.000010,4991.543600,4991.543590,4991.543600,499154360.025713,2,-1.000000,""
144_updated,w0,python3action_floatoperation_100000000_nova,0.997085,1,2000.000000,1,COMPLETED_SUCCESSFULLY,4991.543620,66.200020,5057.743640,4990.546535,5056.746555,76.385877,2,-1.000000,""
144,w0,python3action_floatoperation_100000000,0.000000,1,-1.000000,1,COMPLETED_SUCCESSFULLY,5057.743655,0.000010,5057.743665,5057.743655,5057.743665,505774366.500201,2,-1.000000,""
184_updated,w0,python3action_videoprocessing_SampleVideo_50mb_taurus,0.997085,1,2000.000000,1,COMPLETED_SUCCESSFULLY,4929.999777,154.250029,5084.249806,4929.002692,5083.252721,32.954631,29,-1.000000,""
184,w0,python3action_videoprocessing_SampleVideo_50mb,0.000000,1,-1.000000,1,COMPLETED_SUCCESSFULLY,5084.249821,0.000010,5084.249831,5084.249821,5084.249831,508424983.100201,29,-1.000000,""
147_updated,w0,python3action_floatoperation_100000000_nova,0.997085,1,2000.000000,1,COMPLETED_SUCCESSFULLY,5057.743685,66.200020,5123.943705,5056.746600,5122.946620,77.385878,2,-1.000000,""
147,w0,python3action_floatoperation_100000000,0.000000,1,-1.000000,1,COMPLETED_SUCCESSFULLY,5123.943720,0.000010,5123.943730,5123.943720,5123.943730,512394373.000201,2,-1.000000,""
162_updated,w0,python3action_floatoperation_100000000_nova,0.997085,1,2000.000000,1,COMPLETED_SUCCESSFULLY,5123.943750,66.200020,5190.143770,5122.946665,5189.146685,78.385878,2,-1.000000,""
162,w0,python3action_floatoperation_100000000,0.000000,1,-1.000000,1,COMPLETED_SUCCESSFULLY,5190.143785,0.000010,5190.143795,5190.143785,5190.143795,519014379.500201,2,-1.000000,""
176_updated,w0,python3action_floatoperation_100000000_nova,0.997085,1,2000.000000,1,COMPLETED_SUCCESSFULLY,5190.143815,66.200020,5256.343835,5189.146730,5255.346750,79.385879,2,-1.000000,""
176,w0,python3action_floatoperation_100000000,0.000000,1,-1.000000,1,COMPLETED_SUCCESSFULLY,5256.343850,0.000010,5256.343860,5256.343850,5256.343860,525634386.000201,2,-1.000000,""
180_updated,w0,python3action_floatoperation_200000000_nova,0.997085,1,2000.000000,1,COMPLETED_SUCCESSFULLY,5256.343880,135.399990,5391.743870,5255.346795,5390.746785,39.813495,2,-1.000000,""
180,w0,python3action_floatoperation_200000000,0.000000,1,-1.000000,1,COMPLETED_SUCCESSFULLY,5391.743885,0.000010,5391.743895,5391.743885,5391.743895,539174389.523907,2,-1.000000,""
181_updated,w0,python3action_floatoperation_100000000_nova,0.997085,1,2000.000000,1,COMPLETED_SUCCESSFULLY,5391.743915,66.200020,5457.943935,5390.746830,5456.946850,82.431197,2,-1.000000,""
181,w0,python3action_floatoperation_100000000,0.000000,1,-1.000000,1,COMPLETED_SUCCESSFULLY,5457.943950,0.000010,5457.943960,5457.943950,5457.943960,545794396.000201,2,-1.000000,""
188_updated,w0,python3action_floatoperation_100000000_nova,0.997085,1,2000.000000,1,COMPLETED_SUCCESSFULLY,5457.943980,66.200020,5524.144000,5456.946895,5523.146915,83.431198,2,-1.000000,""
188,w0,python3action_floatoperation_100000000,0.000000,1,-1.000000,1,COMPLETED_SUCCESSFULLY,5524.144015,0.000010,5524.144025,5524.144015,5524.144025,552414402.500201,2,-1.000000,""
194_updated,w0,python3action_floatoperation_100000000_nova,0.997085,1,2000.000000,1,COMPLETED_SUCCESSFULLY,5524.144045,66.200020,5590.344065,5523.146960,5589.346980,84.431198,2,-1.000000,""
194,w0,python3action_floatoperation_100000000,0.000000,1,-1.000000,1,COMPLETED_SUCCESSFULLY,5590.344080,0.000010,5590.344090,5590.344080,5590.344090,559034409.000201,2,-1.000000,""
196_updated,w0,python3action_floatoperation_100000000_nova,0.997085,1,2000.000000,1,COMPLETED_SUCCESSFULLY,5590.344110,66.200020,5656.544130,5589.347025,5655.547045,85.431199,2,-1.000000,""
196,w0,python3action_floatoperation_100000000,0.000000,1,-1.000000,1,COMPLETED_SUCCESSFULLY,5656.544145,0.000010,5656.544155,5656.544145,5656.544155,565654415.500201,2,-1.000000,""
198_updated,w0,python3action_floatoperation_100000000_nova,0.997085,1,2000.000000,1,COMPLETED_SUCCESSFULLY,5656.544175,66.200020,5722.744195,5655.547090,5721.747110,86.431200,2,-1.000000,""
198,w0,python3action_floatoperation_100000000,0.000000,1,-1.000000,1,COMPLETED_SUCCESSFULLY,5722.744210,0.000010,5722.744220,5722.744210,5722.744220,572274422.000201,2,-1.000000,""
python3action_linpack_job7_1,w0,python3action_linpack,0.997085,1,2000.000000,1,COMPLETED_SUCCESSFULLY,5722.744240,2.439945,5725.184185,5721.747155,5724.187100,2346.030919,2,-1.000000,""
7_updated,w0,python3action_linpack_5000_nova,0.997085,1,2000.000000,1,COMPLETED_SUCCESSFULLY,5725.184200,34.600010,5759.784210,5724.187115,5758.787125,166.438887,2,-1.000000,""
7,w0,python3action_linpack_5000,0.000000,1,-1.000000,1,COMPLETED_SUCCESSFULLY,5759.784225,0.000010,5759.784235,5759.784225,5759.784235,575978423.507280,2,-1.000000,""
12_updated,w0,python3action_linpack_5000_nova,0.997085,1,2000.000000,1,COMPLETED_SUCCESSFULLY,5759.784255,34.600010,5794.384265,5758.787170,5793.387180,167.438889,2,-1.000000,""
12,w0,python3action_linpack_5000,0.000000,1,-1.000000,1,COMPLETED_SUCCESSFULLY,5794.384280,0.000010,5794.384290,5794.384280,5794.384290,579438429.000201,2,-1.000000,""
75_updated,w0,python3action_linpack_5000_nova,0.997085,1,2000.000000,1,COMPLETED_SUCCESSFULLY,5794.384310,34.600010,5828.984320,5793.387225,5827.987235,168.438890,2,-1.000000,""
75,w0,python3action_linpack_5000,0.000000,1,-1.000000,1,COMPLETED_SUCCESSFULLY,5828.984335,0.000010,5828.984345,5828.984335,5828.984345,582898434.500201,2,-1.000000,""
82_updated,w0,python3action_linpack_5000_nova,0.997085,1,2000.000000,1,COMPLETED_SUCCESSFULLY,5828.984365,34.600010,5863.584375,5827.987280,5862.587290,169.438891,2,-1.000000,""
82,w0,python3action_linpack_5000,0.000000,1,-1.000000,1,COMPLETED_SUCCESSFULLY,5863.584390,0.000010,5863.584400,5863.584390,5863.584400,586358440.000201,2,-1.000000,""
122_updated,w0,python3action_linpack_5000_nova,0.997085,1,2000.000000,1,COMPLETED_SUCCESSFULLY,5863.584420,34.600010,5898.184430,5862.587335,5897.187345,170.438892,2,-1.000000,""
122,w0,python3action_linpack_5000,0.000000,1,-1.000000,1,COMPLETED_SUCCESSFULLY,5898.184445,0.000010,5898.184455,5898.184445,5898.184455,589818445.500201,2,-1.000000,""
142_updated,w0,python3action_linpack_5000_nova,0.997085,1,2000.000000,1,COMPLETED_SUCCESSFULLY,5898.184475,34.600010,5932.784485,5897.187390,5931.787400,171.438894,2,-1.000000,""
142,w0,python3action_linpack_5000,0.000000,1,-1.000000,1,COMPLETED_SUCCESSFULLY,5932.784500,0.000010,5932.784510,5932.784500,5932.784510,593278451.000201,2,-1.000000,""
python3action_modeltraining_job11_1,w0,python3action_modeltraining_reduced_0.94,0.997085,1,2000.000000,1,COMPLETED_SUCCESSFULLY,5932.784530,0.000000,5932.784530,5931.787445,5931.787445,120779060542219.765625,2,-1.000000,""
11_updated,w0,python3action_modeltraining_reviews100mb_nova,0.997085,1,2000.000000,1,COMPLETED_SUCCESSFULLY,5932.784560,79.600010,6012.384570,5931.787475,6011.387485,75.519934,2,-1.000000,""
11,w0,python3action_modeltraining_reviews100mb,0.000000,1,-1.000000,1,COMPLETED_SUCCESSFULLY,6012.384585,0.000010,6012.384595,6012.384585,6012.384595,601238459.500201,2,-1.000000,""
16_updated,w0,python3action_modeltraining_reviews50mb_nova,0.997085,1,2000.000000,1,COMPLETED_SUCCESSFULLY,6012.384615,42.399990,6054.784605,6011.387530,6053.787520,142.778040,2,-1.000000,""
16,w0,python3action_modeltraining_reviews50mb,0.000000,1,-1.000000,1,COMPLETED_SUCCESSFULLY,6054.784620,0.000010,6054.784630,6054.784620,6054.784630,605478463.023907,2,-1.000000,""
42_updated,w0,python3action_modeltraining_reviews50mb_nova,0.997085,1,2000.000000,1,COMPLETED_SUCCESSFULLY,6054.784650,42.399990,6097.184640,6053.787565,6096.187555,143.778042,2,-1.000000,""
42,w0,python3action_modeltraining_reviews50mb,0.000000,1,-1.000000,1,COMPLETED_SUCCESSFULLY,6097.184655,0.000010,6097.184665,6097.184655,6097.184665,609718466.547613,2,-1.000000,""
67_updated,w0,python3action_modeltraining_reviews50mb_nova,0.997085,1,2000.000000,1,COMPLETED_SUCCESSFULLY,6097.184685,42.399990,6139.584676,6096.187600,6138.587591,144.778043,2,-1.000000,""
67,w0,python3action_modeltraining_reviews50mb,0.000000,1,-1.000000,1,COMPLETED_SUCCESSFULLY,6139.584691,0.000010,6139.584701,6139.584691,6139.584701,613958470.100201,2,-1.000000,""
69_updated,w0,python3action_modeltraining_reviews100mb_nova,0.997085,1,2000.000000,1,COMPLETED_SUCCESSFULLY,6139.584721,79.600010,6219.184731,6138.587636,6218.187646,78.117926,2,-1.000000,""
69,w0,python3action_modeltraining_reviews100mb,0.000000,1,-1.000000,1,COMPLETED_SUCCESSFULLY,6219.184746,0.000010,6219.184756,6219.184746,6219.184756,621918475.600201,2,-1.000000,""
86_updated,w0,python3action_modeltraining_reviews50mb_nova,0.997085,1,2000.000000,1,COMPLETED_SUCCESSFULLY,6219.184776,42.399990,6261.584766,6218.187691,6260.587681,147.655404,2,-1.000000,""
86,w0,python3action_modeltraining_reviews50mb,0.000000,1,-1.000000,1,COMPLETED_SUCCESSFULLY,6261.584781,0.000010,6261.584791,6261.584781,6261.584791,626158479.123907,2,-1.000000,""
106_updated,w0,python3action_modeltraining_reviews100mb_nova,0.997085,1,2000.000000,1,COMPLETED_SUCCESSFULLY,6261.584811,79.600010,6341.184821,6260.587726,6340.187736,79.650590,2,-1.000000,""
106,w0,python3action_modeltraining_reviews100mb,0.000000,1,-1.000000,1,COMPLETED_SUCCESSFULLY,6341.184836,0.000010,6341.184846,6341.184836,6341.184846,634118484.601406,2,-1.000000,""
112_updated,w0,python3action_modeltraining_reviews50mb_nova,0.997085,1,2000.000000,1,COMPLETED_SUCCESSFULLY,6341.184866,42.399990,6383.584856,6340.187781,6382.587771,150.532765,2,-1.000000,""
112,w0,python3action_modeltraining_reviews50mb,0.000000,1,-1.000000,1,COMPLETED_SUCCESSFULLY,6383.584871,0.000010,6383.584881,6383.584871,6383.584881,638358488.125111,2,-1.000000,""
121_updated,w0,python3action_modeltraining_reviews50mb_nova,0.997085,1,2000.000000,1,COMPLETED_SUCCESSFULLY,6383.584901,42.399990,6425.984891,6382.587816,6424.987806,151.532766,2,-1.000000,""
121,w0,python3action_modeltraining_reviews50mb,0.000000,1,-1.000000,1,COMPLETED_SUCCESSFULLY,6425.984906,0.000010,6425.984916,6425.984906,6425.984916,642598491.648817,2,-1.000000,""
124_updated,w0,python3action_modeltraining_reviews50mb_nova,0.997085,1,2000.000000,1,COMPLETED_SUCCESSFULLY,6425.984936,42.399990,6468.384927,6424.987851,6467.387842,152.532767,2,-1.000000,""
124,w0,python3action_modeltraining_reviews50mb,0.000000,1,-1.000000,1,COMPLETED_SUCCESSFULLY,6468.384942,0.000010,6468.384952,6468.384942,6468.384952,646838495.200201,2,-1.000000,""
128_updated,w0,python3action_modeltraining_reviews50mb_nova,0.997085,1,2000.000000,1,COMPLETED_SUCCESSFULLY,6468.384972,42.399990,6510.784962,6467.387887,6509.787877,153.532768,2,-1.000000,""
128,w0,python3action_modeltraining_reviews50mb,0.000000,1,-1.000000,1,COMPLETED_SUCCESSFULLY,6510.784977,0.000010,6510.784987,6510.784977,6510.784987,651078498.723907,2,-1.000000,""
140_updated,w0,python3action_modeltraining_reviews100mb_nova,0.997085,1,2000.000000,1,COMPLETED_SUCCESSFULLY,6510.785007,79.600010,6590.385017,6509.787922,6589.387932,82.781245,2,-1.000000,""
140,w0,python3action_modeltraining_reviews100mb,0.000000,1,-1.000000,1,COMPLETED_SUCCESSFULLY,6590.385032,0.000010,6590.385042,6590.385032,6590.385042,659038504.201405,2,-1.000000,""
143_updated,w0,python3action_modeltraining_reviews100mb_nova,0.997085,1,2000.000000,1,COMPLETED_SUCCESSFULLY,6590.385062,79.600010,6669.985072,6589.387977,6668.987987,83.781246,2,-1.000000,""
143,w0,python3action_modeltraining_reviews100mb,0.000000,1,-1.000000,1,COMPLETED_SUCCESSFULLY,6669.985087,0.000010,6669.985097,6669.985087,6669.985097,666998509.700201,2,-1.000000,""
174_updated,w0,python3action_modeltraining_reviews50mb_nova,0.997085,1,2000.000000,1,COMPLETED_SUCCESSFULLY,6669.985117,42.399990,6712.385107,6668.988032,6711.388022,158.287490,2,-1.000000,""
174,w0,python3action_modeltraining_reviews50mb,0.000000,1,-1.000000,1,COMPLETED_SUCCESSFULLY,6712.385122,0.000010,6712.385132,6712.385122,6712.385132,671238513.223907,2,-1.000000,""
187_updated,w0,python3action_modeltraining_reviews50mb_nova,0.997085,1,2000.000000,1,COMPLETED_SUCCESSFULLY,6712.385152,42.399990,6754.785142,6711.388067,6753.788057,159.287491,2,-1.000000,""
187,w0,python3action_modeltraining_reviews50mb,0.000000,1,-1.000000,1,COMPLETED_SUCCESSFULLY,6754.785157,0.000010,6754.785167,6754.785157,6754.785167,675478516.747613,2,-1.000000,""
189_updated,w0,python3action_modeltraining_reviews50mb_nova,0.997085,1,2000.000000,1,COMPLETED_SUCCESSFULLY,6754.785187,42.399990,6797.185178,6753.788102,6796.188093,160.287492,2,-1.000000,""
189,w0,python3action_modeltraining_reviews50mb,0.000000,1,-1.000000,1,COMPLETED_SUCCESSFULLY,6797.185193,0.000010,6797.185203,6797.185193,6797.185203,679718520.300201,2,-1.000000,""
python3action_pyaes_job2_1,w0,python3action_pyaes_reduced_0.85,0.997085,1,2000.000000,1,COMPLETED_SUCCESSFULLY,6797.185223,0.320244,6797.505467,6796.188138,6796.508382,21222.923746,2,-1.000000,""
2_updated,w0,python3action_pyaes_4000_nova,0.997085,1,2000.000000,1,COMPLETED_SUCCESSFULLY,6797.505482,139.600010,6937.105492,6796.508397,6936.108407,49.685587,2,-1.000000,""
2,w0,python3action_pyaes_4000,0.000000,1,-1.000000,1,COMPLETED_SUCCESSFULLY,6937.105507,0.000010,6937.105517,6937.105507,6937.105517,693710551.700201,2,-1.000000,""
5_updated,w0,python3action_pyaes_3000_nova,0.997085,1,2000.000000,1,COMPLETED_SUCCESSFULLY,6937.105537,78.200020,7015.305557,6936.108452,7014.308472,89.697017,2,-1.000000,""
5,w0,python3action_pyaes_3000,0.000000,1,-1.000000,1,COMPLETED_SUCCESSFULLY,7015.305572,0.000010,7015.305582,7015.305572,7015.305582,701530558.200201,2,-1.000000,""
14_updated,w0,python3action_pyaes_4000_nova,0.997085,1,2000.000000,1,COMPLETED_SUCCESSFULLY,7015.305602,139.600010,7154.905612,7014.308517,7153.908527,51.245759,2,-1.000000,""
14,w0,python3action_pyaes_4000,0.000000,1,-1.000000,1,COMPLETED_SUCCESSFULLY,7154.905627,0.000010,7154.905637,7154.905627,7154.905637,715490563.700201,2,-1.000000,""
26_updated,w0,python3action_pyaes_4000_nova,0.997085,1,2000.000000,1,COMPLETED_SUCCESSFULLY,7154.905657,139.600010,7294.505667,7153.908572,7293.508582,52.245760,2,-1.000000,""
26,w0,python3action_pyaes_4000,0.000000,1,-1.000000,1,COMPLETED_SUCCESSFULLY,7294.505682,0.000010,7294.505692,7294.505682,7294.505692,729450569.200201,2,-1.000000,""
27_updated,w0,python3action_pyaes_4000_nova,0.997085,1,2000.000000,1,COMPLETED_SUCCESSFULLY,7294.505712,139.600010,7434.105722,7293.508627,7433.108637,53.245760,2,-1.000000,""
27,w0,python3action_pyaes_4000,0.000000,1,-1.000000,1,COMPLETED_SUCCESSFULLY,7434.105737,0.000010,7434.105747,7434.105737,7434.105747,743410574.700201,2,-1.000000,""
40_updated,w0,python3action_pyaes_4000_nova,0.997085,1,2000.000000,1,COMPLETED_SUCCESSFULLY,7434.105767,139.600010,7573.705777,7433.108682,7572.708692,54.245760,2,-1.000000,""
40,w0,python3action_pyaes_4000,0.000000,1,-1.000000,1,COMPLETED_SUCCESSFULLY,7573.705792,0.000010,7573.705802,7573.705792,7573.705802,757370580.200201,2,-1.000000,""
49_updated,w0,python3action_pyaes_4000_nova,0.997085,1,2000.000000,1,COMPLETED_SUCCESSFULLY,7573.705822,139.600010,7713.305832,7572.708737,7712.308747,55.245761,2,-1.000000,""
49,w0,python3action_pyaes_4000,0.000000,1,-1.000000,1,COMPLETED_SUCCESSFULLY,7713.305847,0.000010,7713.305857,7713.305847,7713.305857,771330585.700201,2,-1.000000,""
61_updated,w0,python3action_pyaes_3000_nova,0.997085,1,2000.000000,1,COMPLETED_SUCCESSFULLY,7713.305877,78.200020,7791.505897,7712.308792,7790.508812,99.622850,2,-1.000000,""
61,w0,python3action_pyaes_3000,0.000000,1,-1.000000,1,COMPLETED_SUCCESSFULLY,7791.505912,0.000010,7791.505922,7791.505912,7791.505922,779150592.200201,2,-1.000000,""
63_updated,w0,python3action_pyaes_4000_nova,0.997085,1,2000.000000,1,COMPLETED_SUCCESSFULLY,7791.505942,139.600010,7931.105952,7790.508857,7930.108867,56.805933,2,-1.000000,""
63,w0,python3action_pyaes_4000,0.000000,1,-1.000000,1,COMPLETED_SUCCESSFULLY,7931.105967,0.000010,7931.105977,7931.105967,7931.105977,793110597.700201,2,-1.000000,""
66_updated,w0,python3action_pyaes_4000_nova,0.997085,1,2000.000000,1,COMPLETED_SUCCESSFULLY,7931.105997,139.600010,8070.706007,7930.108912,8069.708922,57.805934,2,-1.000000,""
66,w0,python3action_pyaes_4000,0.000000,1,-1.000000,1,COMPLETED_SUCCESSFULLY,8070.706022,0.000010,8070.706032,8070.706022,8070.706032,807070603.200201,2,-1.000000,""
70_updated,w0,python3action_pyaes_4000_nova,0.997085,1,2000.000000,1,COMPLETED_SUCCESSFULLY,8070.706052,139.600010,8210.306062,8069.708967,8209.308977,58.805934,2,-1.000000,""
70,w0,python3action_pyaes_4000,0.000000,1,-1.000000,1,COMPLETED_SUCCESSFULLY,8210.306077,0.000010,8210.306087,8210.306077,8210.306087,821030608.700201,2,-1.000000,""
72_updated,w0,python3action_pyaes_3000_nova,0.997085,1,2000.000000,1,COMPLETED_SUCCESSFULLY,8210.306107,78.200020,8288.506127,8209.309022,8287.509042,105.978350,2,-1.000000,""
72,w0,python3action_pyaes_3000,0.000000,1,-1.000000,1,COMPLETED_SUCCESSFULLY,8288.506142,0.000010,8288.506152,8288.506142,8288.506152,828850615.200201,2,-1.000000,""
85_updated,w0,python3action_pyaes_3000_nova,0.997085,1,2000.000000,1,COMPLETED_SUCCESSFULLY,8288.506172,78.200020,8366.706192,8287.509087,8365.709107,106.978351,2,-1.000000,""
85,w0,python3action_pyaes_3000,0.000000,1,-1.000000,1,COMPLETED_SUCCESSFULLY,8366.706207,0.000010,8366.706217,8366.706207,8366.706217,836670621.700201,2,-1.000000,""
104_updated,w0,python3action_pyaes_3000_nova,0.997085,1,2000.000000,1,COMPLETED_SUCCESSFULLY,8366.706237,78.200020,8444.906257,8365.709152,8443.909172,107.978351,2,-1.000000,""
104,w0,python3action_pyaes_3000,0.000000,1,-1.000000,1,COMPLETED_SUCCESSFULLY,8444.906272,0.000010,8444.906282,8444.906272,8444.906282,844490628.200201,2,-1.000000,""
107_updated,w0,python3action_pyaes_3000_nova,0.997085,1,2000.000000,1,COMPLETED_SUCCESSFULLY,8444.906302,78.200020,8523.106322,8443.909217,8522.109237,108.978352,2,-1.000000,""
107,w0,python3action_pyaes_3000,0.000000,1,-1.000000,1,COMPLETED_SUCCESSFULLY,8523.106337,0.000010,8523.106347,8523.106337,8523.106347,852310634.700201,2,-1.000000,""
114_updated,w0,python3action_pyaes_3000_nova,0.997085,1,2000.000000,1,COMPLETED_SUCCESSFULLY,8523.106367,78.200020,8601.306387,8522.109282,8600.309302,109.978352,2,-1.000000,""
114,w0,python3action_pyaes_3000,0.000000,1,-1.000000,1,COMPLETED_SUCCESSFULLY,8601.306402,0.000010,8601.306412,8601.306402,8601.306412,860130641.200201,2,-1.000000,""
115_updated,w0,python3action_pyaes_3000_nova,0.997085,1,2000.000000,1,COMPLETED_SUCCESSFULLY,8601.306432,78.200020,8679.506452,8600.309347,8678.509367,110.978353,2,-1.000000,""
115,w0,python3action_pyaes_3000,0.000000,1,-1.000000,1,COMPLETED_SUCCESSFULLY,8679.506467,0.000010,8679.506477,8679.506467,8679.506477,867950647.700201,2,-1.000000,""
127_updated,w0,python3action_pyaes_3000_nova,0.997085,1,2000.000000,1,COMPLETED_SUCCESSFULLY,8679.506497,78.200020,8757.706517,8678.509412,8756.709432,111.978354,2,-1.000000,""
127,w0,python3action_pyaes_3000,0.000000,1,-1.000000,1,COMPLETED_SUCCESSFULLY,8757.706532,0.000010,8757.706542,8757.706532,8757.706542,875770654.200201,2,-1.000000,""
154_updated,w0,python3action_pyaes_3000_nova,0.997085,1,2000.000000,1,COMPLETED_SUCCESSFULLY,8757.706562,78.200020,8835.906582,8756.709477,8834.909497,112.978354,2,-1.000000,""
154,w0,python3action_pyaes_3000,0.000000,1,-1.000000,1,COMPLETED_SUCCESSFULLY,8835.906597,0.000010,8835.906607,8835.906597,8835.906607,883590660.700201,2,-1.000000,""
163_updated,w0,python3action_pyaes_4000_nova,0.997085,1,2000.000000,1,COMPLETED_SUCCESSFULLY,8835.906627,139.600010,8975.506637,8834.909542,8974.509552,64.287313,2,-1.000000,""
163,w0,python3action_pyaes_4000,0.000000,1,-1.000000,1,COMPLETED_SUCCESSFULLY,8975.506652,0.000010,8975.506662,8975.506652,8975.506662,897550666.200201,2,-1.000000,""
192_updated,w0,python3action_pyaes_4000_nova,0.997085,1,2000.000000,1,COMPLETED_SUCCESSFULLY,8975.506682,139.600010,9115.106692,8974.509597,9114.109607,65.287314,2,-1.000000,""
192,w0,python3action_pyaes_4000,0.000000,1,-1.000000,1,COMPLETED_SUCCESSFULLY,9115.106707,0.000010,9115.106717,9115.106707,9115.106717,911510671.700201,2,-1.000000,""
199_updated,w0,python3action_pyaes_3000_nova,0.997085,1,2000.000000,1,COMPLETED_SUCCESSFULLY,9115.106737,78.200020,9193.306757,9114.109652,9192.309672,117.548688,2,-1.000000,""
199,w0,python3action_pyaes_3000,0.000000,1,-1.000000,1,COMPLETED_SUCCESSFULLY,9193.306772,0.000010,9193.306782,9193.306772,9193.306782,919330678.200201,2,-1.000000,""
python3action_video_processing_job3_1,w0,python3action_video_processing_reduced_1.89,0.997085,1,2000.000000,1,COMPLETED_SUCCESSFULLY,9193.306802,0.000000,9193.306802,9192.309717,9192.309717,187167618888268.312500,2,-1.000000,""
3_updated,w0,python3action_videoprocessing_SampleVideo_30mb_nova,0.997085,1,2000.000000,1,COMPLETED_SUCCESSFULLY,9193.306832,106.799980,9300.106812,9192.309747,9299.109727,87.070332,2,-1.000000,""
3,w0,python3action_videoprocessing_SampleVideo_30mb,0.000000,1,-1.000000,1,COMPLETED_SUCCESSFULLY,9300.106827,0.000010,9300.106837,9300.106827,9300.106837,930010683.747412,2,-1.000000,""
23_updated,w0,python3action_videoprocessing_SampleVideo_30mb_nova,0.997085,1,2000.000000,1,COMPLETED_SUCCESSFULLY,9300.106857,106.799980,9406.906838,9299.109772,9405.909753,88.070332,2,-1.000000,""
23,w0,python3action_videoprocessing_SampleVideo_30mb,0.000000,1,-1.000000,1,COMPLETED_SUCCESSFULLY,9406.906853,0.000010,9406.906863,9406.906853,9406.906863,940690686.300201,2,-1.000000,""
71_updated,w0,python3action_videoprocessing_SampleVideo_30mb_nova,0.997085,1,2000.000000,1,COMPLETED_SUCCESSFULLY,9406.906883,106.799980,9513.706863,9405.909798,9512.709778,89.070333,2,-1.000000,""
71,w0,python3action_videoprocessing_SampleVideo_30mb,0.000000,1,-1.000000,1,COMPLETED_SUCCESSFULLY,9513.706878,0.000010,9513.706888,9513.706878,9513.706888,951370688.847010,2,-1.000000,""
77_updated,w0,python3action_videoprocessing_SampleVideo_30mb_nova,0.997085,1,2000.000000,1,COMPLETED_SUCCESSFULLY,9513.706908,106.799980,9620.506889,9512.709823,9619.509804,90.070333,2,-1.000000,""
77,w0,python3action_videoprocessing_SampleVideo_30mb,0.000000,1,-1.000000,1,COMPLETED_SUCCESSFULLY,9620.506904,0.000010,9620.506914,9620.506904,9620.506914,962050691.400201,2,-1.000000,""
81_updated,w0,python3action_videoprocessing_SampleVideo_30mb_nova,0.997085,1,2000.000000,1,COMPLETED_SUCCESSFULLY,9620.506934,106.799980,9727.306914,9619.509849,9726.309829,91.070333,2,-1.000000,""
81,w0,python3action_videoprocessing_SampleVideo_30mb,0.000000,1,-1.000000,1,COMPLETED_SUCCESSFULLY,9727.306929,0.000010,9727.306939,9727.306929,9727.306939,972730693.947010,2,-1.000000,""
111_updated,w0,python3action_videoprocessing_SampleVideo_30mb_nova,0.997085,1,2000.000000,1,COMPLETED_SUCCESSFULLY,9727.306959,106.799980,9834.106940,9726.309874,9833.109855,92.070334,2,-1.000000,""
111,w0,python3action_videoprocessing_SampleVideo_30mb,0.000000,1,-1.000000,1,COMPLETED_SUCCESSFULLY,9834.106955,0.000010,9834.106965,9834.106955,9834.106965,983410696.500201,2,-1.000000,""
131_updated,w0,python3action_videoprocessing_SampleVideo_30mb_nova,0.997085,1,2000.000000,1,COMPLETED_SUCCESSFULLY,9834.106985,106.799980,9940.906965,9833.109900,9939.909880,93.070334,2,-1.000000,""
131,w0,python3action_videoprocessing_SampleVideo_30mb,0.000000,1,-1.000000,1,COMPLETED_SUCCESSFULLY,9940.906980,0.000010,9940.906990,9940.906980,9940.906990,994090699.047010,2,-1.000000,""
133_updated,w0,python3action_videoprocessing_SampleVideo_30mb_nova,0.997085,1,2000.000000,1,COMPLETED_SUCCESSFULLY,9940.907010,106.799980,10047.706991,9939.909925,10046.709906,94.070335,2,-1.000000,""
133,w0,python3action_videoprocessing_SampleVideo_30mb,0.000000,1,-1.000000,1,COMPLETED_SUCCESSFULLY,10047.707006,0.000010,10047.707016,10047.707006,10047.707016,1004770701.600201,2,-1.000000,""
168_updated,w0,python3action_videoprocessing_SampleVideo_30mb_nova,0.997085,1,2000.000000,1,COMPLETED_SUCCESSFULLY,10047.707036,106.799980,10154.507016,10046.709951,10153.509931,95.070335,2,-1.000000,""
168,w0,python3action_videoprocessing_SampleVideo_30mb,0.000000,1,-1.000000,1,COMPLETED_SUCCESSFULLY,10154.507031,0.000010,10154.507041,10154.507031,10154.507041,1015450704.147010,2,-1.000000,""
177_updated,w0,python3action_videoprocessing_SampleVideo_30mb_nova,0.997085,1,2000.000000,1,COMPLETED_SUCCESSFULLY,10154.507061,106.799980,10261.307042,10153.509976,10260.309957,96.070336,2,-1.000000,""
177,w0,python3action_videoprocessing_SampleVideo_30mb,0.000000,1,-1.000000,1,COMPLETED_SUCCESSFULLY,10261.307057,0.000010,10261.307067,10261.307057,10261.307067,1026130706.700201,2,-1.000000,""
195_updated,w0,python3action_videoprocessing_SampleVideo_30mb_nova,0.997085,1,2000.000000,1,COMPLETED_SUCCESSFULLY,10261.307087,106.799980,10368.107067,10260.310002,10367.109982,97.070336,2,-1.000000,""
195,w0,python3action_videoprocessing_SampleVideo_30mb,0.000000,1,-1.000000,1,COMPLETED_SUCCESSFULLY,10368.107082,0.000010,10368.107092,10368.107082,10368.107092,1036810709.247010,2,-1.000000,""
