job_id,workload_name,profile,submission_time,requested_number_of_resources,requested_time,success,final_state,starting_time,execution_time,finish_time,waiting_time,turnaround_time,stretch,allocated_resources,consumed_energy,metadata
python3action_chameleon_job16_3,w0,python3action_chameleon,0.997085,1,2000.000000,1,COMPLETED_SUCCESSFULLY,1.002145,0.867914,1.870059,0.005060,0.872974,1.005830,19,-1.000000,""
python3action_chameleon_job3_2,w0,python3action_chameleon,0.997085,1,2000.000000,1,COMPLETED_SUCCESSFULLY,1.002130,5.040826,6.042956,0.005045,5.045871,1.001001,10,-1.000000,""
python3action_linpack_job6_1,w0,python3action_linpack,0.997085,1,2000.000000,1,COMPLETED_SUCCESSFULLY,1.002115,5.760927,6.763042,0.005030,5.765957,1.000873,8,-1.000000,""
python3action_facedetection_job1_0,w0,python3action_facedetection,0.997085,1,2000.000000,1,COMPLETED_SUCCESSFULLY,1.002100,30.499683,31.501783,0.005015,30.504698,1.000164,2,-1.000000,""
3_updated,w0,python3action_chameleon_2000_taurus,0.997085,1,2000.000000,1,COMPLETED_SUCCESSFULLY,6.042971,64.199977,70.242948,5.045886,69.245863,1.078596,10,-1.000000,""
3,w0,python3action_chameleon_2000,0.000000,1,-1.000000,1,COMPLETED_SUCCESSFULLY,70.242963,0.000010,70.242973,70.242963,70.242973,7024297.300201,10,-1.000000,""
16_updated,w0,python3action_chameleon_3000_troll,0.997085,1,2000.000000,1,COMPLETED_SUCCESSFULLY,1.870074,94.000000,95.870074,0.872989,94.872989,1.009287,19,-1.000000,""
16,w0,python3action_chameleon_3000,0.000000,1,-1.000000,1,COMPLETED_SUCCESSFULLY,95.870089,0.000010,95.870099,95.870089,95.870099,9587009.900402,19,-1.000000,""
6_updated,w0,python3action_linpack_6000_orion,0.997085,1,2000.000000,1,COMPLETED_SUCCESSFULLY,6.763057,106.000000,112.763057,5.765972,111.765972,1.054396,8,-1.000000,""
6,w0,python3action_linpack_6000,0.000000,1,-1.000000,1,COMPLETED_SUCCESSFULLY,112.763072,0.000010,112.763082,112.763072,112.763082,11276308.223673,8,-1.000000,""
8_updated,w0,python3action_chameleon_2000_taurus,0.997085,1,2000.000000,1,COMPLETED_SUCCESSFULLY,70.242993,64.199977,134.442970,69.245908,133.445885,2.078597,10,-1.000000,""
8,w0,python3action_chameleon_2000,0.000000,1,-1.000000,1,COMPLETED_SUCCESSFULLY,134.442985,0.000010,134.442995,134.442985,134.442995,13444299.500201,10,-1.000000,""
30_updated,w0,python3action_chameleon_3000_troll,0.997085,1,2000.000000,1,COMPLETED_SUCCESSFULLY,95.870119,94.000000,189.870119,94.873034,188.873034,2.009288,19,-1.000000,""
30,w0,python3action_chameleon_3000,0.000000,1,-1.000000,1,COMPLETED_SUCCESSFULLY,189.870134,0.000010,189.870144,189.870134,189.870144,18987014.401004,19,-1.000000,""
1_updated,w0,python3action_facedetection_SampleVideo_30mb_nova,0.997085,1,2000.000000,1,COMPLETED_SUCCESSFULLY,31.501798,160.399990,191.901788,30.504713,190.904703,1.190179,2,-1.000000,""
1,w0,python3action_facedetection_SampleVideo_30mb,0.000000,1,-1.000000,1,COMPLETED_SUCCESSFULLY,191.901803,0.000010,191.901813,191.901803,191.901813,19190181.323505,2,-1.000000,""
15_updated,w0,python3action_chameleon_2000_taurus,0.997085,1,2000.000000,1,COMPLETED_SUCCESSFULLY,134.443015,64.199977,198.642992,133.445930,197.645907,3.078598,10,-1.000000,""
15,w0,python3action_chameleon_2000,0.000000,1,-1.000000,1,COMPLETED_SUCCESSFULLY,198.643007,0.000010,198.643017,198.643007,198.643017,19864301.700201,10,-1.000000,""
9_updated,w0,python3action_linpack_6000_orion,0.997085,1,2000.000000,1,COMPLETED_SUCCESSFULLY,112.763102,106.000000,218.763102,111.766017,217.766017,2.054396,8,-1.000000,""
9,w0,python3action_linpack_6000,0.000000,1,-1.000000,1,COMPLETED_SUCCESSFULLY,218.763117,0.000010,218.763127,218.763117,218.763127,21876312.724275,8,-1.000000,""
25_updated,w0,python3action_chameleon_2000_taurus,0.997085,1,2000.000000,1,COMPLETED_SUCCESSFULLY,198.643037,64.199977,262.843014,197.645952,261.845929,4.078598,10,-1.000000,""
25,w0,python3action_chameleon_2000,0.000000,1,-1.000000,1,COMPLETED_SUCCESSFULLY,262.843029,0.000010,262.843039,262.843029,262.843039,26284303.900201,10,-1.000000,""
36_updated,w0,python3action_chameleon_3000_troll,0.997085,1,2000.000000,1,COMPLETED_SUCCESSFULLY,189.870164,94.000000,283.870164,188.873079,282.873079,3.009288,19,-1.000000,""
36,w0,python3action_chameleon_3000,0.000000,1,-1.000000,1,COMPLETED_SUCCESSFULLY,283.870179,0.000010,283.870189,283.870179,283.870189,28387018.901606,19,-1.000000,""
59_updated,w0,python3action_chameleon_2000_troll,0.997085,1,2000.000000,1,COMPLETED_SUCCESSFULLY,283.870209,39.500010,323.370219,282.873124,322.373134,8.161343,19,-1.000000,""
59,w0,python3action_chameleon_2000,0.000000,1,-1.000000,1,COMPLETED_SUCCESSFULLY,323.370234,0.000010,323.370244,323.370234,323.370244,32337024.400201,19,-1.000000,""
17_updated,w0,python3action_linpack_6000_orion,0.997085,1,2000.000000,1,COMPLETED_SUCCESSFULLY,218.763147,106.000000,324.763147,217.766062,323.766062,3.054397,8,-1.000000,""
17,w0,python3action_linpack_6000,0.000000,1,-1.000000,1,COMPLETED_SUCCESSFULLY,324.763162,0.000010,324.763172,324.763162,324.763172,32476317.224877,8,-1.000000,""
53_updated,w0,python3action_chameleon_2000_taurus,0.997085,1,2000.000000,1,COMPLETED_SUCCESSFULLY,262.843059,64.199977,327.043036,261.845974,326.045951,5.078599,10,-1.000000,""
53,w0,python3action_chameleon_2000,0.000000,1,-1.000000,1,COMPLETED_SUCCESSFULLY,327.043051,0.000010,327.043061,327.043051,327.043061,32704306.100201,10,-1.000000,""
27_updated,w0,python3action_facedetection_SampleVideo_30mb_nova,0.997085,1,2000.000000,1,COMPLETED_SUCCESSFULLY,191.901833,160.399990,352.301823,190.904748,351.304738,2.190179,2,-1.000000,""
27,w0,python3action_facedetection_SampleVideo_30mb,0.000000,1,-1.000000,1,COMPLETED_SUCCESSFULLY,352.301838,0.000010,352.301848,352.301838,352.301848,35230184.847211,2,-1.000000,""
64_updated,w0,python3action_chameleon_2000_taurus,0.997085,1,2000.000000,1,COMPLETED_SUCCESSFULLY,327.043081,64.199977,391.243058,326.045996,390.245973,6.078600,10,-1.000000,""
64,w0,python3action_chameleon_2000,0.000000,1,-1.000000,1,COMPLETED_SUCCESSFULLY,391.243073,0.000010,391.243083,391.243073,391.243083,39124308.300201,10,-1.000000,""
88_updated,w0,python3action_chameleon_3000_troll,0.997085,1,2000.000000,1,COMPLETED_SUCCESSFULLY,323.370264,94.000000,417.370264,322.373179,416.373179,4.429502,19,-1.000000,""
88,w0,python3action_chameleon_3000,0.000000,1,-1.000000,1,COMPLETED_SUCCESSFULLY,417.370279,0.000010,417.370289,417.370279,417.370289,41737028.900803,19,-1.000000,""
20_updated,w0,python3action_linpack_6000_orion,0.997085,1,2000.000000,1,COMPLETED_SUCCESSFULLY,324.763192,106.000000,430.763192,323.766107,429.766107,4.054397,8,-1.000000,""
20,w0,python3action_linpack_6000,0.000000,1,-1.000000,1,COMPLETED_SUCCESSFULLY,430.763207,0.000010,430.763217,430.763207,430.763217,43076321.725480,8,-1.000000,""
102_updated,w0,python3action_chameleon_2000_taurus,0.997085,1,2000.000000,1,COMPLETED_SUCCESSFULLY,391.243103,64.199977,455.443080,390.246018,454.445995,7.078601,10,-1.000000,""
102,w0,python3action_chameleon_2000,0.000000,1,-1.000000,1,COMPLETED_SUCCESSFULLY,455.443095,0.000010,455.443105,455.443095,455.443105,45544310.500201,10,-1.000000,""
136_updated,w0,python3action_chameleon_2000_troll,0.997085,1,2000.000000,1,COMPLETED_SUCCESSFULLY,417.370309,39.500010,456.870319,416.373224,455.873234,11.541092,19,-1.000000,""
136,w0,python3action_chameleon_2000,0.000000,1,-1.000000,1,COMPLETED_SUCCESSFULLY,456.870334,0.000010,456.870344,456.870334,456.870344,45687034.400201,19,-1.000000,""
32_updated,w0,python3action_facedetection_SampleVideo_30mb_nova,0.997085,1,2000.000000,1,COMPLETED_SUCCESSFULLY,352.301868,160.399990,512.701859,351.304783,511.704774,3.190180,2,-1.000000,""
32,w0,python3action_facedetection_SampleVideo_30mb,0.000000,1,-1.000000,1,COMPLETED_SUCCESSFULLY,512.701874,0.000010,512.701884,512.701874,512.701884,51270188.400201,2,-1.000000,""
111_updated,w0,python3action_chameleon_2000_taurus,0.997085,1,2000.000000,1,COMPLETED_SUCCESSFULLY,455.443125,64.199977,519.643102,454.446040,518.646017,8.078601,10,-1.000000,""
111,w0,python3action_chameleon_2000,0.000000,1,-1.000000,1,COMPLETED_SUCCESSFULLY,519.643117,0.000010,519.643127,519.643117,519.643127,51964312.700201,10,-1.000000,""
21_updated,w0,python3action_linpack_6000_orion,0.997085,1,2000.000000,1,COMPLETED_SUCCESSFULLY,430.763237,106.000000,536.763237,429.766152,535.766152,5.054398,8,-1.000000,""
21,w0,python3action_linpack_6000,0.000000,1,-1.000000,1,COMPLETED_SUCCESSFULLY,536.763252,0.000010,536.763262,536.763252,536.763262,53676326.226082,8,-1.000000,""
139_updated,w0,python3action_chameleon_3000_troll,0.997085,1,2000.000000,1,COMPLETED_SUCCESSFULLY,456.870364,94.000000,550.870364,455.873279,549.873279,5.849716,19,-1.000000,""
139,w0,python3action_chameleon_3000,0.000000,1,-1.000000,1,COMPLETED_SUCCESSFULLY,550.870379,0.000010,550.870389,550.870379,550.870389,55087038.900803,19,-1.000000,""
138_updated,w0,python3action_chameleon_2000_taurus,0.997085,1,2000.000000,1,COMPLETED_SUCCESSFULLY,519.643147,64.199977,583.843124,518.646062,582.846039,9.078602,10,-1.000000,""
138,w0,python3action_chameleon_2000,0.000000,1,-1.000000,1,COMPLETED_SUCCESSFULLY,583.843139,0.000010,583.843149,583.843139,583.843149,58384314.900201,10,-1.000000,""
146_updated,w0,python3action_chameleon_2000_troll,0.997085,1,2000.000000,1,COMPLETED_SUCCESSFULLY,550.870409,39.500010,590.370419,549.873324,589.373334,14.920840,19,-1.000000,""
146,w0,python3action_chameleon_2000,0.000000,1,-1.000000,1,COMPLETED_SUCCESSFULLY,590.370434,0.000010,590.370444,590.370434,590.370444,59037044.400201,19,-1.000000,""
45_updated,w0,python3action_linpack_6000_orion,0.997085,1,2000.000000,1,COMPLETED_SUCCESSFULLY,536.763282,106.000000,642.763282,535.766197,641.766197,6.054398,8,-1.000000,""
45,w0,python3action_linpack_6000,0.000000,1,-1.000000,1,COMPLETED_SUCCESSFULLY,642.763297,0.000010,642.763307,642.763297,642.763307,64276330.726685,8,-1.000000,""
140_updated,w0,python3action_chameleon_2000_taurus,0.997085,1,2000.000000,1,COMPLETED_SUCCESSFULLY,583.843169,64.199977,648.043146,582.846084,647.046061,10.078603,10,-1.000000,""
140,w0,python3action_chameleon_2000,0.000000,1,-1.000000,1,COMPLETED_SUCCESSFULLY,648.043161,0.000010,648.043171,648.043161,648.043171,64804317.100201,10,-1.000000,""
35_updated,w0,python3action_facedetection_SampleVideo_30mb_nova,0.997085,1,2000.000000,1,COMPLETED_SUCCESSFULLY,512.701904,160.399990,673.101894,511.704819,672.104809,4.190180,2,-1.000000,""
35,w0,python3action_facedetection_SampleVideo_30mb,0.000000,1,-1.000000,1,COMPLETED_SUCCESSFULLY,673.101909,0.000010,673.101919,673.101909,673.101919,67310191.923907,2,-1.000000,""
165_updated,w0,python3action_chameleon_3000_troll,0.997085,1,2000.000000,1,COMPLETED_SUCCESSFULLY,590.370464,94.000000,684.370464,589.373379,683.373379,7.269930,19,-1.000000,""
165,w0,python3action_chameleon_3000,0.000000,1,-1.000000,1,COMPLETED_SUCCESSFULLY,684.370479,0.000010,684.370489,684.370479,684.370489,68437048.900803,19,-1.000000,""
142_updated,w0,python3action_chameleon_2000_taurus,0.997085,1,2000.000000,1,COMPLETED_SUCCESSFULLY,648.043191,64.199977,712.243168,647.046106,711.246083,11.078603,10,-1.000000,""
142,w0,python3action_chameleon_2000,0.000000,1,-1.000000,1,COMPLETED_SUCCESSFULLY,712.243183,0.000010,712.243193,712.243183,712.243193,71224319.300201,10,-1.000000,""
63_updated,w0,python3action_linpack_6000_orion,0.997085,1,2000.000000,1,COMPLETED_SUCCESSFULLY,642.763327,106.000000,748.763327,641.766242,747.766242,7.054399,8,-1.000000,""
63,w0,python3action_linpack_6000,0.000000,1,-1.000000,1,COMPLETED_SUCCESSFULLY,748.763342,0.000010,748.763352,748.763342,748.763352,74876335.227287,8,-1.000000,""
155_updated,w0,python3action_chameleon_2000_taurus,0.997085,1,2000.000000,1,COMPLETED_SUCCESSFULLY,712.243213,64.199977,776.443190,711.246128,775.446105,12.078604,10,-1.000000,""
155,w0,python3action_chameleon_2000,0.000000,1,-1.000000,1,COMPLETED_SUCCESSFULLY,776.443205,0.000010,776.443215,776.443205,776.443215,77644321.500201,10,-1.000000,""
168_updated,w0,python3action_chameleon_3000_troll,0.997085,1,2000.000000,1,COMPLETED_SUCCESSFULLY,684.370509,94.000000,778.370509,683.373424,777.373424,8.269930,19,-1.000000,""
168,w0,python3action_chameleon_3000,0.000000,1,-1.000000,1,COMPLETED_SUCCESSFULLY,778.370524,0.000010,778.370534,778.370524,778.370534,77837053.401406,19,-1.000000,""
57_updated,w0,python3action_facedetection_SampleVideo_30mb_nova,0.997085,1,2000.000000,1,COMPLETED_SUCCESSFULLY,673.101939,160.399990,833.501929,672.104854,832.504844,5.190180,2,-1.000000,""
57,w0,python3action_facedetection_SampleVideo_30mb,0.000000,1,-1.000000,1,COMPLETED_SUCCESSFULLY,833.501944,0.000010,833.501954,833.501944,833.501954,83350195.447613,2,-1.000000,""
167_updated,w0,python3action_chameleon_2000_taurus,0.997085,1,2000.000000,1,COMPLETED_SUCCESSFULLY,776.443235,64.199977,840.643212,775.446150,839.646127,13.078605,10,-1.000000,""
167,w0,python3action_chameleon_2000,0.000000,1,-1.000000,1,COMPLETED_SUCCESSFULLY,840.643227,0.000010,840.643237,840.643227,840.643237,84064323.700201,10,-1.000000,""
71_updated,w0,python3action_linpack_6000_orion,0.997085,1,2000.000000,1,COMPLETED_SUCCESSFULLY,748.763372,106.000000,854.763372,747.766287,853.766287,8.054399,8,-1.000000,""
71,w0,python3action_linpack_6000,0.000000,1,-1.000000,1,COMPLETED_SUCCESSFULLY,854.763387,0.000010,854.763397,854.763387,854.763397,85476339.727889,8,-1.000000,""
173_updated,w0,python3action_chameleon_3000_troll,0.997085,1,2000.000000,1,COMPLETED_SUCCESSFULLY,778.370554,94.000000,872.370554,777.373469,871.373469,9.269931,19,-1.000000,""
173,w0,python3action_chameleon_3000,0.000000,1,-1.000000,1,COMPLETED_SUCCESSFULLY,872.370569,0.000010,872.370579,872.370569,872.370579,87237057.902008,19,-1.000000,""
179_updated,w0,python3action_chameleon_2000_taurus,0.997085,1,2000.000000,1,COMPLETED_SUCCESSFULLY,840.643257,64.199977,904.843234,839.646172,903.846149,14.078606,10,-1.000000,""
179,w0,python3action_chameleon_2000,0.000000,1,-1.000000,1,COMPLETED_SUCCESSFULLY,904.843249,0.000010,904.843259,904.843249,904.843259,90484325.900201,10,-1.000000,""
77_updated,w0,python3action_linpack_6000_orion,0.997085,1,2000.000000,1,COMPLETED_SUCCESSFULLY,854.763417,106.000000,960.763417,853.766332,959.766332,9.054399,8,-1.000000,""
77,w0,python3action_linpack_6000,0.000000,1,-1.000000,1,COMPLETED_SUCCESSFULLY,960.763432,0.000010,960.763442,960.763432,960.763442,96076344.228492,8,-1.000000,""
177_updated,w0,python3action_chameleon_3000_troll,0.997085,1,2000.000000,1,COMPLETED_SUCCESSFULLY,872.370599,94.000000,966.370599,871.373514,965.373514,10.269931,19,-1.000000,""
177,w0,python3action_chameleon_3000,0.000000,1,-1.000000,1,COMPLETED_SUCCESSFULLY,966.370614,0.000010,966.370624,966.370614,966.370624,96637062.402610,19,-1.000000,""
python3action_facedetection_job44_3,w0,python3action_facedetection,0.997085,1,2000.000000,1,COMPLETED_SUCCESSFULLY,904.843279,72.012455,976.855734,903.846194,975.858649,13.551248,10,-1.000000,""
65_updated,w0,python3action_facedetection_SampleVideo_30mb_nova,0.997085,1,2000.000000,1,COMPLETED_SUCCESSFULLY,833.501974,160.399990,993.901965,832.504889,992.904880,6.190180,2,-1.000000,""
65,w0,python3action_facedetection_SampleVideo_30mb,0.000000,1,-1.000000,1,COMPLETED_SUCCESSFULLY,993.901980,0.000010,993.901990,993.901980,993.901990,99390199.000201,2,-1.000000,""
186_updated,w0,python3action_chameleon_3000_troll,0.997085,1,2000.000000,1,COMPLETED_SUCCESSFULLY,966.370644,94.000000,1060.370644,965.373559,1059.373559,11.269931,19,-1.000000,""
186,w0,python3action_chameleon_3000,0.000000,1,-1.000000,1,COMPLETED_SUCCESSFULLY,1060.370659,0.000010,1060.370669,1060.370659,1060.370669,106037066.903213,19,-1.000000,""
84_updated,w0,python3action_linpack_6000_orion,0.997085,1,2000.000000,1,COMPLETED_SUCCESSFULLY,960.763462,106.000000,1066.763462,959.766377,1065.766377,10.054400,8,-1.000000,""
84,w0,python3action_linpack_6000,0.000000,1,-1.000000,1,COMPLETED_SUCCESSFULLY,1066.763477,0.000010,1066.763487,1066.763477,1066.763487,106676348.729094,8,-1.000000,""
python3action_image_processing_job2_4,w0,python3action_image_processing,0.997085,1,2000.000000,1,COMPLETED_SUCCESSFULLY,1060.370689,12.398880,1072.769569,1059.373604,1071.772484,86.441072,19,-1.000000,""
44_updated,w0,python3action_facedetection_SampleVideo_50mb_taurus,0.997085,1,2000.000000,1,COMPLETED_SUCCESSFULLY,976.855749,134.600046,1111.455795,975.858664,1110.458710,8.250062,10,-1.000000,""
44,w0,python3action_facedetection_SampleVideo_50mb,0.000000,1,-1.000000,1,COMPLETED_SUCCESSFULLY,1111.455810,0.000010,1111.455820,1111.455810,1111.455820,111145582.045163,10,-1.000000,""
2_updated,w0,python3action_imageprocessing_SampleImage_60mb_troll,0.997085,1,2000.000000,1,COMPLETED_SUCCESSFULLY,1072.769584,62.000000,1134.769584,1071.772499,1133.772499,18.286653,19,-1.000000,""
2,w0,python3action_imageprocessing_SampleImage_60mb,0.000000,1,-1.000000,1,COMPLETED_SUCCESSFULLY,1134.769599,0.000010,1134.769609,1134.769599,1134.769609,113476960.912594,19,-1.000000,""
125_updated,w0,python3action_facedetection_SampleVideo_30mb_nova,0.997085,1,2000.000000,1,COMPLETED_SUCCESSFULLY,993.902010,160.399990,1154.302000,992.904925,1153.304915,7.190181,2,-1.000000,""
125,w0,python3action_facedetection_SampleVideo_30mb,0.000000,1,-1.000000,1,COMPLETED_SUCCESSFULLY,1154.302015,0.000010,1154.302025,1154.302015,1154.302025,115430202.523907,2,-1.000000,""
90_updated,w0,python3action_linpack_6000_orion,0.997085,1,2000.000000,1,COMPLETED_SUCCESSFULLY,1066.763507,106.000000,1172.763507,1065.766422,1171.766422,11.054400,8,-1.000000,""
90,w0,python3action_linpack_6000,0.000000,1,-1.000000,1,COMPLETED_SUCCESSFULLY,1172.763522,0.000010,1172.763532,1172.763522,1172.763532,117276353.229697,8,-1.000000,""
11_updated,w0,python3action_imageprocessing_SampleImage_60mb_troll,0.997085,1,2000.000000,1,COMPLETED_SUCCESSFULLY,1134.769629,62.000000,1196.769629,1133.772544,1195.772544,19.286654,19,-1.000000,""
11,w0,python3action_imageprocessing_SampleImage_60mb,0.000000,1,-1.000000,1,COMPLETED_SUCCESSFULLY,1196.769644,0.000010,1196.769654,1196.769644,1196.769654,119676965.413196,19,-1.000000,""
80_updated,w0,python3action_facedetection_SampleVideo_50mb_taurus,0.997085,1,2000.000000,1,COMPLETED_SUCCESSFULLY,1111.455840,134.600046,1246.055887,1110.458755,1245.058802,9.250062,10,-1.000000,""
80,w0,python3action_facedetection_SampleVideo_50mb,0.000000,1,-1.000000,1,COMPLETED_SUCCESSFULLY,1246.055902,0.000010,1246.055912,1246.055902,1246.055912,124605591.200201,10,-1.000000,""
13_updated,w0,python3action_imageprocessing_SampleImage_60mb_troll,0.997085,1,2000.000000,1,COMPLETED_SUCCESSFULLY,1196.769674,62.000000,1258.769674,1195.772589,1257.772589,20.286655,19,-1.000000,""
13,w0,python3action_imageprocessing_SampleImage_60mb,0.000000,1,-1.000000,1,COMPLETED_SUCCESSFULLY,1258.769689,0.000010,1258.769699,1258.769689,1258.769699,125876969.913799,19,-1.000000,""
128_updated,w0,python3action_linpack_6000_orion,0.997085,1,2000.000000,1,COMPLETED_SUCCESSFULLY,1172.763552,106.000000,1278.763552,1171.766467,1277.766467,12.054401,8,-1.000000,""
128,w0,python3action_linpack_6000,0.000000,1,-1.000000,1,COMPLETED_SUCCESSFULLY,1278.763567,0.000010,1278.763577,1278.763567,1278.763577,127876357.730299,8,-1.000000,""
134_updated,w0,python3action_facedetection_SampleVideo_30mb_nova,0.997085,1,2000.000000,1,COMPLETED_SUCCESSFULLY,1154.302045,160.399990,1314.702035,1153.304960,1313.704950,8.190181,2,-1.000000,""
134,w0,python3action_facedetection_SampleVideo_30mb,0.000000,1,-1.000000,1,COMPLETED_SUCCESSFULLY,1314.702050,0.000010,1314.702060,1314.702050,1314.702060,131470206.047613,2,-1.000000,""
46_updated,w0,python3action_imageprocessing_SampleImage_60mb_troll,0.997085,1,2000.000000,1,COMPLETED_SUCCESSFULLY,1258.769719,62.000000,1320.769719,1257.772634,1319.772634,21.286655,19,-1.000000,""
46,w0,python3action_imageprocessing_SampleImage_60mb,0.000000,1,-1.000000,1,COMPLETED_SUCCESSFULLY,1320.769734,0.000010,1320.769744,1320.769734,1320.769744,132076974.414401,19,-1.000000,""
85_updated,w0,python3action_facedetection_SampleVideo_50mb_taurus,0.997085,1,2000.000000,1,COMPLETED_SUCCESSFULLY,1246.055932,134.600046,1380.655978,1245.058847,1379.658893,10.250063,10,-1.000000,""
85,w0,python3action_facedetection_SampleVideo_50mb,0.000000,1,-1.000000,1,COMPLETED_SUCCESSFULLY,1380.655993,0.000010,1380.656003,1380.655993,1380.656003,138065600.313881,10,-1.000000,""
49_updated,w0,python3action_imageprocessing_SampleImage_60mb_troll,0.997085,1,2000.000000,1,COMPLETED_SUCCESSFULLY,1320.769764,62.000000,1382.769764,1319.772679,1381.772679,22.286656,19,-1.000000,""
49,w0,python3action_imageprocessing_SampleImage_60mb,0.000000,1,-1.000000,1,COMPLETED_SUCCESSFULLY,1382.769779,0.000010,1382.769789,1382.769779,1382.769789,138276978.915004,19,-1.000000,""
178_updated,w0,python3action_linpack_6000_orion,0.997085,1,2000.000000,1,COMPLETED_SUCCESSFULLY,1278.763597,106.000000,1384.763597,1277.766512,1383.766512,13.054401,8,-1.000000,""
178,w0,python3action_linpack_6000,0.000000,1,-1.000000,1,COMPLETED_SUCCESSFULLY,1384.763612,0.000010,1384.763622,1384.763612,1384.763622,138476362.230901,8,-1.000000,""
74_updated,w0,python3action_imageprocessing_SampleImage_60mb_troll,0.997085,1,2000.000000,1,COMPLETED_SUCCESSFULLY,1382.769809,62.000000,1444.769809,1381.772724,1443.772724,23.286657,19,-1.000000,""
74,w0,python3action_imageprocessing_SampleImage_60mb,0.000000,1,-1.000000,1,COMPLETED_SUCCESSFULLY,1444.769824,0.000010,1444.769834,1444.769824,1444.769834,144476983.415606,19,-1.000000,""
137_updated,w0,python3action_facedetection_SampleVideo_30mb_nova,0.997085,1,2000.000000,1,COMPLETED_SUCCESSFULLY,1314.702080,160.399990,1475.102071,1313.704995,1474.104986,9.190181,2,-1.000000,""
137,w0,python3action_facedetection_SampleVideo_30mb,0.000000,1,-1.000000,1,COMPLETED_SUCCESSFULLY,1475.102086,0.000010,1475.102096,1475.102086,1475.102096,147510209.600201,2,-1.000000,""
192_updated,w0,python3action_linpack_6000_orion,0.997085,1,2000.000000,1,COMPLETED_SUCCESSFULLY,1384.763642,106.000000,1490.763642,1383.766557,1489.766557,14.054401,8,-1.000000,""
192,w0,python3action_linpack_6000,0.000000,1,-1.000000,1,COMPLETED_SUCCESSFULLY,1490.763657,0.000010,1490.763667,1490.763657,1490.763667,149076366.731504,8,-1.000000,""
82_updated,w0,python3action_imageprocessing_SampleImage_60mb_troll,0.997085,1,2000.000000,1,COMPLETED_SUCCESSFULLY,1444.769854,62.000000,1506.769854,1443.772769,1505.772769,24.286658,19,-1.000000,""
82,w0,python3action_imageprocessing_SampleImage_60mb,0.000000,1,-1.000000,1,COMPLETED_SUCCESSFULLY,1506.769869,0.000010,1506.769879,1506.769869,1506.769879,150676987.916208,19,-1.000000,""
97_updated,w0,python3action_facedetection_SampleVideo_50mb_taurus,0.997085,1,2000.000000,1,COMPLETED_SUCCESSFULLY,1380.656023,134.600046,1515.256069,1379.658938,1514.258984,11.250063,10,-1.000000,""
97,w0,python3action_facedetection_SampleVideo_50mb,0.000000,1,-1.000000,1,COMPLETED_SUCCESSFULLY,1515.256084,0.000010,1515.256094,1515.256084,1515.256094,151525609.427562,10,-1.000000,""
98_updated,w0,python3action_imageprocessing_SampleImage_60mb_troll,0.997085,1,2000.000000,1,COMPLETED_SUCCESSFULLY,1506.769899,62.000000,1568.769899,1505.772814,1567.772814,25.286658,19,-1.000000,""
98,w0,python3action_imageprocessing_SampleImage_60mb,0.000000,1,-1.000000,1,COMPLETED_SUCCESSFULLY,1568.769914,0.000010,1568.769924,1568.769914,1568.769924,156876992.416811,19,-1.000000,""
109_updated,w0,python3action_imageprocessing_SampleImage_60mb_troll,0.997085,1,2000.000000,1,COMPLETED_SUCCESSFULLY,1568.769944,62.000000,1630.769944,1567.772859,1629.772859,26.286659,19,-1.000000,""
109,w0,python3action_imageprocessing_SampleImage_60mb,0.000000,1,-1.000000,1,COMPLETED_SUCCESSFULLY,1630.769959,0.000010,1630.769969,1630.769959,1630.769969,163076996.917413,19,-1.000000,""
148_updated,w0,python3action_facedetection_SampleVideo_30mb_nova,0.997085,1,2000.000000,1,COMPLETED_SUCCESSFULLY,1475.102116,160.399990,1635.502106,1474.105031,1634.505021,10.190182,2,-1.000000,""
148,w0,python3action_facedetection_SampleVideo_30mb,0.000000,1,-1.000000,1,COMPLETED_SUCCESSFULLY,1635.502121,0.000010,1635.502131,1635.502121,1635.502131,163550213.123907,2,-1.000000,""
103_updated,w0,python3action_facedetection_SampleVideo_50mb_taurus,0.997085,1,2000.000000,1,COMPLETED_SUCCESSFULLY,1515.256114,134.600046,1649.856160,1514.259029,1648.859075,12.250063,10,-1.000000,""
103,w0,python3action_facedetection_SampleVideo_50mb,0.000000,1,-1.000000,1,COMPLETED_SUCCESSFULLY,1649.856175,0.000010,1649.856185,1649.856175,1649.856185,164985618.541242,10,-1.000000,""
175_updated,w0,python3action_imageprocessing_SampleImage_60mb_troll,0.997085,1,2000.000000,1,COMPLETED_SUCCESSFULLY,1630.769989,62.000000,1692.769989,1629.772904,1691.772904,27.286660,19,-1.000000,""
175,w0,python3action_imageprocessing_SampleImage_60mb,0.000000,1,-1.000000,1,COMPLETED_SUCCESSFULLY,1692.770004,0.000010,1692.770014,1692.770004,1692.770014,169277001.418015,19,-1.000000,""
188_updated,w0,python3action_imageprocessing_SampleImage_60mb_troll,0.997085,1,2000.000000,1,COMPLETED_SUCCESSFULLY,1692.770034,62.000000,1754.770034,1691.772949,1753.772949,28.286660,19,-1.000000,""
188,w0,python3action_imageprocessing_SampleImage_60mb,0.000000,1,-1.000000,1,COMPLETED_SUCCESSFULLY,1754.770049,0.000010,1754.770059,1754.770049,1754.770059,175477005.918618,19,-1.000000,""
113_updated,w0,python3action_facedetection_SampleVideo_50mb_taurus,0.997085,1,2000.000000,1,COMPLETED_SUCCESSFULLY,1649.856205,134.600046,1784.456252,1648.859120,1783.459167,13.250064,10,-1.000000,""
113,w0,python3action_facedetection_SampleVideo_50mb,0.000000,1,-1.000000,1,COMPLETED_SUCCESSFULLY,1784.456267,0.000010,1784.456277,1784.456267,1784.456277,178445627.700201,10,-1.000000,""
184_updated,w0,python3action_facedetection_SampleVideo_30mb_nova,0.997085,1,2000.000000,1,COMPLETED_SUCCESSFULLY,1635.502151,160.399990,1795.902141,1634.505066,1794.905056,11.190182,2,-1.000000,""
184,w0,python3action_facedetection_SampleVideo_30mb,0.000000,1,-1.000000,1,COMPLETED_SUCCESSFULLY,1795.902156,0.000010,1795.902166,1795.902156,1795.902166,179590216.647613,2,-1.000000,""
python3action_floatoperation_job10_1,w0,python3action_floatoperation,0.997085,1,2000.000000,1,COMPLETED_SUCCESSFULLY,1795.902186,2.439945,1798.342132,1794.905101,1797.345047,736.633338,2,-1.000000,""
193_updated,w0,python3action_imageprocessing_SampleImage_60mb_troll,0.997085,1,2000.000000,1,COMPLETED_SUCCESSFULLY,1754.770079,62.000000,1816.770079,1753.772994,1815.772994,29.286661,19,-1.000000,""
193,w0,python3action_imageprocessing_SampleImage_60mb,0.000000,1,-1.000000,1,COMPLETED_SUCCESSFULLY,1816.770094,0.000010,1816.770104,1816.770094,1816.770104,181677010.419220,19,-1.000000,""
120_updated,w0,python3action_facedetection_SampleVideo_50mb_taurus,0.997085,1,2000.000000,1,COMPLETED_SUCCESSFULLY,1784.456297,134.600046,1919.056343,1783.459212,1918.059258,14.250064,10,-1.000000,""
120,w0,python3action_facedetection_SampleVideo_50mb,0.000000,1,-1.000000,1,COMPLETED_SUCCESSFULLY,1919.056358,0.000010,1919.056368,1919.056358,1919.056368,191905636.813881,10,-1.000000,""
10_updated,w0,python3action_floatoperation_200000000_nova,0.997085,1,2000.000000,1,COMPLETED_SUCCESSFULLY,1798.342147,135.399990,1933.742137,1797.345062,1932.745052,14.274337,2,-1.000000,""
10,w0,python3action_floatoperation_200000000,0.000000,1,-1.000000,1,COMPLETED_SUCCESSFULLY,1933.742152,0.000010,1933.742162,1933.742152,1933.742162,193374216.223505,2,-1.000000,""
131_updated,w0,python3action_facedetection_SampleVideo_50mb_taurus,0.997085,1,2000.000000,1,COMPLETED_SUCCESSFULLY,1919.056388,134.600046,2053.656434,1918.059303,2052.659349,15.250064,10,-1.000000,""
131,w0,python3action_facedetection_SampleVideo_50mb,0.000000,1,-1.000000,1,COMPLETED_SUCCESSFULLY,2053.656449,0.000010,2053.656459,2053.656449,2053.656459,205365645.927562,10,-1.000000,""
34_updated,w0,python3action_floatoperation_200000000_nova,0.997085,1,2000.000000,1,COMPLETED_SUCCESSFULLY,1933.742182,135.399990,2069.142172,1932.745097,2068.145087,15.274337,2,-1.000000,""
34,w0,python3action_floatoperation_200000000,0.000000,1,-1.000000,1,COMPLETED_SUCCESSFULLY,2069.142187,0.000010,2069.142197,2069.142187,2069.142197,206914219.747211,2,-1.000000,""
135_updated,w0,python3action_facedetection_SampleVideo_50mb_taurus,0.997085,1,2000.000000,1,COMPLETED_SUCCESSFULLY,2053.656479,134.600046,2188.256525,2052.659394,2187.259440,16.250065,10,-1.000000,""
135,w0,python3action_facedetection_SampleVideo_50mb,0.000000,1,-1.000000,1,COMPLETED_SUCCESSFULLY,2188.256540,0.000010,2188.256550,2188.256540,2188.256550,218825655.041242,10,-1.000000,""
42_updated,w0,python3action_floatoperation_200000000_nova,0.997085,1,2000.000000,1,COMPLETED_SUCCESSFULLY,2069.142217,135.399990,2204.542208,2068.145132,2203.545123,16.274337,2,-1.000000,""
42,w0,python3action_floatoperation_200000000,0.000000,1,-1.000000,1,COMPLETED_SUCCESSFULLY,2204.542223,0.000010,2204.542233,2204.542223,2204.542233,220454223.300201,2,-1.000000,""
141_updated,w0,python3action_facedetection_SampleVideo_50mb_taurus,0.997085,1,2000.000000,1,COMPLETED_SUCCESSFULLY,2188.256570,134.600046,2322.856617,2187.259485,2321.859532,17.250065,10,-1.000000,""
141,w0,python3action_facedetection_SampleVideo_50mb,0.000000,1,-1.000000,1,COMPLETED_SUCCESSFULLY,2322.856632,0.000010,2322.856642,2322.856632,2322.856642,232285664.200201,10,-1.000000,""
47_updated,w0,python3action_floatoperation_200000000_nova,0.997085,1,2000.000000,1,COMPLETED_SUCCESSFULLY,2204.542253,135.399990,2339.942243,2203.545168,2338.945158,17.274338,2,-1.000000,""
47,w0,python3action_floatoperation_200000000,0.000000,1,-1.000000,1,COMPLETED_SUCCESSFULLY,2339.942258,0.000010,2339.942268,2339.942258,2339.942268,233994226.823907,2,-1.000000,""
54_updated,w0,python3action_floatoperation_100000000_nova,0.997085,1,2000.000000,1,COMPLETED_SUCCESSFULLY,2339.942288,66.200020,2406.142308,2338.945203,2405.145223,36.331488,2,-1.000000,""
54,w0,python3action_floatoperation_100000000,0.000000,1,-1.000000,1,COMPLETED_SUCCESSFULLY,2406.142323,0.000010,2406.142333,2406.142323,2406.142333,240614233.300201,2,-1.000000,""
151_updated,w0,python3action_facedetection_SampleVideo_50mb_taurus,0.997085,1,2000.000000,1,COMPLETED_SUCCESSFULLY,2322.856662,134.600046,2457.456708,2321.859577,2456.459623,18.250065,10,-1.000000,""
151,w0,python3action_facedetection_SampleVideo_50mb,0.000000,1,-1.000000,1,COMPLETED_SUCCESSFULLY,2457.456723,0.000010,2457.456733,2457.456723,2457.456733,245745673.313882,10,-1.000000,""
56_updated,w0,python3action_floatoperation_200000000_nova,0.997085,1,2000.000000,1,COMPLETED_SUCCESSFULLY,2406.142353,135.399990,2541.542343,2405.145268,2540.545258,18.763260,2,-1.000000,""
56,w0,python3action_floatoperation_200000000,0.000000,1,-1.000000,1,COMPLETED_SUCCESSFULLY,2541.542358,0.000010,2541.542368,2541.542358,2541.542368,254154236.823907,2,-1.000000,""
159_updated,w0,python3action_facedetection_SampleVideo_50mb_taurus,0.997085,1,2000.000000,1,COMPLETED_SUCCESSFULLY,2457.456753,134.600046,2592.056799,2456.459668,2591.059714,19.250066,10,-1.000000,""
159,w0,python3action_facedetection_SampleVideo_50mb,0.000000,1,-1.000000,1,COMPLETED_SUCCESSFULLY,2592.056814,0.000010,2592.056824,2592.056814,2592.056824,259205682.427562,10,-1.000000,""
86_updated,w0,python3action_floatoperation_100000000_nova,0.997085,1,2000.000000,1,COMPLETED_SUCCESSFULLY,2541.542388,66.200020,2607.742408,2540.545303,2606.745323,39.376806,2,-1.000000,""
86,w0,python3action_floatoperation_100000000,0.000000,1,-1.000000,1,COMPLETED_SUCCESSFULLY,2607.742423,0.000010,2607.742433,2607.742423,2607.742433,260774243.300201,2,-1.000000,""
92_updated,w0,python3action_floatoperation_100000000_nova,0.997085,1,2000.000000,1,COMPLETED_SUCCESSFULLY,2607.742453,66.200020,2673.942473,2606.745368,2672.945388,40.376807,2,-1.000000,""
92,w0,python3action_floatoperation_100000000,0.000000,1,-1.000000,1,COMPLETED_SUCCESSFULLY,2673.942488,0.000010,2673.942498,2673.942488,2673.942498,267394249.800201,2,-1.000000,""
170_updated,w0,python3action_facedetection_SampleVideo_50mb_taurus,0.997085,1,2000.000000,1,COMPLETED_SUCCESSFULLY,2592.056844,134.600046,2726.656890,2591.059759,2725.659805,20.250066,10,-1.000000,""
170,w0,python3action_facedetection_SampleVideo_50mb,0.000000,1,-1.000000,1,COMPLETED_SUCCESSFULLY,2726.656905,0.000010,2726.656915,2726.656905,2726.656915,272665691.541243,10,-1.000000,""
python3action_image_processing_job5_3,w0,python3action_image_processing_reduced_0.86,0.997085,1,2000.000000,1,COMPLETED_SUCCESSFULLY,2726.656935,9.731413,2736.388348,2725.659850,2735.391263,281.088810,10,-1.000000,""
5_updated,w0,python3action_imageprocessing_SampleImage_40mb_taurus,0.997085,1,2000.000000,1,COMPLETED_SUCCESSFULLY,2736.388363,32.600046,2768.988409,2735.391278,2767.991324,84.907589,10,-1.000000,""
5,w0,python3action_imageprocessing_SampleImage_40mb,0.000000,1,-1.000000,1,COMPLETED_SUCCESSFULLY,2768.988424,0.000010,2768.988434,2768.988424,2768.988434,276898843.443108,10,-1.000000,""
7_updated,w0,python3action_imageprocessing_SampleImage_40mb_taurus,0.997085,1,2000.000000,1,COMPLETED_SUCCESSFULLY,2768.988454,32.600046,2801.588501,2767.991369,2800.591416,85.907591,10,-1.000000,""
7,w0,python3action_imageprocessing_SampleImage_40mb,0.000000,1,-1.000000,1,COMPLETED_SUCCESSFULLY,2801.588516,0.000010,2801.588526,2801.588516,2801.588526,280158852.600201,10,-1.000000,""
93_updated,w0,python3action_floatoperation_200000000_nova,0.997085,1,2000.000000,1,COMPLETED_SUCCESSFULLY,2673.942518,135.399990,2809.342508,2672.945433,2808.345423,20.741105,2,-1.000000,""
93,w0,python3action_floatoperation_200000000,0.000000,1,-1.000000,1,COMPLETED_SUCCESSFULLY,2809.342523,0.000010,2809.342533,2809.342523,2809.342533,280934253.323907,2,-1.000000,""
14_updated,w0,python3action_imageprocessing_SampleImage_40mb_taurus,0.997085,1,2000.000000,1,COMPLETED_SUCCESSFULLY,2801.588546,32.600046,2834.188592,2800.591461,2833.191507,86.907592,10,-1.000000,""
14,w0,python3action_imageprocessing_SampleImage_40mb,0.000000,1,-1.000000,1,COMPLETED_SUCCESSFULLY,2834.188607,0.000010,2834.188617,2834.188607,2834.188617,283418861.713881,10,-1.000000,""
18_updated,w0,python3action_imageprocessing_SampleImage_40mb_taurus,0.997085,1,2000.000000,1,COMPLETED_SUCCESSFULLY,2834.188637,32.600046,2866.788683,2833.191552,2865.791598,87.907593,10,-1.000000,""
18,w0,python3action_imageprocessing_SampleImage_40mb,0.000000,1,-1.000000,1,COMPLETED_SUCCESSFULLY,2866.788698,0.000010,2866.788708,2866.788698,2866.788708,286678870.827562,10,-1.000000,""
22_updated,w0,python3action_imageprocessing_SampleImage_40mb_taurus,0.997085,1,2000.000000,1,COMPLETED_SUCCESSFULLY,2866.788728,32.600046,2899.388774,2865.791643,2898.391689,88.907595,10,-1.000000,""
22,w0,python3action_imageprocessing_SampleImage_40mb,0.000000,1,-1.000000,1,COMPLETED_SUCCESSFULLY,2899.388789,0.000010,2899.388799,2899.388789,2899.388799,289938879.941243,10,-1.000000,""
26_updated,w0,python3action_imageprocessing_SampleImage_40mb_taurus,0.997085,1,2000.000000,1,COMPLETED_SUCCESSFULLY,2899.388819,32.600046,2931.988866,2898.391734,2930.991781,89.907596,10,-1.000000,""
26,w0,python3action_imageprocessing_SampleImage_40mb,0.000000,1,-1.000000,1,COMPLETED_SUCCESSFULLY,2931.988881,0.000010,2931.988891,2931.988881,2931.988891,293198889.100201,10,-1.000000,""
95_updated,w0,python3action_floatoperation_200000000_nova,0.997085,1,2000.000000,1,COMPLETED_SUCCESSFULLY,2809.342553,135.399990,2944.742543,2808.345468,2943.745458,21.741105,2,-1.000000,""
95,w0,python3action_floatoperation_200000000,0.000000,1,-1.000000,1,COMPLETED_SUCCESSFULLY,2944.742558,0.000010,2944.742568,2944.742558,2944.742568,294474256.847614,2,-1.000000,""
60_updated,w0,python3action_imageprocessing_SampleImage_40mb_taurus,0.997085,1,2000.000000,1,COMPLETED_SUCCESSFULLY,2931.988911,32.600046,2964.588957,2930.991826,2963.591872,90.907597,10,-1.000000,""
60,w0,python3action_imageprocessing_SampleImage_40mb,0.000000,1,-1.000000,1,COMPLETED_SUCCESSFULLY,2964.588972,0.000010,2964.588982,2964.588972,2964.588982,296458898.213881,10,-1.000000,""
81_updated,w0,python3action_imageprocessing_SampleImage_40mb_taurus,0.997085,1,2000.000000,1,COMPLETED_SUCCESSFULLY,2964.589002,32.600046,2997.189048,2963.591917,2996.191963,91.907599,10,-1.000000,""
81,w0,python3action_imageprocessing_SampleImage_40mb,0.000000,1,-1.000000,1,COMPLETED_SUCCESSFULLY,2997.189063,0.000010,2997.189073,2997.189063,2997.189073,299718907.327562,10,-1.000000,""
100_updated,w0,python3action_floatoperation_100000000_nova,0.997085,1,2000.000000,1,COMPLETED_SUCCESSFULLY,2944.742588,66.200020,3010.942608,2943.745503,3009.945523,45.467442,2,-1.000000,""
100,w0,python3action_floatoperation_100000000,0.000000,1,-1.000000,1,COMPLETED_SUCCESSFULLY,3010.942623,0.000010,3010.942633,3010.942623,3010.942633,301094263.302009,2,-1.000000,""
114_updated,w0,python3action_imageprocessing_SampleImage_40mb_taurus,0.997085,1,2000.000000,1,COMPLETED_SUCCESSFULLY,2997.189093,32.600046,3029.789139,2996.192008,3028.792054,92.907600,10,-1.000000,""
114,w0,python3action_imageprocessing_SampleImage_40mb,0.000000,1,-1.000000,1,COMPLETED_SUCCESSFULLY,3029.789154,0.000010,3029.789164,3029.789154,3029.789164,302978916.441243,10,-1.000000,""
116_updated,w0,python3action_imageprocessing_SampleImage_40mb_taurus,0.997085,1,2000.000000,1,COMPLETED_SUCCESSFULLY,3029.789184,32.600046,3062.389231,3028.792099,3061.392146,93.907602,10,-1.000000,""
116,w0,python3action_imageprocessing_SampleImage_40mb,0.000000,1,-1.000000,1,COMPLETED_SUCCESSFULLY,3062.389246,0.000010,3062.389256,3062.389246,3062.389256,306238925.600201,10,-1.000000,""
123_updated,w0,python3action_imageprocessing_SampleImage_40mb_taurus,0.997085,1,2000.000000,1,COMPLETED_SUCCESSFULLY,3062.389276,32.600046,3094.989322,3061.392191,3093.992237,94.907603,10,-1.000000,""
123,w0,python3action_imageprocessing_SampleImage_40mb,0.000000,1,-1.000000,1,COMPLETED_SUCCESSFULLY,3094.989337,0.000010,3094.989347,3094.989337,3094.989347,309498934.713881,10,-1.000000,""
164_updated,w0,python3action_imageprocessing_SampleImage_40mb_taurus,0.997085,1,2000.000000,1,COMPLETED_SUCCESSFULLY,3094.989367,32.600046,3127.589413,3093.992282,3126.592328,95.907604,10,-1.000000,""
164,w0,python3action_imageprocessing_SampleImage_40mb,0.000000,1,-1.000000,1,COMPLETED_SUCCESSFULLY,3127.589428,0.000010,3127.589438,3127.589428,3127.589438,312758943.827562,10,-1.000000,""
105_updated,w0,python3action_floatoperation_200000000_nova,0.997085,1,2000.000000,1,COMPLETED_SUCCESSFULLY,3010.942653,135.399990,3146.342643,3009.945568,3145.345558,23.230028,2,-1.000000,""
105,w0,python3action_floatoperation_200000000,0.000000,1,-1.000000,1,COMPLETED_SUCCESSFULLY,3146.342658,0.000010,3146.342668,3146.342658,3146.342668,314634266.825715,2,-1.000000,""
199_updated,w0,python3action_imageprocessing_SampleImage_40mb_taurus,0.997085,1,2000.000000,1,COMPLETED_SUCCESSFULLY,3127.589458,32.600046,3160.189504,3126.592373,3159.192419,96.907606,10,-1.000000,""
199,w0,python3action_imageprocessing_SampleImage_40mb,0.000000,1,-1.000000,1,COMPLETED_SUCCESSFULLY,3160.189519,0.000010,3160.189529,3160.189519,3160.189529,316018952.941243,10,-1.000000,""
python3action_video_processing_job0_3,w0,python3action_video_processing_reduced_1.83,0.997085,1,2000.000000,1,COMPLETED_SUCCESSFULLY,3160.189549,0.000000,3160.189549,3159.192464,3159.192464,27350935818963.171875,10,-1.000000,""
110_updated,w0,python3action_floatoperation_200000000_nova,0.997085,1,2000.000000,1,COMPLETED_SUCCESSFULLY,3146.342688,135.399990,3281.742678,3145.345603,3280.745593,24.230028,2,-1.000000,""
110,w0,python3action_floatoperation_200000000,0.000000,1,-1.000000,1,COMPLETED_SUCCESSFULLY,3281.742693,0.000010,3281.742703,3281.742693,3281.742703,328174270.349422,2,-1.000000,""
0_updated,w0,python3action_videoprocessing_SampleVideo_50mb_taurus,0.997085,1,2000.000000,1,COMPLETED_SUCCESSFULLY,3160.189579,154.250029,3314.439608,3159.192494,3313.442523,21.480985,10,-1.000000,""
0,w0,python3action_videoprocessing_SampleVideo_50mb,0.000000,1,-1.000000,1,COMPLETED_SUCCESSFULLY,3314.439623,0.000010,3314.439633,3314.439623,3314.439633,331443963.325421,10,-1.000000,""
118_updated,w0,python3action_floatoperation_200000000_nova,0.997085,1,2000.000000,1,COMPLETED_SUCCESSFULLY,3281.742723,135.399990,3417.142714,3280.745638,3416.145629,25.230029,2,-1.000000,""
118,w0,python3action_floatoperation_200000000,0.000000,1,-1.000000,1,COMPLETED_SUCCESSFULLY,3417.142729,0.000010,3417.142739,3417.142729,3417.142739,341714273.900201,2,-1.000000,""
4_updated,w0,python3action_videoprocessing_SampleVideo_50mb_taurus,0.997085,1,2000.000000,1,COMPLETED_SUCCESSFULLY,3314.439653,154.250029,3468.689682,3313.442568,3467.692597,22.480985,10,-1.000000,""
4,w0,python3action_videoprocessing_SampleVideo_50mb,0.000000,1,-1.000000,1,COMPLETED_SUCCESSFULLY,3468.689697,0.000010,3468.689707,3468.689697,3468.689707,346868970.709197,10,-1.000000,""
121_updated,w0,python3action_floatoperation_200000000_nova,0.997085,1,2000.000000,1,COMPLETED_SUCCESSFULLY,3417.142759,135.399990,3552.542749,3416.145674,3551.545664,26.230029,2,-1.000000,""
121,w0,python3action_floatoperation_200000000,0.000000,1,-1.000000,1,COMPLETED_SUCCESSFULLY,3552.542764,0.000010,3552.542774,3552.542764,3552.542774,355254277.423907,2,-1.000000,""
145_updated,w0,python3action_floatoperation_100000000_nova,0.997085,1,2000.000000,1,COMPLETED_SUCCESSFULLY,3552.542794,66.200020,3618.742814,3551.545709,3617.745729,54.648711,2,-1.000000,""
145,w0,python3action_floatoperation_100000000,0.000000,1,-1.000000,1,COMPLETED_SUCCESSFULLY,3618.742829,0.000010,3618.742839,3618.742829,3618.742839,361874283.900201,2,-1.000000,""
40_updated,w0,python3action_videoprocessing_SampleVideo_50mb_taurus,0.997085,1,2000.000000,1,COMPLETED_SUCCESSFULLY,3468.689727,154.250029,3622.939756,3467.692642,3621.942671,23.480985,10,-1.000000,""
40,w0,python3action_videoprocessing_SampleVideo_50mb,0.000000,1,-1.000000,1,COMPLETED_SUCCESSFULLY,3622.939771,0.000010,3622.939781,3622.939771,3622.939781,362293978.100201,10,-1.000000,""
153_updated,w0,python3action_floatoperation_100000000_nova,0.997085,1,2000.000000,1,COMPLETED_SUCCESSFULLY,3618.742859,66.200020,3684.942879,3617.745774,3683.945794,55.648712,2,-1.000000,""
153,w0,python3action_floatoperation_100000000,0.000000,1,-1.000000,1,COMPLETED_SUCCESSFULLY,3684.942894,0.000010,3684.942904,3684.942894,3684.942904,368494290.400201,2,-1.000000,""
162_updated,w0,python3action_floatoperation_100000000_nova,0.997085,1,2000.000000,1,COMPLETED_SUCCESSFULLY,3684.942924,66.200020,3751.142944,3683.945839,3750.145859,56.648712,2,-1.000000,""
162,w0,python3action_floatoperation_100000000,0.000000,1,-1.000000,1,COMPLETED_SUCCESSFULLY,3751.142959,0.000010,3751.142969,3751.142959,3751.142969,375114296.900201,2,-1.000000,""
43_updated,w0,python3action_videoprocessing_SampleVideo_50mb_taurus,0.997085,1,2000.000000,1,COMPLETED_SUCCESSFULLY,3622.939801,154.250029,3777.189830,3621.942716,3776.192745,24.480986,10,-1.000000,""
43,w0,python3action_videoprocessing_SampleVideo_50mb,0.000000,1,-1.000000,1,COMPLETED_SUCCESSFULLY,3777.189845,0.000010,3777.189855,3777.189845,3777.189855,377718985.500201,10,-1.000000,""
163_updated,w0,python3action_floatoperation_100000000_nova,0.997085,1,2000.000000,1,COMPLETED_SUCCESSFULLY,3751.142989,66.200020,3817.343009,3750.145904,3816.345924,57.648713,2,-1.000000,""
163,w0,python3action_floatoperation_100000000,0.000000,1,-1.000000,1,COMPLETED_SUCCESSFULLY,3817.343024,0.000010,3817.343034,3817.343024,3817.343034,381734303.400201,2,-1.000000,""
52_updated,w0,python3action_videoprocessing_SampleVideo_50mb_taurus,0.997085,1,2000.000000,1,COMPLETED_SUCCESSFULLY,3777.189875,154.250029,3931.439904,3776.192790,3930.442819,25.480986,10,-1.000000,""
52,w0,python3action_videoprocessing_SampleVideo_50mb,0.000000,1,-1.000000,1,COMPLETED_SUCCESSFULLY,3931.439919,0.000010,3931.439929,3931.439919,3931.439929,393143992.900201,10,-1.000000,""
180_updated,w0,python3action_floatoperation_200000000_nova,0.997085,1,2000.000000,1,COMPLETED_SUCCESSFULLY,3817.343054,135.399990,3952.743044,3816.345969,3951.745959,29.185718,2,-1.000000,""
180,w0,python3action_floatoperation_200000000,0.000000,1,-1.000000,1,COMPLETED_SUCCESSFULLY,3952.743059,0.000010,3952.743069,3952.743059,3952.743069,395274306.923907,2,-1.000000,""
187_updated,w0,python3action_floatoperation_100000000_nova,0.997085,1,2000.000000,1,COMPLETED_SUCCESSFULLY,3952.743089,66.200020,4018.943109,3951.746004,4017.946024,60.694031,2,-1.000000,""
187,w0,python3action_floatoperation_100000000,0.000000,1,-1.000000,1,COMPLETED_SUCCESSFULLY,4018.943124,0.000010,4018.943134,4018.943124,4018.943134,401894313.400201,2,-1.000000,""
python3action_linpack_job12_1,w0,python3action_linpack,0.997085,1,2000.000000,1,COMPLETED_SUCCESSFULLY,4018.943154,2.439945,4021.383099,4017.946069,4020.386014,1647.736129,2,-1.000000,""
12_updated,w0,python3action_linpack_5000_nova,0.997085,1,2000.000000,1,COMPLETED_SUCCESSFULLY,4021.383114,34.600010,4055.983124,4020.386029,4054.986039,117.196095,2,-1.000000,""
12,w0,python3action_linpack_5000,0.000000,1,-1.000000,1,COMPLETED_SUCCESSFULLY,4055.983139,0.000010,4055.983149,4055.983139,4055.983149,405598314.907281,2,-1.000000,""
70_updated,w0,python3action_videoprocessing_SampleVideo_50mb_taurus,0.997085,1,2000.000000,1,COMPLETED_SUCCESSFULLY,3931.439949,154.250029,4085.689978,3930.442864,4084.692893,26.480986,10,-1.000000,""
70,w0,python3action_videoprocessing_SampleVideo_50mb,0.000000,1,-1.000000,1,COMPLETED_SUCCESSFULLY,4085.689993,0.000010,4085.690003,4085.689993,4085.690003,408569000.300201,10,-1.000000,""
29_updated,w0,python3action_linpack_5000_nova,0.997085,1,2000.000000,1,COMPLETED_SUCCESSFULLY,4055.983169,34.600010,4090.583179,4054.986084,4089.586094,118.196097,2,-1.000000,""
29,w0,python3action_linpack_5000,0.000000,1,-1.000000,1,COMPLETED_SUCCESSFULLY,4090.583194,0.000010,4090.583204,4090.583194,4090.583204,409058320.400201,2,-1.000000,""
37_updated,w0,python3action_linpack_5000_nova,0.997085,1,2000.000000,1,COMPLETED_SUCCESSFULLY,4090.583224,34.600010,4125.183234,4089.586139,4124.186149,119.196098,2,-1.000000,""
37,w0,python3action_linpack_5000,0.000000,1,-1.000000,1,COMPLETED_SUCCESSFULLY,4125.183249,0.000010,4125.183259,4125.183249,4125.183259,412518325.900201,2,-1.000000,""
39_updated,w0,python3action_linpack_5000_nova,0.997085,1,2000.000000,1,COMPLETED_SUCCESSFULLY,4125.183279,34.600010,4159.783289,4124.186194,4158.786204,120.196099,2,-1.000000,""
39,w0,python3action_linpack_5000,0.000000,1,-1.000000,1,COMPLETED_SUCCESSFULLY,4159.783304,0.000010,4159.783314,4159.783304,4159.783314,415978331.400201,2,-1.000000,""
55_updated,w0,python3action_linpack_5000_nova,0.997085,1,2000.000000,1,COMPLETED_SUCCESSFULLY,4159.783334,34.600010,4194.383344,4158.786249,4193.386259,121.196100,2,-1.000000,""
55,w0,python3action_linpack_5000,0.000000,1,-1.000000,1,COMPLETED_SUCCESSFULLY,4194.383359,0.000010,4194.383369,4194.383359,4194.383369,419438336.900201,2,-1.000000,""
73_updated,w0,python3action_linpack_5000_nova,0.997085,1,2000.000000,1,COMPLETED_SUCCESSFULLY,4194.383389,34.600010,4228.983399,4193.386304,4227.986314,122.196102,2,-1.000000,""
73,w0,python3action_linpack_5000,0.000000,1,-1.000000,1,COMPLETED_SUCCESSFULLY,4228.983414,0.000010,4228.983424,4228.983414,4228.983424,422898342.400201,2,-1.000000,""
83_updated,w0,python3action_videoprocessing_SampleVideo_50mb_taurus,0.997085,1,2000.000000,1,COMPLETED_SUCCESSFULLY,4085.690023,154.250029,4239.940052,4084.692938,4238.942967,27.480987,10,-1.000000,""
83,w0,python3action_videoprocessing_SampleVideo_50mb,0.000000,1,-1.000000,1,COMPLETED_SUCCESSFULLY,4239.940067,0.000010,4239.940077,4239.940067,4239.940077,423994007.700201,10,-1.000000,""
89_updated,w0,python3action_linpack_5000_nova,0.997085,1,2000.000000,1,COMPLETED_SUCCESSFULLY,4228.983444,34.600010,4263.583454,4227.986359,4262.586369,123.196103,2,-1.000000,""
89,w0,python3action_linpack_5000,0.000000,1,-1.000000,1,COMPLETED_SUCCESSFULLY,4263.583469,0.000010,4263.583479,4263.583469,4263.583479,426358347.900201,2,-1.000000,""
122_updated,w0,python3action_linpack_5000_nova,0.997085,1,2000.000000,1,COMPLETED_SUCCESSFULLY,4263.583499,34.600010,4298.183509,4262.586414,4297.186424,124.196104,2,-1.000000,""
122,w0,python3action_linpack_5000,0.000000,1,-1.000000,1,COMPLETED_SUCCESSFULLY,4298.183524,0.000010,4298.183534,4298.183524,4298.183534,429818353.400201,2,-1.000000,""
126_updated,w0,python3action_linpack_5000_nova,0.997085,1,2000.000000,1,COMPLETED_SUCCESSFULLY,4298.183554,34.600010,4332.783564,4297.186469,4331.786479,125.196106,2,-1.000000,""
126,w0,python3action_linpack_5000,0.000000,1,-1.000000,1,COMPLETED_SUCCESSFULLY,4332.783579,0.000010,4332.783589,4332.783579,4332.783589,433278358.900201,2,-1.000000,""
127_updated,w0,python3action_linpack_5000_nova,0.997085,1,2000.000000,1,COMPLETED_SUCCESSFULLY,4332.783609,34.600010,4367.383619,4331.786524,4366.386534,126.196107,2,-1.000000,""
127,w0,python3action_linpack_5000,0.000000,1,-1.000000,1,COMPLETED_SUCCESSFULLY,4367.383634,0.000010,4367.383644,4367.383634,4367.383644,436738364.400201,2,-1.000000,""
106_updated,w0,python3action_videoprocessing_SampleVideo_50mb_taurus,0.997085,1,2000.000000,1,COMPLETED_SUCCESSFULLY,4239.940097,154.250029,4394.190126,4238.943012,4393.193041,28.480987,10,-1.000000,""
106,w0,python3action_videoprocessing_SampleVideo_50mb,0.000000,1,-1.000000,1,COMPLETED_SUCCESSFULLY,4394.190141,0.000010,4394.190151,4394.190141,4394.190151,439419015.100201,10,-1.000000,""
130_updated,w0,python3action_linpack_5000_nova,0.997085,1,2000.000000,1,COMPLETED_SUCCESSFULLY,4367.383664,34.600010,4401.983674,4366.386579,4400.986589,127.196108,2,-1.000000,""
130,w0,python3action_linpack_5000,0.000000,1,-1.000000,1,COMPLETED_SUCCESSFULLY,4401.983689,0.000010,4401.983699,4401.983689,4401.983699,440198369.900201,2,-1.000000,""
147_updated,w0,python3action_linpack_5000_nova,0.997085,1,2000.000000,1,COMPLETED_SUCCESSFULLY,4401.983719,34.600010,4436.583729,4400.986634,4435.586644,128.196110,2,-1.000000,""
147,w0,python3action_linpack_5000,0.000000,1,-1.000000,1,COMPLETED_SUCCESSFULLY,4436.583744,0.000010,4436.583754,4436.583744,4436.583754,443658375.400201,2,-1.000000,""
152_updated,w0,python3action_linpack_5000_nova,0.997085,1,2000.000000,1,COMPLETED_SUCCESSFULLY,4436.583774,34.600010,4471.183784,4435.586689,4470.186699,129.196111,2,-1.000000,""
152,w0,python3action_linpack_5000,0.000000,1,-1.000000,1,COMPLETED_SUCCESSFULLY,4471.183799,0.000010,4471.183809,4471.183799,4471.183809,447118380.900201,2,-1.000000,""
161_updated,w0,python3action_linpack_5000_nova,0.997085,1,2000.000000,1,COMPLETED_SUCCESSFULLY,4471.183829,34.600010,4505.783839,4470.186744,4504.786754,130.196112,2,-1.000000,""
161,w0,python3action_linpack_5000,0.000000,1,-1.000000,1,COMPLETED_SUCCESSFULLY,4505.783854,0.000010,4505.783864,4505.783854,4505.783864,450578386.400201,2,-1.000000,""
172_updated,w0,python3action_linpack_5000_nova,0.997085,1,2000.000000,1,COMPLETED_SUCCESSFULLY,4505.783884,34.600010,4540.383894,4504.786799,4539.386809,131.196114,2,-1.000000,""
172,w0,python3action_linpack_5000,0.000000,1,-1.000000,1,COMPLETED_SUCCESSFULLY,4540.383909,0.000010,4540.383919,4540.383909,4540.383919,454038391.900201,2,-1.000000,""
132_updated,w0,python3action_videoprocessing_SampleVideo_50mb_taurus,0.997085,1,2000.000000,1,COMPLETED_SUCCESSFULLY,4394.190171,154.250029,4548.440200,4393.193086,4547.443115,29.480987,10,-1.000000,""
132,w0,python3action_videoprocessing_SampleVideo_50mb,0.000000,1,-1.000000,1,COMPLETED_SUCCESSFULLY,4548.440215,0.000010,4548.440225,4548.440215,4548.440225,454844022.500201,10,-1.000000,""
181_updated,w0,python3action_linpack_5000_nova,0.997085,1,2000.000000,1,COMPLETED_SUCCESSFULLY,4540.383939,34.600010,4574.983949,4539.386854,4573.986864,132.196115,2,-1.000000,""
181,w0,python3action_linpack_5000,0.000000,1,-1.000000,1,COMPLETED_SUCCESSFULLY,4574.983964,0.000010,4574.983974,4574.983964,4574.983974,457498397.400201,2,-1.000000,""
183_updated,w0,python3action_linpack_5000_nova,0.997085,1,2000.000000,1,COMPLETED_SUCCESSFULLY,4574.983994,34.600010,4609.584004,4573.986909,4608.586919,133.196116,2,-1.000000,""
183,w0,python3action_linpack_5000,0.000000,1,-1.000000,1,COMPLETED_SUCCESSFULLY,4609.584019,0.000010,4609.584029,4609.584019,4609.584029,460958402.900201,2,-1.000000,""
191_updated,w0,python3action_linpack_5000_nova,0.997085,1,2000.000000,1,COMPLETED_SUCCESSFULLY,4609.584049,34.600010,4644.184059,4608.586964,4643.186974,134.196117,2,-1.000000,""
191,w0,python3action_linpack_5000,0.000000,1,-1.000000,1,COMPLETED_SUCCESSFULLY,4644.184074,0.000010,4644.184084,4644.184074,4644.184084,464418408.400201,2,-1.000000,""
python3action_modeltraining_job19_1,w0,python3action_modeltraining_reduced_0.94,0.997085,1,2000.000000,1,COMPLETED_SUCCESSFULLY,4644.184104,1.794099,4645.978203,4643.187019,4644.981118,2589.032820,2,-1.000000,""
19_updated,w0,python3action_modeltraining_reviews50mb_nova,0.997085,1,2000.000000,1,COMPLETED_SUCCESSFULLY,4645.978218,42.399990,4688.378208,4644.981133,4687.381123,110.551467,2,-1.000000,""
19,w0,python3action_modeltraining_reviews50mb,0.000000,1,-1.000000,1,COMPLETED_SUCCESSFULLY,4688.378223,0.000010,4688.378233,4688.378223,4688.378233,468837823.323505,2,-1.000000,""
144_updated,w0,python3action_videoprocessing_SampleVideo_50mb_taurus,0.997085,1,2000.000000,1,COMPLETED_SUCCESSFULLY,4548.440245,154.250029,4702.690274,4547.443160,4701.693189,30.480987,10,-1.000000,""
144,w0,python3action_videoprocessing_SampleVideo_50mb,0.000000,1,-1.000000,1,COMPLETED_SUCCESSFULLY,4702.690289,0.000010,4702.690299,4702.690289,4702.690299,470269029.900201,10,-1.000000,""
23_updated,w0,python3action_modeltraining_reviews50mb_nova,0.997085,1,2000.000000,1,COMPLETED_SUCCESSFULLY,4688.378253,42.399990,4730.778243,4687.381168,4729.781158,111.551468,2,-1.000000,""
23,w0,python3action_modeltraining_reviews50mb,0.000000,1,-1.000000,1,COMPLETED_SUCCESSFULLY,4730.778258,0.000010,4730.778268,4730.778258,4730.778268,473077826.847211,2,-1.000000,""
28_updated,w0,python3action_modeltraining_reviews50mb_nova,0.997085,1,2000.000000,1,COMPLETED_SUCCESSFULLY,4730.778288,42.399990,4773.178279,4729.781203,4772.181194,112.551469,2,-1.000000,""
28,w0,python3action_modeltraining_reviews50mb,0.000000,1,-1.000000,1,COMPLETED_SUCCESSFULLY,4773.178294,0.000010,4773.178304,4773.178294,4773.178304,477317830.400201,2,-1.000000,""
38_updated,w0,python3action_modeltraining_reviews50mb_nova,0.997085,1,2000.000000,1,COMPLETED_SUCCESSFULLY,4773.178324,42.399990,4815.578314,4772.181239,4814.581229,113.551470,2,-1.000000,""
38,w0,python3action_modeltraining_reviews50mb,0.000000,1,-1.000000,1,COMPLETED_SUCCESSFULLY,4815.578329,0.000010,4815.578339,4815.578329,4815.578339,481557833.923907,2,-1.000000,""
156_updated,w0,python3action_videoprocessing_SampleVideo_50mb_taurus,0.997085,1,2000.000000,1,COMPLETED_SUCCESSFULLY,4702.690319,154.250029,4856.940348,4701.693234,4855.943263,31.480988,10,-1.000000,""
156,w0,python3action_videoprocessing_SampleVideo_50mb,0.000000,1,-1.000000,1,COMPLETED_SUCCESSFULLY,4856.940363,0.000010,4856.940373,4856.940363,4856.940373,485694037.300201,10,-1.000000,""
41_updated,w0,python3action_modeltraining_reviews50mb_nova,0.997085,1,2000.000000,1,COMPLETED_SUCCESSFULLY,4815.578359,42.399990,4857.978349,4814.581274,4856.981264,114.551471,2,-1.000000,""
41,w0,python3action_modeltraining_reviews50mb,0.000000,1,-1.000000,1,COMPLETED_SUCCESSFULLY,4857.978364,0.000010,4857.978374,4857.978364,4857.978374,485797837.447612,2,-1.000000,""
51_updated,w0,python3action_modeltraining_reviews50mb_nova,0.997085,1,2000.000000,1,COMPLETED_SUCCESSFULLY,4857.978394,42.399990,4900.378385,4856.981309,4899.381300,115.551472,2,-1.000000,""
51,w0,python3action_modeltraining_reviews50mb,0.000000,1,-1.000000,1,COMPLETED_SUCCESSFULLY,4900.378400,0.000010,4900.378410,4900.378400,4900.378410,490037841.000201,2,-1.000000,""
58_updated,w0,python3action_modeltraining_reviews100mb_nova,0.997085,1,2000.000000,1,COMPLETED_SUCCESSFULLY,4900.378430,79.600010,4979.978440,4899.381345,4978.981355,62.550009,2,-1.000000,""
58,w0,python3action_modeltraining_reviews100mb,0.000000,1,-1.000000,1,COMPLETED_SUCCESSFULLY,4979.978455,0.000010,4979.978465,4979.978455,4979.978465,497997846.500201,2,-1.000000,""
160_updated,w0,python3action_videoprocessing_SampleVideo_50mb_taurus,0.997085,1,2000.000000,1,COMPLETED_SUCCESSFULLY,4856.940393,154.250029,5011.190422,4855.943308,5010.193337,32.480988,10,-1.000000,""
160,w0,python3action_videoprocessing_SampleVideo_50mb,0.000000,1,-1.000000,1,COMPLETED_SUCCESSFULLY,5011.190437,0.000010,5011.190447,5011.190437,5011.190447,501119044.700201,10,-1.000000,""
66_updated,w0,python3action_modeltraining_reviews50mb_nova,0.997085,1,2000.000000,1,COMPLETED_SUCCESSFULLY,4979.978485,42.399990,5022.378475,4978.981400,5021.381390,118.428834,2,-1.000000,""
66,w0,python3action_modeltraining_reviews50mb,0.000000,1,-1.000000,1,COMPLETED_SUCCESSFULLY,5022.378490,0.000010,5022.378500,5022.378490,5022.378500,502237850.023907,2,-1.000000,""
68_updated,w0,python3action_modeltraining_reviews50mb_nova,0.997085,1,2000.000000,1,COMPLETED_SUCCESSFULLY,5022.378520,42.399990,5064.778510,5021.381435,5063.781425,119.428835,2,-1.000000,""
68,w0,python3action_modeltraining_reviews50mb,0.000000,1,-1.000000,1,COMPLETED_SUCCESSFULLY,5064.778525,0.000010,5064.778535,5064.778525,5064.778535,506477853.547613,2,-1.000000,""
69_updated,w0,python3action_modeltraining_reviews100mb_nova,0.997085,1,2000.000000,1,COMPLETED_SUCCESSFULLY,5064.778555,79.600010,5144.378565,5063.781470,5143.381480,64.615337,2,-1.000000,""
69,w0,python3action_modeltraining_reviews100mb,0.000000,1,-1.000000,1,COMPLETED_SUCCESSFULLY,5144.378580,0.000010,5144.378590,5144.378580,5144.378590,514437859.025111,2,-1.000000,""
185_updated,w0,python3action_videoprocessing_SampleVideo_50mb_taurus,0.997085,1,2000.000000,1,COMPLETED_SUCCESSFULLY,5011.190467,154.250029,5165.440496,5010.193382,5164.443411,33.480988,10,-1.000000,""
185,w0,python3action_videoprocessing_SampleVideo_50mb,0.000000,1,-1.000000,1,COMPLETED_SUCCESSFULLY,5165.440511,0.000010,5165.440521,5165.440511,5165.440521,516544052.100201,10,-1.000000,""
72_updated,w0,python3action_modeltraining_reviews100mb_nova,0.997085,1,2000.000000,1,COMPLETED_SUCCESSFULLY,5144.378610,79.600010,5223.978620,5143.381525,5222.981535,65.615338,2,-1.000000,""
72,w0,python3action_modeltraining_reviews100mb,0.000000,1,-1.000000,1,COMPLETED_SUCCESSFULLY,5223.978635,0.000010,5223.978645,5223.978635,5223.978645,522397864.502610,2,-1.000000,""
87_updated,w0,python3action_modeltraining_reviews50mb_nova,0.997085,1,2000.000000,1,COMPLETED_SUCCESSFULLY,5223.978665,42.399990,5266.378655,5222.981580,5265.381570,124.183556,2,-1.000000,""
87,w0,python3action_modeltraining_reviews50mb,0.000000,1,-1.000000,1,COMPLETED_SUCCESSFULLY,5266.378670,0.000010,5266.378680,5266.378670,5266.378680,526637868.026316,2,-1.000000,""
198_updated,w0,python3action_videoprocessing_SampleVideo_50mb_taurus,0.997085,1,2000.000000,1,COMPLETED_SUCCESSFULLY,5165.440541,154.250029,5319.690570,5164.443456,5318.693485,34.480989,10,-1.000000,""
198,w0,python3action_videoprocessing_SampleVideo_50mb,0.000000,1,-1.000000,1,COMPLETED_SUCCESSFULLY,5319.690585,0.000010,5319.690595,5319.690585,5319.690595,531969059.500201,10,-1.000000,""
107_updated,w0,python3action_modeltraining_reviews100mb_nova,0.997085,1,2000.000000,1,COMPLETED_SUCCESSFULLY,5266.378700,79.600010,5345.978710,5265.381615,5344.981625,67.148002,2,-1.000000,""
107,w0,python3action_modeltraining_reviews100mb,0.000000,1,-1.000000,1,COMPLETED_SUCCESSFULLY,5345.978725,0.000010,5345.978735,5345.978725,5345.978735,534597873.503815,2,-1.000000,""
108_updated,w0,python3action_modeltraining_reviews50mb_nova,0.997085,1,2000.000000,1,COMPLETED_SUCCESSFULLY,5345.978755,42.399990,5388.378745,5344.981670,5387.381660,127.060917,2,-1.000000,""
108,w0,python3action_modeltraining_reviews50mb,0.000000,1,-1.000000,1,COMPLETED_SUCCESSFULLY,5388.378760,0.000010,5388.378770,5388.378760,5388.378770,538837877.027520,2,-1.000000,""
115_updated,w0,python3action_modeltraining_reviews100mb_nova,0.997085,1,2000.000000,1,COMPLETED_SUCCESSFULLY,5388.378790,79.600010,5467.978800,5387.381705,5466.981715,68.680666,2,-1.000000,""
115,w0,python3action_modeltraining_reviews100mb,0.000000,1,-1.000000,1,COMPLETED_SUCCESSFULLY,5467.978815,0.000010,5467.978825,5467.978815,5467.978825,546797882.505019,2,-1.000000,""
124_updated,w0,python3action_modeltraining_reviews100mb_nova,0.997085,1,2000.000000,1,COMPLETED_SUCCESSFULLY,5467.978845,79.600010,5547.578855,5466.981760,5546.581770,69.680667,2,-1.000000,""
124,w0,python3action_modeltraining_reviews100mb,0.000000,1,-1.000000,1,COMPLETED_SUCCESSFULLY,5547.578870,0.000010,5547.578880,5547.578870,5547.578880,554757888.000201,2,-1.000000,""
149_updated,w0,python3action_modeltraining_reviews100mb_nova,0.997085,1,2000.000000,1,COMPLETED_SUCCESSFULLY,5547.578900,79.600010,5627.178910,5546.581815,5626.181825,70.680668,2,-1.000000,""
149,w0,python3action_modeltraining_reviews100mb,0.000000,1,-1.000000,1,COMPLETED_SUCCESSFULLY,5627.178925,0.000010,5627.178935,5627.178925,5627.178935,562717893.500201,2,-1.000000,""
154_updated,w0,python3action_modeltraining_reviews50mb_nova,0.997085,1,2000.000000,1,COMPLETED_SUCCESSFULLY,5627.178955,42.399990,5669.578945,5626.181870,5668.581860,133.692999,2,-1.000000,""
154,w0,python3action_modeltraining_reviews50mb,0.000000,1,-1.000000,1,COMPLETED_SUCCESSFULLY,5669.578960,0.000010,5669.578970,5669.578960,5669.578970,566957897.023907,2,-1.000000,""
157_updated,w0,python3action_modeltraining_reviews100mb_nova,0.997085,1,2000.000000,1,COMPLETED_SUCCESSFULLY,5669.578990,79.600010,5749.179000,5668.581905,5748.181915,72.213332,2,-1.000000,""
157,w0,python3action_modeltraining_reviews100mb,0.000000,1,-1.000000,1,COMPLETED_SUCCESSFULLY,5749.179015,0.000010,5749.179025,5749.179015,5749.179025,574917902.501405,2,-1.000000,""
189_updated,w0,python3action_modeltraining_reviews100mb_nova,0.997085,1,2000.000000,1,COMPLETED_SUCCESSFULLY,5749.179045,79.600010,5828.779055,5748.181960,5827.781970,73.213332,2,-1.000000,""
189,w0,python3action_modeltraining_reviews100mb,0.000000,1,-1.000000,1,COMPLETED_SUCCESSFULLY,5828.779070,0.000010,5828.779080,5828.779070,5828.779080,582877908.000201,2,-1.000000,""
194_updated,w0,python3action_modeltraining_reviews100mb_nova,0.997085,1,2000.000000,1,COMPLETED_SUCCESSFULLY,5828.779100,79.600010,5908.379110,5827.782015,5907.382025,74.213333,2,-1.000000,""
194,w0,python3action_modeltraining_reviews100mb,0.000000,1,-1.000000,1,COMPLETED_SUCCESSFULLY,5908.379125,0.000010,5908.379135,5908.379125,5908.379135,590837913.500201,2,-1.000000,""
197_updated,w0,python3action_modeltraining_reviews100mb_nova,0.997085,1,2000.000000,1,COMPLETED_SUCCESSFULLY,5908.379155,79.600010,5987.979165,5907.382070,5986.982080,75.213333,2,-1.000000,""
197,w0,python3action_modeltraining_reviews100mb,0.000000,1,-1.000000,1,COMPLETED_SUCCESSFULLY,5987.979180,0.000010,5987.979190,5987.979180,5987.979190,598797919.000201,2,-1.000000,""
python3action_pyaes_job24_1,w0,python3action_pyaes_reduced_0.85,0.997085,1,2000.000000,1,COMPLETED_SUCCESSFULLY,5987.979210,0.320244,5988.299454,5986.982125,5987.302369,18696.079586,2,-1.000000,""
24_updated,w0,python3action_pyaes_4000_nova,0.997085,1,2000.000000,1,COMPLETED_SUCCESSFULLY,5988.299469,139.600010,6127.899479,5987.302384,6126.902394,43.888983,2,-1.000000,""
24,w0,python3action_pyaes_4000,0.000000,1,-1.000000,1,COMPLETED_SUCCESSFULLY,6127.899494,0.000010,6127.899504,6127.899494,6127.899504,612789950.400201,2,-1.000000,""
48_updated,w0,python3action_pyaes_4000_nova,0.997085,1,2000.000000,1,COMPLETED_SUCCESSFULLY,6127.899524,139.600010,6267.499534,6126.902439,6266.502449,44.888983,2,-1.000000,""
48,w0,python3action_pyaes_4000,0.000000,1,-1.000000,1,COMPLETED_SUCCESSFULLY,6267.499549,0.000010,6267.499559,6267.499549,6267.499559,626749955.900201,2,-1.000000,""
50_updated,w0,python3action_pyaes_4000_nova,0.997085,1,2000.000000,1,COMPLETED_SUCCESSFULLY,6267.499579,139.600010,6407.099589,6266.502494,6406.102504,45.888983,2,-1.000000,""
50,w0,python3action_pyaes_4000,0.000000,1,-1.000000,1,COMPLETED_SUCCESSFULLY,6407.099604,0.000010,6407.099614,6407.099604,6407.099614,640709961.400201,2,-1.000000,""
61_updated,w0,python3action_pyaes_3000_nova,0.997085,1,2000.000000,1,COMPLETED_SUCCESSFULLY,6407.099634,78.200020,6485.299654,6406.102549,6484.302569,82.919449,2,-1.000000,""
61,w0,python3action_pyaes_3000,0.000000,1,-1.000000,1,COMPLETED_SUCCESSFULLY,6485.299669,0.000010,6485.299679,6485.299669,6485.299679,648529967.900201,2,-1.000000,""
62_updated,w0,python3action_pyaes_3000_nova,0.997085,1,2000.000000,1,COMPLETED_SUCCESSFULLY,6485.299699,78.200020,6563.499719,6484.302614,6562.502634,83.919450,2,-1.000000,""
62,w0,python3action_pyaes_3000,0.000000,1,-1.000000,1,COMPLETED_SUCCESSFULLY,6563.499734,0.000010,6563.499744,6563.499734,6563.499744,656349974.400201,2,-1.000000,""
75_updated,w0,python3action_pyaes_3000_nova,0.997085,1,2000.000000,1,COMPLETED_SUCCESSFULLY,6563.499764,78.200020,6641.699784,6562.502679,6640.702699,84.919451,2,-1.000000,""
75,w0,python3action_pyaes_3000,0.000000,1,-1.000000,1,COMPLETED_SUCCESSFULLY,6641.699799,0.000010,6641.699809,6641.699799,6641.699809,664169980.900201,2,-1.000000,""
76_updated,w0,python3action_pyaes_4000_nova,0.997085,1,2000.000000,1,COMPLETED_SUCCESSFULLY,6641.699829,139.600010,6781.299839,6640.702744,6780.302754,48.569501,2,-1.000000,""
76,w0,python3action_pyaes_4000,0.000000,1,-1.000000,1,COMPLETED_SUCCESSFULLY,6781.299854,0.000010,6781.299864,6781.299854,6781.299864,678129986.400201,2,-1.000000,""
79_updated,w0,python3action_pyaes_4000_nova,0.997085,1,2000.000000,1,COMPLETED_SUCCESSFULLY,6781.299884,139.600010,6920.899894,6780.302799,6919.902809,49.569501,2,-1.000000,""
79,w0,python3action_pyaes_4000,0.000000,1,-1.000000,1,COMPLETED_SUCCESSFULLY,6920.899909,0.000010,6920.899919,6920.899909,6920.899919,692089991.900201,2,-1.000000,""
91_updated,w0,python3action_pyaes_4000_nova,0.997085,1,2000.000000,1,COMPLETED_SUCCESSFULLY,6920.899939,139.600010,7060.499949,6919.902854,7059.502864,50.569501,2,-1.000000,""
91,w0,python3action_pyaes_4000,0.000000,1,-1.000000,1,COMPLETED_SUCCESSFULLY,7060.499964,0.000010,7060.499974,7060.499964,7060.499974,706049997.400201,2,-1.000000,""
94_updated,w0,python3action_pyaes_3000_nova,0.997085,1,2000.000000,1,COMPLETED_SUCCESSFULLY,7060.499994,78.200020,7138.700014,7059.502909,7137.702929,91.274951,2,-1.000000,""
94,w0,python3action_pyaes_3000,0.000000,1,-1.000000,1,COMPLETED_SUCCESSFULLY,7138.700029,0.000010,7138.700039,7138.700029,7138.700039,713870003.900201,2,-1.000000,""
96_updated,w0,python3action_pyaes_4000_nova,0.997085,1,2000.000000,1,COMPLETED_SUCCESSFULLY,7138.700059,139.600010,7278.300069,7137.702974,7277.302984,52.129674,2,-1.000000,""
96,w0,python3action_pyaes_4000,0.000000,1,-1.000000,1,COMPLETED_SUCCESSFULLY,7278.300084,0.000010,7278.300094,7278.300084,7278.300094,727830009.400201,2,-1.000000,""
99_updated,w0,python3action_pyaes_4000_nova,0.997085,1,2000.000000,1,COMPLETED_SUCCESSFULLY,7278.300114,139.600010,7417.900124,7277.303029,7416.903039,53.129674,2,-1.000000,""
99,w0,python3action_pyaes_4000,0.000000,1,-1.000000,1,COMPLETED_SUCCESSFULLY,7417.900139,0.000010,7417.900149,7417.900139,7417.900149,741790014.900201,2,-1.000000,""
101_updated,w0,python3action_pyaes_3000_nova,0.997085,1,2000.000000,1,COMPLETED_SUCCESSFULLY,7417.900169,78.200020,7496.100189,7416.903084,7495.103104,95.845284,2,-1.000000,""
101,w0,python3action_pyaes_3000,0.000000,1,-1.000000,1,COMPLETED_SUCCESSFULLY,7496.100204,0.000010,7496.100214,7496.100204,7496.100214,749610021.400201,2,-1.000000,""
104_updated,w0,python3action_pyaes_4000_nova,0.997085,1,2000.000000,1,COMPLETED_SUCCESSFULLY,7496.100234,139.600010,7635.700244,7495.103149,7634.703159,54.689847,2,-1.000000,""
104,w0,python3action_pyaes_4000,0.000000,1,-1.000000,1,COMPLETED_SUCCESSFULLY,7635.700259,0.000010,7635.700269,7635.700259,7635.700269,763570026.900201,2,-1.000000,""
112_updated,w0,python3action_pyaes_4000_nova,0.997085,1,2000.000000,1,COMPLETED_SUCCESSFULLY,7635.700289,139.600010,7775.300299,7634.703204,7774.303214,55.689847,2,-1.000000,""
112,w0,python3action_pyaes_4000,0.000000,1,-1.000000,1,COMPLETED_SUCCESSFULLY,7775.300314,0.000010,7775.300324,7775.300314,7775.300324,777530032.400201,2,-1.000000,""
117_updated,w0,python3action_pyaes_3000_nova,0.997085,1,2000.000000,1,COMPLETED_SUCCESSFULLY,7775.300344,78.200020,7853.500364,7774.303259,7852.503279,100.415618,2,-1.000000,""
117,w0,python3action_pyaes_3000,0.000000,1,-1.000000,1,COMPLETED_SUCCESSFULLY,7853.500379,0.000010,7853.500389,7853.500379,7853.500389,785350038.900201,2,-1.000000,""
129_updated,w0,python3action_pyaes_4000_nova,0.997085,1,2000.000000,1,COMPLETED_SUCCESSFULLY,7853.500409,139.600010,7993.100419,7852.503324,7992.103334,57.250020,2,-1.000000,""
129,w0,python3action_pyaes_4000,0.000000,1,-1.000000,1,COMPLETED_SUCCESSFULLY,7993.100434,0.000010,7993.100444,7993.100434,7993.100444,799310044.400201,2,-1.000000,""
143_updated,w0,python3action_pyaes_3000_nova,0.997085,1,2000.000000,1,COMPLETED_SUCCESSFULLY,7993.100464,78.200020,8071.300484,7992.103379,8070.303399,103.200785,2,-1.000000,""
143,w0,python3action_pyaes_3000,0.000000,1,-1.000000,1,COMPLETED_SUCCESSFULLY,8071.300499,0.000010,8071.300509,8071.300499,8071.300509,807130050.900201,2,-1.000000,""
150_updated,w0,python3action_pyaes_4000_nova,0.997085,1,2000.000000,1,COMPLETED_SUCCESSFULLY,8071.300529,139.600010,8210.900539,8070.303444,8209.903454,58.810193,2,-1.000000,""
150,w0,python3action_pyaes_4000,0.000000,1,-1.000000,1,COMPLETED_SUCCESSFULLY,8210.900554,0.000010,8210.900564,8210.900554,8210.900564,821090056.400201,2,-1.000000,""
158_updated,w0,python3action_pyaes_3000_nova,0.997085,1,2000.000000,1,COMPLETED_SUCCESSFULLY,8210.900584,78.200020,8289.100604,8209.903499,8288.103519,105.985952,2,-1.000000,""
158,w0,python3action_pyaes_3000,0.000000,1,-1.000000,1,COMPLETED_SUCCESSFULLY,8289.100619,0.000010,8289.100629,8289.100619,8289.100629,828910062.900201,2,-1.000000,""
166_updated,w0,python3action_pyaes_4000_nova,0.997085,1,2000.000000,1,COMPLETED_SUCCESSFULLY,8289.100649,139.600010,8428.700659,8288.103564,8427.703574,60.370365,2,-1.000000,""
166,w0,python3action_pyaes_4000,0.000000,1,-1.000000,1,COMPLETED_SUCCESSFULLY,8428.700674,0.000010,8428.700684,8428.700674,8428.700684,842870068.400201,2,-1.000000,""
174_updated,w0,python3action_pyaes_3000_nova,0.997085,1,2000.000000,1,COMPLETED_SUCCESSFULLY,8428.700704,78.200020,8506.900724,8427.703619,8505.903639,108.771119,2,-1.000000,""
174,w0,python3action_pyaes_3000,0.000000,1,-1.000000,1,COMPLETED_SUCCESSFULLY,8506.900739,0.000010,8506.900749,8506.900739,8506.900749,850690074.900201,2,-1.000000,""
176_updated,w0,python3action_pyaes_4000_nova,0.997085,1,2000.000000,1,COMPLETED_SUCCESSFULLY,8506.900769,139.600010,8646.500779,8505.903684,8645.503694,61.930538,2,-1.000000,""
176,w0,python3action_pyaes_4000,0.000000,1,-1.000000,1,COMPLETED_SUCCESSFULLY,8646.500794,0.000010,8646.500804,8646.500794,8646.500804,864650080.400201,2,-1.000000,""
190_updated,w0,python3action_pyaes_3000_nova,0.997085,1,2000.000000,1,COMPLETED_SUCCESSFULLY,8646.500824,78.200020,8724.700844,8645.503739,8723.703759,111.556286,2,-1.000000,""
190,w0,python3action_pyaes_3000,0.000000,1,-1.000000,1,COMPLETED_SUCCESSFULLY,8724.700859,0.000010,8724.700869,8724.700859,8724.700869,872470086.900201,2,-1.000000,""
195_updated,w0,python3action_pyaes_4000_nova,0.997085,1,2000.000000,1,COMPLETED_SUCCESSFULLY,8724.700889,139.600010,8864.300899,8723.703804,8863.303814,63.490711,2,-1.000000,""
195,w0,python3action_pyaes_4000,0.000000,1,-1.000000,1,COMPLETED_SUCCESSFULLY,8864.300914,0.000010,8864.300924,8864.300914,8864.300924,886430092.400201,2,-1.000000,""
196_updated,w0,python3action_pyaes_3000_nova,0.997085,1,2000.000000,1,COMPLETED_SUCCESSFULLY,8864.300944,78.200020,8942.500964,8863.303859,8941.503879,114.341453,2,-1.000000,""
196,w0,python3action_pyaes_3000,0.000000,1,-1.000000,1,COMPLETED_SUCCESSFULLY,8942.500979,0.000010,8942.500989,8942.500979,8942.500989,894250098.900201,2,-1.000000,""
python3action_video_processing_job31_1,w0,python3action_video_processing_reduced_1.89,0.997085,1,2000.000000,1,COMPLETED_SUCCESSFULLY,8942.501009,0.000000,8942.501009,8941.503924,8941.503924,182060880263877.937500,2,-1.000000,""
31_updated,w0,python3action_videoprocessing_SampleVideo_30mb_nova,0.997085,1,2000.000000,1,COMPLETED_SUCCESSFULLY,8942.501039,106.799980,9049.301019,8941.503954,9048.303934,84.721962,2,-1.000000,""
31,w0,python3action_videoprocessing_SampleVideo_30mb,0.000000,1,-1.000000,1,COMPLETED_SUCCESSFULLY,9049.301034,0.000010,9049.301044,9049.301034,9049.301044,904930104.447412,2,-1.000000,""
33_updated,w0,python3action_videoprocessing_SampleVideo_30mb_nova,0.997085,1,2000.000000,1,COMPLETED_SUCCESSFULLY,9049.301064,106.799980,9156.101045,9048.303979,9155.103960,85.721963,2,-1.000000,""
33,w0,python3action_videoprocessing_SampleVideo_30mb,0.000000,1,-1.000000,1,COMPLETED_SUCCESSFULLY,9156.101060,0.000010,9156.101070,9156.101060,9156.101070,915610107.000201,2,-1.000000,""
67_updated,w0,python3action_videoprocessing_SampleVideo_30mb_nova,0.997085,1,2000.000000,1,COMPLETED_SUCCESSFULLY,9156.101090,106.799980,9262.901070,9155.104005,9261.903985,86.721963,2,-1.000000,""
67,w0,python3action_videoprocessing_SampleVideo_30mb,0.000000,1,-1.000000,1,COMPLETED_SUCCESSFULLY,9262.901085,0.000010,9262.901095,9262.901085,9262.901095,926290109.547010,2,-1.000000,""
78_updated,w0,python3action_videoprocessing_SampleVideo_30mb_nova,0.997085,1,2000.000000,1,COMPLETED_SUCCESSFULLY,9262.901115,106.799980,9369.701096,9261.904030,9368.704011,87.721964,2,-1.000000,""
78,w0,python3action_videoprocessing_SampleVideo_30mb,0.000000,1,-1.000000,1,COMPLETED_SUCCESSFULLY,9369.701111,0.000010,9369.701121,9369.701111,9369.701121,936970112.100201,2,-1.000000,""
119_updated,w0,python3action_videoprocessing_SampleVideo_50mb_nova,0.997085,1,2000.000000,1,COMPLETED_SUCCESSFULLY,9369.701141,139.600010,9509.301151,9368.704056,9508.304066,68.111056,2,-1.000000,""
119,w0,python3action_videoprocessing_SampleVideo_50mb,0.000000,1,-1.000000,1,COMPLETED_SUCCESSFULLY,9509.301166,0.000010,9509.301176,9509.301166,9509.301176,950930117.600201,2,-1.000000,""
133_updated,w0,python3action_videoprocessing_SampleVideo_30mb_nova,0.997085,1,2000.000000,1,COMPLETED_SUCCESSFULLY,9509.301196,106.799980,9616.101176,9508.304111,9615.104091,90.029081,2,-1.000000,""
133,w0,python3action_videoprocessing_SampleVideo_30mb,0.000000,1,-1.000000,1,COMPLETED_SUCCESSFULLY,9616.101191,0.000010,9616.101201,9616.101191,9616.101201,961610120.147010,2,-1.000000,""
169_updated,w0,python3action_videoprocessing_SampleVideo_50mb_nova,0.997085,1,2000.000000,1,COMPLETED_SUCCESSFULLY,9616.101221,139.600010,9755.701231,9615.104136,9754.704146,69.876099,2,-1.000000,""
169,w0,python3action_videoprocessing_SampleVideo_50mb,0.000000,1,-1.000000,1,COMPLETED_SUCCESSFULLY,9755.701246,0.000010,9755.701256,9755.701246,9755.701256,975570125.624509,2,-1.000000,""
171_updated,w0,python3action_videoprocessing_SampleVideo_30mb_nova,0.997085,1,2000.000000,1,COMPLETED_SUCCESSFULLY,9755.701276,106.799980,9862.501257,9754.704191,9861.504172,92.336198,2,-1.000000,""
171,w0,python3action_videoprocessing_SampleVideo_30mb,0.000000,1,-1.000000,1,COMPLETED_SUCCESSFULLY,9862.501272,0.000010,9862.501282,9862.501272,9862.501282,986250128.200201,2,-1.000000,""
182_updated,w0,python3action_videoprocessing_SampleVideo_30mb_nova,0.997085,1,2000.000000,1,COMPLETED_SUCCESSFULLY,9862.501302,106.799980,9969.301282,9861.504217,9968.304197,93.336199,2,-1.000000,""
182,w0,python3action_videoprocessing_SampleVideo_30mb,0.000000,1,-1.000000,1,COMPLETED_SUCCESSFULLY,9969.301297,0.000010,9969.301307,9969.301297,9969.301307,996930130.747010,2,-1.000000,""
