job_id,workload_name,profile,submission_time,requested_number_of_resources,requested_time,success,final_state,starting_time,execution_time,finish_time,waiting_time,turnaround_time,stretch,allocated_resources,consumed_energy,metadata
python3action_chameleon_job4_3,w0,python3action_chameleon,0.997085,1,2000.000000,1,COMPLETED_SUCCESSFULLY,1.002145,0.867914,1.870059,0.005060,0.872974,1.005830,19,-1.000000,""
python3action_chameleon_job13_2,w0,python3action_chameleon,0.997085,1,2000.000000,1,COMPLETED_SUCCESSFULLY,1.002130,5.040826,6.042956,0.005045,5.045871,1.001001,10,-1.000000,""
python3action_linpack_job12_1,w0,python3action_linpack,0.997085,1,2000.000000,1,COMPLETED_SUCCESSFULLY,1.002115,5.760927,6.763042,0.005030,5.765957,1.000873,8,-1.000000,""
python3action_facedetection_job7_0,w0,python3action_facedetection,0.997085,1,2000.000000,1,COMPLETED_SUCCESSFULLY,1.002100,30.499683,31.501783,0.005015,30.504698,1.000164,2,-1.000000,""
13_updated,w0,python3action_chameleon_2000_taurus,0.997085,1,2000.000000,1,COMPLETED_SUCCESSFULLY,6.042971,64.199977,70.242948,5.045886,69.245863,1.078596,10,-1.000000,""
13,w0,python3action_chameleon_2000,0.000000,1,-1.000000,1,COMPLETED_SUCCESSFULLY,70.242963,0.000010,70.242973,70.242963,70.242973,7024297.300201,10,-1.000000,""
4_updated,w0,python3action_chameleon_3000_troll,0.997085,1,2000.000000,1,COMPLETED_SUCCESSFULLY,1.870074,94.000000,95.870074,0.872989,94.872989,1.009287,19,-1.000000,""
4,w0,python3action_chameleon_3000,0.000000,1,-1.000000,1,COMPLETED_SUCCESSFULLY,95.870089,0.000010,95.870099,95.870089,95.870099,9587009.900402,19,-1.000000,""
12_updated,w0,python3action_linpack_6000_orion,0.997085,1,2000.000000,1,COMPLETED_SUCCESSFULLY,6.763057,106.000000,112.763057,5.765972,111.765972,1.054396,8,-1.000000,""
12,w0,python3action_linpack_6000,0.000000,1,-1.000000,1,COMPLETED_SUCCESSFULLY,112.763072,0.000010,112.763082,112.763072,112.763082,11276308.223673,8,-1.000000,""
29_updated,w0,python3action_chameleon_2000_taurus,0.997085,1,2000.000000,1,COMPLETED_SUCCESSFULLY,70.242993,64.199977,134.442970,69.245908,133.445885,2.078597,10,-1.000000,""
29,w0,python3action_chameleon_2000,0.000000,1,-1.000000,1,COMPLETED_SUCCESSFULLY,134.442985,0.000010,134.442995,134.442985,134.442995,13444299.500201,10,-1.000000,""
36_updated,w0,python3action_chameleon_3000_troll,0.997085,1,2000.000000,1,COMPLETED_SUCCESSFULLY,95.870119,94.000000,189.870119,94.873034,188.873034,2.009288,19,-1.000000,""
36,w0,python3action_chameleon_3000,0.000000,1,-1.000000,1,COMPLETED_SUCCESSFULLY,189.870134,0.000010,189.870144,189.870134,189.870144,18987014.401004,19,-1.000000,""
7_updated,w0,python3action_facedetection_SampleVideo_30mb_nova,0.997085,1,2000.000000,1,COMPLETED_SUCCESSFULLY,31.501798,160.399990,191.901788,30.504713,190.904703,1.190179,2,-1.000000,""
7,w0,python3action_facedetection_SampleVideo_30mb,0.000000,1,-1.000000,1,COMPLETED_SUCCESSFULLY,191.901803,0.000010,191.901813,191.901803,191.901813,19190181.323505,2,-1.000000,""
34_updated,w0,python3action_chameleon_2000_taurus,0.997085,1,2000.000000,1,COMPLETED_SUCCESSFULLY,134.443015,64.199977,198.642992,133.445930,197.645907,3.078598,10,-1.000000,""
34,w0,python3action_chameleon_2000,0.000000,1,-1.000000,1,COMPLETED_SUCCESSFULLY,198.643007,0.000010,198.643017,198.643007,198.643017,19864301.700201,10,-1.000000,""
44_updated,w0,python3action_linpack_6000_orion,0.997085,1,2000.000000,1,COMPLETED_SUCCESSFULLY,112.763102,106.000000,218.763102,111.766017,217.766017,2.054396,8,-1.000000,""
44,w0,python3action_linpack_6000,0.000000,1,-1.000000,1,COMPLETED_SUCCESSFULLY,218.763117,0.000010,218.763127,218.763117,218.763127,21876312.724275,8,-1.000000,""
39_updated,w0,python3action_chameleon_2000_taurus,0.997085,1,2000.000000,1,COMPLETED_SUCCESSFULLY,198.643037,64.199977,262.843014,197.645952,261.845929,4.078598,10,-1.000000,""
39,w0,python3action_chameleon_2000,0.000000,1,-1.000000,1,COMPLETED_SUCCESSFULLY,262.843029,0.000010,262.843039,262.843029,262.843039,26284303.900201,10,-1.000000,""
64_updated,w0,python3action_chameleon_3000_troll,0.997085,1,2000.000000,1,COMPLETED_SUCCESSFULLY,189.870164,94.000000,283.870164,188.873079,282.873079,3.009288,19,-1.000000,""
64,w0,python3action_chameleon_3000,0.000000,1,-1.000000,1,COMPLETED_SUCCESSFULLY,283.870179,0.000010,283.870189,283.870179,283.870189,28387018.901606,19,-1.000000,""
54_updated,w0,python3action_linpack_6000_orion,0.997085,1,2000.000000,1,COMPLETED_SUCCESSFULLY,218.763147,106.000000,324.763147,217.766062,323.766062,3.054397,8,-1.000000,""
54,w0,python3action_linpack_6000,0.000000,1,-1.000000,1,COMPLETED_SUCCESSFULLY,324.763162,0.000010,324.763172,324.763162,324.763172,32476317.224877,8,-1.000000,""
47_updated,w0,python3action_chameleon_2000_taurus,0.997085,1,2000.000000,1,COMPLETED_SUCCESSFULLY,262.843059,64.199977,327.043036,261.845974,326.045951,5.078599,10,-1.000000,""
47,w0,python3action_chameleon_2000,0.000000,1,-1.000000,1,COMPLETED_SUCCESSFULLY,327.043051,0.000010,327.043061,327.043051,327.043061,32704306.100201,10,-1.000000,""
22_updated,w0,python3action_facedetection_SampleVideo_30mb_nova,0.997085,1,2000.000000,1,COMPLETED_SUCCESSFULLY,191.901833,160.399990,352.301823,190.904748,351.304738,2.190179,2,-1.000000,""
22,w0,python3action_facedetection_SampleVideo_30mb,0.000000,1,-1.000000,1,COMPLETED_SUCCESSFULLY,352.301838,0.000010,352.301848,352.301838,352.301848,35230184.847211,2,-1.000000,""
139_updated,w0,python3action_chameleon_3000_troll,0.997085,1,2000.000000,1,COMPLETED_SUCCESSFULLY,283.870209,94.000000,377.870209,282.873124,376.873124,4.009289,19,-1.000000,""
139,w0,python3action_chameleon_3000,0.000000,1,-1.000000,1,COMPLETED_SUCCESSFULLY,377.870224,0.000010,377.870234,377.870224,377.870234,37787023.402209,19,-1.000000,""
49_updated,w0,python3action_chameleon_2000_taurus,0.997085,1,2000.000000,1,COMPLETED_SUCCESSFULLY,327.043081,64.199977,391.243058,326.045996,390.245973,6.078600,10,-1.000000,""
49,w0,python3action_chameleon_2000,0.000000,1,-1.000000,1,COMPLETED_SUCCESSFULLY,391.243073,0.000010,391.243083,391.243073,391.243083,39124308.300201,10,-1.000000,""
55_updated,w0,python3action_linpack_6000_orion,0.997085,1,2000.000000,1,COMPLETED_SUCCESSFULLY,324.763192,106.000000,430.763192,323.766107,429.766107,4.054397,8,-1.000000,""
55,w0,python3action_linpack_6000,0.000000,1,-1.000000,1,COMPLETED_SUCCESSFULLY,430.763207,0.000010,430.763217,430.763207,430.763217,43076321.725480,8,-1.000000,""
69_updated,w0,python3action_chameleon_2000_taurus,0.997085,1,2000.000000,1,COMPLETED_SUCCESSFULLY,391.243103,64.199977,455.443080,390.246018,454.445995,7.078601,10,-1.000000,""
69,w0,python3action_chameleon_2000,0.000000,1,-1.000000,1,COMPLETED_SUCCESSFULLY,455.443095,0.000010,455.443105,455.443095,455.443105,45544310.500201,10,-1.000000,""
156_updated,w0,python3action_chameleon_3000_troll,0.997085,1,2000.000000,1,COMPLETED_SUCCESSFULLY,377.870254,94.000000,471.870254,376.873169,470.873169,5.009289,19,-1.000000,""
156,w0,python3action_chameleon_3000,0.000000,1,-1.000000,1,COMPLETED_SUCCESSFULLY,471.870269,0.000010,471.870279,471.870269,471.870279,47187027.902811,19,-1.000000,""
70_updated,w0,python3action_facedetection_SampleVideo_30mb_nova,0.997085,1,2000.000000,1,COMPLETED_SUCCESSFULLY,352.301868,160.399990,512.701859,351.304783,511.704774,3.190180,2,-1.000000,""
70,w0,python3action_facedetection_SampleVideo_30mb,0.000000,1,-1.000000,1,COMPLETED_SUCCESSFULLY,512.701874,0.000010,512.701884,512.701874,512.701884,51270188.400201,2,-1.000000,""
84_updated,w0,python3action_chameleon_2000_taurus,0.997085,1,2000.000000,1,COMPLETED_SUCCESSFULLY,455.443125,64.199977,519.643102,454.446040,518.646017,8.078601,10,-1.000000,""
84,w0,python3action_chameleon_2000,0.000000,1,-1.000000,1,COMPLETED_SUCCESSFULLY,519.643117,0.000010,519.643127,519.643117,519.643127,51964312.700201,10,-1.000000,""
90_updated,w0,python3action_linpack_6000_orion,0.997085,1,2000.000000,1,COMPLETED_SUCCESSFULLY,430.763237,106.000000,536.763237,429.766152,535.766152,5.054398,8,-1.000000,""
90,w0,python3action_linpack_6000,0.000000,1,-1.000000,1,COMPLETED_SUCCESSFULLY,536.763252,0.000010,536.763262,536.763252,536.763262,53676326.226082,8,-1.000000,""
160_updated,w0,python3action_chameleon_3000_troll,0.997085,1,2000.000000,1,COMPLETED_SUCCESSFULLY,471.870299,94.000000,565.870299,470.873214,564.873214,6.009290,19,-1.000000,""
160,w0,python3action_chameleon_3000,0.000000,1,-1.000000,1,COMPLETED_SUCCESSFULLY,565.870314,0.000010,565.870324,565.870314,565.870324,56587032.403414,19,-1.000000,""
89_updated,w0,python3action_chameleon_2000_taurus,0.997085,1,2000.000000,1,COMPLETED_SUCCESSFULLY,519.643147,64.199977,583.843124,518.646062,582.846039,9.078602,10,-1.000000,""
89,w0,python3action_chameleon_2000,0.000000,1,-1.000000,1,COMPLETED_SUCCESSFULLY,583.843139,0.000010,583.843149,583.843139,583.843149,58384314.900201,10,-1.000000,""
101_updated,w0,python3action_linpack_6000_orion,0.997085,1,2000.000000,1,COMPLETED_SUCCESSFULLY,536.763282,106.000000,642.763282,535.766197,641.766197,6.054398,8,-1.000000,""
101,w0,python3action_linpack_6000,0.000000,1,-1.000000,1,COMPLETED_SUCCESSFULLY,642.763297,0.000010,642.763307,642.763297,642.763307,64276330.726685,8,-1.000000,""
97_updated,w0,python3action_chameleon_2000_taurus,0.997085,1,2000.000000,1,COMPLETED_SUCCESSFULLY,583.843169,64.199977,648.043146,582.846084,647.046061,10.078603,10,-1.000000,""
97,w0,python3action_chameleon_2000,0.000000,1,-1.000000,1,COMPLETED_SUCCESSFULLY,648.043161,0.000010,648.043171,648.043161,648.043171,64804317.100201,10,-1.000000,""
162_updated,w0,python3action_chameleon_3000_troll,0.997085,1,2000.000000,1,COMPLETED_SUCCESSFULLY,565.870344,94.000000,659.870344,564.873259,658.873259,7.009290,19,-1.000000,""
162,w0,python3action_chameleon_3000,0.000000,1,-1.000000,1,COMPLETED_SUCCESSFULLY,659.870359,0.000010,659.870369,659.870359,659.870369,65987036.904016,19,-1.000000,""
74_updated,w0,python3action_facedetection_SampleVideo_30mb_nova,0.997085,1,2000.000000,1,COMPLETED_SUCCESSFULLY,512.701904,160.399990,673.101894,511.704819,672.104809,4.190180,2,-1.000000,""
74,w0,python3action_facedetection_SampleVideo_30mb,0.000000,1,-1.000000,1,COMPLETED_SUCCESSFULLY,673.101909,0.000010,673.101919,673.101909,673.101919,67310191.923907,2,-1.000000,""
136_updated,w0,python3action_chameleon_2000_taurus,0.997085,1,2000.000000,1,COMPLETED_SUCCESSFULLY,648.043191,64.199977,712.243168,647.046106,711.246083,11.078603,10,-1.000000,""
136,w0,python3action_chameleon_2000,0.000000,1,-1.000000,1,COMPLETED_SUCCESSFULLY,712.243183,0.000010,712.243193,712.243183,712.243193,71224319.300201,10,-1.000000,""
118_updated,w0,python3action_linpack_6000_orion,0.997085,1,2000.000000,1,COMPLETED_SUCCESSFULLY,642.763327,106.000000,748.763327,641.766242,747.766242,7.054399,8,-1.000000,""
118,w0,python3action_linpack_6000,0.000000,1,-1.000000,1,COMPLETED_SUCCESSFULLY,748.763342,0.000010,748.763352,748.763342,748.763352,74876335.227287,8,-1.000000,""
168_updated,w0,python3action_chameleon_3000_troll,0.997085,1,2000.000000,1,COMPLETED_SUCCESSFULLY,659.870389,94.000000,753.870389,658.873304,752.873304,8.009290,19,-1.000000,""
168,w0,python3action_chameleon_3000,0.000000,1,-1.000000,1,COMPLETED_SUCCESSFULLY,753.870404,0.000010,753.870414,753.870404,753.870414,75387041.404619,19,-1.000000,""
145_updated,w0,python3action_chameleon_2000_taurus,0.997085,1,2000.000000,1,COMPLETED_SUCCESSFULLY,712.243213,64.199977,776.443190,711.246128,775.446105,12.078604,10,-1.000000,""
145,w0,python3action_chameleon_2000,0.000000,1,-1.000000,1,COMPLETED_SUCCESSFULLY,776.443205,0.000010,776.443215,776.443205,776.443215,77644321.500201,10,-1.000000,""
91_updated,w0,python3action_facedetection_SampleVideo_30mb_nova,0.997085,1,2000.000000,1,COMPLETED_SUCCESSFULLY,673.101939,160.399990,833.501929,672.104854,832.504844,5.190180,2,-1.000000,""
91,w0,python3action_facedetection_SampleVideo_30mb,0.000000,1,-1.000000,1,COMPLETED_SUCCESSFULLY,833.501944,0.000010,833.501954,833.501944,833.501954,83350195.447613,2,-1.000000,""
173_updated,w0,python3action_chameleon_3000_troll,0.997085,1,2000.000000,1,COMPLETED_SUCCESSFULLY,753.870434,94.000000,847.870434,752.873349,846.873349,9.009291,19,-1.000000,""
173,w0,python3action_chameleon_3000,0.000000,1,-1.000000,1,COMPLETED_SUCCESSFULLY,847.870449,0.000010,847.870459,847.870449,847.870459,84787045.905221,19,-1.000000,""
python3action_facedetection_job21_3,w0,python3action_facedetection,0.997085,1,2000.000000,1,COMPLETED_SUCCESSFULLY,776.443235,72.012455,848.455690,775.446150,847.458605,11.768223,10,-1.000000,""
121_updated,w0,python3action_linpack_6000_orion,0.997085,1,2000.000000,1,COMPLETED_SUCCESSFULLY,748.763372,106.000000,854.763372,747.766287,853.766287,8.054399,8,-1.000000,""
121,w0,python3action_linpack_6000,0.000000,1,-1.000000,1,COMPLETED_SUCCESSFULLY,854.763387,0.000010,854.763397,854.763387,854.763397,85476339.727889,8,-1.000000,""
177_updated,w0,python3action_chameleon_3000_troll,0.997085,1,2000.000000,1,COMPLETED_SUCCESSFULLY,847.870479,94.000000,941.870479,846.873394,940.873394,10.009291,19,-1.000000,""
177,w0,python3action_chameleon_3000,0.000000,1,-1.000000,1,COMPLETED_SUCCESSFULLY,941.870494,0.000010,941.870504,941.870494,941.870504,94187050.405823,19,-1.000000,""
147_updated,w0,python3action_linpack_6000_orion,0.997085,1,2000.000000,1,COMPLETED_SUCCESSFULLY,854.763417,106.000000,960.763417,853.766332,959.766332,9.054399,8,-1.000000,""
147,w0,python3action_linpack_6000,0.000000,1,-1.000000,1,COMPLETED_SUCCESSFULLY,960.763432,0.000010,960.763442,960.763432,960.763442,96076344.228492,8,-1.000000,""
21_updated,w0,python3action_facedetection_SampleVideo_50mb_taurus,0.997085,1,2000.000000,1,COMPLETED_SUCCESSFULLY,848.455705,134.600046,983.055751,847.458620,982.058666,7.296124,10,-1.000000,""
21,w0,python3action_facedetection_SampleVideo_50mb,0.000000,1,-1.000000,1,COMPLETED_SUCCESSFULLY,983.055766,0.000010,983.055776,983.055766,983.055776,98305577.645163,10,-1.000000,""
98_updated,w0,python3action_facedetection_SampleVideo_30mb_nova,0.997085,1,2000.000000,1,COMPLETED_SUCCESSFULLY,833.501974,160.399990,993.901965,832.504889,992.904880,6.190180,2,-1.000000,""
98,w0,python3action_facedetection_SampleVideo_30mb,0.000000,1,-1.000000,1,COMPLETED_SUCCESSFULLY,993.901980,0.000010,993.901990,993.901980,993.901990,99390199.000201,2,-1.000000,""
187_updated,w0,python3action_chameleon_3000_troll,0.997085,1,2000.000000,1,COMPLETED_SUCCESSFULLY,941.870524,94.000000,1035.870524,940.873439,1034.873439,11.009292,19,-1.000000,""
187,w0,python3action_chameleon_3000,0.000000,1,-1.000000,1,COMPLETED_SUCCESSFULLY,1035.870539,0.000010,1035.870549,1035.870539,1035.870549,103587054.906426,19,-1.000000,""
python3action_image_processing_job14_4,w0,python3action_image_processing,0.997085,1,2000.000000,1,COMPLETED_SUCCESSFULLY,1035.870569,12.398880,1048.269449,1034.873484,1047.272364,84.465077,19,-1.000000,""
159_updated,w0,python3action_linpack_6000_orion,0.997085,1,2000.000000,1,COMPLETED_SUCCESSFULLY,960.763462,106.000000,1066.763462,959.766377,1065.766377,10.054400,8,-1.000000,""
159,w0,python3action_linpack_6000,0.000000,1,-1.000000,1,COMPLETED_SUCCESSFULLY,1066.763477,0.000010,1066.763487,1066.763477,1066.763487,106676348.729094,8,-1.000000,""
14_updated,w0,python3action_imageprocessing_SampleImage_60mb_troll,0.997085,1,2000.000000,1,COMPLETED_SUCCESSFULLY,1048.269464,62.000000,1110.269464,1047.272379,1109.272379,17.891490,19,-1.000000,""
14,w0,python3action_imageprocessing_SampleImage_60mb,0.000000,1,-1.000000,1,COMPLETED_SUCCESSFULLY,1110.269479,0.000010,1110.269489,1110.269479,1110.269489,111026948.915807,19,-1.000000,""
25_updated,w0,python3action_facedetection_SampleVideo_50mb_taurus,0.997085,1,2000.000000,1,COMPLETED_SUCCESSFULLY,983.055796,134.600046,1117.655843,982.058711,1116.658758,8.296125,10,-1.000000,""
25,w0,python3action_facedetection_SampleVideo_50mb,0.000000,1,-1.000000,1,COMPLETED_SUCCESSFULLY,1117.655858,0.000010,1117.655868,1117.655858,1117.655868,111765586.800201,10,-1.000000,""
131_updated,w0,python3action_facedetection_SampleVideo_30mb_nova,0.997085,1,2000.000000,1,COMPLETED_SUCCESSFULLY,993.902010,160.399990,1154.302000,992.904925,1153.304915,7.190181,2,-1.000000,""
131,w0,python3action_facedetection_SampleVideo_30mb,0.000000,1,-1.000000,1,COMPLETED_SUCCESSFULLY,1154.302015,0.000010,1154.302025,1154.302015,1154.302025,115430202.523907,2,-1.000000,""
18_updated,w0,python3action_imageprocessing_SampleImage_60mb_troll,0.997085,1,2000.000000,1,COMPLETED_SUCCESSFULLY,1110.269509,62.000000,1172.269509,1109.272424,1171.272424,18.891491,19,-1.000000,""
18,w0,python3action_imageprocessing_SampleImage_60mb,0.000000,1,-1.000000,1,COMPLETED_SUCCESSFULLY,1172.269524,0.000010,1172.269534,1172.269524,1172.269534,117226953.416409,19,-1.000000,""
178_updated,w0,python3action_linpack_6000_orion,0.997085,1,2000.000000,1,COMPLETED_SUCCESSFULLY,1066.763507,106.000000,1172.763507,1065.766422,1171.766422,11.054400,8,-1.000000,""
178,w0,python3action_linpack_6000,0.000000,1,-1.000000,1,COMPLETED_SUCCESSFULLY,1172.763522,0.000010,1172.763532,1172.763522,1172.763532,117276353.229697,8,-1.000000,""
26_updated,w0,python3action_imageprocessing_SampleImage_60mb_troll,0.997085,1,2000.000000,1,COMPLETED_SUCCESSFULLY,1172.269554,62.000000,1234.269554,1171.272469,1233.272469,19.891491,19,-1.000000,""
26,w0,python3action_imageprocessing_SampleImage_60mb,0.000000,1,-1.000000,1,COMPLETED_SUCCESSFULLY,1234.269569,0.000010,1234.269579,1234.269569,1234.269579,123426957.917012,19,-1.000000,""
37_updated,w0,python3action_facedetection_SampleVideo_50mb_taurus,0.997085,1,2000.000000,1,COMPLETED_SUCCESSFULLY,1117.655888,134.600046,1252.255934,1116.658803,1251.258849,9.296125,10,-1.000000,""
37,w0,python3action_facedetection_SampleVideo_50mb,0.000000,1,-1.000000,1,COMPLETED_SUCCESSFULLY,1252.255949,0.000010,1252.255959,1252.255949,1252.255959,125225595.913881,10,-1.000000,""
180_updated,w0,python3action_linpack_6000_orion,0.997085,1,2000.000000,1,COMPLETED_SUCCESSFULLY,1172.763552,106.000000,1278.763552,1171.766467,1277.766467,12.054401,8,-1.000000,""
180,w0,python3action_linpack_6000,0.000000,1,-1.000000,1,COMPLETED_SUCCESSFULLY,1278.763567,0.000010,1278.763577,1278.763567,1278.763577,127876357.730299,8,-1.000000,""
38_updated,w0,python3action_imageprocessing_SampleImage_60mb_troll,0.997085,1,2000.000000,1,COMPLETED_SUCCESSFULLY,1234.269599,62.000000,1296.269599,1233.272514,1295.272514,20.891492,19,-1.000000,""
38,w0,python3action_imageprocessing_SampleImage_60mb,0.000000,1,-1.000000,1,COMPLETED_SUCCESSFULLY,1296.269614,0.000010,1296.269624,1296.269614,1296.269624,129626962.417614,19,-1.000000,""
169_updated,w0,python3action_facedetection_SampleVideo_30mb_nova,0.997085,1,2000.000000,1,COMPLETED_SUCCESSFULLY,1154.302045,160.399990,1314.702035,1153.304960,1313.704950,8.190181,2,-1.000000,""
169,w0,python3action_facedetection_SampleVideo_30mb,0.000000,1,-1.000000,1,COMPLETED_SUCCESSFULLY,1314.702050,0.000010,1314.702060,1314.702050,1314.702060,131470206.047613,2,-1.000000,""
65_updated,w0,python3action_imageprocessing_SampleImage_60mb_troll,0.997085,1,2000.000000,1,COMPLETED_SUCCESSFULLY,1296.269644,62.000000,1358.269644,1295.272559,1357.272559,21.891493,19,-1.000000,""
65,w0,python3action_imageprocessing_SampleImage_60mb,0.000000,1,-1.000000,1,COMPLETED_SUCCESSFULLY,1358.269659,0.000010,1358.269669,1358.269659,1358.269669,135826966.918216,19,-1.000000,""
53_updated,w0,python3action_facedetection_SampleVideo_50mb_taurus,0.997085,1,2000.000000,1,COMPLETED_SUCCESSFULLY,1252.255979,134.600046,1386.856025,1251.258894,1385.858940,10.296125,10,-1.000000,""
53,w0,python3action_facedetection_SampleVideo_50mb,0.000000,1,-1.000000,1,COMPLETED_SUCCESSFULLY,1386.856040,0.000010,1386.856050,1386.856040,1386.856050,138685605.027562,10,-1.000000,""
108_updated,w0,python3action_imageprocessing_SampleImage_60mb_troll,0.997085,1,2000.000000,1,COMPLETED_SUCCESSFULLY,1358.269689,62.000000,1420.269689,1357.272604,1419.272604,22.891494,19,-1.000000,""
108,w0,python3action_imageprocessing_SampleImage_60mb,0.000000,1,-1.000000,1,COMPLETED_SUCCESSFULLY,1420.269704,0.000010,1420.269714,1420.269704,1420.269714,142026971.418819,19,-1.000000,""
183_updated,w0,python3action_facedetection_SampleVideo_30mb_nova,0.997085,1,2000.000000,1,COMPLETED_SUCCESSFULLY,1314.702080,160.399990,1475.102071,1313.704995,1474.104986,9.190181,2,-1.000000,""
183,w0,python3action_facedetection_SampleVideo_30mb,0.000000,1,-1.000000,1,COMPLETED_SUCCESSFULLY,1475.102086,0.000010,1475.102096,1475.102086,1475.102096,147510209.600201,2,-1.000000,""
120_updated,w0,python3action_imageprocessing_SampleImage_60mb_troll,0.997085,1,2000.000000,1,COMPLETED_SUCCESSFULLY,1420.269734,62.000000,1482.269734,1419.272649,1481.272649,23.891494,19,-1.000000,""
120,w0,python3action_imageprocessing_SampleImage_60mb,0.000000,1,-1.000000,1,COMPLETED_SUCCESSFULLY,1482.269749,0.000010,1482.269759,1482.269749,1482.269759,148226975.919421,19,-1.000000,""
76_updated,w0,python3action_facedetection_SampleVideo_50mb_taurus,0.997085,1,2000.000000,1,COMPLETED_SUCCESSFULLY,1386.856070,134.600046,1521.456116,1385.858985,1520.459031,11.296126,10,-1.000000,""
76,w0,python3action_facedetection_SampleVideo_50mb,0.000000,1,-1.000000,1,COMPLETED_SUCCESSFULLY,1521.456131,0.000010,1521.456141,1521.456131,1521.456141,152145614.141242,10,-1.000000,""
154_updated,w0,python3action_imageprocessing_SampleImage_60mb_troll,0.997085,1,2000.000000,1,COMPLETED_SUCCESSFULLY,1482.269779,62.000000,1544.269779,1481.272694,1543.272694,24.891495,19,-1.000000,""
154,w0,python3action_imageprocessing_SampleImage_60mb,0.000000,1,-1.000000,1,COMPLETED_SUCCESSFULLY,1544.269794,0.000010,1544.269804,1544.269794,1544.269804,154426980.420024,19,-1.000000,""
170_updated,w0,python3action_imageprocessing_SampleImage_60mb_troll,0.997085,1,2000.000000,1,COMPLETED_SUCCESSFULLY,1544.269824,62.000000,1606.269824,1543.272739,1605.272739,25.891496,19,-1.000000,""
170,w0,python3action_imageprocessing_SampleImage_60mb,0.000000,1,-1.000000,1,COMPLETED_SUCCESSFULLY,1606.269839,0.000010,1606.269849,1606.269839,1606.269849,160626984.920626,19,-1.000000,""
192_updated,w0,python3action_facedetection_SampleVideo_30mb_nova,0.997085,1,2000.000000,1,COMPLETED_SUCCESSFULLY,1475.102116,160.399990,1635.502106,1474.105031,1634.505021,10.190182,2,-1.000000,""
192,w0,python3action_facedetection_SampleVideo_30mb,0.000000,1,-1.000000,1,COMPLETED_SUCCESSFULLY,1635.502121,0.000010,1635.502131,1635.502121,1635.502131,163550213.123907,2,-1.000000,""
143_updated,w0,python3action_facedetection_SampleVideo_50mb_taurus,0.997085,1,2000.000000,1,COMPLETED_SUCCESSFULLY,1521.456161,134.600046,1656.056208,1520.459076,1655.059123,12.296126,10,-1.000000,""
143,w0,python3action_facedetection_SampleVideo_50mb,0.000000,1,-1.000000,1,COMPLETED_SUCCESSFULLY,1656.056223,0.000010,1656.056233,1656.056223,1656.056233,165605623.300201,10,-1.000000,""
184_updated,w0,python3action_imageprocessing_SampleImage_60mb_troll,0.997085,1,2000.000000,1,COMPLETED_SUCCESSFULLY,1606.269869,62.000000,1668.269869,1605.272784,1667.272784,26.891497,19,-1.000000,""
184,w0,python3action_imageprocessing_SampleImage_60mb,0.000000,1,-1.000000,1,COMPLETED_SUCCESSFULLY,1668.269884,0.000010,1668.269894,1668.269884,1668.269894,166826989.421228,19,-1.000000,""
196_updated,w0,python3action_imageprocessing_SampleImage_60mb_troll,0.997085,1,2000.000000,1,COMPLETED_SUCCESSFULLY,1668.269914,62.000000,1730.269914,1667.272829,1729.272829,27.891497,19,-1.000000,""
196,w0,python3action_imageprocessing_SampleImage_60mb,0.000000,1,-1.000000,1,COMPLETED_SUCCESSFULLY,1730.269929,0.000010,1730.269939,1730.269929,1730.269939,173026993.921831,19,-1.000000,""
146_updated,w0,python3action_facedetection_SampleVideo_50mb_taurus,0.997085,1,2000.000000,1,COMPLETED_SUCCESSFULLY,1656.056253,134.600046,1790.656299,1655.059168,1789.659214,13.296126,10,-1.000000,""
146,w0,python3action_facedetection_SampleVideo_50mb,0.000000,1,-1.000000,1,COMPLETED_SUCCESSFULLY,1790.656314,0.000010,1790.656324,1790.656314,1790.656324,179065632.413881,10,-1.000000,""
197_updated,w0,python3action_facedetection_SampleVideo_30mb_nova,0.997085,1,2000.000000,1,COMPLETED_SUCCESSFULLY,1635.502151,160.399990,1795.902141,1634.505066,1794.905056,11.190182,2,-1.000000,""
197,w0,python3action_facedetection_SampleVideo_30mb,0.000000,1,-1.000000,1,COMPLETED_SUCCESSFULLY,1795.902156,0.000010,1795.902166,1795.902156,1795.902166,179590216.647613,2,-1.000000,""
python3action_floatoperation_job8_1,w0,python3action_floatoperation,0.997085,1,2000.000000,1,COMPLETED_SUCCESSFULLY,1795.902186,2.439945,1798.342132,1794.905101,1797.345047,736.633338,2,-1.000000,""
8_updated,w0,python3action_floatoperation_100000000_nova,0.997085,1,2000.000000,1,COMPLETED_SUCCESSFULLY,1798.342147,66.200020,1864.542167,1797.345062,1863.545082,28.150220,2,-1.000000,""
8,w0,python3action_floatoperation_100000000,0.000000,1,-1.000000,1,COMPLETED_SUCCESSFULLY,1864.542182,0.000010,1864.542192,1864.542182,1864.542192,186454219.200201,2,-1.000000,""
150_updated,w0,python3action_facedetection_SampleVideo_50mb_taurus,0.997085,1,2000.000000,1,COMPLETED_SUCCESSFULLY,1790.656344,134.600046,1925.256390,1789.659259,1924.259305,14.296127,10,-1.000000,""
150,w0,python3action_facedetection_SampleVideo_50mb,0.000000,1,-1.000000,1,COMPLETED_SUCCESSFULLY,1925.256405,0.000010,1925.256415,1925.256405,1925.256415,192525641.527562,10,-1.000000,""
17_updated,w0,python3action_floatoperation_200000000_nova,0.997085,1,2000.000000,1,COMPLETED_SUCCESSFULLY,1864.542212,135.399990,1999.942202,1863.545127,1998.945117,14.763259,2,-1.000000,""
17,w0,python3action_floatoperation_200000000,0.000000,1,-1.000000,1,COMPLETED_SUCCESSFULLY,1999.942217,0.000010,1999.942227,1999.942217,1999.942227,199994222.723907,2,-1.000000,""
164_updated,w0,python3action_facedetection_SampleVideo_50mb_taurus,0.997085,1,2000.000000,1,COMPLETED_SUCCESSFULLY,1925.256435,134.600046,2059.856481,1924.259350,2058.859396,15.296127,10,-1.000000,""
164,w0,python3action_facedetection_SampleVideo_50mb,0.000000,1,-1.000000,1,COMPLETED_SUCCESSFULLY,2059.856496,0.000010,2059.856506,2059.856496,2059.856506,205985650.641242,10,-1.000000,""
24_updated,w0,python3action_floatoperation_100000000_nova,0.997085,1,2000.000000,1,COMPLETED_SUCCESSFULLY,1999.942247,66.200020,2066.142267,1998.945162,2065.145182,31.195537,2,-1.000000,""
24,w0,python3action_floatoperation_100000000,0.000000,1,-1.000000,1,COMPLETED_SUCCESSFULLY,2066.142282,0.000010,2066.142292,2066.142282,2066.142292,206614229.200201,2,-1.000000,""
188_updated,w0,python3action_facedetection_SampleVideo_50mb_taurus,0.997085,1,2000.000000,1,COMPLETED_SUCCESSFULLY,2059.856526,134.600046,2194.456573,2058.859441,2193.459488,16.296127,10,-1.000000,""
188,w0,python3action_facedetection_SampleVideo_50mb,0.000000,1,-1.000000,1,COMPLETED_SUCCESSFULLY,2194.456588,0.000010,2194.456598,2194.456588,2194.456598,219445659.800201,10,-1.000000,""
27_updated,w0,python3action_floatoperation_200000000_nova,0.997085,1,2000.000000,1,COMPLETED_SUCCESSFULLY,2066.142312,135.399990,2201.542302,2065.145227,2200.545217,16.252182,2,-1.000000,""
27,w0,python3action_floatoperation_200000000,0.000000,1,-1.000000,1,COMPLETED_SUCCESSFULLY,2201.542317,0.000010,2201.542327,2201.542317,2201.542327,220154232.723907,2,-1.000000,""
190_updated,w0,python3action_facedetection_SampleVideo_50mb_taurus,0.997085,1,2000.000000,1,COMPLETED_SUCCESSFULLY,2194.456618,134.600046,2329.056664,2193.459533,2328.059579,17.296128,10,-1.000000,""
190,w0,python3action_facedetection_SampleVideo_50mb,0.000000,1,-1.000000,1,COMPLETED_SUCCESSFULLY,2329.056679,0.000010,2329.056689,2329.056679,2329.056689,232905668.913882,10,-1.000000,""
35_updated,w0,python3action_floatoperation_200000000_nova,0.997085,1,2000.000000,1,COMPLETED_SUCCESSFULLY,2201.542347,135.399990,2336.942337,2200.545262,2335.945252,17.252182,2,-1.000000,""
35,w0,python3action_floatoperation_200000000,0.000000,1,-1.000000,1,COMPLETED_SUCCESSFULLY,2336.942352,0.000010,2336.942362,2336.942352,2336.942362,233694236.247613,2,-1.000000,""
python3action_image_processing_job11_3,w0,python3action_image_processing_reduced_0.86,0.997085,1,2000.000000,1,COMPLETED_SUCCESSFULLY,2329.056709,9.731413,2338.788122,2328.059624,2337.791037,240.231410,10,-1.000000,""
11_updated,w0,python3action_imageprocessing_SampleImage_40mb_taurus,0.997085,1,2000.000000,1,COMPLETED_SUCCESSFULLY,2338.788137,32.600046,2371.388183,2337.791052,2370.391098,72.711280,10,-1.000000,""
11,w0,python3action_imageprocessing_SampleImage_40mb,0.000000,1,-1.000000,1,COMPLETED_SUCCESSFULLY,2371.388198,0.000010,2371.388208,2371.388198,2371.388208,237138820.815747,10,-1.000000,""
46_updated,w0,python3action_floatoperation_100000000_nova,0.997085,1,2000.000000,1,COMPLETED_SUCCESSFULLY,2336.942382,66.200020,2403.142402,2335.945297,2402.145317,36.286172,2,-1.000000,""
46,w0,python3action_floatoperation_100000000,0.000000,1,-1.000000,1,COMPLETED_SUCCESSFULLY,2403.142417,0.000010,2403.142427,2403.142417,2403.142427,240314242.702009,2,-1.000000,""
40_updated,w0,python3action_imageprocessing_SampleImage_40mb_taurus,0.997085,1,2000.000000,1,COMPLETED_SUCCESSFULLY,2371.388228,32.600046,2403.988274,2370.391143,2402.991189,73.711282,10,-1.000000,""
40,w0,python3action_imageprocessing_SampleImage_40mb,0.000000,1,-1.000000,1,COMPLETED_SUCCESSFULLY,2403.988289,0.000010,2403.988299,2403.988289,2403.988299,240398829.929427,10,-1.000000,""
45_updated,w0,python3action_imageprocessing_SampleImage_40mb_taurus,0.997085,1,2000.000000,1,COMPLETED_SUCCESSFULLY,2403.988319,32.600046,2436.588365,2402.991234,2435.591280,74.711283,10,-1.000000,""
45,w0,python3action_imageprocessing_SampleImage_40mb,0.000000,1,-1.000000,1,COMPLETED_SUCCESSFULLY,2436.588380,0.000010,2436.588390,2436.588380,2436.588390,243658839.043108,10,-1.000000,""
58_updated,w0,python3action_imageprocessing_SampleImage_60mb_taurus,0.997085,1,2000.000000,1,COMPLETED_SUCCESSFULLY,2436.588410,101.500058,2538.088468,2435.591325,2537.091383,24.995960,10,-1.000000,""
58,w0,python3action_imageprocessing_SampleImage_60mb,0.000000,1,-1.000000,1,COMPLETED_SUCCESSFULLY,2538.088483,0.000010,2538.088493,2538.088483,2538.088493,253808849.310058,10,-1.000000,""
56_updated,w0,python3action_floatoperation_200000000_nova,0.997085,1,2000.000000,1,COMPLETED_SUCCESSFULLY,2403.142447,135.399990,2538.542437,2402.145362,2537.545352,18.741104,2,-1.000000,""
56,w0,python3action_floatoperation_200000000,0.000000,1,-1.000000,1,COMPLETED_SUCCESSFULLY,2538.542452,0.000010,2538.542462,2538.542452,2538.542462,253854246.225715,2,-1.000000,""
81_updated,w0,python3action_imageprocessing_SampleImage_60mb_taurus,0.997085,1,2000.000000,1,COMPLETED_SUCCESSFULLY,2538.088513,101.500058,2639.588571,2537.091428,2638.591486,25.995960,10,-1.000000,""
81,w0,python3action_imageprocessing_SampleImage_60mb,0.000000,1,-1.000000,1,COMPLETED_SUCCESSFULLY,2639.588586,0.000010,2639.588596,2639.588586,2639.588596,263958859.600201,10,-1.000000,""
82_updated,w0,python3action_imageprocessing_SampleImage_40mb_taurus,0.997085,1,2000.000000,1,COMPLETED_SUCCESSFULLY,2639.588616,32.600046,2672.188662,2638.591531,2671.191577,81.938276,10,-1.000000,""
82,w0,python3action_imageprocessing_SampleImage_40mb,0.000000,1,-1.000000,1,COMPLETED_SUCCESSFULLY,2672.188677,0.000010,2672.188687,2672.188677,2672.188687,267218868.713881,10,-1.000000,""
59_updated,w0,python3action_floatoperation_200000000_nova,0.997085,1,2000.000000,1,COMPLETED_SUCCESSFULLY,2538.542482,135.399990,2673.942472,2537.545397,2672.945387,19.741105,2,-1.000000,""
59,w0,python3action_floatoperation_200000000,0.000000,1,-1.000000,1,COMPLETED_SUCCESSFULLY,2673.942487,0.000010,2673.942497,2673.942487,2673.942497,267394249.749421,2,-1.000000,""
87_updated,w0,python3action_imageprocessing_SampleImage_40mb_taurus,0.997085,1,2000.000000,1,COMPLETED_SUCCESSFULLY,2672.188707,32.600046,2704.788753,2671.191622,2703.791668,82.938277,10,-1.000000,""
87,w0,python3action_imageprocessing_SampleImage_40mb,0.000000,1,-1.000000,1,COMPLETED_SUCCESSFULLY,2704.788768,0.000010,2704.788778,2704.788768,2704.788778,270478877.827562,10,-1.000000,""
88_updated,w0,python3action_imageprocessing_SampleImage_40mb_taurus,0.997085,1,2000.000000,1,COMPLETED_SUCCESSFULLY,2704.788798,32.600046,2737.388844,2703.791713,2736.391759,83.938279,10,-1.000000,""
88,w0,python3action_imageprocessing_SampleImage_40mb,0.000000,1,-1.000000,1,COMPLETED_SUCCESSFULLY,2737.388859,0.000010,2737.388869,2737.388859,2737.388869,273738886.941243,10,-1.000000,""
63_updated,w0,python3action_floatoperation_100000000_nova,0.997085,1,2000.000000,1,COMPLETED_SUCCESSFULLY,2673.942517,66.200020,2740.142537,2672.945432,2739.145452,41.376807,2,-1.000000,""
63,w0,python3action_floatoperation_100000000,0.000000,1,-1.000000,1,COMPLETED_SUCCESSFULLY,2740.142552,0.000010,2740.142562,2740.142552,2740.142562,274014256.203817,2,-1.000000,""
130_updated,w0,python3action_imageprocessing_SampleImage_40mb_taurus,0.997085,1,2000.000000,1,COMPLETED_SUCCESSFULLY,2737.388889,32.600046,2769.988936,2736.391804,2768.991851,84.938280,10,-1.000000,""
130,w0,python3action_imageprocessing_SampleImage_40mb,0.000000,1,-1.000000,1,COMPLETED_SUCCESSFULLY,2769.988951,0.000010,2769.988961,2769.988951,2769.988961,276998896.100201,10,-1.000000,""
134_updated,w0,python3action_imageprocessing_SampleImage_40mb_taurus,0.997085,1,2000.000000,1,COMPLETED_SUCCESSFULLY,2769.988981,32.600046,2802.589027,2768.991896,2801.591942,85.938282,10,-1.000000,""
134,w0,python3action_imageprocessing_SampleImage_40mb,0.000000,1,-1.000000,1,COMPLETED_SUCCESSFULLY,2802.589042,0.000010,2802.589052,2802.589042,2802.589052,280258905.213881,10,-1.000000,""
137_updated,w0,python3action_imageprocessing_SampleImage_40mb_taurus,0.997085,1,2000.000000,1,COMPLETED_SUCCESSFULLY,2802.589072,32.600046,2835.189118,2801.591987,2834.192033,86.938283,10,-1.000000,""
137,w0,python3action_imageprocessing_SampleImage_40mb,0.000000,1,-1.000000,1,COMPLETED_SUCCESSFULLY,2835.189133,0.000010,2835.189143,2835.189133,2835.189143,283518914.327562,10,-1.000000,""
71_updated,w0,python3action_floatoperation_200000000_nova,0.997085,1,2000.000000,1,COMPLETED_SUCCESSFULLY,2740.142582,135.399990,2875.542572,2739.145497,2874.545487,21.230027,2,-1.000000,""
71,w0,python3action_floatoperation_200000000,0.000000,1,-1.000000,1,COMPLETED_SUCCESSFULLY,2875.542587,0.000010,2875.542597,2875.542587,2875.542597,287554259.727523,2,-1.000000,""
157_updated,w0,python3action_imageprocessing_SampleImage_60mb_taurus,0.997085,1,2000.000000,1,COMPLETED_SUCCESSFULLY,2835.189163,101.500058,2936.689221,2834.192078,2935.692136,28.923059,10,-1.000000,""
157,w0,python3action_imageprocessing_SampleImage_60mb,0.000000,1,-1.000000,1,COMPLETED_SUCCESSFULLY,2936.689236,0.000010,2936.689246,2936.689236,2936.689246,293668924.600201,10,-1.000000,""
72_updated,w0,python3action_floatoperation_100000000_nova,0.997085,1,2000.000000,1,COMPLETED_SUCCESSFULLY,2875.542617,66.200020,2941.742637,2874.545532,2940.745552,44.422125,2,-1.000000,""
72,w0,python3action_floatoperation_100000000,0.000000,1,-1.000000,1,COMPLETED_SUCCESSFULLY,2941.742652,0.000010,2941.742662,2941.742652,2941.742662,294174266.200201,2,-1.000000,""
77_updated,w0,python3action_floatoperation_100000000_nova,0.997085,1,2000.000000,1,COMPLETED_SUCCESSFULLY,2941.742682,66.200020,3007.942702,2940.745597,3006.945617,45.422126,2,-1.000000,""
77,w0,python3action_floatoperation_100000000,0.000000,1,-1.000000,1,COMPLETED_SUCCESSFULLY,3007.942717,0.000010,3007.942727,3007.942717,3007.942727,300794272.700201,2,-1.000000,""
182_updated,w0,python3action_imageprocessing_SampleImage_60mb_taurus,0.997085,1,2000.000000,1,COMPLETED_SUCCESSFULLY,2936.689266,101.500058,3038.189324,2935.692181,3037.192239,29.923059,10,-1.000000,""
182,w0,python3action_imageprocessing_SampleImage_60mb,0.000000,1,-1.000000,1,COMPLETED_SUCCESSFULLY,3038.189339,0.000010,3038.189349,3038.189339,3038.189349,303818934.900201,10,-1.000000,""
195_updated,w0,python3action_imageprocessing_SampleImage_40mb_taurus,0.997085,1,2000.000000,1,COMPLETED_SUCCESSFULLY,3038.189369,32.600046,3070.789415,3037.192284,3069.792330,94.165276,10,-1.000000,""
195,w0,python3action_imageprocessing_SampleImage_40mb,0.000000,1,-1.000000,1,COMPLETED_SUCCESSFULLY,3070.789430,0.000010,3070.789440,3070.789430,3070.789440,307078944.013881,10,-1.000000,""
python3action_video_processing_job2_3,w0,python3action_video_processing_reduced_1.83,0.997085,1,2000.000000,1,COMPLETED_SUCCESSFULLY,3070.789460,0.000000,3070.789460,3069.792375,3069.792375,26576948120691.128906,10,-1.000000,""
78_updated,w0,python3action_floatoperation_100000000_nova,0.997085,1,2000.000000,1,COMPLETED_SUCCESSFULLY,3007.942747,66.200020,3074.142767,3006.945662,3073.145682,46.422127,2,-1.000000,""
78,w0,python3action_floatoperation_100000000,0.000000,1,-1.000000,1,COMPLETED_SUCCESSFULLY,3074.142782,0.000010,3074.142792,3074.142782,3074.142792,307414279.200201,2,-1.000000,""
79_updated,w0,python3action_floatoperation_100000000_nova,0.997085,1,2000.000000,1,COMPLETED_SUCCESSFULLY,3074.142812,66.200020,3140.342832,3073.145727,3139.345747,47.422127,2,-1.000000,""
79,w0,python3action_floatoperation_100000000,0.000000,1,-1.000000,1,COMPLETED_SUCCESSFULLY,3140.342847,0.000010,3140.342857,3140.342847,3140.342857,314034285.700201,2,-1.000000,""
94_updated,w0,python3action_floatoperation_100000000_nova,0.997085,1,2000.000000,1,COMPLETED_SUCCESSFULLY,3140.342877,66.200020,3206.542897,3139.345792,3205.545812,48.422128,2,-1.000000,""
94,w0,python3action_floatoperation_100000000,0.000000,1,-1.000000,1,COMPLETED_SUCCESSFULLY,3206.542912,0.000010,3206.542922,3206.542912,3206.542922,320654292.200201,2,-1.000000,""
2_updated,w0,python3action_videoprocessing_SampleVideo_50mb_taurus,0.997085,1,2000.000000,1,COMPLETED_SUCCESSFULLY,3070.789490,154.250029,3225.039519,3069.792405,3224.042434,20.901406,10,-1.000000,""
2,w0,python3action_videoprocessing_SampleVideo_50mb,0.000000,1,-1.000000,1,COMPLETED_SUCCESSFULLY,3225.039534,0.000010,3225.039544,3225.039534,3225.039544,322503954.400201,10,-1.000000,""
102_updated,w0,python3action_floatoperation_100000000_nova,0.997085,1,2000.000000,1,COMPLETED_SUCCESSFULLY,3206.542942,66.200020,3272.742962,3205.545857,3271.745877,49.422129,2,-1.000000,""
102,w0,python3action_floatoperation_100000000,0.000000,1,-1.000000,1,COMPLETED_SUCCESSFULLY,3272.742977,0.000010,3272.742987,3272.742977,3272.742987,327274298.700201,2,-1.000000,""
6_updated,w0,python3action_videoprocessing_SampleVideo_50mb_taurus,0.997085,1,2000.000000,1,COMPLETED_SUCCESSFULLY,3225.039564,154.250029,3379.289593,3224.042479,3378.292508,21.901406,10,-1.000000,""
6,w0,python3action_videoprocessing_SampleVideo_50mb,0.000000,1,-1.000000,1,COMPLETED_SUCCESSFULLY,3379.289608,0.000010,3379.289618,3379.289608,3379.289618,337928961.800201,10,-1.000000,""
106_updated,w0,python3action_floatoperation_200000000_nova,0.997085,1,2000.000000,1,COMPLETED_SUCCESSFULLY,3272.743007,135.399990,3408.142997,3271.745922,3407.145912,25.163561,2,-1.000000,""
106,w0,python3action_floatoperation_200000000,0.000000,1,-1.000000,1,COMPLETED_SUCCESSFULLY,3408.143012,0.000010,3408.143022,3408.143012,3408.143022,340814302.223907,2,-1.000000,""
111_updated,w0,python3action_floatoperation_100000000_nova,0.997085,1,2000.000000,1,COMPLETED_SUCCESSFULLY,3408.143042,66.200020,3474.343062,3407.145957,3473.345977,52.467446,2,-1.000000,""
111,w0,python3action_floatoperation_100000000,0.000000,1,-1.000000,1,COMPLETED_SUCCESSFULLY,3474.343077,0.000010,3474.343087,3474.343077,3474.343087,347434308.700201,2,-1.000000,""
10_updated,w0,python3action_videoprocessing_SampleVideo_50mb_taurus,0.997085,1,2000.000000,1,COMPLETED_SUCCESSFULLY,3379.289638,154.250029,3533.539667,3378.292553,3532.542582,22.901406,10,-1.000000,""
10,w0,python3action_videoprocessing_SampleVideo_50mb,0.000000,1,-1.000000,1,COMPLETED_SUCCESSFULLY,3533.539682,0.000010,3533.539692,3533.539682,3533.539692,353353969.200201,10,-1.000000,""
122_updated,w0,python3action_floatoperation_200000000_nova,0.997085,1,2000.000000,1,COMPLETED_SUCCESSFULLY,3474.343107,135.399990,3609.743097,3473.346022,3608.746012,26.652484,2,-1.000000,""
122,w0,python3action_floatoperation_200000000,0.000000,1,-1.000000,1,COMPLETED_SUCCESSFULLY,3609.743112,0.000010,3609.743122,3609.743112,3609.743122,360974312.223907,2,-1.000000,""
43_updated,w0,python3action_videoprocessing_SampleVideo_50mb_taurus,0.997085,1,2000.000000,1,COMPLETED_SUCCESSFULLY,3533.539712,154.250029,3687.789741,3532.542627,3686.792656,23.901407,10,-1.000000,""
43,w0,python3action_videoprocessing_SampleVideo_50mb,0.000000,1,-1.000000,1,COMPLETED_SUCCESSFULLY,3687.789756,0.000010,3687.789766,3687.789756,3687.789766,368778976.600201,10,-1.000000,""
126_updated,w0,python3action_floatoperation_200000000_nova,0.997085,1,2000.000000,1,COMPLETED_SUCCESSFULLY,3609.743142,135.399990,3745.143132,3608.746057,3744.146047,27.652484,2,-1.000000,""
126,w0,python3action_floatoperation_200000000,0.000000,1,-1.000000,1,COMPLETED_SUCCESSFULLY,3745.143147,0.000010,3745.143157,3745.143147,3745.143157,374514315.747613,2,-1.000000,""
52_updated,w0,python3action_videoprocessing_SampleVideo_50mb_taurus,0.997085,1,2000.000000,1,COMPLETED_SUCCESSFULLY,3687.789786,154.250029,3842.039815,3686.792701,3841.042730,24.901407,10,-1.000000,""
52,w0,python3action_videoprocessing_SampleVideo_50mb,0.000000,1,-1.000000,1,COMPLETED_SUCCESSFULLY,3842.039830,0.000010,3842.039840,3842.039830,3842.039840,384203984.000201,10,-1.000000,""
135_updated,w0,python3action_floatoperation_200000000_nova,0.997085,1,2000.000000,1,COMPLETED_SUCCESSFULLY,3745.143177,135.399990,3880.543168,3744.146092,3879.546083,28.652484,2,-1.000000,""
135,w0,python3action_floatoperation_200000000,0.000000,1,-1.000000,1,COMPLETED_SUCCESSFULLY,3880.543183,0.000010,3880.543193,3880.543183,3880.543193,388054319.300201,2,-1.000000,""
151_updated,w0,python3action_floatoperation_100000000_nova,0.997085,1,2000.000000,1,COMPLETED_SUCCESSFULLY,3880.543213,66.200020,3946.743233,3879.546128,3945.746148,59.603399,2,-1.000000,""
151,w0,python3action_floatoperation_100000000,0.000000,1,-1.000000,1,COMPLETED_SUCCESSFULLY,3946.743248,0.000010,3946.743258,3946.743248,3946.743258,394674325.800201,2,-1.000000,""
80_updated,w0,python3action_videoprocessing_SampleVideo_50mb_taurus,0.997085,1,2000.000000,1,COMPLETED_SUCCESSFULLY,3842.039860,154.250029,3996.289889,3841.042775,3995.292804,25.901407,10,-1.000000,""
80,w0,python3action_videoprocessing_SampleVideo_50mb,0.000000,1,-1.000000,1,COMPLETED_SUCCESSFULLY,3996.289904,0.000010,3996.289914,3996.289904,3996.289914,399628991.400201,10,-1.000000,""
153_updated,w0,python3action_floatoperation_200000000_nova,0.997085,1,2000.000000,1,COMPLETED_SUCCESSFULLY,3946.743278,135.399990,4082.143268,3945.746193,4081.146183,30.141407,2,-1.000000,""
153,w0,python3action_floatoperation_200000000,0.000000,1,-1.000000,1,COMPLETED_SUCCESSFULLY,4082.143283,0.000010,4082.143293,4082.143283,4082.143293,408214329.323907,2,-1.000000,""
158_updated,w0,python3action_floatoperation_100000000_nova,0.997085,1,2000.000000,1,COMPLETED_SUCCESSFULLY,4082.143313,66.200020,4148.343333,4081.146228,4147.346248,62.648716,2,-1.000000,""
158,w0,python3action_floatoperation_100000000,0.000000,1,-1.000000,1,COMPLETED_SUCCESSFULLY,4148.343348,0.000010,4148.343358,4148.343348,4148.343358,414834335.800201,2,-1.000000,""
96_updated,w0,python3action_videoprocessing_SampleVideo_50mb_taurus,0.997085,1,2000.000000,1,COMPLETED_SUCCESSFULLY,3996.289934,154.250029,4150.539963,3995.292849,4149.542878,26.901407,10,-1.000000,""
96,w0,python3action_videoprocessing_SampleVideo_50mb,0.000000,1,-1.000000,1,COMPLETED_SUCCESSFULLY,4150.539978,0.000010,4150.539988,4150.539978,4150.539988,415053998.800201,10,-1.000000,""
python3action_linpack_job60_1,w0,python3action_linpack,0.997085,1,2000.000000,1,COMPLETED_SUCCESSFULLY,4148.343378,2.439945,4150.783323,4147.346293,4149.786238,1700.770197,2,-1.000000,""
60_updated,w0,python3action_linpack_5000_nova,0.997085,1,2000.000000,1,COMPLETED_SUCCESSFULLY,4150.783338,34.600010,4185.383348,4149.786253,4184.386263,120.935985,2,-1.000000,""
60,w0,python3action_linpack_5000,0.000000,1,-1.000000,1,COMPLETED_SUCCESSFULLY,4185.383363,0.000010,4185.383373,4185.383363,4185.383373,418538337.307280,2,-1.000000,""
61_updated,w0,python3action_linpack_5000_nova,0.997085,1,2000.000000,1,COMPLETED_SUCCESSFULLY,4185.383393,34.600010,4219.983403,4184.386308,4218.986318,121.935986,2,-1.000000,""
61,w0,python3action_linpack_5000,0.000000,1,-1.000000,1,COMPLETED_SUCCESSFULLY,4219.983418,0.000010,4219.983428,4219.983418,4219.983428,421998342.800201,2,-1.000000,""
73_updated,w0,python3action_linpack_5000_nova,0.997085,1,2000.000000,1,COMPLETED_SUCCESSFULLY,4219.983448,34.600010,4254.583458,4218.986363,4253.586373,122.935988,2,-1.000000,""
73,w0,python3action_linpack_5000,0.000000,1,-1.000000,1,COMPLETED_SUCCESSFULLY,4254.583473,0.000010,4254.583483,4254.583473,4254.583483,425458348.300201,2,-1.000000,""
113_updated,w0,python3action_linpack_5000_nova,0.997085,1,2000.000000,1,COMPLETED_SUCCESSFULLY,4254.583503,34.600010,4289.183513,4253.586418,4288.186428,123.935989,2,-1.000000,""
113,w0,python3action_linpack_5000,0.000000,1,-1.000000,1,COMPLETED_SUCCESSFULLY,4289.183528,0.000010,4289.183538,4289.183528,4289.183538,428918353.800201,2,-1.000000,""
99_updated,w0,python3action_videoprocessing_SampleVideo_50mb_taurus,0.997085,1,2000.000000,1,COMPLETED_SUCCESSFULLY,4150.540008,154.250029,4304.790037,4149.542923,4303.792952,27.901408,10,-1.000000,""
99,w0,python3action_videoprocessing_SampleVideo_50mb,0.000000,1,-1.000000,1,COMPLETED_SUCCESSFULLY,4304.790052,0.000010,4304.790062,4304.790052,4304.790062,430479006.200201,10,-1.000000,""
123_updated,w0,python3action_linpack_5000_nova,0.997085,1,2000.000000,1,COMPLETED_SUCCESSFULLY,4289.183558,34.600010,4323.783568,4288.186473,4322.786483,124.935990,2,-1.000000,""
123,w0,python3action_linpack_5000,0.000000,1,-1.000000,1,COMPLETED_SUCCESSFULLY,4323.783583,0.000010,4323.783593,4323.783583,4323.783593,432378359.300201,2,-1.000000,""
142_updated,w0,python3action_linpack_5000_nova,0.997085,1,2000.000000,1,COMPLETED_SUCCESSFULLY,4323.783613,34.600010,4358.383623,4322.786528,4357.386538,125.935992,2,-1.000000,""
142,w0,python3action_linpack_5000,0.000000,1,-1.000000,1,COMPLETED_SUCCESSFULLY,4358.383638,0.000010,4358.383648,4358.383638,4358.383648,435838364.800201,2,-1.000000,""
149_updated,w0,python3action_linpack_5000_nova,0.997085,1,2000.000000,1,COMPLETED_SUCCESSFULLY,4358.383668,34.600010,4392.983678,4357.386583,4391.986593,126.935993,2,-1.000000,""
149,w0,python3action_linpack_5000,0.000000,1,-1.000000,1,COMPLETED_SUCCESSFULLY,4392.983693,0.000010,4392.983703,4392.983693,4392.983703,439298370.300201,2,-1.000000,""
163_updated,w0,python3action_linpack_5000_nova,0.997085,1,2000.000000,1,COMPLETED_SUCCESSFULLY,4392.983723,34.600010,4427.583733,4391.986638,4426.586648,127.935994,2,-1.000000,""
163,w0,python3action_linpack_5000,0.000000,1,-1.000000,1,COMPLETED_SUCCESSFULLY,4427.583748,0.000010,4427.583758,4427.583748,4427.583758,442758375.800201,2,-1.000000,""
100_updated,w0,python3action_videoprocessing_SampleVideo_50mb_taurus,0.997085,1,2000.000000,1,COMPLETED_SUCCESSFULLY,4304.790082,154.250029,4459.040111,4303.792997,4458.043026,28.901408,10,-1.000000,""
100,w0,python3action_videoprocessing_SampleVideo_50mb,0.000000,1,-1.000000,1,COMPLETED_SUCCESSFULLY,4459.040126,0.000010,4459.040136,4459.040126,4459.040136,445904013.600201,10,-1.000000,""
171_updated,w0,python3action_linpack_5000_nova,0.997085,1,2000.000000,1,COMPLETED_SUCCESSFULLY,4427.583778,34.600010,4462.183788,4426.586693,4461.186703,128.935995,2,-1.000000,""
171,w0,python3action_linpack_5000,0.000000,1,-1.000000,1,COMPLETED_SUCCESSFULLY,4462.183803,0.000010,4462.183813,4462.183803,4462.183813,446218381.300201,2,-1.000000,""
python3action_modeltraining_job1_1,w0,python3action_modeltraining_reduced_0.94,0.997085,1,2000.000000,1,COMPLETED_SUCCESSFULLY,4462.183833,1.794099,4463.977932,4461.186748,4462.980847,2487.588990,2,-1.000000,""
1_updated,w0,python3action_modeltraining_reviews50mb_nova,0.997085,1,2000.000000,1,COMPLETED_SUCCESSFULLY,4463.977947,42.399990,4506.377937,4462.980862,4505.380852,106.259007,2,-1.000000,""
1,w0,python3action_modeltraining_reviews50mb,0.000000,1,-1.000000,1,COMPLETED_SUCCESSFULLY,4506.377952,0.000010,4506.377962,4506.377952,4506.377962,450637796.223505,2,-1.000000,""
16_updated,w0,python3action_modeltraining_reviews50mb_nova,0.997085,1,2000.000000,1,COMPLETED_SUCCESSFULLY,4506.377982,42.399990,4548.777972,4505.380897,4547.780887,107.259008,2,-1.000000,""
16,w0,python3action_modeltraining_reviews50mb,0.000000,1,-1.000000,1,COMPLETED_SUCCESSFULLY,4548.777987,0.000010,4548.777997,4548.777987,4548.777997,454877799.747211,2,-1.000000,""
103_updated,w0,python3action_videoprocessing_SampleVideo_50mb_taurus,0.997085,1,2000.000000,1,COMPLETED_SUCCESSFULLY,4459.040156,154.250029,4613.290185,4458.043071,4612.293100,29.901408,10,-1.000000,""
103,w0,python3action_videoprocessing_SampleVideo_50mb,0.000000,1,-1.000000,1,COMPLETED_SUCCESSFULLY,4613.290200,0.000010,4613.290210,4613.290200,4613.290210,461329021.000201,10,-1.000000,""
19_updated,w0,python3action_modeltraining_reviews100mb_nova,0.997085,1,2000.000000,1,COMPLETED_SUCCESSFULLY,4548.778017,79.600010,4628.378027,4547.780932,4627.380942,58.132919,2,-1.000000,""
19,w0,python3action_modeltraining_reviews100mb,0.000000,1,-1.000000,1,COMPLETED_SUCCESSFULLY,4628.378042,0.000010,4628.378052,4628.378042,4628.378052,462837805.224710,2,-1.000000,""
20_updated,w0,python3action_modeltraining_reviews50mb_nova,0.997085,1,2000.000000,1,COMPLETED_SUCCESSFULLY,4628.378072,42.399990,4670.778062,4627.380987,4669.780977,110.136369,2,-1.000000,""
20,w0,python3action_modeltraining_reviews50mb,0.000000,1,-1.000000,1,COMPLETED_SUCCESSFULLY,4670.778077,0.000010,4670.778087,4670.778077,4670.778087,467077808.748416,2,-1.000000,""
31_updated,w0,python3action_modeltraining_reviews100mb_nova,0.997085,1,2000.000000,1,COMPLETED_SUCCESSFULLY,4670.778107,79.600010,4750.378117,4669.781022,4749.381032,59.665584,2,-1.000000,""
31,w0,python3action_modeltraining_reviews100mb,0.000000,1,-1.000000,1,COMPLETED_SUCCESSFULLY,4750.378132,0.000010,4750.378142,4750.378132,4750.378142,475037814.225914,2,-1.000000,""
110_updated,w0,python3action_videoprocessing_SampleVideo_50mb_taurus,0.997085,1,2000.000000,1,COMPLETED_SUCCESSFULLY,4613.290230,154.250029,4767.540259,4612.293145,4766.543174,30.901409,10,-1.000000,""
110,w0,python3action_videoprocessing_SampleVideo_50mb,0.000000,1,-1.000000,1,COMPLETED_SUCCESSFULLY,4767.540274,0.000010,4767.540284,4767.540274,4767.540284,476754028.400201,10,-1.000000,""
42_updated,w0,python3action_modeltraining_reviews50mb_nova,0.997085,1,2000.000000,1,COMPLETED_SUCCESSFULLY,4750.378162,42.399990,4792.778152,4749.381077,4791.781067,113.013730,2,-1.000000,""
42,w0,python3action_modeltraining_reviews50mb,0.000000,1,-1.000000,1,COMPLETED_SUCCESSFULLY,4792.778167,0.000010,4792.778177,4792.778167,4792.778177,479277817.749620,2,-1.000000,""
48_updated,w0,python3action_modeltraining_reviews50mb_nova,0.997085,1,2000.000000,1,COMPLETED_SUCCESSFULLY,4792.778198,42.399990,4835.178188,4791.781113,4834.181103,114.013732,2,-1.000000,""
48,w0,python3action_modeltraining_reviews50mb,0.000000,1,-1.000000,1,COMPLETED_SUCCESSFULLY,4835.178203,0.000010,4835.178213,4835.178203,4835.178213,483517821.300201,2,-1.000000,""
57_updated,w0,python3action_modeltraining_reviews100mb_nova,0.997085,1,2000.000000,1,COMPLETED_SUCCESSFULLY,4835.178233,79.600010,4914.778243,4834.181148,4913.781158,61.730911,2,-1.000000,""
57,w0,python3action_modeltraining_reviews100mb,0.000000,1,-1.000000,1,COMPLETED_SUCCESSFULLY,4914.778258,0.000010,4914.778268,4914.778258,4914.778268,491477826.800201,2,-1.000000,""
125_updated,w0,python3action_videoprocessing_SampleVideo_50mb_taurus,0.997085,1,2000.000000,1,COMPLETED_SUCCESSFULLY,4767.540304,154.250029,4921.790333,4766.543219,4920.793248,31.901409,10,-1.000000,""
125,w0,python3action_videoprocessing_SampleVideo_50mb,0.000000,1,-1.000000,1,COMPLETED_SUCCESSFULLY,4921.790348,0.000010,4921.790358,4921.790348,4921.790358,492179035.800201,10,-1.000000,""
66_updated,w0,python3action_modeltraining_reviews50mb_nova,0.997085,1,2000.000000,1,COMPLETED_SUCCESSFULLY,4914.778288,42.399990,4957.178278,4913.781203,4956.181193,116.891093,2,-1.000000,""
66,w0,python3action_modeltraining_reviews50mb,0.000000,1,-1.000000,1,COMPLETED_SUCCESSFULLY,4957.178293,0.000010,4957.178303,4957.178293,4957.178303,495717830.323907,2,-1.000000,""
67_updated,w0,python3action_modeltraining_reviews50mb_nova,0.997085,1,2000.000000,1,COMPLETED_SUCCESSFULLY,4957.178323,42.399990,4999.578313,4956.181238,4998.581228,117.891094,2,-1.000000,""
67,w0,python3action_modeltraining_reviews50mb,0.000000,1,-1.000000,1,COMPLETED_SUCCESSFULLY,4999.578328,0.000010,4999.578338,4999.578328,4999.578338,499957833.847612,2,-1.000000,""
83_updated,w0,python3action_modeltraining_reviews50mb_nova,0.997085,1,2000.000000,1,COMPLETED_SUCCESSFULLY,4999.578358,42.399990,5041.978349,4998.581273,5040.981264,118.891095,2,-1.000000,""
83,w0,python3action_modeltraining_reviews50mb,0.000000,1,-1.000000,1,COMPLETED_SUCCESSFULLY,5041.978364,0.000010,5041.978374,5041.978364,5041.978374,504197837.400201,2,-1.000000,""
152_updated,w0,python3action_videoprocessing_SampleVideo_50mb_taurus,0.997085,1,2000.000000,1,COMPLETED_SUCCESSFULLY,4921.790378,154.250029,5076.040407,4920.793293,5075.043322,32.901409,10,-1.000000,""
152,w0,python3action_videoprocessing_SampleVideo_50mb,0.000000,1,-1.000000,1,COMPLETED_SUCCESSFULLY,5076.040422,0.000010,5076.040432,5076.040422,5076.040432,507604043.200201,10,-1.000000,""
93_updated,w0,python3action_modeltraining_reviews100mb_nova,0.997085,1,2000.000000,1,COMPLETED_SUCCESSFULLY,5041.978394,79.600010,5121.578404,5040.981309,5120.581319,64.328903,2,-1.000000,""
93,w0,python3action_modeltraining_reviews100mb,0.000000,1,-1.000000,1,COMPLETED_SUCCESSFULLY,5121.578419,0.000010,5121.578429,5121.578419,5121.578429,512157842.900201,2,-1.000000,""
95_updated,w0,python3action_modeltraining_reviews100mb_nova,0.997085,1,2000.000000,1,COMPLETED_SUCCESSFULLY,5121.578449,79.600010,5201.178459,5120.581364,5200.181374,65.328904,2,-1.000000,""
95,w0,python3action_modeltraining_reviews100mb,0.000000,1,-1.000000,1,COMPLETED_SUCCESSFULLY,5201.178474,0.000010,5201.178484,5201.178474,5201.178484,520117848.400201,2,-1.000000,""
191_updated,w0,python3action_videoprocessing_SampleVideo_50mb_taurus,0.997085,1,2000.000000,1,COMPLETED_SUCCESSFULLY,5076.040452,154.250029,5230.290481,5075.043367,5229.293396,33.901410,10,-1.000000,""
191,w0,python3action_videoprocessing_SampleVideo_50mb,0.000000,1,-1.000000,1,COMPLETED_SUCCESSFULLY,5230.290496,0.000010,5230.290506,5230.290496,5230.290506,523029050.600201,10,-1.000000,""
105_updated,w0,python3action_modeltraining_reviews100mb_nova,0.997085,1,2000.000000,1,COMPLETED_SUCCESSFULLY,5201.178504,79.600010,5280.778514,5200.181419,5279.781429,66.328904,2,-1.000000,""
105,w0,python3action_modeltraining_reviews100mb,0.000000,1,-1.000000,1,COMPLETED_SUCCESSFULLY,5280.778529,0.000010,5280.778539,5280.778529,5280.778539,528077853.900201,2,-1.000000,""
107_updated,w0,python3action_modeltraining_reviews50mb_nova,0.997085,1,2000.000000,1,COMPLETED_SUCCESSFULLY,5280.778559,42.399990,5323.178549,5279.781474,5322.181464,125.523177,2,-1.000000,""
107,w0,python3action_modeltraining_reviews50mb,0.000000,1,-1.000000,1,COMPLETED_SUCCESSFULLY,5323.178564,0.000010,5323.178574,5323.178564,5323.178574,532317857.423907,2,-1.000000,""
198_updated,w0,python3action_videoprocessing_SampleVideo_50mb_taurus,0.997085,1,2000.000000,1,COMPLETED_SUCCESSFULLY,5230.290526,154.250029,5384.540555,5229.293441,5383.543470,34.901410,10,-1.000000,""
198,w0,python3action_videoprocessing_SampleVideo_50mb,0.000000,1,-1.000000,1,COMPLETED_SUCCESSFULLY,5384.540570,0.000010,5384.540580,5384.540570,5384.540580,538454058.000201,10,-1.000000,""
109_updated,w0,python3action_modeltraining_reviews100mb_nova,0.997085,1,2000.000000,1,COMPLETED_SUCCESSFULLY,5323.178594,79.600010,5402.778604,5322.181509,5401.781519,67.861569,2,-1.000000,""
109,w0,python3action_modeltraining_reviews100mb,0.000000,1,-1.000000,1,COMPLETED_SUCCESSFULLY,5402.778619,0.000010,5402.778629,5402.778619,5402.778629,540277862.901405,2,-1.000000,""
114_updated,w0,python3action_modeltraining_reviews50mb_nova,0.997085,1,2000.000000,1,COMPLETED_SUCCESSFULLY,5402.778649,42.399990,5445.178639,5401.781564,5444.181554,128.400538,2,-1.000000,""
114,w0,python3action_modeltraining_reviews50mb,0.000000,1,-1.000000,1,COMPLETED_SUCCESSFULLY,5445.178654,0.000010,5445.178664,5445.178654,5445.178664,544517866.425111,2,-1.000000,""
128_updated,w0,python3action_modeltraining_reviews50mb_nova,0.997085,1,2000.000000,1,COMPLETED_SUCCESSFULLY,5445.178684,42.399990,5487.578674,5444.181599,5486.581589,129.400539,2,-1.000000,""
128,w0,python3action_modeltraining_reviews50mb,0.000000,1,-1.000000,1,COMPLETED_SUCCESSFULLY,5487.578689,0.000010,5487.578699,5487.578689,5487.578699,548757869.948817,2,-1.000000,""
133_updated,w0,python3action_modeltraining_reviews50mb_nova,0.997085,1,2000.000000,1,COMPLETED_SUCCESSFULLY,5487.578719,42.399990,5529.978710,5486.581634,5528.981625,130.400540,2,-1.000000,""
133,w0,python3action_modeltraining_reviews50mb,0.000000,1,-1.000000,1,COMPLETED_SUCCESSFULLY,5529.978725,0.000010,5529.978735,5529.978725,5529.978735,552997873.500201,2,-1.000000,""
144_updated,w0,python3action_modeltraining_reviews50mb_nova,0.997085,1,2000.000000,1,COMPLETED_SUCCESSFULLY,5529.978755,42.399990,5572.378745,5528.981670,5571.381660,131.400541,2,-1.000000,""
144,w0,python3action_modeltraining_reviews50mb,0.000000,1,-1.000000,1,COMPLETED_SUCCESSFULLY,5572.378760,0.000010,5572.378770,5572.378760,5572.378770,557237877.023907,2,-1.000000,""
155_updated,w0,python3action_modeltraining_reviews100mb_nova,0.997085,1,2000.000000,1,COMPLETED_SUCCESSFULLY,5572.378790,79.600010,5651.978800,5571.381705,5650.981715,70.992224,2,-1.000000,""
155,w0,python3action_modeltraining_reviews100mb,0.000000,1,-1.000000,1,COMPLETED_SUCCESSFULLY,5651.978815,0.000010,5651.978825,5651.978815,5651.978825,565197882.501405,2,-1.000000,""
161_updated,w0,python3action_modeltraining_reviews50mb_nova,0.997085,1,2000.000000,1,COMPLETED_SUCCESSFULLY,5651.978845,42.399990,5694.378835,5650.981760,5693.381750,134.277902,2,-1.000000,""
161,w0,python3action_modeltraining_reviews50mb,0.000000,1,-1.000000,1,COMPLETED_SUCCESSFULLY,5694.378850,0.000010,5694.378860,5694.378850,5694.378860,569437886.025111,2,-1.000000,""
166_updated,w0,python3action_modeltraining_reviews50mb_nova,0.997085,1,2000.000000,1,COMPLETED_SUCCESSFULLY,5694.378880,42.399990,5736.778870,5693.381795,5735.781785,135.277903,2,-1.000000,""
166,w0,python3action_modeltraining_reviews50mb,0.000000,1,-1.000000,1,COMPLETED_SUCCESSFULLY,5736.778885,0.000010,5736.778895,5736.778885,5736.778895,573677889.548817,2,-1.000000,""
174_updated,w0,python3action_modeltraining_reviews50mb_nova,0.997085,1,2000.000000,1,COMPLETED_SUCCESSFULLY,5736.778915,42.399990,5779.178906,5735.781830,5778.181821,136.277905,2,-1.000000,""
174,w0,python3action_modeltraining_reviews50mb,0.000000,1,-1.000000,1,COMPLETED_SUCCESSFULLY,5779.178921,0.000010,5779.178931,5779.178921,5779.178931,577917893.100201,2,-1.000000,""
175_updated,w0,python3action_modeltraining_reviews50mb_nova,0.997085,1,2000.000000,1,COMPLETED_SUCCESSFULLY,5779.178951,42.399990,5821.578941,5778.181866,5820.581856,137.277906,2,-1.000000,""
175,w0,python3action_modeltraining_reviews50mb,0.000000,1,-1.000000,1,COMPLETED_SUCCESSFULLY,5821.578956,0.000010,5821.578966,5821.578956,5821.578966,582157896.623907,2,-1.000000,""
176_updated,w0,python3action_modeltraining_reviews100mb_nova,0.997085,1,2000.000000,1,COMPLETED_SUCCESSFULLY,5821.578986,79.600010,5901.178996,5820.581901,5900.181911,74.122879,2,-1.000000,""
176,w0,python3action_modeltraining_reviews100mb,0.000000,1,-1.000000,1,COMPLETED_SUCCESSFULLY,5901.179011,0.000010,5901.179021,5901.179011,5901.179021,590117902.101406,2,-1.000000,""
179_updated,w0,python3action_modeltraining_reviews50mb_nova,0.997085,1,2000.000000,1,COMPLETED_SUCCESSFULLY,5901.179041,42.399990,5943.579031,5900.181956,5942.581946,140.155267,2,-1.000000,""
179,w0,python3action_modeltraining_reviews50mb,0.000000,1,-1.000000,1,COMPLETED_SUCCESSFULLY,5943.579046,0.000010,5943.579056,5943.579046,5943.579056,594357905.625111,2,-1.000000,""
186_updated,w0,python3action_modeltraining_reviews50mb_nova,0.997085,1,2000.000000,1,COMPLETED_SUCCESSFULLY,5943.579076,42.399990,5985.979066,5942.581991,5984.981981,141.155268,2,-1.000000,""
186,w0,python3action_modeltraining_reviews50mb,0.000000,1,-1.000000,1,COMPLETED_SUCCESSFULLY,5985.979081,0.000010,5985.979091,5985.979081,5985.979091,598597909.148817,2,-1.000000,""
193_updated,w0,python3action_modeltraining_reviews100mb_nova,0.997085,1,2000.000000,1,COMPLETED_SUCCESSFULLY,5985.979111,79.600010,6065.579121,5984.982026,6064.582036,76.188207,2,-1.000000,""
193,w0,python3action_modeltraining_reviews100mb,0.000000,1,-1.000000,1,COMPLETED_SUCCESSFULLY,6065.579136,0.000010,6065.579146,6065.579136,6065.579146,606557914.626316,2,-1.000000,""
python3action_pyaes_job0_1,w0,python3action_pyaes_reduced_0.85,0.997085,1,2000.000000,1,COMPLETED_SUCCESSFULLY,6065.579166,0.320244,6065.899410,6064.582081,6064.902325,18938.394884,2,-1.000000,""
0_updated,w0,python3action_pyaes_3000_nova,0.997085,1,2000.000000,1,COMPLETED_SUCCESSFULLY,6065.899425,78.200020,6144.099445,6064.902340,6143.102360,78.556277,2,-1.000000,""
0,w0,python3action_pyaes_3000,0.000000,1,-1.000000,1,COMPLETED_SUCCESSFULLY,6144.099460,0.000010,6144.099470,6144.099460,6144.099470,614409947.000201,2,-1.000000,""
3_updated,w0,python3action_pyaes_4000_nova,0.997085,1,2000.000000,1,COMPLETED_SUCCESSFULLY,6144.099490,139.600010,6283.699500,6143.102405,6282.702415,45.005028,2,-1.000000,""
3,w0,python3action_pyaes_4000,0.000000,1,-1.000000,1,COMPLETED_SUCCESSFULLY,6283.699515,0.000010,6283.699525,6283.699515,6283.699525,628369952.500201,2,-1.000000,""
9_updated,w0,python3action_pyaes_3000_nova,0.997085,1,2000.000000,1,COMPLETED_SUCCESSFULLY,6283.699545,78.200020,6361.899565,6282.702460,6360.902480,81.341444,2,-1.000000,""
9,w0,python3action_pyaes_3000,0.000000,1,-1.000000,1,COMPLETED_SUCCESSFULLY,6361.899580,0.000010,6361.899590,6361.899580,6361.899590,636189959.000201,2,-1.000000,""
15_updated,w0,python3action_pyaes_3000_nova,0.997085,1,2000.000000,1,COMPLETED_SUCCESSFULLY,6361.899610,78.200020,6440.099630,6360.902525,6439.102545,82.341444,2,-1.000000,""
15,w0,python3action_pyaes_3000,0.000000,1,-1.000000,1,COMPLETED_SUCCESSFULLY,6440.099645,0.000010,6440.099655,6440.099645,6440.099655,644009965.500201,2,-1.000000,""
32_updated,w0,python3action_pyaes_3000_nova,0.997085,1,2000.000000,1,COMPLETED_SUCCESSFULLY,6440.099675,78.200020,6518.299695,6439.102590,6517.302610,83.341445,2,-1.000000,""
32,w0,python3action_pyaes_3000,0.000000,1,-1.000000,1,COMPLETED_SUCCESSFULLY,6518.299710,0.000010,6518.299720,6518.299710,6518.299720,651829972.000201,2,-1.000000,""
33_updated,w0,python3action_pyaes_4000_nova,0.997085,1,2000.000000,1,COMPLETED_SUCCESSFULLY,6518.299740,139.600010,6657.899750,6517.302655,6656.902665,47.685546,2,-1.000000,""
33,w0,python3action_pyaes_4000,0.000000,1,-1.000000,1,COMPLETED_SUCCESSFULLY,6657.899765,0.000010,6657.899775,6657.899765,6657.899775,665789977.500201,2,-1.000000,""
50_updated,w0,python3action_pyaes_3000_nova,0.997085,1,2000.000000,1,COMPLETED_SUCCESSFULLY,6657.899795,78.200020,6736.099815,6656.902710,6735.102730,86.126612,2,-1.000000,""
50,w0,python3action_pyaes_3000,0.000000,1,-1.000000,1,COMPLETED_SUCCESSFULLY,6736.099830,0.000010,6736.099840,6736.099830,6736.099840,673609984.000201,2,-1.000000,""
51_updated,w0,python3action_pyaes_3000_nova,0.997085,1,2000.000000,1,COMPLETED_SUCCESSFULLY,6736.099860,78.200020,6814.299880,6735.102775,6813.302795,87.126612,2,-1.000000,""
51,w0,python3action_pyaes_3000,0.000000,1,-1.000000,1,COMPLETED_SUCCESSFULLY,6814.299895,0.000010,6814.299905,6814.299895,6814.299905,681429990.500201,2,-1.000000,""
85_updated,w0,python3action_pyaes_4000_nova,0.997085,1,2000.000000,1,COMPLETED_SUCCESSFULLY,6814.299925,139.600010,6953.899935,6813.302840,6952.902850,49.805891,2,-1.000000,""
85,w0,python3action_pyaes_4000,0.000000,1,-1.000000,1,COMPLETED_SUCCESSFULLY,6953.899950,0.000010,6953.899960,6953.899950,6953.899960,695389996.000201,2,-1.000000,""
86_updated,w0,python3action_pyaes_3000_nova,0.997085,1,2000.000000,1,COMPLETED_SUCCESSFULLY,6953.899980,78.200020,7032.100000,6952.902895,7031.102915,89.911780,2,-1.000000,""
86,w0,python3action_pyaes_3000,0.000000,1,-1.000000,1,COMPLETED_SUCCESSFULLY,7032.100015,0.000010,7032.100025,7032.100015,7032.100025,703210002.500201,2,-1.000000,""
115_updated,w0,python3action_pyaes_3000_nova,0.997085,1,2000.000000,1,COMPLETED_SUCCESSFULLY,7032.100045,78.200020,7110.300065,7031.102960,7109.302980,90.911780,2,-1.000000,""
115,w0,python3action_pyaes_3000,0.000000,1,-1.000000,1,COMPLETED_SUCCESSFULLY,7110.300080,0.000010,7110.300090,7110.300080,7110.300090,711030009.000201,2,-1.000000,""
116_updated,w0,python3action_pyaes_4000_nova,0.997085,1,2000.000000,1,COMPLETED_SUCCESSFULLY,7110.300110,139.600010,7249.900120,7109.303025,7248.903035,51.926236,2,-1.000000,""
116,w0,python3action_pyaes_4000,0.000000,1,-1.000000,1,COMPLETED_SUCCESSFULLY,7249.900135,0.000010,7249.900145,7249.900135,7249.900145,724990014.500201,2,-1.000000,""
119_updated,w0,python3action_pyaes_3000_nova,0.997085,1,2000.000000,1,COMPLETED_SUCCESSFULLY,7249.900165,78.200020,7328.100185,7248.903080,7327.103100,93.696947,2,-1.000000,""
119,w0,python3action_pyaes_3000,0.000000,1,-1.000000,1,COMPLETED_SUCCESSFULLY,7328.100200,0.000010,7328.100210,7328.100200,7328.100210,732810021.000201,2,-1.000000,""
138_updated,w0,python3action_pyaes_3000_nova,0.997085,1,2000.000000,1,COMPLETED_SUCCESSFULLY,7328.100230,78.200020,7406.300250,7327.103145,7405.303165,94.696948,2,-1.000000,""
138,w0,python3action_pyaes_3000,0.000000,1,-1.000000,1,COMPLETED_SUCCESSFULLY,7406.300265,0.000010,7406.300275,7406.300265,7406.300275,740630027.500201,2,-1.000000,""
141_updated,w0,python3action_pyaes_4000_nova,0.997085,1,2000.000000,1,COMPLETED_SUCCESSFULLY,7406.300295,139.600010,7545.900305,7405.303210,7544.903220,54.046581,2,-1.000000,""
141,w0,python3action_pyaes_4000,0.000000,1,-1.000000,1,COMPLETED_SUCCESSFULLY,7545.900320,0.000010,7545.900330,7545.900320,7545.900330,754590033.000201,2,-1.000000,""
148_updated,w0,python3action_pyaes_3000_nova,0.997085,1,2000.000000,1,COMPLETED_SUCCESSFULLY,7545.900350,78.200020,7624.100370,7544.903265,7623.103285,97.482115,2,-1.000000,""
148,w0,python3action_pyaes_3000,0.000000,1,-1.000000,1,COMPLETED_SUCCESSFULLY,7624.100385,0.000010,7624.100395,7624.100385,7624.100395,762410039.500201,2,-1.000000,""
172_updated,w0,python3action_pyaes_4000_nova,0.997085,1,2000.000000,1,COMPLETED_SUCCESSFULLY,7624.100415,139.600010,7763.700425,7623.103330,7762.703340,55.606754,2,-1.000000,""
172,w0,python3action_pyaes_4000,0.000000,1,-1.000000,1,COMPLETED_SUCCESSFULLY,7763.700440,0.000010,7763.700450,7763.700440,7763.700450,776370045.000201,2,-1.000000,""
181_updated,w0,python3action_pyaes_3000_nova,0.997085,1,2000.000000,1,COMPLETED_SUCCESSFULLY,7763.700470,78.200020,7841.900490,7762.703385,7840.903405,100.267282,2,-1.000000,""
181,w0,python3action_pyaes_3000,0.000000,1,-1.000000,1,COMPLETED_SUCCESSFULLY,7841.900505,0.000010,7841.900515,7841.900505,7841.900515,784190051.500201,2,-1.000000,""
python3action_video_processing_job5_1,w0,python3action_video_processing_reduced_1.89,0.997085,1,2000.000000,1,COMPLETED_SUCCESSFULLY,7841.900535,0.000000,7841.900535,7840.903450,7840.903450,159651194732419.093750,2,-1.000000,""
5_updated,w0,python3action_videoprocessing_SampleVideo_30mb_nova,0.997085,1,2000.000000,1,COMPLETED_SUCCESSFULLY,7841.900565,106.799980,7948.700545,7840.903480,7947.703460,74.416713,2,-1.000000,""
5,w0,python3action_videoprocessing_SampleVideo_30mb,0.000000,1,-1.000000,1,COMPLETED_SUCCESSFULLY,7948.700560,0.000010,7948.700570,7948.700560,7948.700570,794870057.047412,2,-1.000000,""
23_updated,w0,python3action_videoprocessing_SampleVideo_30mb_nova,0.997085,1,2000.000000,1,COMPLETED_SUCCESSFULLY,7948.700590,106.799980,8055.500571,7947.703505,8054.503486,75.416713,2,-1.000000,""
23,w0,python3action_videoprocessing_SampleVideo_30mb,0.000000,1,-1.000000,1,COMPLETED_SUCCESSFULLY,8055.500586,0.000010,8055.500596,8055.500586,8055.500596,805550059.600201,2,-1.000000,""
28_updated,w0,python3action_videoprocessing_SampleVideo_30mb_nova,0.997085,1,2000.000000,1,COMPLETED_SUCCESSFULLY,8055.500616,106.799980,8162.300596,8054.503531,8161.303511,76.416714,2,-1.000000,""
28,w0,python3action_videoprocessing_SampleVideo_30mb,0.000000,1,-1.000000,1,COMPLETED_SUCCESSFULLY,8162.300611,0.000010,8162.300621,8162.300611,8162.300621,816230062.147010,2,-1.000000,""
30_updated,w0,python3action_videoprocessing_SampleVideo_30mb_nova,0.997085,1,2000.000000,1,COMPLETED_SUCCESSFULLY,8162.300641,106.799980,8269.100622,8161.303556,8268.103537,77.416714,2,-1.000000,""
30,w0,python3action_videoprocessing_SampleVideo_30mb,0.000000,1,-1.000000,1,COMPLETED_SUCCESSFULLY,8269.100637,0.000010,8269.100647,8269.100637,8269.100647,826910064.700201,2,-1.000000,""
41_updated,w0,python3action_videoprocessing_SampleVideo_30mb_nova,0.997085,1,2000.000000,1,COMPLETED_SUCCESSFULLY,8269.100667,106.799980,8375.900647,8268.103582,8374.903562,78.416714,2,-1.000000,""
41,w0,python3action_videoprocessing_SampleVideo_30mb,0.000000,1,-1.000000,1,COMPLETED_SUCCESSFULLY,8375.900662,0.000010,8375.900672,8375.900662,8375.900672,837590067.247010,2,-1.000000,""
62_updated,w0,python3action_videoprocessing_SampleVideo_30mb_nova,0.997085,1,2000.000000,1,COMPLETED_SUCCESSFULLY,8375.900692,106.799980,8482.700673,8374.903607,8481.703588,79.416715,2,-1.000000,""
62,w0,python3action_videoprocessing_SampleVideo_30mb,0.000000,1,-1.000000,1,COMPLETED_SUCCESSFULLY,8482.700688,0.000010,8482.700698,8482.700688,8482.700698,848270069.800201,2,-1.000000,""
68_updated,w0,python3action_videoprocessing_SampleVideo_30mb_nova,0.997085,1,2000.000000,1,COMPLETED_SUCCESSFULLY,8482.700718,106.799980,8589.500698,8481.703633,8588.503613,80.416715,2,-1.000000,""
68,w0,python3action_videoprocessing_SampleVideo_30mb,0.000000,1,-1.000000,1,COMPLETED_SUCCESSFULLY,8589.500713,0.000010,8589.500723,8589.500713,8589.500723,858950072.347010,2,-1.000000,""
75_updated,w0,python3action_videoprocessing_SampleVideo_30mb_nova,0.997085,1,2000.000000,1,COMPLETED_SUCCESSFULLY,8589.500743,106.799980,8696.300724,8588.503658,8695.303639,81.416716,2,-1.000000,""
75,w0,python3action_videoprocessing_SampleVideo_30mb,0.000000,1,-1.000000,1,COMPLETED_SUCCESSFULLY,8696.300739,0.000010,8696.300749,8696.300739,8696.300749,869630074.900201,2,-1.000000,""
92_updated,w0,python3action_videoprocessing_SampleVideo_30mb_nova,0.997085,1,2000.000000,1,COMPLETED_SUCCESSFULLY,8696.300769,106.799980,8803.100749,8695.303684,8802.103664,82.416716,2,-1.000000,""
92,w0,python3action_videoprocessing_SampleVideo_30mb,0.000000,1,-1.000000,1,COMPLETED_SUCCESSFULLY,8803.100764,0.000010,8803.100774,8803.100764,8803.100774,880310077.447010,2,-1.000000,""
104_updated,w0,python3action_videoprocessing_SampleVideo_30mb_nova,0.997085,1,2000.000000,1,COMPLETED_SUCCESSFULLY,8803.100794,106.799980,8909.900775,8802.103709,8908.903690,83.416716,2,-1.000000,""
104,w0,python3action_videoprocessing_SampleVideo_30mb,0.000000,1,-1.000000,1,COMPLETED_SUCCESSFULLY,8909.900790,0.000010,8909.900800,8909.900790,8909.900800,890990080.000201,2,-1.000000,""
112_updated,w0,python3action_videoprocessing_SampleVideo_30mb_nova,0.997085,1,2000.000000,1,COMPLETED_SUCCESSFULLY,8909.900820,106.799980,9016.700800,8908.903735,9015.703715,84.416717,2,-1.000000,""
112,w0,python3action_videoprocessing_SampleVideo_30mb,0.000000,1,-1.000000,1,COMPLETED_SUCCESSFULLY,9016.700815,0.000010,9016.700825,9016.700815,9016.700825,901670082.547010,2,-1.000000,""
117_updated,w0,python3action_videoprocessing_SampleVideo_30mb_nova,0.997085,1,2000.000000,1,COMPLETED_SUCCESSFULLY,9016.700845,106.799980,9123.500826,9015.703760,9122.503741,85.416717,2,-1.000000,""
117,w0,python3action_videoprocessing_SampleVideo_30mb,0.000000,1,-1.000000,1,COMPLETED_SUCCESSFULLY,9123.500841,0.000010,9123.500851,9123.500841,9123.500851,912350085.100201,2,-1.000000,""
124_updated,w0,python3action_videoprocessing_SampleVideo_30mb_nova,0.997085,1,2000.000000,1,COMPLETED_SUCCESSFULLY,9123.500871,106.799980,9230.300851,9122.503786,9229.303766,86.416718,2,-1.000000,""
124,w0,python3action_videoprocessing_SampleVideo_30mb,0.000000,1,-1.000000,1,COMPLETED_SUCCESSFULLY,9230.300866,0.000010,9230.300876,9230.300866,9230.300876,923030087.647010,2,-1.000000,""
127_updated,w0,python3action_videoprocessing_SampleVideo_30mb_nova,0.997085,1,2000.000000,1,COMPLETED_SUCCESSFULLY,9230.300896,106.799980,9337.100877,9229.303811,9336.103792,87.416718,2,-1.000000,""
127,w0,python3action_videoprocessing_SampleVideo_30mb,0.000000,1,-1.000000,1,COMPLETED_SUCCESSFULLY,9337.100892,0.000010,9337.100902,9337.100892,9337.100902,933710090.200201,2,-1.000000,""
129_updated,w0,python3action_videoprocessing_SampleVideo_30mb_nova,0.997085,1,2000.000000,1,COMPLETED_SUCCESSFULLY,9337.100922,106.799980,9443.900902,9336.103837,9442.903817,88.416719,2,-1.000000,""
129,w0,python3action_videoprocessing_SampleVideo_30mb,0.000000,1,-1.000000,1,COMPLETED_SUCCESSFULLY,9443.900917,0.000010,9443.900927,9443.900917,9443.900927,944390092.747010,2,-1.000000,""
132_updated,w0,python3action_videoprocessing_SampleVideo_30mb_nova,0.997085,1,2000.000000,1,COMPLETED_SUCCESSFULLY,9443.900947,106.799980,9550.700928,9442.903862,9549.703843,89.416719,2,-1.000000,""
132,w0,python3action_videoprocessing_SampleVideo_30mb,0.000000,1,-1.000000,1,COMPLETED_SUCCESSFULLY,9550.700943,0.000010,9550.700953,9550.700943,9550.700953,955070095.300201,2,-1.000000,""
140_updated,w0,python3action_videoprocessing_SampleVideo_50mb_nova,0.997085,1,2000.000000,1,COMPLETED_SUCCESSFULLY,9550.700973,139.600010,9690.300983,9549.703888,9689.303898,69.407616,2,-1.000000,""
140,w0,python3action_videoprocessing_SampleVideo_50mb,0.000000,1,-1.000000,1,COMPLETED_SUCCESSFULLY,9690.300998,0.000010,9690.301008,9690.300998,9690.301008,969030100.800201,2,-1.000000,""
165_updated,w0,python3action_videoprocessing_SampleVideo_30mb_nova,0.997085,1,2000.000000,1,COMPLETED_SUCCESSFULLY,9690.301028,106.799980,9797.101008,9689.303943,9796.103923,91.723836,2,-1.000000,""
165,w0,python3action_videoprocessing_SampleVideo_30mb,0.000000,1,-1.000000,1,COMPLETED_SUCCESSFULLY,9797.101023,0.000010,9797.101033,9797.101023,9797.101033,979710103.347010,2,-1.000000,""
167_updated,w0,python3action_videoprocessing_SampleVideo_30mb_nova,0.997085,1,2000.000000,1,COMPLETED_SUCCESSFULLY,9797.101053,106.799980,9903.901034,9796.103968,9902.903949,92.723837,2,-1.000000,""
167,w0,python3action_videoprocessing_SampleVideo_30mb,0.000000,1,-1.000000,1,COMPLETED_SUCCESSFULLY,9903.901049,0.000010,9903.901059,9903.901049,9903.901059,990390105.900201,2,-1.000000,""
185_updated,w0,python3action_videoprocessing_SampleVideo_30mb_nova,0.997085,1,2000.000000,1,COMPLETED_SUCCESSFULLY,9903.901079,106.799980,10010.701059,9902.903994,10009.703974,93.723837,2,-1.000000,""
185,w0,python3action_videoprocessing_SampleVideo_30mb,0.000000,1,-1.000000,1,COMPLETED_SUCCESSFULLY,10010.701074,0.000010,10010.701084,10010.701074,10010.701084,1001070108.447010,2,-1.000000,""
189_updated,w0,python3action_videoprocessing_SampleVideo_30mb_nova,0.997085,1,2000.000000,1,COMPLETED_SUCCESSFULLY,10010.701104,106.799980,10117.501085,10009.704019,10116.504000,94.723838,2,-1.000000,""
189,w0,python3action_videoprocessing_SampleVideo_30mb,0.000000,1,-1.000000,1,COMPLETED_SUCCESSFULLY,10117.501100,0.000010,10117.501110,10117.501100,10117.501110,1011750111.000201,2,-1.000000,""
194_updated,w0,python3action_videoprocessing_SampleVideo_30mb_nova,0.997085,1,2000.000000,1,COMPLETED_SUCCESSFULLY,10117.501130,106.799980,10224.301110,10116.504045,10223.304025,95.723838,2,-1.000000,""
194,w0,python3action_videoprocessing_SampleVideo_30mb,0.000000,1,-1.000000,1,COMPLETED_SUCCESSFULLY,10224.301125,0.000010,10224.301135,10224.301125,10224.301135,1022430113.547010,2,-1.000000,""
199_updated,w0,python3action_videoprocessing_SampleVideo_30mb_nova,0.997085,1,2000.000000,1,COMPLETED_SUCCESSFULLY,10224.301155,106.799980,10331.101136,10223.304070,10330.104051,96.723838,2,-1.000000,""
199,w0,python3action_videoprocessing_SampleVideo_30mb,0.000000,1,-1.000000,1,COMPLETED_SUCCESSFULLY,10331.101151,0.000010,10331.101161,10331.101151,10331.101161,1033110116.100201,2,-1.000000,""
