job_id,workload_name,profile,submission_time,requested_number_of_resources,requested_time,success,final_state,starting_time,execution_time,finish_time,waiting_time,turnaround_time,stretch,allocated_resources,consumed_energy,metadata
python3action_chameleon_job25_3,w0,python3action_chameleon,0.997085,1,2000.000000,1,COMPLETED_SUCCESSFULLY,1.002145,0.867914,1.870059,0.005060,0.872974,1.005830,19,-1.000000,""
python3action_chameleon_job9_4,w0,python3action_chameleon,0.997085,1,2000.000000,1,COMPLETED_SUCCESSFULLY,1.002160,0.892694,1.894854,0.005075,0.897769,1.005685,21,-1.000000,""
python3action_chameleon_job40_2,w0,python3action_chameleon,0.997085,1,2000.000000,1,COMPLETED_SUCCESSFULLY,1.002130,5.040826,6.042956,0.005045,5.045871,1.001001,10,-1.000000,""
python3action_linpack_job18_1,w0,python3action_linpack,0.997085,1,2000.000000,1,COMPLETED_SUCCESSFULLY,1.002115,5.760927,6.763042,0.005030,5.765957,1.000873,8,-1.000000,""
python3action_facedetection_job3_0,w0,python3action_facedetection,0.997085,1,2000.000000,1,COMPLETED_SUCCESSFULLY,1.002100,30.499683,31.501783,0.005015,30.504698,1.000164,2,-1.000000,""
40_updated,w0,python3action_chameleon_2000_taurus,0.997085,1,2000.000000,1,COMPLETED_SUCCESSFULLY,6.042971,64.199977,70.242948,5.045886,69.245863,1.078596,10,-1.000000,""
40,w0,python3action_chameleon_2000,0.000000,1,-1.000000,1,COMPLETED_SUCCESSFULLY,70.242963,0.000010,70.242973,70.242963,70.242973,7024297.300201,10,-1.000000,""
9_updated,w0,python3action_chameleon_3000_yeti,0.997085,1,2000.000000,1,COMPLETED_SUCCESSFULLY,1.894869,93.000000,94.894869,0.897784,93.897784,1.009654,21,-1.000000,""
9,w0,python3action_chameleon_3000,0.000000,1,-1.000000,1,COMPLETED_SUCCESSFULLY,94.894884,0.000010,94.894894,94.894884,94.894894,9489489.449765,21,-1.000000,""
25_updated,w0,python3action_chameleon_3000_troll,0.997085,1,2000.000000,1,COMPLETED_SUCCESSFULLY,1.870074,94.000000,95.870074,0.872989,94.872989,1.009287,19,-1.000000,""
25,w0,python3action_chameleon_3000,0.000000,1,-1.000000,1,COMPLETED_SUCCESSFULLY,95.870089,0.000010,95.870099,95.870089,95.870099,9587009.900402,19,-1.000000,""
18_updated,w0,python3action_linpack_6000_orion,0.997085,1,2000.000000,1,COMPLETED_SUCCESSFULLY,6.763057,106.000000,112.763057,5.765972,111.765972,1.054396,8,-1.000000,""
18,w0,python3action_linpack_6000,0.000000,1,-1.000000,1,COMPLETED_SUCCESSFULLY,112.763072,0.000010,112.763082,112.763072,112.763082,11276308.223673,8,-1.000000,""
75_updated,w0,python3action_chameleon_2000_taurus,0.997085,1,2000.000000,1,COMPLETED_SUCCESSFULLY,70.242993,64.199977,134.442970,69.245908,133.445885,2.078597,10,-1.000000,""
75,w0,python3action_chameleon_2000,0.000000,1,-1.000000,1,COMPLETED_SUCCESSFULLY,134.442985,0.000010,134.442995,134.442985,134.442995,13444299.500201,10,-1.000000,""
36_updated,w0,python3action_chameleon_2000_troll,0.997085,1,2000.000000,1,COMPLETED_SUCCESSFULLY,95.870119,39.500010,135.370129,94.873034,134.373044,3.401848,19,-1.000000,""
36,w0,python3action_chameleon_2000,0.000000,1,-1.000000,1,COMPLETED_SUCCESSFULLY,135.370144,0.000010,135.370154,135.370144,135.370154,13537015.400201,19,-1.000000,""
41_updated,w0,python3action_chameleon_2000_troll,0.997085,1,2000.000000,1,COMPLETED_SUCCESSFULLY,135.370174,39.500010,174.870184,134.373089,173.873099,4.401849,19,-1.000000,""
41,w0,python3action_chameleon_2000,0.000000,1,-1.000000,1,COMPLETED_SUCCESSFULLY,174.870199,0.000010,174.870209,174.870199,174.870209,17487020.900201,19,-1.000000,""
39_updated,w0,python3action_chameleon_3000_yeti,0.997085,1,2000.000000,1,COMPLETED_SUCCESSFULLY,94.894915,93.000000,187.894915,93.897830,186.897830,2.009654,21,-1.000000,""
39,w0,python3action_chameleon_3000,0.000000,1,-1.000000,1,COMPLETED_SUCCESSFULLY,187.894930,0.000010,187.894940,187.894930,187.894940,18789494.000201,21,-1.000000,""
3_updated,w0,python3action_facedetection_SampleVideo_30mb_nova,0.997085,1,2000.000000,1,COMPLETED_SUCCESSFULLY,31.501798,160.399990,191.901788,30.504713,190.904703,1.190179,2,-1.000000,""
3,w0,python3action_facedetection_SampleVideo_30mb,0.000000,1,-1.000000,1,COMPLETED_SUCCESSFULLY,191.901803,0.000010,191.901813,191.901803,191.901813,19190181.323505,2,-1.000000,""
92_updated,w0,python3action_chameleon_2000_taurus,0.997085,1,2000.000000,1,COMPLETED_SUCCESSFULLY,134.443015,64.199977,198.642992,133.445930,197.645907,3.078598,10,-1.000000,""
92,w0,python3action_chameleon_2000,0.000000,1,-1.000000,1,COMPLETED_SUCCESSFULLY,198.643007,0.000010,198.643017,198.643007,198.643017,19864301.700201,10,-1.000000,""
31_updated,w0,python3action_linpack_6000_orion,0.997085,1,2000.000000,1,COMPLETED_SUCCESSFULLY,112.763102,106.000000,218.763102,111.766017,217.766017,2.054396,8,-1.000000,""
31,w0,python3action_linpack_6000,0.000000,1,-1.000000,1,COMPLETED_SUCCESSFULLY,218.763117,0.000010,218.763127,218.763117,218.763127,21876312.724275,8,-1.000000,""
124_updated,w0,python3action_chameleon_2000_taurus,0.997085,1,2000.000000,1,COMPLETED_SUCCESSFULLY,198.643037,64.199977,262.843014,197.645952,261.845929,4.078598,10,-1.000000,""
124,w0,python3action_chameleon_2000,0.000000,1,-1.000000,1,COMPLETED_SUCCESSFULLY,262.843029,0.000010,262.843039,262.843029,262.843039,26284303.900201,10,-1.000000,""
53_updated,w0,python3action_chameleon_3000_troll,0.997085,1,2000.000000,1,COMPLETED_SUCCESSFULLY,174.870229,94.000000,268.870229,173.873144,267.873144,2.849714,19,-1.000000,""
53,w0,python3action_chameleon_3000,0.000000,1,-1.000000,1,COMPLETED_SUCCESSFULLY,268.870244,0.000010,268.870254,268.870244,268.870254,26887025.400803,19,-1.000000,""
62_updated,w0,python3action_chameleon_3000_yeti,0.997085,1,2000.000000,1,COMPLETED_SUCCESSFULLY,187.894960,93.000000,280.894960,186.897875,279.897875,3.009655,21,-1.000000,""
62,w0,python3action_chameleon_3000,0.000000,1,-1.000000,1,COMPLETED_SUCCESSFULLY,280.894975,0.000010,280.894985,280.894975,280.894985,28089498.500803,21,-1.000000,""
59_updated,w0,python3action_chameleon_2000_troll,0.997085,1,2000.000000,1,COMPLETED_SUCCESSFULLY,268.870274,39.500010,308.370284,267.873189,307.373199,7.781598,19,-1.000000,""
59,w0,python3action_chameleon_2000,0.000000,1,-1.000000,1,COMPLETED_SUCCESSFULLY,308.370299,0.000010,308.370309,308.370299,308.370309,30837030.900201,19,-1.000000,""
38_updated,w0,python3action_linpack_6000_orion,0.997085,1,2000.000000,1,COMPLETED_SUCCESSFULLY,218.763147,106.000000,324.763147,217.766062,323.766062,3.054397,8,-1.000000,""
38,w0,python3action_linpack_6000,0.000000,1,-1.000000,1,COMPLETED_SUCCESSFULLY,324.763162,0.000010,324.763172,324.763162,324.763172,32476317.224877,8,-1.000000,""
164_updated,w0,python3action_chameleon_2000_taurus,0.997085,1,2000.000000,1,COMPLETED_SUCCESSFULLY,262.843059,64.199977,327.043036,261.845974,326.045951,5.078599,10,-1.000000,""
164,w0,python3action_chameleon_2000,0.000000,1,-1.000000,1,COMPLETED_SUCCESSFULLY,327.043051,0.000010,327.043061,327.043051,327.043061,32704306.100201,10,-1.000000,""
14_updated,w0,python3action_facedetection_SampleVideo_30mb_nova,0.997085,1,2000.000000,1,COMPLETED_SUCCESSFULLY,191.901833,160.399990,352.301823,190.904748,351.304738,2.190179,2,-1.000000,""
14,w0,python3action_facedetection_SampleVideo_30mb,0.000000,1,-1.000000,1,COMPLETED_SUCCESSFULLY,352.301838,0.000010,352.301848,352.301838,352.301848,35230184.847211,2,-1.000000,""
140_updated,w0,python3action_chameleon_3000_yeti,0.997085,1,2000.000000,1,COMPLETED_SUCCESSFULLY,280.895005,93.000000,373.895005,279.897920,372.897920,4.009655,21,-1.000000,""
140,w0,python3action_chameleon_3000,0.000000,1,-1.000000,1,COMPLETED_SUCCESSFULLY,373.895020,0.000010,373.895030,373.895020,373.895030,37389503.001406,21,-1.000000,""
178_updated,w0,python3action_chameleon_2000_taurus,0.997085,1,2000.000000,1,COMPLETED_SUCCESSFULLY,327.043081,64.199977,391.243058,326.045996,390.245973,6.078600,10,-1.000000,""
178,w0,python3action_chameleon_2000,0.000000,1,-1.000000,1,COMPLETED_SUCCESSFULLY,391.243073,0.000010,391.243083,391.243073,391.243083,39124308.300201,10,-1.000000,""
76_updated,w0,python3action_chameleon_3000_troll,0.997085,1,2000.000000,1,COMPLETED_SUCCESSFULLY,308.370329,94.000000,402.370329,307.373244,401.373244,4.269928,19,-1.000000,""
76,w0,python3action_chameleon_3000,0.000000,1,-1.000000,1,COMPLETED_SUCCESSFULLY,402.370344,0.000010,402.370354,402.370344,402.370354,40237035.400803,19,-1.000000,""
44_updated,w0,python3action_linpack_6000_orion,0.997085,1,2000.000000,1,COMPLETED_SUCCESSFULLY,324.763192,106.000000,430.763192,323.766107,429.766107,4.054397,8,-1.000000,""
44,w0,python3action_linpack_6000,0.000000,1,-1.000000,1,COMPLETED_SUCCESSFULLY,430.763207,0.000010,430.763217,430.763207,430.763217,43076321.725480,8,-1.000000,""
python3action_facedetection_job6_3,w0,python3action_facedetection,0.997085,1,2000.000000,1,COMPLETED_SUCCESSFULLY,391.243103,72.012455,463.255558,390.246018,462.258473,6.419146,10,-1.000000,""
87_updated,w0,python3action_chameleon_3000_troll,0.997085,1,2000.000000,1,COMPLETED_SUCCESSFULLY,402.370374,94.000000,496.370374,401.373289,495.373289,5.269929,19,-1.000000,""
87,w0,python3action_chameleon_3000,0.000000,1,-1.000000,1,COMPLETED_SUCCESSFULLY,496.370389,0.000010,496.370399,496.370389,496.370399,49637039.901406,19,-1.000000,""
28_updated,w0,python3action_facedetection_SampleVideo_30mb_nova,0.997085,1,2000.000000,1,COMPLETED_SUCCESSFULLY,352.301868,160.399990,512.701859,351.304783,511.704774,3.190180,2,-1.000000,""
28,w0,python3action_facedetection_SampleVideo_30mb,0.000000,1,-1.000000,1,COMPLETED_SUCCESSFULLY,512.701874,0.000010,512.701884,512.701874,512.701884,51270188.400201,2,-1.000000,""
88_updated,w0,python3action_chameleon_2000_troll,0.997085,1,2000.000000,1,COMPLETED_SUCCESSFULLY,496.370419,39.500010,535.870429,495.373334,534.873344,13.541094,19,-1.000000,""
88,w0,python3action_chameleon_2000,0.000000,1,-1.000000,1,COMPLETED_SUCCESSFULLY,535.870444,0.000010,535.870454,535.870444,535.870454,53587045.400201,19,-1.000000,""
45_updated,w0,python3action_linpack_6000_orion,0.997085,1,2000.000000,1,COMPLETED_SUCCESSFULLY,430.763237,106.000000,536.763237,429.766152,535.766152,5.054398,8,-1.000000,""
45,w0,python3action_linpack_6000,0.000000,1,-1.000000,1,COMPLETED_SUCCESSFULLY,536.763252,0.000010,536.763262,536.763252,536.763262,53676326.226082,8,-1.000000,""
100_updated,w0,python3action_chameleon_2000_troll,0.997085,1,2000.000000,1,COMPLETED_SUCCESSFULLY,535.870474,39.500010,575.370484,534.873389,574.373399,14.541095,19,-1.000000,""
100,w0,python3action_chameleon_2000,0.000000,1,-1.000000,1,COMPLETED_SUCCESSFULLY,575.370499,0.000010,575.370509,575.370499,575.370509,57537050.900201,19,-1.000000,""
6_updated,w0,python3action_facedetection_SampleVideo_50mb_taurus,0.997085,1,2000.000000,1,COMPLETED_SUCCESSFULLY,463.255573,134.600046,597.855619,462.258488,596.858534,4.434312,10,-1.000000,""
6,w0,python3action_facedetection_SampleVideo_50mb,0.000000,1,-1.000000,1,COMPLETED_SUCCESSFULLY,597.855634,0.000010,597.855644,597.855634,597.855644,59785564.445163,10,-1.000000,""
56_updated,w0,python3action_linpack_6000_orion,0.997085,1,2000.000000,1,COMPLETED_SUCCESSFULLY,536.763282,106.000000,642.763282,535.766197,641.766197,6.054398,8,-1.000000,""
56,w0,python3action_linpack_6000,0.000000,1,-1.000000,1,COMPLETED_SUCCESSFULLY,642.763297,0.000010,642.763307,642.763297,642.763307,64276330.726685,8,-1.000000,""
105_updated,w0,python3action_chameleon_3000_troll,0.997085,1,2000.000000,1,COMPLETED_SUCCESSFULLY,575.370529,94.000000,669.370529,574.373444,668.373444,7.110356,19,-1.000000,""
105,w0,python3action_chameleon_3000,0.000000,1,-1.000000,1,COMPLETED_SUCCESSFULLY,669.370544,0.000010,669.370554,669.370544,669.370554,66937055.400803,19,-1.000000,""
65_updated,w0,python3action_facedetection_SampleVideo_30mb_nova,0.997085,1,2000.000000,1,COMPLETED_SUCCESSFULLY,512.701904,160.399990,673.101894,511.704819,672.104809,4.190180,2,-1.000000,""
65,w0,python3action_facedetection_SampleVideo_30mb,0.000000,1,-1.000000,1,COMPLETED_SUCCESSFULLY,673.101909,0.000010,673.101919,673.101909,673.101919,67310191.923907,2,-1.000000,""
11_updated,w0,python3action_facedetection_SampleVideo_50mb_taurus,0.997085,1,2000.000000,1,COMPLETED_SUCCESSFULLY,597.855664,134.600046,732.455711,596.858579,731.458626,5.434312,10,-1.000000,""
11,w0,python3action_facedetection_SampleVideo_50mb,0.000000,1,-1.000000,1,COMPLETED_SUCCESSFULLY,732.455726,0.000010,732.455736,732.455726,732.455736,73245573.600201,10,-1.000000,""
67_updated,w0,python3action_linpack_6000_orion,0.997085,1,2000.000000,1,COMPLETED_SUCCESSFULLY,642.763327,106.000000,748.763327,641.766242,747.766242,7.054399,8,-1.000000,""
67,w0,python3action_linpack_6000,0.000000,1,-1.000000,1,COMPLETED_SUCCESSFULLY,748.763342,0.000010,748.763352,748.763342,748.763352,74876335.227287,8,-1.000000,""
113_updated,w0,python3action_chameleon_3000_troll,0.997085,1,2000.000000,1,COMPLETED_SUCCESSFULLY,669.370574,94.000000,763.370574,668.373489,762.373489,8.110356,19,-1.000000,""
113,w0,python3action_chameleon_3000,0.000000,1,-1.000000,1,COMPLETED_SUCCESSFULLY,763.370589,0.000010,763.370599,763.370589,763.370599,76337059.901406,19,-1.000000,""
74_updated,w0,python3action_facedetection_SampleVideo_30mb_nova,0.997085,1,2000.000000,1,COMPLETED_SUCCESSFULLY,673.101939,160.399990,833.501929,672.104854,832.504844,5.190180,2,-1.000000,""
74,w0,python3action_facedetection_SampleVideo_30mb,0.000000,1,-1.000000,1,COMPLETED_SUCCESSFULLY,833.501944,0.000010,833.501954,833.501944,833.501954,83350195.447613,2,-1.000000,""
68_updated,w0,python3action_linpack_6000_orion,0.997085,1,2000.000000,1,COMPLETED_SUCCESSFULLY,748.763372,106.000000,854.763372,747.766287,853.766287,8.054399,8,-1.000000,""
68,w0,python3action_linpack_6000,0.000000,1,-1.000000,1,COMPLETED_SUCCESSFULLY,854.763387,0.000010,854.763397,854.763387,854.763397,85476339.727889,8,-1.000000,""
117_updated,w0,python3action_chameleon_3000_troll,0.997085,1,2000.000000,1,COMPLETED_SUCCESSFULLY,763.370619,94.000000,857.370619,762.373534,856.373534,9.110357,19,-1.000000,""
117,w0,python3action_chameleon_3000,0.000000,1,-1.000000,1,COMPLETED_SUCCESSFULLY,857.370634,0.000010,857.370644,857.370634,857.370644,85737064.402008,19,-1.000000,""
16_updated,w0,python3action_facedetection_SampleVideo_50mb_taurus,0.997085,1,2000.000000,1,COMPLETED_SUCCESSFULLY,732.455756,134.600046,867.055802,731.458671,866.058717,6.434312,10,-1.000000,""
16,w0,python3action_facedetection_SampleVideo_50mb,0.000000,1,-1.000000,1,COMPLETED_SUCCESSFULLY,867.055817,0.000010,867.055827,867.055817,867.055827,86705582.713881,10,-1.000000,""
135_updated,w0,python3action_chameleon_3000_troll,0.997085,1,2000.000000,1,COMPLETED_SUCCESSFULLY,857.370664,94.000000,951.370664,856.373579,950.373579,10.110357,19,-1.000000,""
135,w0,python3action_chameleon_3000,0.000000,1,-1.000000,1,COMPLETED_SUCCESSFULLY,951.370679,0.000010,951.370689,951.370679,951.370689,95137068.902610,19,-1.000000,""
72_updated,w0,python3action_linpack_6000_orion,0.997085,1,2000.000000,1,COMPLETED_SUCCESSFULLY,854.763417,106.000000,960.763417,853.766332,959.766332,9.054399,8,-1.000000,""
72,w0,python3action_linpack_6000,0.000000,1,-1.000000,1,COMPLETED_SUCCESSFULLY,960.763432,0.000010,960.763442,960.763432,960.763442,96076344.228492,8,-1.000000,""
78_updated,w0,python3action_facedetection_SampleVideo_30mb_nova,0.997085,1,2000.000000,1,COMPLETED_SUCCESSFULLY,833.501974,160.399990,993.901965,832.504889,992.904880,6.190180,2,-1.000000,""
78,w0,python3action_facedetection_SampleVideo_30mb,0.000000,1,-1.000000,1,COMPLETED_SUCCESSFULLY,993.901980,0.000010,993.901990,993.901980,993.901990,99390199.000201,2,-1.000000,""
49_updated,w0,python3action_facedetection_SampleVideo_50mb_taurus,0.997085,1,2000.000000,1,COMPLETED_SUCCESSFULLY,867.055847,134.600046,1001.655893,866.058762,1000.658808,7.434313,10,-1.000000,""
49,w0,python3action_facedetection_SampleVideo_50mb,0.000000,1,-1.000000,1,COMPLETED_SUCCESSFULLY,1001.655908,0.000010,1001.655918,1001.655908,1001.655918,100165591.827562,10,-1.000000,""
175_updated,w0,python3action_chameleon_3000_troll,0.997085,1,2000.000000,1,COMPLETED_SUCCESSFULLY,951.370709,94.000000,1045.370709,950.373624,1044.373624,11.110358,19,-1.000000,""
175,w0,python3action_chameleon_3000,0.000000,1,-1.000000,1,COMPLETED_SUCCESSFULLY,1045.370724,0.000010,1045.370734,1045.370724,1045.370734,104537073.403213,19,-1.000000,""
82_updated,w0,python3action_linpack_6000_orion,0.997085,1,2000.000000,1,COMPLETED_SUCCESSFULLY,960.763462,106.000000,1066.763462,959.766377,1065.766377,10.054400,8,-1.000000,""
82,w0,python3action_linpack_6000,0.000000,1,-1.000000,1,COMPLETED_SUCCESSFULLY,1066.763477,0.000010,1066.763487,1066.763477,1066.763487,106676348.729094,8,-1.000000,""
179_updated,w0,python3action_chameleon_2000_troll,0.997085,1,2000.000000,1,COMPLETED_SUCCESSFULLY,1045.370754,39.500010,1084.870764,1044.373669,1083.873679,27.439833,19,-1.000000,""
179,w0,python3action_chameleon_2000,0.000000,1,-1.000000,1,COMPLETED_SUCCESSFULLY,1084.870779,0.000010,1084.870789,1084.870779,1084.870789,108487078.900201,19,-1.000000,""
python3action_image_processing_job8_4,w0,python3action_image_processing,0.997085,1,2000.000000,1,COMPLETED_SUCCESSFULLY,1084.870809,12.398880,1097.269689,1083.873724,1096.272604,88.417066,19,-1.000000,""
50_updated,w0,python3action_facedetection_SampleVideo_50mb_taurus,0.997085,1,2000.000000,1,COMPLETED_SUCCESSFULLY,1001.655938,134.600046,1136.255984,1000.658853,1135.258899,8.434313,10,-1.000000,""
50,w0,python3action_facedetection_SampleVideo_50mb,0.000000,1,-1.000000,1,COMPLETED_SUCCESSFULLY,1136.255999,0.000010,1136.256009,1136.255999,1136.256009,113625600.941242,10,-1.000000,""
90_updated,w0,python3action_facedetection_SampleVideo_30mb_nova,0.997085,1,2000.000000,1,COMPLETED_SUCCESSFULLY,993.902010,160.399990,1154.302000,992.904925,1153.304915,7.190181,2,-1.000000,""
90,w0,python3action_facedetection_SampleVideo_30mb,0.000000,1,-1.000000,1,COMPLETED_SUCCESSFULLY,1154.302015,0.000010,1154.302025,1154.302015,1154.302025,115430202.523907,2,-1.000000,""
8_updated,w0,python3action_imageprocessing_SampleImage_60mb_troll,0.997085,1,2000.000000,1,COMPLETED_SUCCESSFULLY,1097.269704,62.000000,1159.269704,1096.272619,1158.272619,18.681816,19,-1.000000,""
8,w0,python3action_imageprocessing_SampleImage_60mb,0.000000,1,-1.000000,1,COMPLETED_SUCCESSFULLY,1159.269719,0.000010,1159.269729,1159.269719,1159.269729,115926972.909582,19,-1.000000,""
102_updated,w0,python3action_linpack_6000_orion,0.997085,1,2000.000000,1,COMPLETED_SUCCESSFULLY,1066.763507,106.000000,1172.763507,1065.766422,1171.766422,11.054400,8,-1.000000,""
102,w0,python3action_linpack_6000,0.000000,1,-1.000000,1,COMPLETED_SUCCESSFULLY,1172.763522,0.000010,1172.763532,1172.763522,1172.763532,117276353.229697,8,-1.000000,""
22_updated,w0,python3action_imageprocessing_SampleImage_60mb_troll,0.997085,1,2000.000000,1,COMPLETED_SUCCESSFULLY,1159.269749,62.000000,1221.269749,1158.272664,1220.272664,19.681817,19,-1.000000,""
22,w0,python3action_imageprocessing_SampleImage_60mb,0.000000,1,-1.000000,1,COMPLETED_SUCCESSFULLY,1221.269764,0.000010,1221.269774,1221.269764,1221.269774,122126977.410184,19,-1.000000,""
54_updated,w0,python3action_facedetection_SampleVideo_50mb_taurus,0.997085,1,2000.000000,1,COMPLETED_SUCCESSFULLY,1136.256029,134.600046,1270.856076,1135.258944,1269.858991,9.434313,10,-1.000000,""
54,w0,python3action_facedetection_SampleVideo_50mb,0.000000,1,-1.000000,1,COMPLETED_SUCCESSFULLY,1270.856091,0.000010,1270.856101,1270.856091,1270.856101,127085610.100201,10,-1.000000,""
108_updated,w0,python3action_linpack_6000_orion,0.997085,1,2000.000000,1,COMPLETED_SUCCESSFULLY,1172.763552,106.000000,1278.763552,1171.766467,1277.766467,12.054401,8,-1.000000,""
108,w0,python3action_linpack_6000,0.000000,1,-1.000000,1,COMPLETED_SUCCESSFULLY,1278.763567,0.000010,1278.763577,1278.763567,1278.763577,127876357.730299,8,-1.000000,""
81_updated,w0,python3action_imageprocessing_SampleImage_60mb_troll,0.997085,1,2000.000000,1,COMPLETED_SUCCESSFULLY,1221.269794,62.000000,1283.269794,1220.272709,1282.272709,20.681818,19,-1.000000,""
81,w0,python3action_imageprocessing_SampleImage_60mb,0.000000,1,-1.000000,1,COMPLETED_SUCCESSFULLY,1283.269809,0.000010,1283.269819,1283.269809,1283.269819,128326981.910787,19,-1.000000,""
122_updated,w0,python3action_facedetection_SampleVideo_30mb_nova,0.997085,1,2000.000000,1,COMPLETED_SUCCESSFULLY,1154.302045,160.399990,1314.702035,1153.304960,1313.704950,8.190181,2,-1.000000,""
122,w0,python3action_facedetection_SampleVideo_30mb,0.000000,1,-1.000000,1,COMPLETED_SUCCESSFULLY,1314.702050,0.000010,1314.702060,1314.702050,1314.702060,131470206.047613,2,-1.000000,""
93_updated,w0,python3action_imageprocessing_SampleImage_60mb_troll,0.997085,1,2000.000000,1,COMPLETED_SUCCESSFULLY,1283.269839,62.000000,1345.269839,1282.272754,1344.272754,21.681819,19,-1.000000,""
93,w0,python3action_imageprocessing_SampleImage_60mb,0.000000,1,-1.000000,1,COMPLETED_SUCCESSFULLY,1345.269854,0.000010,1345.269864,1345.269854,1345.269864,134526986.411389,19,-1.000000,""
123_updated,w0,python3action_linpack_6000_orion,0.997085,1,2000.000000,1,COMPLETED_SUCCESSFULLY,1278.763597,106.000000,1384.763597,1277.766512,1383.766512,13.054401,8,-1.000000,""
123,w0,python3action_linpack_6000,0.000000,1,-1.000000,1,COMPLETED_SUCCESSFULLY,1384.763612,0.000010,1384.763622,1384.763612,1384.763622,138476362.230901,8,-1.000000,""
60_updated,w0,python3action_facedetection_SampleVideo_50mb_taurus,0.997085,1,2000.000000,1,COMPLETED_SUCCESSFULLY,1270.856121,134.600046,1405.456167,1269.859036,1404.459082,10.434314,10,-1.000000,""
60,w0,python3action_facedetection_SampleVideo_50mb,0.000000,1,-1.000000,1,COMPLETED_SUCCESSFULLY,1405.456182,0.000010,1405.456192,1405.456182,1405.456192,140545619.213881,10,-1.000000,""
109_updated,w0,python3action_imageprocessing_SampleImage_60mb_troll,0.997085,1,2000.000000,1,COMPLETED_SUCCESSFULLY,1345.269884,62.000000,1407.269884,1344.272799,1406.272799,22.681819,19,-1.000000,""
109,w0,python3action_imageprocessing_SampleImage_60mb,0.000000,1,-1.000000,1,COMPLETED_SUCCESSFULLY,1407.269899,0.000010,1407.269909,1407.269899,1407.269909,140726990.911992,19,-1.000000,""
127_updated,w0,python3action_imageprocessing_SampleImage_60mb_troll,0.997085,1,2000.000000,1,COMPLETED_SUCCESSFULLY,1407.269929,62.000000,1469.269929,1406.272844,1468.272844,23.681820,19,-1.000000,""
127,w0,python3action_imageprocessing_SampleImage_60mb,0.000000,1,-1.000000,1,COMPLETED_SUCCESSFULLY,1469.269944,0.000010,1469.269954,1469.269944,1469.269954,146926995.412594,19,-1.000000,""
136_updated,w0,python3action_facedetection_SampleVideo_30mb_nova,0.997085,1,2000.000000,1,COMPLETED_SUCCESSFULLY,1314.702080,160.399990,1475.102071,1313.704995,1474.104986,9.190181,2,-1.000000,""
136,w0,python3action_facedetection_SampleVideo_30mb,0.000000,1,-1.000000,1,COMPLETED_SUCCESSFULLY,1475.102086,0.000010,1475.102096,1475.102086,1475.102096,147510209.600201,2,-1.000000,""
125_updated,w0,python3action_linpack_6000_orion,0.997085,1,2000.000000,1,COMPLETED_SUCCESSFULLY,1384.763642,106.000000,1490.763642,1383.766557,1489.766557,14.054401,8,-1.000000,""
125,w0,python3action_linpack_6000,0.000000,1,-1.000000,1,COMPLETED_SUCCESSFULLY,1490.763657,0.000010,1490.763667,1490.763657,1490.763667,149076366.731504,8,-1.000000,""
137_updated,w0,python3action_imageprocessing_SampleImage_60mb_troll,0.997085,1,2000.000000,1,COMPLETED_SUCCESSFULLY,1469.269974,62.000000,1531.269974,1468.272889,1530.272889,24.681821,19,-1.000000,""
137,w0,python3action_imageprocessing_SampleImage_60mb,0.000000,1,-1.000000,1,COMPLETED_SUCCESSFULLY,1531.269989,0.000010,1531.269999,1531.269989,1531.269999,153126999.913196,19,-1.000000,""
126_updated,w0,python3action_facedetection_SampleVideo_50mb_taurus,0.997085,1,2000.000000,1,COMPLETED_SUCCESSFULLY,1405.456212,134.600046,1540.056258,1404.459127,1539.059173,11.434314,10,-1.000000,""
126,w0,python3action_facedetection_SampleVideo_50mb,0.000000,1,-1.000000,1,COMPLETED_SUCCESSFULLY,1540.056273,0.000010,1540.056283,1540.056273,1540.056283,154005628.327562,10,-1.000000,""
153_updated,w0,python3action_imageprocessing_SampleImage_60mb_troll,0.997085,1,2000.000000,1,COMPLETED_SUCCESSFULLY,1531.270019,62.000000,1593.270019,1530.272934,1592.272934,25.681822,19,-1.000000,""
153,w0,python3action_imageprocessing_SampleImage_60mb,0.000000,1,-1.000000,1,COMPLETED_SUCCESSFULLY,1593.270034,0.000010,1593.270044,1593.270034,1593.270044,159327004.413799,19,-1.000000,""
159_updated,w0,python3action_linpack_6000_orion,0.997085,1,2000.000000,1,COMPLETED_SUCCESSFULLY,1490.763687,106.000000,1596.763687,1489.766602,1595.766602,15.054402,8,-1.000000,""
159,w0,python3action_linpack_6000,0.000000,1,-1.000000,1,COMPLETED_SUCCESSFULLY,1596.763702,0.000010,1596.763712,1596.763702,1596.763712,159676371.232106,8,-1.000000,""
145_updated,w0,python3action_facedetection_SampleVideo_30mb_nova,0.997085,1,2000.000000,1,COMPLETED_SUCCESSFULLY,1475.102116,160.399990,1635.502106,1474.105031,1634.505021,10.190182,2,-1.000000,""
145,w0,python3action_facedetection_SampleVideo_30mb,0.000000,1,-1.000000,1,COMPLETED_SUCCESSFULLY,1635.502121,0.000010,1635.502131,1635.502121,1635.502131,163550213.123907,2,-1.000000,""
166_updated,w0,python3action_imageprocessing_SampleImage_60mb_troll,0.997085,1,2000.000000,1,COMPLETED_SUCCESSFULLY,1593.270064,62.000000,1655.270064,1592.272979,1654.272979,26.681822,19,-1.000000,""
166,w0,python3action_imageprocessing_SampleImage_60mb,0.000000,1,-1.000000,1,COMPLETED_SUCCESSFULLY,1655.270079,0.000010,1655.270089,1655.270079,1655.270089,165527008.914401,19,-1.000000,""
152_updated,w0,python3action_facedetection_SampleVideo_50mb_taurus,0.997085,1,2000.000000,1,COMPLETED_SUCCESSFULLY,1540.056303,134.600046,1674.656349,1539.059218,1673.659264,12.434314,10,-1.000000,""
152,w0,python3action_facedetection_SampleVideo_50mb,0.000000,1,-1.000000,1,COMPLETED_SUCCESSFULLY,1674.656364,0.000010,1674.656374,1674.656364,1674.656374,167465637.441242,10,-1.000000,""
189_updated,w0,python3action_linpack_6000_orion,0.997085,1,2000.000000,1,COMPLETED_SUCCESSFULLY,1596.763732,106.000000,1702.763732,1595.766647,1701.766647,16.054402,8,-1.000000,""
189,w0,python3action_linpack_6000,0.000000,1,-1.000000,1,COMPLETED_SUCCESSFULLY,1702.763747,0.000010,1702.763757,1702.763747,1702.763757,170276375.732709,8,-1.000000,""
168_updated,w0,python3action_imageprocessing_SampleImage_60mb_troll,0.997085,1,2000.000000,1,COMPLETED_SUCCESSFULLY,1655.270109,62.000000,1717.270109,1654.273024,1716.273024,27.681823,19,-1.000000,""
168,w0,python3action_imageprocessing_SampleImage_60mb,0.000000,1,-1.000000,1,COMPLETED_SUCCESSFULLY,1717.270124,0.000010,1717.270134,1717.270124,1717.270134,171727013.415004,19,-1.000000,""
155_updated,w0,python3action_facedetection_SampleVideo_30mb_nova,0.997085,1,2000.000000,1,COMPLETED_SUCCESSFULLY,1635.502151,160.399990,1795.902141,1634.505066,1794.905056,11.190182,2,-1.000000,""
155,w0,python3action_facedetection_SampleVideo_30mb,0.000000,1,-1.000000,1,COMPLETED_SUCCESSFULLY,1795.902156,0.000010,1795.902166,1795.902156,1795.902166,179590216.647613,2,-1.000000,""
167_updated,w0,python3action_facedetection_SampleVideo_50mb_taurus,0.997085,1,2000.000000,1,COMPLETED_SUCCESSFULLY,1674.656394,134.600046,1809.256441,1673.659309,1808.259356,13.434315,10,-1.000000,""
167,w0,python3action_facedetection_SampleVideo_50mb,0.000000,1,-1.000000,1,COMPLETED_SUCCESSFULLY,1809.256456,0.000010,1809.256466,1809.256456,1809.256466,180925646.600201,10,-1.000000,""
170_updated,w0,python3action_facedetection_SampleVideo_50mb_taurus,0.997085,1,2000.000000,1,COMPLETED_SUCCESSFULLY,1809.256486,134.600046,1943.856532,1808.259401,1942.859447,14.434315,10,-1.000000,""
170,w0,python3action_facedetection_SampleVideo_50mb,0.000000,1,-1.000000,1,COMPLETED_SUCCESSFULLY,1943.856547,0.000010,1943.856557,1943.856547,1943.856557,194385655.713881,10,-1.000000,""
162_updated,w0,python3action_facedetection_SampleVideo_30mb_nova,0.997085,1,2000.000000,1,COMPLETED_SUCCESSFULLY,1795.902186,160.399990,1956.302177,1794.905101,1955.305092,12.190182,2,-1.000000,""
162,w0,python3action_facedetection_SampleVideo_30mb,0.000000,1,-1.000000,1,COMPLETED_SUCCESSFULLY,1956.302192,0.000010,1956.302202,1956.302192,1956.302202,195630220.200201,2,-1.000000,""
198_updated,w0,python3action_facedetection_SampleVideo_50mb_taurus,0.997085,1,2000.000000,1,COMPLETED_SUCCESSFULLY,1943.856577,134.600046,2078.456623,1942.859492,2077.459538,15.434315,10,-1.000000,""
198,w0,python3action_facedetection_SampleVideo_50mb,0.000000,1,-1.000000,1,COMPLETED_SUCCESSFULLY,2078.456638,0.000010,2078.456648,2078.456638,2078.456648,207845664.827562,10,-1.000000,""
python3action_image_processing_job19_3,w0,python3action_image_processing_reduced_0.86,0.997085,1,2000.000000,1,COMPLETED_SUCCESSFULLY,2078.456668,9.731413,2088.188081,2077.459583,2087.190996,214.479749,10,-1.000000,""
190_updated,w0,python3action_facedetection_SampleVideo_30mb_nova,0.997085,1,2000.000000,1,COMPLETED_SUCCESSFULLY,1956.302222,160.399990,2116.702212,1955.305137,2115.705127,13.190182,2,-1.000000,""
190,w0,python3action_facedetection_SampleVideo_30mb,0.000000,1,-1.000000,1,COMPLETED_SUCCESSFULLY,2116.702227,0.000010,2116.702237,2116.702227,2116.702237,211670223.723907,2,-1.000000,""
python3action_floatoperation_job10_1,w0,python3action_floatoperation,0.997085,1,2000.000000,1,COMPLETED_SUCCESSFULLY,2116.702257,2.439945,2119.142203,2115.705172,2118.145118,868.111725,2,-1.000000,""
19_updated,w0,python3action_imageprocessing_SampleImage_40mb_taurus,0.997085,1,2000.000000,1,COMPLETED_SUCCESSFULLY,2088.188096,32.600046,2120.788142,2087.191011,2119.791057,65.024174,10,-1.000000,""
19,w0,python3action_imageprocessing_SampleImage_40mb,0.000000,1,-1.000000,1,COMPLETED_SUCCESSFULLY,2120.788157,0.000010,2120.788167,2120.788157,2120.788167,212078816.729427,10,-1.000000,""
24_updated,w0,python3action_imageprocessing_SampleImage_40mb_taurus,0.997085,1,2000.000000,1,COMPLETED_SUCCESSFULLY,2120.788187,32.600046,2153.388233,2119.791102,2152.391148,66.024175,10,-1.000000,""
24,w0,python3action_imageprocessing_SampleImage_40mb,0.000000,1,-1.000000,1,COMPLETED_SUCCESSFULLY,2153.388248,0.000010,2153.388258,2153.388248,2153.388258,215338825.843108,10,-1.000000,""
35_updated,w0,python3action_imageprocessing_SampleImage_40mb_taurus,0.997085,1,2000.000000,1,COMPLETED_SUCCESSFULLY,2153.388278,32.600046,2185.988325,2152.391193,2184.991240,67.024176,10,-1.000000,""
35,w0,python3action_imageprocessing_SampleImage_40mb,0.000000,1,-1.000000,1,COMPLETED_SUCCESSFULLY,2185.988340,0.000010,2185.988350,2185.988340,2185.988350,218598835.000201,10,-1.000000,""
37_updated,w0,python3action_imageprocessing_SampleImage_40mb_taurus,0.997085,1,2000.000000,1,COMPLETED_SUCCESSFULLY,2185.988370,32.600046,2218.588416,2184.991285,2217.591331,68.024178,10,-1.000000,""
37,w0,python3action_imageprocessing_SampleImage_40mb,0.000000,1,-1.000000,1,COMPLETED_SUCCESSFULLY,2218.588431,0.000010,2218.588441,2218.588431,2218.588441,221858844.113881,10,-1.000000,""
46_updated,w0,python3action_imageprocessing_SampleImage_40mb_taurus,0.997085,1,2000.000000,1,COMPLETED_SUCCESSFULLY,2218.588461,32.600046,2251.188507,2217.591376,2250.191422,69.024179,10,-1.000000,""
46,w0,python3action_imageprocessing_SampleImage_40mb,0.000000,1,-1.000000,1,COMPLETED_SUCCESSFULLY,2251.188522,0.000010,2251.188532,2251.188522,2251.188532,225118853.227562,10,-1.000000,""
10_updated,w0,python3action_floatoperation_200000000_nova,0.997085,1,2000.000000,1,COMPLETED_SUCCESSFULLY,2119.142218,135.399990,2254.542208,2118.145133,2253.545123,16.643614,2,-1.000000,""
10,w0,python3action_floatoperation_200000000,0.000000,1,-1.000000,1,COMPLETED_SUCCESSFULLY,2254.542223,0.000010,2254.542233,2254.542223,2254.542233,225454223.323506,2,-1.000000,""
52_updated,w0,python3action_imageprocessing_SampleImage_40mb_taurus,0.997085,1,2000.000000,1,COMPLETED_SUCCESSFULLY,2251.188552,32.600046,2283.788598,2250.191467,2282.791513,70.024180,10,-1.000000,""
52,w0,python3action_imageprocessing_SampleImage_40mb,0.000000,1,-1.000000,1,COMPLETED_SUCCESSFULLY,2283.788613,0.000010,2283.788623,2283.788613,2283.788623,228378862.341243,10,-1.000000,""
58_updated,w0,python3action_imageprocessing_SampleImage_40mb_taurus,0.997085,1,2000.000000,1,COMPLETED_SUCCESSFULLY,2283.788643,32.600046,2316.388690,2282.791558,2315.391605,71.024182,10,-1.000000,""
58,w0,python3action_imageprocessing_SampleImage_40mb,0.000000,1,-1.000000,1,COMPLETED_SUCCESSFULLY,2316.388705,0.000010,2316.388715,2316.388705,2316.388715,231638871.500201,10,-1.000000,""
83_updated,w0,python3action_imageprocessing_SampleImage_40mb_taurus,0.997085,1,2000.000000,1,COMPLETED_SUCCESSFULLY,2316.388735,32.600046,2348.988781,2315.391650,2347.991696,72.024183,10,-1.000000,""
83,w0,python3action_imageprocessing_SampleImage_40mb,0.000000,1,-1.000000,1,COMPLETED_SUCCESSFULLY,2348.988796,0.000010,2348.988806,2348.988796,2348.988806,234898880.613881,10,-1.000000,""
86_updated,w0,python3action_imageprocessing_SampleImage_40mb_taurus,0.997085,1,2000.000000,1,COMPLETED_SUCCESSFULLY,2348.988826,32.600046,2381.588872,2347.991741,2380.591787,73.024185,10,-1.000000,""
86,w0,python3action_imageprocessing_SampleImage_40mb,0.000000,1,-1.000000,1,COMPLETED_SUCCESSFULLY,2381.588887,0.000010,2381.588897,2381.588887,2381.588897,238158889.727562,10,-1.000000,""
12_updated,w0,python3action_floatoperation_200000000_nova,0.997085,1,2000.000000,1,COMPLETED_SUCCESSFULLY,2254.542253,135.399990,2389.942243,2253.545168,2388.945158,17.643614,2,-1.000000,""
12,w0,python3action_floatoperation_200000000,0.000000,1,-1.000000,1,COMPLETED_SUCCESSFULLY,2389.942258,0.000010,2389.942268,2389.942258,2389.942268,238994226.847212,2,-1.000000,""
95_updated,w0,python3action_imageprocessing_SampleImage_40mb_taurus,0.997085,1,2000.000000,1,COMPLETED_SUCCESSFULLY,2381.588917,32.600046,2414.188963,2380.591832,2413.191878,74.024186,10,-1.000000,""
95,w0,python3action_imageprocessing_SampleImage_40mb,0.000000,1,-1.000000,1,COMPLETED_SUCCESSFULLY,2414.188978,0.000010,2414.188988,2414.188978,2414.188988,241418898.841243,10,-1.000000,""
144_updated,w0,python3action_imageprocessing_SampleImage_40mb_taurus,0.997085,1,2000.000000,1,COMPLETED_SUCCESSFULLY,2414.189008,32.600046,2446.789055,2413.191923,2445.791970,75.024187,10,-1.000000,""
144,w0,python3action_imageprocessing_SampleImage_40mb,0.000000,1,-1.000000,1,COMPLETED_SUCCESSFULLY,2446.789070,0.000010,2446.789080,2446.789070,2446.789080,244678908.000201,10,-1.000000,""
160_updated,w0,python3action_imageprocessing_SampleImage_40mb_taurus,0.997085,1,2000.000000,1,COMPLETED_SUCCESSFULLY,2446.789100,32.600046,2479.389146,2445.792015,2478.392061,76.024189,10,-1.000000,""
160,w0,python3action_imageprocessing_SampleImage_40mb,0.000000,1,-1.000000,1,COMPLETED_SUCCESSFULLY,2479.389161,0.000010,2479.389171,2479.389161,2479.389171,247938917.113881,10,-1.000000,""
176_updated,w0,python3action_imageprocessing_SampleImage_40mb_taurus,0.997085,1,2000.000000,1,COMPLETED_SUCCESSFULLY,2479.389191,32.600046,2511.989237,2478.392106,2510.992152,77.024190,10,-1.000000,""
176,w0,python3action_imageprocessing_SampleImage_40mb,0.000000,1,-1.000000,1,COMPLETED_SUCCESSFULLY,2511.989252,0.000010,2511.989262,2511.989252,2511.989262,251198926.227562,10,-1.000000,""
15_updated,w0,python3action_floatoperation_200000000_nova,0.997085,1,2000.000000,1,COMPLETED_SUCCESSFULLY,2389.942288,135.399990,2525.342279,2388.945203,2524.345194,18.643614,2,-1.000000,""
15,w0,python3action_floatoperation_200000000,0.000000,1,-1.000000,1,COMPLETED_SUCCESSFULLY,2525.342294,0.000010,2525.342304,2525.342294,2525.342304,252534230.400201,2,-1.000000,""
197_updated,w0,python3action_imageprocessing_SampleImage_40mb_taurus,0.997085,1,2000.000000,1,COMPLETED_SUCCESSFULLY,2511.989282,32.600046,2544.589328,2510.992197,2543.592243,78.024192,10,-1.000000,""
197,w0,python3action_imageprocessing_SampleImage_40mb,0.000000,1,-1.000000,1,COMPLETED_SUCCESSFULLY,2544.589343,0.000010,2544.589353,2544.589343,2544.589353,254458935.341243,10,-1.000000,""
python3action_linpack_job173_3,w0,python3action_linpack_reduced_0.85,0.997085,1,2000.000000,1,COMPLETED_SUCCESSFULLY,2544.589373,0.864139,2545.453513,2543.592288,2544.456428,2944.498720,10,-1.000000,""
42_updated,w0,python3action_floatoperation_200000000_nova,0.997085,1,2000.000000,1,COMPLETED_SUCCESSFULLY,2525.342324,135.399990,2660.742314,2524.345239,2659.745229,19.643615,2,-1.000000,""
42,w0,python3action_floatoperation_200000000,0.000000,1,-1.000000,1,COMPLETED_SUCCESSFULLY,2660.742329,0.000010,2660.742339,2660.742329,2660.742339,266074233.923907,2,-1.000000,""
173_updated,w0,python3action_linpack_6000_taurus,0.997085,1,2000.000000,1,COMPLETED_SUCCESSFULLY,2545.453528,157.600046,2703.053574,2544.456443,2702.056489,17.145023,10,-1.000000,""
173,w0,python3action_linpack_6000,0.000000,1,-1.000000,1,COMPLETED_SUCCESSFULLY,2703.053589,0.000010,2703.053599,2703.053589,2703.053599,270305359.913480,10,-1.000000,""
python3action_modeltraining_job32_3,w0,python3action_modeltraining_reduced_1.88,0.997085,1,2000.000000,1,COMPLETED_SUCCESSFULLY,2703.053619,0.000000,2703.053619,2702.056534,2702.056534,23393248647195.843750,10,-1.000000,""
61_updated,w0,python3action_floatoperation_100000000_nova,0.997085,1,2000.000000,1,COMPLETED_SUCCESSFULLY,2660.742359,66.200020,2726.942379,2659.745274,2725.945294,41.177409,2,-1.000000,""
61,w0,python3action_floatoperation_100000000,0.000000,1,-1.000000,1,COMPLETED_SUCCESSFULLY,2726.942394,0.000010,2726.942404,2726.942394,2726.942404,272694240.400201,2,-1.000000,""
32_updated,w0,python3action_modeltraining_reviews100mb_taurus,0.997085,1,2000.000000,1,COMPLETED_SUCCESSFULLY,2703.053649,88.199977,2791.253626,2702.056564,2790.256541,31.635570,10,-1.000000,""
32,w0,python3action_modeltraining_reviews100mb,0.000000,1,-1.000000,1,COMPLETED_SUCCESSFULLY,2791.253641,0.000010,2791.253651,2791.253641,2791.253651,279125365.107945,10,-1.000000,""
python3action_video_processing_job4_3,w0,python3action_video_processing_reduced_2.8,0.997085,1,2000.000000,1,COMPLETED_SUCCESSFULLY,2791.253671,0.000000,2791.253671,2790.256586,2790.256586,24156846936043.019531,10,-1.000000,""
63_updated,w0,python3action_floatoperation_100000000_nova,0.997085,1,2000.000000,1,COMPLETED_SUCCESSFULLY,2726.942424,66.200020,2793.142444,2725.945339,2792.145359,42.177410,2,-1.000000,""
63,w0,python3action_floatoperation_100000000,0.000000,1,-1.000000,1,COMPLETED_SUCCESSFULLY,2793.142459,0.000010,2793.142469,2793.142459,2793.142469,279314246.900201,2,-1.000000,""
69_updated,w0,python3action_floatoperation_200000000_nova,0.997085,1,2000.000000,1,COMPLETED_SUCCESSFULLY,2793.142489,135.399990,2928.542479,2792.145404,2927.545394,21.621459,2,-1.000000,""
69,w0,python3action_floatoperation_200000000,0.000000,1,-1.000000,1,COMPLETED_SUCCESSFULLY,2928.542494,0.000010,2928.542504,2928.542494,2928.542504,292854250.423907,2,-1.000000,""
4_updated,w0,python3action_videoprocessing_SampleVideo_50mb_taurus,0.997085,1,2000.000000,1,COMPLETED_SUCCESSFULLY,2791.253701,154.250029,2945.503730,2790.256616,2944.506645,19.089181,10,-1.000000,""
4,w0,python3action_videoprocessing_SampleVideo_50mb,0.000000,1,-1.000000,1,COMPLETED_SUCCESSFULLY,2945.503745,0.000010,2945.503755,2945.503745,2945.503755,294550375.500201,10,-1.000000,""
70_updated,w0,python3action_floatoperation_200000000_nova,0.997085,1,2000.000000,1,COMPLETED_SUCCESSFULLY,2928.542524,135.399990,3063.942514,2927.545439,3062.945429,22.621460,2,-1.000000,""
70,w0,python3action_floatoperation_200000000,0.000000,1,-1.000000,1,COMPLETED_SUCCESSFULLY,3063.942529,0.000010,3063.942539,3063.942529,3063.942539,306394253.947613,2,-1.000000,""
7_updated,w0,python3action_videoprocessing_SampleVideo_50mb_taurus,0.997085,1,2000.000000,1,COMPLETED_SUCCESSFULLY,2945.503775,154.250029,3099.753804,2944.506690,3098.756719,20.089181,10,-1.000000,""
7,w0,python3action_videoprocessing_SampleVideo_50mb,0.000000,1,-1.000000,1,COMPLETED_SUCCESSFULLY,3099.753819,0.000010,3099.753829,3099.753819,3099.753829,309975382.900201,10,-1.000000,""
94_updated,w0,python3action_floatoperation_100000000_nova,0.997085,1,2000.000000,1,COMPLETED_SUCCESSFULLY,3063.942559,66.200020,3130.142579,3062.945474,3129.145494,47.268045,2,-1.000000,""
94,w0,python3action_floatoperation_100000000,0.000000,1,-1.000000,1,COMPLETED_SUCCESSFULLY,3130.142594,0.000010,3130.142604,3130.142594,3130.142604,313014260.402008,2,-1.000000,""
20_updated,w0,python3action_videoprocessing_SampleVideo_50mb_taurus,0.997085,1,2000.000000,1,COMPLETED_SUCCESSFULLY,3099.753849,154.250029,3254.003878,3098.756764,3253.006793,21.089181,10,-1.000000,""
20,w0,python3action_videoprocessing_SampleVideo_50mb,0.000000,1,-1.000000,1,COMPLETED_SUCCESSFULLY,3254.003893,0.000010,3254.003903,3254.003893,3254.003903,325400390.300201,10,-1.000000,""
99_updated,w0,python3action_floatoperation_200000000_nova,0.997085,1,2000.000000,1,COMPLETED_SUCCESSFULLY,3130.142624,135.399990,3265.542614,3129.145539,3264.545529,24.110382,2,-1.000000,""
99,w0,python3action_floatoperation_200000000,0.000000,1,-1.000000,1,COMPLETED_SUCCESSFULLY,3265.542629,0.000010,3265.542639,3265.542629,3265.542639,326554263.925715,2,-1.000000,""
114_updated,w0,python3action_floatoperation_100000000_nova,0.997085,1,2000.000000,1,COMPLETED_SUCCESSFULLY,3265.542659,66.200020,3331.742679,3264.545574,3330.745594,50.313363,2,-1.000000,""
114,w0,python3action_floatoperation_100000000,0.000000,1,-1.000000,1,COMPLETED_SUCCESSFULLY,3331.742694,0.000010,3331.742704,3331.742694,3331.742704,333174270.400201,2,-1.000000,""
129_updated,w0,python3action_floatoperation_100000000_nova,0.997085,1,2000.000000,1,COMPLETED_SUCCESSFULLY,3331.742724,66.200020,3397.942744,3330.745639,3396.945659,51.313363,2,-1.000000,""
129,w0,python3action_floatoperation_100000000,0.000000,1,-1.000000,1,COMPLETED_SUCCESSFULLY,3397.942759,0.000010,3397.942769,3397.942759,3397.942769,339794276.900201,2,-1.000000,""
26_updated,w0,python3action_videoprocessing_SampleVideo_50mb_taurus,0.997085,1,2000.000000,1,COMPLETED_SUCCESSFULLY,3254.003923,154.250029,3408.253952,3253.006838,3407.256867,22.089181,10,-1.000000,""
26,w0,python3action_videoprocessing_SampleVideo_50mb,0.000000,1,-1.000000,1,COMPLETED_SUCCESSFULLY,3408.253967,0.000010,3408.253977,3408.253967,3408.253977,340825397.700201,10,-1.000000,""
139_updated,w0,python3action_floatoperation_100000000_nova,0.997085,1,2000.000000,1,COMPLETED_SUCCESSFULLY,3397.942789,66.200020,3464.142809,3396.945704,3463.145724,52.313364,2,-1.000000,""
139,w0,python3action_floatoperation_100000000,0.000000,1,-1.000000,1,COMPLETED_SUCCESSFULLY,3464.142824,0.000010,3464.142834,3464.142824,3464.142834,346414283.400201,2,-1.000000,""
142_updated,w0,python3action_floatoperation_100000000_nova,0.997085,1,2000.000000,1,COMPLETED_SUCCESSFULLY,3464.142854,66.200020,3530.342874,3463.145769,3529.345789,53.313365,2,-1.000000,""
142,w0,python3action_floatoperation_100000000,0.000000,1,-1.000000,1,COMPLETED_SUCCESSFULLY,3530.342889,0.000010,3530.342899,3530.342889,3530.342899,353034289.900201,2,-1.000000,""
34_updated,w0,python3action_videoprocessing_SampleVideo_50mb_taurus,0.997085,1,2000.000000,1,COMPLETED_SUCCESSFULLY,3408.253997,154.250029,3562.504026,3407.256912,3561.506941,23.089182,10,-1.000000,""
34,w0,python3action_videoprocessing_SampleVideo_50mb,0.000000,1,-1.000000,1,COMPLETED_SUCCESSFULLY,3562.504041,0.000010,3562.504051,3562.504041,3562.504051,356250405.100201,10,-1.000000,""
143_updated,w0,python3action_floatoperation_100000000_nova,0.997085,1,2000.000000,1,COMPLETED_SUCCESSFULLY,3530.342919,66.200020,3596.542939,3529.345834,3595.545854,54.313365,2,-1.000000,""
143,w0,python3action_floatoperation_100000000,0.000000,1,-1.000000,1,COMPLETED_SUCCESSFULLY,3596.542954,0.000010,3596.542964,3596.542954,3596.542964,359654296.400201,2,-1.000000,""
148_updated,w0,python3action_floatoperation_100000000_nova,0.997085,1,2000.000000,1,COMPLETED_SUCCESSFULLY,3596.542984,66.200020,3662.743004,3595.545899,3661.745919,55.313366,2,-1.000000,""
148,w0,python3action_floatoperation_100000000,0.000000,1,-1.000000,1,COMPLETED_SUCCESSFULLY,3662.743019,0.000010,3662.743029,3662.743019,3662.743029,366274302.900201,2,-1.000000,""
47_updated,w0,python3action_videoprocessing_SampleVideo_50mb_taurus,0.997085,1,2000.000000,1,COMPLETED_SUCCESSFULLY,3562.504071,154.250029,3716.754100,3561.506986,3715.757015,24.089182,10,-1.000000,""
47,w0,python3action_videoprocessing_SampleVideo_50mb,0.000000,1,-1.000000,1,COMPLETED_SUCCESSFULLY,3716.754115,0.000010,3716.754125,3716.754115,3716.754125,371675412.500201,10,-1.000000,""
156_updated,w0,python3action_floatoperation_200000000_nova,0.997085,1,2000.000000,1,COMPLETED_SUCCESSFULLY,3662.743049,135.399990,3798.143039,3661.745964,3797.145954,28.043916,2,-1.000000,""
156,w0,python3action_floatoperation_200000000,0.000000,1,-1.000000,1,COMPLETED_SUCCESSFULLY,3798.143054,0.000010,3798.143064,3798.143054,3798.143064,379814306.423907,2,-1.000000,""
66_updated,w0,python3action_videoprocessing_SampleVideo_50mb_taurus,0.997085,1,2000.000000,1,COMPLETED_SUCCESSFULLY,3716.754145,154.250029,3871.004174,3715.757060,3870.007089,25.089182,10,-1.000000,""
66,w0,python3action_videoprocessing_SampleVideo_50mb,0.000000,1,-1.000000,1,COMPLETED_SUCCESSFULLY,3871.004189,0.000010,3871.004199,3871.004189,3871.004199,387100419.900201,10,-1.000000,""
163_updated,w0,python3action_floatoperation_200000000_nova,0.997085,1,2000.000000,1,COMPLETED_SUCCESSFULLY,3798.143084,135.399990,3933.543074,3797.145999,3932.545989,29.043916,2,-1.000000,""
163,w0,python3action_floatoperation_200000000,0.000000,1,-1.000000,1,COMPLETED_SUCCESSFULLY,3933.543089,0.000010,3933.543099,3933.543089,3933.543099,393354309.947613,2,-1.000000,""
80_updated,w0,python3action_videoprocessing_SampleVideo_50mb_taurus,0.997085,1,2000.000000,1,COMPLETED_SUCCESSFULLY,3871.004219,154.250029,4025.254248,3870.007134,4024.257163,26.089183,10,-1.000000,""
80,w0,python3action_videoprocessing_SampleVideo_50mb,0.000000,1,-1.000000,1,COMPLETED_SUCCESSFULLY,4025.254263,0.000010,4025.254273,4025.254263,4025.254273,402525427.300201,10,-1.000000,""
169_updated,w0,python3action_floatoperation_200000000_nova,0.997085,1,2000.000000,1,COMPLETED_SUCCESSFULLY,3933.543119,135.399990,4068.943110,3932.546034,4067.946025,30.043917,2,-1.000000,""
169,w0,python3action_floatoperation_200000000,0.000000,1,-1.000000,1,COMPLETED_SUCCESSFULLY,4068.943125,0.000010,4068.943135,4068.943125,4068.943135,406894313.500201,2,-1.000000,""
177_updated,w0,python3action_floatoperation_100000000_nova,0.997085,1,2000.000000,1,COMPLETED_SUCCESSFULLY,4068.943155,66.200020,4135.143175,4067.946070,4134.146090,62.449318,2,-1.000000,""
177,w0,python3action_floatoperation_100000000,0.000000,1,-1.000000,1,COMPLETED_SUCCESSFULLY,4135.143190,0.000010,4135.143200,4135.143190,4135.143200,413514320.000201,2,-1.000000,""
85_updated,w0,python3action_videoprocessing_SampleVideo_50mb_taurus,0.997085,1,2000.000000,1,COMPLETED_SUCCESSFULLY,4025.254293,154.250029,4179.504322,4024.257208,4178.507237,27.089183,10,-1.000000,""
85,w0,python3action_videoprocessing_SampleVideo_50mb,0.000000,1,-1.000000,1,COMPLETED_SUCCESSFULLY,4179.504337,0.000010,4179.504347,4179.504337,4179.504347,417950434.700201,10,-1.000000,""
187_updated,w0,python3action_floatoperation_100000000_nova,0.997085,1,2000.000000,1,COMPLETED_SUCCESSFULLY,4135.143220,66.200020,4201.343240,4134.146135,4200.346155,63.449319,2,-1.000000,""
187,w0,python3action_floatoperation_100000000,0.000000,1,-1.000000,1,COMPLETED_SUCCESSFULLY,4201.343255,0.000010,4201.343265,4201.343255,4201.343265,420134326.500201,2,-1.000000,""
191_updated,w0,python3action_floatoperation_100000000_nova,0.997085,1,2000.000000,1,COMPLETED_SUCCESSFULLY,4201.343285,66.200020,4267.543305,4200.346200,4266.546220,64.449320,2,-1.000000,""
191,w0,python3action_floatoperation_100000000,0.000000,1,-1.000000,1,COMPLETED_SUCCESSFULLY,4267.543320,0.000010,4267.543330,4267.543320,4267.543330,426754333.000201,2,-1.000000,""
python3action_linpack_job13_1,w0,python3action_linpack,0.997085,1,2000.000000,1,COMPLETED_SUCCESSFULLY,4267.543350,2.439945,4269.983295,4266.546265,4268.986210,1749.623740,2,-1.000000,""
13_updated,w0,python3action_linpack_5000_nova,0.997085,1,2000.000000,1,COMPLETED_SUCCESSFULLY,4269.983310,34.600010,4304.583320,4268.986225,4303.586235,124.381070,2,-1.000000,""
13,w0,python3action_linpack_5000,0.000000,1,-1.000000,1,COMPLETED_SUCCESSFULLY,4304.583335,0.000010,4304.583345,4304.583335,4304.583345,430458334.507280,2,-1.000000,""
116_updated,w0,python3action_videoprocessing_SampleVideo_50mb_taurus,0.997085,1,2000.000000,1,COMPLETED_SUCCESSFULLY,4179.504367,154.250029,4333.754396,4178.507282,4332.757311,28.089183,10,-1.000000,""
116,w0,python3action_videoprocessing_SampleVideo_50mb,0.000000,1,-1.000000,1,COMPLETED_SUCCESSFULLY,4333.754411,0.000010,4333.754421,4333.754411,4333.754421,433375442.100201,10,-1.000000,""
17_updated,w0,python3action_linpack_5000_nova,0.997085,1,2000.000000,1,COMPLETED_SUCCESSFULLY,4304.583365,34.600010,4339.183375,4303.586280,4338.186290,125.381071,2,-1.000000,""
17,w0,python3action_linpack_5000,0.000000,1,-1.000000,1,COMPLETED_SUCCESSFULLY,4339.183390,0.000010,4339.183400,4339.183390,4339.183400,433918340.000201,2,-1.000000,""
21_updated,w0,python3action_linpack_5000_nova,0.997085,1,2000.000000,1,COMPLETED_SUCCESSFULLY,4339.183420,34.600010,4373.783430,4338.186335,4372.786345,126.381073,2,-1.000000,""
21,w0,python3action_linpack_5000,0.000000,1,-1.000000,1,COMPLETED_SUCCESSFULLY,4373.783445,0.000010,4373.783455,4373.783445,4373.783455,437378345.500201,2,-1.000000,""
48_updated,w0,python3action_linpack_5000_nova,0.997085,1,2000.000000,1,COMPLETED_SUCCESSFULLY,4373.783475,34.600010,4408.383485,4372.786390,4407.386400,127.381074,2,-1.000000,""
48,w0,python3action_linpack_5000,0.000000,1,-1.000000,1,COMPLETED_SUCCESSFULLY,4408.383500,0.000010,4408.383510,4408.383500,4408.383510,440838351.000201,2,-1.000000,""
51_updated,w0,python3action_linpack_5000_nova,0.997085,1,2000.000000,1,COMPLETED_SUCCESSFULLY,4408.383530,34.600010,4442.983540,4407.386445,4441.986455,128.381075,2,-1.000000,""
51,w0,python3action_linpack_5000,0.000000,1,-1.000000,1,COMPLETED_SUCCESSFULLY,4442.983555,0.000010,4442.983565,4442.983555,4442.983565,444298356.500201,2,-1.000000,""
84_updated,w0,python3action_linpack_5000_nova,0.997085,1,2000.000000,1,COMPLETED_SUCCESSFULLY,4442.983585,34.600010,4477.583595,4441.986500,4476.586510,129.381076,2,-1.000000,""
84,w0,python3action_linpack_5000,0.000000,1,-1.000000,1,COMPLETED_SUCCESSFULLY,4477.583610,0.000010,4477.583620,4477.583610,4477.583620,447758362.000201,2,-1.000000,""
138_updated,w0,python3action_videoprocessing_SampleVideo_50mb_taurus,0.997085,1,2000.000000,1,COMPLETED_SUCCESSFULLY,4333.754441,154.250029,4488.004470,4332.757356,4487.007385,29.089183,10,-1.000000,""
138,w0,python3action_videoprocessing_SampleVideo_50mb,0.000000,1,-1.000000,1,COMPLETED_SUCCESSFULLY,4488.004485,0.000010,4488.004495,4488.004485,4488.004495,448800449.500201,10,-1.000000,""
91_updated,w0,python3action_linpack_5000_nova,0.997085,1,2000.000000,1,COMPLETED_SUCCESSFULLY,4477.583640,34.600010,4512.183650,4476.586555,4511.186565,130.381078,2,-1.000000,""
91,w0,python3action_linpack_5000,0.000000,1,-1.000000,1,COMPLETED_SUCCESSFULLY,4512.183665,0.000010,4512.183675,4512.183665,4512.183675,451218367.500201,2,-1.000000,""
98_updated,w0,python3action_linpack_5000_nova,0.997085,1,2000.000000,1,COMPLETED_SUCCESSFULLY,4512.183695,34.600010,4546.783705,4511.186610,4545.786620,131.381079,2,-1.000000,""
98,w0,python3action_linpack_5000,0.000000,1,-1.000000,1,COMPLETED_SUCCESSFULLY,4546.783720,0.000010,4546.783730,4546.783720,4546.783730,454678373.000201,2,-1.000000,""
104_updated,w0,python3action_linpack_5000_nova,0.997085,1,2000.000000,1,COMPLETED_SUCCESSFULLY,4546.783750,34.600010,4581.383760,4545.786665,4580.386675,132.381080,2,-1.000000,""
104,w0,python3action_linpack_5000,0.000000,1,-1.000000,1,COMPLETED_SUCCESSFULLY,4581.383775,0.000010,4581.383785,4581.383775,4581.383785,458138378.500201,2,-1.000000,""
106_updated,w0,python3action_linpack_5000_nova,0.997085,1,2000.000000,1,COMPLETED_SUCCESSFULLY,4581.383805,34.600010,4615.983815,4580.386720,4614.986730,133.381082,2,-1.000000,""
106,w0,python3action_linpack_5000,0.000000,1,-1.000000,1,COMPLETED_SUCCESSFULLY,4615.983830,0.000010,4615.983840,4615.983830,4615.983840,461598384.000201,2,-1.000000,""
150_updated,w0,python3action_videoprocessing_SampleVideo_50mb_taurus,0.997085,1,2000.000000,1,COMPLETED_SUCCESSFULLY,4488.004515,154.250029,4642.254544,4487.007430,4641.257459,30.089184,10,-1.000000,""
150,w0,python3action_videoprocessing_SampleVideo_50mb,0.000000,1,-1.000000,1,COMPLETED_SUCCESSFULLY,4642.254559,0.000010,4642.254569,4642.254559,4642.254569,464225456.900201,10,-1.000000,""
110_updated,w0,python3action_linpack_5000_nova,0.997085,1,2000.000000,1,COMPLETED_SUCCESSFULLY,4615.983860,34.600010,4650.583870,4614.986775,4649.586785,134.381083,2,-1.000000,""
110,w0,python3action_linpack_5000,0.000000,1,-1.000000,1,COMPLETED_SUCCESSFULLY,4650.583885,0.000010,4650.583895,4650.583885,4650.583895,465058389.500201,2,-1.000000,""
115_updated,w0,python3action_linpack_5000_nova,0.997085,1,2000.000000,1,COMPLETED_SUCCESSFULLY,4650.583915,34.600010,4685.183925,4649.586830,4684.186840,135.381084,2,-1.000000,""
115,w0,python3action_linpack_5000,0.000000,1,-1.000000,1,COMPLETED_SUCCESSFULLY,4685.183940,0.000010,4685.183950,4685.183940,4685.183950,468518395.000201,2,-1.000000,""
121_updated,w0,python3action_linpack_5000_nova,0.997085,1,2000.000000,1,COMPLETED_SUCCESSFULLY,4685.183970,34.600010,4719.783980,4684.186885,4718.786895,136.381086,2,-1.000000,""
121,w0,python3action_linpack_5000,0.000000,1,-1.000000,1,COMPLETED_SUCCESSFULLY,4719.783995,0.000010,4719.784005,4719.783995,4719.784005,471978400.500201,2,-1.000000,""
133_updated,w0,python3action_linpack_5000_nova,0.997085,1,2000.000000,1,COMPLETED_SUCCESSFULLY,4719.784025,34.600010,4754.384035,4718.786940,4753.386950,137.381087,2,-1.000000,""
133,w0,python3action_linpack_5000,0.000000,1,-1.000000,1,COMPLETED_SUCCESSFULLY,4754.384050,0.000010,4754.384060,4754.384050,4754.384060,475438406.000201,2,-1.000000,""
146_updated,w0,python3action_linpack_5000_nova,0.997085,1,2000.000000,1,COMPLETED_SUCCESSFULLY,4754.384080,34.600010,4788.984090,4753.386995,4787.987005,138.381088,2,-1.000000,""
146,w0,python3action_linpack_5000,0.000000,1,-1.000000,1,COMPLETED_SUCCESSFULLY,4788.984105,0.000010,4788.984115,4788.984105,4788.984115,478898411.500201,2,-1.000000,""
python3action_modeltraining_job0_1,w0,python3action_modeltraining_reduced_0.94,0.997085,1,2000.000000,1,COMPLETED_SUCCESSFULLY,4788.984135,0.000000,4788.984135,4787.987050,4787.987050,97489767317084.906250,2,-1.000000,""
165_updated,w0,python3action_videoprocessing_SampleVideo_50mb_taurus,0.997085,1,2000.000000,1,COMPLETED_SUCCESSFULLY,4642.254589,154.250029,4796.504618,4641.257504,4795.507533,31.089184,10,-1.000000,""
165,w0,python3action_videoprocessing_SampleVideo_50mb,0.000000,1,-1.000000,1,COMPLETED_SUCCESSFULLY,4796.504633,0.000010,4796.504643,4796.504633,4796.504643,479650464.300201,10,-1.000000,""
0_updated,w0,python3action_modeltraining_reviews100mb_nova,0.997085,1,2000.000000,1,COMPLETED_SUCCESSFULLY,4788.984165,79.600010,4868.584175,4787.987080,4867.587090,61.150584,2,-1.000000,""
0,w0,python3action_modeltraining_reviews100mb,0.000000,1,-1.000000,1,COMPLETED_SUCCESSFULLY,4868.584190,0.000010,4868.584200,4868.584190,4868.584200,486858420.000201,2,-1.000000,""
1_updated,w0,python3action_modeltraining_reviews50mb_nova,0.997085,1,2000.000000,1,COMPLETED_SUCCESSFULLY,4868.584220,42.399990,4910.984210,4867.587135,4909.987125,115.801610,2,-1.000000,""
1,w0,python3action_modeltraining_reviews50mb,0.000000,1,-1.000000,1,COMPLETED_SUCCESSFULLY,4910.984225,0.000010,4910.984235,4910.984225,4910.984235,491098423.523907,2,-1.000000,""
193_updated,w0,python3action_videoprocessing_SampleVideo_50mb_taurus,0.997085,1,2000.000000,1,COMPLETED_SUCCESSFULLY,4796.504663,154.250029,4950.754692,4795.507578,4949.757607,32.089184,10,-1.000000,""
193,w0,python3action_videoprocessing_SampleVideo_50mb,0.000000,1,-1.000000,1,COMPLETED_SUCCESSFULLY,4950.754707,0.000010,4950.754717,4950.754707,4950.754717,495075471.700201,10,-1.000000,""
5_updated,w0,python3action_modeltraining_reviews100mb_nova,0.997085,1,2000.000000,1,COMPLETED_SUCCESSFULLY,4910.984255,79.600010,4990.584265,4909.987170,4989.587180,62.683248,2,-1.000000,""
5,w0,python3action_modeltraining_reviews100mb,0.000000,1,-1.000000,1,COMPLETED_SUCCESSFULLY,4990.584280,0.000010,4990.584290,4990.584280,4990.584290,499058429.001405,2,-1.000000,""
23_updated,w0,python3action_modeltraining_reviews50mb_nova,0.997085,1,2000.000000,1,COMPLETED_SUCCESSFULLY,4990.584310,42.399990,5032.984300,4989.587225,5031.987215,118.678971,2,-1.000000,""
23,w0,python3action_modeltraining_reviews50mb,0.000000,1,-1.000000,1,COMPLETED_SUCCESSFULLY,5032.984315,0.000010,5032.984325,5032.984315,5032.984325,503298432.525111,2,-1.000000,""
196_updated,w0,python3action_videoprocessing_SampleVideo_50mb_taurus,0.997085,1,2000.000000,1,COMPLETED_SUCCESSFULLY,4950.754737,154.250029,5105.004766,4949.757652,5104.007681,33.089185,10,-1.000000,""
196,w0,python3action_videoprocessing_SampleVideo_50mb,0.000000,1,-1.000000,1,COMPLETED_SUCCESSFULLY,5105.004781,0.000010,5105.004791,5105.004781,5105.004791,510500479.100201,10,-1.000000,""
57_updated,w0,python3action_modeltraining_reviews100mb_nova,0.997085,1,2000.000000,1,COMPLETED_SUCCESSFULLY,5032.984345,79.600010,5112.584355,5031.987260,5111.587270,64.215913,2,-1.000000,""
57,w0,python3action_modeltraining_reviews100mb,0.000000,1,-1.000000,1,COMPLETED_SUCCESSFULLY,5112.584370,0.000010,5112.584380,5112.584370,5112.584380,511258438.002610,2,-1.000000,""
73_updated,w0,python3action_modeltraining_reviews100mb_nova,0.997085,1,2000.000000,1,COMPLETED_SUCCESSFULLY,5112.584400,79.600010,5192.184410,5111.587315,5191.187325,65.215913,2,-1.000000,""
73,w0,python3action_modeltraining_reviews100mb,0.000000,1,-1.000000,1,COMPLETED_SUCCESSFULLY,5192.184425,0.000010,5192.184435,5192.184425,5192.184435,519218443.500201,2,-1.000000,""
77_updated,w0,python3action_modeltraining_reviews50mb_nova,0.997085,1,2000.000000,1,COMPLETED_SUCCESSFULLY,5192.184455,42.399990,5234.584445,5191.187370,5233.587360,123.433693,2,-1.000000,""
77,w0,python3action_modeltraining_reviews50mb,0.000000,1,-1.000000,1,COMPLETED_SUCCESSFULLY,5234.584460,0.000010,5234.584470,5234.584460,5234.584470,523458447.023907,2,-1.000000,""
96_updated,w0,python3action_modeltraining_reviews50mb_nova,0.997085,1,2000.000000,1,COMPLETED_SUCCESSFULLY,5234.584490,42.399990,5276.984480,5233.587405,5275.987395,124.433694,2,-1.000000,""
96,w0,python3action_modeltraining_reviews50mb,0.000000,1,-1.000000,1,COMPLETED_SUCCESSFULLY,5276.984495,0.000010,5276.984505,5276.984495,5276.984505,527698450.547613,2,-1.000000,""
107_updated,w0,python3action_modeltraining_reviews100mb_nova,0.997085,1,2000.000000,1,COMPLETED_SUCCESSFULLY,5276.984525,79.600010,5356.584535,5275.987440,5355.587450,67.281241,2,-1.000000,""
107,w0,python3action_modeltraining_reviews100mb,0.000000,1,-1.000000,1,COMPLETED_SUCCESSFULLY,5356.584550,0.000010,5356.584560,5356.584550,5356.584560,535658456.025111,2,-1.000000,""
120_updated,w0,python3action_modeltraining_reviews50mb_nova,0.997085,1,2000.000000,1,COMPLETED_SUCCESSFULLY,5356.584580,42.399990,5398.984570,5355.587495,5397.987485,127.311055,2,-1.000000,""
120,w0,python3action_modeltraining_reviews50mb,0.000000,1,-1.000000,1,COMPLETED_SUCCESSFULLY,5398.984585,0.000010,5398.984595,5398.984585,5398.984595,539898459.548817,2,-1.000000,""
128_updated,w0,python3action_modeltraining_reviews50mb_nova,0.997085,1,2000.000000,1,COMPLETED_SUCCESSFULLY,5398.984615,42.399990,5441.384606,5397.987530,5440.387521,128.311056,2,-1.000000,""
128,w0,python3action_modeltraining_reviews50mb,0.000000,1,-1.000000,1,COMPLETED_SUCCESSFULLY,5441.384621,0.000010,5441.384631,5441.384621,5441.384631,544138463.100201,2,-1.000000,""
134_updated,w0,python3action_modeltraining_reviews100mb_nova,0.997085,1,2000.000000,1,COMPLETED_SUCCESSFULLY,5441.384651,79.600010,5520.984661,5440.387566,5519.987576,69.346569,2,-1.000000,""
134,w0,python3action_modeltraining_reviews100mb,0.000000,1,-1.000000,1,COMPLETED_SUCCESSFULLY,5520.984676,0.000010,5520.984686,5520.984676,5520.984686,552098468.600201,2,-1.000000,""
151_updated,w0,python3action_modeltraining_reviews50mb_nova,0.997085,1,2000.000000,1,COMPLETED_SUCCESSFULLY,5520.984706,42.399990,5563.384696,5519.987621,5562.387611,131.188417,2,-1.000000,""
151,w0,python3action_modeltraining_reviews50mb,0.000000,1,-1.000000,1,COMPLETED_SUCCESSFULLY,5563.384711,0.000010,5563.384721,5563.384711,5563.384721,556338472.123907,2,-1.000000,""
154_updated,w0,python3action_modeltraining_reviews100mb_nova,0.997085,1,2000.000000,1,COMPLETED_SUCCESSFULLY,5563.384741,79.600010,5642.984751,5562.387656,5641.987666,70.879233,2,-1.000000,""
154,w0,python3action_modeltraining_reviews100mb,0.000000,1,-1.000000,1,COMPLETED_SUCCESSFULLY,5642.984766,0.000010,5642.984776,5642.984766,5642.984776,564298477.601406,2,-1.000000,""
171_updated,w0,python3action_modeltraining_reviews100mb_nova,0.997085,1,2000.000000,1,COMPLETED_SUCCESSFULLY,5642.984796,79.600010,5722.584806,5641.987711,5721.587721,71.879234,2,-1.000000,""
171,w0,python3action_modeltraining_reviews100mb,0.000000,1,-1.000000,1,COMPLETED_SUCCESSFULLY,5722.584821,0.000010,5722.584831,5722.584821,5722.584831,572258483.100201,2,-1.000000,""
172_updated,w0,python3action_modeltraining_reviews50mb_nova,0.997085,1,2000.000000,1,COMPLETED_SUCCESSFULLY,5722.584851,42.399990,5764.984841,5721.587766,5763.987756,135.943139,2,-1.000000,""
172,w0,python3action_modeltraining_reviews50mb,0.000000,1,-1.000000,1,COMPLETED_SUCCESSFULLY,5764.984856,0.000010,5764.984866,5764.984856,5764.984866,576498486.623907,2,-1.000000,""
181_updated,w0,python3action_modeltraining_reviews100mb_nova,0.997085,1,2000.000000,1,COMPLETED_SUCCESSFULLY,5764.984886,79.600010,5844.584896,5763.987801,5843.587811,73.411898,2,-1.000000,""
181,w0,python3action_modeltraining_reviews100mb,0.000000,1,-1.000000,1,COMPLETED_SUCCESSFULLY,5844.584911,0.000010,5844.584921,5844.584911,5844.584921,584458492.101405,2,-1.000000,""
182_updated,w0,python3action_modeltraining_reviews50mb_nova,0.997085,1,2000.000000,1,COMPLETED_SUCCESSFULLY,5844.584941,42.399990,5886.984931,5843.587856,5885.987846,138.820500,2,-1.000000,""
182,w0,python3action_modeltraining_reviews50mb,0.000000,1,-1.000000,1,COMPLETED_SUCCESSFULLY,5886.984946,0.000010,5886.984956,5886.984946,5886.984956,588698495.625111,2,-1.000000,""
184_updated,w0,python3action_modeltraining_reviews100mb_nova,0.997085,1,2000.000000,1,COMPLETED_SUCCESSFULLY,5886.984976,79.600010,5966.584986,5885.987891,5965.587901,74.944562,2,-1.000000,""
184,w0,python3action_modeltraining_reviews100mb,0.000000,1,-1.000000,1,COMPLETED_SUCCESSFULLY,5966.585001,0.000010,5966.585011,5966.585001,5966.585011,596658501.102610,2,-1.000000,""
185_updated,w0,python3action_modeltraining_reviews50mb_nova,0.997085,1,2000.000000,1,COMPLETED_SUCCESSFULLY,5966.585031,42.399990,6008.985021,5965.587946,6007.987936,141.697861,2,-1.000000,""
185,w0,python3action_modeltraining_reviews50mb,0.000000,1,-1.000000,1,COMPLETED_SUCCESSFULLY,6008.985036,0.000010,6008.985046,6008.985036,6008.985046,600898504.626316,2,-1.000000,""
python3action_pyaes_job2_1,w0,python3action_pyaes_reduced_0.85,0.997085,1,2000.000000,1,COMPLETED_SUCCESSFULLY,6008.985066,0.320244,6009.305310,6007.987981,6008.308225,18761.672926,2,-1.000000,""
2_updated,w0,python3action_pyaes_3000_nova,0.997085,1,2000.000000,1,COMPLETED_SUCCESSFULLY,6009.305325,78.200020,6087.505345,6008.308240,6086.508260,77.832567,2,-1.000000,""
2,w0,python3action_pyaes_3000,0.000000,1,-1.000000,1,COMPLETED_SUCCESSFULLY,6087.505360,0.000010,6087.505370,6087.505360,6087.505370,608750537.000201,2,-1.000000,""
29_updated,w0,python3action_pyaes_3000_nova,0.997085,1,2000.000000,1,COMPLETED_SUCCESSFULLY,6087.505390,78.200020,6165.705410,6086.508305,6164.708325,78.832568,2,-1.000000,""
29,w0,python3action_pyaes_3000,0.000000,1,-1.000000,1,COMPLETED_SUCCESSFULLY,6165.705425,0.000010,6165.705435,6165.705425,6165.705435,616570543.500201,2,-1.000000,""
30_updated,w0,python3action_pyaes_4000_nova,0.997085,1,2000.000000,1,COMPLETED_SUCCESSFULLY,6165.705455,139.600010,6305.305465,6164.708370,6304.308380,45.159799,2,-1.000000,""
30,w0,python3action_pyaes_4000,0.000000,1,-1.000000,1,COMPLETED_SUCCESSFULLY,6305.305480,0.000010,6305.305490,6305.305480,6305.305490,630530549.000201,2,-1.000000,""
33_updated,w0,python3action_pyaes_4000_nova,0.997085,1,2000.000000,1,COMPLETED_SUCCESSFULLY,6305.305510,139.600010,6444.905520,6304.308425,6443.908435,46.159799,2,-1.000000,""
33,w0,python3action_pyaes_4000,0.000000,1,-1.000000,1,COMPLETED_SUCCESSFULLY,6444.905535,0.000010,6444.905545,6444.905535,6444.905545,644490554.500201,2,-1.000000,""
64_updated,w0,python3action_pyaes_3000_nova,0.997085,1,2000.000000,1,COMPLETED_SUCCESSFULLY,6444.905565,78.200020,6523.105585,6443.908480,6522.108500,83.402901,2,-1.000000,""
64,w0,python3action_pyaes_3000,0.000000,1,-1.000000,1,COMPLETED_SUCCESSFULLY,6523.105600,0.000010,6523.105610,6523.105600,6523.105610,652310561.000201,2,-1.000000,""
71_updated,w0,python3action_pyaes_3000_nova,0.997085,1,2000.000000,1,COMPLETED_SUCCESSFULLY,6523.105630,78.200020,6601.305650,6522.108545,6600.308565,84.402902,2,-1.000000,""
71,w0,python3action_pyaes_3000,0.000000,1,-1.000000,1,COMPLETED_SUCCESSFULLY,6601.305665,0.000010,6601.305675,6601.305665,6601.305675,660130567.500201,2,-1.000000,""
89_updated,w0,python3action_pyaes_4000_nova,0.997085,1,2000.000000,1,COMPLETED_SUCCESSFULLY,6601.305695,139.600010,6740.905705,6600.308610,6739.908620,48.280144,2,-1.000000,""
89,w0,python3action_pyaes_4000,0.000000,1,-1.000000,1,COMPLETED_SUCCESSFULLY,6740.905720,0.000010,6740.905730,6740.905720,6740.905730,674090573.000201,2,-1.000000,""
97_updated,w0,python3action_pyaes_3000_nova,0.997085,1,2000.000000,1,COMPLETED_SUCCESSFULLY,6740.905750,78.200020,6819.105770,6739.908665,6818.108685,87.188069,2,-1.000000,""
97,w0,python3action_pyaes_3000,0.000000,1,-1.000000,1,COMPLETED_SUCCESSFULLY,6819.105785,0.000010,6819.105795,6819.105785,6819.105795,681910579.500201,2,-1.000000,""
101_updated,w0,python3action_pyaes_3000_nova,0.997085,1,2000.000000,1,COMPLETED_SUCCESSFULLY,6819.105815,78.200020,6897.305835,6818.108730,6896.308750,88.188069,2,-1.000000,""
101,w0,python3action_pyaes_3000,0.000000,1,-1.000000,1,COMPLETED_SUCCESSFULLY,6897.305850,0.000010,6897.305860,6897.305850,6897.305860,689730586.000201,2,-1.000000,""
103_updated,w0,python3action_pyaes_4000_nova,0.997085,1,2000.000000,1,COMPLETED_SUCCESSFULLY,6897.305880,139.600010,7036.905890,6896.308795,7035.908805,50.400489,2,-1.000000,""
103,w0,python3action_pyaes_4000,0.000000,1,-1.000000,1,COMPLETED_SUCCESSFULLY,7036.905905,0.000010,7036.905915,7036.905905,7036.905915,703690591.500201,2,-1.000000,""
111_updated,w0,python3action_pyaes_3000_nova,0.997085,1,2000.000000,1,COMPLETED_SUCCESSFULLY,7036.905935,78.200020,7115.105955,7035.908850,7114.108870,90.973236,2,-1.000000,""
111,w0,python3action_pyaes_3000,0.000000,1,-1.000000,1,COMPLETED_SUCCESSFULLY,7115.105970,0.000010,7115.105980,7115.105970,7115.105980,711510598.000201,2,-1.000000,""
112_updated,w0,python3action_pyaes_4000_nova,0.997085,1,2000.000000,1,COMPLETED_SUCCESSFULLY,7115.106000,139.600010,7254.706010,7114.108915,7253.708925,51.960662,2,-1.000000,""
112,w0,python3action_pyaes_4000,0.000000,1,-1.000000,1,COMPLETED_SUCCESSFULLY,7254.706025,0.000010,7254.706035,7254.706025,7254.706035,725470603.500201,2,-1.000000,""
118_updated,w0,python3action_pyaes_3000_nova,0.997085,1,2000.000000,1,COMPLETED_SUCCESSFULLY,7254.706055,78.200020,7332.906075,7253.708970,7331.908990,93.758404,2,-1.000000,""
118,w0,python3action_pyaes_3000,0.000000,1,-1.000000,1,COMPLETED_SUCCESSFULLY,7332.906090,0.000010,7332.906100,7332.906090,7332.906100,733290610.000201,2,-1.000000,""
119_updated,w0,python3action_pyaes_4000_nova,0.997085,1,2000.000000,1,COMPLETED_SUCCESSFULLY,7332.906120,139.600010,7472.506130,7331.909035,7471.509045,53.520835,2,-1.000000,""
119,w0,python3action_pyaes_4000,0.000000,1,-1.000000,1,COMPLETED_SUCCESSFULLY,7472.506145,0.000010,7472.506155,7472.506145,7472.506155,747250615.500201,2,-1.000000,""
130_updated,w0,python3action_pyaes_3000_nova,0.997085,1,2000.000000,1,COMPLETED_SUCCESSFULLY,7472.506175,78.200020,7550.706195,7471.509090,7549.709110,96.543571,2,-1.000000,""
130,w0,python3action_pyaes_3000,0.000000,1,-1.000000,1,COMPLETED_SUCCESSFULLY,7550.706210,0.000010,7550.706220,7550.706210,7550.706220,755070622.000201,2,-1.000000,""
132_updated,w0,python3action_pyaes_3000_nova,0.997085,1,2000.000000,1,COMPLETED_SUCCESSFULLY,7550.706240,78.200020,7628.906260,7549.709155,7627.909175,97.543571,2,-1.000000,""
132,w0,python3action_pyaes_3000,0.000000,1,-1.000000,1,COMPLETED_SUCCESSFULLY,7628.906275,0.000010,7628.906285,7628.906275,7628.906285,762890628.500201,2,-1.000000,""
141_updated,w0,python3action_pyaes_3000_nova,0.997085,1,2000.000000,1,COMPLETED_SUCCESSFULLY,7628.906305,78.200020,7707.106325,7627.909220,7706.109240,98.543572,2,-1.000000,""
141,w0,python3action_pyaes_3000,0.000000,1,-1.000000,1,COMPLETED_SUCCESSFULLY,7707.106340,0.000010,7707.106350,7707.106340,7707.106350,770710635.000201,2,-1.000000,""
149_updated,w0,python3action_pyaes_4000_nova,0.997085,1,2000.000000,1,COMPLETED_SUCCESSFULLY,7707.106370,139.600010,7846.706380,7706.109285,7845.709295,56.201352,2,-1.000000,""
149,w0,python3action_pyaes_4000,0.000000,1,-1.000000,1,COMPLETED_SUCCESSFULLY,7846.706395,0.000010,7846.706405,7846.706395,7846.706405,784670640.500201,2,-1.000000,""
157_updated,w0,python3action_pyaes_4000_nova,0.997085,1,2000.000000,1,COMPLETED_SUCCESSFULLY,7846.706425,139.600010,7986.306435,7845.709340,7985.309350,57.201352,2,-1.000000,""
157,w0,python3action_pyaes_4000,0.000000,1,-1.000000,1,COMPLETED_SUCCESSFULLY,7986.306450,0.000010,7986.306460,7986.306450,7986.306460,798630646.000201,2,-1.000000,""
161_updated,w0,python3action_pyaes_3000_nova,0.997085,1,2000.000000,1,COMPLETED_SUCCESSFULLY,7986.306480,78.200020,8064.506500,7985.309395,8063.509415,103.113905,2,-1.000000,""
161,w0,python3action_pyaes_3000,0.000000,1,-1.000000,1,COMPLETED_SUCCESSFULLY,8064.506515,0.000010,8064.506525,8064.506515,8064.506525,806450652.500201,2,-1.000000,""
174_updated,w0,python3action_pyaes_4000_nova,0.997085,1,2000.000000,1,COMPLETED_SUCCESSFULLY,8064.506545,139.600010,8204.106555,8063.509460,8203.109470,58.761525,2,-1.000000,""
174,w0,python3action_pyaes_4000,0.000000,1,-1.000000,1,COMPLETED_SUCCESSFULLY,8204.106570,0.000010,8204.106580,8204.106570,8204.106580,820410658.000201,2,-1.000000,""
183_updated,w0,python3action_pyaes_3000_nova,0.997085,1,2000.000000,1,COMPLETED_SUCCESSFULLY,8204.106600,78.200020,8282.306620,8203.109515,8281.309535,105.899072,2,-1.000000,""
183,w0,python3action_pyaes_3000,0.000000,1,-1.000000,1,COMPLETED_SUCCESSFULLY,8282.306635,0.000010,8282.306645,8282.306635,8282.306645,828230664.500201,2,-1.000000,""
186_updated,w0,python3action_pyaes_3000_nova,0.997085,1,2000.000000,1,COMPLETED_SUCCESSFULLY,8282.306665,78.200020,8360.506685,8281.309580,8359.509600,106.899073,2,-1.000000,""
186,w0,python3action_pyaes_3000,0.000000,1,-1.000000,1,COMPLETED_SUCCESSFULLY,8360.506700,0.000010,8360.506710,8360.506700,8360.506710,836050671.000201,2,-1.000000,""
194_updated,w0,python3action_pyaes_4000_nova,0.997085,1,2000.000000,1,COMPLETED_SUCCESSFULLY,8360.506730,139.600010,8500.106740,8359.509645,8499.109655,60.881870,2,-1.000000,""
194,w0,python3action_pyaes_4000,0.000000,1,-1.000000,1,COMPLETED_SUCCESSFULLY,8500.106755,0.000010,8500.106765,8500.106755,8500.106765,850010676.500201,2,-1.000000,""
195_updated,w0,python3action_pyaes_3000_nova,0.997085,1,2000.000000,1,COMPLETED_SUCCESSFULLY,8500.106785,78.200020,8578.306805,8499.109700,8577.309720,109.684240,2,-1.000000,""
195,w0,python3action_pyaes_3000,0.000000,1,-1.000000,1,COMPLETED_SUCCESSFULLY,8578.306820,0.000010,8578.306830,8578.306820,8578.306830,857830683.000201,2,-1.000000,""
python3action_video_processing_job27_1,w0,python3action_video_processing_reduced_1.89,0.997085,1,2000.000000,1,COMPLETED_SUCCESSFULLY,8578.306850,0.000000,8578.306850,8577.309765,8577.309765,174645404104829.750000,2,-1.000000,""
27_updated,w0,python3action_videoprocessing_SampleVideo_30mb_nova,0.997085,1,2000.000000,1,COMPLETED_SUCCESSFULLY,8578.306880,106.799980,8685.106860,8577.309795,8684.109775,81.311904,2,-1.000000,""
27,w0,python3action_videoprocessing_SampleVideo_30mb,0.000000,1,-1.000000,1,COMPLETED_SUCCESSFULLY,8685.106875,0.000010,8685.106885,8685.106875,8685.106885,868510688.547412,2,-1.000000,""
43_updated,w0,python3action_videoprocessing_SampleVideo_30mb_nova,0.997085,1,2000.000000,1,COMPLETED_SUCCESSFULLY,8685.106905,106.799980,8791.906886,8684.109820,8790.909801,82.311905,2,-1.000000,""
43,w0,python3action_videoprocessing_SampleVideo_30mb,0.000000,1,-1.000000,1,COMPLETED_SUCCESSFULLY,8791.906901,0.000010,8791.906911,8791.906901,8791.906911,879190691.100201,2,-1.000000,""
55_updated,w0,python3action_videoprocessing_SampleVideo_30mb_nova,0.997085,1,2000.000000,1,COMPLETED_SUCCESSFULLY,8791.906931,106.799980,8898.706911,8790.909846,8897.709826,83.311905,2,-1.000000,""
55,w0,python3action_videoprocessing_SampleVideo_30mb,0.000000,1,-1.000000,1,COMPLETED_SUCCESSFULLY,8898.706926,0.000010,8898.706936,8898.706926,8898.706936,889870693.647010,2,-1.000000,""
79_updated,w0,python3action_videoprocessing_SampleVideo_30mb_nova,0.997085,1,2000.000000,1,COMPLETED_SUCCESSFULLY,8898.706956,106.799980,9005.506937,8897.709871,9004.509852,84.311905,2,-1.000000,""
79,w0,python3action_videoprocessing_SampleVideo_30mb,0.000000,1,-1.000000,1,COMPLETED_SUCCESSFULLY,9005.506952,0.000010,9005.506962,9005.506952,9005.506962,900550696.200201,2,-1.000000,""
131_updated,w0,python3action_videoprocessing_SampleVideo_30mb_nova,0.997085,1,2000.000000,1,COMPLETED_SUCCESSFULLY,9005.506982,106.799980,9112.306962,9004.509897,9111.309877,85.311906,2,-1.000000,""
131,w0,python3action_videoprocessing_SampleVideo_30mb,0.000000,1,-1.000000,1,COMPLETED_SUCCESSFULLY,9112.306977,0.000010,9112.306987,9112.306977,9112.306987,911230698.747010,2,-1.000000,""
147_updated,w0,python3action_videoprocessing_SampleVideo_30mb_nova,0.997085,1,2000.000000,1,COMPLETED_SUCCESSFULLY,9112.307007,106.799980,9219.106988,9111.309922,9218.109903,86.311906,2,-1.000000,""
147,w0,python3action_videoprocessing_SampleVideo_30mb,0.000000,1,-1.000000,1,COMPLETED_SUCCESSFULLY,9219.107003,0.000010,9219.107013,9219.107003,9219.107013,921910701.300201,2,-1.000000,""
158_updated,w0,python3action_videoprocessing_SampleVideo_30mb_nova,0.997085,1,2000.000000,1,COMPLETED_SUCCESSFULLY,9219.107033,106.799980,9325.907013,9218.109948,9324.909928,87.311907,2,-1.000000,""
158,w0,python3action_videoprocessing_SampleVideo_30mb,0.000000,1,-1.000000,1,COMPLETED_SUCCESSFULLY,9325.907028,0.000010,9325.907038,9325.907028,9325.907038,932590703.847010,2,-1.000000,""
180_updated,w0,python3action_videoprocessing_SampleVideo_30mb_nova,0.997085,1,2000.000000,1,COMPLETED_SUCCESSFULLY,9325.907058,106.799980,9432.707039,9324.909973,9431.709954,88.311907,2,-1.000000,""
180,w0,python3action_videoprocessing_SampleVideo_30mb,0.000000,1,-1.000000,1,COMPLETED_SUCCESSFULLY,9432.707054,0.000010,9432.707064,9432.707054,9432.707064,943270706.400201,2,-1.000000,""
188_updated,w0,python3action_videoprocessing_SampleVideo_30mb_nova,0.997085,1,2000.000000,1,COMPLETED_SUCCESSFULLY,9432.707084,106.799980,9539.507064,9431.709999,9538.509979,89.311908,2,-1.000000,""
188,w0,python3action_videoprocessing_SampleVideo_30mb,0.000000,1,-1.000000,1,COMPLETED_SUCCESSFULLY,9539.507079,0.000010,9539.507089,9539.507079,9539.507089,953950708.947010,2,-1.000000,""
192_updated,w0,python3action_videoprocessing_SampleVideo_30mb_nova,0.997085,1,2000.000000,1,COMPLETED_SUCCESSFULLY,9539.507109,106.799980,9646.307090,9538.510024,9645.310005,90.311908,2,-1.000000,""
192,w0,python3action_videoprocessing_SampleVideo_30mb,0.000000,1,-1.000000,1,COMPLETED_SUCCESSFULLY,9646.307105,0.000010,9646.307115,9646.307105,9646.307115,964630711.500201,2,-1.000000,""
199_updated,w0,python3action_videoprocessing_SampleVideo_30mb_nova,0.997085,1,2000.000000,1,COMPLETED_SUCCESSFULLY,9646.307135,106.799980,9753.107115,9645.310050,9752.110030,91.311908,2,-1.000000,""
199,w0,python3action_videoprocessing_SampleVideo_30mb,0.000000,1,-1.000000,1,COMPLETED_SUCCESSFULLY,9753.107130,0.000010,9753.107140,9753.107130,9753.107140,975310714.047010,2,-1.000000,""
