job_id,workload_name,profile,submission_time,requested_number_of_resources,requested_time,success,final_state,starting_time,execution_time,finish_time,waiting_time,turnaround_time,stretch,allocated_resources,consumed_energy,metadata
python3action_chameleon_job42_3,w0,python3action_chameleon,0.997085,1,2000.000000,1,COMPLETED_SUCCESSFULLY,1.002145,0.867914,1.870059,0.005060,0.872974,1.005830,19,-1.000000,""
python3action_chameleon_job18_2,w0,python3action_chameleon,0.997085,1,2000.000000,1,COMPLETED_SUCCESSFULLY,1.002130,5.040826,6.042956,0.005045,5.045871,1.001001,10,-1.000000,""
python3action_linpack_job51_1,w0,python3action_linpack,0.997085,1,2000.000000,1,COMPLETED_SUCCESSFULLY,1.002115,5.760927,6.763042,0.005030,5.765957,1.000873,8,-1.000000,""
python3action_facedetection_job21_0,w0,python3action_facedetection,0.997085,1,2000.000000,1,COMPLETED_SUCCESSFULLY,1.002100,30.499683,31.501783,0.005015,30.504698,1.000164,2,-1.000000,""
18_updated,w0,python3action_chameleon_2000_taurus,0.997085,1,2000.000000,1,COMPLETED_SUCCESSFULLY,6.042971,64.199977,70.242948,5.045886,69.245863,1.078596,10,-1.000000,""
18,w0,python3action_chameleon_2000,0.000000,1,-1.000000,1,COMPLETED_SUCCESSFULLY,70.242963,0.000010,70.242973,70.242963,70.242973,7024297.300201,10,-1.000000,""
42_updated,w0,python3action_chameleon_3000_troll,0.997085,1,2000.000000,1,COMPLETED_SUCCESSFULLY,1.870074,94.000000,95.870074,0.872989,94.872989,1.009287,19,-1.000000,""
42,w0,python3action_chameleon_3000,0.000000,1,-1.000000,1,COMPLETED_SUCCESSFULLY,95.870089,0.000010,95.870099,95.870089,95.870099,9587009.900402,19,-1.000000,""
51_updated,w0,python3action_linpack_6000_orion,0.997085,1,2000.000000,1,COMPLETED_SUCCESSFULLY,6.763057,106.000000,112.763057,5.765972,111.765972,1.054396,8,-1.000000,""
51,w0,python3action_linpack_6000,0.000000,1,-1.000000,1,COMPLETED_SUCCESSFULLY,112.763072,0.000010,112.763082,112.763072,112.763082,11276308.223673,8,-1.000000,""
56_updated,w0,python3action_chameleon_2000_taurus,0.997085,1,2000.000000,1,COMPLETED_SUCCESSFULLY,70.242993,64.199977,134.442970,69.245908,133.445885,2.078597,10,-1.000000,""
56,w0,python3action_chameleon_2000,0.000000,1,-1.000000,1,COMPLETED_SUCCESSFULLY,134.442985,0.000010,134.442995,134.442985,134.442995,13444299.500201,10,-1.000000,""
43_updated,w0,python3action_chameleon_3000_troll,0.997085,1,2000.000000,1,COMPLETED_SUCCESSFULLY,95.870119,94.000000,189.870119,94.873034,188.873034,2.009288,19,-1.000000,""
43,w0,python3action_chameleon_3000,0.000000,1,-1.000000,1,COMPLETED_SUCCESSFULLY,189.870134,0.000010,189.870144,189.870134,189.870144,18987014.401004,19,-1.000000,""
21_updated,w0,python3action_facedetection_SampleVideo_30mb_nova,0.997085,1,2000.000000,1,COMPLETED_SUCCESSFULLY,31.501798,160.399990,191.901788,30.504713,190.904703,1.190179,2,-1.000000,""
21,w0,python3action_facedetection_SampleVideo_30mb,0.000000,1,-1.000000,1,COMPLETED_SUCCESSFULLY,191.901803,0.000010,191.901813,191.901803,191.901813,19190181.323505,2,-1.000000,""
68_updated,w0,python3action_chameleon_2000_taurus,0.997085,1,2000.000000,1,COMPLETED_SUCCESSFULLY,134.443015,64.199977,198.642992,133.445930,197.645907,3.078598,10,-1.000000,""
68,w0,python3action_chameleon_2000,0.000000,1,-1.000000,1,COMPLETED_SUCCESSFULLY,198.643007,0.000010,198.643017,198.643007,198.643017,19864301.700201,10,-1.000000,""
52_updated,w0,python3action_linpack_6000_orion,0.997085,1,2000.000000,1,COMPLETED_SUCCESSFULLY,112.763102,106.000000,218.763102,111.766017,217.766017,2.054396,8,-1.000000,""
52,w0,python3action_linpack_6000,0.000000,1,-1.000000,1,COMPLETED_SUCCESSFULLY,218.763117,0.000010,218.763127,218.763117,218.763127,21876312.724275,8,-1.000000,""
72_updated,w0,python3action_chameleon_2000_taurus,0.997085,1,2000.000000,1,COMPLETED_SUCCESSFULLY,198.643037,64.199977,262.843014,197.645952,261.845929,4.078598,10,-1.000000,""
72,w0,python3action_chameleon_2000,0.000000,1,-1.000000,1,COMPLETED_SUCCESSFULLY,262.843029,0.000010,262.843039,262.843029,262.843039,26284303.900201,10,-1.000000,""
71_updated,w0,python3action_chameleon_3000_troll,0.997085,1,2000.000000,1,COMPLETED_SUCCESSFULLY,189.870164,94.000000,283.870164,188.873079,282.873079,3.009288,19,-1.000000,""
71,w0,python3action_chameleon_3000,0.000000,1,-1.000000,1,COMPLETED_SUCCESSFULLY,283.870179,0.000010,283.870189,283.870179,283.870189,28387018.901606,19,-1.000000,""
60_updated,w0,python3action_linpack_6000_orion,0.997085,1,2000.000000,1,COMPLETED_SUCCESSFULLY,218.763147,106.000000,324.763147,217.766062,323.766062,3.054397,8,-1.000000,""
60,w0,python3action_linpack_6000,0.000000,1,-1.000000,1,COMPLETED_SUCCESSFULLY,324.763162,0.000010,324.763172,324.763162,324.763172,32476317.224877,8,-1.000000,""
89_updated,w0,python3action_chameleon_2000_taurus,0.997085,1,2000.000000,1,COMPLETED_SUCCESSFULLY,262.843059,64.199977,327.043036,261.845974,326.045951,5.078599,10,-1.000000,""
89,w0,python3action_chameleon_2000,0.000000,1,-1.000000,1,COMPLETED_SUCCESSFULLY,327.043051,0.000010,327.043061,327.043051,327.043061,32704306.100201,10,-1.000000,""
35_updated,w0,python3action_facedetection_SampleVideo_30mb_nova,0.997085,1,2000.000000,1,COMPLETED_SUCCESSFULLY,191.901833,160.399990,352.301823,190.904748,351.304738,2.190179,2,-1.000000,""
35,w0,python3action_facedetection_SampleVideo_30mb,0.000000,1,-1.000000,1,COMPLETED_SUCCESSFULLY,352.301838,0.000010,352.301848,352.301838,352.301848,35230184.847211,2,-1.000000,""
76_updated,w0,python3action_chameleon_3000_troll,0.997085,1,2000.000000,1,COMPLETED_SUCCESSFULLY,283.870209,94.000000,377.870209,282.873124,376.873124,4.009289,19,-1.000000,""
76,w0,python3action_chameleon_3000,0.000000,1,-1.000000,1,COMPLETED_SUCCESSFULLY,377.870224,0.000010,377.870234,377.870224,377.870234,37787023.402209,19,-1.000000,""
99_updated,w0,python3action_chameleon_2000_taurus,0.997085,1,2000.000000,1,COMPLETED_SUCCESSFULLY,327.043081,64.199977,391.243058,326.045996,390.245973,6.078600,10,-1.000000,""
99,w0,python3action_chameleon_2000,0.000000,1,-1.000000,1,COMPLETED_SUCCESSFULLY,391.243073,0.000010,391.243083,391.243073,391.243083,39124308.300201,10,-1.000000,""
67_updated,w0,python3action_linpack_6000_orion,0.997085,1,2000.000000,1,COMPLETED_SUCCESSFULLY,324.763192,106.000000,430.763192,323.766107,429.766107,4.054397,8,-1.000000,""
67,w0,python3action_linpack_6000,0.000000,1,-1.000000,1,COMPLETED_SUCCESSFULLY,430.763207,0.000010,430.763217,430.763207,430.763217,43076321.725480,8,-1.000000,""
100_updated,w0,python3action_chameleon_2000_taurus,0.997085,1,2000.000000,1,COMPLETED_SUCCESSFULLY,391.243103,64.199977,455.443080,390.246018,454.445995,7.078601,10,-1.000000,""
100,w0,python3action_chameleon_2000,0.000000,1,-1.000000,1,COMPLETED_SUCCESSFULLY,455.443095,0.000010,455.443105,455.443095,455.443105,45544310.500201,10,-1.000000,""
85_updated,w0,python3action_chameleon_3000_troll,0.997085,1,2000.000000,1,COMPLETED_SUCCESSFULLY,377.870254,94.000000,471.870254,376.873169,470.873169,5.009289,19,-1.000000,""
85,w0,python3action_chameleon_3000,0.000000,1,-1.000000,1,COMPLETED_SUCCESSFULLY,471.870269,0.000010,471.870279,471.870269,471.870279,47187027.902811,19,-1.000000,""
55_updated,w0,python3action_facedetection_SampleVideo_30mb_nova,0.997085,1,2000.000000,1,COMPLETED_SUCCESSFULLY,352.301868,160.399990,512.701859,351.304783,511.704774,3.190180,2,-1.000000,""
55,w0,python3action_facedetection_SampleVideo_30mb,0.000000,1,-1.000000,1,COMPLETED_SUCCESSFULLY,512.701874,0.000010,512.701884,512.701874,512.701884,51270188.400201,2,-1.000000,""
125_updated,w0,python3action_chameleon_2000_taurus,0.997085,1,2000.000000,1,COMPLETED_SUCCESSFULLY,455.443125,64.199977,519.643102,454.446040,518.646017,8.078601,10,-1.000000,""
125,w0,python3action_chameleon_2000,0.000000,1,-1.000000,1,COMPLETED_SUCCESSFULLY,519.643117,0.000010,519.643127,519.643117,519.643127,51964312.700201,10,-1.000000,""
102_updated,w0,python3action_linpack_6000_orion,0.997085,1,2000.000000,1,COMPLETED_SUCCESSFULLY,430.763237,106.000000,536.763237,429.766152,535.766152,5.054398,8,-1.000000,""
102,w0,python3action_linpack_6000,0.000000,1,-1.000000,1,COMPLETED_SUCCESSFULLY,536.763252,0.000010,536.763262,536.763252,536.763262,53676326.226082,8,-1.000000,""
94_updated,w0,python3action_chameleon_3000_troll,0.997085,1,2000.000000,1,COMPLETED_SUCCESSFULLY,471.870299,94.000000,565.870299,470.873214,564.873214,6.009290,19,-1.000000,""
94,w0,python3action_chameleon_3000,0.000000,1,-1.000000,1,COMPLETED_SUCCESSFULLY,565.870314,0.000010,565.870324,565.870314,565.870324,56587032.403414,19,-1.000000,""
176_updated,w0,python3action_chameleon_2000_taurus,0.997085,1,2000.000000,1,COMPLETED_SUCCESSFULLY,519.643147,64.199977,583.843124,518.646062,582.846039,9.078602,10,-1.000000,""
176,w0,python3action_chameleon_2000,0.000000,1,-1.000000,1,COMPLETED_SUCCESSFULLY,583.843139,0.000010,583.843149,583.843139,583.843149,58384314.900201,10,-1.000000,""
104_updated,w0,python3action_linpack_6000_orion,0.997085,1,2000.000000,1,COMPLETED_SUCCESSFULLY,536.763282,106.000000,642.763282,535.766197,641.766197,6.054398,8,-1.000000,""
104,w0,python3action_linpack_6000,0.000000,1,-1.000000,1,COMPLETED_SUCCESSFULLY,642.763297,0.000010,642.763307,642.763297,642.763307,64276330.726685,8,-1.000000,""
python3action_facedetection_job3_3,w0,python3action_facedetection,0.997085,1,2000.000000,1,COMPLETED_SUCCESSFULLY,583.843169,72.012455,655.855624,582.846084,654.858539,9.093684,10,-1.000000,""
105_updated,w0,python3action_chameleon_3000_troll,0.997085,1,2000.000000,1,COMPLETED_SUCCESSFULLY,565.870344,94.000000,659.870344,564.873259,658.873259,7.009290,19,-1.000000,""
105,w0,python3action_chameleon_3000,0.000000,1,-1.000000,1,COMPLETED_SUCCESSFULLY,659.870359,0.000010,659.870369,659.870359,659.870369,65987036.904016,19,-1.000000,""
77_updated,w0,python3action_facedetection_SampleVideo_30mb_nova,0.997085,1,2000.000000,1,COMPLETED_SUCCESSFULLY,512.701904,160.399990,673.101894,511.704819,672.104809,4.190180,2,-1.000000,""
77,w0,python3action_facedetection_SampleVideo_30mb,0.000000,1,-1.000000,1,COMPLETED_SUCCESSFULLY,673.101909,0.000010,673.101919,673.101909,673.101919,67310191.923907,2,-1.000000,""
108_updated,w0,python3action_linpack_6000_orion,0.997085,1,2000.000000,1,COMPLETED_SUCCESSFULLY,642.763327,106.000000,748.763327,641.766242,747.766242,7.054399,8,-1.000000,""
108,w0,python3action_linpack_6000,0.000000,1,-1.000000,1,COMPLETED_SUCCESSFULLY,748.763342,0.000010,748.763352,748.763342,748.763352,74876335.227287,8,-1.000000,""
129_updated,w0,python3action_chameleon_3000_troll,0.997085,1,2000.000000,1,COMPLETED_SUCCESSFULLY,659.870389,94.000000,753.870389,658.873304,752.873304,8.009290,19,-1.000000,""
129,w0,python3action_chameleon_3000,0.000000,1,-1.000000,1,COMPLETED_SUCCESSFULLY,753.870404,0.000010,753.870414,753.870404,753.870414,75387041.404619,19,-1.000000,""
3_updated,w0,python3action_facedetection_SampleVideo_50mb_taurus,0.997085,1,2000.000000,1,COMPLETED_SUCCESSFULLY,655.855639,134.600046,790.455685,654.858554,789.458600,5.865218,10,-1.000000,""
3,w0,python3action_facedetection_SampleVideo_50mb,0.000000,1,-1.000000,1,COMPLETED_SUCCESSFULLY,790.455700,0.000010,790.455710,790.455700,790.455710,79045571.045163,10,-1.000000,""
78_updated,w0,python3action_facedetection_SampleVideo_30mb_nova,0.997085,1,2000.000000,1,COMPLETED_SUCCESSFULLY,673.101939,160.399990,833.501929,672.104854,832.504844,5.190180,2,-1.000000,""
78,w0,python3action_facedetection_SampleVideo_30mb,0.000000,1,-1.000000,1,COMPLETED_SUCCESSFULLY,833.501944,0.000010,833.501954,833.501944,833.501954,83350195.447613,2,-1.000000,""
158_updated,w0,python3action_chameleon_3000_troll,0.997085,1,2000.000000,1,COMPLETED_SUCCESSFULLY,753.870434,94.000000,847.870434,752.873349,846.873349,9.009291,19,-1.000000,""
158,w0,python3action_chameleon_3000,0.000000,1,-1.000000,1,COMPLETED_SUCCESSFULLY,847.870449,0.000010,847.870459,847.870449,847.870459,84787045.905221,19,-1.000000,""
110_updated,w0,python3action_linpack_6000_orion,0.997085,1,2000.000000,1,COMPLETED_SUCCESSFULLY,748.763372,106.000000,854.763372,747.766287,853.766287,8.054399,8,-1.000000,""
110,w0,python3action_linpack_6000,0.000000,1,-1.000000,1,COMPLETED_SUCCESSFULLY,854.763387,0.000010,854.763397,854.763387,854.763397,85476339.727889,8,-1.000000,""
5_updated,w0,python3action_facedetection_SampleVideo_50mb_taurus,0.997085,1,2000.000000,1,COMPLETED_SUCCESSFULLY,790.455730,134.600046,925.055777,789.458645,924.058692,6.865218,10,-1.000000,""
5,w0,python3action_facedetection_SampleVideo_50mb,0.000000,1,-1.000000,1,COMPLETED_SUCCESSFULLY,925.055792,0.000010,925.055802,925.055792,925.055802,92505580.200201,10,-1.000000,""
165_updated,w0,python3action_chameleon_3000_troll,0.997085,1,2000.000000,1,COMPLETED_SUCCESSFULLY,847.870479,94.000000,941.870479,846.873394,940.873394,10.009291,19,-1.000000,""
165,w0,python3action_chameleon_3000,0.000000,1,-1.000000,1,COMPLETED_SUCCESSFULLY,941.870494,0.000010,941.870504,941.870494,941.870504,94187050.405823,19,-1.000000,""
python3action_image_processing_job0_4,w0,python3action_image_processing,0.997085,1,2000.000000,1,COMPLETED_SUCCESSFULLY,941.870524,12.398880,954.269404,940.873439,953.272319,76.883744,19,-1.000000,""
126_updated,w0,python3action_linpack_6000_orion,0.997085,1,2000.000000,1,COMPLETED_SUCCESSFULLY,854.763417,106.000000,960.763417,853.766332,959.766332,9.054399,8,-1.000000,""
126,w0,python3action_linpack_6000,0.000000,1,-1.000000,1,COMPLETED_SUCCESSFULLY,960.763432,0.000010,960.763442,960.763432,960.763442,96076344.228492,8,-1.000000,""
101_updated,w0,python3action_facedetection_SampleVideo_30mb_nova,0.997085,1,2000.000000,1,COMPLETED_SUCCESSFULLY,833.501974,160.399990,993.901965,832.504889,992.904880,6.190180,2,-1.000000,""
101,w0,python3action_facedetection_SampleVideo_30mb,0.000000,1,-1.000000,1,COMPLETED_SUCCESSFULLY,993.901980,0.000010,993.901990,993.901980,993.901990,99390199.000201,2,-1.000000,""
0_updated,w0,python3action_imageprocessing_SampleImage_60mb_troll,0.997085,1,2000.000000,1,COMPLETED_SUCCESSFULLY,954.269419,62.000000,1016.269419,953.272334,1015.272334,16.375360,19,-1.000000,""
0,w0,python3action_imageprocessing_SampleImage_60mb,0.000000,1,-1.000000,1,COMPLETED_SUCCESSFULLY,1016.269434,0.000010,1016.269444,1016.269434,1016.269444,101626944.415205,19,-1.000000,""
20_updated,w0,python3action_facedetection_SampleVideo_50mb_taurus,0.997085,1,2000.000000,1,COMPLETED_SUCCESSFULLY,925.055822,134.600046,1059.655868,924.058737,1058.658783,7.865219,10,-1.000000,""
20,w0,python3action_facedetection_SampleVideo_50mb,0.000000,1,-1.000000,1,COMPLETED_SUCCESSFULLY,1059.655883,0.000010,1059.655893,1059.655883,1059.655893,105965589.313881,10,-1.000000,""
133_updated,w0,python3action_linpack_6000_orion,0.997085,1,2000.000000,1,COMPLETED_SUCCESSFULLY,960.763462,106.000000,1066.763462,959.766377,1065.766377,10.054400,8,-1.000000,""
133,w0,python3action_linpack_6000,0.000000,1,-1.000000,1,COMPLETED_SUCCESSFULLY,1066.763477,0.000010,1066.763487,1066.763477,1066.763487,106676348.729094,8,-1.000000,""
7_updated,w0,python3action_imageprocessing_SampleImage_60mb_troll,0.997085,1,2000.000000,1,COMPLETED_SUCCESSFULLY,1016.269464,62.000000,1078.269464,1015.272379,1077.272379,17.375361,19,-1.000000,""
7,w0,python3action_imageprocessing_SampleImage_60mb,0.000000,1,-1.000000,1,COMPLETED_SUCCESSFULLY,1078.269479,0.000010,1078.269489,1078.269479,1078.269489,107826948.915807,19,-1.000000,""
25_updated,w0,python3action_imageprocessing_SampleImage_60mb_troll,0.997085,1,2000.000000,1,COMPLETED_SUCCESSFULLY,1078.269509,62.000000,1140.269509,1077.272424,1139.272424,18.375362,19,-1.000000,""
25,w0,python3action_imageprocessing_SampleImage_60mb,0.000000,1,-1.000000,1,COMPLETED_SUCCESSFULLY,1140.269524,0.000010,1140.269534,1140.269524,1140.269534,114026953.416409,19,-1.000000,""
103_updated,w0,python3action_facedetection_SampleVideo_30mb_nova,0.997085,1,2000.000000,1,COMPLETED_SUCCESSFULLY,993.902010,160.399990,1154.302000,992.904925,1153.304915,7.190181,2,-1.000000,""
103,w0,python3action_facedetection_SampleVideo_30mb,0.000000,1,-1.000000,1,COMPLETED_SUCCESSFULLY,1154.302015,0.000010,1154.302025,1154.302015,1154.302025,115430202.523907,2,-1.000000,""
136_updated,w0,python3action_linpack_6000_orion,0.997085,1,2000.000000,1,COMPLETED_SUCCESSFULLY,1066.763507,106.000000,1172.763507,1065.766422,1171.766422,11.054400,8,-1.000000,""
136,w0,python3action_linpack_6000,0.000000,1,-1.000000,1,COMPLETED_SUCCESSFULLY,1172.763522,0.000010,1172.763532,1172.763522,1172.763532,117276353.229697,8,-1.000000,""
30_updated,w0,python3action_facedetection_SampleVideo_50mb_taurus,0.997085,1,2000.000000,1,COMPLETED_SUCCESSFULLY,1059.655913,134.600046,1194.255959,1058.658828,1193.258874,8.865219,10,-1.000000,""
30,w0,python3action_facedetection_SampleVideo_50mb,0.000000,1,-1.000000,1,COMPLETED_SUCCESSFULLY,1194.255974,0.000010,1194.255984,1194.255974,1194.255984,119425598.427562,10,-1.000000,""
40_updated,w0,python3action_imageprocessing_SampleImage_60mb_troll,0.997085,1,2000.000000,1,COMPLETED_SUCCESSFULLY,1140.269554,62.000000,1202.269554,1139.272469,1201.272469,19.375362,19,-1.000000,""
40,w0,python3action_imageprocessing_SampleImage_60mb,0.000000,1,-1.000000,1,COMPLETED_SUCCESSFULLY,1202.269569,0.000010,1202.269579,1202.269569,1202.269579,120226957.917012,19,-1.000000,""
53_updated,w0,python3action_imageprocessing_SampleImage_60mb_troll,0.997085,1,2000.000000,1,COMPLETED_SUCCESSFULLY,1202.269599,62.000000,1264.269599,1201.272514,1263.272514,20.375363,19,-1.000000,""
53,w0,python3action_imageprocessing_SampleImage_60mb,0.000000,1,-1.000000,1,COMPLETED_SUCCESSFULLY,1264.269614,0.000010,1264.269624,1264.269614,1264.269624,126426962.417614,19,-1.000000,""
145_updated,w0,python3action_linpack_6000_orion,0.997085,1,2000.000000,1,COMPLETED_SUCCESSFULLY,1172.763552,106.000000,1278.763552,1171.766467,1277.766467,12.054401,8,-1.000000,""
145,w0,python3action_linpack_6000,0.000000,1,-1.000000,1,COMPLETED_SUCCESSFULLY,1278.763567,0.000010,1278.763577,1278.763567,1278.763577,127876357.730299,8,-1.000000,""
150_updated,w0,python3action_facedetection_SampleVideo_30mb_nova,0.997085,1,2000.000000,1,COMPLETED_SUCCESSFULLY,1154.302045,160.399990,1314.702035,1153.304960,1313.704950,8.190181,2,-1.000000,""
150,w0,python3action_facedetection_SampleVideo_30mb,0.000000,1,-1.000000,1,COMPLETED_SUCCESSFULLY,1314.702050,0.000010,1314.702060,1314.702050,1314.702060,131470206.047613,2,-1.000000,""
57_updated,w0,python3action_imageprocessing_SampleImage_60mb_troll,0.997085,1,2000.000000,1,COMPLETED_SUCCESSFULLY,1264.269644,62.000000,1326.269644,1263.272559,1325.272559,21.375364,19,-1.000000,""
57,w0,python3action_imageprocessing_SampleImage_60mb,0.000000,1,-1.000000,1,COMPLETED_SUCCESSFULLY,1326.269659,0.000010,1326.269669,1326.269659,1326.269669,132626966.918217,19,-1.000000,""
34_updated,w0,python3action_facedetection_SampleVideo_50mb_taurus,0.997085,1,2000.000000,1,COMPLETED_SUCCESSFULLY,1194.256004,134.600046,1328.856050,1193.258919,1327.858965,9.865219,10,-1.000000,""
34,w0,python3action_facedetection_SampleVideo_50mb,0.000000,1,-1.000000,1,COMPLETED_SUCCESSFULLY,1328.856065,0.000010,1328.856075,1328.856065,1328.856075,132885607.541242,10,-1.000000,""
174_updated,w0,python3action_linpack_6000_orion,0.997085,1,2000.000000,1,COMPLETED_SUCCESSFULLY,1278.763597,106.000000,1384.763597,1277.766512,1383.766512,13.054401,8,-1.000000,""
174,w0,python3action_linpack_6000,0.000000,1,-1.000000,1,COMPLETED_SUCCESSFULLY,1384.763612,0.000010,1384.763622,1384.763612,1384.763622,138476362.230901,8,-1.000000,""
74_updated,w0,python3action_imageprocessing_SampleImage_60mb_troll,0.997085,1,2000.000000,1,COMPLETED_SUCCESSFULLY,1326.269689,62.000000,1388.269689,1325.272604,1387.272604,22.375365,19,-1.000000,""
74,w0,python3action_imageprocessing_SampleImage_60mb,0.000000,1,-1.000000,1,COMPLETED_SUCCESSFULLY,1388.269704,0.000010,1388.269714,1388.269704,1388.269714,138826971.418819,19,-1.000000,""
90_updated,w0,python3action_imageprocessing_SampleImage_60mb_troll,0.997085,1,2000.000000,1,COMPLETED_SUCCESSFULLY,1388.269734,62.000000,1450.269734,1387.272649,1449.272649,23.375365,19,-1.000000,""
90,w0,python3action_imageprocessing_SampleImage_60mb,0.000000,1,-1.000000,1,COMPLETED_SUCCESSFULLY,1450.269749,0.000010,1450.269759,1450.269749,1450.269759,145026975.919421,19,-1.000000,""
54_updated,w0,python3action_facedetection_SampleVideo_50mb_taurus,0.997085,1,2000.000000,1,COMPLETED_SUCCESSFULLY,1328.856095,134.600046,1463.456142,1327.859010,1462.459057,10.865220,10,-1.000000,""
54,w0,python3action_facedetection_SampleVideo_50mb,0.000000,1,-1.000000,1,COMPLETED_SUCCESSFULLY,1463.456157,0.000010,1463.456167,1463.456157,1463.456167,146345616.700201,10,-1.000000,""
151_updated,w0,python3action_facedetection_SampleVideo_30mb_nova,0.997085,1,2000.000000,1,COMPLETED_SUCCESSFULLY,1314.702080,160.399990,1475.102071,1313.704995,1474.104986,9.190181,2,-1.000000,""
151,w0,python3action_facedetection_SampleVideo_30mb,0.000000,1,-1.000000,1,COMPLETED_SUCCESSFULLY,1475.102086,0.000010,1475.102096,1475.102086,1475.102096,147510209.600201,2,-1.000000,""
177_updated,w0,python3action_linpack_6000_orion,0.997085,1,2000.000000,1,COMPLETED_SUCCESSFULLY,1384.763642,106.000000,1490.763642,1383.766557,1489.766557,14.054401,8,-1.000000,""
177,w0,python3action_linpack_6000,0.000000,1,-1.000000,1,COMPLETED_SUCCESSFULLY,1490.763657,0.000010,1490.763667,1490.763657,1490.763667,149076366.731504,8,-1.000000,""
91_updated,w0,python3action_imageprocessing_SampleImage_60mb_troll,0.997085,1,2000.000000,1,COMPLETED_SUCCESSFULLY,1450.269779,62.000000,1512.269779,1449.272694,1511.272694,24.375366,19,-1.000000,""
91,w0,python3action_imageprocessing_SampleImage_60mb,0.000000,1,-1.000000,1,COMPLETED_SUCCESSFULLY,1512.269794,0.000010,1512.269804,1512.269794,1512.269804,151226980.420024,19,-1.000000,""
128_updated,w0,python3action_imageprocessing_SampleImage_60mb_troll,0.997085,1,2000.000000,1,COMPLETED_SUCCESSFULLY,1512.269824,62.000000,1574.269824,1511.272739,1573.272739,25.375367,19,-1.000000,""
128,w0,python3action_imageprocessing_SampleImage_60mb,0.000000,1,-1.000000,1,COMPLETED_SUCCESSFULLY,1574.269839,0.000010,1574.269849,1574.269839,1574.269849,157426984.920626,19,-1.000000,""
188_updated,w0,python3action_linpack_6000_orion,0.997085,1,2000.000000,1,COMPLETED_SUCCESSFULLY,1490.763687,106.000000,1596.763687,1489.766602,1595.766602,15.054402,8,-1.000000,""
188,w0,python3action_linpack_6000,0.000000,1,-1.000000,1,COMPLETED_SUCCESSFULLY,1596.763702,0.000010,1596.763712,1596.763702,1596.763712,159676371.232106,8,-1.000000,""
59_updated,w0,python3action_facedetection_SampleVideo_50mb_taurus,0.997085,1,2000.000000,1,COMPLETED_SUCCESSFULLY,1463.456187,134.600046,1598.056233,1462.459102,1597.059148,11.865220,10,-1.000000,""
59,w0,python3action_facedetection_SampleVideo_50mb,0.000000,1,-1.000000,1,COMPLETED_SUCCESSFULLY,1598.056248,0.000010,1598.056258,1598.056248,1598.056258,159805625.813881,10,-1.000000,""
157_updated,w0,python3action_facedetection_SampleVideo_30mb_nova,0.997085,1,2000.000000,1,COMPLETED_SUCCESSFULLY,1475.102116,160.399990,1635.502106,1474.105031,1634.505021,10.190182,2,-1.000000,""
157,w0,python3action_facedetection_SampleVideo_30mb,0.000000,1,-1.000000,1,COMPLETED_SUCCESSFULLY,1635.502121,0.000010,1635.502131,1635.502121,1635.502131,163550213.123907,2,-1.000000,""
185_updated,w0,python3action_imageprocessing_SampleImage_60mb_troll,0.997085,1,2000.000000,1,COMPLETED_SUCCESSFULLY,1574.269869,62.000000,1636.269869,1573.272784,1635.272784,26.375367,19,-1.000000,""
185,w0,python3action_imageprocessing_SampleImage_60mb,0.000000,1,-1.000000,1,COMPLETED_SUCCESSFULLY,1636.269884,0.000010,1636.269894,1636.269884,1636.269894,163626989.421228,19,-1.000000,""
70_updated,w0,python3action_facedetection_SampleVideo_50mb_taurus,0.997085,1,2000.000000,1,COMPLETED_SUCCESSFULLY,1598.056278,134.600046,1732.656324,1597.059193,1731.659239,12.865220,10,-1.000000,""
70,w0,python3action_facedetection_SampleVideo_50mb,0.000000,1,-1.000000,1,COMPLETED_SUCCESSFULLY,1732.656339,0.000010,1732.656349,1732.656339,1732.656349,173265634.927562,10,-1.000000,""
167_updated,w0,python3action_facedetection_SampleVideo_30mb_nova,0.997085,1,2000.000000,1,COMPLETED_SUCCESSFULLY,1635.502151,160.399990,1795.902141,1634.505066,1794.905056,11.190182,2,-1.000000,""
167,w0,python3action_facedetection_SampleVideo_30mb,0.000000,1,-1.000000,1,COMPLETED_SUCCESSFULLY,1795.902156,0.000010,1795.902166,1795.902156,1795.902166,179590216.647613,2,-1.000000,""
121_updated,w0,python3action_facedetection_SampleVideo_50mb_taurus,0.997085,1,2000.000000,1,COMPLETED_SUCCESSFULLY,1732.656369,134.600046,1867.256415,1731.659284,1866.259330,13.865221,10,-1.000000,""
121,w0,python3action_facedetection_SampleVideo_50mb,0.000000,1,-1.000000,1,COMPLETED_SUCCESSFULLY,1867.256430,0.000010,1867.256440,1867.256430,1867.256440,186725644.041242,10,-1.000000,""
183_updated,w0,python3action_facedetection_SampleVideo_30mb_nova,0.997085,1,2000.000000,1,COMPLETED_SUCCESSFULLY,1795.902186,160.399990,1956.302177,1794.905101,1955.305092,12.190182,2,-1.000000,""
183,w0,python3action_facedetection_SampleVideo_30mb,0.000000,1,-1.000000,1,COMPLETED_SUCCESSFULLY,1956.302192,0.000010,1956.302202,1956.302192,1956.302202,195630220.200201,2,-1.000000,""
161_updated,w0,python3action_facedetection_SampleVideo_50mb_taurus,0.997085,1,2000.000000,1,COMPLETED_SUCCESSFULLY,1867.256460,134.600046,2001.856507,1866.259375,2000.859422,14.865221,10,-1.000000,""
161,w0,python3action_facedetection_SampleVideo_50mb,0.000000,1,-1.000000,1,COMPLETED_SUCCESSFULLY,2001.856522,0.000010,2001.856532,2001.856522,2001.856532,200185653.200201,10,-1.000000,""
197_updated,w0,python3action_facedetection_SampleVideo_30mb_nova,0.997085,1,2000.000000,1,COMPLETED_SUCCESSFULLY,1956.302222,160.399990,2116.702212,1955.305137,2115.705127,13.190182,2,-1.000000,""
197,w0,python3action_facedetection_SampleVideo_30mb,0.000000,1,-1.000000,1,COMPLETED_SUCCESSFULLY,2116.702227,0.000010,2116.702237,2116.702227,2116.702237,211670223.723907,2,-1.000000,""
python3action_floatoperation_job6_1,w0,python3action_floatoperation,0.997085,1,2000.000000,1,COMPLETED_SUCCESSFULLY,2116.702257,2.439945,2119.142203,2115.705172,2118.145118,868.111725,2,-1.000000,""
178_updated,w0,python3action_facedetection_SampleVideo_50mb_taurus,0.997085,1,2000.000000,1,COMPLETED_SUCCESSFULLY,2001.856552,134.600046,2136.456598,2000.859467,2135.459513,15.865221,10,-1.000000,""
178,w0,python3action_facedetection_SampleVideo_50mb,0.000000,1,-1.000000,1,COMPLETED_SUCCESSFULLY,2136.456613,0.000010,2136.456623,2136.456613,2136.456623,213645662.313881,10,-1.000000,""
python3action_image_processing_job4_3,w0,python3action_image_processing_reduced_0.86,0.997085,1,2000.000000,1,COMPLETED_SUCCESSFULLY,2136.456643,9.731413,2146.188056,2135.459558,2145.190971,220.439827,10,-1.000000,""
4_updated,w0,python3action_imageprocessing_SampleImage_40mb_taurus,0.997085,1,2000.000000,1,COMPLETED_SUCCESSFULLY,2146.188071,32.600046,2178.788117,2145.190986,2177.791032,66.803311,10,-1.000000,""
4,w0,python3action_imageprocessing_SampleImage_40mb,0.000000,1,-1.000000,1,COMPLETED_SUCCESSFULLY,2178.788132,0.000010,2178.788142,2178.788132,2178.788142,217878814.215747,10,-1.000000,""
6_updated,w0,python3action_floatoperation_100000000_nova,0.997085,1,2000.000000,1,COMPLETED_SUCCESSFULLY,2119.142218,66.200020,2185.342238,2118.145133,2184.345153,32.996141,2,-1.000000,""
6,w0,python3action_floatoperation_100000000,0.000000,1,-1.000000,1,COMPLETED_SUCCESSFULLY,2185.342253,0.000010,2185.342263,2185.342253,2185.342263,218534226.300201,2,-1.000000,""
8_updated,w0,python3action_floatoperation_100000000_nova,0.997085,1,2000.000000,1,COMPLETED_SUCCESSFULLY,2185.342283,66.200020,2251.542303,2184.345198,2250.545218,33.996141,2,-1.000000,""
8,w0,python3action_floatoperation_100000000,0.000000,1,-1.000000,1,COMPLETED_SUCCESSFULLY,2251.542318,0.000010,2251.542328,2251.542318,2251.542328,225154232.800201,2,-1.000000,""
12_updated,w0,python3action_imageprocessing_SampleImage_60mb_taurus,0.997085,1,2000.000000,1,COMPLETED_SUCCESSFULLY,2178.788162,101.500058,2280.288220,2177.791077,2279.291135,22.456058,10,-1.000000,""
12,w0,python3action_imageprocessing_SampleImage_60mb,0.000000,1,-1.000000,1,COMPLETED_SUCCESSFULLY,2280.288235,0.000010,2280.288245,2280.288235,2280.288245,228028824.500201,10,-1.000000,""
23_updated,w0,python3action_imageprocessing_SampleImage_40mb_taurus,0.997085,1,2000.000000,1,COMPLETED_SUCCESSFULLY,2280.288265,32.600046,2312.888311,2279.291180,2311.891226,70.916808,10,-1.000000,""
23,w0,python3action_imageprocessing_SampleImage_40mb,0.000000,1,-1.000000,1,COMPLETED_SUCCESSFULLY,2312.888326,0.000010,2312.888336,2312.888326,2312.888336,231288833.613881,10,-1.000000,""
9_updated,w0,python3action_floatoperation_200000000_nova,0.997085,1,2000.000000,1,COMPLETED_SUCCESSFULLY,2251.542348,135.399990,2386.942338,2250.545263,2385.945253,17.621458,2,-1.000000,""
9,w0,python3action_floatoperation_200000000,0.000000,1,-1.000000,1,COMPLETED_SUCCESSFULLY,2386.942353,0.000010,2386.942363,2386.942353,2386.942363,238694236.323907,2,-1.000000,""
33_updated,w0,python3action_imageprocessing_SampleImage_60mb_taurus,0.997085,1,2000.000000,1,COMPLETED_SUCCESSFULLY,2312.888356,101.500058,2414.388414,2311.891271,2413.391329,23.777241,10,-1.000000,""
33,w0,python3action_imageprocessing_SampleImage_60mb,0.000000,1,-1.000000,1,COMPLETED_SUCCESSFULLY,2414.388429,0.000010,2414.388439,2414.388429,2414.388439,241438843.900201,10,-1.000000,""
46_updated,w0,python3action_imageprocessing_SampleImage_40mb_taurus,0.997085,1,2000.000000,1,COMPLETED_SUCCESSFULLY,2414.388459,32.600046,2446.988505,2413.391374,2445.991420,75.030305,10,-1.000000,""
46,w0,python3action_imageprocessing_SampleImage_40mb,0.000000,1,-1.000000,1,COMPLETED_SUCCESSFULLY,2446.988520,0.000010,2446.988530,2446.988520,2446.988530,244698853.013881,10,-1.000000,""
13_updated,w0,python3action_floatoperation_100000000_nova,0.997085,1,2000.000000,1,COMPLETED_SUCCESSFULLY,2386.942383,66.200020,2453.142403,2385.945298,2452.145318,37.041459,2,-1.000000,""
13,w0,python3action_floatoperation_100000000,0.000000,1,-1.000000,1,COMPLETED_SUCCESSFULLY,2453.142418,0.000010,2453.142428,2453.142418,2453.142428,245314242.800201,2,-1.000000,""
66_updated,w0,python3action_imageprocessing_SampleImage_40mb_taurus,0.997085,1,2000.000000,1,COMPLETED_SUCCESSFULLY,2446.988550,32.600046,2479.588596,2445.991465,2478.591511,76.030307,10,-1.000000,""
66,w0,python3action_imageprocessing_SampleImage_40mb,0.000000,1,-1.000000,1,COMPLETED_SUCCESSFULLY,2479.588611,0.000010,2479.588621,2479.588611,2479.588621,247958862.127562,10,-1.000000,""
88_updated,w0,python3action_imageprocessing_SampleImage_40mb_taurus,0.997085,1,2000.000000,1,COMPLETED_SUCCESSFULLY,2479.588641,32.600046,2512.188687,2478.591556,2511.191602,77.030308,10,-1.000000,""
88,w0,python3action_imageprocessing_SampleImage_40mb,0.000000,1,-1.000000,1,COMPLETED_SUCCESSFULLY,2512.188702,0.000010,2512.188712,2512.188702,2512.188712,251218871.241243,10,-1.000000,""
19_updated,w0,python3action_floatoperation_100000000_nova,0.997085,1,2000.000000,1,COMPLETED_SUCCESSFULLY,2453.142448,66.200020,2519.342468,2452.145363,2518.345383,38.041460,2,-1.000000,""
19,w0,python3action_floatoperation_100000000,0.000000,1,-1.000000,1,COMPLETED_SUCCESSFULLY,2519.342483,0.000010,2519.342493,2519.342483,2519.342493,251934249.300201,2,-1.000000,""
26_updated,w0,python3action_floatoperation_100000000_nova,0.997085,1,2000.000000,1,COMPLETED_SUCCESSFULLY,2519.342513,66.200020,2585.542533,2518.345428,2584.545448,39.041460,2,-1.000000,""
26,w0,python3action_floatoperation_100000000,0.000000,1,-1.000000,1,COMPLETED_SUCCESSFULLY,2585.542548,0.000010,2585.542558,2585.542548,2585.542558,258554255.800201,2,-1.000000,""
92_updated,w0,python3action_imageprocessing_SampleImage_60mb_taurus,0.997085,1,2000.000000,1,COMPLETED_SUCCESSFULLY,2512.188732,101.500058,2613.688790,2511.191647,2612.691705,25.740790,10,-1.000000,""
92,w0,python3action_imageprocessing_SampleImage_60mb,0.000000,1,-1.000000,1,COMPLETED_SUCCESSFULLY,2613.688805,0.000010,2613.688815,2613.688805,2613.688815,261368881.508193,10,-1.000000,""
95_updated,w0,python3action_imageprocessing_SampleImage_40mb_taurus,0.997085,1,2000.000000,1,COMPLETED_SUCCESSFULLY,2613.688835,32.600046,2646.288881,2612.691750,2645.291796,81.143805,10,-1.000000,""
95,w0,python3action_imageprocessing_SampleImage_40mb,0.000000,1,-1.000000,1,COMPLETED_SUCCESSFULLY,2646.288896,0.000010,2646.288906,2646.288896,2646.288906,264628890.621873,10,-1.000000,""
97_updated,w0,python3action_imageprocessing_SampleImage_40mb_taurus,0.997085,1,2000.000000,1,COMPLETED_SUCCESSFULLY,2646.288926,32.600046,2678.888972,2645.291841,2677.891887,82.143807,10,-1.000000,""
97,w0,python3action_imageprocessing_SampleImage_40mb,0.000000,1,-1.000000,1,COMPLETED_SUCCESSFULLY,2678.888987,0.000010,2678.888997,2678.888987,2678.888997,267888899.735554,10,-1.000000,""
36_updated,w0,python3action_floatoperation_200000000_nova,0.997085,1,2000.000000,1,COMPLETED_SUCCESSFULLY,2585.542578,135.399990,2720.942568,2584.545493,2719.945483,20.088225,2,-1.000000,""
36,w0,python3action_floatoperation_200000000,0.000000,1,-1.000000,1,COMPLETED_SUCCESSFULLY,2720.942583,0.000010,2720.942593,2720.942583,2720.942593,272094259.323907,2,-1.000000,""
109_updated,w0,python3action_imageprocessing_SampleImage_60mb_taurus,0.997085,1,2000.000000,1,COMPLETED_SUCCESSFULLY,2678.889017,101.500058,2780.389075,2677.891932,2779.391990,27.383157,10,-1.000000,""
109,w0,python3action_imageprocessing_SampleImage_60mb,0.000000,1,-1.000000,1,COMPLETED_SUCCESSFULLY,2780.389090,0.000010,2780.389100,2780.389090,2780.389100,278038910.002504,10,-1.000000,""
45_updated,w0,python3action_floatoperation_100000000_nova,0.997085,1,2000.000000,1,COMPLETED_SUCCESSFULLY,2720.942613,66.200020,2787.142633,2719.945528,2786.145548,42.086778,2,-1.000000,""
45,w0,python3action_floatoperation_100000000,0.000000,1,-1.000000,1,COMPLETED_SUCCESSFULLY,2787.142648,0.000010,2787.142658,2787.142648,2787.142658,278714265.800201,2,-1.000000,""
111_updated,w0,python3action_imageprocessing_SampleImage_40mb_taurus,0.997085,1,2000.000000,1,COMPLETED_SUCCESSFULLY,2780.389120,32.600046,2812.989166,2779.392035,2811.992081,86.257304,10,-1.000000,""
111,w0,python3action_imageprocessing_SampleImage_40mb,0.000000,1,-1.000000,1,COMPLETED_SUCCESSFULLY,2812.989181,0.000010,2812.989191,2812.989181,2812.989191,281298919.116185,10,-1.000000,""
49_updated,w0,python3action_floatoperation_100000000_nova,0.997085,1,2000.000000,1,COMPLETED_SUCCESSFULLY,2787.142678,66.200020,2853.342698,2786.145593,2852.345613,43.086779,2,-1.000000,""
49,w0,python3action_floatoperation_100000000,0.000000,1,-1.000000,1,COMPLETED_SUCCESSFULLY,2853.342713,0.000010,2853.342723,2853.342713,2853.342723,285334272.300201,2,-1.000000,""
139_updated,w0,python3action_imageprocessing_SampleImage_60mb_taurus,0.997085,1,2000.000000,1,COMPLETED_SUCCESSFULLY,2812.989211,101.500058,2914.489269,2811.992126,2913.492184,28.704340,10,-1.000000,""
139,w0,python3action_imageprocessing_SampleImage_60mb,0.000000,1,-1.000000,1,COMPLETED_SUCCESSFULLY,2914.489284,0.000010,2914.489294,2914.489284,2914.489294,291448929.400201,10,-1.000000,""
64_updated,w0,python3action_floatoperation_100000000_nova,0.997085,1,2000.000000,1,COMPLETED_SUCCESSFULLY,2853.342743,66.200020,2919.542763,2852.345658,2918.545678,44.086780,2,-1.000000,""
64,w0,python3action_floatoperation_100000000,0.000000,1,-1.000000,1,COMPLETED_SUCCESSFULLY,2919.542778,0.000010,2919.542788,2919.542778,2919.542788,291954278.800201,2,-1.000000,""
153_updated,w0,python3action_imageprocessing_SampleImage_40mb_taurus,0.997085,1,2000.000000,1,COMPLETED_SUCCESSFULLY,2914.489314,32.600046,2947.089360,2913.492229,2946.092275,90.370801,10,-1.000000,""
153,w0,python3action_imageprocessing_SampleImage_40mb,0.000000,1,-1.000000,1,COMPLETED_SUCCESSFULLY,2947.089375,0.000010,2947.089385,2947.089375,2947.089385,294708938.513882,10,-1.000000,""
75_updated,w0,python3action_floatoperation_100000000_nova,0.997085,1,2000.000000,1,COMPLETED_SUCCESSFULLY,2919.542808,66.200020,2985.742828,2918.545723,2984.745743,45.086780,2,-1.000000,""
75,w0,python3action_floatoperation_100000000,0.000000,1,-1.000000,1,COMPLETED_SUCCESSFULLY,2985.742843,0.000010,2985.742853,2985.742843,2985.742853,298574285.300201,2,-1.000000,""
160_updated,w0,python3action_imageprocessing_SampleImage_60mb_taurus,0.997085,1,2000.000000,1,COMPLETED_SUCCESSFULLY,2947.089405,101.500058,3048.589463,2946.092320,3047.592378,30.025524,10,-1.000000,""
160,w0,python3action_imageprocessing_SampleImage_60mb,0.000000,1,-1.000000,1,COMPLETED_SUCCESSFULLY,3048.589478,0.000010,3048.589488,3048.589478,3048.589488,304858948.800201,10,-1.000000,""
83_updated,w0,python3action_floatoperation_100000000_nova,0.997085,1,2000.000000,1,COMPLETED_SUCCESSFULLY,2985.742873,66.200020,3051.942893,2984.745788,3050.945808,46.086781,2,-1.000000,""
83,w0,python3action_floatoperation_100000000,0.000000,1,-1.000000,1,COMPLETED_SUCCESSFULLY,3051.942908,0.000010,3051.942918,3051.942908,3051.942918,305194291.800201,2,-1.000000,""
162_updated,w0,python3action_imageprocessing_SampleImage_40mb_taurus,0.997085,1,2000.000000,1,COMPLETED_SUCCESSFULLY,3048.589508,32.600046,3081.189554,3047.592423,3080.192469,94.484298,10,-1.000000,""
162,w0,python3action_imageprocessing_SampleImage_40mb,0.000000,1,-1.000000,1,COMPLETED_SUCCESSFULLY,3081.189569,0.000010,3081.189579,3081.189569,3081.189579,308118957.913881,10,-1.000000,""
164_updated,w0,python3action_imageprocessing_SampleImage_40mb_taurus,0.997085,1,2000.000000,1,COMPLETED_SUCCESSFULLY,3081.189599,32.600046,3113.789645,3080.192514,3112.792560,95.484299,10,-1.000000,""
164,w0,python3action_imageprocessing_SampleImage_40mb,0.000000,1,-1.000000,1,COMPLETED_SUCCESSFULLY,3113.789660,0.000010,3113.789670,3113.789660,3113.789670,311378967.027562,10,-1.000000,""
172_updated,w0,python3action_imageprocessing_SampleImage_40mb_taurus,0.997085,1,2000.000000,1,COMPLETED_SUCCESSFULLY,3113.789690,32.600046,3146.389736,3112.792605,3145.392651,96.484301,10,-1.000000,""
172,w0,python3action_imageprocessing_SampleImage_40mb,0.000000,1,-1.000000,1,COMPLETED_SUCCESSFULLY,3146.389751,0.000010,3146.389761,3146.389751,3146.389761,314638976.141243,10,-1.000000,""
173_updated,w0,python3action_imageprocessing_SampleImage_40mb_taurus,0.997085,1,2000.000000,1,COMPLETED_SUCCESSFULLY,3146.389781,32.600046,3178.989828,3145.392696,3177.992743,97.484302,10,-1.000000,""
173,w0,python3action_imageprocessing_SampleImage_40mb,0.000000,1,-1.000000,1,COMPLETED_SUCCESSFULLY,3178.989843,0.000010,3178.989853,3178.989843,3178.989853,317898985.300201,10,-1.000000,""
84_updated,w0,python3action_floatoperation_200000000_nova,0.997085,1,2000.000000,1,COMPLETED_SUCCESSFULLY,3051.942938,135.399990,3187.342928,3050.945853,3186.345843,23.532837,2,-1.000000,""
84,w0,python3action_floatoperation_200000000,0.000000,1,-1.000000,1,COMPLETED_SUCCESSFULLY,3187.342943,0.000010,3187.342953,3187.342943,3187.342953,318734295.323907,2,-1.000000,""
186_updated,w0,python3action_imageprocessing_SampleImage_40mb_taurus,0.997085,1,2000.000000,1,COMPLETED_SUCCESSFULLY,3178.989873,32.600046,3211.589919,3177.992788,3210.592834,98.484303,10,-1.000000,""
186,w0,python3action_imageprocessing_SampleImage_40mb,0.000000,1,-1.000000,1,COMPLETED_SUCCESSFULLY,3211.589934,0.000010,3211.589944,3211.589934,3211.589944,321158994.413882,10,-1.000000,""
198_updated,w0,python3action_imageprocessing_SampleImage_40mb_taurus,0.997085,1,2000.000000,1,COMPLETED_SUCCESSFULLY,3211.589964,32.600046,3244.190010,3210.592879,3243.192925,99.484305,10,-1.000000,""
198,w0,python3action_imageprocessing_SampleImage_40mb,0.000000,1,-1.000000,1,COMPLETED_SUCCESSFULLY,3244.190025,0.000010,3244.190035,3244.190025,3244.190035,324419003.527562,10,-1.000000,""
python3action_video_processing_job17_3,w0,python3action_video_processing_reduced_1.83,0.997085,1,2000.000000,1,COMPLETED_SUCCESSFULLY,3244.190055,0.000000,3244.190055,3243.192970,3243.192970,28078176235779.304688,10,-1.000000,""
116_updated,w0,python3action_floatoperation_100000000_nova,0.997085,1,2000.000000,1,COMPLETED_SUCCESSFULLY,3187.342973,66.200020,3253.542993,3186.345888,3252.545908,49.132099,2,-1.000000,""
116,w0,python3action_floatoperation_100000000,0.000000,1,-1.000000,1,COMPLETED_SUCCESSFULLY,3253.543008,0.000010,3253.543018,3253.543008,3253.543018,325354301.800201,2,-1.000000,""
120_updated,w0,python3action_floatoperation_200000000_nova,0.997085,1,2000.000000,1,COMPLETED_SUCCESSFULLY,3253.543038,135.399990,3388.943028,3252.545953,3387.945943,25.021759,2,-1.000000,""
120,w0,python3action_floatoperation_200000000,0.000000,1,-1.000000,1,COMPLETED_SUCCESSFULLY,3388.943043,0.000010,3388.943053,3388.943043,3388.943053,338894305.323907,2,-1.000000,""
17_updated,w0,python3action_videoprocessing_SampleVideo_50mb_taurus,0.997085,1,2000.000000,1,COMPLETED_SUCCESSFULLY,3244.190085,154.250029,3398.440114,3243.193000,3397.443029,22.025558,10,-1.000000,""
17,w0,python3action_videoprocessing_SampleVideo_50mb,0.000000,1,-1.000000,1,COMPLETED_SUCCESSFULLY,3398.440129,0.000010,3398.440139,3398.440129,3398.440139,339844013.911740,10,-1.000000,""
123_updated,w0,python3action_floatoperation_100000000_nova,0.997085,1,2000.000000,1,COMPLETED_SUCCESSFULLY,3388.943073,66.200020,3455.143093,3387.945988,3454.146008,52.177417,2,-1.000000,""
123,w0,python3action_floatoperation_100000000,0.000000,1,-1.000000,1,COMPLETED_SUCCESSFULLY,3455.143108,0.000010,3455.143118,3455.143108,3455.143118,345514311.800201,2,-1.000000,""
124_updated,w0,python3action_floatoperation_100000000_nova,0.997085,1,2000.000000,1,COMPLETED_SUCCESSFULLY,3455.143138,66.200020,3521.343158,3454.146053,3520.346073,53.177417,2,-1.000000,""
124,w0,python3action_floatoperation_100000000,0.000000,1,-1.000000,1,COMPLETED_SUCCESSFULLY,3521.343173,0.000010,3521.343183,3521.343173,3521.343183,352134318.300201,2,-1.000000,""
38_updated,w0,python3action_videoprocessing_SampleVideo_50mb_taurus,0.997085,1,2000.000000,1,COMPLETED_SUCCESSFULLY,3398.440159,154.250029,3552.690188,3397.443074,3551.693103,23.025559,10,-1.000000,""
38,w0,python3action_videoprocessing_SampleVideo_50mb,0.000000,1,-1.000000,1,COMPLETED_SUCCESSFULLY,3552.690203,0.000010,3552.690213,3552.690203,3552.690213,355269021.300201,10,-1.000000,""
142_updated,w0,python3action_floatoperation_100000000_nova,0.997085,1,2000.000000,1,COMPLETED_SUCCESSFULLY,3521.343203,66.200020,3587.543223,3520.346118,3586.546138,54.177418,2,-1.000000,""
142,w0,python3action_floatoperation_100000000,0.000000,1,-1.000000,1,COMPLETED_SUCCESSFULLY,3587.543238,0.000010,3587.543248,3587.543238,3587.543248,358754324.800201,2,-1.000000,""
156_updated,w0,python3action_floatoperation_100000000_nova,0.997085,1,2000.000000,1,COMPLETED_SUCCESSFULLY,3587.543268,66.200020,3653.743288,3586.546183,3652.746203,55.177419,2,-1.000000,""
156,w0,python3action_floatoperation_100000000,0.000000,1,-1.000000,1,COMPLETED_SUCCESSFULLY,3653.743303,0.000010,3653.743313,3653.743303,3653.743313,365374331.300201,2,-1.000000,""
80_updated,w0,python3action_videoprocessing_SampleVideo_50mb_taurus,0.997085,1,2000.000000,1,COMPLETED_SUCCESSFULLY,3552.690233,154.250029,3706.940262,3551.693148,3705.943177,24.025559,10,-1.000000,""
80,w0,python3action_videoprocessing_SampleVideo_50mb,0.000000,1,-1.000000,1,COMPLETED_SUCCESSFULLY,3706.940277,0.000010,3706.940287,3706.940277,3706.940287,370694028.700201,10,-1.000000,""
194_updated,w0,python3action_floatoperation_200000000_nova,0.997085,1,2000.000000,1,COMPLETED_SUCCESSFULLY,3653.743333,135.399990,3789.143323,3652.746248,3788.146238,27.977448,2,-1.000000,""
194,w0,python3action_floatoperation_200000000,0.000000,1,-1.000000,1,COMPLETED_SUCCESSFULLY,3789.143338,0.000010,3789.143348,3789.143338,3789.143348,378914334.823907,2,-1.000000,""
196_updated,w0,python3action_floatoperation_100000000_nova,0.997085,1,2000.000000,1,COMPLETED_SUCCESSFULLY,3789.143368,66.200020,3855.343388,3788.146283,3854.346303,58.222737,2,-1.000000,""
196,w0,python3action_floatoperation_100000000,0.000000,1,-1.000000,1,COMPLETED_SUCCESSFULLY,3855.343403,0.000010,3855.343413,3855.343403,3855.343413,385534341.300201,2,-1.000000,""
python3action_linpack_job1_1,w0,python3action_linpack,0.997085,1,2000.000000,1,COMPLETED_SUCCESSFULLY,3855.343433,2.439945,3857.783378,3854.346348,3856.786293,1580.685560,2,-1.000000,""
114_updated,w0,python3action_videoprocessing_SampleVideo_50mb_taurus,0.997085,1,2000.000000,1,COMPLETED_SUCCESSFULLY,3706.940307,154.250029,3861.190336,3705.943222,3860.193251,25.025559,10,-1.000000,""
114,w0,python3action_videoprocessing_SampleVideo_50mb,0.000000,1,-1.000000,1,COMPLETED_SUCCESSFULLY,3861.190351,0.000010,3861.190361,3861.190351,3861.190361,386119036.100201,10,-1.000000,""
1_updated,w0,python3action_linpack_5000_nova,0.997085,1,2000.000000,1,COMPLETED_SUCCESSFULLY,3857.783393,34.600010,3892.383403,3856.786308,3891.386318,112.467781,2,-1.000000,""
1,w0,python3action_linpack_5000,0.000000,1,-1.000000,1,COMPLETED_SUCCESSFULLY,3892.383418,0.000010,3892.383428,3892.383418,3892.383428,389238342.807281,2,-1.000000,""
10_updated,w0,python3action_linpack_5000_nova,0.997085,1,2000.000000,1,COMPLETED_SUCCESSFULLY,3892.383448,34.600010,3926.983458,3891.386363,3925.986373,113.467782,2,-1.000000,""
10,w0,python3action_linpack_5000,0.000000,1,-1.000000,1,COMPLETED_SUCCESSFULLY,3926.983473,0.000010,3926.983483,3926.983473,3926.983483,392698348.300201,2,-1.000000,""
24_updated,w0,python3action_linpack_5000_nova,0.997085,1,2000.000000,1,COMPLETED_SUCCESSFULLY,3926.983503,34.600010,3961.583513,3925.986418,3960.586428,114.467784,2,-1.000000,""
24,w0,python3action_linpack_5000,0.000000,1,-1.000000,1,COMPLETED_SUCCESSFULLY,3961.583528,0.000010,3961.583538,3961.583528,3961.583538,396158353.800201,2,-1.000000,""
31_updated,w0,python3action_linpack_5000_nova,0.997085,1,2000.000000,1,COMPLETED_SUCCESSFULLY,3961.583558,34.600010,3996.183568,3960.586473,3995.186483,115.467785,2,-1.000000,""
31,w0,python3action_linpack_5000,0.000000,1,-1.000000,1,COMPLETED_SUCCESSFULLY,3996.183583,0.000010,3996.183593,3996.183583,3996.183593,399618359.300201,2,-1.000000,""
115_updated,w0,python3action_videoprocessing_SampleVideo_50mb_taurus,0.997085,1,2000.000000,1,COMPLETED_SUCCESSFULLY,3861.190381,154.250029,4015.440410,3860.193296,4014.443325,26.025560,10,-1.000000,""
115,w0,python3action_videoprocessing_SampleVideo_50mb,0.000000,1,-1.000000,1,COMPLETED_SUCCESSFULLY,4015.440425,0.000010,4015.440435,4015.440425,4015.440435,401544043.500201,10,-1.000000,""
37_updated,w0,python3action_linpack_5000_nova,0.997085,1,2000.000000,1,COMPLETED_SUCCESSFULLY,3996.183613,34.600010,4030.783623,3995.186528,4029.786538,116.467786,2,-1.000000,""
37,w0,python3action_linpack_5000,0.000000,1,-1.000000,1,COMPLETED_SUCCESSFULLY,4030.783638,0.000010,4030.783648,4030.783638,4030.783648,403078364.800201,2,-1.000000,""
61_updated,w0,python3action_linpack_5000_nova,0.997085,1,2000.000000,1,COMPLETED_SUCCESSFULLY,4030.783668,34.600010,4065.383678,4029.786583,4064.386593,117.467787,2,-1.000000,""
61,w0,python3action_linpack_5000,0.000000,1,-1.000000,1,COMPLETED_SUCCESSFULLY,4065.383693,0.000010,4065.383703,4065.383693,4065.383703,406538370.300201,2,-1.000000,""
62_updated,w0,python3action_linpack_5000_nova,0.997085,1,2000.000000,1,COMPLETED_SUCCESSFULLY,4065.383723,34.600010,4099.983733,4064.386638,4098.986648,118.467789,2,-1.000000,""
62,w0,python3action_linpack_5000,0.000000,1,-1.000000,1,COMPLETED_SUCCESSFULLY,4099.983748,0.000010,4099.983758,4099.983748,4099.983758,409998375.800201,2,-1.000000,""
73_updated,w0,python3action_linpack_5000_nova,0.997085,1,2000.000000,1,COMPLETED_SUCCESSFULLY,4099.983778,34.600010,4134.583788,4098.986693,4133.586703,119.467790,2,-1.000000,""
73,w0,python3action_linpack_5000,0.000000,1,-1.000000,1,COMPLETED_SUCCESSFULLY,4134.583803,0.000010,4134.583813,4134.583803,4134.583813,413458381.300201,2,-1.000000,""
79_updated,w0,python3action_linpack_5000_nova,0.997085,1,2000.000000,1,COMPLETED_SUCCESSFULLY,4134.583833,34.600010,4169.183843,4133.586748,4168.186758,120.467791,2,-1.000000,""
79,w0,python3action_linpack_5000,0.000000,1,-1.000000,1,COMPLETED_SUCCESSFULLY,4169.183858,0.000010,4169.183868,4169.183858,4169.183868,416918386.800201,2,-1.000000,""
117_updated,w0,python3action_videoprocessing_SampleVideo_50mb_taurus,0.997085,1,2000.000000,1,COMPLETED_SUCCESSFULLY,4015.440455,154.250029,4169.690484,4014.443370,4168.693399,27.025560,10,-1.000000,""
117,w0,python3action_videoprocessing_SampleVideo_50mb,0.000000,1,-1.000000,1,COMPLETED_SUCCESSFULLY,4169.690499,0.000010,4169.690509,4169.690499,4169.690509,416969050.900201,10,-1.000000,""
98_updated,w0,python3action_linpack_5000_nova,0.997085,1,2000.000000,1,COMPLETED_SUCCESSFULLY,4169.183888,34.600010,4203.783898,4168.186803,4202.786813,121.467793,2,-1.000000,""
98,w0,python3action_linpack_5000,0.000000,1,-1.000000,1,COMPLETED_SUCCESSFULLY,4203.783913,0.000010,4203.783923,4203.783913,4203.783923,420378392.300201,2,-1.000000,""
141_updated,w0,python3action_linpack_5000_nova,0.997085,1,2000.000000,1,COMPLETED_SUCCESSFULLY,4203.783943,34.600010,4238.383953,4202.786858,4237.386868,122.467794,2,-1.000000,""
141,w0,python3action_linpack_5000,0.000000,1,-1.000000,1,COMPLETED_SUCCESSFULLY,4238.383968,0.000010,4238.383978,4238.383968,4238.383978,423838397.800201,2,-1.000000,""
144_updated,w0,python3action_linpack_5000_nova,0.997085,1,2000.000000,1,COMPLETED_SUCCESSFULLY,4238.383998,34.600010,4272.984008,4237.386913,4271.986923,123.467795,2,-1.000000,""
144,w0,python3action_linpack_5000,0.000000,1,-1.000000,1,COMPLETED_SUCCESSFULLY,4272.984023,0.000010,4272.984033,4272.984023,4272.984033,427298403.300201,2,-1.000000,""
154_updated,w0,python3action_linpack_5000_nova,0.997085,1,2000.000000,1,COMPLETED_SUCCESSFULLY,4272.984053,34.600010,4307.584063,4271.986968,4306.586978,124.467797,2,-1.000000,""
154,w0,python3action_linpack_5000,0.000000,1,-1.000000,1,COMPLETED_SUCCESSFULLY,4307.584078,0.000010,4307.584088,4307.584078,4307.584088,430758408.800201,2,-1.000000,""
python3action_modeltraining_job11_1,w0,python3action_modeltraining_reduced_0.94,0.997085,1,2000.000000,1,COMPLETED_SUCCESSFULLY,4307.584108,1.794099,4309.378207,4306.587023,4308.381122,2401.417754,2,-1.000000,""
148_updated,w0,python3action_videoprocessing_SampleVideo_50mb_taurus,0.997085,1,2000.000000,1,COMPLETED_SUCCESSFULLY,4169.690529,154.250029,4323.940558,4168.693444,4322.943473,28.025560,10,-1.000000,""
148,w0,python3action_videoprocessing_SampleVideo_50mb,0.000000,1,-1.000000,1,COMPLETED_SUCCESSFULLY,4323.940573,0.000010,4323.940583,4323.940573,4323.940583,432394058.300201,10,-1.000000,""
11_updated,w0,python3action_modeltraining_reviews100mb_nova,0.997085,1,2000.000000,1,COMPLETED_SUCCESSFULLY,4309.378222,79.600010,4388.978232,4308.381137,4387.981147,55.125385,2,-1.000000,""
11,w0,python3action_modeltraining_reviews100mb,0.000000,1,-1.000000,1,COMPLETED_SUCCESSFULLY,4388.978247,0.000010,4388.978257,4388.978247,4388.978257,438897825.700201,2,-1.000000,""
14_updated,w0,python3action_modeltraining_reviews50mb_nova,0.997085,1,2000.000000,1,COMPLETED_SUCCESSFULLY,4388.978277,42.399990,4431.378267,4387.981192,4430.381182,104.490146,2,-1.000000,""
14,w0,python3action_modeltraining_reviews50mb,0.000000,1,-1.000000,1,COMPLETED_SUCCESSFULLY,4431.378282,0.000010,4431.378292,4431.378282,4431.378292,443137829.223907,2,-1.000000,""
155_updated,w0,python3action_videoprocessing_SampleVideo_50mb_taurus,0.997085,1,2000.000000,1,COMPLETED_SUCCESSFULLY,4323.940603,154.250029,4478.190632,4322.943518,4477.193547,29.025561,10,-1.000000,""
155,w0,python3action_videoprocessing_SampleVideo_50mb,0.000000,1,-1.000000,1,COMPLETED_SUCCESSFULLY,4478.190647,0.000010,4478.190657,4478.190647,4478.190657,447819065.700201,10,-1.000000,""
15_updated,w0,python3action_modeltraining_reviews100mb_nova,0.997085,1,2000.000000,1,COMPLETED_SUCCESSFULLY,4431.378312,79.600010,4510.978322,4430.381227,4509.981237,56.658049,2,-1.000000,""
15,w0,python3action_modeltraining_reviews100mb,0.000000,1,-1.000000,1,COMPLETED_SUCCESSFULLY,4510.978337,0.000010,4510.978347,4510.978337,4510.978347,451097834.701405,2,-1.000000,""
27_updated,w0,python3action_modeltraining_reviews100mb_nova,0.997085,1,2000.000000,1,COMPLETED_SUCCESSFULLY,4510.978367,79.600010,4590.578377,4509.981282,4589.581292,57.658049,2,-1.000000,""
27,w0,python3action_modeltraining_reviews100mb,0.000000,1,-1.000000,1,COMPLETED_SUCCESSFULLY,4590.578392,0.000010,4590.578402,4590.578392,4590.578402,459057840.200201,2,-1.000000,""
166_updated,w0,python3action_videoprocessing_SampleVideo_50mb_taurus,0.997085,1,2000.000000,1,COMPLETED_SUCCESSFULLY,4478.190677,154.250029,4632.440706,4477.193592,4631.443621,30.025561,10,-1.000000,""
166,w0,python3action_videoprocessing_SampleVideo_50mb,0.000000,1,-1.000000,1,COMPLETED_SUCCESSFULLY,4632.440721,0.000010,4632.440731,4632.440721,4632.440731,463244073.100201,10,-1.000000,""
29_updated,w0,python3action_modeltraining_reviews100mb_nova,0.997085,1,2000.000000,1,COMPLETED_SUCCESSFULLY,4590.578422,79.600010,4670.178432,4589.581337,4669.181347,58.658050,2,-1.000000,""
29,w0,python3action_modeltraining_reviews100mb,0.000000,1,-1.000000,1,COMPLETED_SUCCESSFULLY,4670.178447,0.000010,4670.178457,4670.178447,4670.178457,467017845.700201,2,-1.000000,""
32_updated,w0,python3action_modeltraining_reviews50mb_nova,0.997085,1,2000.000000,1,COMPLETED_SUCCESSFULLY,4670.178477,42.399990,4712.578467,4669.181392,4711.581382,111.122228,2,-1.000000,""
32,w0,python3action_modeltraining_reviews50mb,0.000000,1,-1.000000,1,COMPLETED_SUCCESSFULLY,4712.578482,0.000010,4712.578492,4712.578482,4712.578492,471257849.223907,2,-1.000000,""
181_updated,w0,python3action_videoprocessing_SampleVideo_50mb_taurus,0.997085,1,2000.000000,1,COMPLETED_SUCCESSFULLY,4632.440751,154.250029,4786.690780,4631.443666,4785.693695,31.025561,10,-1.000000,""
181,w0,python3action_videoprocessing_SampleVideo_50mb,0.000000,1,-1.000000,1,COMPLETED_SUCCESSFULLY,4786.690795,0.000010,4786.690805,4786.690795,4786.690805,478669080.500201,10,-1.000000,""
39_updated,w0,python3action_modeltraining_reviews100mb_nova,0.997085,1,2000.000000,1,COMPLETED_SUCCESSFULLY,4712.578512,79.600010,4792.178522,4711.581427,4791.181437,60.190714,2,-1.000000,""
39,w0,python3action_modeltraining_reviews100mb,0.000000,1,-1.000000,1,COMPLETED_SUCCESSFULLY,4792.178537,0.000010,4792.178547,4792.178537,4792.178547,479217854.701405,2,-1.000000,""
47_updated,w0,python3action_modeltraining_reviews50mb_nova,0.997085,1,2000.000000,1,COMPLETED_SUCCESSFULLY,4792.178567,42.399990,4834.578557,4791.181482,4833.581472,113.999589,2,-1.000000,""
47,w0,python3action_modeltraining_reviews50mb,0.000000,1,-1.000000,1,COMPLETED_SUCCESSFULLY,4834.578572,0.000010,4834.578582,4834.578572,4834.578582,483457858.225111,2,-1.000000,""
58_updated,w0,python3action_modeltraining_reviews50mb_nova,0.997085,1,2000.000000,1,COMPLETED_SUCCESSFULLY,4834.578602,42.399990,4876.978592,4833.581517,4875.981507,114.999590,2,-1.000000,""
58,w0,python3action_modeltraining_reviews50mb,0.000000,1,-1.000000,1,COMPLETED_SUCCESSFULLY,4876.978607,0.000010,4876.978617,4876.978607,4876.978617,487697861.748817,2,-1.000000,""
65_updated,w0,python3action_modeltraining_reviews50mb_nova,0.997085,1,2000.000000,1,COMPLETED_SUCCESSFULLY,4876.978637,42.399990,4919.378628,4875.981552,4918.381543,115.999591,2,-1.000000,""
65,w0,python3action_modeltraining_reviews50mb,0.000000,1,-1.000000,1,COMPLETED_SUCCESSFULLY,4919.378643,0.000010,4919.378653,4919.378643,4919.378653,491937865.300201,2,-1.000000,""
182_updated,w0,python3action_videoprocessing_SampleVideo_50mb_taurus,0.997085,1,2000.000000,1,COMPLETED_SUCCESSFULLY,4786.690825,154.250029,4940.940854,4785.693740,4939.943769,32.025561,10,-1.000000,""
182,w0,python3action_videoprocessing_SampleVideo_50mb,0.000000,1,-1.000000,1,COMPLETED_SUCCESSFULLY,4940.940869,0.000010,4940.940879,4940.940869,4940.940879,494094087.900201,10,-1.000000,""
96_updated,w0,python3action_modeltraining_reviews100mb_nova,0.997085,1,2000.000000,1,COMPLETED_SUCCESSFULLY,4919.378673,79.600010,4998.978683,4918.381588,4997.981598,62.788706,2,-1.000000,""
96,w0,python3action_modeltraining_reviews100mb,0.000000,1,-1.000000,1,COMPLETED_SUCCESSFULLY,4998.978698,0.000010,4998.978708,4998.978698,4998.978708,499897870.800201,2,-1.000000,""
130_updated,w0,python3action_modeltraining_reviews100mb_nova,0.997085,1,2000.000000,1,COMPLETED_SUCCESSFULLY,4998.978728,79.600010,5078.578738,4997.981643,5077.581653,63.788706,2,-1.000000,""
130,w0,python3action_modeltraining_reviews100mb,0.000000,1,-1.000000,1,COMPLETED_SUCCESSFULLY,5078.578753,0.000010,5078.578763,5078.578753,5078.578763,507857876.300201,2,-1.000000,""
189_updated,w0,python3action_videoprocessing_SampleVideo_50mb_taurus,0.997085,1,2000.000000,1,COMPLETED_SUCCESSFULLY,4940.940899,154.250029,5095.190928,4939.943814,5094.193843,33.025562,10,-1.000000,""
189,w0,python3action_videoprocessing_SampleVideo_50mb,0.000000,1,-1.000000,1,COMPLETED_SUCCESSFULLY,5095.190943,0.000010,5095.190953,5095.190943,5095.190953,509519095.300201,10,-1.000000,""
132_updated,w0,python3action_modeltraining_reviews50mb_nova,0.997085,1,2000.000000,1,COMPLETED_SUCCESSFULLY,5078.578783,42.399990,5120.978773,5077.581698,5119.981688,120.754313,2,-1.000000,""
132,w0,python3action_modeltraining_reviews50mb,0.000000,1,-1.000000,1,COMPLETED_SUCCESSFULLY,5120.978788,0.000010,5120.978798,5120.978788,5120.978798,512097879.823907,2,-1.000000,""
137_updated,w0,python3action_modeltraining_reviews100mb_nova,0.997085,1,2000.000000,1,COMPLETED_SUCCESSFULLY,5120.978818,79.600010,5200.578828,5119.981733,5199.581743,65.321371,2,-1.000000,""
137,w0,python3action_modeltraining_reviews100mb,0.000000,1,-1.000000,1,COMPLETED_SUCCESSFULLY,5200.578843,0.000010,5200.578853,5200.578843,5200.578853,520057885.301405,2,-1.000000,""
149_updated,w0,python3action_modeltraining_reviews50mb_nova,0.997085,1,2000.000000,1,COMPLETED_SUCCESSFULLY,5200.578873,42.399990,5242.978863,5199.581788,5241.981778,123.631674,2,-1.000000,""
149,w0,python3action_modeltraining_reviews50mb,0.000000,1,-1.000000,1,COMPLETED_SUCCESSFULLY,5242.978878,0.000010,5242.978888,5242.978878,5242.978888,524297888.825111,2,-1.000000,""
191_updated,w0,python3action_videoprocessing_SampleVideo_50mb_taurus,0.997085,1,2000.000000,1,COMPLETED_SUCCESSFULLY,5095.190973,154.250029,5249.441002,5094.193888,5248.443917,34.025562,10,-1.000000,""
191,w0,python3action_videoprocessing_SampleVideo_50mb,0.000000,1,-1.000000,1,COMPLETED_SUCCESSFULLY,5249.441017,0.000010,5249.441027,5249.441017,5249.441027,524944102.700201,10,-1.000000,""
159_updated,w0,python3action_modeltraining_reviews100mb_nova,0.997085,1,2000.000000,1,COMPLETED_SUCCESSFULLY,5242.978908,79.600010,5322.578918,5241.981823,5321.581833,66.854035,2,-1.000000,""
159,w0,python3action_modeltraining_reviews100mb,0.000000,1,-1.000000,1,COMPLETED_SUCCESSFULLY,5322.578933,0.000010,5322.578943,5322.578933,5322.578943,532257894.302610,2,-1.000000,""
168_updated,w0,python3action_modeltraining_reviews50mb_nova,0.997085,1,2000.000000,1,COMPLETED_SUCCESSFULLY,5322.578963,42.399990,5364.978953,5321.581878,5363.981868,126.509035,2,-1.000000,""
168,w0,python3action_modeltraining_reviews50mb,0.000000,1,-1.000000,1,COMPLETED_SUCCESSFULLY,5364.978968,0.000010,5364.978978,5364.978968,5364.978978,536497897.826316,2,-1.000000,""
169_updated,w0,python3action_modeltraining_reviews100mb_nova,0.997085,1,2000.000000,1,COMPLETED_SUCCESSFULLY,5364.978998,79.600010,5444.579008,5363.981913,5443.581923,68.386699,2,-1.000000,""
169,w0,python3action_modeltraining_reviews100mb,0.000000,1,-1.000000,1,COMPLETED_SUCCESSFULLY,5444.579023,0.000010,5444.579033,5444.579023,5444.579033,544457903.303815,2,-1.000000,""
171_updated,w0,python3action_modeltraining_reviews50mb_nova,0.997085,1,2000.000000,1,COMPLETED_SUCCESSFULLY,5444.579053,42.399990,5486.979043,5443.581968,5485.981958,129.386397,2,-1.000000,""
171,w0,python3action_modeltraining_reviews50mb,0.000000,1,-1.000000,1,COMPLETED_SUCCESSFULLY,5486.979058,0.000010,5486.979068,5486.979058,5486.979068,548697906.827521,2,-1.000000,""
179_updated,w0,python3action_modeltraining_reviews50mb_nova,0.997085,1,2000.000000,1,COMPLETED_SUCCESSFULLY,5486.979088,42.399990,5529.379079,5485.982003,5528.381994,130.386398,2,-1.000000,""
179,w0,python3action_modeltraining_reviews50mb,0.000000,1,-1.000000,1,COMPLETED_SUCCESSFULLY,5529.379094,0.000010,5529.379104,5529.379094,5529.379104,552937910.400201,2,-1.000000,""
180_updated,w0,python3action_modeltraining_reviews100mb_nova,0.997085,1,2000.000000,1,COMPLETED_SUCCESSFULLY,5529.379124,79.600010,5608.979134,5528.382039,5607.982049,70.452027,2,-1.000000,""
180,w0,python3action_modeltraining_reviews100mb,0.000000,1,-1.000000,1,COMPLETED_SUCCESSFULLY,5608.979149,0.000010,5608.979159,5608.979149,5608.979159,560897915.900201,2,-1.000000,""
184_updated,w0,python3action_modeltraining_reviews50mb_nova,0.997085,1,2000.000000,1,COMPLETED_SUCCESSFULLY,5608.979179,42.399990,5651.379169,5607.982094,5650.382084,133.263759,2,-1.000000,""
184,w0,python3action_modeltraining_reviews50mb,0.000000,1,-1.000000,1,COMPLETED_SUCCESSFULLY,5651.379184,0.000010,5651.379194,5651.379184,5651.379194,565137919.423907,2,-1.000000,""
192_updated,w0,python3action_modeltraining_reviews100mb_nova,0.997085,1,2000.000000,1,COMPLETED_SUCCESSFULLY,5651.379214,79.600010,5730.979224,5650.382129,5729.982139,71.984691,2,-1.000000,""
192,w0,python3action_modeltraining_reviews100mb,0.000000,1,-1.000000,1,COMPLETED_SUCCESSFULLY,5730.979239,0.000010,5730.979249,5730.979239,5730.979249,573097924.901405,2,-1.000000,""
199_updated,w0,python3action_modeltraining_reviews50mb_nova,0.997085,1,2000.000000,1,COMPLETED_SUCCESSFULLY,5730.979269,42.399990,5773.379259,5729.982184,5772.382174,136.141120,2,-1.000000,""
199,w0,python3action_modeltraining_reviews50mb,0.000000,1,-1.000000,1,COMPLETED_SUCCESSFULLY,5773.379274,0.000010,5773.379284,5773.379274,5773.379284,577337928.425111,2,-1.000000,""
python3action_pyaes_job2_1,w0,python3action_pyaes_reduced_0.85,0.997085,1,2000.000000,1,COMPLETED_SUCCESSFULLY,5773.379304,0.320244,5773.699548,5772.382219,5772.702463,18025.965289,2,-1.000000,""
2_updated,w0,python3action_pyaes_4000_nova,0.997085,1,2000.000000,1,COMPLETED_SUCCESSFULLY,5773.699563,139.600010,5913.299573,5772.702478,5912.302488,42.351734,2,-1.000000,""
2,w0,python3action_pyaes_4000,0.000000,1,-1.000000,1,COMPLETED_SUCCESSFULLY,5913.299588,0.000010,5913.299598,5913.299588,5913.299598,591329959.800201,2,-1.000000,""
22_updated,w0,python3action_pyaes_3000_nova,0.997085,1,2000.000000,1,COMPLETED_SUCCESSFULLY,5913.299618,78.200020,5991.499638,5912.302533,5990.502553,76.604873,2,-1.000000,""
22,w0,python3action_pyaes_3000,0.000000,1,-1.000000,1,COMPLETED_SUCCESSFULLY,5991.499653,0.000010,5991.499663,5991.499653,5991.499663,599149966.300201,2,-1.000000,""
41_updated,w0,python3action_pyaes_4000_nova,0.997085,1,2000.000000,1,COMPLETED_SUCCESSFULLY,5991.499683,139.600010,6131.099693,5990.502598,6130.102608,43.911907,2,-1.000000,""
41,w0,python3action_pyaes_4000,0.000000,1,-1.000000,1,COMPLETED_SUCCESSFULLY,6131.099708,0.000010,6131.099718,6131.099708,6131.099718,613109971.800201,2,-1.000000,""
44_updated,w0,python3action_pyaes_3000_nova,0.997085,1,2000.000000,1,COMPLETED_SUCCESSFULLY,6131.099738,78.200020,6209.299758,6130.102653,6208.302673,79.390040,2,-1.000000,""
44,w0,python3action_pyaes_3000,0.000000,1,-1.000000,1,COMPLETED_SUCCESSFULLY,6209.299773,0.000010,6209.299783,6209.299773,6209.299783,620929978.300201,2,-1.000000,""
50_updated,w0,python3action_pyaes_3000_nova,0.997085,1,2000.000000,1,COMPLETED_SUCCESSFULLY,6209.299803,78.200020,6287.499823,6208.302718,6286.502738,80.390040,2,-1.000000,""
50,w0,python3action_pyaes_3000,0.000000,1,-1.000000,1,COMPLETED_SUCCESSFULLY,6287.499838,0.000010,6287.499848,6287.499838,6287.499848,628749984.800201,2,-1.000000,""
69_updated,w0,python3action_pyaes_3000_nova,0.997085,1,2000.000000,1,COMPLETED_SUCCESSFULLY,6287.499868,78.200020,6365.699888,6286.502783,6364.702803,81.390041,2,-1.000000,""
69,w0,python3action_pyaes_3000,0.000000,1,-1.000000,1,COMPLETED_SUCCESSFULLY,6365.699903,0.000010,6365.699913,6365.699903,6365.699913,636569991.300201,2,-1.000000,""
82_updated,w0,python3action_pyaes_4000_nova,0.997085,1,2000.000000,1,COMPLETED_SUCCESSFULLY,6365.699933,139.600010,6505.299943,6364.702848,6504.302858,46.592424,2,-1.000000,""
82,w0,python3action_pyaes_4000,0.000000,1,-1.000000,1,COMPLETED_SUCCESSFULLY,6505.299958,0.000010,6505.299968,6505.299958,6505.299968,650529996.800201,2,-1.000000,""
86_updated,w0,python3action_pyaes_3000_nova,0.997085,1,2000.000000,1,COMPLETED_SUCCESSFULLY,6505.299988,78.200020,6583.500008,6504.302903,6582.502923,84.175208,2,-1.000000,""
86,w0,python3action_pyaes_3000,0.000000,1,-1.000000,1,COMPLETED_SUCCESSFULLY,6583.500023,0.000010,6583.500033,6583.500023,6583.500033,658350003.300201,2,-1.000000,""
93_updated,w0,python3action_pyaes_4000_nova,0.997085,1,2000.000000,1,COMPLETED_SUCCESSFULLY,6583.500053,139.600010,6723.100063,6582.502968,6722.102978,48.152597,2,-1.000000,""
93,w0,python3action_pyaes_4000,0.000000,1,-1.000000,1,COMPLETED_SUCCESSFULLY,6723.100078,0.000010,6723.100088,6723.100078,6723.100088,672310008.800201,2,-1.000000,""
106_updated,w0,python3action_pyaes_3000_nova,0.997085,1,2000.000000,1,COMPLETED_SUCCESSFULLY,6723.100108,78.200020,6801.300128,6722.103023,6800.303043,86.960375,2,-1.000000,""
106,w0,python3action_pyaes_3000,0.000000,1,-1.000000,1,COMPLETED_SUCCESSFULLY,6801.300143,0.000010,6801.300153,6801.300143,6801.300153,680130015.300201,2,-1.000000,""
107_updated,w0,python3action_pyaes_3000_nova,0.997085,1,2000.000000,1,COMPLETED_SUCCESSFULLY,6801.300173,78.200020,6879.500193,6800.303088,6878.503108,87.960376,2,-1.000000,""
107,w0,python3action_pyaes_3000,0.000000,1,-1.000000,1,COMPLETED_SUCCESSFULLY,6879.500208,0.000010,6879.500218,6879.500208,6879.500218,687950021.800201,2,-1.000000,""
118_updated,w0,python3action_pyaes_4000_nova,0.997085,1,2000.000000,1,COMPLETED_SUCCESSFULLY,6879.500238,139.600010,7019.100248,6878.503153,7018.103163,50.272942,2,-1.000000,""
118,w0,python3action_pyaes_4000,0.000000,1,-1.000000,1,COMPLETED_SUCCESSFULLY,7019.100263,0.000010,7019.100273,7019.100263,7019.100273,701910027.300201,2,-1.000000,""
119_updated,w0,python3action_pyaes_4000_nova,0.997085,1,2000.000000,1,COMPLETED_SUCCESSFULLY,7019.100293,139.600010,7158.700303,7018.103208,7157.703218,51.272942,2,-1.000000,""
119,w0,python3action_pyaes_4000,0.000000,1,-1.000000,1,COMPLETED_SUCCESSFULLY,7158.700318,0.000010,7158.700328,7158.700318,7158.700328,715870032.800201,2,-1.000000,""
127_updated,w0,python3action_pyaes_4000_nova,0.997085,1,2000.000000,1,COMPLETED_SUCCESSFULLY,7158.700348,139.600010,7298.300358,7157.703263,7297.303273,52.272942,2,-1.000000,""
127,w0,python3action_pyaes_4000,0.000000,1,-1.000000,1,COMPLETED_SUCCESSFULLY,7298.300373,0.000010,7298.300383,7298.300373,7298.300383,729830038.300201,2,-1.000000,""
131_updated,w0,python3action_pyaes_3000_nova,0.997085,1,2000.000000,1,COMPLETED_SUCCESSFULLY,7298.300403,78.200020,7376.500423,7297.303318,7375.503338,94.315876,2,-1.000000,""
131,w0,python3action_pyaes_3000,0.000000,1,-1.000000,1,COMPLETED_SUCCESSFULLY,7376.500438,0.000010,7376.500448,7376.500438,7376.500448,737650044.800201,2,-1.000000,""
138_updated,w0,python3action_pyaes_3000_nova,0.997085,1,2000.000000,1,COMPLETED_SUCCESSFULLY,7376.500468,78.200020,7454.700488,7375.503383,7453.703403,95.315876,2,-1.000000,""
138,w0,python3action_pyaes_3000,0.000000,1,-1.000000,1,COMPLETED_SUCCESSFULLY,7454.700503,0.000010,7454.700513,7454.700503,7454.700513,745470051.300201,2,-1.000000,""
143_updated,w0,python3action_pyaes_4000_nova,0.997085,1,2000.000000,1,COMPLETED_SUCCESSFULLY,7454.700533,139.600010,7594.300543,7453.703448,7593.303458,54.393287,2,-1.000000,""
143,w0,python3action_pyaes_4000,0.000000,1,-1.000000,1,COMPLETED_SUCCESSFULLY,7594.300558,0.000010,7594.300568,7594.300558,7594.300568,759430056.800201,2,-1.000000,""
146_updated,w0,python3action_pyaes_4000_nova,0.997085,1,2000.000000,1,COMPLETED_SUCCESSFULLY,7594.300588,139.600010,7733.900598,7593.303503,7732.903513,55.393288,2,-1.000000,""
146,w0,python3action_pyaes_4000,0.000000,1,-1.000000,1,COMPLETED_SUCCESSFULLY,7733.900613,0.000010,7733.900623,7733.900613,7733.900623,773390062.300201,2,-1.000000,""
163_updated,w0,python3action_pyaes_4000_nova,0.997085,1,2000.000000,1,COMPLETED_SUCCESSFULLY,7733.900643,139.600010,7873.500653,7732.903558,7872.503568,56.393288,2,-1.000000,""
163,w0,python3action_pyaes_4000,0.000000,1,-1.000000,1,COMPLETED_SUCCESSFULLY,7873.500668,0.000010,7873.500678,7873.500668,7873.500678,787350067.800201,2,-1.000000,""
175_updated,w0,python3action_pyaes_4000_nova,0.997085,1,2000.000000,1,COMPLETED_SUCCESSFULLY,7873.500698,139.600010,8013.100708,7872.503613,8012.103623,57.393288,2,-1.000000,""
175,w0,python3action_pyaes_4000,0.000000,1,-1.000000,1,COMPLETED_SUCCESSFULLY,8013.100723,0.000010,8013.100733,8013.100723,8013.100733,801310073.300201,2,-1.000000,""
187_updated,w0,python3action_pyaes_3000_nova,0.997085,1,2000.000000,1,COMPLETED_SUCCESSFULLY,8013.100753,78.200020,8091.300773,8012.103668,8090.303688,103.456543,2,-1.000000,""
187,w0,python3action_pyaes_3000,0.000000,1,-1.000000,1,COMPLETED_SUCCESSFULLY,8091.300788,0.000010,8091.300798,8091.300788,8091.300798,809130079.800201,2,-1.000000,""
190_updated,w0,python3action_pyaes_4000_nova,0.997085,1,2000.000000,1,COMPLETED_SUCCESSFULLY,8091.300818,139.600010,8230.900828,8090.303733,8229.903743,58.953461,2,-1.000000,""
190,w0,python3action_pyaes_4000,0.000000,1,-1.000000,1,COMPLETED_SUCCESSFULLY,8230.900843,0.000010,8230.900853,8230.900843,8230.900853,823090085.300201,2,-1.000000,""
python3action_video_processing_job16_1,w0,python3action_video_processing_reduced_1.89,0.997085,1,2000.000000,1,COMPLETED_SUCCESSFULLY,8230.900873,0.000000,8230.900873,8229.903788,8229.903788,167571757599822.687500,2,-1.000000,""
16_updated,w0,python3action_videoprocessing_SampleVideo_30mb_nova,0.997085,1,2000.000000,1,COMPLETED_SUCCESSFULLY,8230.900903,106.799980,8337.700883,8229.903818,8336.703798,78.059039,2,-1.000000,""
16,w0,python3action_videoprocessing_SampleVideo_30mb,0.000000,1,-1.000000,1,COMPLETED_SUCCESSFULLY,8337.700898,0.000010,8337.700908,8337.700898,8337.700908,833770090.847412,2,-1.000000,""
28_updated,w0,python3action_videoprocessing_SampleVideo_50mb_nova,0.997085,1,2000.000000,1,COMPLETED_SUCCESSFULLY,8337.700928,139.600010,8477.300938,8336.703843,8476.303853,60.718505,2,-1.000000,""
28,w0,python3action_videoprocessing_SampleVideo_50mb,0.000000,1,-1.000000,1,COMPLETED_SUCCESSFULLY,8477.300953,0.000010,8477.300963,8477.300953,8477.300963,847730096.324911,2,-1.000000,""
48_updated,w0,python3action_videoprocessing_SampleVideo_30mb_nova,0.997085,1,2000.000000,1,COMPLETED_SUCCESSFULLY,8477.300983,106.799980,8584.100964,8476.303898,8583.103879,80.366156,2,-1.000000,""
48,w0,python3action_videoprocessing_SampleVideo_30mb,0.000000,1,-1.000000,1,COMPLETED_SUCCESSFULLY,8584.100979,0.000010,8584.100989,8584.100979,8584.100989,858410098.900201,2,-1.000000,""
63_updated,w0,python3action_videoprocessing_SampleVideo_50mb_nova,0.997085,1,2000.000000,1,COMPLETED_SUCCESSFULLY,8584.101009,139.600010,8723.701019,8583.103924,8722.703934,62.483548,2,-1.000000,""
63,w0,python3action_videoprocessing_SampleVideo_50mb,0.000000,1,-1.000000,1,COMPLETED_SUCCESSFULLY,8723.701034,0.000010,8723.701044,8723.701034,8723.701044,872370104.400201,2,-1.000000,""
81_updated,w0,python3action_videoprocessing_SampleVideo_50mb_nova,0.997085,1,2000.000000,1,COMPLETED_SUCCESSFULLY,8723.701064,139.600010,8863.301074,8722.703979,8862.303989,63.483548,2,-1.000000,""
81,w0,python3action_videoprocessing_SampleVideo_50mb,0.000000,1,-1.000000,1,COMPLETED_SUCCESSFULLY,8863.301089,0.000010,8863.301099,8863.301089,8863.301099,886330109.900201,2,-1.000000,""
87_updated,w0,python3action_videoprocessing_SampleVideo_30mb_nova,0.997085,1,2000.000000,1,COMPLETED_SUCCESSFULLY,8863.301119,106.799980,8970.101099,8862.304034,8969.104014,83.980390,2,-1.000000,""
87,w0,python3action_videoprocessing_SampleVideo_30mb,0.000000,1,-1.000000,1,COMPLETED_SUCCESSFULLY,8970.101114,0.000010,8970.101124,8970.101114,8970.101124,897010112.447010,2,-1.000000,""
112_updated,w0,python3action_videoprocessing_SampleVideo_30mb_nova,0.997085,1,2000.000000,1,COMPLETED_SUCCESSFULLY,8970.101144,106.799980,9076.901125,8969.104059,9075.904040,84.980390,2,-1.000000,""
112,w0,python3action_videoprocessing_SampleVideo_30mb,0.000000,1,-1.000000,1,COMPLETED_SUCCESSFULLY,9076.901140,0.000010,9076.901150,9076.901140,9076.901150,907690115.000201,2,-1.000000,""
113_updated,w0,python3action_videoprocessing_SampleVideo_30mb_nova,0.997085,1,2000.000000,1,COMPLETED_SUCCESSFULLY,9076.901170,106.799980,9183.701150,9075.904085,9182.704065,85.980391,2,-1.000000,""
113,w0,python3action_videoprocessing_SampleVideo_30mb,0.000000,1,-1.000000,1,COMPLETED_SUCCESSFULLY,9183.701165,0.000010,9183.701175,9183.701165,9183.701175,918370117.547010,2,-1.000000,""
122_updated,w0,python3action_videoprocessing_SampleVideo_30mb_nova,0.997085,1,2000.000000,1,COMPLETED_SUCCESSFULLY,9183.701195,106.799980,9290.501176,9182.704110,9289.504091,86.980391,2,-1.000000,""
122,w0,python3action_videoprocessing_SampleVideo_30mb,0.000000,1,-1.000000,1,COMPLETED_SUCCESSFULLY,9290.501191,0.000010,9290.501201,9290.501191,9290.501201,929050120.100201,2,-1.000000,""
134_updated,w0,python3action_videoprocessing_SampleVideo_30mb_nova,0.997085,1,2000.000000,1,COMPLETED_SUCCESSFULLY,9290.501221,106.799980,9397.301201,9289.504136,9396.304116,87.980392,2,-1.000000,""
134,w0,python3action_videoprocessing_SampleVideo_30mb,0.000000,1,-1.000000,1,COMPLETED_SUCCESSFULLY,9397.301216,0.000010,9397.301226,9397.301216,9397.301226,939730122.647010,2,-1.000000,""
135_updated,w0,python3action_videoprocessing_SampleVideo_30mb_nova,0.997085,1,2000.000000,1,COMPLETED_SUCCESSFULLY,9397.301246,106.799980,9504.101227,9396.304161,9503.104142,88.980392,2,-1.000000,""
135,w0,python3action_videoprocessing_SampleVideo_30mb,0.000000,1,-1.000000,1,COMPLETED_SUCCESSFULLY,9504.101242,0.000010,9504.101252,9504.101242,9504.101252,950410125.200201,2,-1.000000,""
140_updated,w0,python3action_videoprocessing_SampleVideo_30mb_nova,0.997085,1,2000.000000,1,COMPLETED_SUCCESSFULLY,9504.101272,106.799980,9610.901252,9503.104187,9609.904167,89.980393,2,-1.000000,""
140,w0,python3action_videoprocessing_SampleVideo_30mb,0.000000,1,-1.000000,1,COMPLETED_SUCCESSFULLY,9610.901267,0.000010,9610.901277,9610.901267,9610.901277,961090127.747010,2,-1.000000,""
147_updated,w0,python3action_videoprocessing_SampleVideo_50mb_nova,0.997085,1,2000.000000,1,COMPLETED_SUCCESSFULLY,9610.901297,139.600010,9750.501307,9609.904212,9749.504222,69.838851,2,-1.000000,""
147,w0,python3action_videoprocessing_SampleVideo_50mb,0.000000,1,-1.000000,1,COMPLETED_SUCCESSFULLY,9750.501322,0.000010,9750.501332,9750.501322,9750.501332,975050133.224509,2,-1.000000,""
152_updated,w0,python3action_videoprocessing_SampleVideo_30mb_nova,0.997085,1,2000.000000,1,COMPLETED_SUCCESSFULLY,9750.501352,106.799980,9857.301333,9749.504267,9856.304248,92.287510,2,-1.000000,""
152,w0,python3action_videoprocessing_SampleVideo_30mb,0.000000,1,-1.000000,1,COMPLETED_SUCCESSFULLY,9857.301348,0.000010,9857.301358,9857.301348,9857.301358,985730135.800201,2,-1.000000,""
170_updated,w0,python3action_videoprocessing_SampleVideo_30mb_nova,0.997085,1,2000.000000,1,COMPLETED_SUCCESSFULLY,9857.301378,106.799980,9964.101358,9856.304293,9963.104273,93.287510,2,-1.000000,""
170,w0,python3action_videoprocessing_SampleVideo_30mb,0.000000,1,-1.000000,1,COMPLETED_SUCCESSFULLY,9964.101373,0.000010,9964.101383,9964.101373,9964.101383,996410138.347010,2,-1.000000,""
193_updated,w0,python3action_videoprocessing_SampleVideo_50mb_nova,0.997085,1,2000.000000,1,COMPLETED_SUCCESSFULLY,9964.101403,139.600010,10103.701413,9963.104318,10102.704328,72.368937,2,-1.000000,""
193,w0,python3action_videoprocessing_SampleVideo_50mb,0.000000,1,-1.000000,1,COMPLETED_SUCCESSFULLY,10103.701428,0.000010,10103.701438,10103.701428,10103.701438,1010370143.824509,2,-1.000000,""
195_updated,w0,python3action_videoprocessing_SampleVideo_30mb_nova,0.997085,1,2000.000000,1,COMPLETED_SUCCESSFULLY,10103.701458,106.799980,10210.501439,10102.704373,10209.504354,95.594628,2,-1.000000,""
195,w0,python3action_videoprocessing_SampleVideo_30mb,0.000000,1,-1.000000,1,COMPLETED_SUCCESSFULLY,10210.501454,0.000010,10210.501464,10210.501454,10210.501464,1021050146.400201,2,-1.000000,""
