job_id,workload_name,profile,submission_time,requested_number_of_resources,requested_time,success,final_state,starting_time,execution_time,finish_time,waiting_time,turnaround_time,stretch,allocated_resources,consumed_energy,metadata
python3action_pyaes_job8_3,w0,python3action_pyaes,0.997085,1,2000.000000,1,COMPLETED_SUCCESSFULLY,1.002145,0.867914,1.870059,0.005060,0.872974,1.005830,4,-1.000000,""
python3action_chameleon_job34_4,w0,python3action_chameleon,0.997085,1,2000.000000,1,COMPLETED_SUCCESSFULLY,1.002160,0.892694,1.894854,0.005075,0.897769,1.005685,5,-1.000000,""
python3action_floatoperation_job10_5,w0,python3action_floatoperation,0.997085,1,2000.000000,1,COMPLETED_SUCCESSFULLY,1.002175,2.439945,3.442120,0.005090,2.445035,1.002086,6,-1.000000,""
python3action_floatoperation_job17_6,w0,python3action_floatoperation,0.997085,1,2000.000000,1,COMPLETED_SUCCESSFULLY,1.002190,2.439945,3.442135,0.005105,2.445050,1.002092,7,-1.000000,""
python3action_floatoperation_job47_7,w0,python3action_floatoperation,0.997085,1,2000.000000,1,COMPLETED_SUCCESSFULLY,1.002205,2.439945,3.442150,0.005120,2.445065,1.002098,8,-1.000000,""
python3action_floatoperation_job52_8,w0,python3action_floatoperation,0.997085,1,2000.000000,1,COMPLETED_SUCCESSFULLY,1.002220,2.439945,3.442165,0.005135,2.445080,1.002105,9,-1.000000,""
python3action_floatoperation_job75_9,w0,python3action_floatoperation,0.997085,1,2000.000000,1,COMPLETED_SUCCESSFULLY,1.002235,2.439945,3.442180,0.005150,2.445095,1.002111,10,-1.000000,""
python3action_modeltraining_job16_0,w0,python3action_modeltraining,0.997085,1,2000.000000,1,COMPLETED_SUCCESSFULLY,1.002100,3.471546,4.473646,0.005015,3.476561,1.001445,0,-1.000000,""
python3action_modeltraining_job64_1,w0,python3action_modeltraining,0.997085,1,2000.000000,1,COMPLETED_SUCCESSFULLY,1.002115,3.471546,4.473661,0.005030,3.476576,1.001449,1,-1.000000,""
python3action_linpack_job9_10,w0,python3action_linpack,0.997085,1,2000.000000,1,COMPLETED_SUCCESSFULLY,1.002250,5.760927,6.763177,0.005165,5.766092,1.000897,11,-1.000000,""
16_updated,w0,python3action_modeltraining_reviews50mb_neowise,0.997085,1,2000.000000,1,COMPLETED_SUCCESSFULLY,4.473661,22.799998,27.273659,3.476576,26.276574,1.152481,0,-1.000000,""
16,w0,python3action_modeltraining_reviews50mb,0.000000,1,-1.000000,1,COMPLETED_SUCCESSFULLY,27.273674,0.000010,27.273684,27.273674,27.273684,2727368.400201,0,-1.000000,""
64_updated,w0,python3action_modeltraining_reviews50mb_neowise,0.997085,1,2000.000000,1,COMPLETED_SUCCESSFULLY,4.473691,22.799998,27.273689,3.476606,26.276604,1.152483,1,-1.000000,""
64,w0,python3action_modeltraining_reviews50mb,0.000000,1,-1.000000,1,COMPLETED_SUCCESSFULLY,27.273719,0.000010,27.273729,27.273719,27.273729,2727372.900402,1,-1.000000,""
66_updated,w0,python3action_modeltraining_reviews50mb_neowise,0.997085,1,2000.000000,1,COMPLETED_SUCCESSFULLY,27.273704,22.799998,50.073702,26.276619,49.076617,2.152483,0,-1.000000,""
66,w0,python3action_modeltraining_reviews50mb,0.000000,1,-1.000000,1,COMPLETED_SUCCESSFULLY,50.073717,0.000010,50.073727,50.073717,50.073727,5007372.700201,0,-1.000000,""
70_updated,w0,python3action_modeltraining_reviews50mb_neowise,0.997085,1,2000.000000,1,COMPLETED_SUCCESSFULLY,27.273749,22.799998,50.073747,26.276664,49.076662,2.152485,1,-1.000000,""
70,w0,python3action_modeltraining_reviews50mb,0.000000,1,-1.000000,1,COMPLETED_SUCCESSFULLY,50.073777,0.000010,50.073787,50.073777,50.073787,5007378.700201,1,-1.000000,""
8_updated,w0,python3action_pyaes_3000_troll,0.997085,1,2000.000000,1,COMPLETED_SUCCESSFULLY,1.870074,57.166677,59.036751,0.872989,58.039666,1.015271,4,-1.000000,""
8,w0,python3action_pyaes_3000,0.000000,1,-1.000000,1,COMPLETED_SUCCESSFULLY,59.036766,0.000010,59.036776,59.036766,59.036776,5903677.600201,4,-1.000000,""
10_updated,w0,python3action_floatoperation_100000000_nova,0.997085,1,2000.000000,1,COMPLETED_SUCCESSFULLY,3.442135,66.200020,69.642155,2.445050,68.645070,1.036934,6,-1.000000,""
10,w0,python3action_floatoperation_100000000,0.000000,1,-1.000000,1,COMPLETED_SUCCESSFULLY,69.642170,0.000010,69.642180,69.642170,69.642180,6964218.000201,6,-1.000000,""
17_updated,w0,python3action_floatoperation_100000000_nova,0.997085,1,2000.000000,1,COMPLETED_SUCCESSFULLY,3.442165,66.200020,69.642185,2.445080,68.645100,1.036935,7,-1.000000,""
47_updated,w0,python3action_floatoperation_100000000_nova,0.997085,1,2000.000000,1,COMPLETED_SUCCESSFULLY,3.442195,66.200020,69.642215,2.445110,68.645130,1.036935,8,-1.000000,""
17,w0,python3action_floatoperation_100000000,0.000000,1,-1.000000,1,COMPLETED_SUCCESSFULLY,69.642215,0.000010,69.642225,69.642215,69.642225,6964222.485583,7,-1.000000,""
52_updated,w0,python3action_floatoperation_100000000_nova,0.997085,1,2000.000000,1,COMPLETED_SUCCESSFULLY,3.442210,66.200020,69.642230,2.445125,68.645145,1.036935,9,-1.000000,""
47,w0,python3action_floatoperation_100000000,0.000000,1,-1.000000,1,COMPLETED_SUCCESSFULLY,69.642245,0.000010,69.642255,69.642245,69.642255,6964225.500201,8,-1.000000,""
75_updated,w0,python3action_floatoperation_100000000_nova,0.997085,1,2000.000000,1,COMPLETED_SUCCESSFULLY,3.442240,66.200020,69.642260,2.445155,68.645175,1.036936,10,-1.000000,""
52,w0,python3action_floatoperation_100000000,0.000000,1,-1.000000,1,COMPLETED_SUCCESSFULLY,69.642275,0.000010,69.642285,69.642275,69.642285,6964228.486386,9,-1.000000,""
75,w0,python3action_floatoperation_100000000,0.000000,1,-1.000000,1,COMPLETED_SUCCESSFULLY,69.642320,0.000010,69.642330,69.642320,69.642330,6964233.000402,10,-1.000000,""
77_updated,w0,python3action_modeltraining_reviews50mb_neowise,0.997085,1,2000.000000,1,COMPLETED_SUCCESSFULLY,50.073747,22.799998,72.873745,49.076662,71.876660,3.152485,0,-1.000000,""
77,w0,python3action_modeltraining_reviews50mb,0.000000,1,-1.000000,1,COMPLETED_SUCCESSFULLY,72.873760,0.000010,72.873770,72.873760,72.873770,7287377.000201,0,-1.000000,""
115_updated,w0,python3action_modeltraining_reviews50mb_neowise,0.997085,1,2000.000000,1,COMPLETED_SUCCESSFULLY,50.073807,22.799998,72.873805,49.076722,71.876720,3.152488,1,-1.000000,""
115,w0,python3action_modeltraining_reviews50mb,0.000000,1,-1.000000,1,COMPLETED_SUCCESSFULLY,72.873820,0.000010,72.873830,72.873820,72.873830,7287383.000201,1,-1.000000,""
python3action_image_processing_job7_2,w0,python3action_image_processing,0.997085,1,2000.000000,1,COMPLETED_SUCCESSFULLY,1.002130,72.012455,73.014585,0.005045,72.017500,1.000070,2,-1.000000,""
python3action_image_processing_job37_11,w0,python3action_image_processing,0.997085,1,2000.000000,1,COMPLETED_SUCCESSFULLY,1.002265,72.012455,73.014720,0.005180,72.017635,1.000072,12,-1.000000,""
python3action_image_processing_job49_12,w0,python3action_image_processing,0.997085,1,2000.000000,1,COMPLETED_SUCCESSFULLY,1.002280,72.012455,73.014735,0.005195,72.017650,1.000072,13,-1.000000,""
34_updated,w0,python3action_chameleon_3000_yeti,0.997085,1,2000.000000,1,COMPLETED_SUCCESSFULLY,1.894869,93.000000,94.894869,0.897784,93.897784,1.009654,5,-1.000000,""
34,w0,python3action_chameleon_3000,0.000000,1,-1.000000,1,COMPLETED_SUCCESSFULLY,94.894884,0.000010,94.894894,94.894884,94.894894,9489489.449765,5,-1.000000,""
117_updated,w0,python3action_modeltraining_reviews50mb_neowise,0.997085,1,2000.000000,1,COMPLETED_SUCCESSFULLY,72.873790,22.799998,95.673788,71.876705,94.676703,4.152487,0,-1.000000,""
117,w0,python3action_modeltraining_reviews50mb,0.000000,1,-1.000000,1,COMPLETED_SUCCESSFULLY,95.673803,0.000010,95.673813,95.673803,95.673813,9567381.300201,0,-1.000000,""
126_updated,w0,python3action_modeltraining_reviews50mb_neowise,0.997085,1,2000.000000,1,COMPLETED_SUCCESSFULLY,72.873850,22.799998,95.673848,71.876765,94.676763,4.152490,1,-1.000000,""
126,w0,python3action_modeltraining_reviews50mb,0.000000,1,-1.000000,1,COMPLETED_SUCCESSFULLY,95.673863,0.000010,95.673873,95.673863,95.673873,9567387.300201,1,-1.000000,""
7_updated,w0,python3action_imageprocessing_SampleImage_40mb_taurus,0.997085,1,2000.000000,1,COMPLETED_SUCCESSFULLY,73.014600,32.600046,105.614646,72.017515,104.617561,3.209123,2,-1.000000,""
7,w0,python3action_imageprocessing_SampleImage_40mb,0.000000,1,-1.000000,1,COMPLETED_SUCCESSFULLY,105.614661,0.000010,105.614671,105.614661,105.614671,10561467.145163,2,-1.000000,""
37_updated,w0,python3action_imageprocessing_SampleImage_40mb_taurus,0.997085,1,2000.000000,1,COMPLETED_SUCCESSFULLY,73.014735,32.600046,105.614781,72.017650,104.617696,3.209127,12,-1.000000,""
37,w0,python3action_imageprocessing_SampleImage_40mb,0.000000,1,-1.000000,1,COMPLETED_SUCCESSFULLY,105.614796,0.000010,105.614806,105.614796,105.614806,10561480.646970,12,-1.000000,""
49_updated,w0,python3action_imageprocessing_SampleImage_40mb_taurus,0.997085,1,2000.000000,1,COMPLETED_SUCCESSFULLY,73.014765,32.600046,105.614811,72.017680,104.617726,3.209128,13,-1.000000,""
49,w0,python3action_imageprocessing_SampleImage_40mb,0.000000,1,-1.000000,1,COMPLETED_SUCCESSFULLY,105.614841,0.000010,105.614851,105.614841,105.614851,10561485.147572,13,-1.000000,""
9_updated,w0,python3action_linpack_6000_orion,0.997085,1,2000.000000,1,COMPLETED_SUCCESSFULLY,6.763192,106.000000,112.763192,5.766107,111.766107,1.054397,11,-1.000000,""
9,w0,python3action_linpack_6000,0.000000,1,-1.000000,1,COMPLETED_SUCCESSFULLY,112.763207,0.000010,112.763217,112.763207,112.763217,11276321.725480,11,-1.000000,""
13_updated,w0,python3action_pyaes_3000_troll,0.997085,1,2000.000000,1,COMPLETED_SUCCESSFULLY,59.036796,57.166677,116.203473,58.039711,115.206388,2.015272,4,-1.000000,""
13,w0,python3action_pyaes_3000,0.000000,1,-1.000000,1,COMPLETED_SUCCESSFULLY,116.203488,0.000010,116.203498,116.203488,116.203498,11620349.800201,4,-1.000000,""
131_updated,w0,python3action_modeltraining_reviews50mb_neowise,0.997085,1,2000.000000,1,COMPLETED_SUCCESSFULLY,95.673833,22.799998,118.473831,94.676748,117.476746,5.152489,0,-1.000000,""
131,w0,python3action_modeltraining_reviews50mb,0.000000,1,-1.000000,1,COMPLETED_SUCCESSFULLY,118.473846,0.000010,118.473856,118.473846,118.473856,11847385.600201,0,-1.000000,""
155_updated,w0,python3action_modeltraining_reviews50mb_neowise,0.997085,1,2000.000000,1,COMPLETED_SUCCESSFULLY,95.673893,22.799998,118.473891,94.676808,117.476806,5.152492,1,-1.000000,""
155,w0,python3action_modeltraining_reviews50mb,0.000000,1,-1.000000,1,COMPLETED_SUCCESSFULLY,118.473906,0.000010,118.473916,118.473906,118.473916,11847391.600201,1,-1.000000,""
95_updated,w0,python3action_floatoperation_100000000_nova,0.997085,1,2000.000000,1,COMPLETED_SUCCESSFULLY,69.642200,66.200020,135.842220,68.645115,134.845135,2.036935,6,-1.000000,""
95,w0,python3action_floatoperation_100000000,0.000000,1,-1.000000,1,COMPLETED_SUCCESSFULLY,135.842235,0.000010,135.842245,135.842235,135.842245,13584224.500201,6,-1.000000,""
99_updated,w0,python3action_floatoperation_100000000_nova,0.997085,1,2000.000000,1,COMPLETED_SUCCESSFULLY,69.642260,66.200020,135.842279,68.645175,134.845194,2.036936,7,-1.000000,""
99,w0,python3action_floatoperation_100000000,0.000000,1,-1.000000,1,COMPLETED_SUCCESSFULLY,135.842294,0.000010,135.842304,135.842294,135.842304,13584230.440379,7,-1.000000,""
122_updated,w0,python3action_floatoperation_100000000_nova,0.997085,1,2000.000000,1,COMPLETED_SUCCESSFULLY,69.642305,66.200020,135.842325,68.645220,134.845240,2.036937,8,-1.000000,""
122,w0,python3action_floatoperation_100000000,0.000000,1,-1.000000,1,COMPLETED_SUCCESSFULLY,135.842354,0.000010,135.842364,135.842354,135.842364,13584236.441183,8,-1.000000,""
128_updated,w0,python3action_floatoperation_100000000_nova,0.997085,1,2000.000000,1,COMPLETED_SUCCESSFULLY,69.642335,66.200020,135.842355,68.645250,134.845270,2.036937,9,-1.000000,""
139_updated,w0,python3action_floatoperation_100000000_nova,0.997085,1,2000.000000,1,COMPLETED_SUCCESSFULLY,69.642365,66.200020,135.842385,68.645280,134.845300,2.036937,10,-1.000000,""
128,w0,python3action_floatoperation_100000000,0.000000,1,-1.000000,1,COMPLETED_SUCCESSFULLY,135.842399,0.000010,135.842409,135.842399,135.842409,13584240.941785,9,-1.000000,""
139,w0,python3action_floatoperation_100000000,0.000000,1,-1.000000,1,COMPLETED_SUCCESSFULLY,135.842429,0.000010,135.842439,135.842429,135.842439,13584243.942187,10,-1.000000,""
53_updated,w0,python3action_imageprocessing_SampleImage_40mb_taurus,0.997085,1,2000.000000,1,COMPLETED_SUCCESSFULLY,105.614691,32.600046,138.214738,104.617606,137.217653,4.209124,2,-1.000000,""
53,w0,python3action_imageprocessing_SampleImage_40mb,0.000000,1,-1.000000,1,COMPLETED_SUCCESSFULLY,138.214753,0.000010,138.214763,138.214753,138.214763,13821476.300201,2,-1.000000,""
54_updated,w0,python3action_imageprocessing_SampleImage_40mb_taurus,0.997085,1,2000.000000,1,COMPLETED_SUCCESSFULLY,105.614826,32.600046,138.214873,104.617741,137.217788,4.209129,12,-1.000000,""
54,w0,python3action_imageprocessing_SampleImage_40mb,0.000000,1,-1.000000,1,COMPLETED_SUCCESSFULLY,138.214888,0.000010,138.214898,138.214888,138.214898,13821489.800201,12,-1.000000,""
83_updated,w0,python3action_imageprocessing_SampleImage_40mb_taurus,0.997085,1,2000.000000,1,COMPLETED_SUCCESSFULLY,105.614871,32.600046,138.214918,104.617786,137.217833,4.209130,13,-1.000000,""
83,w0,python3action_imageprocessing_SampleImage_40mb,0.000000,1,-1.000000,1,COMPLETED_SUCCESSFULLY,138.214948,0.000010,138.214958,138.214948,138.214958,13821495.800201,13,-1.000000,""
156_updated,w0,python3action_modeltraining_reviews50mb_neowise,0.997085,1,2000.000000,1,COMPLETED_SUCCESSFULLY,118.473876,22.799998,141.273874,117.476791,140.276789,6.152491,0,-1.000000,""
156,w0,python3action_modeltraining_reviews50mb,0.000000,1,-1.000000,1,COMPLETED_SUCCESSFULLY,141.273889,0.000010,141.273899,141.273889,141.273899,14127389.900201,0,-1.000000,""
163_updated,w0,python3action_modeltraining_reviews50mb_neowise,0.997085,1,2000.000000,1,COMPLETED_SUCCESSFULLY,118.473936,22.799998,141.273934,117.476851,140.276849,6.152494,1,-1.000000,""
163,w0,python3action_modeltraining_reviews50mb,0.000000,1,-1.000000,1,COMPLETED_SUCCESSFULLY,141.273949,0.000010,141.273959,141.273949,141.273959,14127395.900201,1,-1.000000,""
python3action_chameleon_job4_2,w0,python3action_chameleon,0.997085,1,2000.000000,1,COMPLETED_SUCCESSFULLY,141.273979,0.243006,141.516985,140.276894,140.519900,578.256958,1,-1.000000,""
176_updated,w0,python3action_modeltraining_reviews50mb_neowise,0.997085,1,2000.000000,1,COMPLETED_SUCCESSFULLY,141.273919,22.799998,164.073917,140.276834,163.076832,7.152493,0,-1.000000,""
176,w0,python3action_modeltraining_reviews50mb,0.000000,1,-1.000000,1,COMPLETED_SUCCESSFULLY,164.073932,0.000010,164.073942,164.073932,164.073942,16407394.200201,0,-1.000000,""
python3action_chameleon_job14_1,w0,python3action_chameleon,0.997085,1,2000.000000,1,COMPLETED_SUCCESSFULLY,164.073962,0.243006,164.316968,163.076877,163.319883,672.081739,0,-1.000000,""
4_updated,w0,python3action_chameleon_2000_neowise,0.997085,1,2000.000000,1,COMPLETED_SUCCESSFULLY,141.517000,24.200002,165.717002,140.519915,164.719917,6.806608,1,-1.000000,""
4,w0,python3action_chameleon_2000,0.000000,1,-1.000000,1,COMPLETED_SUCCESSFULLY,165.717017,0.000010,165.717027,165.717017,165.717027,16571702.722787,1,-1.000000,""
86_updated,w0,python3action_imageprocessing_SampleImage_40mb_taurus,0.997085,1,2000.000000,1,COMPLETED_SUCCESSFULLY,138.214783,32.600046,170.814829,137.217698,169.817744,5.209126,2,-1.000000,""
86,w0,python3action_imageprocessing_SampleImage_40mb,0.000000,1,-1.000000,1,COMPLETED_SUCCESSFULLY,170.814844,0.000010,170.814854,170.814844,170.814854,17081485.413881,2,-1.000000,""
89_updated,w0,python3action_imageprocessing_SampleImage_40mb_taurus,0.997085,1,2000.000000,1,COMPLETED_SUCCESSFULLY,138.214918,32.600046,170.814964,137.217833,169.817879,5.209130,12,-1.000000,""
89,w0,python3action_imageprocessing_SampleImage_40mb,0.000000,1,-1.000000,1,COMPLETED_SUCCESSFULLY,170.814979,0.000010,170.814989,170.814979,170.814989,17081498.900201,12,-1.000000,""
93_updated,w0,python3action_imageprocessing_SampleImage_40mb_taurus,0.997085,1,2000.000000,1,COMPLETED_SUCCESSFULLY,138.214978,32.600046,170.815024,137.217893,169.817939,5.209132,13,-1.000000,""
93,w0,python3action_imageprocessing_SampleImage_40mb,0.000000,1,-1.000000,1,COMPLETED_SUCCESSFULLY,170.815039,0.000010,170.815049,170.815039,170.815049,17081504.913881,13,-1.000000,""
21_updated,w0,python3action_pyaes_3000_troll,0.997085,1,2000.000000,1,COMPLETED_SUCCESSFULLY,116.203518,57.166677,173.370195,115.206433,172.373110,3.015273,4,-1.000000,""
21,w0,python3action_pyaes_3000,0.000000,1,-1.000000,1,COMPLETED_SUCCESSFULLY,173.370210,0.000010,173.370220,173.370210,173.370220,17337022.000201,4,-1.000000,""
python3action_linpack_job22_13,w0,python3action_linpack,0.997085,1,2000.000000,1,COMPLETED_SUCCESSFULLY,170.815069,5.760927,176.575996,169.817984,175.578911,30.477544,13,-1.000000,""
35_updated,w0,python3action_chameleon_3000_yeti,0.997085,1,2000.000000,1,COMPLETED_SUCCESSFULLY,94.894915,93.000000,187.894915,93.897830,186.897830,2.009654,5,-1.000000,""
35,w0,python3action_chameleon_3000,0.000000,1,-1.000000,1,COMPLETED_SUCCESSFULLY,187.894930,0.000010,187.894940,187.894930,187.894940,18789494.000201,5,-1.000000,""
14_updated,w0,python3action_chameleon_2000_neowise,0.997085,1,2000.000000,1,COMPLETED_SUCCESSFULLY,164.316983,24.200002,188.516985,163.319898,187.519900,7.748755,0,-1.000000,""
14,w0,python3action_chameleon_2000,0.000000,1,-1.000000,1,COMPLETED_SUCCESSFULLY,188.517000,0.000010,188.517010,188.517000,188.517010,18851701.022787,0,-1.000000,""
26_updated,w0,python3action_chameleon_2000_neowise,0.997085,1,2000.000000,1,COMPLETED_SUCCESSFULLY,165.717047,24.200002,189.917049,164.719962,188.919964,7.806609,1,-1.000000,""
26,w0,python3action_chameleon_2000,0.000000,1,-1.000000,1,COMPLETED_SUCCESSFULLY,189.917064,0.000010,189.917074,189.917064,189.917074,18991707.445775,1,-1.000000,""
146_updated,w0,python3action_floatoperation_100000000_nova,0.997085,1,2000.000000,1,COMPLETED_SUCCESSFULLY,135.842265,66.200020,202.042285,134.845180,201.045200,3.036936,6,-1.000000,""
146,w0,python3action_floatoperation_100000000,0.000000,1,-1.000000,1,COMPLETED_SUCCESSFULLY,202.042300,0.000010,202.042310,202.042300,202.042310,20204231.000201,6,-1.000000,""
149_updated,w0,python3action_floatoperation_100000000_nova,0.997085,1,2000.000000,1,COMPLETED_SUCCESSFULLY,135.842324,66.200020,202.042344,134.845239,201.045259,3.036937,7,-1.000000,""
149,w0,python3action_floatoperation_100000000,0.000000,1,-1.000000,1,COMPLETED_SUCCESSFULLY,202.042359,0.000010,202.042369,202.042359,202.042369,20204236.900201,7,-1.000000,""
167_updated,w0,python3action_floatoperation_100000000_nova,0.997085,1,2000.000000,1,COMPLETED_SUCCESSFULLY,135.842384,66.200020,202.042404,134.845299,201.045319,3.036937,8,-1.000000,""
167,w0,python3action_floatoperation_100000000,0.000000,1,-1.000000,1,COMPLETED_SUCCESSFULLY,202.042419,0.000010,202.042429,202.042419,202.042429,20204242.900201,8,-1.000000,""
181_updated,w0,python3action_floatoperation_100000000_nova,0.997085,1,2000.000000,1,COMPLETED_SUCCESSFULLY,135.842444,66.200020,202.042464,134.845359,201.045379,3.036938,9,-1.000000,""
181,w0,python3action_floatoperation_100000000,0.000000,1,-1.000000,1,COMPLETED_SUCCESSFULLY,202.042479,0.000010,202.042489,202.042479,202.042489,20204248.900201,9,-1.000000,""
189_updated,w0,python3action_floatoperation_100000000_nova,0.997085,1,2000.000000,1,COMPLETED_SUCCESSFULLY,135.842474,66.200020,202.042494,134.845389,201.045409,3.036939,10,-1.000000,""
189,w0,python3action_floatoperation_100000000,0.000000,1,-1.000000,1,COMPLETED_SUCCESSFULLY,202.042524,0.000010,202.042534,202.042524,202.042534,20204253.400402,10,-1.000000,""
103_updated,w0,python3action_imageprocessing_SampleImage_40mb_taurus,0.997085,1,2000.000000,1,COMPLETED_SUCCESSFULLY,170.814874,32.600046,203.414920,169.817789,202.417835,6.209127,2,-1.000000,""
103,w0,python3action_imageprocessing_SampleImage_40mb,0.000000,1,-1.000000,1,COMPLETED_SUCCESSFULLY,203.414935,0.000010,203.414945,203.414935,203.414945,20341494.527562,2,-1.000000,""
143_updated,w0,python3action_imageprocessing_SampleImage_40mb_taurus,0.997085,1,2000.000000,1,COMPLETED_SUCCESSFULLY,170.815009,32.600046,203.415055,169.817924,202.417970,6.209131,12,-1.000000,""
143,w0,python3action_imageprocessing_SampleImage_40mb,0.000000,1,-1.000000,1,COMPLETED_SUCCESSFULLY,203.415070,0.000010,203.415080,203.415070,203.415080,20341508.013881,12,-1.000000,""
python3action_linpack_job36_3,w0,python3action_linpack,0.997085,1,2000.000000,1,COMPLETED_SUCCESSFULLY,203.414965,5.760927,209.175893,202.417880,208.178808,36.136337,2,-1.000000,""
python3action_linpack_job42_12,w0,python3action_linpack,0.997085,1,2000.000000,1,COMPLETED_SUCCESSFULLY,203.415100,5.760927,209.176027,202.418015,208.178942,36.136360,12,-1.000000,""
28_updated,w0,python3action_chameleon_2000_neowise,0.997085,1,2000.000000,1,COMPLETED_SUCCESSFULLY,188.517030,24.200002,212.717032,187.519945,211.719947,8.748757,0,-1.000000,""
28,w0,python3action_chameleon_2000,0.000000,1,-1.000000,1,COMPLETED_SUCCESSFULLY,212.717047,0.000010,212.717057,212.717047,212.717057,21271705.745775,0,-1.000000,""
31_updated,w0,python3action_chameleon_2000_neowise,0.997085,1,2000.000000,1,COMPLETED_SUCCESSFULLY,189.917094,24.200002,214.117097,188.920009,213.120012,8.806611,1,-1.000000,""
31,w0,python3action_chameleon_2000,0.000000,1,-1.000000,1,COMPLETED_SUCCESSFULLY,214.117112,0.000010,214.117122,214.117112,214.117122,21411712.200201,1,-1.000000,""
22_updated,w0,python3action_linpack_5000_taurus,0.997085,1,2000.000000,1,COMPLETED_SUCCESSFULLY,176.576011,38.500058,215.076069,175.578926,214.078984,5.560485,13,-1.000000,""
22,w0,python3action_linpack_5000,0.000000,1,-1.000000,1,COMPLETED_SUCCESSFULLY,215.076084,0.000010,215.076094,215.076084,215.076094,21507609.403901,13,-1.000000,""
30_updated,w0,python3action_linpack_6000_orion,0.997085,1,2000.000000,1,COMPLETED_SUCCESSFULLY,112.763237,106.000000,218.763237,111.766152,217.766152,2.054398,11,-1.000000,""
30,w0,python3action_linpack_6000,0.000000,1,-1.000000,1,COMPLETED_SUCCESSFULLY,218.763252,0.000010,218.763262,218.763252,218.763262,21876326.226082,11,-1.000000,""
43_updated,w0,python3action_pyaes_3000_troll,0.997085,1,2000.000000,1,COMPLETED_SUCCESSFULLY,173.370240,57.166677,230.536917,172.373155,229.539832,4.015273,4,-1.000000,""
43,w0,python3action_pyaes_3000,0.000000,1,-1.000000,1,COMPLETED_SUCCESSFULLY,230.536932,0.000010,230.536942,230.536932,230.536942,23053694.200201,4,-1.000000,""
python3action_video_processing_job6_7,w0,python3action_video_processing,0.997085,1,2000.000000,1,COMPLETED_SUCCESSFULLY,202.042389,30.499683,232.542072,201.045304,231.544987,7.591718,7,-1.000000,""
python3action_video_processing_job55_8,w0,python3action_video_processing,0.997085,1,2000.000000,1,COMPLETED_SUCCESSFULLY,202.042449,30.499683,232.542132,201.045364,231.545047,7.591720,8,-1.000000,""
python3action_video_processing_job59_9,w0,python3action_video_processing,0.997085,1,2000.000000,1,COMPLETED_SUCCESSFULLY,202.042509,30.499683,232.542192,201.045424,231.545107,7.591722,9,-1.000000,""
python3action_video_processing_job111_10,w0,python3action_video_processing,0.997085,1,2000.000000,1,COMPLETED_SUCCESSFULLY,202.042554,30.499683,232.542237,201.045469,231.545152,7.591723,10,-1.000000,""
63_updated,w0,python3action_chameleon_2000_neowise,0.997085,1,2000.000000,1,COMPLETED_SUCCESSFULLY,212.717077,24.200002,236.917080,211.719992,235.919995,9.748759,0,-1.000000,""
63,w0,python3action_chameleon_2000,0.000000,1,-1.000000,1,COMPLETED_SUCCESSFULLY,236.917095,0.000010,236.917105,236.917095,236.917105,23691710.500201,0,-1.000000,""
80_updated,w0,python3action_chameleon_2000_neowise,0.997085,1,2000.000000,1,COMPLETED_SUCCESSFULLY,214.117142,24.200002,238.317144,213.120057,237.320059,9.806613,1,-1.000000,""
80,w0,python3action_chameleon_2000,0.000000,1,-1.000000,1,COMPLETED_SUCCESSFULLY,238.317159,0.000010,238.317169,238.317159,238.317169,23831716.923188,1,-1.000000,""
36_updated,w0,python3action_linpack_5000_taurus,0.997085,1,2000.000000,1,COMPLETED_SUCCESSFULLY,209.175908,38.500058,247.675966,208.178823,246.678881,6.407234,2,-1.000000,""
36,w0,python3action_linpack_5000,0.000000,1,-1.000000,1,COMPLETED_SUCCESSFULLY,247.675981,0.000010,247.675991,247.675981,247.675991,24767599.100201,2,-1.000000,""
42_updated,w0,python3action_linpack_5000_taurus,0.997085,1,2000.000000,1,COMPLETED_SUCCESSFULLY,209.176042,38.500058,247.676100,208.178957,246.679015,6.407238,12,-1.000000,""
42,w0,python3action_linpack_5000,0.000000,1,-1.000000,1,COMPLETED_SUCCESSFULLY,247.676115,0.000010,247.676125,247.676115,247.676125,24767612.503901,12,-1.000000,""
62_updated,w0,python3action_linpack_5000_taurus,0.997085,1,2000.000000,1,COMPLETED_SUCCESSFULLY,215.076114,38.500058,253.576172,214.079029,252.579087,6.560486,13,-1.000000,""
62,w0,python3action_linpack_5000,0.000000,1,-1.000000,1,COMPLETED_SUCCESSFULLY,253.576187,0.000010,253.576197,253.576187,253.576197,25357619.700201,13,-1.000000,""
84_updated,w0,python3action_chameleon_2000_neowise,0.997085,1,2000.000000,1,COMPLETED_SUCCESSFULLY,236.917125,24.200002,261.117127,235.920040,260.120042,10.748761,0,-1.000000,""
84,w0,python3action_chameleon_2000,0.000000,1,-1.000000,1,COMPLETED_SUCCESSFULLY,261.117142,0.000010,261.117152,261.117142,261.117152,26111715.223188,0,-1.000000,""
91_updated,w0,python3action_chameleon_2000_neowise,0.997085,1,2000.000000,1,COMPLETED_SUCCESSFULLY,238.317189,24.200002,262.517191,237.320104,261.520106,10.806615,1,-1.000000,""
91,w0,python3action_chameleon_2000,0.000000,1,-1.000000,1,COMPLETED_SUCCESSFULLY,262.517206,0.000010,262.517216,262.517206,262.517216,26251721.646176,1,-1.000000,""
191_updated,w0,python3action_floatoperation_100000000_nova,0.997085,1,2000.000000,1,COMPLETED_SUCCESSFULLY,202.042330,66.200020,268.242350,201.045245,267.245265,4.036936,6,-1.000000,""
191,w0,python3action_floatoperation_100000000,0.000000,1,-1.000000,1,COMPLETED_SUCCESSFULLY,268.242365,0.000010,268.242375,268.242365,268.242375,26824237.500201,6,-1.000000,""
73_updated,w0,python3action_chameleon_3000_yeti,0.997085,1,2000.000000,1,COMPLETED_SUCCESSFULLY,187.894960,93.000000,280.894960,186.897875,279.897875,3.009655,5,-1.000000,""
73,w0,python3action_chameleon_3000,0.000000,1,-1.000000,1,COMPLETED_SUCCESSFULLY,280.894975,0.000010,280.894985,280.894975,280.894985,28089498.500803,5,-1.000000,""
94_updated,w0,python3action_chameleon_2000_neowise,0.997085,1,2000.000000,1,COMPLETED_SUCCESSFULLY,261.117172,24.200002,285.317174,260.120087,284.320089,11.748763,0,-1.000000,""
94,w0,python3action_chameleon_2000,0.000000,1,-1.000000,1,COMPLETED_SUCCESSFULLY,285.317189,0.000010,285.317199,285.317189,285.317199,28531719.946176,0,-1.000000,""
71_updated,w0,python3action_linpack_5000_taurus,0.997085,1,2000.000000,1,COMPLETED_SUCCESSFULLY,247.676011,38.500058,286.176069,246.678926,285.178984,7.407235,2,-1.000000,""
71,w0,python3action_linpack_5000,0.000000,1,-1.000000,1,COMPLETED_SUCCESSFULLY,286.176084,0.000010,286.176094,286.176084,286.176094,28617609.400201,2,-1.000000,""
105_updated,w0,python3action_linpack_5000_taurus,0.997085,1,2000.000000,1,COMPLETED_SUCCESSFULLY,247.676145,38.500058,286.176203,246.679060,285.179118,7.407239,12,-1.000000,""
105,w0,python3action_linpack_5000,0.000000,1,-1.000000,1,COMPLETED_SUCCESSFULLY,286.176218,0.000010,286.176228,286.176218,286.176228,28617622.800201,12,-1.000000,""
108_updated,w0,python3action_chameleon_2000_neowise,0.997085,1,2000.000000,1,COMPLETED_SUCCESSFULLY,262.517236,24.200002,286.717239,261.520151,285.720154,11.806617,1,-1.000000,""
108,w0,python3action_chameleon_2000,0.000000,1,-1.000000,1,COMPLETED_SUCCESSFULLY,286.717254,0.000010,286.717264,286.717254,286.717264,28671726.400201,1,-1.000000,""
67_updated,w0,python3action_pyaes_3000_troll,0.997085,1,2000.000000,1,COMPLETED_SUCCESSFULLY,230.536962,57.166677,287.703639,229.539877,286.706554,5.015274,4,-1.000000,""
67,w0,python3action_pyaes_3000,0.000000,1,-1.000000,1,COMPLETED_SUCCESSFULLY,287.703654,0.000010,287.703664,287.703654,287.703664,28770366.400201,4,-1.000000,""
106_updated,w0,python3action_linpack_5000_taurus,0.997085,1,2000.000000,1,COMPLETED_SUCCESSFULLY,253.576217,38.500058,292.076275,252.579132,291.079190,7.560487,13,-1.000000,""
106,w0,python3action_linpack_5000,0.000000,1,-1.000000,1,COMPLETED_SUCCESSFULLY,292.076290,0.000010,292.076300,292.076290,292.076300,29207630.000201,13,-1.000000,""
python3action_video_processing_job125_6,w0,python3action_video_processing,0.997085,1,2000.000000,1,COMPLETED_SUCCESSFULLY,268.242395,30.499683,298.742078,267.245310,297.744993,9.762233,6,-1.000000,""
113_updated,w0,python3action_chameleon_2000_neowise,0.997085,1,2000.000000,1,COMPLETED_SUCCESSFULLY,285.317219,24.200002,309.517222,284.320134,308.520137,12.748765,0,-1.000000,""
113,w0,python3action_chameleon_2000,0.000000,1,-1.000000,1,COMPLETED_SUCCESSFULLY,309.517237,0.000010,309.517247,309.517237,309.517247,30951724.700201,0,-1.000000,""
114_updated,w0,python3action_chameleon_2000_neowise,0.997085,1,2000.000000,1,COMPLETED_SUCCESSFULLY,286.717284,24.200002,310.917286,285.720199,309.920201,12.806619,1,-1.000000,""
114,w0,python3action_chameleon_2000,0.000000,1,-1.000000,1,COMPLETED_SUCCESSFULLY,310.917301,0.000010,310.917311,310.917301,310.917311,31091731.123189,1,-1.000000,""
112_updated,w0,python3action_linpack_5000_taurus,0.997085,1,2000.000000,1,COMPLETED_SUCCESSFULLY,286.176114,38.500058,324.676172,285.179029,323.679087,8.407236,2,-1.000000,""
112,w0,python3action_linpack_5000,0.000000,1,-1.000000,1,COMPLETED_SUCCESSFULLY,324.676187,0.000010,324.676197,324.676187,324.676197,32467619.700201,2,-1.000000,""
135_updated,w0,python3action_linpack_5000_taurus,0.997085,1,2000.000000,1,COMPLETED_SUCCESSFULLY,286.176248,38.500058,324.676306,285.179163,323.679221,8.407240,12,-1.000000,""
135,w0,python3action_linpack_5000,0.000000,1,-1.000000,1,COMPLETED_SUCCESSFULLY,324.676321,0.000010,324.676331,324.676321,324.676331,32467633.100201,12,-1.000000,""
41_updated,w0,python3action_linpack_6000_orion,0.997085,1,2000.000000,1,COMPLETED_SUCCESSFULLY,218.763282,106.000000,324.763282,217.766197,323.766197,3.054398,11,-1.000000,""
41,w0,python3action_linpack_6000,0.000000,1,-1.000000,1,COMPLETED_SUCCESSFULLY,324.763297,0.000010,324.763307,324.763297,324.763307,32476330.726685,11,-1.000000,""
144_updated,w0,python3action_linpack_5000_taurus,0.997085,1,2000.000000,1,COMPLETED_SUCCESSFULLY,292.076320,38.500058,330.576378,291.079235,329.579293,8.560488,13,-1.000000,""
144,w0,python3action_linpack_5000,0.000000,1,-1.000000,1,COMPLETED_SUCCESSFULLY,330.576393,0.000010,330.576403,330.576393,330.576403,33057640.300201,13,-1.000000,""
138_updated,w0,python3action_chameleon_2000_neowise,0.997085,1,2000.000000,1,COMPLETED_SUCCESSFULLY,309.517267,24.200002,333.717269,308.520182,332.720184,13.748767,0,-1.000000,""
138,w0,python3action_chameleon_2000,0.000000,1,-1.000000,1,COMPLETED_SUCCESSFULLY,333.717284,0.000010,333.717294,333.717284,333.717294,33371729.423189,0,-1.000000,""
153_updated,w0,python3action_chameleon_2000_neowise,0.997085,1,2000.000000,1,COMPLETED_SUCCESSFULLY,310.917331,24.200002,335.117333,309.920246,334.120248,13.806621,1,-1.000000,""
153,w0,python3action_chameleon_2000,0.000000,1,-1.000000,1,COMPLETED_SUCCESSFULLY,335.117348,0.000010,335.117358,335.117348,335.117358,33511735.846176,1,-1.000000,""
6_updated,w0,python3action_videoprocessing_SampleVideo_30mb_nova,0.997085,1,2000.000000,1,COMPLETED_SUCCESSFULLY,232.542087,106.799980,339.342067,231.545002,338.344982,3.168025,7,-1.000000,""
6,w0,python3action_videoprocessing_SampleVideo_30mb,0.000000,1,-1.000000,1,COMPLETED_SUCCESSFULLY,339.342082,0.000010,339.342092,339.342082,339.342092,33934209.246609,7,-1.000000,""
55_updated,w0,python3action_videoprocessing_SampleVideo_30mb_nova,0.997085,1,2000.000000,1,COMPLETED_SUCCESSFULLY,232.542147,106.799980,339.342127,231.545062,338.345042,3.168025,8,-1.000000,""
55,w0,python3action_videoprocessing_SampleVideo_30mb,0.000000,1,-1.000000,1,COMPLETED_SUCCESSFULLY,339.342142,0.000010,339.342152,339.342142,339.342152,33934215.246810,8,-1.000000,""
59_updated,w0,python3action_videoprocessing_SampleVideo_30mb_nova,0.997085,1,2000.000000,1,COMPLETED_SUCCESSFULLY,232.542207,106.799980,339.342187,231.545122,338.345102,3.168026,9,-1.000000,""
59,w0,python3action_videoprocessing_SampleVideo_30mb,0.000000,1,-1.000000,1,COMPLETED_SUCCESSFULLY,339.342202,0.000010,339.342212,339.342202,339.342212,33934221.246810,9,-1.000000,""
111_updated,w0,python3action_videoprocessing_SampleVideo_30mb_nova,0.997085,1,2000.000000,1,COMPLETED_SUCCESSFULLY,232.542252,106.799980,339.342232,231.545167,338.345147,3.168026,10,-1.000000,""
111,w0,python3action_videoprocessing_SampleVideo_30mb,0.000000,1,-1.000000,1,COMPLETED_SUCCESSFULLY,339.342262,0.000010,339.342272,339.342262,339.342272,33934227.247011,10,-1.000000,""
72_updated,w0,python3action_pyaes_3000_troll,0.997085,1,2000.000000,1,COMPLETED_SUCCESSFULLY,287.703684,57.166677,344.870361,286.706599,343.873276,6.015275,4,-1.000000,""
72,w0,python3action_pyaes_3000,0.000000,1,-1.000000,1,COMPLETED_SUCCESSFULLY,344.870376,0.000010,344.870386,344.870376,344.870386,34487038.600201,4,-1.000000,""
157_updated,w0,python3action_chameleon_2000_neowise,0.997085,1,2000.000000,1,COMPLETED_SUCCESSFULLY,333.717314,24.200002,357.917316,332.720229,356.920231,14.748769,0,-1.000000,""
157,w0,python3action_chameleon_2000,0.000000,1,-1.000000,1,COMPLETED_SUCCESSFULLY,357.917331,0.000010,357.917341,357.917331,357.917341,35791734.146176,0,-1.000000,""
165_updated,w0,python3action_chameleon_2000_neowise,0.997085,1,2000.000000,1,COMPLETED_SUCCESSFULLY,335.117378,24.200002,359.317381,334.120293,358.320296,14.806622,1,-1.000000,""
165,w0,python3action_chameleon_2000,0.000000,1,-1.000000,1,COMPLETED_SUCCESSFULLY,359.317396,0.000010,359.317406,359.317396,359.317406,35931740.600201,1,-1.000000,""
152_updated,w0,python3action_linpack_5000_taurus,0.997085,1,2000.000000,1,COMPLETED_SUCCESSFULLY,324.676217,38.500058,363.176275,323.679132,362.179190,9.407238,2,-1.000000,""
152,w0,python3action_linpack_5000,0.000000,1,-1.000000,1,COMPLETED_SUCCESSFULLY,363.176290,0.000010,363.176300,363.176290,363.176300,36317630.000201,2,-1.000000,""
160_updated,w0,python3action_linpack_5000_taurus,0.997085,1,2000.000000,1,COMPLETED_SUCCESSFULLY,324.676351,38.500058,363.176409,323.679266,362.179324,9.407241,12,-1.000000,""
160,w0,python3action_linpack_5000,0.000000,1,-1.000000,1,COMPLETED_SUCCESSFULLY,363.176424,0.000010,363.176434,363.176424,363.176434,36317643.400201,12,-1.000000,""
180_updated,w0,python3action_linpack_5000_taurus,0.997085,1,2000.000000,1,COMPLETED_SUCCESSFULLY,330.576423,38.500058,369.076481,329.579338,368.079396,9.560489,13,-1.000000,""
180,w0,python3action_linpack_5000,0.000000,1,-1.000000,1,COMPLETED_SUCCESSFULLY,369.076496,0.000010,369.076506,369.076496,369.076506,36907650.600201,13,-1.000000,""
python3action_facedetection_job0_12,w0,python3action_facedetection_reduced_0.91,0.997085,1,2000.000000,1,COMPLETED_SUCCESSFULLY,363.176454,6.172496,369.348950,362.179369,368.351865,59.676321,12,-1.000000,""
102_updated,w0,python3action_chameleon_3000_yeti,0.997085,1,2000.000000,1,COMPLETED_SUCCESSFULLY,280.895005,93.000000,373.895005,279.897920,372.897920,4.009655,5,-1.000000,""
102,w0,python3action_chameleon_3000,0.000000,1,-1.000000,1,COMPLETED_SUCCESSFULLY,373.895020,0.000010,373.895030,373.895020,373.895030,37389503.001406,5,-1.000000,""
python3action_facedetection_job1_13,w0,python3action_facedetection_reduced_0.91,0.997085,1,2000.000000,1,COMPLETED_SUCCESSFULLY,369.076526,6.172496,375.249022,368.079441,374.251937,60.632186,13,-1.000000,""
185_updated,w0,python3action_chameleon_2000_neowise,0.997085,1,2000.000000,1,COMPLETED_SUCCESSFULLY,357.917361,24.200002,382.117364,356.920276,381.120279,15.748770,0,-1.000000,""
185,w0,python3action_chameleon_2000,0.000000,1,-1.000000,1,COMPLETED_SUCCESSFULLY,382.117379,0.000010,382.117389,382.117379,382.117389,38211738.900201,0,-1.000000,""
python3action_image_processing_job39_1,w0,python3action_image_processing_reduced_0.86,0.997085,1,2000.000000,1,COMPLETED_SUCCESSFULLY,382.117409,0.469128,382.586537,381.120324,381.589452,813.401898,0,-1.000000,""
198_updated,w0,python3action_chameleon_2000_neowise,0.997085,1,2000.000000,1,COMPLETED_SUCCESSFULLY,359.317426,24.200002,383.517428,358.320341,382.520343,15.806624,1,-1.000000,""
198,w0,python3action_chameleon_2000,0.000000,1,-1.000000,1,COMPLETED_SUCCESSFULLY,383.517443,0.000010,383.517453,383.517443,383.517453,38351745.323189,1,-1.000000,""
python3action_image_processing_job76_2,w0,python3action_image_processing_reduced_0.86,0.997085,1,2000.000000,1,COMPLETED_SUCCESSFULLY,383.517473,0.469128,383.986601,382.520388,382.989516,816.386296,1,-1.000000,""
192_updated,w0,python3action_linpack_5000_taurus,0.997085,1,2000.000000,1,COMPLETED_SUCCESSFULLY,363.176320,38.500058,401.676378,362.179235,400.679293,10.407239,2,-1.000000,""
192,w0,python3action_linpack_5000,0.000000,1,-1.000000,1,COMPLETED_SUCCESSFULLY,401.676393,0.000010,401.676403,401.676393,401.676403,40167640.300201,2,-1.000000,""
98_updated,w0,python3action_pyaes_3000_troll,0.997085,1,2000.000000,1,COMPLETED_SUCCESSFULLY,344.870406,57.166677,402.037083,343.873321,401.039998,7.015276,4,-1.000000,""
98,w0,python3action_pyaes_3000,0.000000,1,-1.000000,1,COMPLETED_SUCCESSFULLY,402.037098,0.000010,402.037108,402.037098,402.037108,40203710.800201,4,-1.000000,""
125_updated,w0,python3action_videoprocessing_SampleVideo_30mb_nova,0.997085,1,2000.000000,1,COMPLETED_SUCCESSFULLY,298.742093,106.799980,405.542073,297.745008,404.544988,3.787875,6,-1.000000,""
125,w0,python3action_videoprocessing_SampleVideo_30mb,0.000000,1,-1.000000,1,COMPLETED_SUCCESSFULLY,405.542088,0.000010,405.542098,405.542088,405.542098,40554209.846609,6,-1.000000,""
python3action_facedetection_job19_3,w0,python3action_facedetection_reduced_0.91,0.997085,1,2000.000000,1,COMPLETED_SUCCESSFULLY,401.676423,6.172496,407.848919,400.679338,406.851834,65.913663,2,-1.000000,""
39_updated,w0,python3action_imageprocessing_SampleImage_60mb_neowise,0.997085,1,2000.000000,1,COMPLETED_SUCCESSFULLY,382.586552,37.500000,420.086552,381.589467,419.089467,11.175719,0,-1.000000,""
39,w0,python3action_imageprocessing_SampleImage_60mb,0.000000,1,-1.000000,1,COMPLETED_SUCCESSFULLY,420.086567,0.000010,420.086577,420.086567,420.086577,42008657.700402,0,-1.000000,""
76_updated,w0,python3action_imageprocessing_SampleImage_60mb_neowise,0.997085,1,2000.000000,1,COMPLETED_SUCCESSFULLY,383.986616,37.500000,421.486616,382.989531,420.489531,11.213054,1,-1.000000,""
76,w0,python3action_imageprocessing_SampleImage_60mb,0.000000,1,-1.000000,1,COMPLETED_SUCCESSFULLY,421.486631,0.000010,421.486641,421.486631,421.486641,42148664.105076,1,-1.000000,""
45_updated,w0,python3action_linpack_6000_orion,0.997085,1,2000.000000,1,COMPLETED_SUCCESSFULLY,324.763327,106.000000,430.763327,323.766242,429.766242,4.054399,11,-1.000000,""
45,w0,python3action_linpack_6000,0.000000,1,-1.000000,1,COMPLETED_SUCCESSFULLY,430.763342,0.000010,430.763352,430.763342,430.763352,43076335.227287,11,-1.000000,""
134_updated,w0,python3action_videoprocessing_SampleVideo_30mb_nova,0.997085,1,2000.000000,1,COMPLETED_SUCCESSFULLY,339.342112,106.799980,446.142093,338.345027,445.145008,4.168025,7,-1.000000,""
134,w0,python3action_videoprocessing_SampleVideo_30mb,0.000000,1,-1.000000,1,COMPLETED_SUCCESSFULLY,446.142108,0.000010,446.142118,446.142108,446.142118,44614211.800201,7,-1.000000,""
150_updated,w0,python3action_videoprocessing_SampleVideo_30mb_nova,0.997085,1,2000.000000,1,COMPLETED_SUCCESSFULLY,339.342172,106.799980,446.142153,338.345087,445.145068,4.168026,8,-1.000000,""
150,w0,python3action_videoprocessing_SampleVideo_30mb,0.000000,1,-1.000000,1,COMPLETED_SUCCESSFULLY,446.142168,0.000010,446.142178,446.142168,446.142178,44614217.800201,8,-1.000000,""
193_updated,w0,python3action_videoprocessing_SampleVideo_30mb_nova,0.997085,1,2000.000000,1,COMPLETED_SUCCESSFULLY,339.342232,106.799980,446.142213,338.345147,445.145128,4.168026,9,-1.000000,""
193,w0,python3action_videoprocessing_SampleVideo_30mb,0.000000,1,-1.000000,1,COMPLETED_SUCCESSFULLY,446.142228,0.000010,446.142238,446.142228,446.142238,44614223.800201,9,-1.000000,""
195_updated,w0,python3action_videoprocessing_SampleVideo_30mb_nova,0.997085,1,2000.000000,1,COMPLETED_SUCCESSFULLY,339.342292,106.799980,446.142273,338.345207,445.145188,4.168027,10,-1.000000,""
195,w0,python3action_videoprocessing_SampleVideo_30mb,0.000000,1,-1.000000,1,COMPLETED_SUCCESSFULLY,446.142288,0.000010,446.142298,446.142288,446.142298,44614229.800201,10,-1.000000,""
96_updated,w0,python3action_imageprocessing_SampleImage_60mb_neowise,0.997085,1,2000.000000,1,COMPLETED_SUCCESSFULLY,420.086597,37.500000,457.586597,419.089512,456.589512,12.175720,0,-1.000000,""
96,w0,python3action_imageprocessing_SampleImage_60mb,0.000000,1,-1.000000,1,COMPLETED_SUCCESSFULLY,457.586612,0.000010,457.586622,457.586612,457.586622,45758662.201004,0,-1.000000,""
123_updated,w0,python3action_imageprocessing_SampleImage_60mb_neowise,0.997085,1,2000.000000,1,COMPLETED_SUCCESSFULLY,421.486661,37.500000,458.986661,420.489576,457.989576,12.213055,1,-1.000000,""
123,w0,python3action_imageprocessing_SampleImage_60mb,0.000000,1,-1.000000,1,COMPLETED_SUCCESSFULLY,458.986676,0.000010,458.986686,458.986676,458.986686,45898668.605679,1,-1.000000,""
129_updated,w0,python3action_pyaes_3000_troll,0.997085,1,2000.000000,1,COMPLETED_SUCCESSFULLY,402.037128,57.166677,459.203805,401.040043,458.206720,8.015277,4,-1.000000,""
129,w0,python3action_pyaes_3000,0.000000,1,-1.000000,1,COMPLETED_SUCCESSFULLY,459.203820,0.000010,459.203830,459.203820,459.203830,45920383.000201,4,-1.000000,""
104_updated,w0,python3action_chameleon_3000_yeti,0.997085,1,2000.000000,1,COMPLETED_SUCCESSFULLY,373.895050,93.000000,466.895050,372.897965,465.897965,5.009656,5,-1.000000,""
104,w0,python3action_chameleon_3000,0.000000,1,-1.000000,1,COMPLETED_SUCCESSFULLY,466.895065,0.000010,466.895075,466.895065,466.895075,46689507.502009,5,-1.000000,""
124_updated,w0,python3action_imageprocessing_SampleImage_60mb_neowise,0.997085,1,2000.000000,1,COMPLETED_SUCCESSFULLY,457.586642,37.500000,495.086642,456.589557,494.089557,13.175722,0,-1.000000,""
124,w0,python3action_imageprocessing_SampleImage_60mb,0.000000,1,-1.000000,1,COMPLETED_SUCCESSFULLY,495.086657,0.000010,495.086667,495.086657,495.086667,49508666.701607,0,-1.000000,""
196_updated,w0,python3action_imageprocessing_SampleImage_60mb_neowise,0.997085,1,2000.000000,1,COMPLETED_SUCCESSFULLY,458.986706,37.500000,496.486706,457.989621,495.489621,13.213057,1,-1.000000,""
196,w0,python3action_imageprocessing_SampleImage_60mb,0.000000,1,-1.000000,1,COMPLETED_SUCCESSFULLY,496.486721,0.000010,496.486731,496.486721,496.486731,49648673.106281,1,-1.000000,""
0_updated,w0,python3action_facedetection_SampleVideo_50mb_taurus,0.997085,1,2000.000000,1,COMPLETED_SUCCESSFULLY,369.348965,134.600046,503.949011,368.351880,502.951926,3.736640,12,-1.000000,""
0,w0,python3action_facedetection_SampleVideo_50mb,0.000000,1,-1.000000,1,COMPLETED_SUCCESSFULLY,503.949026,0.000010,503.949036,503.949026,503.949036,50394903.631032,12,-1.000000,""
1_updated,w0,python3action_facedetection_SampleVideo_50mb_taurus,0.997085,1,2000.000000,1,COMPLETED_SUCCESSFULLY,375.249037,134.600046,509.849083,374.251952,508.851998,3.780474,13,-1.000000,""
1,w0,python3action_facedetection_SampleVideo_50mb,0.000000,1,-1.000000,1,COMPLETED_SUCCESSFULLY,509.849098,0.000010,509.849108,509.849098,509.849108,50984910.831032,13,-1.000000,""
136_updated,w0,python3action_pyaes_3000_troll,0.997085,1,2000.000000,1,COMPLETED_SUCCESSFULLY,459.203850,57.166677,516.370527,458.206765,515.373442,9.015277,4,-1.000000,""
136,w0,python3action_pyaes_3000,0.000000,1,-1.000000,1,COMPLETED_SUCCESSFULLY,516.370542,0.000010,516.370552,516.370542,516.370552,51637055.200201,4,-1.000000,""
197_updated,w0,python3action_imageprocessing_SampleImage_60mb_neowise,0.997085,1,2000.000000,1,COMPLETED_SUCCESSFULLY,495.086687,37.500000,532.586687,494.089602,531.589602,14.175723,0,-1.000000,""
197,w0,python3action_imageprocessing_SampleImage_60mb,0.000000,1,-1.000000,1,COMPLETED_SUCCESSFULLY,532.586702,0.000010,532.586712,532.586702,532.586712,53258671.202209,0,-1.000000,""
46_updated,w0,python3action_linpack_6000_orion,0.997085,1,2000.000000,1,COMPLETED_SUCCESSFULLY,430.763372,106.000000,536.763372,429.766287,535.766287,5.054399,11,-1.000000,""
46,w0,python3action_linpack_6000,0.000000,1,-1.000000,1,COMPLETED_SUCCESSFULLY,536.763387,0.000010,536.763397,536.763387,536.763397,53676339.727890,11,-1.000000,""
12_updated,w0,python3action_modeltraining_reviews100mb_neowise,0.997085,1,2000.000000,1,COMPLETED_SUCCESSFULLY,496.486751,43.399999,539.886750,495.489666,538.889665,12.416813,1,-1.000000,""
12,w0,python3action_modeltraining_reviews100mb,0.000000,1,-1.000000,1,COMPLETED_SUCCESSFULLY,539.886765,0.000010,539.886775,539.886765,539.886775,53988677.500201,1,-1.000000,""
2_updated,w0,python3action_floatoperation_200000000_nova,0.997085,1,2000.000000,1,COMPLETED_SUCCESSFULLY,405.542118,135.399990,540.942109,404.545033,539.945024,3.987777,6,-1.000000,""
2,w0,python3action_floatoperation_200000000,0.000000,1,-1.000000,1,COMPLETED_SUCCESSFULLY,540.942124,0.000010,540.942134,540.942124,540.942134,54094213.400201,6,-1.000000,""
19_updated,w0,python3action_facedetection_SampleVideo_50mb_taurus,0.997085,1,2000.000000,1,COMPLETED_SUCCESSFULLY,407.848934,134.600046,542.448980,406.851849,541.451895,4.022672,2,-1.000000,""
19,w0,python3action_facedetection_SampleVideo_50mb,0.000000,1,-1.000000,1,COMPLETED_SUCCESSFULLY,542.448995,0.000010,542.449005,542.448995,542.449005,54244900.531032,2,-1.000000,""
116_updated,w0,python3action_chameleon_3000_yeti,0.997085,1,2000.000000,1,COMPLETED_SUCCESSFULLY,466.895095,93.000000,559.895095,465.898010,558.898010,6.009656,5,-1.000000,""
116,w0,python3action_chameleon_3000,0.000000,1,-1.000000,1,COMPLETED_SUCCESSFULLY,559.895110,0.000010,559.895120,559.895110,559.895120,55989512.002611,5,-1.000000,""
137_updated,w0,python3action_pyaes_3000_troll,0.997085,1,2000.000000,1,COMPLETED_SUCCESSFULLY,516.370572,57.166677,573.537249,515.373487,572.540164,10.015278,4,-1.000000,""
137,w0,python3action_pyaes_3000,0.000000,1,-1.000000,1,COMPLETED_SUCCESSFULLY,573.537264,0.000010,573.537274,573.537264,573.537274,57353727.400201,4,-1.000000,""
40_updated,w0,python3action_modeltraining_reviews100mb_neowise,0.997085,1,2000.000000,1,COMPLETED_SUCCESSFULLY,532.586732,43.399999,575.986731,531.589647,574.989646,13.248610,0,-1.000000,""
40,w0,python3action_modeltraining_reviews100mb,0.000000,1,-1.000000,1,COMPLETED_SUCCESSFULLY,575.986746,0.000010,575.986756,575.986746,575.986756,57598675.600201,0,-1.000000,""
11_updated,w0,python3action_floatoperation_200000000_nova,0.997085,1,2000.000000,1,COMPLETED_SUCCESSFULLY,446.142138,135.399990,581.542128,445.145053,580.545043,4.287630,7,-1.000000,""
11,w0,python3action_floatoperation_200000000,0.000000,1,-1.000000,1,COMPLETED_SUCCESSFULLY,581.542143,0.000010,581.542153,581.542143,581.542153,58154215.323907,7,-1.000000,""
18_updated,w0,python3action_floatoperation_200000000_nova,0.997085,1,2000.000000,1,COMPLETED_SUCCESSFULLY,446.142198,135.399990,581.542188,445.145113,580.545103,4.287630,8,-1.000000,""
18,w0,python3action_floatoperation_200000000,0.000000,1,-1.000000,1,COMPLETED_SUCCESSFULLY,581.542203,0.000010,581.542213,581.542203,581.542213,58154221.324108,8,-1.000000,""
20_updated,w0,python3action_floatoperation_200000000_nova,0.997085,1,2000.000000,1,COMPLETED_SUCCESSFULLY,446.142258,135.399990,581.542248,445.145173,580.545163,4.287631,9,-1.000000,""
20,w0,python3action_floatoperation_200000000,0.000000,1,-1.000000,1,COMPLETED_SUCCESSFULLY,581.542263,0.000010,581.542273,581.542263,581.542273,58154227.324108,9,-1.000000,""
24_updated,w0,python3action_floatoperation_200000000_nova,0.997085,1,2000.000000,1,COMPLETED_SUCCESSFULLY,446.142318,135.399990,581.542308,445.145233,580.545223,4.287631,10,-1.000000,""
24,w0,python3action_floatoperation_200000000,0.000000,1,-1.000000,1,COMPLETED_SUCCESSFULLY,581.542323,0.000010,581.542333,581.542323,581.542333,58154233.324108,10,-1.000000,""
48_updated,w0,python3action_modeltraining_reviews100mb_neowise,0.997085,1,2000.000000,1,COMPLETED_SUCCESSFULLY,539.886795,43.399999,583.286794,538.889710,582.289709,13.416814,1,-1.000000,""
48,w0,python3action_modeltraining_reviews100mb,0.000000,1,-1.000000,1,COMPLETED_SUCCESSFULLY,583.286809,0.000010,583.286819,583.286809,583.286819,58328681.900201,1,-1.000000,""
50_updated,w0,python3action_modeltraining_reviews100mb_neowise,0.997085,1,2000.000000,1,COMPLETED_SUCCESSFULLY,575.986776,43.399999,619.386775,574.989691,618.389690,14.248611,0,-1.000000,""
50,w0,python3action_modeltraining_reviews100mb,0.000000,1,-1.000000,1,COMPLETED_SUCCESSFULLY,619.386790,0.000010,619.386800,619.386790,619.386800,61938680.000201,0,-1.000000,""
51_updated,w0,python3action_modeltraining_reviews100mb_neowise,0.997085,1,2000.000000,1,COMPLETED_SUCCESSFULLY,583.286839,43.399999,626.686838,582.289754,625.689753,14.416815,1,-1.000000,""
51,w0,python3action_modeltraining_reviews100mb,0.000000,1,-1.000000,1,COMPLETED_SUCCESSFULLY,626.686853,0.000010,626.686863,626.686853,626.686863,62668686.300201,1,-1.000000,""
141_updated,w0,python3action_pyaes_3000_troll,0.997085,1,2000.000000,1,COMPLETED_SUCCESSFULLY,573.537294,57.166677,630.703971,572.540209,629.706886,11.015279,4,-1.000000,""
141,w0,python3action_pyaes_3000,0.000000,1,-1.000000,1,COMPLETED_SUCCESSFULLY,630.703986,0.000010,630.703996,630.703986,630.703996,63070399.600201,4,-1.000000,""
23_updated,w0,python3action_facedetection_SampleVideo_50mb_taurus,0.997085,1,2000.000000,1,COMPLETED_SUCCESSFULLY,503.949056,134.600046,638.549102,502.951971,637.552017,4.736640,12,-1.000000,""
23,w0,python3action_facedetection_SampleVideo_50mb,0.000000,1,-1.000000,1,COMPLETED_SUCCESSFULLY,638.549117,0.000010,638.549127,638.549117,638.549127,63854912.744712,12,-1.000000,""
56_updated,w0,python3action_linpack_6000_orion,0.997085,1,2000.000000,1,COMPLETED_SUCCESSFULLY,536.763417,106.000000,642.763417,535.766332,641.766332,6.054399,11,-1.000000,""
56,w0,python3action_linpack_6000,0.000000,1,-1.000000,1,COMPLETED_SUCCESSFULLY,642.763432,0.000010,642.763442,642.763432,642.763442,64276344.228492,11,-1.000000,""
27_updated,w0,python3action_facedetection_SampleVideo_50mb_taurus,0.997085,1,2000.000000,1,COMPLETED_SUCCESSFULLY,509.849128,134.600046,644.449174,508.852043,643.452089,4.780475,13,-1.000000,""
27,w0,python3action_facedetection_SampleVideo_50mb,0.000000,1,-1.000000,1,COMPLETED_SUCCESSFULLY,644.449189,0.000010,644.449199,644.449189,644.449199,64444919.944712,13,-1.000000,""
148_updated,w0,python3action_chameleon_3000_yeti,0.997085,1,2000.000000,1,COMPLETED_SUCCESSFULLY,559.895140,93.000000,652.895140,558.898055,651.898055,7.009657,5,-1.000000,""
148,w0,python3action_chameleon_3000,0.000000,1,-1.000000,1,COMPLETED_SUCCESSFULLY,652.895155,0.000010,652.895165,652.895155,652.895165,65289516.503213,5,-1.000000,""
57_updated,w0,python3action_modeltraining_reviews100mb_neowise,0.997085,1,2000.000000,1,COMPLETED_SUCCESSFULLY,619.386820,43.399999,662.786819,618.389735,661.789734,15.248612,0,-1.000000,""
57,w0,python3action_modeltraining_reviews100mb,0.000000,1,-1.000000,1,COMPLETED_SUCCESSFULLY,662.786834,0.000010,662.786844,662.786834,662.786844,66278684.400201,0,-1.000000,""
100_updated,w0,python3action_modeltraining_reviews100mb_neowise,0.997085,1,2000.000000,1,COMPLETED_SUCCESSFULLY,626.686883,43.399999,670.086882,625.689798,669.089797,15.416816,1,-1.000000,""
100,w0,python3action_modeltraining_reviews100mb,0.000000,1,-1.000000,1,COMPLETED_SUCCESSFULLY,670.086897,0.000010,670.086907,670.086897,670.086907,67008690.700201,1,-1.000000,""
32_updated,w0,python3action_floatoperation_200000000_nova,0.997085,1,2000.000000,1,COMPLETED_SUCCESSFULLY,540.942154,135.399990,676.342144,539.945069,675.345059,4.987778,6,-1.000000,""
32,w0,python3action_floatoperation_200000000,0.000000,1,-1.000000,1,COMPLETED_SUCCESSFULLY,676.342159,0.000010,676.342169,676.342159,676.342169,67634216.923907,6,-1.000000,""
92_updated,w0,python3action_facedetection_SampleVideo_50mb_taurus,0.997085,1,2000.000000,1,COMPLETED_SUCCESSFULLY,542.449025,134.600046,677.049071,541.451940,676.051986,5.022673,2,-1.000000,""
92,w0,python3action_facedetection_SampleVideo_50mb,0.000000,1,-1.000000,1,COMPLETED_SUCCESSFULLY,677.049086,0.000010,677.049096,677.049086,677.049096,67704909.644712,2,-1.000000,""
161_updated,w0,python3action_pyaes_3000_troll,0.997085,1,2000.000000,1,COMPLETED_SUCCESSFULLY,630.704016,57.166677,687.870693,629.706931,686.873608,12.015280,4,-1.000000,""
161,w0,python3action_pyaes_3000,0.000000,1,-1.000000,1,COMPLETED_SUCCESSFULLY,687.870708,0.000010,687.870718,687.870708,687.870718,68787071.800201,4,-1.000000,""
118_updated,w0,python3action_modeltraining_reviews100mb_neowise,0.997085,1,2000.000000,1,COMPLETED_SUCCESSFULLY,662.786864,43.399999,706.186863,661.789779,705.189778,16.248613,0,-1.000000,""
118,w0,python3action_modeltraining_reviews100mb,0.000000,1,-1.000000,1,COMPLETED_SUCCESSFULLY,706.186878,0.000010,706.186888,706.186878,706.186888,70618688.800201,0,-1.000000,""
127_updated,w0,python3action_modeltraining_reviews100mb_neowise,0.997085,1,2000.000000,1,COMPLETED_SUCCESSFULLY,670.086927,43.399999,713.486926,669.089842,712.489841,16.416817,1,-1.000000,""
127,w0,python3action_modeltraining_reviews100mb,0.000000,1,-1.000000,1,COMPLETED_SUCCESSFULLY,713.486941,0.000010,713.486951,713.486941,713.486951,71348695.100201,1,-1.000000,""
61_updated,w0,python3action_floatoperation_200000000_nova,0.997085,1,2000.000000,1,COMPLETED_SUCCESSFULLY,581.542173,135.399990,716.942163,580.545088,715.945078,5.287630,7,-1.000000,""
61,w0,python3action_floatoperation_200000000,0.000000,1,-1.000000,1,COMPLETED_SUCCESSFULLY,716.942178,0.000010,716.942188,716.942178,716.942188,71694218.847613,7,-1.000000,""
79_updated,w0,python3action_floatoperation_200000000_nova,0.997085,1,2000.000000,1,COMPLETED_SUCCESSFULLY,581.542233,135.399990,716.942223,580.545148,715.945138,5.287631,8,-1.000000,""
79,w0,python3action_floatoperation_200000000,0.000000,1,-1.000000,1,COMPLETED_SUCCESSFULLY,716.942238,0.000010,716.942248,716.942238,716.942248,71694224.848014,8,-1.000000,""
107_updated,w0,python3action_floatoperation_200000000_nova,0.997085,1,2000.000000,1,COMPLETED_SUCCESSFULLY,581.542293,135.399990,716.942283,580.545208,715.945198,5.287631,9,-1.000000,""
107,w0,python3action_floatoperation_200000000,0.000000,1,-1.000000,1,COMPLETED_SUCCESSFULLY,716.942298,0.000010,716.942308,716.942298,716.942308,71694230.848014,9,-1.000000,""
132_updated,w0,python3action_floatoperation_200000000_nova,0.997085,1,2000.000000,1,COMPLETED_SUCCESSFULLY,581.542353,135.399990,716.942343,580.545268,715.945258,5.287632,10,-1.000000,""
132,w0,python3action_floatoperation_200000000,0.000000,1,-1.000000,1,COMPLETED_SUCCESSFULLY,716.942358,0.000010,716.942368,716.942358,716.942368,71694236.848014,10,-1.000000,""
199_updated,w0,python3action_pyaes_3000_troll,0.997085,1,2000.000000,1,COMPLETED_SUCCESSFULLY,687.870738,57.166677,745.037415,686.873653,744.040330,13.015280,4,-1.000000,""
199,w0,python3action_pyaes_3000,0.000000,1,-1.000000,1,COMPLETED_SUCCESSFULLY,745.037430,0.000010,745.037440,745.037430,745.037440,74503744.000201,4,-1.000000,""
166_updated,w0,python3action_chameleon_3000_yeti,0.997085,1,2000.000000,1,COMPLETED_SUCCESSFULLY,652.895185,93.000000,745.895185,651.898100,744.898100,8.009657,5,-1.000000,""
166,w0,python3action_chameleon_3000,0.000000,1,-1.000000,1,COMPLETED_SUCCESSFULLY,745.895200,0.000010,745.895210,745.895200,745.895210,74589521.003816,5,-1.000000,""
65_updated,w0,python3action_linpack_6000_orion,0.997085,1,2000.000000,1,COMPLETED_SUCCESSFULLY,642.763462,106.000000,748.763462,641.766377,747.766377,7.054400,11,-1.000000,""
65,w0,python3action_linpack_6000,0.000000,1,-1.000000,1,COMPLETED_SUCCESSFULLY,748.763477,0.000010,748.763487,748.763477,748.763487,74876348.729095,11,-1.000000,""
130_updated,w0,python3action_modeltraining_reviews100mb_neowise,0.997085,1,2000.000000,1,COMPLETED_SUCCESSFULLY,706.186908,43.399999,749.586907,705.189823,748.589822,17.248614,0,-1.000000,""
130,w0,python3action_modeltraining_reviews100mb,0.000000,1,-1.000000,1,COMPLETED_SUCCESSFULLY,749.586922,0.000010,749.586932,749.586922,749.586932,74958693.200201,0,-1.000000,""
186_updated,w0,python3action_modeltraining_reviews100mb_neowise,0.997085,1,2000.000000,1,COMPLETED_SUCCESSFULLY,713.486971,43.399999,756.886970,712.489886,755.889885,17.416818,1,-1.000000,""
186,w0,python3action_modeltraining_reviews100mb,0.000000,1,-1.000000,1,COMPLETED_SUCCESSFULLY,756.886985,0.000010,756.886995,756.886985,756.886995,75688699.500201,1,-1.000000,""
119_updated,w0,python3action_facedetection_SampleVideo_50mb_taurus,0.997085,1,2000.000000,1,COMPLETED_SUCCESSFULLY,638.549147,134.600046,773.149194,637.552062,772.152109,5.736641,12,-1.000000,""
119,w0,python3action_facedetection_SampleVideo_50mb,0.000000,1,-1.000000,1,COMPLETED_SUCCESSFULLY,773.149209,0.000010,773.149219,773.149209,773.149219,77314921.900201,12,-1.000000,""
121_updated,w0,python3action_facedetection_SampleVideo_50mb_taurus,0.997085,1,2000.000000,1,COMPLETED_SUCCESSFULLY,644.449219,134.600046,779.049266,643.452134,778.052181,5.780475,13,-1.000000,""
121,w0,python3action_facedetection_SampleVideo_50mb,0.000000,1,-1.000000,1,COMPLETED_SUCCESSFULLY,779.049281,0.000010,779.049291,779.049281,779.049291,77904929.100201,13,-1.000000,""
133_updated,w0,python3action_facedetection_SampleVideo_50mb_taurus,0.997085,1,2000.000000,1,COMPLETED_SUCCESSFULLY,677.049116,134.600046,811.649163,676.052031,810.652078,6.022673,2,-1.000000,""
133,w0,python3action_facedetection_SampleVideo_50mb,0.000000,1,-1.000000,1,COMPLETED_SUCCESSFULLY,811.649178,0.000010,811.649188,811.649178,811.649188,81164918.800201,2,-1.000000,""
python3action_video_processing_job5_3,w0,python3action_video_processing_reduced_1.83,0.997085,1,2000.000000,1,COMPLETED_SUCCESSFULLY,811.649208,0.000000,811.649208,810.652123,810.652123,7032121777724.263672,2,-1.000000,""
142_updated,w0,python3action_floatoperation_200000000_nova,0.997085,1,2000.000000,1,COMPLETED_SUCCESSFULLY,676.342189,135.399990,811.742179,675.345104,810.745094,5.987778,6,-1.000000,""
142,w0,python3action_floatoperation_200000000,0.000000,1,-1.000000,1,COMPLETED_SUCCESSFULLY,811.742194,0.000010,811.742204,811.742194,811.742204,81174220.447613,6,-1.000000,""
python3action_pyaes_job44_6,w0,python3action_pyaes,0.997085,1,2000.000000,1,COMPLETED_SUCCESSFULLY,811.742224,2.134958,813.877183,810.745139,812.880098,380.747540,6,-1.000000,""
172_updated,w0,python3action_chameleon_3000_yeti,0.997085,1,2000.000000,1,COMPLETED_SUCCESSFULLY,745.895230,93.000000,838.895230,744.898145,837.898145,9.009657,5,-1.000000,""
172,w0,python3action_chameleon_3000,0.000000,1,-1.000000,1,COMPLETED_SUCCESSFULLY,838.895245,0.000010,838.895255,838.895245,838.895255,83889525.504418,5,-1.000000,""
25_updated,w0,python3action_pyaes_4000_troll,0.997085,1,2000.000000,1,COMPLETED_SUCCESSFULLY,745.037460,102.333333,847.370793,744.040375,846.373708,8.270753,4,-1.000000,""
25,w0,python3action_pyaes_4000,0.000000,1,-1.000000,1,COMPLETED_SUCCESSFULLY,847.370808,0.000010,847.370818,847.370808,847.370818,84737081.834137,4,-1.000000,""
147_updated,w0,python3action_floatoperation_200000000_nova,0.997085,1,2000.000000,1,COMPLETED_SUCCESSFULLY,716.942208,135.399990,852.342199,715.945123,851.345114,6.287631,7,-1.000000,""
147,w0,python3action_floatoperation_200000000,0.000000,1,-1.000000,1,COMPLETED_SUCCESSFULLY,852.342214,0.000010,852.342224,852.342214,852.342224,85234222.400201,7,-1.000000,""
162_updated,w0,python3action_floatoperation_200000000_nova,0.997085,1,2000.000000,1,COMPLETED_SUCCESSFULLY,716.942268,135.399990,852.342259,715.945183,851.345174,6.287631,8,-1.000000,""
162,w0,python3action_floatoperation_200000000,0.000000,1,-1.000000,1,COMPLETED_SUCCESSFULLY,852.342274,0.000010,852.342284,852.342274,852.342284,85234228.400201,8,-1.000000,""
164_updated,w0,python3action_floatoperation_200000000_nova,0.997085,1,2000.000000,1,COMPLETED_SUCCESSFULLY,716.942328,135.399990,852.342319,715.945243,851.345234,6.287631,9,-1.000000,""
164,w0,python3action_floatoperation_200000000,0.000000,1,-1.000000,1,COMPLETED_SUCCESSFULLY,852.342334,0.000010,852.342344,852.342334,852.342344,85234234.400201,9,-1.000000,""
175_updated,w0,python3action_floatoperation_200000000_nova,0.997085,1,2000.000000,1,COMPLETED_SUCCESSFULLY,716.942388,135.399990,852.342379,715.945303,851.345294,6.287632,10,-1.000000,""
175,w0,python3action_floatoperation_200000000,0.000000,1,-1.000000,1,COMPLETED_SUCCESSFULLY,852.342394,0.000010,852.342404,852.342394,852.342404,85234240.400201,10,-1.000000,""
python3action_pyaes_job85_8,w0,python3action_pyaes,0.997085,1,2000.000000,1,COMPLETED_SUCCESSFULLY,852.342304,2.134958,854.477262,851.345219,853.480177,399.764343,8,-1.000000,""
python3action_pyaes_job120_9,w0,python3action_pyaes,0.997085,1,2000.000000,1,COMPLETED_SUCCESSFULLY,852.342364,2.134958,854.477322,851.345279,853.480237,399.764371,9,-1.000000,""
74_updated,w0,python3action_linpack_6000_orion,0.997085,1,2000.000000,1,COMPLETED_SUCCESSFULLY,748.763507,106.000000,854.763507,747.766422,853.766422,8.054400,11,-1.000000,""
74,w0,python3action_linpack_6000,0.000000,1,-1.000000,1,COMPLETED_SUCCESSFULLY,854.763522,0.000010,854.763532,854.763522,854.763532,85476353.229697,11,-1.000000,""
168_updated,w0,python3action_facedetection_SampleVideo_50mb_taurus,0.997085,1,2000.000000,1,COMPLETED_SUCCESSFULLY,773.149239,134.600046,907.749285,772.152154,906.752200,6.736641,12,-1.000000,""
168,w0,python3action_facedetection_SampleVideo_50mb,0.000000,1,-1.000000,1,COMPLETED_SUCCESSFULLY,907.749300,0.000010,907.749310,907.749300,907.749310,90774931.013881,12,-1.000000,""
python3action_video_processing_job38_12,w0,python3action_video_processing_reduced_1.83,0.997085,1,2000.000000,1,COMPLETED_SUCCESSFULLY,907.749330,0.000000,907.749330,906.752245,906.752245,7865756505299.094727,12,-1.000000,""
182_updated,w0,python3action_facedetection_SampleVideo_50mb_taurus,0.997085,1,2000.000000,1,COMPLETED_SUCCESSFULLY,779.049311,134.600046,913.649357,778.052226,912.652272,6.780475,13,-1.000000,""
182,w0,python3action_facedetection_SampleVideo_50mb,0.000000,1,-1.000000,1,COMPLETED_SUCCESSFULLY,913.649372,0.000010,913.649382,913.649372,913.649382,91364938.213881,13,-1.000000,""
python3action_video_processing_job68_13,w0,python3action_video_processing_reduced_1.83,0.997085,1,2000.000000,1,COMPLETED_SUCCESSFULLY,913.649402,0.000000,913.649402,912.652317,912.652317,7916937552784.030273,13,-1.000000,""
174_updated,w0,python3action_chameleon_3000_yeti,0.997085,1,2000.000000,1,COMPLETED_SUCCESSFULLY,838.895275,93.000000,931.895275,837.898190,930.898190,10.009658,5,-1.000000,""
174,w0,python3action_chameleon_3000,0.000000,1,-1.000000,1,COMPLETED_SUCCESSFULLY,931.895290,0.000010,931.895300,931.895290,931.895300,93189530.005020,5,-1.000000,""
58_updated,w0,python3action_pyaes_4000_troll,0.997085,1,2000.000000,1,COMPLETED_SUCCESSFULLY,847.370838,102.333333,949.704172,846.373753,948.707087,9.270753,4,-1.000000,""
58,w0,python3action_pyaes_4000,0.000000,1,-1.000000,1,COMPLETED_SUCCESSFULLY,949.704187,0.000010,949.704197,949.704187,949.704197,94970419.700201,4,-1.000000,""
44_updated,w0,python3action_pyaes_4000_nova,0.997085,1,2000.000000,1,COMPLETED_SUCCESSFULLY,813.877198,139.600010,953.477208,812.880113,952.480123,6.822923,6,-1.000000,""
44,w0,python3action_pyaes_4000,0.000000,1,-1.000000,1,COMPLETED_SUCCESSFULLY,953.477223,0.000010,953.477233,953.477223,953.477233,95347723.300201,6,-1.000000,""
109_updated,w0,python3action_linpack_6000_orion,0.997085,1,2000.000000,1,COMPLETED_SUCCESSFULLY,854.763552,106.000000,960.763552,853.766467,959.766467,9.054401,11,-1.000000,""
109,w0,python3action_linpack_6000,0.000000,1,-1.000000,1,COMPLETED_SUCCESSFULLY,960.763567,0.000010,960.763577,960.763567,960.763577,96076357.730299,11,-1.000000,""
5_updated,w0,python3action_videoprocessing_SampleVideo_50mb_taurus,0.997085,1,2000.000000,1,COMPLETED_SUCCESSFULLY,811.649238,154.250029,965.899267,810.652153,964.902182,6.255442,2,-1.000000,""
5,w0,python3action_videoprocessing_SampleVideo_50mb,0.000000,1,-1.000000,1,COMPLETED_SUCCESSFULLY,965.899282,0.000010,965.899292,965.899282,965.899292,96589929.200201,2,-1.000000,""
78_updated,w0,python3action_videoprocessing_SampleVideo_50mb_nova,0.997085,1,2000.000000,1,COMPLETED_SUCCESSFULLY,852.342244,139.600010,991.942254,851.345159,990.945169,7.098461,7,-1.000000,""
78,w0,python3action_videoprocessing_SampleVideo_50mb,0.000000,1,-1.000000,1,COMPLETED_SUCCESSFULLY,991.942269,0.000010,991.942279,991.942269,991.942279,99194227.900201,7,-1.000000,""
171_updated,w0,python3action_videoprocessing_SampleVideo_50mb_nova,0.997085,1,2000.000000,1,COMPLETED_SUCCESSFULLY,852.342424,139.600010,991.942434,851.345339,990.945349,7.098462,10,-1.000000,""
171,w0,python3action_videoprocessing_SampleVideo_50mb,0.000000,1,-1.000000,1,COMPLETED_SUCCESSFULLY,991.942449,0.000010,991.942459,991.942449,991.942459,99194245.900201,10,-1.000000,""
85_updated,w0,python3action_pyaes_4000_nova,0.997085,1,2000.000000,1,COMPLETED_SUCCESSFULLY,854.477277,139.600010,994.077287,853.480192,993.080202,7.113755,8,-1.000000,""
85,w0,python3action_pyaes_4000,0.000000,1,-1.000000,1,COMPLETED_SUCCESSFULLY,994.077302,0.000010,994.077312,994.077302,994.077312,99407731.201668,8,-1.000000,""
120_updated,w0,python3action_pyaes_4000_nova,0.997085,1,2000.000000,1,COMPLETED_SUCCESSFULLY,854.477337,139.600010,994.077347,853.480252,993.080262,7.113755,9,-1.000000,""
120,w0,python3action_pyaes_4000,0.000000,1,-1.000000,1,COMPLETED_SUCCESSFULLY,994.077362,0.000010,994.077372,994.077362,994.077372,99407737.201869,9,-1.000000,""
python3action_facedetection_job29_10,w0,python3action_facedetection_reduced_0.91,0.997085,1,2000.000000,1,COMPLETED_SUCCESSFULLY,991.942479,2.614259,994.556738,990.945394,993.559653,380.054096,10,-1.000000,""
python3action_facedetection_job3_9,w0,python3action_facedetection_reduced_0.91,0.997085,1,2000.000000,1,COMPLETED_SUCCESSFULLY,994.077392,2.614259,996.691651,993.080307,995.694566,380.870738,9,-1.000000,""
183_updated,w0,python3action_chameleon_3000_yeti,0.997085,1,2000.000000,1,COMPLETED_SUCCESSFULLY,931.895320,93.000000,1024.895320,930.898235,1023.898235,11.009658,5,-1.000000,""
183,w0,python3action_chameleon_3000,0.000000,1,-1.000000,1,COMPLETED_SUCCESSFULLY,1024.895335,0.000010,1024.895345,1024.895335,1024.895345,102489534.505623,5,-1.000000,""
69_updated,w0,python3action_pyaes_4000_troll,0.997085,1,2000.000000,1,COMPLETED_SUCCESSFULLY,949.704217,102.333333,1052.037550,948.707132,1051.040465,10.270754,4,-1.000000,""
69,w0,python3action_pyaes_4000,0.000000,1,-1.000000,1,COMPLETED_SUCCESSFULLY,1052.037565,0.000010,1052.037575,1052.037565,1052.037575,105203757.534137,4,-1.000000,""
38_updated,w0,python3action_videoprocessing_SampleVideo_50mb_taurus,0.997085,1,2000.000000,1,COMPLETED_SUCCESSFULLY,907.749360,154.250029,1061.999389,906.752275,1061.002304,6.878458,12,-1.000000,""
38,w0,python3action_videoprocessing_SampleVideo_50mb,0.000000,1,-1.000000,1,COMPLETED_SUCCESSFULLY,1061.999404,0.000010,1061.999414,1061.999404,1061.999414,106199941.400201,12,-1.000000,""
154_updated,w0,python3action_linpack_6000_orion,0.997085,1,2000.000000,1,COMPLETED_SUCCESSFULLY,960.763597,106.000000,1066.763597,959.766512,1065.766512,10.054401,11,-1.000000,""
154,w0,python3action_linpack_6000,0.000000,1,-1.000000,1,COMPLETED_SUCCESSFULLY,1066.763612,0.000010,1066.763622,1066.763612,1066.763622,106676362.230902,11,-1.000000,""
68_updated,w0,python3action_videoprocessing_SampleVideo_50mb_taurus,0.997085,1,2000.000000,1,COMPLETED_SUCCESSFULLY,913.649432,154.250029,1067.899461,912.652347,1066.902376,6.916708,13,-1.000000,""
68,w0,python3action_videoprocessing_SampleVideo_50mb,0.000000,1,-1.000000,1,COMPLETED_SUCCESSFULLY,1067.899476,0.000010,1067.899486,1067.899476,1067.899486,106789948.600201,13,-1.000000,""
179_updated,w0,python3action_pyaes_4000_nova,0.997085,1,2000.000000,1,COMPLETED_SUCCESSFULLY,953.477253,139.600010,1093.077263,952.480168,1092.080178,7.822923,6,-1.000000,""
179,w0,python3action_pyaes_4000,0.000000,1,-1.000000,1,COMPLETED_SUCCESSFULLY,1093.077278,0.000010,1093.077288,1093.077278,1093.077288,109307728.800201,6,-1.000000,""
python3action_facedetection_job33_6,w0,python3action_facedetection_reduced_0.91,0.997085,1,2000.000000,1,COMPLETED_SUCCESSFULLY,1093.077308,2.614259,1095.691567,1092.080223,1094.694482,418.739953,6,-1.000000,""
188_updated,w0,python3action_chameleon_3000_yeti,0.997085,1,2000.000000,1,COMPLETED_SUCCESSFULLY,1024.895365,93.000000,1117.895365,1023.898280,1116.898280,12.009659,5,-1.000000,""
188,w0,python3action_chameleon_3000,0.000000,1,-1.000000,1,COMPLETED_SUCCESSFULLY,1117.895380,0.000010,1117.895390,1117.895380,1117.895390,111789539.006225,5,-1.000000,""
python3action_pyaes_job15_5,w0,python3action_pyaes_reduced_0.85,0.997085,1,2000.000000,1,COMPLETED_SUCCESSFULLY,1117.895410,0.133904,1118.029314,1116.898325,1117.032229,8342.027049,5,-1.000000,""
82_updated,w0,python3action_videoprocessing_SampleVideo_50mb_taurus,0.997085,1,2000.000000,1,COMPLETED_SUCCESSFULLY,965.899312,154.250029,1120.149341,964.902227,1119.152256,7.255443,2,-1.000000,""
82,w0,python3action_videoprocessing_SampleVideo_50mb,0.000000,1,-1.000000,1,COMPLETED_SUCCESSFULLY,1120.149356,0.000010,1120.149366,1120.149356,1120.149366,112014936.600201,2,-1.000000,""
184_updated,w0,python3action_videoprocessing_SampleVideo_50mb_nova,0.997085,1,2000.000000,1,COMPLETED_SUCCESSFULLY,991.942299,139.600010,1131.542309,990.945214,1130.545224,8.098461,7,-1.000000,""
184,w0,python3action_videoprocessing_SampleVideo_50mb,0.000000,1,-1.000000,1,COMPLETED_SUCCESSFULLY,1131.542324,0.000010,1131.542334,1131.542324,1131.542334,113154233.400201,7,-1.000000,""
194_updated,w0,python3action_videoprocessing_SampleVideo_50mb_nova,0.997085,1,2000.000000,1,COMPLETED_SUCCESSFULLY,994.077332,139.600010,1133.677342,993.080247,1132.680257,8.113755,8,-1.000000,""
194,w0,python3action_videoprocessing_SampleVideo_50mb,0.000000,1,-1.000000,1,COMPLETED_SUCCESSFULLY,1133.677357,0.000010,1133.677367,1133.677357,1133.677367,113367736.700201,8,-1.000000,""
python3action_facedetection_job60_7,w0,python3action_facedetection_reduced_0.91,0.997085,1,2000.000000,1,COMPLETED_SUCCESSFULLY,1131.542354,2.614259,1134.156613,1130.545269,1133.159528,433.453512,7,-1.000000,""
python3action_facedetection_job87_8,w0,python3action_facedetection_reduced_0.91,0.997085,1,2000.000000,1,COMPLETED_SUCCESSFULLY,1133.677387,2.614259,1136.291646,1132.680302,1135.294561,434.270199,8,-1.000000,""
81_updated,w0,python3action_pyaes_4000_troll,0.997085,1,2000.000000,1,COMPLETED_SUCCESSFULLY,1052.037595,102.333333,1154.370929,1051.040510,1153.373844,11.270754,4,-1.000000,""
81,w0,python3action_pyaes_4000,0.000000,1,-1.000000,1,COMPLETED_SUCCESSFULLY,1154.370944,0.000010,1154.370954,1154.370944,1154.370954,115437095.400201,4,-1.000000,""
29_updated,w0,python3action_facedetection_SampleVideo_30mb_nova,0.997085,1,2000.000000,1,COMPLETED_SUCCESSFULLY,994.556753,160.399990,1154.956743,993.559668,1153.959658,7.194263,10,-1.000000,""
29,w0,python3action_facedetection_SampleVideo_30mb,0.000000,1,-1.000000,1,COMPLETED_SUCCESSFULLY,1154.956758,0.000010,1154.956768,1154.956758,1154.956768,115495676.823505,10,-1.000000,""
3_updated,w0,python3action_facedetection_SampleVideo_30mb_nova,0.997085,1,2000.000000,1,COMPLETED_SUCCESSFULLY,996.691666,160.399990,1157.091656,995.694581,1156.094571,7.207573,9,-1.000000,""
3,w0,python3action_facedetection_SampleVideo_30mb,0.000000,1,-1.000000,1,COMPLETED_SUCCESSFULLY,1157.091671,0.000010,1157.091681,1157.091671,1157.091681,115709168.123505,9,-1.000000,""
170_updated,w0,python3action_linpack_6000_orion,0.997085,1,2000.000000,1,COMPLETED_SUCCESSFULLY,1066.763642,106.000000,1172.763642,1065.766557,1171.766557,11.054401,11,-1.000000,""
170,w0,python3action_linpack_6000,0.000000,1,-1.000000,1,COMPLETED_SUCCESSFULLY,1172.763657,0.000010,1172.763667,1172.763657,1172.763667,117276366.731504,11,-1.000000,""
88_updated,w0,python3action_videoprocessing_SampleVideo_50mb_taurus,0.997085,1,2000.000000,1,COMPLETED_SUCCESSFULLY,1061.999434,154.250029,1216.249463,1061.002349,1215.252378,7.878458,12,-1.000000,""
88,w0,python3action_videoprocessing_SampleVideo_50mb,0.000000,1,-1.000000,1,COMPLETED_SUCCESSFULLY,1216.249478,0.000010,1216.249488,1216.249478,1216.249488,121624948.800201,12,-1.000000,""
101_updated,w0,python3action_videoprocessing_SampleVideo_50mb_taurus,0.997085,1,2000.000000,1,COMPLETED_SUCCESSFULLY,1067.899506,154.250029,1222.149535,1066.902421,1221.152450,7.916708,13,-1.000000,""
101,w0,python3action_videoprocessing_SampleVideo_50mb,0.000000,1,-1.000000,1,COMPLETED_SUCCESSFULLY,1222.149550,0.000010,1222.149560,1222.149550,1222.149560,122214956.000201,13,-1.000000,""
15_updated,w0,python3action_pyaes_4000_yeti,0.997085,1,2000.000000,1,COMPLETED_SUCCESSFULLY,1118.029329,105.500010,1223.529339,1117.032244,1222.532254,11.587982,5,-1.000000,""
15,w0,python3action_pyaes_4000,0.000000,1,-1.000000,1,COMPLETED_SUCCESSFULLY,1223.529354,0.000010,1223.529364,1223.529354,1223.529364,122352936.445461,5,-1.000000,""
33_updated,w0,python3action_facedetection_SampleVideo_30mb_nova,0.997085,1,2000.000000,1,COMPLETED_SUCCESSFULLY,1095.691582,160.399990,1256.091572,1094.694497,1255.094487,7.824779,6,-1.000000,""
33,w0,python3action_facedetection_SampleVideo_30mb,0.000000,1,-1.000000,1,COMPLETED_SUCCESSFULLY,1256.091587,0.000010,1256.091597,1256.091587,1256.091597,125609159.723505,6,-1.000000,""
110_updated,w0,python3action_pyaes_4000_troll,0.997085,1,2000.000000,1,COMPLETED_SUCCESSFULLY,1154.370974,102.333333,1256.704307,1153.373889,1255.707222,12.270755,4,-1.000000,""
110,w0,python3action_pyaes_4000,0.000000,1,-1.000000,1,COMPLETED_SUCCESSFULLY,1256.704322,0.000010,1256.704332,1256.704322,1256.704332,125670433.234136,4,-1.000000,""
140_updated,w0,python3action_videoprocessing_SampleVideo_50mb_taurus,0.997085,1,2000.000000,1,COMPLETED_SUCCESSFULLY,1120.149386,154.250029,1274.399415,1119.152301,1273.402330,8.255443,2,-1.000000,""
140,w0,python3action_videoprocessing_SampleVideo_50mb,0.000000,1,-1.000000,1,COMPLETED_SUCCESSFULLY,1274.399430,0.000010,1274.399440,1274.399430,1274.399440,127439944.000201,2,-1.000000,""
178_updated,w0,python3action_linpack_6000_orion,0.997085,1,2000.000000,1,COMPLETED_SUCCESSFULLY,1172.763687,106.000000,1278.763687,1171.766602,1277.766602,12.054402,11,-1.000000,""
178,w0,python3action_linpack_6000,0.000000,1,-1.000000,1,COMPLETED_SUCCESSFULLY,1278.763702,0.000010,1278.763712,1278.763702,1278.763712,127876371.232106,11,-1.000000,""
60_updated,w0,python3action_facedetection_SampleVideo_30mb_nova,0.997085,1,2000.000000,1,COMPLETED_SUCCESSFULLY,1134.156628,160.399990,1294.556618,1133.159543,1293.559533,8.064586,7,-1.000000,""
60,w0,python3action_facedetection_SampleVideo_30mb,0.000000,1,-1.000000,1,COMPLETED_SUCCESSFULLY,1294.556633,0.000010,1294.556643,1294.556633,1294.556643,129455664.323505,7,-1.000000,""
87_updated,w0,python3action_facedetection_SampleVideo_30mb_nova,0.997085,1,2000.000000,1,COMPLETED_SUCCESSFULLY,1136.291661,160.399990,1296.691651,1135.294576,1295.694566,8.077897,8,-1.000000,""
87,w0,python3action_facedetection_SampleVideo_30mb,0.000000,1,-1.000000,1,COMPLETED_SUCCESSFULLY,1296.691666,0.000010,1296.691676,1296.691666,1296.691676,129669167.623505,8,-1.000000,""
151_updated,w0,python3action_facedetection_SampleVideo_30mb_nova,0.997085,1,2000.000000,1,COMPLETED_SUCCESSFULLY,1154.956788,160.399990,1315.356778,1153.959703,1314.359693,8.194263,10,-1.000000,""
151,w0,python3action_facedetection_SampleVideo_30mb,0.000000,1,-1.000000,1,COMPLETED_SUCCESSFULLY,1315.356793,0.000010,1315.356803,1315.356793,1315.356803,131535680.347211,10,-1.000000,""
97_updated,w0,python3action_facedetection_SampleVideo_30mb_nova,0.997085,1,2000.000000,1,COMPLETED_SUCCESSFULLY,1157.091701,160.399990,1317.491691,1156.094616,1316.494606,8.207573,9,-1.000000,""
97,w0,python3action_facedetection_SampleVideo_30mb,0.000000,1,-1.000000,1,COMPLETED_SUCCESSFULLY,1317.491706,0.000010,1317.491716,1317.491706,1317.491716,131749171.647211,9,-1.000000,""
145_updated,w0,python3action_pyaes_4000_yeti,0.997085,1,2000.000000,1,COMPLETED_SUCCESSFULLY,1223.529384,105.500010,1329.029395,1222.532299,1328.032310,12.587983,5,-1.000000,""
145,w0,python3action_pyaes_4000,0.000000,1,-1.000000,1,COMPLETED_SUCCESSFULLY,1329.029410,0.000010,1329.029420,1329.029410,1329.029420,132902942.000201,5,-1.000000,""
187_updated,w0,python3action_pyaes_4000_troll,0.997085,1,2000.000000,1,COMPLETED_SUCCESSFULLY,1256.704352,102.333333,1359.037686,1255.707267,1358.040601,13.270755,4,-1.000000,""
187,w0,python3action_pyaes_4000,0.000000,1,-1.000000,1,COMPLETED_SUCCESSFULLY,1359.037701,0.000010,1359.037711,1359.037701,1359.037711,135903771.100201,4,-1.000000,""
177_updated,w0,python3action_videoprocessing_SampleVideo_50mb_taurus,0.997085,1,2000.000000,1,COMPLETED_SUCCESSFULLY,1216.249508,154.250029,1370.499537,1215.252423,1369.502452,8.878458,12,-1.000000,""
177,w0,python3action_videoprocessing_SampleVideo_50mb,0.000000,1,-1.000000,1,COMPLETED_SUCCESSFULLY,1370.499552,0.000010,1370.499562,1370.499552,1370.499562,137049956.200201,12,-1.000000,""
90_updated,w0,python3action_linpack_6000_taurus,0.997085,1,2000.000000,1,COMPLETED_SUCCESSFULLY,1222.149580,157.600046,1379.749626,1221.152495,1378.752541,8.748427,13,-1.000000,""
90,w0,python3action_linpack_6000,0.000000,1,-1.000000,1,COMPLETED_SUCCESSFULLY,1379.749641,0.000010,1379.749651,1379.749641,1379.749651,137974965.113881,13,-1.000000,""
159_updated,w0,python3action_facedetection_SampleVideo_30mb_nova,0.997085,1,2000.000000,1,COMPLETED_SUCCESSFULLY,1256.091617,160.399990,1416.491607,1255.094532,1415.494522,8.824779,6,-1.000000,""
159,w0,python3action_facedetection_SampleVideo_30mb,0.000000,1,-1.000000,1,COMPLETED_SUCCESSFULLY,1416.491622,0.000010,1416.491632,1416.491622,1416.491632,141649163.247211,6,-1.000000,""
169_updated,w0,python3action_linpack_6000_taurus,0.997085,1,2000.000000,1,COMPLETED_SUCCESSFULLY,1274.399460,157.600046,1431.999506,1273.402375,1431.002421,9.079962,2,-1.000000,""
169,w0,python3action_linpack_6000,0.000000,1,-1.000000,1,COMPLETED_SUCCESSFULLY,1431.999521,0.000010,1431.999531,1431.999521,1431.999531,143199953.113881,2,-1.000000,""
158_updated,w0,python3action_pyaes_4000_yeti,0.997085,1,2000.000000,1,COMPLETED_SUCCESSFULLY,1329.029440,105.500010,1434.529450,1328.032355,1433.532365,13.587983,5,-1.000000,""
158,w0,python3action_pyaes_4000,0.000000,1,-1.000000,1,COMPLETED_SUCCESSFULLY,1434.529465,0.000010,1434.529475,1434.529465,1434.529475,143452947.521982,5,-1.000000,""
173_updated,w0,python3action_facedetection_SampleVideo_30mb_nova,0.997085,1,2000.000000,1,COMPLETED_SUCCESSFULLY,1294.556663,160.399990,1454.956653,1293.559578,1453.959568,9.064586,7,-1.000000,""
173,w0,python3action_facedetection_SampleVideo_30mb,0.000000,1,-1.000000,1,COMPLETED_SUCCESSFULLY,1454.956668,0.000010,1454.956678,1454.956668,1454.956678,145495667.847211,7,-1.000000,""
190_updated,w0,python3action_facedetection_SampleVideo_30mb_nova,0.997085,1,2000.000000,1,COMPLETED_SUCCESSFULLY,1296.691696,160.399990,1457.091686,1295.694611,1456.094601,9.077897,8,-1.000000,""
190,w0,python3action_facedetection_SampleVideo_30mb,0.000000,1,-1.000000,1,COMPLETED_SUCCESSFULLY,1457.091701,0.000010,1457.091711,1457.091701,1457.091711,145709171.147211,8,-1.000000,""
