job_id,workload_name,profile,submission_time,requested_number_of_resources,requested_time,success,final_state,starting_time,execution_time,finish_time,waiting_time,turnaround_time,stretch,allocated_resources,consumed_energy,metadata
python3action_linpack_job1_0,w0,python3action_linpack,0.997085,1,2000.000000,1,COMPLETED_SUCCESSFULLY,1.002321,2.439945,3.442266,0.005236,2.445181,1.002146,2,-1.000000,""
python3action_linpack_job12_1,w0,python3action_linpack,0.997085,1,2000.000000,1,COMPLETED_SUCCESSFULLY,1.002336,2.439945,3.442281,0.005251,2.445196,1.002152,3,-1.000000,""
python3action_linpack_job23_2,w0,python3action_linpack,0.997085,1,2000.000000,1,COMPLETED_SUCCESSFULLY,1.002351,2.439945,3.442296,0.005266,2.445211,1.002158,4,-1.000000,""
python3action_linpack_job36_3,w0,python3action_linpack,0.997085,1,2000.000000,1,COMPLETED_SUCCESSFULLY,1.002366,2.439945,3.442311,0.005281,2.445226,1.002164,5,-1.000000,""
python3action_linpack_job51_4,w0,python3action_linpack,0.997085,1,2000.000000,1,COMPLETED_SUCCESSFULLY,1.002381,2.439945,3.442326,0.005296,2.445241,1.002170,6,-1.000000,""
python3action_linpack_job104_5,w0,python3action_linpack,0.997085,1,2000.000000,1,COMPLETED_SUCCESSFULLY,1.002396,2.439945,3.442341,0.005311,2.445256,1.002177,7,-1.000000,""
python3action_linpack_job132_6,w0,python3action_linpack,0.997085,1,2000.000000,1,COMPLETED_SUCCESSFULLY,1.002411,2.439945,3.442356,0.005326,2.445271,1.002183,8,-1.000000,""
python3action_linpack_job141_7,w0,python3action_linpack,0.997085,1,2000.000000,1,COMPLETED_SUCCESSFULLY,1.002426,2.439945,3.442371,0.005341,2.445286,1.002189,9,-1.000000,""
python3action_linpack_job146_8,w0,python3action_linpack,0.997085,1,2000.000000,1,COMPLETED_SUCCESSFULLY,1.002441,2.439945,3.442386,0.005356,2.445301,1.002195,10,-1.000000,""
python3action_linpack_job148_9,w0,python3action_linpack,0.997085,1,2000.000000,1,COMPLETED_SUCCESSFULLY,1.002456,2.439945,3.442401,0.005371,2.445316,1.002201,11,-1.000000,""
python3action_linpack_job188_10,w0,python3action_linpack,0.997085,1,2000.000000,1,COMPLETED_SUCCESSFULLY,1.002471,2.439945,3.442416,0.005386,2.445331,1.002207,13,-1.000000,""
python3action_linpack_job195_11,w0,python3action_linpack,0.997085,1,2000.000000,1,COMPLETED_SUCCESSFULLY,1.002486,2.439945,3.442431,0.005401,2.445346,1.002213,14,-1.000000,""
python3action_linpack_job197_12,w0,python3action_linpack,0.997085,1,2000.000000,1,COMPLETED_SUCCESSFULLY,1.002501,2.439945,3.442446,0.005416,2.445361,1.002220,15,-1.000000,""
python3action_linpack_job14_22,w0,python3action_linpack,0.997085,1,2000.000000,1,COMPLETED_SUCCESSFULLY,1.002651,5.760927,6.763578,0.005566,5.766493,1.000966,26,-1.000000,""
python3action_linpack_job72_23,w0,python3action_linpack,0.997085,1,2000.000000,1,COMPLETED_SUCCESSFULLY,1.002666,5.760927,6.763593,0.005581,5.766508,1.000969,27,-1.000000,""
python3action_linpack_job100_24,w0,python3action_linpack,0.997085,1,2000.000000,1,COMPLETED_SUCCESSFULLY,1.002681,5.760927,6.763608,0.005596,5.766523,1.000971,28,-1.000000,""
python3action_image_processing_job6_37,w0,python3action_image_processing,0.997085,1,2000.000000,1,COMPLETED_SUCCESSFULLY,1.002876,12.398880,13.401756,0.005791,12.404671,1.000467,44,-1.000000,""
python3action_image_processing_job24_38,w0,python3action_image_processing,0.997085,1,2000.000000,1,COMPLETED_SUCCESSFULLY,1.002891,12.398880,13.401771,0.005806,12.404686,1.000468,46,-1.000000,""
python3action_image_processing_job40_39,w0,python3action_image_processing,0.997085,1,2000.000000,1,COMPLETED_SUCCESSFULLY,1.002906,12.398880,13.401786,0.005821,12.404701,1.000469,47,-1.000000,""
python3action_image_processing_job45_40,w0,python3action_image_processing,0.997085,1,2000.000000,1,COMPLETED_SUCCESSFULLY,1.002921,12.398880,13.401801,0.005836,12.404716,1.000471,48,-1.000000,""
python3action_modeltraining_job11_13,w0,python3action_modeltraining,0.997085,1,2000.000000,1,COMPLETED_SUCCESSFULLY,1.002516,30.499683,31.502198,0.005431,30.505113,1.000178,16,-1.000000,""
python3action_modeltraining_job15_14,w0,python3action_modeltraining,0.997085,1,2000.000000,1,COMPLETED_SUCCESSFULLY,1.002531,30.499683,31.502213,0.005446,30.505128,1.000179,17,-1.000000,""
python3action_modeltraining_job22_15,w0,python3action_modeltraining,0.997085,1,2000.000000,1,COMPLETED_SUCCESSFULLY,1.002546,30.499683,31.502228,0.005461,30.505143,1.000179,18,-1.000000,""
python3action_modeltraining_job37_16,w0,python3action_modeltraining,0.997085,1,2000.000000,1,COMPLETED_SUCCESSFULLY,1.002561,30.499683,31.502243,0.005476,30.505158,1.000180,19,-1.000000,""
python3action_modeltraining_job41_17,w0,python3action_modeltraining,0.997085,1,2000.000000,1,COMPLETED_SUCCESSFULLY,1.002576,30.499683,31.502258,0.005491,30.505173,1.000180,20,-1.000000,""
python3action_modeltraining_job76_18,w0,python3action_modeltraining,0.997085,1,2000.000000,1,COMPLETED_SUCCESSFULLY,1.002591,30.499683,31.502273,0.005506,30.505188,1.000181,21,-1.000000,""
python3action_modeltraining_job81_19,w0,python3action_modeltraining,0.997085,1,2000.000000,1,COMPLETED_SUCCESSFULLY,1.002606,30.499683,31.502288,0.005521,30.505203,1.000181,22,-1.000000,""
python3action_modeltraining_job108_20,w0,python3action_modeltraining,0.997085,1,2000.000000,1,COMPLETED_SUCCESSFULLY,1.002621,30.499683,31.502303,0.005536,30.505218,1.000182,24,-1.000000,""
python3action_modeltraining_job162_21,w0,python3action_modeltraining,0.997085,1,2000.000000,1,COMPLETED_SUCCESSFULLY,1.002636,30.499683,31.502318,0.005551,30.505233,1.000182,25,-1.000000,""
1_updated,w0,python3action_linpack_5000_nova,0.997085,1,2000.000000,1,COMPLETED_SUCCESSFULLY,3.442281,34.600010,38.042291,2.445196,37.045206,1.070670,2,-1.000000,""
1,w0,python3action_linpack_5000,0.000000,1,-1.000000,1,COMPLETED_SUCCESSFULLY,38.042306,0.000010,38.042316,38.042306,38.042316,3804231.600201,2,-1.000000,""
12_updated,w0,python3action_linpack_5000_nova,0.997085,1,2000.000000,1,COMPLETED_SUCCESSFULLY,3.442311,34.600010,38.042321,2.445226,37.045236,1.070671,3,-1.000000,""
23_updated,w0,python3action_linpack_5000_nova,0.997085,1,2000.000000,1,COMPLETED_SUCCESSFULLY,3.442326,34.600010,38.042336,2.445241,37.045251,1.070672,4,-1.000000,""
12,w0,python3action_linpack_5000,0.000000,1,-1.000000,1,COMPLETED_SUCCESSFULLY,38.042351,0.000010,38.042361,38.042351,38.042361,3804236.077763,3,-1.000000,""
36_updated,w0,python3action_linpack_5000_nova,0.997085,1,2000.000000,1,COMPLETED_SUCCESSFULLY,3.442356,34.600010,38.042366,2.445271,37.045281,1.070673,5,-1.000000,""
51_updated,w0,python3action_linpack_5000_nova,0.997085,1,2000.000000,1,COMPLETED_SUCCESSFULLY,3.442371,34.600010,38.042381,2.445286,37.045296,1.070673,6,-1.000000,""
23,w0,python3action_linpack_5000,0.000000,1,-1.000000,1,COMPLETED_SUCCESSFULLY,38.042381,0.000010,38.042391,38.042381,38.042391,3804239.078164,4,-1.000000,""
104_updated,w0,python3action_linpack_5000_nova,0.997085,1,2000.000000,1,COMPLETED_SUCCESSFULLY,3.442386,34.600010,38.042396,2.445301,37.045311,1.070673,7,-1.000000,""
36,w0,python3action_linpack_5000,0.000000,1,-1.000000,1,COMPLETED_SUCCESSFULLY,38.042411,0.000010,38.042421,38.042411,38.042421,3804242.078566,5,-1.000000,""
132_updated,w0,python3action_linpack_5000_nova,0.997085,1,2000.000000,1,COMPLETED_SUCCESSFULLY,3.442416,34.600010,38.042426,2.445331,37.045341,1.070674,8,-1.000000,""
141_updated,w0,python3action_linpack_5000_nova,0.997085,1,2000.000000,1,COMPLETED_SUCCESSFULLY,3.442431,34.600010,38.042441,2.445346,37.045356,1.070675,9,-1.000000,""
51,w0,python3action_linpack_5000,0.000000,1,-1.000000,1,COMPLETED_SUCCESSFULLY,38.042441,0.000010,38.042451,38.042441,38.042451,3804245.078967,6,-1.000000,""
146_updated,w0,python3action_linpack_5000_nova,0.997085,1,2000.000000,1,COMPLETED_SUCCESSFULLY,3.442446,34.600010,38.042456,2.445361,37.045371,1.070675,10,-1.000000,""
148_updated,w0,python3action_linpack_5000_nova,0.997085,1,2000.000000,1,COMPLETED_SUCCESSFULLY,3.442461,34.600010,38.042471,2.445376,37.045386,1.070676,11,-1.000000,""
104,w0,python3action_linpack_5000,0.000000,1,-1.000000,1,COMPLETED_SUCCESSFULLY,38.042471,0.000010,38.042481,38.042471,38.042481,3804248.079369,7,-1.000000,""
188_updated,w0,python3action_linpack_5000_nova,0.997085,1,2000.000000,1,COMPLETED_SUCCESSFULLY,3.442491,34.600010,38.042501,2.445406,37.045416,1.070676,13,-1.000000,""
132,w0,python3action_linpack_5000,0.000000,1,-1.000000,1,COMPLETED_SUCCESSFULLY,38.042501,0.000010,38.042511,38.042501,38.042511,3804251.079771,8,-1.000000,""
195_updated,w0,python3action_linpack_5000_nova,0.997085,1,2000.000000,1,COMPLETED_SUCCESSFULLY,3.442506,34.600010,38.042516,2.445421,37.045431,1.070677,14,-1.000000,""
197_updated,w0,python3action_linpack_5000_nova,0.997085,1,2000.000000,1,COMPLETED_SUCCESSFULLY,3.442521,34.600010,38.042531,2.445436,37.045446,1.070677,15,-1.000000,""
141,w0,python3action_linpack_5000,0.000000,1,-1.000000,1,COMPLETED_SUCCESSFULLY,38.042531,0.000010,38.042541,38.042531,38.042541,3804254.080172,9,-1.000000,""
146,w0,python3action_linpack_5000,0.000000,1,-1.000000,1,COMPLETED_SUCCESSFULLY,38.042561,0.000010,38.042571,38.042561,38.042571,3804257.080574,10,-1.000000,""
148,w0,python3action_linpack_5000,0.000000,1,-1.000000,1,COMPLETED_SUCCESSFULLY,38.042576,0.000010,38.042586,38.042576,38.042586,3804258.580775,11,-1.000000,""
188,w0,python3action_linpack_5000,0.000000,1,-1.000000,1,COMPLETED_SUCCESSFULLY,38.042606,0.000010,38.042616,38.042606,38.042616,3804261.581176,13,-1.000000,""
195,w0,python3action_linpack_5000,0.000000,1,-1.000000,1,COMPLETED_SUCCESSFULLY,38.042636,0.000010,38.042646,38.042636,38.042646,3804264.581578,14,-1.000000,""
197,w0,python3action_linpack_5000,0.000000,1,-1.000000,1,COMPLETED_SUCCESSFULLY,38.042666,0.000010,38.042676,38.042666,38.042676,3804267.600201,15,-1.000000,""
python3action_floatoperation_job25_4,w0,python3action_floatoperation,0.997085,1,2000.000000,1,COMPLETED_SUCCESSFULLY,38.042486,2.439945,40.482431,37.045401,39.485346,16.182882,5,-1.000000,""
python3action_floatoperation_job33_5,w0,python3action_floatoperation,0.997085,1,2000.000000,1,COMPLETED_SUCCESSFULLY,38.042546,2.439945,40.482491,37.045461,39.485406,16.182906,6,-1.000000,""
python3action_floatoperation_job38_6,w0,python3action_floatoperation,0.997085,1,2000.000000,1,COMPLETED_SUCCESSFULLY,38.042591,2.439945,40.482536,37.045506,39.485451,16.182925,7,-1.000000,""
python3action_floatoperation_job39_7,w0,python3action_floatoperation,0.997085,1,2000.000000,1,COMPLETED_SUCCESSFULLY,38.042621,2.439945,40.482566,37.045536,39.485481,16.182937,8,-1.000000,""
python3action_floatoperation_job42_8,w0,python3action_floatoperation,0.997085,1,2000.000000,1,COMPLETED_SUCCESSFULLY,38.042681,2.439945,40.482626,37.045596,39.485541,16.182962,9,-1.000000,""
python3action_floatoperation_job46_9,w0,python3action_floatoperation,0.997085,1,2000.000000,1,COMPLETED_SUCCESSFULLY,38.042696,2.439945,40.482641,37.045611,39.485556,16.182968,10,-1.000000,""
python3action_floatoperation_job52_10,w0,python3action_floatoperation,0.997085,1,2000.000000,1,COMPLETED_SUCCESSFULLY,38.042711,2.439945,40.482656,37.045626,39.485571,16.182974,11,-1.000000,""
python3action_floatoperation_job57_11,w0,python3action_floatoperation,0.997085,1,2000.000000,1,COMPLETED_SUCCESSFULLY,38.042726,2.439945,40.482671,37.045641,39.485586,16.182980,13,-1.000000,""
python3action_floatoperation_job62_12,w0,python3action_floatoperation,0.997085,1,2000.000000,1,COMPLETED_SUCCESSFULLY,38.042741,2.439945,40.482686,37.045656,39.485601,16.182986,14,-1.000000,""
python3action_floatoperation_job68_13,w0,python3action_floatoperation,0.997085,1,2000.000000,1,COMPLETED_SUCCESSFULLY,38.042771,2.439945,40.482716,37.045686,39.485631,16.182999,15,-1.000000,""
python3action_modeltraining_job165_1,w0,python3action_modeltraining,0.997085,1,2000.000000,1,COMPLETED_SUCCESSFULLY,38.042336,30.499683,68.542018,37.045251,67.544933,2.214611,2,-1.000000,""
python3action_modeltraining_job168_2,w0,python3action_modeltraining,0.997085,1,2000.000000,1,COMPLETED_SUCCESSFULLY,38.042396,30.499683,68.542078,37.045311,67.544993,2.214613,3,-1.000000,""
python3action_modeltraining_job182_3,w0,python3action_modeltraining,0.997085,1,2000.000000,1,COMPLETED_SUCCESSFULLY,38.042456,30.499683,68.542138,37.045371,67.545053,2.214615,4,-1.000000,""
python3action_image_processing_job2_25,w0,python3action_image_processing,0.997085,1,2000.000000,1,COMPLETED_SUCCESSFULLY,1.002696,72.012455,73.015151,0.005611,72.018066,1.000078,29,-1.000000,""
python3action_image_processing_job32_26,w0,python3action_image_processing,0.997085,1,2000.000000,1,COMPLETED_SUCCESSFULLY,1.002711,72.012455,73.015166,0.005626,72.018081,1.000078,30,-1.000000,""
python3action_image_processing_job55_27,w0,python3action_image_processing,0.997085,1,2000.000000,1,COMPLETED_SUCCESSFULLY,1.002726,72.012455,73.015181,0.005641,72.018096,1.000078,31,-1.000000,""
python3action_image_processing_job78_28,w0,python3action_image_processing,0.997085,1,2000.000000,1,COMPLETED_SUCCESSFULLY,1.002741,72.012455,73.015196,0.005656,72.018111,1.000079,32,-1.000000,""
python3action_image_processing_job97_29,w0,python3action_image_processing,0.997085,1,2000.000000,1,COMPLETED_SUCCESSFULLY,1.002756,72.012455,73.015211,0.005671,72.018126,1.000079,33,-1.000000,""
python3action_image_processing_job99_30,w0,python3action_image_processing,0.997085,1,2000.000000,1,COMPLETED_SUCCESSFULLY,1.002771,72.012455,73.015226,0.005686,72.018141,1.000079,35,-1.000000,""
python3action_image_processing_job103_31,w0,python3action_image_processing,0.997085,1,2000.000000,1,COMPLETED_SUCCESSFULLY,1.002786,72.012455,73.015241,0.005701,72.018156,1.000079,36,-1.000000,""
python3action_image_processing_job129_32,w0,python3action_image_processing,0.997085,1,2000.000000,1,COMPLETED_SUCCESSFULLY,1.002801,72.012455,73.015256,0.005716,72.018171,1.000079,37,-1.000000,""
python3action_image_processing_job139_33,w0,python3action_image_processing,0.997085,1,2000.000000,1,COMPLETED_SUCCESSFULLY,1.002816,72.012455,73.015271,0.005731,72.018186,1.000080,38,-1.000000,""
python3action_image_processing_job170_34,w0,python3action_image_processing,0.997085,1,2000.000000,1,COMPLETED_SUCCESSFULLY,1.002831,72.012455,73.015286,0.005746,72.018201,1.000080,39,-1.000000,""
python3action_image_processing_job172_35,w0,python3action_image_processing,0.997085,1,2000.000000,1,COMPLETED_SUCCESSFULLY,1.002846,72.012455,73.015301,0.005761,72.018216,1.000080,40,-1.000000,""
python3action_image_processing_job187_36,w0,python3action_image_processing,0.997085,1,2000.000000,1,COMPLETED_SUCCESSFULLY,1.002861,72.012455,73.015316,0.005776,72.018231,1.000080,41,-1.000000,""
11_updated,w0,python3action_modeltraining_reviews50mb_nova,0.997085,1,2000.000000,1,COMPLETED_SUCCESSFULLY,31.502213,42.399990,73.902203,30.505128,72.905118,1.719461,16,-1.000000,""
11,w0,python3action_modeltraining_reviews50mb,0.000000,1,-1.000000,1,COMPLETED_SUCCESSFULLY,73.902218,0.000010,73.902228,73.902218,73.902228,7390222.847063,16,-1.000000,""
15_updated,w0,python3action_modeltraining_reviews50mb_nova,0.997085,1,2000.000000,1,COMPLETED_SUCCESSFULLY,31.502243,42.399990,73.902233,30.505158,72.905148,1.719461,17,-1.000000,""
22_updated,w0,python3action_modeltraining_reviews50mb_nova,0.997085,1,2000.000000,1,COMPLETED_SUCCESSFULLY,31.502258,42.399990,73.902248,30.505173,72.905163,1.719462,18,-1.000000,""
15,w0,python3action_modeltraining_reviews50mb,0.000000,1,-1.000000,1,COMPLETED_SUCCESSFULLY,73.902263,0.000010,73.902273,73.902263,73.902273,7390227.347665,17,-1.000000,""
37_updated,w0,python3action_modeltraining_reviews50mb_nova,0.997085,1,2000.000000,1,COMPLETED_SUCCESSFULLY,31.502288,42.399990,73.902278,30.505203,72.905193,1.719463,19,-1.000000,""
41_updated,w0,python3action_modeltraining_reviews50mb_nova,0.997085,1,2000.000000,1,COMPLETED_SUCCESSFULLY,31.502303,42.399990,73.902293,30.505218,72.905208,1.719463,20,-1.000000,""
22,w0,python3action_modeltraining_reviews50mb,0.000000,1,-1.000000,1,COMPLETED_SUCCESSFULLY,73.902293,0.000010,73.902303,73.902293,73.902303,7390230.348067,18,-1.000000,""
76_updated,w0,python3action_modeltraining_reviews50mb_nova,0.997085,1,2000.000000,1,COMPLETED_SUCCESSFULLY,31.502318,42.399990,73.902308,30.505233,72.905223,1.719463,21,-1.000000,""
37,w0,python3action_modeltraining_reviews50mb,0.000000,1,-1.000000,1,COMPLETED_SUCCESSFULLY,73.902323,0.000010,73.902333,73.902323,73.902333,7390233.348469,19,-1.000000,""
81_updated,w0,python3action_modeltraining_reviews50mb_nova,0.997085,1,2000.000000,1,COMPLETED_SUCCESSFULLY,31.502348,42.399990,73.902338,30.505263,72.905253,1.719464,22,-1.000000,""
108_updated,w0,python3action_modeltraining_reviews50mb_nova,0.997085,1,2000.000000,1,COMPLETED_SUCCESSFULLY,31.502363,42.399990,73.902353,30.505278,72.905268,1.719464,24,-1.000000,""
41,w0,python3action_modeltraining_reviews50mb,0.000000,1,-1.000000,1,COMPLETED_SUCCESSFULLY,73.902353,0.000010,73.902363,73.902353,73.902363,7390236.348870,20,-1.000000,""
162_updated,w0,python3action_modeltraining_reviews50mb_nova,0.997085,1,2000.000000,1,COMPLETED_SUCCESSFULLY,31.502378,42.399990,73.902368,30.505293,72.905283,1.719465,25,-1.000000,""
76,w0,python3action_modeltraining_reviews50mb,0.000000,1,-1.000000,1,COMPLETED_SUCCESSFULLY,73.902383,0.000010,73.902393,73.902383,73.902393,7390239.349272,21,-1.000000,""
81,w0,python3action_modeltraining_reviews50mb,0.000000,1,-1.000000,1,COMPLETED_SUCCESSFULLY,73.902413,0.000010,73.902423,73.902413,73.902423,7390242.349673,22,-1.000000,""
108,w0,python3action_modeltraining_reviews50mb,0.000000,1,-1.000000,1,COMPLETED_SUCCESSFULLY,73.902444,0.000010,73.902454,73.902444,73.902454,7390245.350075,24,-1.000000,""
162,w0,python3action_modeltraining_reviews50mb,0.000000,1,-1.000000,1,COMPLETED_SUCCESSFULLY,73.902474,0.000010,73.902484,73.902474,73.902484,7390248.350477,25,-1.000000,""
6_updated,w0,python3action_imageprocessing_SampleImage_60mb_troll,0.997085,1,2000.000000,1,COMPLETED_SUCCESSFULLY,13.401771,62.000000,75.401771,12.404686,74.404686,1.200076,44,-1.000000,""
6,w0,python3action_imageprocessing_SampleImage_60mb,0.000000,1,-1.000000,1,COMPLETED_SUCCESSFULLY,75.401786,0.000010,75.401796,75.401786,75.401796,7540179.600201,44,-1.000000,""
24_updated,w0,python3action_imageprocessing_SampleImage_60mb_troll,0.997085,1,2000.000000,1,COMPLETED_SUCCESSFULLY,13.401801,62.000000,75.401801,12.404716,74.404716,1.200076,46,-1.000000,""
40_updated,w0,python3action_imageprocessing_SampleImage_60mb_troll,0.997085,1,2000.000000,1,COMPLETED_SUCCESSFULLY,13.401816,62.000000,75.401816,12.404731,74.404731,1.200076,47,-1.000000,""
24,w0,python3action_imageprocessing_SampleImage_60mb,0.000000,1,-1.000000,1,COMPLETED_SUCCESSFULLY,75.401831,0.000010,75.401841,75.401831,75.401841,7540184.087494,46,-1.000000,""
45_updated,w0,python3action_imageprocessing_SampleImage_60mb_troll,0.997085,1,2000.000000,1,COMPLETED_SUCCESSFULLY,13.401846,62.000000,75.401846,12.404761,74.404761,1.200077,48,-1.000000,""
40,w0,python3action_imageprocessing_SampleImage_60mb,0.000000,1,-1.000000,1,COMPLETED_SUCCESSFULLY,75.401861,0.000010,75.401871,75.401861,75.401871,7540187.100201,47,-1.000000,""
45,w0,python3action_imageprocessing_SampleImage_60mb,0.000000,1,-1.000000,1,COMPLETED_SUCCESSFULLY,75.401906,0.000010,75.401916,75.401906,75.401916,7540191.600803,48,-1.000000,""
python3action_pyaes_job30_22,w0,python3action_pyaes,0.997085,1,2000.000000,1,COMPLETED_SUCCESSFULLY,73.902549,2.134958,76.037507,72.905464,75.040422,35.148426,25,-1.000000,""
python3action_floatoperation_job94_14,w0,python3action_floatoperation,0.997085,1,2000.000000,1,COMPLETED_SUCCESSFULLY,73.902248,2.439945,76.342194,72.905163,75.345109,30.879835,16,-1.000000,""
python3action_floatoperation_job112_15,w0,python3action_floatoperation,0.997085,1,2000.000000,1,COMPLETED_SUCCESSFULLY,73.902308,2.439945,76.342254,72.905223,75.345169,30.879860,17,-1.000000,""
python3action_floatoperation_job119_16,w0,python3action_floatoperation,0.997085,1,2000.000000,1,COMPLETED_SUCCESSFULLY,73.902368,2.439945,76.342314,72.905283,75.345229,30.879884,18,-1.000000,""
python3action_floatoperation_job127_17,w0,python3action_floatoperation,0.997085,1,2000.000000,1,COMPLETED_SUCCESSFULLY,73.902398,2.439945,76.342344,72.905313,75.345259,30.879897,19,-1.000000,""
python3action_floatoperation_job140_18,w0,python3action_floatoperation,0.997085,1,2000.000000,1,COMPLETED_SUCCESSFULLY,73.902459,2.439945,76.342404,72.905374,75.345319,30.879921,20,-1.000000,""
python3action_floatoperation_job152_19,w0,python3action_floatoperation,0.997085,1,2000.000000,1,COMPLETED_SUCCESSFULLY,73.902489,2.439945,76.342434,72.905404,75.345349,30.879934,21,-1.000000,""
python3action_floatoperation_job192_20,w0,python3action_floatoperation,0.997085,1,2000.000000,1,COMPLETED_SUCCESSFULLY,73.902504,2.439945,76.342449,72.905419,75.345364,30.879940,22,-1.000000,""
python3action_floatoperation_job198_21,w0,python3action_floatoperation,0.997085,1,2000.000000,1,COMPLETED_SUCCESSFULLY,73.902534,2.439945,76.342479,72.905449,75.345394,30.879952,24,-1.000000,""
2_updated,w0,python3action_imageprocessing_SampleImage_40mb_taurus,0.997085,1,2000.000000,1,COMPLETED_SUCCESSFULLY,73.015166,32.600046,105.615212,72.018081,104.618127,3.209140,29,-1.000000,""
2,w0,python3action_imageprocessing_SampleImage_40mb,0.000000,1,-1.000000,1,COMPLETED_SUCCESSFULLY,105.615227,0.000010,105.615237,105.615227,105.615237,10561523.719661,29,-1.000000,""
32_updated,w0,python3action_imageprocessing_SampleImage_40mb_taurus,0.997085,1,2000.000000,1,COMPLETED_SUCCESSFULLY,73.015196,32.600046,105.615242,72.018111,104.618157,3.209141,30,-1.000000,""
55_updated,w0,python3action_imageprocessing_SampleImage_40mb_taurus,0.997085,1,2000.000000,1,COMPLETED_SUCCESSFULLY,73.015211,32.600046,105.615257,72.018126,104.618172,3.209142,31,-1.000000,""
32,w0,python3action_imageprocessing_SampleImage_40mb,0.000000,1,-1.000000,1,COMPLETED_SUCCESSFULLY,105.615272,0.000010,105.615282,105.615272,105.615282,10561528.220263,30,-1.000000,""
78_updated,w0,python3action_imageprocessing_SampleImage_40mb_taurus,0.997085,1,2000.000000,1,COMPLETED_SUCCESSFULLY,73.015241,32.600046,105.615287,72.018156,104.618202,3.209143,32,-1.000000,""
97_updated,w0,python3action_imageprocessing_SampleImage_40mb_taurus,0.997085,1,2000.000000,1,COMPLETED_SUCCESSFULLY,73.015256,32.600046,105.615302,72.018171,104.618217,3.209143,33,-1.000000,""
55,w0,python3action_imageprocessing_SampleImage_40mb,0.000000,1,-1.000000,1,COMPLETED_SUCCESSFULLY,105.615302,0.000010,105.615312,105.615302,105.615312,10561531.220665,31,-1.000000,""
99_updated,w0,python3action_imageprocessing_SampleImage_40mb_taurus,0.997085,1,2000.000000,1,COMPLETED_SUCCESSFULLY,73.015271,32.600046,105.615317,72.018186,104.618232,3.209144,35,-1.000000,""
78,w0,python3action_imageprocessing_SampleImage_40mb,0.000000,1,-1.000000,1,COMPLETED_SUCCESSFULLY,105.615332,0.000010,105.615342,105.615332,105.615342,10561534.221066,32,-1.000000,""
103_updated,w0,python3action_imageprocessing_SampleImage_40mb_taurus,0.997085,1,2000.000000,1,COMPLETED_SUCCESSFULLY,73.015301,32.600046,105.615347,72.018216,104.618262,3.209145,36,-1.000000,""
129_updated,w0,python3action_imageprocessing_SampleImage_40mb_taurus,0.997085,1,2000.000000,1,COMPLETED_SUCCESSFULLY,73.015316,32.600046,105.615362,72.018231,104.618277,3.209145,37,-1.000000,""
97,w0,python3action_imageprocessing_SampleImage_40mb,0.000000,1,-1.000000,1,COMPLETED_SUCCESSFULLY,105.615362,0.000010,105.615372,105.615362,105.615372,10561537.221468,33,-1.000000,""
139_updated,w0,python3action_imageprocessing_SampleImage_40mb_taurus,0.997085,1,2000.000000,1,COMPLETED_SUCCESSFULLY,73.015331,32.600046,105.615377,72.018246,104.618292,3.209146,38,-1.000000,""
170_updated,w0,python3action_imageprocessing_SampleImage_40mb_taurus,0.997085,1,2000.000000,1,COMPLETED_SUCCESSFULLY,73.015346,32.600046,105.615392,72.018261,104.618307,3.209146,39,-1.000000,""
99,w0,python3action_imageprocessing_SampleImage_40mb,0.000000,1,-1.000000,1,COMPLETED_SUCCESSFULLY,105.615392,0.000010,105.615402,105.615392,105.615402,10561540.221870,35,-1.000000,""
172_updated,w0,python3action_imageprocessing_SampleImage_40mb_taurus,0.997085,1,2000.000000,1,COMPLETED_SUCCESSFULLY,73.015376,32.600046,105.615422,72.018291,104.618337,3.209147,40,-1.000000,""
103,w0,python3action_imageprocessing_SampleImage_40mb,0.000000,1,-1.000000,1,COMPLETED_SUCCESSFULLY,105.615422,0.000010,105.615432,105.615422,105.615432,10561543.222271,36,-1.000000,""
187_updated,w0,python3action_imageprocessing_SampleImage_40mb_taurus,0.997085,1,2000.000000,1,COMPLETED_SUCCESSFULLY,73.015391,32.600046,105.615437,72.018306,104.618352,3.209147,41,-1.000000,""
129,w0,python3action_imageprocessing_SampleImage_40mb,0.000000,1,-1.000000,1,COMPLETED_SUCCESSFULLY,105.615452,0.000010,105.615462,105.615452,105.615462,10561546.222673,37,-1.000000,""
139,w0,python3action_imageprocessing_SampleImage_40mb,0.000000,1,-1.000000,1,COMPLETED_SUCCESSFULLY,105.615482,0.000010,105.615492,105.615482,105.615492,10561549.223074,38,-1.000000,""
170,w0,python3action_imageprocessing_SampleImage_40mb,0.000000,1,-1.000000,1,COMPLETED_SUCCESSFULLY,105.615497,0.000010,105.615507,105.615497,105.615507,10561550.723275,39,-1.000000,""
172,w0,python3action_imageprocessing_SampleImage_40mb,0.000000,1,-1.000000,1,COMPLETED_SUCCESSFULLY,105.615527,0.000010,105.615537,105.615527,105.615537,10561553.723677,40,-1.000000,""
187,w0,python3action_imageprocessing_SampleImage_40mb,0.000000,1,-1.000000,1,COMPLETED_SUCCESSFULLY,105.615557,0.000010,105.615567,105.615557,105.615567,10561556.724078,41,-1.000000,""
25_updated,w0,python3action_floatoperation_100000000_nova,0.997085,1,2000.000000,1,COMPLETED_SUCCESSFULLY,40.482446,66.200020,106.682466,39.485361,105.685381,1.596455,5,-1.000000,""
25,w0,python3action_floatoperation_100000000,0.000000,1,-1.000000,1,COMPLETED_SUCCESSFULLY,106.682481,0.000010,106.682491,106.682481,106.682491,10668249.100201,5,-1.000000,""
33_updated,w0,python3action_floatoperation_100000000_nova,0.997085,1,2000.000000,1,COMPLETED_SUCCESSFULLY,40.482506,66.200020,106.682526,39.485421,105.685441,1.596456,6,-1.000000,""
33,w0,python3action_floatoperation_100000000,0.000000,1,-1.000000,1,COMPLETED_SUCCESSFULLY,106.682541,0.000010,106.682551,106.682541,106.682551,10668255.100201,6,-1.000000,""
38_updated,w0,python3action_floatoperation_100000000_nova,0.997085,1,2000.000000,1,COMPLETED_SUCCESSFULLY,40.482551,66.200020,106.682571,39.485466,105.685486,1.596457,7,-1.000000,""
39_updated,w0,python3action_floatoperation_100000000_nova,0.997085,1,2000.000000,1,COMPLETED_SUCCESSFULLY,40.482581,66.200020,106.682601,39.485496,105.685516,1.596457,8,-1.000000,""
38,w0,python3action_floatoperation_100000000,0.000000,1,-1.000000,1,COMPLETED_SUCCESSFULLY,106.682601,0.000010,106.682611,106.682601,106.682611,10668261.064952,7,-1.000000,""
39,w0,python3action_floatoperation_100000000,0.000000,1,-1.000000,1,COMPLETED_SUCCESSFULLY,106.682631,0.000010,106.682641,106.682631,106.682641,10668264.100201,8,-1.000000,""
42_updated,w0,python3action_floatoperation_100000000_nova,0.997085,1,2000.000000,1,COMPLETED_SUCCESSFULLY,40.482641,66.200020,106.682661,39.485556,105.685576,1.596458,9,-1.000000,""
46_updated,w0,python3action_floatoperation_100000000_nova,0.997085,1,2000.000000,1,COMPLETED_SUCCESSFULLY,40.482671,66.200020,106.682691,39.485586,105.685606,1.596459,10,-1.000000,""
42,w0,python3action_floatoperation_100000000,0.000000,1,-1.000000,1,COMPLETED_SUCCESSFULLY,106.682691,0.000010,106.682701,106.682691,106.682701,10668270.084378,9,-1.000000,""
52_updated,w0,python3action_floatoperation_100000000_nova,0.997085,1,2000.000000,1,COMPLETED_SUCCESSFULLY,40.482701,66.200020,106.682721,39.485616,105.685636,1.596459,11,-1.000000,""
46,w0,python3action_floatoperation_100000000,0.000000,1,-1.000000,1,COMPLETED_SUCCESSFULLY,106.682721,0.000010,106.682731,106.682721,106.682731,10668273.084779,10,-1.000000,""
57_updated,w0,python3action_floatoperation_100000000_nova,0.997085,1,2000.000000,1,COMPLETED_SUCCESSFULLY,40.482716,66.200020,106.682736,39.485631,105.685651,1.596460,13,-1.000000,""
62_updated,w0,python3action_floatoperation_100000000_nova,0.997085,1,2000.000000,1,COMPLETED_SUCCESSFULLY,40.482746,66.200020,106.682766,39.485661,105.685681,1.596460,14,-1.000000,""
52,w0,python3action_floatoperation_100000000,0.000000,1,-1.000000,1,COMPLETED_SUCCESSFULLY,106.682766,0.000010,106.682776,106.682766,106.682776,10668277.585382,11,-1.000000,""
68_updated,w0,python3action_floatoperation_100000000_nova,0.997085,1,2000.000000,1,COMPLETED_SUCCESSFULLY,40.482761,66.200020,106.682781,39.485676,105.685696,1.596460,15,-1.000000,""
57,w0,python3action_floatoperation_100000000,0.000000,1,-1.000000,1,COMPLETED_SUCCESSFULLY,106.682796,0.000010,106.682806,106.682796,106.682806,10668280.585784,13,-1.000000,""
62,w0,python3action_floatoperation_100000000,0.000000,1,-1.000000,1,COMPLETED_SUCCESSFULLY,106.682826,0.000010,106.682836,106.682826,106.682836,10668283.600201,14,-1.000000,""
68,w0,python3action_floatoperation_100000000,0.000000,1,-1.000000,1,COMPLETED_SUCCESSFULLY,106.682856,0.000010,106.682866,106.682856,106.682866,10668286.600602,15,-1.000000,""
python3action_pyaes_job105_4,w0,python3action_pyaes_reduced_0.85,0.997085,1,2000.000000,1,COMPLETED_SUCCESSFULLY,106.682511,0.320244,107.002755,105.685426,106.005670,331.015592,5,-1.000000,""
python3action_pyaes_job110_5,w0,python3action_pyaes_reduced_0.85,0.997085,1,2000.000000,1,COMPLETED_SUCCESSFULLY,106.682571,0.320244,107.002814,105.685486,106.005729,331.015778,6,-1.000000,""
python3action_pyaes_job123_6,w0,python3action_pyaes_reduced_0.85,0.997085,1,2000.000000,1,COMPLETED_SUCCESSFULLY,106.682646,0.320244,107.002890,105.685561,106.005805,331.016014,7,-1.000000,""
python3action_pyaes_job142_7,w0,python3action_pyaes_reduced_0.85,0.997085,1,2000.000000,1,COMPLETED_SUCCESSFULLY,106.682676,0.320244,107.002920,105.685591,106.005835,331.016107,8,-1.000000,""
python3action_chameleon_job4_26,w0,python3action_chameleon,0.997085,1,2000.000000,1,COMPLETED_SUCCESSFULLY,105.615257,5.040826,110.656083,104.618172,109.658998,21.754174,29,-1.000000,""
python3action_chameleon_job7_27,w0,python3action_chameleon,0.997085,1,2000.000000,1,COMPLETED_SUCCESSFULLY,105.615317,5.040826,110.656143,104.618232,109.659058,21.754185,30,-1.000000,""
python3action_chameleon_job9_28,w0,python3action_chameleon,0.997085,1,2000.000000,1,COMPLETED_SUCCESSFULLY,105.615377,5.040826,110.656203,104.618292,109.659118,21.754197,31,-1.000000,""
python3action_chameleon_job19_29,w0,python3action_chameleon,0.997085,1,2000.000000,1,COMPLETED_SUCCESSFULLY,105.615407,5.040826,110.656233,104.618322,109.659148,21.754203,32,-1.000000,""
python3action_chameleon_job20_30,w0,python3action_chameleon,0.997085,1,2000.000000,1,COMPLETED_SUCCESSFULLY,105.615467,5.040826,110.656293,104.618382,109.659208,21.754215,33,-1.000000,""
python3action_chameleon_job29_31,w0,python3action_chameleon,0.997085,1,2000.000000,1,COMPLETED_SUCCESSFULLY,105.615512,5.040826,110.656338,104.618427,109.659253,21.754224,35,-1.000000,""
python3action_chameleon_job43_32,w0,python3action_chameleon,0.997085,1,2000.000000,1,COMPLETED_SUCCESSFULLY,105.615542,5.040826,110.656368,104.618457,109.659283,21.754230,36,-1.000000,""
python3action_chameleon_job44_33,w0,python3action_chameleon,0.997085,1,2000.000000,1,COMPLETED_SUCCESSFULLY,105.615587,5.040826,110.656413,104.618502,109.659328,21.754239,37,-1.000000,""
python3action_chameleon_job75_34,w0,python3action_chameleon,0.997085,1,2000.000000,1,COMPLETED_SUCCESSFULLY,105.615602,5.040826,110.656428,104.618517,109.659343,21.754242,38,-1.000000,""
python3action_chameleon_job79_35,w0,python3action_chameleon,0.997085,1,2000.000000,1,COMPLETED_SUCCESSFULLY,105.615617,5.040826,110.656443,104.618532,109.659358,21.754245,39,-1.000000,""
python3action_chameleon_job80_36,w0,python3action_chameleon,0.997085,1,2000.000000,1,COMPLETED_SUCCESSFULLY,105.615632,5.040826,110.656458,104.618547,109.659373,21.754248,40,-1.000000,""
python3action_chameleon_job84_37,w0,python3action_chameleon,0.997085,1,2000.000000,1,COMPLETED_SUCCESSFULLY,105.615647,5.040826,110.656473,104.618562,109.659388,21.754251,41,-1.000000,""
165_updated,w0,python3action_modeltraining_reviews50mb_nova,0.997085,1,2000.000000,1,COMPLETED_SUCCESSFULLY,68.542033,42.399990,110.942024,67.544948,109.944939,2.593042,2,-1.000000,""
165,w0,python3action_modeltraining_reviews50mb,0.000000,1,-1.000000,1,COMPLETED_SUCCESSFULLY,110.942039,0.000010,110.942049,110.942039,110.942049,11094204.900201,2,-1.000000,""
168_updated,w0,python3action_modeltraining_reviews50mb_nova,0.997085,1,2000.000000,1,COMPLETED_SUCCESSFULLY,68.542093,42.399990,110.942084,67.545008,109.944999,2.593043,3,-1.000000,""
168,w0,python3action_modeltraining_reviews50mb,0.000000,1,-1.000000,1,COMPLETED_SUCCESSFULLY,110.942099,0.000010,110.942109,110.942099,110.942109,11094210.900201,3,-1.000000,""
182_updated,w0,python3action_modeltraining_reviews50mb_nova,0.997085,1,2000.000000,1,COMPLETED_SUCCESSFULLY,68.542153,42.399990,110.942144,67.545068,109.945059,2.593044,4,-1.000000,""
182,w0,python3action_modeltraining_reviews50mb,0.000000,1,-1.000000,1,COMPLETED_SUCCESSFULLY,110.942159,0.000010,110.942169,110.942159,110.942169,11094216.900201,4,-1.000000,""
python3action_pyaes_job34_1,w0,python3action_pyaes_reduced_0.85,0.997085,1,2000.000000,1,COMPLETED_SUCCESSFULLY,110.942069,0.320244,111.262313,109.944984,110.265228,344.316580,2,-1.000000,""
python3action_pyaes_job53_2,w0,python3action_pyaes_reduced_0.85,0.997085,1,2000.000000,1,COMPLETED_SUCCESSFULLY,110.942129,0.320244,111.262373,109.945044,110.265288,344.316767,3,-1.000000,""
python3action_pyaes_job70_3,w0,python3action_pyaes_reduced_0.85,0.997085,1,2000.000000,1,COMPLETED_SUCCESSFULLY,110.942189,0.320244,111.262433,109.945104,110.265348,344.316954,4,-1.000000,""
14_updated,w0,python3action_linpack_6000_orion,0.997085,1,2000.000000,1,COMPLETED_SUCCESSFULLY,6.763593,106.000000,112.763593,5.766508,111.766508,1.054401,26,-1.000000,""
14,w0,python3action_linpack_6000,0.000000,1,-1.000000,1,COMPLETED_SUCCESSFULLY,112.763608,0.000010,112.763618,112.763608,112.763618,11276361.800201,26,-1.000000,""
72_updated,w0,python3action_linpack_6000_orion,0.997085,1,2000.000000,1,COMPLETED_SUCCESSFULLY,6.763623,106.000000,112.763623,5.766538,111.766538,1.054401,27,-1.000000,""
100_updated,w0,python3action_linpack_6000_orion,0.997085,1,2000.000000,1,COMPLETED_SUCCESSFULLY,6.763638,106.000000,112.763638,5.766553,111.766553,1.054401,28,-1.000000,""
72,w0,python3action_linpack_6000,0.000000,1,-1.000000,1,COMPLETED_SUCCESSFULLY,112.763653,0.000010,112.763663,112.763653,112.763663,11276366.300803,27,-1.000000,""
100,w0,python3action_linpack_6000,0.000000,1,-1.000000,1,COMPLETED_SUCCESSFULLY,112.763683,0.000010,112.763693,112.763683,112.763693,11276369.301205,28,-1.000000,""
python3action_modeltraining_job8_8,w0,python3action_modeltraining,0.997085,1,2000.000000,1,COMPLETED_SUCCESSFULLY,106.682736,30.499683,137.182418,105.685651,136.185333,4.465139,9,-1.000000,""
python3action_modeltraining_job60_9,w0,python3action_modeltraining,0.997085,1,2000.000000,1,COMPLETED_SUCCESSFULLY,106.682781,30.499683,137.182463,105.685696,136.185378,4.465141,10,-1.000000,""
python3action_modeltraining_job126_10,w0,python3action_modeltraining,0.997085,1,2000.000000,1,COMPLETED_SUCCESSFULLY,106.682841,30.499683,137.182524,105.685756,136.185439,4.465143,11,-1.000000,""
python3action_modeltraining_job155_11,w0,python3action_modeltraining,0.997085,1,2000.000000,1,COMPLETED_SUCCESSFULLY,106.682871,30.499683,137.182554,105.685786,136.185469,4.465144,13,-1.000000,""
python3action_modeltraining_job163_12,w0,python3action_modeltraining,0.997085,1,2000.000000,1,COMPLETED_SUCCESSFULLY,106.682901,30.499683,137.182584,105.685816,136.185499,4.465145,14,-1.000000,""
python3action_modeltraining_job169_13,w0,python3action_modeltraining,0.997085,1,2000.000000,1,COMPLETED_SUCCESSFULLY,106.682916,30.499683,137.182599,105.685831,136.185514,4.465145,15,-1.000000,""
59_updated,w0,python3action_imageprocessing_SampleImage_60mb_troll,0.997085,1,2000.000000,1,COMPLETED_SUCCESSFULLY,75.401816,62.000000,137.401816,74.404731,136.404731,2.200076,44,-1.000000,""
59,w0,python3action_imageprocessing_SampleImage_60mb,0.000000,1,-1.000000,1,COMPLETED_SUCCESSFULLY,137.401831,0.000010,137.401841,137.401831,137.401841,13740184.100201,44,-1.000000,""
66_updated,w0,python3action_imageprocessing_SampleImage_60mb_troll,0.997085,1,2000.000000,1,COMPLETED_SUCCESSFULLY,75.401876,62.000000,137.401876,74.404791,136.404791,2.200077,46,-1.000000,""
66,w0,python3action_imageprocessing_SampleImage_60mb,0.000000,1,-1.000000,1,COMPLETED_SUCCESSFULLY,137.401891,0.000010,137.401901,137.401891,137.401901,13740190.100803,46,-1.000000,""
87_updated,w0,python3action_imageprocessing_SampleImage_60mb_troll,0.997085,1,2000.000000,1,COMPLETED_SUCCESSFULLY,75.401921,62.000000,137.401921,74.404836,136.404836,2.200078,47,-1.000000,""
157_updated,w0,python3action_imageprocessing_SampleImage_60mb_troll,0.997085,1,2000.000000,1,COMPLETED_SUCCESSFULLY,75.401951,62.000000,137.401951,74.404866,136.404866,2.200078,48,-1.000000,""
87,w0,python3action_imageprocessing_SampleImage_60mb,0.000000,1,-1.000000,1,COMPLETED_SUCCESSFULLY,137.401951,0.000010,137.401961,137.401951,137.401961,13740196.101607,47,-1.000000,""
157,w0,python3action_imageprocessing_SampleImage_60mb,0.000000,1,-1.000000,1,COMPLETED_SUCCESSFULLY,137.401981,0.000010,137.401991,137.401981,137.401991,13740199.102008,48,-1.000000,""
python3action_chameleon_job0_40,w0,python3action_chameleon,0.997085,1,2000.000000,1,COMPLETED_SUCCESSFULLY,137.401996,0.867914,138.269910,136.404911,137.272825,158.164148,47,-1.000000,""
python3action_chameleon_job3_41,w0,python3action_chameleon,0.997085,1,2000.000000,1,COMPLETED_SUCCESSFULLY,137.402026,0.867914,138.269940,136.404941,137.272855,158.164182,48,-1.000000,""
94_updated,w0,python3action_floatoperation_100000000_nova,0.997085,1,2000.000000,1,COMPLETED_SUCCESSFULLY,76.342209,66.200020,142.542229,75.345124,141.545144,2.138144,16,-1.000000,""
94,w0,python3action_floatoperation_100000000,0.000000,1,-1.000000,1,COMPLETED_SUCCESSFULLY,142.542244,0.000010,142.542254,142.542244,142.542254,14254225.400201,16,-1.000000,""
112_updated,w0,python3action_floatoperation_100000000_nova,0.997085,1,2000.000000,1,COMPLETED_SUCCESSFULLY,76.342269,66.200020,142.542289,75.345184,141.545204,2.138144,17,-1.000000,""
112,w0,python3action_floatoperation_100000000,0.000000,1,-1.000000,1,COMPLETED_SUCCESSFULLY,142.542304,0.000010,142.542314,142.542304,142.542314,14254231.400201,17,-1.000000,""
119_updated,w0,python3action_floatoperation_100000000_nova,0.997085,1,2000.000000,1,COMPLETED_SUCCESSFULLY,76.342329,66.200020,142.542349,75.345244,141.545264,2.138145,18,-1.000000,""
119,w0,python3action_floatoperation_100000000,0.000000,1,-1.000000,1,COMPLETED_SUCCESSFULLY,142.542364,0.000010,142.542374,142.542364,142.542374,14254237.400201,18,-1.000000,""
127_updated,w0,python3action_floatoperation_100000000_nova,0.997085,1,2000.000000,1,COMPLETED_SUCCESSFULLY,76.342359,66.200020,142.542379,75.345274,141.545294,2.138146,19,-1.000000,""
python3action_video_processing_job5_16,w0,python3action_video_processing_reduced_0.97,0.997085,1,2000.000000,1,COMPLETED_SUCCESSFULLY,142.542394,0.000000,142.542394,141.545309,141.545309,2897139510969.791016,18,-1.000000,""
127,w0,python3action_floatoperation_100000000,0.000000,1,-1.000000,1,COMPLETED_SUCCESSFULLY,142.542409,0.000010,142.542419,142.542409,142.542419,14254241.900402,19,-1.000000,""
140_updated,w0,python3action_floatoperation_100000000_nova,0.997085,1,2000.000000,1,COMPLETED_SUCCESSFULLY,76.342419,66.200020,142.542439,75.345334,141.545354,2.138147,20,-1.000000,""
python3action_video_processing_job10_17,w0,python3action_video_processing_reduced_0.97,0.997085,1,2000.000000,1,COMPLETED_SUCCESSFULLY,142.542454,0.000000,142.542454,141.545369,141.545369,2897140729670.154785,19,-1.000000,""
152_updated,w0,python3action_floatoperation_100000000_nova,0.997085,1,2000.000000,1,COMPLETED_SUCCESSFULLY,76.342449,66.200020,142.542468,75.345364,141.545383,2.138147,21,-1.000000,""
140,w0,python3action_floatoperation_100000000,0.000000,1,-1.000000,1,COMPLETED_SUCCESSFULLY,142.542483,0.000010,142.542493,142.542483,142.542493,14254249.334654,20,-1.000000,""
192_updated,w0,python3action_floatoperation_100000000_nova,0.997085,1,2000.000000,1,COMPLETED_SUCCESSFULLY,76.342479,66.200020,142.542499,75.345394,141.545414,2.138148,22,-1.000000,""
152,w0,python3action_floatoperation_100000000,0.000000,1,-1.000000,1,COMPLETED_SUCCESSFULLY,142.542513,0.000010,142.542523,142.542513,142.542523,14254252.335055,21,-1.000000,""
198_updated,w0,python3action_floatoperation_100000000_nova,0.997085,1,2000.000000,1,COMPLETED_SUCCESSFULLY,76.342509,66.200020,142.542529,75.345424,141.545444,2.138148,24,-1.000000,""
python3action_video_processing_job17_18,w0,python3action_video_processing_reduced_0.97,0.997085,1,2000.000000,1,COMPLETED_SUCCESSFULLY,142.542543,0.000000,142.542543,141.545458,141.545458,2897142567907.590332,20,-1.000000,""
192,w0,python3action_floatoperation_100000000,0.000000,1,-1.000000,1,COMPLETED_SUCCESSFULLY,142.542558,0.000010,142.542568,142.542558,142.542568,14254256.835658,22,-1.000000,""
python3action_video_processing_job31_19,w0,python3action_video_processing_reduced_0.97,0.997085,1,2000.000000,1,COMPLETED_SUCCESSFULLY,142.542573,0.000000,142.542573,141.545488,141.545488,2897143182027.698242,21,-1.000000,""
198,w0,python3action_floatoperation_100000000,0.000000,1,-1.000000,1,COMPLETED_SUCCESSFULLY,142.542603,0.000010,142.542613,142.542603,142.542613,14254261.336260,24,-1.000000,""
python3action_video_processing_job50_20,w0,python3action_video_processing_reduced_0.97,0.997085,1,2000.000000,1,COMPLETED_SUCCESSFULLY,142.542633,0.000000,142.542633,141.545548,141.545548,2897144410267.912598,22,-1.000000,""
python3action_video_processing_job77_21,w0,python3action_video_processing_reduced_0.97,0.997085,1,2000.000000,1,COMPLETED_SUCCESSFULLY,142.542678,0.000000,142.542678,141.545593,141.545593,2897145331448.073730,24,-1.000000,""
30_updated,w0,python3action_pyaes_3000_nova,0.997085,1,2000.000000,1,COMPLETED_SUCCESSFULLY,76.037522,78.200020,154.237542,75.040437,153.240457,1.959596,25,-1.000000,""
30,w0,python3action_pyaes_3000,0.000000,1,-1.000000,1,COMPLETED_SUCCESSFULLY,154.237557,0.000010,154.237567,154.237557,154.237567,15423756.700201,25,-1.000000,""
python3action_video_processing_job92_22,w0,python3action_video_processing_reduced_0.97,0.997085,1,2000.000000,1,COMPLETED_SUCCESSFULLY,154.237587,0.000000,154.237587,153.240502,153.240502,3136515905561.998047,25,-1.000000,""
4_updated,w0,python3action_chameleon_2000_taurus,0.997085,1,2000.000000,1,COMPLETED_SUCCESSFULLY,110.656098,64.199977,174.856075,109.659013,173.858990,2.708085,29,-1.000000,""
4,w0,python3action_chameleon_2000,0.000000,1,-1.000000,1,COMPLETED_SUCCESSFULLY,174.856090,0.000010,174.856100,174.856090,174.856100,17485610.000201,29,-1.000000,""
7_updated,w0,python3action_chameleon_2000_taurus,0.997085,1,2000.000000,1,COMPLETED_SUCCESSFULLY,110.656158,64.199977,174.856135,109.659073,173.859050,2.708086,30,-1.000000,""
7,w0,python3action_chameleon_2000,0.000000,1,-1.000000,1,COMPLETED_SUCCESSFULLY,174.856150,0.000010,174.856160,174.856150,174.856160,17485616.000201,30,-1.000000,""
9_updated,w0,python3action_chameleon_2000_taurus,0.997085,1,2000.000000,1,COMPLETED_SUCCESSFULLY,110.656218,64.199977,174.856195,109.659133,173.859110,2.708087,31,-1.000000,""
9,w0,python3action_chameleon_2000,0.000000,1,-1.000000,1,COMPLETED_SUCCESSFULLY,174.856210,0.000010,174.856220,174.856210,174.856220,17485622.000201,31,-1.000000,""
19_updated,w0,python3action_chameleon_2000_taurus,0.997085,1,2000.000000,1,COMPLETED_SUCCESSFULLY,110.656248,64.199977,174.856225,109.659163,173.859140,2.708087,32,-1.000000,""
19,w0,python3action_chameleon_2000,0.000000,1,-1.000000,1,COMPLETED_SUCCESSFULLY,174.856255,0.000010,174.856265,174.856255,174.856265,17485626.500402,32,-1.000000,""
20_updated,w0,python3action_chameleon_2000_taurus,0.997085,1,2000.000000,1,COMPLETED_SUCCESSFULLY,110.656308,64.199977,174.856285,109.659223,173.859200,2.708088,33,-1.000000,""
20,w0,python3action_chameleon_2000,0.000000,1,-1.000000,1,COMPLETED_SUCCESSFULLY,174.856315,0.000010,174.856325,174.856315,174.856325,17485632.500201,33,-1.000000,""
29_updated,w0,python3action_chameleon_2000_taurus,0.997085,1,2000.000000,1,COMPLETED_SUCCESSFULLY,110.656353,64.199977,174.856330,109.659268,173.859245,2.708089,35,-1.000000,""
43_updated,w0,python3action_chameleon_2000_taurus,0.997085,1,2000.000000,1,COMPLETED_SUCCESSFULLY,110.656383,64.199977,174.856360,109.659298,173.859275,2.708089,36,-1.000000,""
29,w0,python3action_chameleon_2000,0.000000,1,-1.000000,1,COMPLETED_SUCCESSFULLY,174.856360,0.000010,174.856370,174.856360,174.856370,17485636.993862,35,-1.000000,""
43,w0,python3action_chameleon_2000,0.000000,1,-1.000000,1,COMPLETED_SUCCESSFULLY,174.856390,0.000010,174.856400,174.856390,174.856400,17485640.000201,36,-1.000000,""
44_updated,w0,python3action_chameleon_2000_taurus,0.997085,1,2000.000000,1,COMPLETED_SUCCESSFULLY,110.656428,64.199977,174.856405,109.659343,173.859320,2.708090,37,-1.000000,""
75_updated,w0,python3action_chameleon_2000_taurus,0.997085,1,2000.000000,1,COMPLETED_SUCCESSFULLY,110.656458,64.199977,174.856435,109.659373,173.859350,2.708091,38,-1.000000,""
79_updated,w0,python3action_chameleon_2000_taurus,0.997085,1,2000.000000,1,COMPLETED_SUCCESSFULLY,110.656473,64.199977,174.856450,109.659388,173.859365,2.708091,39,-1.000000,""
44,w0,python3action_chameleon_2000,0.000000,1,-1.000000,1,COMPLETED_SUCCESSFULLY,174.856450,0.000010,174.856460,174.856450,174.856460,17485645.993243,37,-1.000000,""
80_updated,w0,python3action_chameleon_2000_taurus,0.997085,1,2000.000000,1,COMPLETED_SUCCESSFULLY,110.656503,64.199977,174.856480,109.659418,173.859395,2.708091,40,-1.000000,""
75,w0,python3action_chameleon_2000,0.000000,1,-1.000000,1,COMPLETED_SUCCESSFULLY,174.856480,0.000010,174.856490,174.856480,174.856490,17485648.993862,38,-1.000000,""
84_updated,w0,python3action_chameleon_2000_taurus,0.997085,1,2000.000000,1,COMPLETED_SUCCESSFULLY,110.656518,64.199977,174.856495,109.659433,173.859410,2.708091,41,-1.000000,""
79,w0,python3action_chameleon_2000,0.000000,1,-1.000000,1,COMPLETED_SUCCESSFULLY,174.856495,0.000010,174.856505,174.856495,174.856505,17485650.494063,39,-1.000000,""
80,w0,python3action_chameleon_2000,0.000000,1,-1.000000,1,COMPLETED_SUCCESSFULLY,174.856540,0.000010,174.856550,174.856540,174.856550,17485655.000201,40,-1.000000,""
84,w0,python3action_chameleon_2000,0.000000,1,-1.000000,1,COMPLETED_SUCCESSFULLY,174.856570,0.000010,174.856580,174.856570,174.856580,17485658.000602,41,-1.000000,""
python3action_facedetection_job65_37,w0,python3action_facedetection_reduced_0.91,0.997085,1,2000.000000,1,COMPLETED_SUCCESSFULLY,174.856630,0.000000,174.856630,173.859545,173.859545,1507427038682.514404,41,-1.000000,""
python3action_modeltraining_job27_34,w0,python3action_modeltraining_reduced_0.94,0.997085,1,2000.000000,1,COMPLETED_SUCCESSFULLY,174.856555,4.236027,179.092582,173.859470,178.095497,42.043053,38,-1.000000,""
python3action_modeltraining_job71_35,w0,python3action_modeltraining_reduced_0.94,0.997085,1,2000.000000,1,COMPLETED_SUCCESSFULLY,174.856585,4.236027,179.092612,173.859500,178.095527,42.043060,39,-1.000000,""
python3action_modeltraining_job113_36,w0,python3action_modeltraining_reduced_0.94,0.997085,1,2000.000000,1,COMPLETED_SUCCESSFULLY,174.856615,4.236027,179.092642,173.859530,178.095557,42.043067,40,-1.000000,""
105_updated,w0,python3action_pyaes_3000_nova,0.997085,1,2000.000000,1,COMPLETED_SUCCESSFULLY,107.002770,78.200020,185.202790,106.005685,184.205705,2.355571,5,-1.000000,""
105,w0,python3action_pyaes_3000,0.000000,1,-1.000000,1,COMPLETED_SUCCESSFULLY,185.202805,0.000010,185.202815,185.202805,185.202815,18520281.500201,5,-1.000000,""
110_updated,w0,python3action_pyaes_3000_nova,0.997085,1,2000.000000,1,COMPLETED_SUCCESSFULLY,107.002829,78.200020,185.202849,106.005744,184.205764,2.355572,6,-1.000000,""
110,w0,python3action_pyaes_3000,0.000000,1,-1.000000,1,COMPLETED_SUCCESSFULLY,185.202864,0.000010,185.202874,185.202864,185.202874,18520287.400201,6,-1.000000,""
123_updated,w0,python3action_pyaes_3000_nova,0.997085,1,2000.000000,1,COMPLETED_SUCCESSFULLY,107.002905,78.200020,185.202925,106.005820,184.205840,2.355573,7,-1.000000,""
123,w0,python3action_pyaes_3000,0.000000,1,-1.000000,1,COMPLETED_SUCCESSFULLY,185.202940,0.000010,185.202950,185.202940,185.202950,18520295.000201,7,-1.000000,""
142_updated,w0,python3action_pyaes_3000_nova,0.997085,1,2000.000000,1,COMPLETED_SUCCESSFULLY,107.002935,78.200020,185.202955,106.005850,184.205870,2.355573,8,-1.000000,""
142,w0,python3action_pyaes_3000,0.000000,1,-1.000000,1,COMPLETED_SUCCESSFULLY,185.202985,0.000010,185.202995,185.202985,185.202995,18520299.500402,8,-1.000000,""
34_updated,w0,python3action_pyaes_3000_nova,0.997085,1,2000.000000,1,COMPLETED_SUCCESSFULLY,111.262328,78.200020,189.462348,110.265243,188.465263,2.410041,2,-1.000000,""
34,w0,python3action_pyaes_3000,0.000000,1,-1.000000,1,COMPLETED_SUCCESSFULLY,189.462363,0.000010,189.462373,189.462363,189.462373,18946237.300201,2,-1.000000,""
python3action_video_processing_job144_1,w0,python3action_video_processing_reduced_0.97,0.997085,1,2000.000000,1,COMPLETED_SUCCESSFULLY,189.462393,0.000000,189.462393,188.465308,188.465308,3857494777616.054199,2,-1.000000,""
53_updated,w0,python3action_pyaes_3000_nova,0.997085,1,2000.000000,1,COMPLETED_SUCCESSFULLY,111.262388,78.200020,189.462408,110.265303,188.465323,2.410042,3,-1.000000,""
53,w0,python3action_pyaes_3000,0.000000,1,-1.000000,1,COMPLETED_SUCCESSFULLY,189.462438,0.000010,189.462448,189.462438,189.462448,18946244.800402,3,-1.000000,""
70_updated,w0,python3action_pyaes_3000_nova,0.997085,1,2000.000000,1,COMPLETED_SUCCESSFULLY,111.262448,78.200020,189.462468,110.265363,188.465383,2.410043,4,-1.000000,""
python3action_video_processing_job156_2,w0,python3action_video_processing_reduced_0.97,0.997085,1,2000.000000,1,COMPLETED_SUCCESSFULLY,189.462468,0.000000,189.462468,188.465383,188.465383,3857496303212.023926,3,-1.000000,""
70,w0,python3action_pyaes_3000,0.000000,1,-1.000000,1,COMPLETED_SUCCESSFULLY,189.462498,0.000010,189.462508,189.462498,189.462508,18946250.800201,4,-1.000000,""
python3action_floatoperation_job21_3,w0,python3action_floatoperation,0.997085,1,2000.000000,1,COMPLETED_SUCCESSFULLY,189.462543,2.439945,191.902488,188.465458,190.905403,78.241674,4,-1.000000,""
176_updated,w0,python3action_imageprocessing_SampleImage_60mb_troll,0.997085,1,2000.000000,1,COMPLETED_SUCCESSFULLY,137.401861,62.000000,199.401861,136.404776,198.404776,3.200077,44,-1.000000,""
176,w0,python3action_imageprocessing_SampleImage_60mb,0.000000,1,-1.000000,1,COMPLETED_SUCCESSFULLY,199.401876,0.000010,199.401886,199.401876,199.401886,19940188.600803,44,-1.000000,""
177_updated,w0,python3action_imageprocessing_SampleImage_60mb_troll,0.997085,1,2000.000000,1,COMPLETED_SUCCESSFULLY,137.401921,62.000000,199.401921,136.404836,198.404836,3.200078,46,-1.000000,""
177,w0,python3action_imageprocessing_SampleImage_60mb,0.000000,1,-1.000000,1,COMPLETED_SUCCESSFULLY,199.401936,0.000010,199.401946,199.401936,199.401946,19940194.601606,46,-1.000000,""
python3action_chameleon_job56_38,w0,python3action_chameleon,0.997085,1,2000.000000,1,COMPLETED_SUCCESSFULLY,199.401906,0.867914,200.269820,198.404821,199.272735,229.599721,44,-1.000000,""
python3action_chameleon_job93_39,w0,python3action_chameleon,0.997085,1,2000.000000,1,COMPLETED_SUCCESSFULLY,199.401966,0.867914,200.269880,198.404881,199.272795,229.599790,46,-1.000000,""
8_updated,w0,python3action_modeltraining_reviews100mb_nova,0.997085,1,2000.000000,1,COMPLETED_SUCCESSFULLY,137.182433,79.600010,216.782443,136.185348,215.785358,2.710871,9,-1.000000,""
8,w0,python3action_modeltraining_reviews100mb,0.000000,1,-1.000000,1,COMPLETED_SUCCESSFULLY,216.782458,0.000010,216.782468,216.782458,216.782468,21678246.813145,9,-1.000000,""
60_updated,w0,python3action_modeltraining_reviews100mb_nova,0.997085,1,2000.000000,1,COMPLETED_SUCCESSFULLY,137.182478,79.600010,216.782488,136.185393,215.785403,2.710872,10,-1.000000,""
60,w0,python3action_modeltraining_reviews100mb,0.000000,1,-1.000000,1,COMPLETED_SUCCESSFULLY,216.782518,0.000010,216.782528,216.782518,216.782528,21678252.813948,10,-1.000000,""
126_updated,w0,python3action_modeltraining_reviews100mb_nova,0.997085,1,2000.000000,1,COMPLETED_SUCCESSFULLY,137.182539,79.600010,216.782549,136.185454,215.785464,2.710872,11,-1.000000,""
126,w0,python3action_modeltraining_reviews100mb,0.000000,1,-1.000000,1,COMPLETED_SUCCESSFULLY,216.782578,0.000010,216.782588,216.782578,216.782588,21678258.814752,11,-1.000000,""
155_updated,w0,python3action_modeltraining_reviews100mb_nova,0.997085,1,2000.000000,1,COMPLETED_SUCCESSFULLY,137.182569,79.600010,216.782579,136.185484,215.785494,2.710873,13,-1.000000,""
163_updated,w0,python3action_modeltraining_reviews100mb_nova,0.997085,1,2000.000000,1,COMPLETED_SUCCESSFULLY,137.182599,79.600010,216.782608,136.185514,215.785523,2.710873,14,-1.000000,""
155,w0,python3action_modeltraining_reviews100mb,0.000000,1,-1.000000,1,COMPLETED_SUCCESSFULLY,216.782623,0.000010,216.782633,216.782623,216.782633,21678263.315354,13,-1.000000,""
169_updated,w0,python3action_modeltraining_reviews100mb_nova,0.997085,1,2000.000000,1,COMPLETED_SUCCESSFULLY,137.182629,79.600010,216.782639,136.185544,215.785554,2.710873,15,-1.000000,""
163,w0,python3action_modeltraining_reviews100mb,0.000000,1,-1.000000,1,COMPLETED_SUCCESSFULLY,216.782653,0.000010,216.782663,216.782653,216.782663,21678266.315756,14,-1.000000,""
169,w0,python3action_modeltraining_reviews100mb,0.000000,1,-1.000000,1,COMPLETED_SUCCESSFULLY,216.782698,0.000010,216.782708,216.782698,216.782708,21678270.816358,15,-1.000000,""
109_updated,w0,python3action_linpack_6000_orion,0.997085,1,2000.000000,1,COMPLETED_SUCCESSFULLY,112.763638,106.000000,218.763638,111.766553,217.766553,2.054401,26,-1.000000,""
109,w0,python3action_linpack_6000,0.000000,1,-1.000000,1,COMPLETED_SUCCESSFULLY,218.763653,0.000010,218.763663,218.763653,218.763663,21876366.300803,26,-1.000000,""
116_updated,w0,python3action_linpack_6000_orion,0.997085,1,2000.000000,1,COMPLETED_SUCCESSFULLY,112.763698,106.000000,218.763698,111.766613,217.766613,2.054402,27,-1.000000,""
116,w0,python3action_linpack_6000,0.000000,1,-1.000000,1,COMPLETED_SUCCESSFULLY,218.763713,0.000010,218.763723,218.763713,218.763723,21876372.301606,27,-1.000000,""
120_updated,w0,python3action_linpack_6000_orion,0.997085,1,2000.000000,1,COMPLETED_SUCCESSFULLY,112.763728,106.000000,218.763728,111.766643,217.766643,2.054402,28,-1.000000,""
120,w0,python3action_linpack_6000,0.000000,1,-1.000000,1,COMPLETED_SUCCESSFULLY,218.763758,0.000010,218.763768,218.763758,218.763768,21876376.802209,28,-1.000000,""
178_updated,w0,python3action_modeltraining_reviews100mb_nova,0.997085,1,2000.000000,1,COMPLETED_SUCCESSFULLY,142.542274,79.600010,222.142284,141.545189,221.145199,2.778206,16,-1.000000,""
178,w0,python3action_modeltraining_reviews100mb,0.000000,1,-1.000000,1,COMPLETED_SUCCESSFULLY,222.142299,0.000010,222.142309,222.142299,222.142309,22214230.900201,16,-1.000000,""
181_updated,w0,python3action_modeltraining_reviews100mb_nova,0.997085,1,2000.000000,1,COMPLETED_SUCCESSFULLY,142.542334,79.600010,222.142344,141.545249,221.145259,2.778206,17,-1.000000,""
181,w0,python3action_modeltraining_reviews100mb,0.000000,1,-1.000000,1,COMPLETED_SUCCESSFULLY,222.142359,0.000010,222.142369,222.142359,222.142369,22214236.900201,17,-1.000000,""
0_updated,w0,python3action_chameleon_3000_troll,0.997085,1,2000.000000,1,COMPLETED_SUCCESSFULLY,138.269925,94.000000,232.269925,137.272840,231.272840,2.460349,47,-1.000000,""
0,w0,python3action_chameleon_3000,0.000000,1,-1.000000,1,COMPLETED_SUCCESSFULLY,232.269940,0.000010,232.269950,232.269940,232.269950,23226995.000401,47,-1.000000,""
3_updated,w0,python3action_chameleon_3000_troll,0.997085,1,2000.000000,1,COMPLETED_SUCCESSFULLY,138.269955,94.000000,232.269955,137.272870,231.272870,2.460350,48,-1.000000,""
3,w0,python3action_chameleon_3000,0.000000,1,-1.000000,1,COMPLETED_SUCCESSFULLY,232.269985,0.000010,232.269995,232.269985,232.269995,23226999.500803,48,-1.000000,""
101_updated,w0,python3action_chameleon_2000_taurus,0.997085,1,2000.000000,1,COMPLETED_SUCCESSFULLY,174.856120,64.199977,239.056097,173.859035,238.059012,3.708086,29,-1.000000,""
101,w0,python3action_chameleon_2000,0.000000,1,-1.000000,1,COMPLETED_SUCCESSFULLY,239.056112,0.000010,239.056122,239.056112,239.056122,23905612.200201,29,-1.000000,""
python3action_facedetection_job83_26,w0,python3action_facedetection_reduced_0.91,0.997085,1,2000.000000,1,COMPLETED_SUCCESSFULLY,239.056142,0.000000,239.056142,238.059057,238.059057,2064060729625.548584,29,-1.000000,""
136_updated,w0,python3action_chameleon_2000_taurus,0.997085,1,2000.000000,1,COMPLETED_SUCCESSFULLY,174.856180,64.199977,239.056157,173.859095,238.059072,3.708087,30,-1.000000,""
136,w0,python3action_chameleon_2000,0.000000,1,-1.000000,1,COMPLETED_SUCCESSFULLY,239.056187,0.000010,239.056197,239.056187,239.056197,23905619.700402,30,-1.000000,""
147_updated,w0,python3action_chameleon_2000_taurus,0.997085,1,2000.000000,1,COMPLETED_SUCCESSFULLY,174.856240,64.199977,239.056217,173.859155,238.059132,3.708087,31,-1.000000,""
python3action_facedetection_job85_27,w0,python3action_facedetection_reduced_0.91,0.997085,1,2000.000000,1,COMPLETED_SUCCESSFULLY,239.056217,0.000000,239.056217,238.059132,238.059132,2064061379319.107422,30,-1.000000,""
147,w0,python3action_chameleon_2000,0.000000,1,-1.000000,1,COMPLETED_SUCCESSFULLY,239.056247,0.000010,239.056257,239.056247,239.056257,23905625.700201,31,-1.000000,""
149_updated,w0,python3action_chameleon_2000_taurus,0.997085,1,2000.000000,1,COMPLETED_SUCCESSFULLY,174.856285,64.199977,239.056262,173.859200,238.059177,3.708088,32,-1.000000,""
python3action_facedetection_job131_28,w0,python3action_facedetection_reduced_0.91,0.997085,1,2000.000000,1,COMPLETED_SUCCESSFULLY,239.056292,0.000000,239.056292,238.059207,238.059207,2064062030146.621094,31,-1.000000,""
149,w0,python3action_chameleon_2000,0.000000,1,-1.000000,1,COMPLETED_SUCCESSFULLY,239.056307,0.000010,239.056317,239.056307,239.056317,23905631.700402,32,-1.000000,""
164_updated,w0,python3action_chameleon_2000_taurus,0.997085,1,2000.000000,1,COMPLETED_SUCCESSFULLY,174.856345,64.199977,239.056322,173.859260,238.059237,3.708089,33,-1.000000,""
python3action_facedetection_job133_29,w0,python3action_facedetection_reduced_0.91,0.997085,1,2000.000000,1,COMPLETED_SUCCESSFULLY,239.056352,0.000000,239.056352,238.059267,238.059267,2064062550386.388428,32,-1.000000,""
164,w0,python3action_chameleon_2000,0.000000,1,-1.000000,1,COMPLETED_SUCCESSFULLY,239.056367,0.000010,239.056377,239.056367,239.056377,23905637.700602,33,-1.000000,""
171_updated,w0,python3action_chameleon_2000_taurus,0.997085,1,2000.000000,1,COMPLETED_SUCCESSFULLY,174.856405,64.199977,239.056382,173.859320,238.059297,3.708090,35,-1.000000,""
175_updated,w0,python3action_chameleon_2000_taurus,0.997085,1,2000.000000,1,COMPLETED_SUCCESSFULLY,174.856435,64.199977,239.056412,173.859350,238.059327,3.708091,36,-1.000000,""
python3action_facedetection_job135_30,w0,python3action_facedetection_reduced_0.91,0.997085,1,2000.000000,1,COMPLETED_SUCCESSFULLY,239.056412,0.000000,239.056412,238.059327,238.059327,2064063069421.125000,33,-1.000000,""
171,w0,python3action_chameleon_2000,0.000000,1,-1.000000,1,COMPLETED_SUCCESSFULLY,239.056427,0.000010,239.056437,239.056427,239.056437,23905643.686905,35,-1.000000,""
175,w0,python3action_chameleon_2000,0.000000,1,-1.000000,1,COMPLETED_SUCCESSFULLY,239.056457,0.000010,239.056467,239.056457,239.056467,23905646.700201,36,-1.000000,""
189_updated,w0,python3action_chameleon_2000_taurus,0.997085,1,2000.000000,1,COMPLETED_SUCCESSFULLY,174.856510,64.199977,239.056487,173.859425,238.059402,3.708092,37,-1.000000,""
python3action_video_processing_job16_31,w0,python3action_video_processing_reduced_0.91,0.997085,1,2000.000000,1,COMPLETED_SUCCESSFULLY,239.056487,0.000000,239.056487,238.059402,238.059402,2064063719804.978516,35,-1.000000,""
python3action_video_processing_job18_32,w0,python3action_video_processing_reduced_0.91,0.997085,1,2000.000000,1,COMPLETED_SUCCESSFULLY,239.056517,0.000000,239.056517,238.059432,238.059432,2064063980980.460205,36,-1.000000,""
189,w0,python3action_chameleon_2000,0.000000,1,-1.000000,1,COMPLETED_SUCCESSFULLY,239.056532,0.000010,239.056542,239.056532,239.056542,23905654.200402,37,-1.000000,""
python3action_video_processing_job49_33,w0,python3action_video_processing_reduced_0.91,0.997085,1,2000.000000,1,COMPLETED_SUCCESSFULLY,239.056592,0.000000,239.056592,238.059507,238.059507,2064064631345.458008,37,-1.000000,""
5_updated,w0,python3action_videoprocessing_SampleVideo_30mb_nova,0.997085,1,2000.000000,1,COMPLETED_SUCCESSFULLY,142.542439,106.799980,249.342419,141.545354,248.345334,2.325331,18,-1.000000,""
5,w0,python3action_videoprocessing_SampleVideo_30mb,0.000000,1,-1.000000,1,COMPLETED_SUCCESSFULLY,249.342434,0.000010,249.342444,249.342434,249.342444,24934244.400602,18,-1.000000,""
10_updated,w0,python3action_videoprocessing_SampleVideo_30mb_nova,0.997085,1,2000.000000,1,COMPLETED_SUCCESSFULLY,142.542498,106.799980,249.342479,141.545413,248.345394,2.325332,19,-1.000000,""
10,w0,python3action_videoprocessing_SampleVideo_30mb,0.000000,1,-1.000000,1,COMPLETED_SUCCESSFULLY,249.342494,0.000010,249.342504,249.342494,249.342504,24934250.400201,19,-1.000000,""
17_updated,w0,python3action_videoprocessing_SampleVideo_30mb_nova,0.997085,1,2000.000000,1,COMPLETED_SUCCESSFULLY,142.542618,106.799980,249.342599,141.545533,248.345514,2.325333,20,-1.000000,""
17,w0,python3action_videoprocessing_SampleVideo_30mb,0.000000,1,-1.000000,1,COMPLETED_SUCCESSFULLY,249.342614,0.000010,249.342624,249.342614,249.342624,24934262.400201,20,-1.000000,""
31_updated,w0,python3action_videoprocessing_SampleVideo_30mb_nova,0.997085,1,2000.000000,1,COMPLETED_SUCCESSFULLY,142.542648,106.799980,249.342629,141.545563,248.345544,2.325333,21,-1.000000,""
31,w0,python3action_videoprocessing_SampleVideo_30mb,0.000000,1,-1.000000,1,COMPLETED_SUCCESSFULLY,249.342659,0.000010,249.342669,249.342659,249.342669,24934266.900402,21,-1.000000,""
50_updated,w0,python3action_videoprocessing_SampleVideo_30mb_nova,0.997085,1,2000.000000,1,COMPLETED_SUCCESSFULLY,142.542693,106.799980,249.342674,141.545608,248.345589,2.325334,22,-1.000000,""
77_updated,w0,python3action_videoprocessing_SampleVideo_30mb_nova,0.997085,1,2000.000000,1,COMPLETED_SUCCESSFULLY,142.542723,106.799980,249.342704,141.545638,248.345619,2.325334,24,-1.000000,""
50,w0,python3action_videoprocessing_SampleVideo_30mb,0.000000,1,-1.000000,1,COMPLETED_SUCCESSFULLY,249.342704,0.000010,249.342714,249.342704,249.342714,24934271.384274,22,-1.000000,""
77,w0,python3action_videoprocessing_SampleVideo_30mb,0.000000,1,-1.000000,1,COMPLETED_SUCCESSFULLY,249.342734,0.000010,249.342744,249.342734,249.342744,24934274.400201,24,-1.000000,""
python3action_pyaes_job13_19,w0,python3action_pyaes,0.997085,1,2000.000000,1,COMPLETED_SUCCESSFULLY,249.342689,2.134958,251.477647,248.345604,250.480562,117.323401,21,-1.000000,""
python3action_pyaes_job26_20,w0,python3action_pyaes,0.997085,1,2000.000000,1,COMPLETED_SUCCESSFULLY,249.342749,2.134958,251.477707,248.345664,250.480622,117.323429,22,-1.000000,""
python3action_pyaes_job58_21,w0,python3action_pyaes,0.997085,1,2000.000000,1,COMPLETED_SUCCESSFULLY,249.342779,2.134958,251.477737,248.345694,250.480652,117.323444,24,-1.000000,""
92_updated,w0,python3action_videoprocessing_SampleVideo_30mb_nova,0.997085,1,2000.000000,1,COMPLETED_SUCCESSFULLY,154.237617,106.799980,261.037597,153.240532,260.040512,2.434837,25,-1.000000,""
92,w0,python3action_videoprocessing_SampleVideo_30mb,0.000000,1,-1.000000,1,COMPLETED_SUCCESSFULLY,261.037612,0.000010,261.037622,261.037612,261.037622,26103762.247412,25,-1.000000,""
27_updated,w0,python3action_modeltraining_reviews100mb_taurus,0.997085,1,2000.000000,1,COMPLETED_SUCCESSFULLY,179.092597,88.199977,267.292574,178.095512,266.295489,3.019224,38,-1.000000,""
27,w0,python3action_modeltraining_reviews100mb,0.000000,1,-1.000000,1,COMPLETED_SUCCESSFULLY,267.292589,0.000010,267.292599,267.292589,267.292599,26729259.900201,38,-1.000000,""
71_updated,w0,python3action_modeltraining_reviews100mb_taurus,0.997085,1,2000.000000,1,COMPLETED_SUCCESSFULLY,179.092627,88.199977,267.292604,178.095542,266.295519,3.019224,39,-1.000000,""
python3action_video_processing_job82_34,w0,python3action_video_processing_reduced_1.89,0.997085,1,2000.000000,1,COMPLETED_SUCCESSFULLY,267.292619,0.000000,267.292619,266.295534,266.295534,2308881506635.022949,38,-1.000000,""
113_updated,w0,python3action_modeltraining_reviews100mb_taurus,0.997085,1,2000.000000,1,COMPLETED_SUCCESSFULLY,179.092657,88.199977,267.292634,178.095572,266.295549,3.019225,40,-1.000000,""
71,w0,python3action_modeltraining_reviews100mb,0.000000,1,-1.000000,1,COMPLETED_SUCCESSFULLY,267.292634,0.000010,267.292644,267.292634,267.292644,26729264.393862,39,-1.000000,""
113,w0,python3action_modeltraining_reviews100mb,0.000000,1,-1.000000,1,COMPLETED_SUCCESSFULLY,267.292679,0.000010,267.292689,267.292679,267.292689,26729268.900402,40,-1.000000,""
python3action_video_processing_job86_35,w0,python3action_video_processing_reduced_1.89,0.997085,1,2000.000000,1,COMPLETED_SUCCESSFULLY,267.292694,0.000000,267.292694,266.295609,266.295609,2308882156947.790527,39,-1.000000,""
python3action_video_processing_job88_36,w0,python3action_video_processing_reduced_1.89,0.997085,1,2000.000000,1,COMPLETED_SUCCESSFULLY,267.292724,0.000000,267.292724,266.295639,266.295639,2308882417093.790527,40,-1.000000,""
56_updated,w0,python3action_chameleon_3000_troll,0.997085,1,2000.000000,1,COMPLETED_SUCCESSFULLY,200.269835,94.000000,294.269835,199.272750,293.272750,3.119923,44,-1.000000,""
56,w0,python3action_chameleon_3000,0.000000,1,-1.000000,1,COMPLETED_SUCCESSFULLY,294.269850,0.000010,294.269860,294.269850,294.269860,29426986.000402,44,-1.000000,""
93_updated,w0,python3action_chameleon_3000_troll,0.997085,1,2000.000000,1,COMPLETED_SUCCESSFULLY,200.269895,94.000000,294.269895,199.272810,293.272810,3.119924,46,-1.000000,""
93,w0,python3action_chameleon_3000,0.000000,1,-1.000000,1,COMPLETED_SUCCESSFULLY,294.269910,0.000010,294.269920,294.269910,294.269920,29426992.000602,46,-1.000000,""
144_updated,w0,python3action_videoprocessing_SampleVideo_30mb_nova,0.997085,1,2000.000000,1,COMPLETED_SUCCESSFULLY,189.462423,106.799980,296.262403,188.465338,295.265318,2.764657,2,-1.000000,""
144,w0,python3action_videoprocessing_SampleVideo_30mb,0.000000,1,-1.000000,1,COMPLETED_SUCCESSFULLY,296.262418,0.000010,296.262428,296.262418,296.262428,29626242.846609,2,-1.000000,""
156_updated,w0,python3action_videoprocessing_SampleVideo_30mb_nova,0.997085,1,2000.000000,1,COMPLETED_SUCCESSFULLY,189.462513,106.799980,296.262493,188.465428,295.265408,2.764658,3,-1.000000,""
156,w0,python3action_videoprocessing_SampleVideo_30mb,0.000000,1,-1.000000,1,COMPLETED_SUCCESSFULLY,296.262508,0.000010,296.262518,296.262508,296.262518,29626251.846809,3,-1.000000,""
65_updated,w0,python3action_facedetection_SampleVideo_50mb_taurus,0.997085,1,2000.000000,1,COMPLETED_SUCCESSFULLY,174.856660,134.600046,309.456706,173.859575,308.459621,2.291675,41,-1.000000,""
65,w0,python3action_facedetection_SampleVideo_50mb,0.000000,1,-1.000000,1,COMPLETED_SUCCESSFULLY,309.456721,0.000010,309.456731,309.456721,309.456731,30945673.115086,41,-1.000000,""
python3action_video_processing_job90_37,w0,python3action_video_processing_reduced_1.83,0.997085,1,2000.000000,1,COMPLETED_SUCCESSFULLY,309.456751,0.000000,309.456751,308.459666,308.459666,2674460243566.800781,41,-1.000000,""
28_updated,w0,python3action_floatoperation_200000000_nova,0.997085,1,2000.000000,1,COMPLETED_SUCCESSFULLY,185.202835,135.399990,320.602825,184.205750,319.605740,2.360456,5,-1.000000,""
28,w0,python3action_floatoperation_200000000,0.000000,1,-1.000000,1,COMPLETED_SUCCESSFULLY,320.602840,0.000010,320.602850,320.602840,320.602850,32060285.023907,5,-1.000000,""
48_updated,w0,python3action_floatoperation_200000000_nova,0.997085,1,2000.000000,1,COMPLETED_SUCCESSFULLY,185.202894,135.399990,320.602884,184.205809,319.605799,2.360457,6,-1.000000,""
48,w0,python3action_floatoperation_200000000,0.000000,1,-1.000000,1,COMPLETED_SUCCESSFULLY,320.602899,0.000010,320.602909,320.602899,320.602909,32060290.924108,6,-1.000000,""
61_updated,w0,python3action_floatoperation_200000000_nova,0.997085,1,2000.000000,1,COMPLETED_SUCCESSFULLY,185.202970,135.399990,320.602960,184.205885,319.605875,2.360457,7,-1.000000,""
61,w0,python3action_floatoperation_200000000,0.000000,1,-1.000000,1,COMPLETED_SUCCESSFULLY,320.602975,0.000010,320.602985,320.602975,320.602985,32060298.523505,7,-1.000000,""
63_updated,w0,python3action_floatoperation_200000000_nova,0.997085,1,2000.000000,1,COMPLETED_SUCCESSFULLY,185.203015,135.399990,320.603005,184.205930,319.605920,2.360457,8,-1.000000,""
63,w0,python3action_floatoperation_200000000,0.000000,1,-1.000000,1,COMPLETED_SUCCESSFULLY,320.603035,0.000010,320.603045,320.603035,320.603045,32060304.524308,8,-1.000000,""
134_updated,w0,python3action_linpack_6000_orion,0.997085,1,2000.000000,1,COMPLETED_SUCCESSFULLY,218.763683,106.000000,324.763683,217.766598,323.766598,3.054402,26,-1.000000,""
134,w0,python3action_linpack_6000,0.000000,1,-1.000000,1,COMPLETED_SUCCESSFULLY,324.763698,0.000010,324.763708,324.763698,324.763708,32476370.801405,26,-1.000000,""
137_updated,w0,python3action_linpack_6000_orion,0.997085,1,2000.000000,1,COMPLETED_SUCCESSFULLY,218.763743,106.000000,324.763743,217.766658,323.766658,3.054402,27,-1.000000,""
137,w0,python3action_linpack_6000,0.000000,1,-1.000000,1,COMPLETED_SUCCESSFULLY,324.763758,0.000010,324.763768,324.763758,324.763768,32476376.802209,27,-1.000000,""
138_updated,w0,python3action_linpack_6000_orion,0.997085,1,2000.000000,1,COMPLETED_SUCCESSFULLY,218.763788,106.000000,324.763788,217.766703,323.766703,3.054403,28,-1.000000,""
138,w0,python3action_linpack_6000,0.000000,1,-1.000000,1,COMPLETED_SUCCESSFULLY,324.763818,0.000010,324.763828,324.763818,324.763828,32476382.803012,28,-1.000000,""
95_updated,w0,python3action_chameleon_3000_troll,0.997085,1,2000.000000,1,COMPLETED_SUCCESSFULLY,232.269970,94.000000,326.269970,231.272885,325.272885,3.460350,47,-1.000000,""
95,w0,python3action_chameleon_3000,0.000000,1,-1.000000,1,COMPLETED_SUCCESSFULLY,326.269985,0.000010,326.269995,326.269985,326.269995,32626999.500803,47,-1.000000,""
98_updated,w0,python3action_chameleon_3000_troll,0.997085,1,2000.000000,1,COMPLETED_SUCCESSFULLY,232.270015,94.000000,326.270015,231.272930,325.272930,3.460350,48,-1.000000,""
98,w0,python3action_chameleon_3000,0.000000,1,-1.000000,1,COMPLETED_SUCCESSFULLY,326.270045,0.000010,326.270055,326.270045,326.270055,32627005.501606,48,-1.000000,""
21_updated,w0,python3action_floatoperation_200000000_nova,0.997085,1,2000.000000,1,COMPLETED_SUCCESSFULLY,191.902503,135.399990,327.302494,190.905418,326.305409,2.409937,4,-1.000000,""
21,w0,python3action_floatoperation_200000000,0.000000,1,-1.000000,1,COMPLETED_SUCCESSFULLY,327.302509,0.000010,327.302519,327.302509,327.302519,32730251.900201,4,-1.000000,""
python3action_facedetection_job35_7,w0,python3action_facedetection,0.997085,1,2000.000000,1,COMPLETED_SUCCESSFULLY,320.603065,30.499683,351.102748,319.605980,350.105663,11.478994,8,-1.000000,""
64_updated,w0,python3action_floatoperation_200000000_nova,0.997085,1,2000.000000,1,COMPLETED_SUCCESSFULLY,216.782488,135.399990,352.182478,215.785403,351.185393,2.593688,9,-1.000000,""
64,w0,python3action_floatoperation_200000000,0.000000,1,-1.000000,1,COMPLETED_SUCCESSFULLY,352.182493,0.000010,352.182503,352.182493,352.182503,35218250.336851,9,-1.000000,""
python3action_facedetection_job47_8,w0,python3action_facedetection_reduced_0.91,0.997085,1,2000.000000,1,COMPLETED_SUCCESSFULLY,352.182523,0.000000,352.182523,351.185438,351.185438,7192223012735.953125,9,-1.000000,""
73_updated,w0,python3action_floatoperation_200000000_nova,0.997085,1,2000.000000,1,COMPLETED_SUCCESSFULLY,216.782548,135.399990,352.182538,215.785463,351.185453,2.593689,10,-1.000000,""
73,w0,python3action_floatoperation_200000000,0.000000,1,-1.000000,1,COMPLETED_SUCCESSFULLY,352.182568,0.000010,352.182578,352.182568,352.182578,35218257.837855,10,-1.000000,""
89_updated,w0,python3action_floatoperation_200000000_nova,0.997085,1,2000.000000,1,COMPLETED_SUCCESSFULLY,216.782608,135.399990,352.182598,215.785523,351.185513,2.593689,11,-1.000000,""
python3action_facedetection_job54_9,w0,python3action_facedetection_reduced_0.91,0.997085,1,2000.000000,1,COMPLETED_SUCCESSFULLY,352.182598,0.000000,352.182598,351.185513,351.185513,7192224548929.880859,10,-1.000000,""
89,w0,python3action_floatoperation_200000000,0.000000,1,-1.000000,1,COMPLETED_SUCCESSFULLY,352.182628,0.000010,352.182638,352.182628,352.182638,35218263.838659,11,-1.000000,""
107_updated,w0,python3action_floatoperation_200000000_nova,0.997085,1,2000.000000,1,COMPLETED_SUCCESSFULLY,216.782668,135.399990,352.182658,215.785583,351.185573,2.593690,13,-1.000000,""
python3action_facedetection_job67_10,w0,python3action_facedetection_reduced_0.91,0.997085,1,2000.000000,1,COMPLETED_SUCCESSFULLY,352.182673,0.000000,352.182673,351.185588,351.185588,7192226085123.808594,11,-1.000000,""
107,w0,python3action_floatoperation_200000000,0.000000,1,-1.000000,1,COMPLETED_SUCCESSFULLY,352.182688,0.000010,352.182698,352.182688,352.182698,35218269.839462,13,-1.000000,""
122_updated,w0,python3action_floatoperation_200000000_nova,0.997085,1,2000.000000,1,COMPLETED_SUCCESSFULLY,216.782713,135.399990,352.182703,215.785628,351.185618,2.593690,14,-1.000000,""
128_updated,w0,python3action_floatoperation_200000000_nova,0.997085,1,2000.000000,1,COMPLETED_SUCCESSFULLY,216.782743,135.399990,352.182733,215.785658,351.185648,2.593690,15,-1.000000,""
python3action_facedetection_job69_11,w0,python3action_facedetection_reduced_0.91,0.997085,1,2000.000000,1,COMPLETED_SUCCESSFULLY,352.182733,0.000000,352.182733,351.185648,351.185648,7192227314078.950195,13,-1.000000,""
122,w0,python3action_floatoperation_200000000,0.000000,1,-1.000000,1,COMPLETED_SUCCESSFULLY,352.182748,0.000010,352.182758,352.182748,352.182758,35218275.840265,14,-1.000000,""
128,w0,python3action_floatoperation_200000000,0.000000,1,-1.000000,1,COMPLETED_SUCCESSFULLY,352.182778,0.000010,352.182788,352.182778,352.182788,35218278.840667,15,-1.000000,""
python3action_facedetection_job74_12,w0,python3action_facedetection_reduced_0.91,0.997085,1,2000.000000,1,COMPLETED_SUCCESSFULLY,352.182808,0.000000,352.182808,351.185723,351.185723,7192228850272.877930,14,-1.000000,""
python3action_facedetection_job91_13,w0,python3action_facedetection_reduced_0.91,0.997085,1,2000.000000,1,COMPLETED_SUCCESSFULLY,352.182838,0.000000,352.182838,351.185753,351.185753,7192229464750.449219,15,-1.000000,""
130_updated,w0,python3action_floatoperation_200000000_nova,0.997085,1,2000.000000,1,COMPLETED_SUCCESSFULLY,222.142329,135.399990,357.542319,221.145244,356.545234,2.633274,16,-1.000000,""
130,w0,python3action_floatoperation_200000000,0.000000,1,-1.000000,1,COMPLETED_SUCCESSFULLY,357.542334,0.000010,357.542344,357.542334,357.542344,35754234.423907,16,-1.000000,""
python3action_facedetection_job114_14,w0,python3action_facedetection_reduced_0.91,0.997085,1,2000.000000,1,COMPLETED_SUCCESSFULLY,357.542364,0.000000,357.542364,356.545279,356.545279,7301991717931.901367,16,-1.000000,""
143_updated,w0,python3action_floatoperation_200000000_nova,0.997085,1,2000.000000,1,COMPLETED_SUCCESSFULLY,222.142389,135.399990,357.542379,221.145304,356.545294,2.633274,17,-1.000000,""
143,w0,python3action_floatoperation_200000000,0.000000,1,-1.000000,1,COMPLETED_SUCCESSFULLY,357.542409,0.000010,357.542419,357.542409,357.542419,35754241.924309,17,-1.000000,""
python3action_facedetection_job121_15,w0,python3action_facedetection_reduced_0.91,0.997085,1,2000.000000,1,COMPLETED_SUCCESSFULLY,357.542439,0.000000,357.542439,356.545354,356.545354,7301993254002.458008,17,-1.000000,""
83_updated,w0,python3action_facedetection_SampleVideo_50mb_taurus,0.997085,1,2000.000000,1,COMPLETED_SUCCESSFULLY,239.056172,134.600046,373.656218,238.059087,372.659133,2.768640,29,-1.000000,""
83,w0,python3action_facedetection_SampleVideo_50mb,0.000000,1,-1.000000,1,COMPLETED_SUCCESSFULLY,373.656233,0.000010,373.656243,373.656233,373.656243,37365624.313480,29,-1.000000,""
python3action_video_processing_job96_26,w0,python3action_video_processing_reduced_1.83,0.997085,1,2000.000000,1,COMPLETED_SUCCESSFULLY,373.656263,0.000000,373.656263,372.659178,372.659178,3231093934440.235352,29,-1.000000,""
85_updated,w0,python3action_facedetection_SampleVideo_50mb_taurus,0.997085,1,2000.000000,1,COMPLETED_SUCCESSFULLY,239.056262,134.600046,373.656308,238.059177,372.659223,2.768641,30,-1.000000,""
85,w0,python3action_facedetection_SampleVideo_50mb,0.000000,1,-1.000000,1,COMPLETED_SUCCESSFULLY,373.656323,0.000010,373.656333,373.656323,373.656333,37365633.301004,30,-1.000000,""
python3action_video_processing_job115_27,w0,python3action_video_processing_reduced_1.83,0.997085,1,2000.000000,1,COMPLETED_SUCCESSFULLY,373.656353,0.000000,373.656353,372.659268,372.659268,3231094713692.062500,30,-1.000000,""
131_updated,w0,python3action_facedetection_SampleVideo_50mb_taurus,0.997085,1,2000.000000,1,COMPLETED_SUCCESSFULLY,239.056337,134.600046,373.656383,238.059252,372.659298,2.768642,31,-1.000000,""
131,w0,python3action_facedetection_SampleVideo_50mb,0.000000,1,-1.000000,1,COMPLETED_SUCCESSFULLY,373.656413,0.000010,373.656423,373.656413,373.656423,37365642.302209,31,-1.000000,""
python3action_video_processing_job151_28,w0,python3action_video_processing_reduced_1.83,0.997085,1,2000.000000,1,COMPLETED_SUCCESSFULLY,373.656443,0.000000,373.656443,372.659358,372.659358,3231095494130.062012,31,-1.000000,""
133_updated,w0,python3action_facedetection_SampleVideo_50mb_taurus,0.997085,1,2000.000000,1,COMPLETED_SUCCESSFULLY,239.056397,134.600046,373.656443,238.059312,372.659358,2.768642,32,-1.000000,""
133,w0,python3action_facedetection_SampleVideo_50mb,0.000000,1,-1.000000,1,COMPLETED_SUCCESSFULLY,373.656488,0.000010,373.656498,373.656488,373.656498,37365649.803213,32,-1.000000,""
python3action_video_processing_job161_29,w0,python3action_video_processing_reduced_1.83,0.997085,1,2000.000000,1,COMPLETED_SUCCESSFULLY,373.656518,0.000000,373.656518,372.659433,372.659433,3231096144495.062012,32,-1.000000,""
135_updated,w0,python3action_facedetection_SampleVideo_50mb_taurus,0.997085,1,2000.000000,1,COMPLETED_SUCCESSFULLY,239.056472,134.600046,373.656518,238.059387,372.659433,2.768643,33,-1.000000,""
135,w0,python3action_facedetection_SampleVideo_50mb,0.000000,1,-1.000000,1,COMPLETED_SUCCESSFULLY,373.656563,0.000010,373.656573,373.656563,373.656573,37365657.304217,33,-1.000000,""
python3action_video_processing_job166_30,w0,python3action_video_processing_reduced_1.83,0.997085,1,2000.000000,1,COMPLETED_SUCCESSFULLY,373.656593,0.000000,373.656593,372.659508,372.659508,3231096794860.062012,33,-1.000000,""
167_updated,w0,python3action_floatoperation_200000000_nova,0.997085,1,2000.000000,1,COMPLETED_SUCCESSFULLY,249.342464,135.399990,384.742454,248.345379,383.745369,2.834161,18,-1.000000,""
167,w0,python3action_floatoperation_200000000,0.000000,1,-1.000000,1,COMPLETED_SUCCESSFULLY,384.742469,0.000010,384.742479,384.742469,384.742479,38474247.924309,18,-1.000000,""
python3action_facedetection_job145_16,w0,python3action_facedetection_reduced_1.83,0.997085,1,2000.000000,1,COMPLETED_SUCCESSFULLY,384.742499,0.000000,384.742499,383.745414,383.745414,7859046241126.140625,18,-1.000000,""
183_updated,w0,python3action_floatoperation_200000000_nova,0.997085,1,2000.000000,1,COMPLETED_SUCCESSFULLY,249.342524,135.399990,384.742514,248.345439,383.745429,2.834161,19,-1.000000,""
183,w0,python3action_floatoperation_200000000,0.000000,1,-1.000000,1,COMPLETED_SUCCESSFULLY,384.742544,0.000010,384.742554,384.742544,384.742554,38474255.424309,19,-1.000000,""
python3action_facedetection_job150_17,w0,python3action_facedetection_reduced_1.83,0.997085,1,2000.000000,1,COMPLETED_SUCCESSFULLY,384.742574,0.000000,384.742574,383.745489,383.745489,7859047777114.522461,19,-1.000000,""
185_updated,w0,python3action_floatoperation_200000000_nova,0.997085,1,2000.000000,1,COMPLETED_SUCCESSFULLY,249.342644,135.399990,384.742634,248.345559,383.745549,2.834162,20,-1.000000,""
185,w0,python3action_floatoperation_200000000,0.000000,1,-1.000000,1,COMPLETED_SUCCESSFULLY,384.742649,0.000010,384.742659,384.742649,384.742659,38474265.923506,20,-1.000000,""
python3action_facedetection_job174_18,w0,python3action_facedetection_reduced_1.83,0.997085,1,2000.000000,1,COMPLETED_SUCCESSFULLY,384.742679,0.000000,384.742679,383.745594,383.745594,7859049927333.656250,20,-1.000000,""
102_updated,w0,python3action_chameleon_3000_troll,0.997085,1,2000.000000,1,COMPLETED_SUCCESSFULLY,294.269880,94.000000,388.269880,293.272795,387.272795,4.119923,44,-1.000000,""
102,w0,python3action_chameleon_3000,0.000000,1,-1.000000,1,COMPLETED_SUCCESSFULLY,388.269895,0.000010,388.269905,388.269895,388.269905,38826990.501004,44,-1.000000,""
125_updated,w0,python3action_chameleon_3000_troll,0.997085,1,2000.000000,1,COMPLETED_SUCCESSFULLY,294.269940,94.000000,388.269940,293.272855,387.272855,4.119924,46,-1.000000,""
125,w0,python3action_chameleon_3000,0.000000,1,-1.000000,1,COMPLETED_SUCCESSFULLY,388.269955,0.000010,388.269965,388.269955,388.269965,38826996.501406,46,-1.000000,""
13_updated,w0,python3action_pyaes_4000_nova,0.997085,1,2000.000000,1,COMPLETED_SUCCESSFULLY,251.477662,139.600010,391.077672,250.480577,390.080587,2.794273,21,-1.000000,""
13,w0,python3action_pyaes_4000,0.000000,1,-1.000000,1,COMPLETED_SUCCESSFULLY,391.077687,0.000010,391.077697,391.077687,391.077697,39107769.701267,21,-1.000000,""
python3action_facedetection_job180_19,w0,python3action_facedetection_reduced_1.83,0.997085,1,2000.000000,1,COMPLETED_SUCCESSFULLY,391.077717,0.000000,391.077717,390.080632,390.080632,7988790513110.383789,21,-1.000000,""
26_updated,w0,python3action_pyaes_4000_nova,0.997085,1,2000.000000,1,COMPLETED_SUCCESSFULLY,251.477722,139.600010,391.077732,250.480637,390.080647,2.794274,22,-1.000000,""
58_updated,w0,python3action_pyaes_4000_nova,0.997085,1,2000.000000,1,COMPLETED_SUCCESSFULLY,251.477752,139.600010,391.077762,250.480667,390.080677,2.794274,24,-1.000000,""
26,w0,python3action_pyaes_4000,0.000000,1,-1.000000,1,COMPLETED_SUCCESSFULLY,391.077762,0.000010,391.077772,391.077762,391.077772,39107777.201870,22,-1.000000,""
58,w0,python3action_pyaes_4000,0.000000,1,-1.000000,1,COMPLETED_SUCCESSFULLY,391.077792,0.000010,391.077802,391.077792,391.077802,39107780.202271,24,-1.000000,""
python3action_facedetection_job184_20,w0,python3action_facedetection_reduced_1.83,0.997085,1,2000.000000,1,COMPLETED_SUCCESSFULLY,391.077807,0.000000,391.077807,390.080722,390.080722,7988792356460.850586,22,-1.000000,""
16_updated,w0,python3action_videoprocessing_SampleVideo_50mb_taurus,0.997085,1,2000.000000,1,COMPLETED_SUCCESSFULLY,239.056547,154.250029,393.306576,238.059462,392.309491,2.543335,35,-1.000000,""
16,w0,python3action_videoprocessing_SampleVideo_50mb,0.000000,1,-1.000000,1,COMPLETED_SUCCESSFULLY,393.306591,0.000010,393.306601,393.306591,393.306601,39330660.100201,35,-1.000000,""
18_updated,w0,python3action_videoprocessing_SampleVideo_50mb_taurus,0.997085,1,2000.000000,1,COMPLETED_SUCCESSFULLY,239.056577,154.250029,393.306606,238.059492,392.309521,2.543335,36,-1.000000,""
18,w0,python3action_videoprocessing_SampleVideo_50mb,0.000000,1,-1.000000,1,COMPLETED_SUCCESSFULLY,393.306636,0.000010,393.306646,393.306636,393.306646,39330664.600402,36,-1.000000,""
49_updated,w0,python3action_videoprocessing_SampleVideo_50mb_taurus,0.997085,1,2000.000000,1,COMPLETED_SUCCESSFULLY,239.056622,154.250029,393.306651,238.059537,392.309566,2.543335,37,-1.000000,""
49,w0,python3action_videoprocessing_SampleVideo_50mb,0.000000,1,-1.000000,1,COMPLETED_SUCCESSFULLY,393.306681,0.000010,393.306691,393.306681,393.306691,39330669.100402,37,-1.000000,""
106_updated,w0,python3action_pyaes_4000_nova,0.997085,1,2000.000000,1,COMPLETED_SUCCESSFULLY,261.037642,139.600010,400.637652,260.040557,399.640567,2.862755,25,-1.000000,""
106,w0,python3action_pyaes_4000,0.000000,1,-1.000000,1,COMPLETED_SUCCESSFULLY,400.637667,0.000010,400.637677,400.637667,400.637677,40063767.724911,25,-1.000000,""
158_updated,w0,python3action_chameleon_3000_troll,0.997085,1,2000.000000,1,COMPLETED_SUCCESSFULLY,326.270015,94.000000,420.270015,325.272930,419.272930,4.460350,47,-1.000000,""
158,w0,python3action_chameleon_3000,0.000000,1,-1.000000,1,COMPLETED_SUCCESSFULLY,420.270030,0.000010,420.270040,420.270030,420.270040,42027004.001406,47,-1.000000,""
173_updated,w0,python3action_chameleon_3000_troll,0.997085,1,2000.000000,1,COMPLETED_SUCCESSFULLY,326.270075,94.000000,420.270075,325.272990,419.272990,4.460351,48,-1.000000,""
173,w0,python3action_chameleon_3000,0.000000,1,-1.000000,1,COMPLETED_SUCCESSFULLY,420.270090,0.000010,420.270100,420.270090,420.270100,42027010.002209,48,-1.000000,""
82_updated,w0,python3action_videoprocessing_SampleVideo_50mb_taurus,0.997085,1,2000.000000,1,COMPLETED_SUCCESSFULLY,267.292664,154.250029,421.542693,266.295579,420.545608,2.726389,38,-1.000000,""
82,w0,python3action_videoprocessing_SampleVideo_50mb,0.000000,1,-1.000000,1,COMPLETED_SUCCESSFULLY,421.542708,0.000010,421.542718,421.542708,421.542718,42154271.800201,38,-1.000000,""
86_updated,w0,python3action_videoprocessing_SampleVideo_50mb_taurus,0.997085,1,2000.000000,1,COMPLETED_SUCCESSFULLY,267.292739,154.250029,421.542768,266.295654,420.545683,2.726390,39,-1.000000,""
86,w0,python3action_videoprocessing_SampleVideo_50mb,0.000000,1,-1.000000,1,COMPLETED_SUCCESSFULLY,421.542783,0.000010,421.542793,421.542783,421.542793,42154279.300201,39,-1.000000,""
88_updated,w0,python3action_videoprocessing_SampleVideo_50mb_taurus,0.997085,1,2000.000000,1,COMPLETED_SUCCESSFULLY,267.292769,154.250029,421.542798,266.295684,420.545713,2.726390,40,-1.000000,""
88,w0,python3action_videoprocessing_SampleVideo_50mb,0.000000,1,-1.000000,1,COMPLETED_SUCCESSFULLY,421.542813,0.000010,421.542823,421.542813,421.542823,42154282.300201,40,-1.000000,""
153_updated,w0,python3action_linpack_6000_orion,0.997085,1,2000.000000,1,COMPLETED_SUCCESSFULLY,324.763728,106.000000,430.763728,323.766643,429.766643,4.054402,26,-1.000000,""
153,w0,python3action_linpack_6000,0.000000,1,-1.000000,1,COMPLETED_SUCCESSFULLY,430.763743,0.000010,430.763753,430.763743,430.763753,43076375.302008,26,-1.000000,""
154_updated,w0,python3action_linpack_6000_orion,0.997085,1,2000.000000,1,COMPLETED_SUCCESSFULLY,324.763788,106.000000,430.763788,323.766703,429.766703,4.054403,27,-1.000000,""
154,w0,python3action_linpack_6000,0.000000,1,-1.000000,1,COMPLETED_SUCCESSFULLY,430.763803,0.000010,430.763813,430.763803,430.763813,43076381.302812,27,-1.000000,""
160_updated,w0,python3action_linpack_6000_orion,0.997085,1,2000.000000,1,COMPLETED_SUCCESSFULLY,324.763848,106.000000,430.763848,323.766763,429.766763,4.054403,28,-1.000000,""
160,w0,python3action_linpack_6000,0.000000,1,-1.000000,1,COMPLETED_SUCCESSFULLY,430.763863,0.000010,430.763873,430.763863,430.763873,43076387.303615,28,-1.000000,""
111_updated,w0,python3action_pyaes_4000_nova,0.997085,1,2000.000000,1,COMPLETED_SUCCESSFULLY,296.262448,139.600010,435.862458,295.265363,434.865373,3.115081,2,-1.000000,""
111,w0,python3action_pyaes_4000,0.000000,1,-1.000000,1,COMPLETED_SUCCESSFULLY,435.862473,0.000010,435.862483,435.862473,435.862483,43586248.324108,2,-1.000000,""
117_updated,w0,python3action_pyaes_4000_nova,0.997085,1,2000.000000,1,COMPLETED_SUCCESSFULLY,296.262538,139.600010,435.862548,295.265453,434.865463,3.115082,3,-1.000000,""
117,w0,python3action_pyaes_4000,0.000000,1,-1.000000,1,COMPLETED_SUCCESSFULLY,435.862563,0.000010,435.862573,435.862563,435.862573,43586257.324309,3,-1.000000,""
124_updated,w0,python3action_pyaes_4000_nova,0.997085,1,2000.000000,1,COMPLETED_SUCCESSFULLY,320.602870,139.600010,460.202880,319.605785,459.205795,3.289440,5,-1.000000,""
124,w0,python3action_pyaes_4000,0.000000,1,-1.000000,1,COMPLETED_SUCCESSFULLY,460.202895,0.000010,460.202905,460.202895,460.202905,46020290.501406,5,-1.000000,""
159_updated,w0,python3action_pyaes_4000_nova,0.997085,1,2000.000000,1,COMPLETED_SUCCESSFULLY,320.602929,139.600010,460.202939,319.605844,459.205854,3.289440,6,-1.000000,""
159,w0,python3action_pyaes_4000,0.000000,1,-1.000000,1,COMPLETED_SUCCESSFULLY,460.202954,0.000010,460.202964,460.202954,460.202964,46020296.401607,6,-1.000000,""
190_updated,w0,python3action_pyaes_4000_nova,0.997085,1,2000.000000,1,COMPLETED_SUCCESSFULLY,320.603005,139.600010,460.203015,319.605920,459.205930,3.289441,7,-1.000000,""
190,w0,python3action_pyaes_4000,0.000000,1,-1.000000,1,COMPLETED_SUCCESSFULLY,460.203030,0.000010,460.203040,460.203030,460.203040,46020304.001005,7,-1.000000,""
90_updated,w0,python3action_videoprocessing_SampleVideo_50mb_taurus,0.997085,1,2000.000000,1,COMPLETED_SUCCESSFULLY,309.456781,154.250029,463.706810,308.459696,462.709725,2.999738,41,-1.000000,""
90,w0,python3action_videoprocessing_SampleVideo_50mb,0.000000,1,-1.000000,1,COMPLETED_SUCCESSFULLY,463.706825,0.000010,463.706835,463.706825,463.706835,46370683.500201,41,-1.000000,""
118_updated,w0,python3action_pyaes_4000_nova,0.997085,1,2000.000000,1,COMPLETED_SUCCESSFULLY,327.302539,139.600010,466.902549,326.305454,465.905464,3.337431,4,-1.000000,""
118,w0,python3action_pyaes_4000,0.000000,1,-1.000000,1,COMPLETED_SUCCESSFULLY,466.902564,0.000010,466.902574,466.902564,466.902574,46690257.400201,4,-1.000000,""
186_updated,w0,python3action_chameleon_3000_troll,0.997085,1,2000.000000,1,COMPLETED_SUCCESSFULLY,388.269925,94.000000,482.269925,387.272840,481.272840,5.119924,44,-1.000000,""
186,w0,python3action_chameleon_3000,0.000000,1,-1.000000,1,COMPLETED_SUCCESSFULLY,482.269940,0.000010,482.269950,482.269940,482.269950,48226995.001607,44,-1.000000,""
199_updated,w0,python3action_chameleon_3000_troll,0.997085,1,2000.000000,1,COMPLETED_SUCCESSFULLY,388.269985,94.000000,482.269985,387.272900,481.272900,5.119924,46,-1.000000,""
199,w0,python3action_chameleon_3000,0.000000,1,-1.000000,1,COMPLETED_SUCCESSFULLY,482.270000,0.000010,482.270010,482.270000,482.270010,48227001.002009,46,-1.000000,""
35_updated,w0,python3action_facedetection_SampleVideo_30mb_nova,0.997085,1,2000.000000,1,COMPLETED_SUCCESSFULLY,351.102763,160.399990,511.502753,350.105678,510.505668,3.182704,8,-1.000000,""
35,w0,python3action_facedetection_SampleVideo_30mb,0.000000,1,-1.000000,1,COMPLETED_SUCCESSFULLY,511.502768,0.000010,511.502778,511.502768,511.502778,51150277.823506,8,-1.000000,""
47_updated,w0,python3action_facedetection_SampleVideo_30mb_nova,0.997085,1,2000.000000,1,COMPLETED_SUCCESSFULLY,352.182553,160.399990,512.582544,351.185468,511.585459,3.189436,9,-1.000000,""
47,w0,python3action_facedetection_SampleVideo_30mb,0.000000,1,-1.000000,1,COMPLETED_SUCCESSFULLY,512.582559,0.000010,512.582569,512.582559,512.582569,51258256.900201,9,-1.000000,""
54_updated,w0,python3action_facedetection_SampleVideo_30mb_nova,0.997085,1,2000.000000,1,COMPLETED_SUCCESSFULLY,352.182643,160.399990,512.582634,351.185558,511.585549,3.189436,10,-1.000000,""
54,w0,python3action_facedetection_SampleVideo_30mb,0.000000,1,-1.000000,1,COMPLETED_SUCCESSFULLY,512.582649,0.000010,512.582659,512.582649,512.582659,51258265.900201,10,-1.000000,""
67_updated,w0,python3action_facedetection_SampleVideo_30mb_nova,0.997085,1,2000.000000,1,COMPLETED_SUCCESSFULLY,352.182718,160.399990,512.582709,351.185633,511.585624,3.189437,11,-1.000000,""
67,w0,python3action_facedetection_SampleVideo_30mb,0.000000,1,-1.000000,1,COMPLETED_SUCCESSFULLY,512.582724,0.000010,512.582734,512.582724,512.582734,51258273.400201,11,-1.000000,""
69_updated,w0,python3action_facedetection_SampleVideo_30mb_nova,0.997085,1,2000.000000,1,COMPLETED_SUCCESSFULLY,352.182793,160.399990,512.582784,351.185708,511.585699,3.189437,13,-1.000000,""
69,w0,python3action_facedetection_SampleVideo_30mb,0.000000,1,-1.000000,1,COMPLETED_SUCCESSFULLY,512.582799,0.000010,512.582809,512.582799,512.582809,51258280.900201,13,-1.000000,""
74_updated,w0,python3action_facedetection_SampleVideo_30mb_nova,0.997085,1,2000.000000,1,COMPLETED_SUCCESSFULLY,352.182853,160.399990,512.582844,351.185768,511.585759,3.189438,14,-1.000000,""
74,w0,python3action_facedetection_SampleVideo_30mb,0.000000,1,-1.000000,1,COMPLETED_SUCCESSFULLY,512.582859,0.000010,512.582869,512.582859,512.582869,51258286.900201,14,-1.000000,""
91_updated,w0,python3action_facedetection_SampleVideo_30mb_nova,0.997085,1,2000.000000,1,COMPLETED_SUCCESSFULLY,352.182883,160.399990,512.582874,351.185798,511.585789,3.189438,15,-1.000000,""
91,w0,python3action_facedetection_SampleVideo_30mb,0.000000,1,-1.000000,1,COMPLETED_SUCCESSFULLY,512.582889,0.000010,512.582899,512.582889,512.582899,51258289.900201,15,-1.000000,""
114_updated,w0,python3action_facedetection_SampleVideo_30mb_nova,0.997085,1,2000.000000,1,COMPLETED_SUCCESSFULLY,357.542394,160.399990,517.942384,356.545309,516.945299,3.222851,16,-1.000000,""
114,w0,python3action_facedetection_SampleVideo_30mb,0.000000,1,-1.000000,1,COMPLETED_SUCCESSFULLY,517.942399,0.000010,517.942409,517.942399,517.942409,51794240.947413,16,-1.000000,""
121_updated,w0,python3action_facedetection_SampleVideo_30mb_nova,0.997085,1,2000.000000,1,COMPLETED_SUCCESSFULLY,357.542469,160.399990,517.942459,356.545384,516.945374,3.222852,17,-1.000000,""
121,w0,python3action_facedetection_SampleVideo_30mb,0.000000,1,-1.000000,1,COMPLETED_SUCCESSFULLY,517.942474,0.000010,517.942484,517.942474,517.942484,51794248.448417,17,-1.000000,""
96_updated,w0,python3action_videoprocessing_SampleVideo_50mb_taurus,0.997085,1,2000.000000,1,COMPLETED_SUCCESSFULLY,373.656293,154.250029,527.906322,372.659208,526.909237,3.415943,29,-1.000000,""
96,w0,python3action_videoprocessing_SampleVideo_50mb,0.000000,1,-1.000000,1,COMPLETED_SUCCESSFULLY,527.906337,0.000010,527.906347,527.906337,527.906347,52790634.700201,29,-1.000000,""
115_updated,w0,python3action_videoprocessing_SampleVideo_50mb_taurus,0.997085,1,2000.000000,1,COMPLETED_SUCCESSFULLY,373.656383,154.250029,527.906412,372.659298,526.909327,3.415943,30,-1.000000,""
115,w0,python3action_videoprocessing_SampleVideo_50mb,0.000000,1,-1.000000,1,COMPLETED_SUCCESSFULLY,527.906427,0.000010,527.906437,527.906427,527.906437,52790643.700201,30,-1.000000,""
151_updated,w0,python3action_videoprocessing_SampleVideo_50mb_taurus,0.997085,1,2000.000000,1,COMPLETED_SUCCESSFULLY,373.656473,154.250029,527.906502,372.659388,526.909417,3.415944,31,-1.000000,""
151,w0,python3action_videoprocessing_SampleVideo_50mb,0.000000,1,-1.000000,1,COMPLETED_SUCCESSFULLY,527.906517,0.000010,527.906527,527.906517,527.906527,52790652.700201,31,-1.000000,""
161_updated,w0,python3action_videoprocessing_SampleVideo_50mb_taurus,0.997085,1,2000.000000,1,COMPLETED_SUCCESSFULLY,373.656548,154.250029,527.906577,372.659463,526.909492,3.415944,32,-1.000000,""
161,w0,python3action_videoprocessing_SampleVideo_50mb,0.000000,1,-1.000000,1,COMPLETED_SUCCESSFULLY,527.906592,0.000010,527.906602,527.906592,527.906602,52790660.200201,32,-1.000000,""
166_updated,w0,python3action_videoprocessing_SampleVideo_50mb_taurus,0.997085,1,2000.000000,1,COMPLETED_SUCCESSFULLY,373.656623,154.250029,527.906652,372.659538,526.909567,3.415945,33,-1.000000,""
166,w0,python3action_videoprocessing_SampleVideo_50mb,0.000000,1,-1.000000,1,COMPLETED_SUCCESSFULLY,527.906667,0.000010,527.906677,527.906667,527.906677,52790667.700201,33,-1.000000,""
194_updated,w0,python3action_linpack_6000_orion,0.997085,1,2000.000000,1,COMPLETED_SUCCESSFULLY,430.763773,106.000000,536.763773,429.766688,535.766688,5.054403,26,-1.000000,""
194,w0,python3action_linpack_6000,0.000000,1,-1.000000,1,COMPLETED_SUCCESSFULLY,536.763788,0.000010,536.763798,536.763788,536.763798,53676379.802611,26,-1.000000,""
196_updated,w0,python3action_linpack_6000_orion,0.997085,1,2000.000000,1,COMPLETED_SUCCESSFULLY,430.763833,106.000000,536.763833,429.766748,535.766748,5.054403,27,-1.000000,""
196,w0,python3action_linpack_6000,0.000000,1,-1.000000,1,COMPLETED_SUCCESSFULLY,536.763848,0.000010,536.763858,536.763848,536.763858,53676385.803414,27,-1.000000,""
145_updated,w0,python3action_facedetection_SampleVideo_30mb_nova,0.997085,1,2000.000000,1,COMPLETED_SUCCESSFULLY,384.742529,160.399990,545.142519,383.745444,544.145434,3.392428,18,-1.000000,""
145,w0,python3action_facedetection_SampleVideo_30mb,0.000000,1,-1.000000,1,COMPLETED_SUCCESSFULLY,545.142534,0.000010,545.142544,545.142534,545.142544,54514254.447413,18,-1.000000,""
150_updated,w0,python3action_facedetection_SampleVideo_30mb_nova,0.997085,1,2000.000000,1,COMPLETED_SUCCESSFULLY,384.742604,160.399990,545.142594,383.745519,544.145509,3.392429,19,-1.000000,""
150,w0,python3action_facedetection_SampleVideo_30mb,0.000000,1,-1.000000,1,COMPLETED_SUCCESSFULLY,545.142609,0.000010,545.142619,545.142609,545.142619,54514261.948417,19,-1.000000,""
174_updated,w0,python3action_facedetection_SampleVideo_30mb_nova,0.997085,1,2000.000000,1,COMPLETED_SUCCESSFULLY,384.742709,160.399990,545.142699,383.745624,544.145614,3.392429,20,-1.000000,""
174,w0,python3action_facedetection_SampleVideo_30mb,0.000000,1,-1.000000,1,COMPLETED_SUCCESSFULLY,545.142714,0.000010,545.142724,545.142714,545.142724,54514272.447614,20,-1.000000,""
179_updated,w0,python3action_videoprocessing_SampleVideo_50mb_taurus,0.997085,1,2000.000000,1,COMPLETED_SUCCESSFULLY,393.306621,154.250029,547.556650,392.309536,546.559565,3.543335,35,-1.000000,""
179,w0,python3action_videoprocessing_SampleVideo_50mb,0.000000,1,-1.000000,1,COMPLETED_SUCCESSFULLY,547.556665,0.000010,547.556675,547.556665,547.556675,54755667.500201,35,-1.000000,""
191_updated,w0,python3action_videoprocessing_SampleVideo_50mb_taurus,0.997085,1,2000.000000,1,COMPLETED_SUCCESSFULLY,393.306666,154.250029,547.556695,392.309581,546.559610,3.543336,36,-1.000000,""
191,w0,python3action_videoprocessing_SampleVideo_50mb,0.000000,1,-1.000000,1,COMPLETED_SUCCESSFULLY,547.556710,0.000010,547.556720,547.556710,547.556720,54755672.000201,36,-1.000000,""
193_updated,w0,python3action_videoprocessing_SampleVideo_50mb_taurus,0.997085,1,2000.000000,1,COMPLETED_SUCCESSFULLY,393.306711,154.250029,547.556740,392.309626,546.559655,3.543336,37,-1.000000,""
193,w0,python3action_videoprocessing_SampleVideo_50mb,0.000000,1,-1.000000,1,COMPLETED_SUCCESSFULLY,547.556755,0.000010,547.556765,547.556755,547.556765,54755676.500201,37,-1.000000,""
180_updated,w0,python3action_facedetection_SampleVideo_30mb_nova,0.997085,1,2000.000000,1,COMPLETED_SUCCESSFULLY,391.077747,160.399990,551.477737,390.080662,550.480652,3.431924,21,-1.000000,""
180,w0,python3action_facedetection_SampleVideo_30mb,0.000000,1,-1.000000,1,COMPLETED_SUCCESSFULLY,551.477752,0.000010,551.477762,551.477752,551.477762,55147776.224973,21,-1.000000,""
184_updated,w0,python3action_facedetection_SampleVideo_30mb_nova,0.997085,1,2000.000000,1,COMPLETED_SUCCESSFULLY,391.077837,160.399990,551.477827,390.080752,550.480742,3.431925,22,-1.000000,""
184,w0,python3action_facedetection_SampleVideo_30mb,0.000000,1,-1.000000,1,COMPLETED_SUCCESSFULLY,551.477842,0.000010,551.477852,551.477842,551.477852,55147785.226178,22,-1.000000,""
