job_id,workload_name,profile,submission_time,requested_number_of_resources,requested_time,success,final_state,starting_time,execution_time,finish_time,waiting_time,turnaround_time,stretch,allocated_resources,consumed_energy,metadata
python3action_chameleon_job11_14,w0,python3action_chameleon,0.997085,1,2000.000000,1,COMPLETED_SUCCESSFULLY,1.002310,0.867914,1.870224,0.005225,0.873139,1.006020,19,-1.000000,""
python3action_chameleon_job87_15,w0,python3action_chameleon,0.997085,1,2000.000000,1,COMPLETED_SUCCESSFULLY,1.002325,0.867914,1.870239,0.005240,0.873154,1.006038,20,-1.000000,""
python3action_linpack_job0_0,w0,python3action_linpack,0.997085,1,2000.000000,1,COMPLETED_SUCCESSFULLY,1.002100,2.439945,3.442045,0.005015,2.444960,1.002055,2,-1.000000,""
python3action_linpack_job6_1,w0,python3action_linpack,0.997085,1,2000.000000,1,COMPLETED_SUCCESSFULLY,1.002115,2.439945,3.442060,0.005030,2.444975,1.002062,3,-1.000000,""
python3action_linpack_job18_2,w0,python3action_linpack,0.997085,1,2000.000000,1,COMPLETED_SUCCESSFULLY,1.002130,2.439945,3.442075,0.005045,2.444990,1.002068,4,-1.000000,""
python3action_linpack_job28_3,w0,python3action_linpack,0.997085,1,2000.000000,1,COMPLETED_SUCCESSFULLY,1.002145,2.439945,3.442090,0.005060,2.445005,1.002074,5,-1.000000,""
python3action_linpack_job41_4,w0,python3action_linpack,0.997085,1,2000.000000,1,COMPLETED_SUCCESSFULLY,1.002160,2.439945,3.442105,0.005075,2.445020,1.002080,6,-1.000000,""
python3action_linpack_job47_5,w0,python3action_linpack,0.997085,1,2000.000000,1,COMPLETED_SUCCESSFULLY,1.002175,2.439945,3.442120,0.005090,2.445035,1.002086,7,-1.000000,""
python3action_linpack_job53_16,w0,python3action_linpack,0.997085,1,2000.000000,1,COMPLETED_SUCCESSFULLY,1.002340,2.439945,3.442285,0.005255,2.445200,1.002154,25,-1.000000,""
python3action_linpack_job58_17,w0,python3action_linpack,0.997085,1,2000.000000,1,COMPLETED_SUCCESSFULLY,1.002355,2.439945,3.442300,0.005270,2.445215,1.002160,26,-1.000000,""
python3action_linpack_job65_18,w0,python3action_linpack,0.997085,1,2000.000000,1,COMPLETED_SUCCESSFULLY,1.002370,2.439945,3.442315,0.005285,2.445230,1.002166,27,-1.000000,""
python3action_linpack_job83_19,w0,python3action_linpack,0.997085,1,2000.000000,1,COMPLETED_SUCCESSFULLY,1.002385,2.439945,3.442330,0.005300,2.445245,1.002172,28,-1.000000,""
python3action_linpack_job131_20,w0,python3action_linpack,0.997085,1,2000.000000,1,COMPLETED_SUCCESSFULLY,1.002400,2.439945,3.442345,0.005315,2.445260,1.002178,29,-1.000000,""
0_updated,w0,python3action_linpack_5000_nova,0.997085,1,2000.000000,1,COMPLETED_SUCCESSFULLY,3.442060,34.600010,38.042070,2.444975,37.044985,1.070664,2,-1.000000,""
0,w0,python3action_linpack_5000,0.000000,1,-1.000000,1,COMPLETED_SUCCESSFULLY,38.042085,0.000010,38.042095,38.042085,38.042095,3804209.506879,2,-1.000000,""
6_updated,w0,python3action_linpack_5000_nova,0.997085,1,2000.000000,1,COMPLETED_SUCCESSFULLY,3.442090,34.600010,38.042100,2.445005,37.045015,1.070665,3,-1.000000,""
18_updated,w0,python3action_linpack_5000_nova,0.997085,1,2000.000000,1,COMPLETED_SUCCESSFULLY,3.442120,34.600010,38.042130,2.445035,37.045045,1.070666,4,-1.000000,""
6,w0,python3action_linpack_5000,0.000000,1,-1.000000,1,COMPLETED_SUCCESSFULLY,38.042130,0.000010,38.042140,38.042130,38.042140,3804214.007481,3,-1.000000,""
28_updated,w0,python3action_linpack_5000_nova,0.997085,1,2000.000000,1,COMPLETED_SUCCESSFULLY,3.442135,34.600010,38.042145,2.445050,37.045060,1.070666,5,-1.000000,""
18,w0,python3action_linpack_5000,0.000000,1,-1.000000,1,COMPLETED_SUCCESSFULLY,38.042160,0.000010,38.042170,38.042160,38.042170,3804217.007883,4,-1.000000,""
41_updated,w0,python3action_linpack_5000_nova,0.997085,1,2000.000000,1,COMPLETED_SUCCESSFULLY,3.442165,34.600010,38.042175,2.445080,37.045090,1.070667,6,-1.000000,""
47_updated,w0,python3action_linpack_5000_nova,0.997085,1,2000.000000,1,COMPLETED_SUCCESSFULLY,3.442180,34.600010,38.042190,2.445095,37.045105,1.070667,7,-1.000000,""
28,w0,python3action_linpack_5000,0.000000,1,-1.000000,1,COMPLETED_SUCCESSFULLY,38.042190,0.000010,38.042200,38.042190,38.042200,3804220.008285,5,-1.000000,""
41,w0,python3action_linpack_5000,0.000000,1,-1.000000,1,COMPLETED_SUCCESSFULLY,38.042235,0.000010,38.042245,38.042235,38.042245,3804224.508887,6,-1.000000,""
47,w0,python3action_linpack_5000,0.000000,1,-1.000000,1,COMPLETED_SUCCESSFULLY,38.042250,0.000010,38.042260,38.042250,38.042260,3804226.009088,7,-1.000000,""
53_updated,w0,python3action_linpack_5000_nova,0.997085,1,2000.000000,1,COMPLETED_SUCCESSFULLY,3.442300,34.600010,38.042310,2.445215,37.045225,1.070671,25,-1.000000,""
58_updated,w0,python3action_linpack_5000_nova,0.997085,1,2000.000000,1,COMPLETED_SUCCESSFULLY,3.442330,34.600010,38.042340,2.445245,37.045255,1.070672,26,-1.000000,""
53,w0,python3action_linpack_5000,0.000000,1,-1.000000,1,COMPLETED_SUCCESSFULLY,38.042340,0.000010,38.042350,38.042340,38.042350,3804235.010293,25,-1.000000,""
65_updated,w0,python3action_linpack_5000_nova,0.997085,1,2000.000000,1,COMPLETED_SUCCESSFULLY,3.442360,34.600010,38.042370,2.445275,37.045285,1.070673,27,-1.000000,""
58,w0,python3action_linpack_5000,0.000000,1,-1.000000,1,COMPLETED_SUCCESSFULLY,38.042370,0.000010,38.042380,38.042370,38.042380,3804238.010694,26,-1.000000,""
83_updated,w0,python3action_linpack_5000_nova,0.997085,1,2000.000000,1,COMPLETED_SUCCESSFULLY,3.442375,34.600010,38.042385,2.445290,37.045300,1.070673,28,-1.000000,""
131_updated,w0,python3action_linpack_5000_nova,0.997085,1,2000.000000,1,COMPLETED_SUCCESSFULLY,3.442405,34.600010,38.042415,2.445320,37.045330,1.070674,29,-1.000000,""
65,w0,python3action_linpack_5000,0.000000,1,-1.000000,1,COMPLETED_SUCCESSFULLY,38.042415,0.000010,38.042425,38.042415,38.042425,3804242.511297,27,-1.000000,""
83,w0,python3action_linpack_5000,0.000000,1,-1.000000,1,COMPLETED_SUCCESSFULLY,38.042445,0.000010,38.042455,38.042445,38.042455,3804245.511698,28,-1.000000,""
131,w0,python3action_linpack_5000,0.000000,1,-1.000000,1,COMPLETED_SUCCESSFULLY,38.042475,0.000010,38.042485,38.042475,38.042485,3804248.512100,29,-1.000000,""
11_updated,w0,python3action_chameleon_2000_troll,0.997085,1,2000.000000,1,COMPLETED_SUCCESSFULLY,1.870239,39.500010,41.370249,0.873154,40.373164,1.022105,19,-1.000000,""
11,w0,python3action_chameleon_2000,0.000000,1,-1.000000,1,COMPLETED_SUCCESSFULLY,41.370264,0.000010,41.370274,41.370264,41.370274,4137027.400201,19,-1.000000,""
87_updated,w0,python3action_chameleon_2000_troll,0.997085,1,2000.000000,1,COMPLETED_SUCCESSFULLY,1.870269,39.500010,41.370279,0.873184,40.373194,1.022106,20,-1.000000,""
87,w0,python3action_chameleon_2000,0.000000,1,-1.000000,1,COMPLETED_SUCCESSFULLY,41.370309,0.000010,41.370319,41.370309,41.370319,4137031.900402,20,-1.000000,""
python3action_modeltraining_job9_5,w0,python3action_modeltraining,0.997085,1,2000.000000,1,COMPLETED_SUCCESSFULLY,38.042295,30.499683,68.541978,37.045210,67.544893,2.214610,6,-1.000000,""
python3action_modeltraining_job50_6,w0,python3action_modeltraining,0.997085,1,2000.000000,1,COMPLETED_SUCCESSFULLY,38.042310,30.499683,68.541993,37.045225,67.544908,2.214610,7,-1.000000,""
python3action_modeltraining_job68_17,w0,python3action_modeltraining,0.997085,1,2000.000000,1,COMPLETED_SUCCESSFULLY,38.042385,30.499683,68.542068,37.045300,67.544983,2.214613,25,-1.000000,""
python3action_modeltraining_job86_18,w0,python3action_modeltraining,0.997085,1,2000.000000,1,COMPLETED_SUCCESSFULLY,38.042430,30.499683,68.542113,37.045345,67.545028,2.214614,26,-1.000000,""
python3action_modeltraining_job89_19,w0,python3action_modeltraining,0.997085,1,2000.000000,1,COMPLETED_SUCCESSFULLY,38.042490,30.499683,68.542173,37.045405,67.545088,2.214616,27,-1.000000,""
python3action_modeltraining_job108_20,w0,python3action_modeltraining,0.997085,1,2000.000000,1,COMPLETED_SUCCESSFULLY,38.042505,30.499683,68.542188,37.045420,67.545103,2.214617,28,-1.000000,""
python3action_modeltraining_job147_21,w0,python3action_modeltraining,0.997085,1,2000.000000,1,COMPLETED_SUCCESSFULLY,38.042535,30.499683,68.542218,37.045450,67.545133,2.214618,29,-1.000000,""
143_updated,w0,python3action_linpack_5000_nova,0.997085,1,2000.000000,1,COMPLETED_SUCCESSFULLY,38.042115,34.600010,72.642125,37.045030,71.645040,2.070665,2,-1.000000,""
143,w0,python3action_linpack_5000,0.000000,1,-1.000000,1,COMPLETED_SUCCESSFULLY,72.642140,0.000010,72.642150,72.642140,72.642150,7264215.000201,2,-1.000000,""
155_updated,w0,python3action_linpack_5000_nova,0.997085,1,2000.000000,1,COMPLETED_SUCCESSFULLY,38.042175,34.600010,72.642185,37.045090,71.645100,2.070667,3,-1.000000,""
155,w0,python3action_linpack_5000,0.000000,1,-1.000000,1,COMPLETED_SUCCESSFULLY,72.642200,0.000010,72.642210,72.642200,72.642210,7264221.000201,3,-1.000000,""
165_updated,w0,python3action_linpack_5000_nova,0.997085,1,2000.000000,1,COMPLETED_SUCCESSFULLY,38.042220,34.600010,72.642230,37.045135,71.645145,2.070668,4,-1.000000,""
165,w0,python3action_linpack_5000,0.000000,1,-1.000000,1,COMPLETED_SUCCESSFULLY,72.642260,0.000010,72.642270,72.642260,72.642270,7264227.000201,4,-1.000000,""
180_updated,w0,python3action_linpack_5000_nova,0.997085,1,2000.000000,1,COMPLETED_SUCCESSFULLY,38.042265,34.600010,72.642275,37.045180,71.645190,2.070670,5,-1.000000,""
180,w0,python3action_linpack_5000,0.000000,1,-1.000000,1,COMPLETED_SUCCESSFULLY,72.642305,0.000010,72.642315,72.642305,72.642315,7264231.500402,5,-1.000000,""
python3action_image_processing_job79_6,w0,python3action_image_processing,0.997085,1,2000.000000,1,COMPLETED_SUCCESSFULLY,1.002190,72.012455,73.014645,0.005105,72.017560,1.000071,8,-1.000000,""
python3action_image_processing_job81_7,w0,python3action_image_processing,0.997085,1,2000.000000,1,COMPLETED_SUCCESSFULLY,1.002205,72.012455,73.014660,0.005120,72.017575,1.000071,9,-1.000000,""
python3action_image_processing_job5_8,w0,python3action_image_processing,0.997085,1,2000.000000,1,COMPLETED_SUCCESSFULLY,1.002220,72.012455,73.014675,0.005135,72.017590,1.000071,10,-1.000000,""
python3action_image_processing_job14_9,w0,python3action_image_processing,0.997085,1,2000.000000,1,COMPLETED_SUCCESSFULLY,1.002235,72.012455,73.014690,0.005150,72.017605,1.000072,11,-1.000000,""
python3action_image_processing_job76_10,w0,python3action_image_processing,0.997085,1,2000.000000,1,COMPLETED_SUCCESSFULLY,1.002250,72.012455,73.014705,0.005165,72.017620,1.000072,13,-1.000000,""
python3action_image_processing_job88_11,w0,python3action_image_processing,0.997085,1,2000.000000,1,COMPLETED_SUCCESSFULLY,1.002265,72.012455,73.014720,0.005180,72.017635,1.000072,14,-1.000000,""
python3action_image_processing_job95_12,w0,python3action_image_processing,0.997085,1,2000.000000,1,COMPLETED_SUCCESSFULLY,1.002280,72.012455,73.014735,0.005195,72.017650,1.000072,15,-1.000000,""
python3action_image_processing_job127_13,w0,python3action_image_processing,0.997085,1,2000.000000,1,COMPLETED_SUCCESSFULLY,1.002295,72.012455,73.014750,0.005210,72.017665,1.000072,16,-1.000000,""
90_updated,w0,python3action_chameleon_2000_troll,0.997085,1,2000.000000,1,COMPLETED_SUCCESSFULLY,41.370294,39.500010,80.870304,40.373209,79.873219,2.022106,19,-1.000000,""
90,w0,python3action_chameleon_2000,0.000000,1,-1.000000,1,COMPLETED_SUCCESSFULLY,80.870319,0.000010,80.870329,80.870319,80.870329,8087032.900201,19,-1.000000,""
119_updated,w0,python3action_chameleon_2000_troll,0.997085,1,2000.000000,1,COMPLETED_SUCCESSFULLY,41.370339,39.500010,80.870349,40.373254,79.873264,2.022107,20,-1.000000,""
119,w0,python3action_chameleon_2000,0.000000,1,-1.000000,1,COMPLETED_SUCCESSFULLY,80.870379,0.000010,80.870389,80.870379,80.870389,8087038.900201,20,-1.000000,""
python3action_modeltraining_job151_1,w0,python3action_modeltraining,0.997085,1,2000.000000,1,COMPLETED_SUCCESSFULLY,72.642170,30.499683,103.141853,71.645085,102.144768,3.349044,2,-1.000000,""
python3action_modeltraining_job168_2,w0,python3action_modeltraining,0.997085,1,2000.000000,1,COMPLETED_SUCCESSFULLY,72.642230,30.499683,103.141912,71.645145,102.144827,3.349046,3,-1.000000,""
python3action_modeltraining_job186_3,w0,python3action_modeltraining,0.997085,1,2000.000000,1,COMPLETED_SUCCESSFULLY,72.642290,30.499683,103.141973,71.645205,102.144888,3.349048,4,-1.000000,""
python3action_modeltraining_job189_4,w0,python3action_modeltraining,0.997085,1,2000.000000,1,COMPLETED_SUCCESSFULLY,72.642335,30.499683,103.142018,71.645250,102.144933,3.349049,5,-1.000000,""
5_updated,w0,python3action_imageprocessing_SampleImage_40mb_taurus,0.997085,1,2000.000000,1,COMPLETED_SUCCESSFULLY,73.014705,32.600046,105.614751,72.017620,104.617666,3.209126,10,-1.000000,""
5,w0,python3action_imageprocessing_SampleImage_40mb,0.000000,1,-1.000000,1,COMPLETED_SUCCESSFULLY,105.614766,0.000010,105.614776,105.614766,105.614776,10561477.646568,10,-1.000000,""
14_updated,w0,python3action_imageprocessing_SampleImage_40mb_taurus,0.997085,1,2000.000000,1,COMPLETED_SUCCESSFULLY,73.014735,32.600046,105.614781,72.017650,104.617696,3.209127,11,-1.000000,""
76_updated,w0,python3action_imageprocessing_SampleImage_40mb_taurus,0.997085,1,2000.000000,1,COMPLETED_SUCCESSFULLY,73.014750,32.600046,105.614796,72.017665,104.617711,3.209128,13,-1.000000,""
88_updated,w0,python3action_imageprocessing_SampleImage_40mb_taurus,0.997085,1,2000.000000,1,COMPLETED_SUCCESSFULLY,73.014765,32.600046,105.614811,72.017680,104.617726,3.209128,14,-1.000000,""
14,w0,python3action_imageprocessing_SampleImage_40mb,0.000000,1,-1.000000,1,COMPLETED_SUCCESSFULLY,105.614811,0.000010,105.614821,105.614811,105.614821,10561482.147171,11,-1.000000,""
95_updated,w0,python3action_imageprocessing_SampleImage_40mb_taurus,0.997085,1,2000.000000,1,COMPLETED_SUCCESSFULLY,73.014795,32.600046,105.614841,72.017710,104.617756,3.209129,15,-1.000000,""
76,w0,python3action_imageprocessing_SampleImage_40mb,0.000000,1,-1.000000,1,COMPLETED_SUCCESSFULLY,105.614841,0.000010,105.614851,105.614841,105.614851,10561485.147572,13,-1.000000,""
127_updated,w0,python3action_imageprocessing_SampleImage_40mb_taurus,0.997085,1,2000.000000,1,COMPLETED_SUCCESSFULLY,73.014810,32.600046,105.614856,72.017725,104.617771,3.209130,16,-1.000000,""
88,w0,python3action_imageprocessing_SampleImage_40mb,0.000000,1,-1.000000,1,COMPLETED_SUCCESSFULLY,105.614856,0.000010,105.614866,105.614856,105.614866,10561486.647773,14,-1.000000,""
95,w0,python3action_imageprocessing_SampleImage_40mb,0.000000,1,-1.000000,1,COMPLETED_SUCCESSFULLY,105.614901,0.000010,105.614911,105.614901,105.614911,10561491.148376,15,-1.000000,""
127,w0,python3action_imageprocessing_SampleImage_40mb,0.000000,1,-1.000000,1,COMPLETED_SUCCESSFULLY,105.614931,0.000010,105.614941,105.614931,105.614941,10561494.148777,16,-1.000000,""
9_updated,w0,python3action_modeltraining_reviews50mb_nova,0.997085,1,2000.000000,1,COMPLETED_SUCCESSFULLY,68.541993,42.399990,110.941983,67.544908,109.944898,2.593041,6,-1.000000,""
9,w0,python3action_modeltraining_reviews50mb,0.000000,1,-1.000000,1,COMPLETED_SUCCESSFULLY,110.941998,0.000010,110.942008,110.941998,110.942008,11094200.800201,6,-1.000000,""
50_updated,w0,python3action_modeltraining_reviews50mb_nova,0.997085,1,2000.000000,1,COMPLETED_SUCCESSFULLY,68.542023,42.399990,110.942013,67.544938,109.944928,2.593041,7,-1.000000,""
50,w0,python3action_modeltraining_reviews50mb,0.000000,1,-1.000000,1,COMPLETED_SUCCESSFULLY,110.942058,0.000010,110.942068,110.942058,110.942068,11094206.801004,7,-1.000000,""
68_updated,w0,python3action_modeltraining_reviews50mb_nova,0.997085,1,2000.000000,1,COMPLETED_SUCCESSFULLY,68.542083,42.399990,110.942073,67.544998,109.944988,2.593043,25,-1.000000,""
68,w0,python3action_modeltraining_reviews50mb,0.000000,1,-1.000000,1,COMPLETED_SUCCESSFULLY,110.942118,0.000010,110.942128,110.942118,110.942128,11094212.801807,25,-1.000000,""
86_updated,w0,python3action_modeltraining_reviews50mb_nova,0.997085,1,2000.000000,1,COMPLETED_SUCCESSFULLY,68.542128,42.399990,110.942118,67.545043,109.945033,2.593044,26,-1.000000,""
86,w0,python3action_modeltraining_reviews50mb,0.000000,1,-1.000000,1,COMPLETED_SUCCESSFULLY,110.942163,0.000010,110.942173,110.942163,110.942173,11094217.302410,26,-1.000000,""
89_updated,w0,python3action_modeltraining_reviews50mb_nova,0.997085,1,2000.000000,1,COMPLETED_SUCCESSFULLY,68.542188,42.399990,110.942178,67.545103,109.945093,2.593045,27,-1.000000,""
108_updated,w0,python3action_modeltraining_reviews50mb_nova,0.997085,1,2000.000000,1,COMPLETED_SUCCESSFULLY,68.542218,42.399990,110.942208,67.545133,109.945123,2.593046,28,-1.000000,""
89,w0,python3action_modeltraining_reviews50mb,0.000000,1,-1.000000,1,COMPLETED_SUCCESSFULLY,110.942208,0.000010,110.942218,110.942208,110.942218,11094221.787275,27,-1.000000,""
108,w0,python3action_modeltraining_reviews50mb,0.000000,1,-1.000000,1,COMPLETED_SUCCESSFULLY,110.942238,0.000010,110.942248,110.942238,110.942248,11094224.800201,28,-1.000000,""
147_updated,w0,python3action_modeltraining_reviews50mb_nova,0.997085,1,2000.000000,1,COMPLETED_SUCCESSFULLY,68.542248,42.399990,110.942238,67.545163,109.945153,2.593047,29,-1.000000,""
147,w0,python3action_modeltraining_reviews50mb,0.000000,1,-1.000000,1,COMPLETED_SUCCESSFULLY,110.942298,0.000010,110.942308,110.942298,110.942308,11094230.801004,29,-1.000000,""
python3action_floatoperation_job57_6,w0,python3action_floatoperation,0.997085,1,2000.000000,1,COMPLETED_SUCCESSFULLY,110.942088,2.439945,113.382033,109.945003,112.384948,46.060438,7,-1.000000,""
python3action_floatoperation_job116_17,w0,python3action_floatoperation,0.997085,1,2000.000000,1,COMPLETED_SUCCESSFULLY,110.942148,2.439945,113.382093,109.945063,112.385008,46.060462,25,-1.000000,""
python3action_floatoperation_job137_18,w0,python3action_floatoperation,0.997085,1,2000.000000,1,COMPLETED_SUCCESSFULLY,110.942193,2.439945,113.382138,109.945108,112.385053,46.060481,26,-1.000000,""
python3action_floatoperation_job162_19,w0,python3action_floatoperation,0.997085,1,2000.000000,1,COMPLETED_SUCCESSFULLY,110.942253,2.439945,113.382198,109.945168,112.385113,46.060505,27,-1.000000,""
python3action_floatoperation_job164_20,w0,python3action_floatoperation,0.997085,1,2000.000000,1,COMPLETED_SUCCESSFULLY,110.942283,2.439945,113.382228,109.945198,112.385143,46.060518,28,-1.000000,""
python3action_floatoperation_job174_21,w0,python3action_floatoperation,0.997085,1,2000.000000,1,COMPLETED_SUCCESSFULLY,110.942328,2.439945,113.382273,109.945243,112.385188,46.060536,29,-1.000000,""
128_updated,w0,python3action_chameleon_2000_troll,0.997085,1,2000.000000,1,COMPLETED_SUCCESSFULLY,80.870349,39.500010,120.370359,79.873264,119.373274,3.022107,19,-1.000000,""
128,w0,python3action_chameleon_2000,0.000000,1,-1.000000,1,COMPLETED_SUCCESSFULLY,120.370374,0.000010,120.370384,120.370374,120.370384,12037038.400201,19,-1.000000,""
163_updated,w0,python3action_chameleon_2000_troll,0.997085,1,2000.000000,1,COMPLETED_SUCCESSFULLY,80.870409,39.500010,120.370419,79.873324,119.373334,3.022109,20,-1.000000,""
163,w0,python3action_chameleon_2000,0.000000,1,-1.000000,1,COMPLETED_SUCCESSFULLY,120.370434,0.000010,120.370444,120.370434,120.370444,12037044.400201,20,-1.000000,""
129_updated,w0,python3action_imageprocessing_SampleImage_40mb_taurus,0.997085,1,2000.000000,1,COMPLETED_SUCCESSFULLY,105.614796,32.600046,138.214843,104.617711,137.217758,4.209128,10,-1.000000,""
129,w0,python3action_imageprocessing_SampleImage_40mb,0.000000,1,-1.000000,1,COMPLETED_SUCCESSFULLY,138.214858,0.000010,138.214868,138.214858,138.214868,13821486.800201,10,-1.000000,""
156_updated,w0,python3action_imageprocessing_SampleImage_40mb_taurus,0.997085,1,2000.000000,1,COMPLETED_SUCCESSFULLY,105.614871,32.600046,138.214918,104.617786,137.217833,4.209130,11,-1.000000,""
156,w0,python3action_imageprocessing_SampleImage_40mb,0.000000,1,-1.000000,1,COMPLETED_SUCCESSFULLY,138.214933,0.000010,138.214943,138.214933,138.214943,13821494.300201,11,-1.000000,""
167_updated,w0,python3action_imageprocessing_SampleImage_40mb_taurus,0.997085,1,2000.000000,1,COMPLETED_SUCCESSFULLY,105.614916,32.600046,138.214963,104.617831,137.217878,4.209131,13,-1.000000,""
179_updated,w0,python3action_imageprocessing_SampleImage_40mb_taurus,0.997085,1,2000.000000,1,COMPLETED_SUCCESSFULLY,105.614946,32.600046,138.214993,104.617861,137.217908,4.209132,14,-1.000000,""
167,w0,python3action_imageprocessing_SampleImage_40mb,0.000000,1,-1.000000,1,COMPLETED_SUCCESSFULLY,138.214993,0.000010,138.215003,138.214993,138.215003,13821500.262257,13,-1.000000,""
183_updated,w0,python3action_imageprocessing_SampleImage_40mb_taurus,0.997085,1,2000.000000,1,COMPLETED_SUCCESSFULLY,105.614976,32.600046,138.215023,104.617891,137.217938,4.209133,15,-1.000000,""
179,w0,python3action_imageprocessing_SampleImage_40mb,0.000000,1,-1.000000,1,COMPLETED_SUCCESSFULLY,138.215023,0.000010,138.215033,138.215023,138.215033,13821503.262659,14,-1.000000,""
198_updated,w0,python3action_imageprocessing_SampleImage_40mb_taurus,0.997085,1,2000.000000,1,COMPLETED_SUCCESSFULLY,105.614991,32.600046,138.215038,104.617906,137.217953,4.209134,16,-1.000000,""
183,w0,python3action_imageprocessing_SampleImage_40mb,0.000000,1,-1.000000,1,COMPLETED_SUCCESSFULLY,138.215068,0.000010,138.215078,138.215068,138.215078,13821507.800201,15,-1.000000,""
198,w0,python3action_imageprocessing_SampleImage_40mb,0.000000,1,-1.000000,1,COMPLETED_SUCCESSFULLY,138.215098,0.000010,138.215108,138.215098,138.215108,13821510.800602,16,-1.000000,""
python3action_modeltraining_job10_11,w0,python3action_modeltraining_reduced_0.94,0.997085,1,2000.000000,1,COMPLETED_SUCCESSFULLY,138.215038,4.236027,142.451064,137.217953,141.453979,33.393080,13,-1.000000,""
python3action_modeltraining_job12_12,w0,python3action_modeltraining_reduced_0.94,0.997085,1,2000.000000,1,COMPLETED_SUCCESSFULLY,138.215083,4.236027,142.451110,137.217998,141.454025,33.393090,14,-1.000000,""
python3action_modeltraining_job16_13,w0,python3action_modeltraining_reduced_0.94,0.997085,1,2000.000000,1,COMPLETED_SUCCESSFULLY,138.215128,4.236027,142.451155,137.218043,141.454070,33.393101,15,-1.000000,""
python3action_modeltraining_job36_14,w0,python3action_modeltraining_reduced_0.94,0.997085,1,2000.000000,1,COMPLETED_SUCCESSFULLY,138.215143,4.236027,142.451170,137.218058,141.454085,33.393104,16,-1.000000,""
python3action_chameleon_job33_9,w0,python3action_chameleon,0.997085,1,2000.000000,1,COMPLETED_SUCCESSFULLY,138.214888,5.040826,143.255714,137.217803,142.258629,28.221295,10,-1.000000,""
python3action_chameleon_job110_10,w0,python3action_chameleon,0.997085,1,2000.000000,1,COMPLETED_SUCCESSFULLY,138.214963,5.040826,143.255788,137.217878,142.258703,28.221309,11,-1.000000,""
151_updated,w0,python3action_modeltraining_reviews50mb_nova,0.997085,1,2000.000000,1,COMPLETED_SUCCESSFULLY,103.141868,42.399990,145.541858,102.144783,144.544773,3.409076,2,-1.000000,""
151,w0,python3action_modeltraining_reviews50mb,0.000000,1,-1.000000,1,COMPLETED_SUCCESSFULLY,145.541873,0.000010,145.541883,145.541873,145.541883,14554188.323505,2,-1.000000,""
168_updated,w0,python3action_modeltraining_reviews50mb_nova,0.997085,1,2000.000000,1,COMPLETED_SUCCESSFULLY,103.141927,42.399990,145.541918,102.144842,144.544833,3.409077,3,-1.000000,""
168,w0,python3action_modeltraining_reviews50mb,0.000000,1,-1.000000,1,COMPLETED_SUCCESSFULLY,145.541933,0.000010,145.541943,145.541933,145.541943,14554194.300201,3,-1.000000,""
186_updated,w0,python3action_modeltraining_reviews50mb_nova,0.997085,1,2000.000000,1,COMPLETED_SUCCESSFULLY,103.141988,42.399990,145.541978,102.144903,144.544893,3.409078,4,-1.000000,""
186,w0,python3action_modeltraining_reviews50mb,0.000000,1,-1.000000,1,COMPLETED_SUCCESSFULLY,145.541993,0.000010,145.542003,145.541993,145.542003,14554200.323505,4,-1.000000,""
189_updated,w0,python3action_modeltraining_reviews50mb_nova,0.997085,1,2000.000000,1,COMPLETED_SUCCESSFULLY,103.142033,42.399990,145.542023,102.144948,144.544938,3.409080,5,-1.000000,""
189,w0,python3action_modeltraining_reviews50mb,0.000000,1,-1.000000,1,COMPLETED_SUCCESSFULLY,145.542053,0.000010,145.542063,145.542053,145.542063,14554206.323907,5,-1.000000,""
python3action_pyaes_job20_1,w0,python3action_pyaes_reduced_0.85,0.997085,1,2000.000000,1,COMPLETED_SUCCESSFULLY,145.541903,0.320244,145.862147,144.544818,144.865062,452.358769,2,-1.000000,""
python3action_pyaes_job35_2,w0,python3action_pyaes_reduced_0.85,0.997085,1,2000.000000,1,COMPLETED_SUCCESSFULLY,145.541963,0.320244,145.862207,144.544878,144.865122,452.358955,3,-1.000000,""
python3action_pyaes_job37_3,w0,python3action_pyaes_reduced_0.85,0.997085,1,2000.000000,1,COMPLETED_SUCCESSFULLY,145.542023,0.320244,145.862267,144.544938,144.865182,452.359144,4,-1.000000,""
python3action_pyaes_job61_4,w0,python3action_pyaes_reduced_0.85,0.997085,1,2000.000000,1,COMPLETED_SUCCESSFULLY,145.542083,0.320244,145.862327,144.544998,144.865242,452.359331,5,-1.000000,""
199_updated,w0,python3action_modeltraining_reviews50mb_nova,0.997085,1,2000.000000,1,COMPLETED_SUCCESSFULLY,110.942028,42.399990,153.342018,109.944943,152.344933,3.593042,6,-1.000000,""
199,w0,python3action_modeltraining_reviews50mb,0.000000,1,-1.000000,1,COMPLETED_SUCCESSFULLY,153.342033,0.000010,153.342043,153.342033,153.342043,15334204.323907,6,-1.000000,""
python3action_pyaes_job62_5,w0,python3action_pyaes_reduced_0.85,0.997085,1,2000.000000,1,COMPLETED_SUCCESSFULLY,153.342063,0.320244,153.662307,152.344978,152.665222,476.715717,6,-1.000000,""
166_updated,w0,python3action_chameleon_2000_troll,0.997085,1,2000.000000,1,COMPLETED_SUCCESSFULLY,120.370404,39.500010,159.870414,119.373319,158.873329,4.022109,19,-1.000000,""
166,w0,python3action_chameleon_2000,0.000000,1,-1.000000,1,COMPLETED_SUCCESSFULLY,159.870429,0.000010,159.870439,159.870429,159.870439,15987043.900201,19,-1.000000,""
170_updated,w0,python3action_chameleon_2000_troll,0.997085,1,2000.000000,1,COMPLETED_SUCCESSFULLY,120.370464,39.500010,159.870474,119.373379,158.873389,4.022110,20,-1.000000,""
170,w0,python3action_chameleon_2000,0.000000,1,-1.000000,1,COMPLETED_SUCCESSFULLY,159.870489,0.000010,159.870499,159.870489,159.870499,15987049.900201,20,-1.000000,""
79_updated,w0,python3action_imageprocessing_SampleImage_60mb_orion,0.997085,1,2000.000000,1,COMPLETED_SUCCESSFULLY,73.014660,88.000000,161.014660,72.017575,160.017575,1.818382,8,-1.000000,""
79,w0,python3action_imageprocessing_SampleImage_60mb,0.000000,1,-1.000000,1,COMPLETED_SUCCESSFULLY,161.014675,0.000010,161.014685,161.014675,161.014685,16101468.532888,8,-1.000000,""
81_updated,w0,python3action_imageprocessing_SampleImage_60mb_orion,0.997085,1,2000.000000,1,COMPLETED_SUCCESSFULLY,73.014690,88.000000,161.014690,72.017605,160.017605,1.818382,9,-1.000000,""
81,w0,python3action_imageprocessing_SampleImage_60mb,0.000000,1,-1.000000,1,COMPLETED_SUCCESSFULLY,161.014720,0.000010,161.014730,161.014720,161.014730,16101473.033490,9,-1.000000,""
python3action_linpack_job13_8,w0,python3action_linpack,0.997085,1,2000.000000,1,COMPLETED_SUCCESSFULLY,161.014750,5.760927,166.775678,160.017665,165.778593,28.776373,9,-1.000000,""
python3action_image_processing_job22_16,w0,python3action_image_processing,0.997085,1,2000.000000,1,COMPLETED_SUCCESSFULLY,159.870519,12.398880,172.269399,158.873434,171.272314,13.813531,20,-1.000000,""
57_updated,w0,python3action_floatoperation_100000000_nova,0.997085,1,2000.000000,1,COMPLETED_SUCCESSFULLY,113.382048,66.200020,179.582068,112.384963,178.584983,2.697658,7,-1.000000,""
57,w0,python3action_floatoperation_100000000,0.000000,1,-1.000000,1,COMPLETED_SUCCESSFULLY,179.582083,0.000010,179.582093,179.582083,179.582093,17958209.300201,7,-1.000000,""
116_updated,w0,python3action_floatoperation_100000000_nova,0.997085,1,2000.000000,1,COMPLETED_SUCCESSFULLY,113.382108,66.200020,179.582128,112.385023,178.585043,2.697658,25,-1.000000,""
116,w0,python3action_floatoperation_100000000,0.000000,1,-1.000000,1,COMPLETED_SUCCESSFULLY,179.582143,0.000010,179.582153,179.582143,179.582153,17958215.300201,25,-1.000000,""
137_updated,w0,python3action_floatoperation_100000000_nova,0.997085,1,2000.000000,1,COMPLETED_SUCCESSFULLY,113.382153,66.200020,179.582173,112.385068,178.585088,2.697659,26,-1.000000,""
137,w0,python3action_floatoperation_100000000,0.000000,1,-1.000000,1,COMPLETED_SUCCESSFULLY,179.582203,0.000010,179.582213,179.582203,179.582213,17958221.300201,26,-1.000000,""
162_updated,w0,python3action_floatoperation_100000000_nova,0.997085,1,2000.000000,1,COMPLETED_SUCCESSFULLY,113.382213,66.200020,179.582233,112.385128,178.585148,2.697660,27,-1.000000,""
164_updated,w0,python3action_floatoperation_100000000_nova,0.997085,1,2000.000000,1,COMPLETED_SUCCESSFULLY,113.382243,66.200020,179.582263,112.385158,178.585178,2.697661,28,-1.000000,""
162,w0,python3action_floatoperation_100000000,0.000000,1,-1.000000,1,COMPLETED_SUCCESSFULLY,179.582263,0.000010,179.582273,179.582263,179.582273,17958227.284378,27,-1.000000,""
164,w0,python3action_floatoperation_100000000,0.000000,1,-1.000000,1,COMPLETED_SUCCESSFULLY,179.582293,0.000010,179.582303,179.582293,179.582303,17958230.300201,28,-1.000000,""
174_updated,w0,python3action_floatoperation_100000000_nova,0.997085,1,2000.000000,1,COMPLETED_SUCCESSFULLY,113.382288,66.200020,179.582308,112.385203,178.585223,2.697661,29,-1.000000,""
174,w0,python3action_floatoperation_100000000,0.000000,1,-1.000000,1,COMPLETED_SUCCESSFULLY,179.582353,0.000010,179.582363,179.582353,179.582363,17958236.300402,29,-1.000000,""
python3action_pyaes_job67_6,w0,python3action_pyaes_reduced_0.85,0.997085,1,2000.000000,1,COMPLETED_SUCCESSFULLY,179.582113,0.320244,179.902357,178.585028,178.905272,558.653462,7,-1.000000,""
python3action_pyaes_job80_17,w0,python3action_pyaes_reduced_0.85,0.997085,1,2000.000000,1,COMPLETED_SUCCESSFULLY,179.582173,0.320244,179.902417,178.585088,178.905332,558.653649,25,-1.000000,""
python3action_pyaes_job82_18,w0,python3action_pyaes_reduced_0.85,0.997085,1,2000.000000,1,COMPLETED_SUCCESSFULLY,179.582233,0.320244,179.902477,178.585148,178.905392,558.653837,26,-1.000000,""
python3action_pyaes_job84_19,w0,python3action_pyaes_reduced_0.85,0.997085,1,2000.000000,1,COMPLETED_SUCCESSFULLY,179.582308,0.320244,179.902552,178.585223,178.905467,558.654071,27,-1.000000,""
python3action_pyaes_job101_20,w0,python3action_pyaes_reduced_0.85,0.997085,1,2000.000000,1,COMPLETED_SUCCESSFULLY,179.582338,0.320244,179.902582,178.585253,178.905497,558.654165,28,-1.000000,""
python3action_pyaes_job122_21,w0,python3action_pyaes_reduced_0.85,0.997085,1,2000.000000,1,COMPLETED_SUCCESSFULLY,179.582383,0.320244,179.902627,178.585298,178.905542,558.654306,29,-1.000000,""
193_updated,w0,python3action_chameleon_2000_troll,0.997085,1,2000.000000,1,COMPLETED_SUCCESSFULLY,159.870459,39.500010,199.370469,158.873374,198.373384,5.022110,19,-1.000000,""
193,w0,python3action_chameleon_2000,0.000000,1,-1.000000,1,COMPLETED_SUCCESSFULLY,199.370484,0.000010,199.370494,199.370484,199.370494,19937049.400201,19,-1.000000,""
33_updated,w0,python3action_chameleon_2000_taurus,0.997085,1,2000.000000,1,COMPLETED_SUCCESSFULLY,143.255729,64.199977,207.455706,142.258644,206.458621,3.215868,10,-1.000000,""
33,w0,python3action_chameleon_2000,0.000000,1,-1.000000,1,COMPLETED_SUCCESSFULLY,207.455721,0.000010,207.455731,207.455721,207.455731,20745573.100201,10,-1.000000,""
110_updated,w0,python3action_chameleon_2000_taurus,0.997085,1,2000.000000,1,COMPLETED_SUCCESSFULLY,143.255803,64.199977,207.455780,142.258718,206.458695,3.215869,11,-1.000000,""
110,w0,python3action_chameleon_2000,0.000000,1,-1.000000,1,COMPLETED_SUCCESSFULLY,207.455795,0.000010,207.455805,207.455795,207.455805,20745580.529815,11,-1.000000,""
python3action_modeltraining_job46_9,w0,python3action_modeltraining_reduced_0.94,0.997085,1,2000.000000,1,COMPLETED_SUCCESSFULLY,207.455751,4.236027,211.691778,206.458666,210.694693,49.738754,10,-1.000000,""
python3action_modeltraining_job75_10,w0,python3action_modeltraining_reduced_0.94,0.997085,1,2000.000000,1,COMPLETED_SUCCESSFULLY,207.455825,4.236027,211.691852,206.458740,210.694767,49.738771,11,-1.000000,""
python3action_image_processing_job32_15,w0,python3action_image_processing,0.997085,1,2000.000000,1,COMPLETED_SUCCESSFULLY,199.370514,12.398880,211.769394,198.373429,210.772309,16.999302,19,-1.000000,""
20_updated,w0,python3action_pyaes_3000_nova,0.997085,1,2000.000000,1,COMPLETED_SUCCESSFULLY,145.862162,78.200020,224.062182,144.865077,223.065097,2.852494,2,-1.000000,""
20,w0,python3action_pyaes_3000,0.000000,1,-1.000000,1,COMPLETED_SUCCESSFULLY,224.062197,0.000010,224.062207,224.062197,224.062207,22406220.700201,2,-1.000000,""
35_updated,w0,python3action_pyaes_3000_nova,0.997085,1,2000.000000,1,COMPLETED_SUCCESSFULLY,145.862222,78.200020,224.062242,144.865137,223.065157,2.852495,3,-1.000000,""
35,w0,python3action_pyaes_3000,0.000000,1,-1.000000,1,COMPLETED_SUCCESSFULLY,224.062257,0.000010,224.062267,224.062257,224.062267,22406226.700201,3,-1.000000,""
37_updated,w0,python3action_pyaes_3000_nova,0.997085,1,2000.000000,1,COMPLETED_SUCCESSFULLY,145.862282,78.200020,224.062302,144.865197,223.065217,2.852496,4,-1.000000,""
37,w0,python3action_pyaes_3000,0.000000,1,-1.000000,1,COMPLETED_SUCCESSFULLY,224.062317,0.000010,224.062327,224.062317,224.062327,22406232.700201,4,-1.000000,""
61_updated,w0,python3action_pyaes_3000_nova,0.997085,1,2000.000000,1,COMPLETED_SUCCESSFULLY,145.862342,78.200020,224.062362,144.865257,223.065277,2.852496,5,-1.000000,""
61,w0,python3action_pyaes_3000,0.000000,1,-1.000000,1,COMPLETED_SUCCESSFULLY,224.062377,0.000010,224.062387,224.062377,224.062387,22406238.700201,5,-1.000000,""
10_updated,w0,python3action_modeltraining_reviews100mb_taurus,0.997085,1,2000.000000,1,COMPLETED_SUCCESSFULLY,142.451079,88.199977,230.651056,141.453994,229.653971,2.603787,13,-1.000000,""
10,w0,python3action_modeltraining_reviews100mb,0.000000,1,-1.000000,1,COMPLETED_SUCCESSFULLY,230.651071,0.000010,230.651081,230.651071,230.651081,23065108.135020,13,-1.000000,""
12_updated,w0,python3action_modeltraining_reviews100mb_taurus,0.997085,1,2000.000000,1,COMPLETED_SUCCESSFULLY,142.451125,88.199977,230.651102,141.454040,229.654017,2.603788,14,-1.000000,""
12,w0,python3action_modeltraining_reviews100mb,0.000000,1,-1.000000,1,COMPLETED_SUCCESSFULLY,230.651131,0.000010,230.651141,230.651131,230.651141,23065114.135824,14,-1.000000,""
16_updated,w0,python3action_modeltraining_reviews100mb_taurus,0.997085,1,2000.000000,1,COMPLETED_SUCCESSFULLY,142.451170,88.199977,230.651147,141.454085,229.654062,2.603788,15,-1.000000,""
36_updated,w0,python3action_modeltraining_reviews100mb_taurus,0.997085,1,2000.000000,1,COMPLETED_SUCCESSFULLY,142.451200,88.199977,230.651177,141.454115,229.654092,2.603789,16,-1.000000,""
16,w0,python3action_modeltraining_reviews100mb,0.000000,1,-1.000000,1,COMPLETED_SUCCESSFULLY,230.651191,0.000010,230.651201,230.651191,230.651201,23065120.136627,15,-1.000000,""
36,w0,python3action_modeltraining_reviews100mb,0.000000,1,-1.000000,1,COMPLETED_SUCCESSFULLY,230.651221,0.000010,230.651231,230.651221,230.651231,23065123.137028,16,-1.000000,""
62_updated,w0,python3action_pyaes_3000_nova,0.997085,1,2000.000000,1,COMPLETED_SUCCESSFULLY,153.662322,78.200020,231.862342,152.665237,230.865257,2.952240,6,-1.000000,""
62,w0,python3action_pyaes_3000,0.000000,1,-1.000000,1,COMPLETED_SUCCESSFULLY,231.862357,0.000010,231.862367,231.862357,231.862367,23186236.700201,6,-1.000000,""
22_updated,w0,python3action_imageprocessing_SampleImage_60mb_troll,0.997085,1,2000.000000,1,COMPLETED_SUCCESSFULLY,172.269414,62.000000,234.269414,171.272329,233.272329,3.762457,20,-1.000000,""
22,w0,python3action_imageprocessing_SampleImage_60mb,0.000000,1,-1.000000,1,COMPLETED_SUCCESSFULLY,234.269429,0.000010,234.269439,234.269429,234.269439,23426943.909582,20,-1.000000,""
114_updated,w0,python3action_imageprocessing_SampleImage_60mb_orion,0.997085,1,2000.000000,1,COMPLETED_SUCCESSFULLY,161.014705,88.000000,249.014705,160.017620,248.017620,2.818382,8,-1.000000,""
114,w0,python3action_imageprocessing_SampleImage_60mb,0.000000,1,-1.000000,1,COMPLETED_SUCCESSFULLY,249.014720,0.000010,249.014730,249.014720,249.014730,24901473.033490,8,-1.000000,""
python3action_linpack_job19_7,w0,python3action_linpack,0.997085,1,2000.000000,1,COMPLETED_SUCCESSFULLY,249.014750,5.760927,254.775678,248.017665,253.778593,44.051692,8,-1.000000,""
67_updated,w0,python3action_pyaes_3000_nova,0.997085,1,2000.000000,1,COMPLETED_SUCCESSFULLY,179.902372,78.200020,258.102392,178.905287,257.105307,3.287791,7,-1.000000,""
67,w0,python3action_pyaes_3000,0.000000,1,-1.000000,1,COMPLETED_SUCCESSFULLY,258.102407,0.000010,258.102417,258.102407,258.102417,25810241.700201,7,-1.000000,""
80_updated,w0,python3action_pyaes_3000_nova,0.997085,1,2000.000000,1,COMPLETED_SUCCESSFULLY,179.902432,78.200020,258.102452,178.905347,257.105367,3.287792,25,-1.000000,""
80,w0,python3action_pyaes_3000,0.000000,1,-1.000000,1,COMPLETED_SUCCESSFULLY,258.102467,0.000010,258.102477,258.102467,258.102477,25810247.700201,25,-1.000000,""
python3action_video_processing_job2_17,w0,python3action_video_processing_reduced_0.97,0.997085,1,2000.000000,1,COMPLETED_SUCCESSFULLY,258.102497,0.000000,258.102497,257.105412,257.105412,5265478743931.390625,25,-1.000000,""
82_updated,w0,python3action_pyaes_3000_nova,0.997085,1,2000.000000,1,COMPLETED_SUCCESSFULLY,179.902492,78.200020,258.102512,178.905407,257.105427,3.287792,26,-1.000000,""
82,w0,python3action_pyaes_3000,0.000000,1,-1.000000,1,COMPLETED_SUCCESSFULLY,258.102542,0.000010,258.102552,258.102542,258.102552,25810255.200402,26,-1.000000,""
python3action_video_processing_job3_18,w0,python3action_video_processing_reduced_0.97,0.997085,1,2000.000000,1,COMPLETED_SUCCESSFULLY,258.102572,0.000000,258.102572,257.105487,257.105487,5265480279960.819336,26,-1.000000,""
84_updated,w0,python3action_pyaes_3000_nova,0.997085,1,2000.000000,1,COMPLETED_SUCCESSFULLY,179.902567,78.200020,258.102587,178.905482,257.105502,3.287793,27,-1.000000,""
101_updated,w0,python3action_pyaes_3000_nova,0.997085,1,2000.000000,1,COMPLETED_SUCCESSFULLY,179.902597,78.200020,258.102617,178.905512,257.105532,3.287794,28,-1.000000,""
84,w0,python3action_pyaes_3000,0.000000,1,-1.000000,1,COMPLETED_SUCCESSFULLY,258.102617,0.000010,258.102627,258.102617,258.102627,25810262.654194,27,-1.000000,""
101,w0,python3action_pyaes_3000,0.000000,1,-1.000000,1,COMPLETED_SUCCESSFULLY,258.102647,0.000010,258.102657,258.102647,258.102657,25810265.700201,28,-1.000000,""
122_updated,w0,python3action_pyaes_3000_nova,0.997085,1,2000.000000,1,COMPLETED_SUCCESSFULLY,179.902642,78.200020,258.102662,178.905557,257.105577,3.287794,29,-1.000000,""
python3action_video_processing_job17_19,w0,python3action_video_processing_reduced_0.97,0.997085,1,2000.000000,1,COMPLETED_SUCCESSFULLY,258.102662,0.000000,258.102662,257.105577,257.105577,5265482113601.358398,27,-1.000000,""
python3action_video_processing_job27_20,w0,python3action_video_processing_reduced_0.97,0.997085,1,2000.000000,1,COMPLETED_SUCCESSFULLY,258.102692,0.000000,258.102692,257.105607,257.105607,5265482737418.731445,28,-1.000000,""
122,w0,python3action_pyaes_3000,0.000000,1,-1.000000,1,COMPLETED_SUCCESSFULLY,258.102707,0.000010,258.102717,258.102707,258.102717,25810271.700402,29,-1.000000,""
python3action_video_processing_job60_21,w0,python3action_video_processing_reduced_0.97,0.997085,1,2000.000000,1,COMPLETED_SUCCESSFULLY,258.102767,0.000000,258.102767,257.105682,257.105682,5265484273612.659180,29,-1.000000,""
13_updated,w0,python3action_linpack_6000_orion,0.997085,1,2000.000000,1,COMPLETED_SUCCESSFULLY,166.775693,106.000000,272.775693,165.778608,271.778608,2.563949,9,-1.000000,""
13,w0,python3action_linpack_6000,0.000000,1,-1.000000,1,COMPLETED_SUCCESSFULLY,272.775708,0.000010,272.775718,272.775708,272.775718,27277571.800402,9,-1.000000,""
32_updated,w0,python3action_imageprocessing_SampleImage_60mb_troll,0.997085,1,2000.000000,1,COMPLETED_SUCCESSFULLY,211.769409,62.000000,273.769409,210.772324,272.772324,4.399554,19,-1.000000,""
32,w0,python3action_imageprocessing_SampleImage_60mb,0.000000,1,-1.000000,1,COMPLETED_SUCCESSFULLY,273.769424,0.000010,273.769434,273.769424,273.769434,27376943.409582,19,-1.000000,""
40_updated,w0,python3action_imageprocessing_SampleImage_60mb_troll,0.997085,1,2000.000000,1,COMPLETED_SUCCESSFULLY,234.269459,62.000000,296.269459,233.272374,295.272374,4.762458,20,-1.000000,""
40,w0,python3action_imageprocessing_SampleImage_60mb,0.000000,1,-1.000000,1,COMPLETED_SUCCESSFULLY,296.269474,0.000010,296.269484,296.269474,296.269484,29626948.410184,20,-1.000000,""
46_updated,w0,python3action_modeltraining_reviews100mb_taurus,0.997085,1,2000.000000,1,COMPLETED_SUCCESSFULLY,211.691793,88.199977,299.891770,210.694708,298.894685,3.388830,10,-1.000000,""
46,w0,python3action_modeltraining_reviews100mb,0.000000,1,-1.000000,1,COMPLETED_SUCCESSFULLY,299.891785,0.000010,299.891795,299.891785,299.891795,29989179.500201,10,-1.000000,""
75_updated,w0,python3action_modeltraining_reviews100mb_taurus,0.997085,1,2000.000000,1,COMPLETED_SUCCESSFULLY,211.691867,88.199977,299.891844,210.694782,298.894759,3.388830,11,-1.000000,""
75,w0,python3action_modeltraining_reviews100mb,0.000000,1,-1.000000,1,COMPLETED_SUCCESSFULLY,299.891859,0.000010,299.891869,299.891859,299.891869,29989186.902378,11,-1.000000,""
136_updated,w0,python3action_pyaes_3000_nova,0.997085,1,2000.000000,1,COMPLETED_SUCCESSFULLY,224.062227,78.200020,302.262247,223.065142,301.265162,3.852495,2,-1.000000,""
136,w0,python3action_pyaes_3000,0.000000,1,-1.000000,1,COMPLETED_SUCCESSFULLY,302.262262,0.000010,302.262272,302.262262,302.262272,30226227.200201,2,-1.000000,""
python3action_video_processing_job71_1,w0,python3action_video_processing_reduced_0.97,0.997085,1,2000.000000,1,COMPLETED_SUCCESSFULLY,302.262292,0.000000,302.262292,301.265207,301.265207,6169864459092.358398,2,-1.000000,""
138_updated,w0,python3action_pyaes_3000_nova,0.997085,1,2000.000000,1,COMPLETED_SUCCESSFULLY,224.062287,78.200020,302.262307,223.065202,301.265222,3.852495,3,-1.000000,""
138,w0,python3action_pyaes_3000,0.000000,1,-1.000000,1,COMPLETED_SUCCESSFULLY,302.262337,0.000010,302.262347,302.262337,302.262347,30226234.700402,3,-1.000000,""
159_updated,w0,python3action_pyaes_3000_nova,0.997085,1,2000.000000,1,COMPLETED_SUCCESSFULLY,224.062347,78.200020,302.262367,223.065262,301.265282,3.852496,4,-1.000000,""
python3action_video_processing_job103_2,w0,python3action_video_processing_reduced_0.97,0.997085,1,2000.000000,1,COMPLETED_SUCCESSFULLY,302.262367,0.000000,302.262367,301.265282,301.265282,6169865985658.643555,3,-1.000000,""
159,w0,python3action_pyaes_3000,0.000000,1,-1.000000,1,COMPLETED_SUCCESSFULLY,302.262397,0.000010,302.262407,302.262397,302.262407,30226240.700201,4,-1.000000,""
184_updated,w0,python3action_pyaes_3000_nova,0.997085,1,2000.000000,1,COMPLETED_SUCCESSFULLY,224.062407,78.200020,302.262427,223.065322,301.265342,3.852497,5,-1.000000,""
python3action_video_processing_job115_3,w0,python3action_video_processing_reduced_0.97,0.997085,1,2000.000000,1,COMPLETED_SUCCESSFULLY,302.262442,0.000000,302.262442,301.265357,301.265357,6169867530986.716797,4,-1.000000,""
184,w0,python3action_pyaes_3000,0.000000,1,-1.000000,1,COMPLETED_SUCCESSFULLY,302.262457,0.000010,302.262467,302.262457,302.262467,30226246.700402,5,-1.000000,""
python3action_video_processing_job117_4,w0,python3action_video_processing_reduced_0.97,0.997085,1,2000.000000,1,COMPLETED_SUCCESSFULLY,302.262502,0.000000,302.262502,301.265417,301.265417,6169868759941.858398,5,-1.000000,""
196_updated,w0,python3action_pyaes_3000_nova,0.997085,1,2000.000000,1,COMPLETED_SUCCESSFULLY,231.862387,78.200020,310.062407,230.865302,309.065322,3.952241,6,-1.000000,""
196,w0,python3action_pyaes_3000,0.000000,1,-1.000000,1,COMPLETED_SUCCESSFULLY,310.062422,0.000010,310.062432,310.062422,310.062432,31006243.200201,6,-1.000000,""
python3action_video_processing_job121_5,w0,python3action_video_processing_reduced_0.97,0.997085,1,2000.000000,1,COMPLETED_SUCCESSFULLY,310.062452,0.000000,310.062452,309.065367,309.065367,6329610519507.040039,6,-1.000000,""
94_updated,w0,python3action_modeltraining_reviews100mb_taurus,0.997085,1,2000.000000,1,COMPLETED_SUCCESSFULLY,230.651101,88.199977,318.851078,229.654016,317.853993,3.603788,13,-1.000000,""
94,w0,python3action_modeltraining_reviews100mb,0.000000,1,-1.000000,1,COMPLETED_SUCCESSFULLY,318.851093,0.000010,318.851103,318.851093,318.851103,31885110.329084,13,-1.000000,""
python3action_facedetection_job1_11,w0,python3action_facedetection_reduced_1.83,0.997085,1,2000.000000,1,COMPLETED_SUCCESSFULLY,318.851123,0.000000,318.851123,317.854038,317.854038,2755912950544.141602,13,-1.000000,""
106_updated,w0,python3action_modeltraining_reviews100mb_taurus,0.997085,1,2000.000000,1,COMPLETED_SUCCESSFULLY,230.651161,88.199977,318.851138,229.654076,317.854053,3.603788,14,-1.000000,""
106,w0,python3action_modeltraining_reviews100mb,0.000000,1,-1.000000,1,COMPLETED_SUCCESSFULLY,318.851168,0.000010,318.851178,318.851168,318.851178,31885117.830088,14,-1.000000,""
python3action_facedetection_job23_12,w0,python3action_facedetection_reduced_1.83,0.997085,1,2000.000000,1,COMPLETED_SUCCESSFULLY,318.851198,0.000000,318.851198,317.854113,317.854113,2755913600909.141602,14,-1.000000,""
130_updated,w0,python3action_modeltraining_reviews100mb_taurus,0.997085,1,2000.000000,1,COMPLETED_SUCCESSFULLY,230.651236,88.199977,318.851213,229.654151,317.854128,3.603789,15,-1.000000,""
175_updated,w0,python3action_modeltraining_reviews100mb_taurus,0.997085,1,2000.000000,1,COMPLETED_SUCCESSFULLY,230.651266,88.199977,318.851243,229.654181,317.854158,3.603790,16,-1.000000,""
130,w0,python3action_modeltraining_reviews100mb,0.000000,1,-1.000000,1,COMPLETED_SUCCESSFULLY,318.851243,0.000010,318.851253,318.851243,318.851253,31885125.331092,15,-1.000000,""
175,w0,python3action_modeltraining_reviews100mb,0.000000,1,-1.000000,1,COMPLETED_SUCCESSFULLY,318.851273,0.000010,318.851283,318.851273,318.851283,31885128.331494,16,-1.000000,""
python3action_facedetection_job38_13,w0,python3action_facedetection_reduced_1.83,0.997085,1,2000.000000,1,COMPLETED_SUCCESSFULLY,318.851288,0.000000,318.851288,317.854203,317.854203,2755914381347.141602,15,-1.000000,""
python3action_facedetection_job45_14,w0,python3action_facedetection_reduced_1.83,0.997085,1,2000.000000,1,COMPLETED_SUCCESSFULLY,318.851318,0.000000,318.851318,317.854233,317.854233,2755914641493.141602,16,-1.000000,""
55_updated,w0,python3action_imageprocessing_SampleImage_60mb_troll,0.997085,1,2000.000000,1,COMPLETED_SUCCESSFULLY,273.769454,62.000000,335.769454,272.772369,334.772369,5.399554,19,-1.000000,""
55,w0,python3action_imageprocessing_SampleImage_60mb,0.000000,1,-1.000000,1,COMPLETED_SUCCESSFULLY,335.769469,0.000010,335.769479,335.769469,335.769479,33576947.910185,19,-1.000000,""
177_updated,w0,python3action_modeltraining_reviews100mb_nova,0.997085,1,2000.000000,1,COMPLETED_SUCCESSFULLY,258.102437,79.600010,337.702447,257.105352,336.705362,4.229966,7,-1.000000,""
177,w0,python3action_modeltraining_reviews100mb,0.000000,1,-1.000000,1,COMPLETED_SUCCESSFULLY,337.702462,0.000010,337.702472,337.702462,337.702472,33770247.200201,7,-1.000000,""
python3action_video_processing_job125_6,w0,python3action_video_processing_reduced_0.97,0.997085,1,2000.000000,1,COMPLETED_SUCCESSFULLY,337.702492,0.000000,337.702492,336.705407,336.705407,6895674228418.681641,7,-1.000000,""
109_updated,w0,python3action_imageprocessing_SampleImage_60mb_troll,0.997085,1,2000.000000,1,COMPLETED_SUCCESSFULLY,296.269504,62.000000,358.269504,295.272419,357.272419,5.762458,20,-1.000000,""
109,w0,python3action_imageprocessing_SampleImage_60mb,0.000000,1,-1.000000,1,COMPLETED_SUCCESSFULLY,358.269519,0.000010,358.269529,358.269519,358.269529,35826952.910787,20,-1.000000,""
19_updated,w0,python3action_linpack_6000_orion,0.997085,1,2000.000000,1,COMPLETED_SUCCESSFULLY,254.775693,106.000000,360.775693,253.778608,359.778608,3.394138,8,-1.000000,""
19,w0,python3action_linpack_6000,0.000000,1,-1.000000,1,COMPLETED_SUCCESSFULLY,360.775708,0.000010,360.775718,360.775708,360.775718,36077571.800402,8,-1.000000,""
2_updated,w0,python3action_videoprocessing_SampleVideo_30mb_nova,0.997085,1,2000.000000,1,COMPLETED_SUCCESSFULLY,258.102527,106.799980,364.902507,257.105442,363.905422,3.407355,25,-1.000000,""
2,w0,python3action_videoprocessing_SampleVideo_30mb,0.000000,1,-1.000000,1,COMPLETED_SUCCESSFULLY,364.902522,0.000010,364.902532,364.902522,364.902532,36490253.246609,25,-1.000000,""
3_updated,w0,python3action_videoprocessing_SampleVideo_30mb_nova,0.997085,1,2000.000000,1,COMPLETED_SUCCESSFULLY,258.102602,106.799980,364.902582,257.105517,363.905497,3.407355,26,-1.000000,""
3,w0,python3action_videoprocessing_SampleVideo_30mb,0.000000,1,-1.000000,1,COMPLETED_SUCCESSFULLY,364.902597,0.000010,364.902607,364.902597,364.902607,36490260.746609,26,-1.000000,""
17_updated,w0,python3action_videoprocessing_SampleVideo_30mb_nova,0.997085,1,2000.000000,1,COMPLETED_SUCCESSFULLY,258.102722,106.799980,364.902702,257.105637,363.905617,3.407357,27,-1.000000,""
17,w0,python3action_videoprocessing_SampleVideo_30mb,0.000000,1,-1.000000,1,COMPLETED_SUCCESSFULLY,364.902717,0.000010,364.902727,364.902717,364.902727,36490272.747011,27,-1.000000,""
27_updated,w0,python3action_videoprocessing_SampleVideo_30mb_nova,0.997085,1,2000.000000,1,COMPLETED_SUCCESSFULLY,258.102752,106.799980,364.902732,257.105667,363.905647,3.407357,28,-1.000000,""
27,w0,python3action_videoprocessing_SampleVideo_30mb,0.000000,1,-1.000000,1,COMPLETED_SUCCESSFULLY,364.902762,0.000010,364.902772,364.902762,364.902772,36490277.247613,28,-1.000000,""
60_updated,w0,python3action_videoprocessing_SampleVideo_30mb_nova,0.997085,1,2000.000000,1,COMPLETED_SUCCESSFULLY,258.102797,106.799980,364.902777,257.105712,363.905692,3.407357,29,-1.000000,""
60,w0,python3action_videoprocessing_SampleVideo_30mb,0.000000,1,-1.000000,1,COMPLETED_SUCCESSFULLY,364.902807,0.000010,364.902817,364.902807,364.902817,36490281.748216,29,-1.000000,""
30_updated,w0,python3action_linpack_6000_orion,0.997085,1,2000.000000,1,COMPLETED_SUCCESSFULLY,272.775738,106.000000,378.775738,271.778653,377.778653,3.563950,9,-1.000000,""
30,w0,python3action_linpack_6000,0.000000,1,-1.000000,1,COMPLETED_SUCCESSFULLY,378.775753,0.000010,378.775763,378.775753,378.775763,37877576.301004,9,-1.000000,""
185_updated,w0,python3action_modeltraining_reviews100mb_taurus,0.997085,1,2000.000000,1,COMPLETED_SUCCESSFULLY,299.891815,88.199977,388.091792,298.894730,387.094707,4.388830,10,-1.000000,""
185,w0,python3action_modeltraining_reviews100mb,0.000000,1,-1.000000,1,COMPLETED_SUCCESSFULLY,388.091807,0.000010,388.091817,388.091807,388.091817,38809181.700201,10,-1.000000,""
python3action_facedetection_job72_9,w0,python3action_facedetection_reduced_1.83,0.997085,1,2000.000000,1,COMPLETED_SUCCESSFULLY,388.091837,0.000000,388.091837,387.094752,387.094752,3356255738841.340820,10,-1.000000,""
192_updated,w0,python3action_modeltraining_reviews100mb_taurus,0.997085,1,2000.000000,1,COMPLETED_SUCCESSFULLY,299.891889,88.199977,388.091866,298.894804,387.094781,4.388831,11,-1.000000,""
192,w0,python3action_modeltraining_reviews100mb,0.000000,1,-1.000000,1,COMPLETED_SUCCESSFULLY,388.091896,0.000010,388.091906,388.091896,388.091906,38809190.600201,11,-1.000000,""
python3action_facedetection_job111_10,w0,python3action_facedetection_reduced_1.83,0.997085,1,2000.000000,1,COMPLETED_SUCCESSFULLY,388.091926,0.000000,388.091926,387.094841,387.094841,3356256510504.503906,11,-1.000000,""
123_updated,w0,python3action_imageprocessing_SampleImage_60mb_troll,0.997085,1,2000.000000,1,COMPLETED_SUCCESSFULLY,335.769499,62.000000,397.769499,334.772414,396.772414,6.399555,19,-1.000000,""
123,w0,python3action_imageprocessing_SampleImage_60mb,0.000000,1,-1.000000,1,COMPLETED_SUCCESSFULLY,397.769514,0.000010,397.769524,397.769514,397.769524,39776952.410787,19,-1.000000,""
71_updated,w0,python3action_videoprocessing_SampleVideo_30mb_nova,0.997085,1,2000.000000,1,COMPLETED_SUCCESSFULLY,302.262322,106.799980,409.062302,301.265237,408.065217,3.820836,2,-1.000000,""
71,w0,python3action_videoprocessing_SampleVideo_30mb,0.000000,1,-1.000000,1,COMPLETED_SUCCESSFULLY,409.062317,0.000010,409.062327,409.062317,409.062327,40906232.746609,2,-1.000000,""
103_updated,w0,python3action_videoprocessing_SampleVideo_30mb_nova,0.997085,1,2000.000000,1,COMPLETED_SUCCESSFULLY,302.262412,106.799980,409.062392,301.265327,408.065307,3.820837,3,-1.000000,""
103,w0,python3action_videoprocessing_SampleVideo_30mb,0.000000,1,-1.000000,1,COMPLETED_SUCCESSFULLY,409.062407,0.000010,409.062417,409.062407,409.062417,40906241.746810,3,-1.000000,""
115_updated,w0,python3action_videoprocessing_SampleVideo_30mb_nova,0.997085,1,2000.000000,1,COMPLETED_SUCCESSFULLY,302.262487,106.799980,409.062467,301.265402,408.065382,3.820838,4,-1.000000,""
115,w0,python3action_videoprocessing_SampleVideo_30mb,0.000000,1,-1.000000,1,COMPLETED_SUCCESSFULLY,409.062482,0.000010,409.062492,409.062482,409.062492,40906249.247212,4,-1.000000,""
117_updated,w0,python3action_videoprocessing_SampleVideo_30mb_nova,0.997085,1,2000.000000,1,COMPLETED_SUCCESSFULLY,302.262532,106.799980,409.062512,301.265447,408.065427,3.820838,5,-1.000000,""
117,w0,python3action_videoprocessing_SampleVideo_30mb,0.000000,1,-1.000000,1,COMPLETED_SUCCESSFULLY,409.062542,0.000010,409.062552,409.062542,409.062552,40906255.248015,5,-1.000000,""
python3action_floatoperation_job4_1,w0,python3action_floatoperation,0.997085,1,2000.000000,1,COMPLETED_SUCCESSFULLY,409.062347,2.439945,411.502293,408.065262,410.505208,168.243611,2,-1.000000,""
python3action_floatoperation_job7_2,w0,python3action_floatoperation,0.997085,1,2000.000000,1,COMPLETED_SUCCESSFULLY,409.062437,2.439945,411.502383,408.065352,410.505298,168.243648,3,-1.000000,""
python3action_floatoperation_job24_3,w0,python3action_floatoperation,0.997085,1,2000.000000,1,COMPLETED_SUCCESSFULLY,409.062512,2.439945,411.502458,408.065427,410.505373,168.243679,4,-1.000000,""
python3action_floatoperation_job31_4,w0,python3action_floatoperation,0.997085,1,2000.000000,1,COMPLETED_SUCCESSFULLY,409.062572,2.439945,411.502518,408.065487,410.505433,168.243704,5,-1.000000,""
121_updated,w0,python3action_videoprocessing_SampleVideo_30mb_nova,0.997085,1,2000.000000,1,COMPLETED_SUCCESSFULLY,310.062482,106.799980,416.862462,309.065397,415.865377,3.893871,6,-1.000000,""
121,w0,python3action_videoprocessing_SampleVideo_30mb,0.000000,1,-1.000000,1,COMPLETED_SUCCESSFULLY,416.862477,0.000010,416.862487,416.862477,416.862487,41686248.747412,6,-1.000000,""
python3action_floatoperation_job39_5,w0,python3action_floatoperation,0.997085,1,2000.000000,1,COMPLETED_SUCCESSFULLY,416.862507,2.439945,419.302453,415.865422,418.305368,171.440470,6,-1.000000,""
153_updated,w0,python3action_imageprocessing_SampleImage_60mb_troll,0.997085,1,2000.000000,1,COMPLETED_SUCCESSFULLY,358.269549,62.000000,420.269549,357.272464,419.272464,6.762459,20,-1.000000,""
153,w0,python3action_imageprocessing_SampleImage_60mb,0.000000,1,-1.000000,1,COMPLETED_SUCCESSFULLY,420.269564,0.000010,420.269574,420.269564,420.269574,42026957.411390,20,-1.000000,""
125_updated,w0,python3action_videoprocessing_SampleVideo_30mb_nova,0.997085,1,2000.000000,1,COMPLETED_SUCCESSFULLY,337.702522,106.799980,444.502502,336.705437,443.505417,4.152673,7,-1.000000,""
125,w0,python3action_videoprocessing_SampleVideo_30mb,0.000000,1,-1.000000,1,COMPLETED_SUCCESSFULLY,444.502517,0.000010,444.502527,444.502517,444.502527,44450252.747412,7,-1.000000,""
1_updated,w0,python3action_facedetection_SampleVideo_50mb_taurus,0.997085,1,2000.000000,1,COMPLETED_SUCCESSFULLY,318.851153,134.600046,453.451199,317.854068,452.454114,3.361471,13,-1.000000,""
1,w0,python3action_facedetection_SampleVideo_50mb,0.000000,1,-1.000000,1,COMPLETED_SUCCESSFULLY,453.451214,0.000010,453.451224,453.451214,453.451224,45345122.443166,13,-1.000000,""
23_updated,w0,python3action_facedetection_SampleVideo_50mb_taurus,0.997085,1,2000.000000,1,COMPLETED_SUCCESSFULLY,318.851228,134.600046,453.451274,317.854143,452.454189,3.361471,14,-1.000000,""
23,w0,python3action_facedetection_SampleVideo_50mb,0.000000,1,-1.000000,1,COMPLETED_SUCCESSFULLY,453.451289,0.000010,453.451299,453.451289,453.451299,45345129.944171,14,-1.000000,""
38_updated,w0,python3action_facedetection_SampleVideo_50mb_taurus,0.997085,1,2000.000000,1,COMPLETED_SUCCESSFULLY,318.851333,134.600046,453.451379,317.854248,452.454294,3.361472,15,-1.000000,""
38,w0,python3action_facedetection_SampleVideo_50mb,0.000000,1,-1.000000,1,COMPLETED_SUCCESSFULLY,453.451394,0.000010,453.451404,453.451394,453.451404,45345140.445576,15,-1.000000,""
45_updated,w0,python3action_facedetection_SampleVideo_50mb_taurus,0.997085,1,2000.000000,1,COMPLETED_SUCCESSFULLY,318.851363,134.600046,453.451409,317.854278,452.454324,3.361472,16,-1.000000,""
45,w0,python3action_facedetection_SampleVideo_50mb,0.000000,1,-1.000000,1,COMPLETED_SUCCESSFULLY,453.451439,0.000010,453.451449,453.451439,453.451449,45345144.946179,16,-1.000000,""
188_updated,w0,python3action_imageprocessing_SampleImage_60mb_troll,0.997085,1,2000.000000,1,COMPLETED_SUCCESSFULLY,397.769544,62.000000,459.769544,396.772459,458.772459,7.399556,19,-1.000000,""
188,w0,python3action_imageprocessing_SampleImage_60mb,0.000000,1,-1.000000,1,COMPLETED_SUCCESSFULLY,459.769559,0.000010,459.769569,459.769559,459.769569,45976956.911390,19,-1.000000,""
34_updated,w0,python3action_linpack_6000_orion,0.997085,1,2000.000000,1,COMPLETED_SUCCESSFULLY,360.775738,106.000000,466.775738,359.778653,465.778653,4.394138,8,-1.000000,""
34,w0,python3action_linpack_6000,0.000000,1,-1.000000,1,COMPLETED_SUCCESSFULLY,466.775753,0.000010,466.775763,466.775753,466.775763,46677576.301005,8,-1.000000,""
135_updated,w0,python3action_videoprocessing_SampleVideo_30mb_nova,0.997085,1,2000.000000,1,COMPLETED_SUCCESSFULLY,364.902552,106.799980,471.702533,363.905467,470.705448,4.407355,25,-1.000000,""
135,w0,python3action_videoprocessing_SampleVideo_30mb,0.000000,1,-1.000000,1,COMPLETED_SUCCESSFULLY,471.702548,0.000010,471.702558,471.702548,471.702558,47170255.800201,25,-1.000000,""
146_updated,w0,python3action_videoprocessing_SampleVideo_30mb_nova,0.997085,1,2000.000000,1,COMPLETED_SUCCESSFULLY,364.902627,106.799980,471.702608,363.905542,470.705523,4.407356,26,-1.000000,""
146,w0,python3action_videoprocessing_SampleVideo_30mb,0.000000,1,-1.000000,1,COMPLETED_SUCCESSFULLY,471.702623,0.000010,471.702633,471.702623,471.702633,47170263.300201,26,-1.000000,""
152_updated,w0,python3action_videoprocessing_SampleVideo_30mb_nova,0.997085,1,2000.000000,1,COMPLETED_SUCCESSFULLY,364.902747,106.799980,471.702728,363.905662,470.705643,4.407357,27,-1.000000,""
152,w0,python3action_videoprocessing_SampleVideo_30mb,0.000000,1,-1.000000,1,COMPLETED_SUCCESSFULLY,471.702743,0.000010,471.702753,471.702743,471.702753,47170275.300201,27,-1.000000,""
178_updated,w0,python3action_videoprocessing_SampleVideo_30mb_nova,0.997085,1,2000.000000,1,COMPLETED_SUCCESSFULLY,364.902792,106.799980,471.702773,363.905707,470.705688,4.407357,28,-1.000000,""
178,w0,python3action_videoprocessing_SampleVideo_30mb,0.000000,1,-1.000000,1,COMPLETED_SUCCESSFULLY,471.702803,0.000010,471.702813,471.702803,471.702813,47170281.300201,28,-1.000000,""
197_updated,w0,python3action_videoprocessing_SampleVideo_30mb_nova,0.997085,1,2000.000000,1,COMPLETED_SUCCESSFULLY,364.902837,106.799980,471.702818,363.905752,470.705733,4.407358,29,-1.000000,""
197,w0,python3action_videoprocessing_SampleVideo_30mb,0.000000,1,-1.000000,1,COMPLETED_SUCCESSFULLY,471.702848,0.000010,471.702858,471.702848,471.702858,47170285.800402,29,-1.000000,""
44_updated,w0,python3action_linpack_6000_orion,0.997085,1,2000.000000,1,COMPLETED_SUCCESSFULLY,378.775783,106.000000,484.775783,377.778698,483.778698,4.563950,9,-1.000000,""
44,w0,python3action_linpack_6000,0.000000,1,-1.000000,1,COMPLETED_SUCCESSFULLY,484.775798,0.000010,484.775808,484.775798,484.775808,48477580.801607,9,-1.000000,""
8_updated,w0,python3action_chameleon_3000_troll,0.997085,1,2000.000000,1,COMPLETED_SUCCESSFULLY,420.269594,94.000000,514.269594,419.272509,513.272509,5.460346,20,-1.000000,""
8,w0,python3action_chameleon_3000,0.000000,1,-1.000000,1,COMPLETED_SUCCESSFULLY,514.269609,0.000010,514.269619,514.269609,514.269619,51426961.911992,20,-1.000000,""
72_updated,w0,python3action_facedetection_SampleVideo_50mb_taurus,0.997085,1,2000.000000,1,COMPLETED_SUCCESSFULLY,388.091866,134.600046,522.691912,387.094781,521.694827,3.875889,10,-1.000000,""
72,w0,python3action_facedetection_SampleVideo_50mb,0.000000,1,-1.000000,1,COMPLETED_SUCCESSFULLY,522.691927,0.000010,522.691937,522.691927,522.691937,52269193.709721,10,-1.000000,""
111_updated,w0,python3action_facedetection_SampleVideo_50mb_taurus,0.997085,1,2000.000000,1,COMPLETED_SUCCESSFULLY,388.091956,134.600046,522.692002,387.094871,521.694917,3.875890,11,-1.000000,""
111,w0,python3action_facedetection_SampleVideo_50mb,0.000000,1,-1.000000,1,COMPLETED_SUCCESSFULLY,522.692017,0.000010,522.692027,522.692017,522.692027,52269202.714283,11,-1.000000,""
4_updated,w0,python3action_floatoperation_200000000_nova,0.997085,1,2000.000000,1,COMPLETED_SUCCESSFULLY,411.502308,135.399990,546.902298,410.505223,545.905213,4.031797,2,-1.000000,""
4,w0,python3action_floatoperation_200000000,0.000000,1,-1.000000,1,COMPLETED_SUCCESSFULLY,546.902313,0.000010,546.902323,546.902313,546.902323,54690232.323505,2,-1.000000,""
7_updated,w0,python3action_floatoperation_200000000_nova,0.997085,1,2000.000000,1,COMPLETED_SUCCESSFULLY,411.502398,135.399990,546.902388,410.505313,545.905303,4.031797,3,-1.000000,""
7,w0,python3action_floatoperation_200000000,0.000000,1,-1.000000,1,COMPLETED_SUCCESSFULLY,546.902403,0.000010,546.902413,546.902403,546.902413,54690241.323505,3,-1.000000,""
24_updated,w0,python3action_floatoperation_200000000_nova,0.997085,1,2000.000000,1,COMPLETED_SUCCESSFULLY,411.502473,135.399990,546.902463,410.505388,545.905378,4.031798,4,-1.000000,""
24,w0,python3action_floatoperation_200000000,0.000000,1,-1.000000,1,COMPLETED_SUCCESSFULLY,546.902478,0.000010,546.902488,546.902478,546.902488,54690248.823505,4,-1.000000,""
31_updated,w0,python3action_floatoperation_200000000_nova,0.997085,1,2000.000000,1,COMPLETED_SUCCESSFULLY,411.502533,135.399990,546.902523,410.505448,545.905438,4.031798,5,-1.000000,""
31,w0,python3action_floatoperation_200000000,0.000000,1,-1.000000,1,COMPLETED_SUCCESSFULLY,546.902538,0.000010,546.902548,546.902538,546.902548,54690254.823706,5,-1.000000,""
42_updated,w0,python3action_chameleon_3000_troll,0.997085,1,2000.000000,1,COMPLETED_SUCCESSFULLY,459.769589,94.000000,553.769589,458.772504,552.772504,5.880559,19,-1.000000,""
42,w0,python3action_chameleon_3000,0.000000,1,-1.000000,1,COMPLETED_SUCCESSFULLY,553.769604,0.000010,553.769614,553.769604,553.769614,55376961.411992,19,-1.000000,""
39_updated,w0,python3action_floatoperation_200000000_nova,0.997085,1,2000.000000,1,COMPLETED_SUCCESSFULLY,419.302468,135.399990,554.702458,418.305383,553.705373,4.089405,6,-1.000000,""
39,w0,python3action_floatoperation_200000000,0.000000,1,-1.000000,1,COMPLETED_SUCCESSFULLY,554.702473,0.000010,554.702483,554.702473,554.702483,55470248.323505,6,-1.000000,""
56_updated,w0,python3action_linpack_6000_orion,0.997085,1,2000.000000,1,COMPLETED_SUCCESSFULLY,466.775783,106.000000,572.775783,465.778698,571.778698,5.394139,8,-1.000000,""
56,w0,python3action_linpack_6000,0.000000,1,-1.000000,1,COMPLETED_SUCCESSFULLY,572.775798,0.000010,572.775808,572.775798,572.775808,57277580.801607,8,-1.000000,""
43_updated,w0,python3action_floatoperation_200000000_nova,0.997085,1,2000.000000,1,COMPLETED_SUCCESSFULLY,444.502547,135.399990,579.902538,443.505462,578.905453,4.275521,7,-1.000000,""
43,w0,python3action_floatoperation_200000000,0.000000,1,-1.000000,1,COMPLETED_SUCCESSFULLY,579.902553,0.000010,579.902563,579.902553,579.902563,57990256.300201,7,-1.000000,""
118_updated,w0,python3action_facedetection_SampleVideo_50mb_taurus,0.997085,1,2000.000000,1,COMPLETED_SUCCESSFULLY,453.451244,134.600046,588.051291,452.454159,587.054206,4.361471,13,-1.000000,""
118,w0,python3action_facedetection_SampleVideo_50mb,0.000000,1,-1.000000,1,COMPLETED_SUCCESSFULLY,588.051306,0.000010,588.051316,588.051306,588.051316,58805131.600201,13,-1.000000,""
120_updated,w0,python3action_facedetection_SampleVideo_50mb_taurus,0.997085,1,2000.000000,1,COMPLETED_SUCCESSFULLY,453.451319,134.600046,588.051366,452.454234,587.054281,4.361472,14,-1.000000,""
120,w0,python3action_facedetection_SampleVideo_50mb,0.000000,1,-1.000000,1,COMPLETED_SUCCESSFULLY,588.051381,0.000010,588.051391,588.051381,588.051391,58805139.100201,14,-1.000000,""
133_updated,w0,python3action_facedetection_SampleVideo_50mb_taurus,0.997085,1,2000.000000,1,COMPLETED_SUCCESSFULLY,453.451424,134.600046,588.051471,452.454339,587.054386,4.361472,15,-1.000000,""
133,w0,python3action_facedetection_SampleVideo_50mb,0.000000,1,-1.000000,1,COMPLETED_SUCCESSFULLY,588.051486,0.000010,588.051496,588.051486,588.051496,58805149.600201,15,-1.000000,""
149_updated,w0,python3action_facedetection_SampleVideo_50mb_taurus,0.997085,1,2000.000000,1,COMPLETED_SUCCESSFULLY,453.451469,134.600046,588.051516,452.454384,587.054431,4.361473,16,-1.000000,""
python3action_video_processing_job21_13,w0,python3action_video_processing_reduced_2.8,0.997085,1,2000.000000,1,COMPLETED_SUCCESSFULLY,588.051516,0.000000,588.051516,587.054431,587.054431,5092490513457.166016,15,-1.000000,""
149,w0,python3action_facedetection_SampleVideo_50mb,0.000000,1,-1.000000,1,COMPLETED_SUCCESSFULLY,588.051546,0.000010,588.051556,588.051546,588.051556,58805155.600201,16,-1.000000,""
python3action_video_processing_job29_14,w0,python3action_video_processing_reduced_2.8,0.997085,1,2000.000000,1,COMPLETED_SUCCESSFULLY,588.051591,0.000000,588.051591,587.054506,587.054506,5092491167607.523438,16,-1.000000,""
59_updated,w0,python3action_linpack_6000_orion,0.997085,1,2000.000000,1,COMPLETED_SUCCESSFULLY,484.775828,106.000000,590.775828,483.778743,589.778743,5.563950,9,-1.000000,""
59,w0,python3action_linpack_6000,0.000000,1,-1.000000,1,COMPLETED_SUCCESSFULLY,590.775843,0.000010,590.775853,590.775843,590.775853,59077585.302209,9,-1.000000,""
48_updated,w0,python3action_floatoperation_200000000_nova,0.997085,1,2000.000000,1,COMPLETED_SUCCESSFULLY,471.702578,135.399990,607.102568,470.705493,606.105483,4.476407,25,-1.000000,""
48,w0,python3action_floatoperation_200000000,0.000000,1,-1.000000,1,COMPLETED_SUCCESSFULLY,607.102583,0.000010,607.102593,607.102583,607.102593,60710259.323907,25,-1.000000,""
52_updated,w0,python3action_floatoperation_200000000_nova,0.997085,1,2000.000000,1,COMPLETED_SUCCESSFULLY,471.702653,135.399990,607.102643,470.705568,606.105558,4.476408,26,-1.000000,""
52,w0,python3action_floatoperation_200000000,0.000000,1,-1.000000,1,COMPLETED_SUCCESSFULLY,607.102658,0.000010,607.102668,607.102658,607.102668,60710266.823907,26,-1.000000,""
69_updated,w0,python3action_floatoperation_200000000_nova,0.997085,1,2000.000000,1,COMPLETED_SUCCESSFULLY,471.702773,135.399990,607.102763,470.705688,606.105678,4.476409,27,-1.000000,""
69,w0,python3action_floatoperation_200000000,0.000000,1,-1.000000,1,COMPLETED_SUCCESSFULLY,607.102778,0.000010,607.102788,607.102778,607.102788,60710278.817727,27,-1.000000,""
77_updated,w0,python3action_floatoperation_200000000_nova,0.997085,1,2000.000000,1,COMPLETED_SUCCESSFULLY,471.702833,135.399990,607.102823,470.705748,606.105738,4.476409,28,-1.000000,""
77,w0,python3action_floatoperation_200000000,0.000000,1,-1.000000,1,COMPLETED_SUCCESSFULLY,607.102838,0.000010,607.102848,607.102838,607.102848,60710284.823505,28,-1.000000,""
100_updated,w0,python3action_floatoperation_200000000_nova,0.997085,1,2000.000000,1,COMPLETED_SUCCESSFULLY,471.702878,135.399990,607.102868,470.705793,606.105783,4.476409,29,-1.000000,""
100,w0,python3action_floatoperation_200000000,0.000000,1,-1.000000,1,COMPLETED_SUCCESSFULLY,607.102898,0.000010,607.102908,607.102898,607.102908,60710290.824308,29,-1.000000,""
63_updated,w0,python3action_chameleon_3000_troll,0.997085,1,2000.000000,1,COMPLETED_SUCCESSFULLY,514.269639,94.000000,608.269639,513.272554,607.272554,6.460346,20,-1.000000,""
63,w0,python3action_chameleon_3000,0.000000,1,-1.000000,1,COMPLETED_SUCCESSFULLY,608.269654,0.000010,608.269664,608.269654,608.269664,60826966.412595,20,-1.000000,""
74_updated,w0,python3action_chameleon_3000_troll,0.997085,1,2000.000000,1,COMPLETED_SUCCESSFULLY,553.769634,94.000000,647.769634,552.772549,646.772549,6.880559,19,-1.000000,""
74,w0,python3action_chameleon_3000,0.000000,1,-1.000000,1,COMPLETED_SUCCESSFULLY,647.769649,0.000010,647.769659,647.769649,647.769659,64776965.912595,19,-1.000000,""
154_updated,w0,python3action_facedetection_SampleVideo_50mb_taurus,0.997085,1,2000.000000,1,COMPLETED_SUCCESSFULLY,522.691957,134.600046,657.292003,521.694872,656.294918,4.875889,10,-1.000000,""
154,w0,python3action_facedetection_SampleVideo_50mb,0.000000,1,-1.000000,1,COMPLETED_SUCCESSFULLY,657.292018,0.000010,657.292028,657.292018,657.292028,65729202.823401,10,-1.000000,""
python3action_video_processing_job49_9,w0,python3action_video_processing_reduced_2.8,0.997085,1,2000.000000,1,COMPLETED_SUCCESSFULLY,657.292048,0.000000,657.292048,656.294963,656.294963,5693127758036.795898,10,-1.000000,""
158_updated,w0,python3action_facedetection_SampleVideo_50mb_taurus,0.997085,1,2000.000000,1,COMPLETED_SUCCESSFULLY,522.692047,134.600046,657.292093,521.694962,656.295008,4.875890,11,-1.000000,""
158,w0,python3action_facedetection_SampleVideo_50mb,0.000000,1,-1.000000,1,COMPLETED_SUCCESSFULLY,657.292108,0.000010,657.292118,657.292108,657.292118,65729211.827963,11,-1.000000,""
python3action_video_processing_job91_10,w0,python3action_video_processing_reduced_2.8,0.997085,1,2000.000000,1,COMPLETED_SUCCESSFULLY,657.292138,0.000000,657.292138,656.295053,656.295053,5693128539150.850586,11,-1.000000,""
70_updated,w0,python3action_linpack_6000_orion,0.997085,1,2000.000000,1,COMPLETED_SUCCESSFULLY,572.775828,106.000000,678.775828,571.778743,677.778743,6.394139,8,-1.000000,""
70,w0,python3action_linpack_6000,0.000000,1,-1.000000,1,COMPLETED_SUCCESSFULLY,678.775843,0.000010,678.775853,678.775843,678.775853,67877585.302209,8,-1.000000,""
105_updated,w0,python3action_floatoperation_200000000_nova,0.997085,1,2000.000000,1,COMPLETED_SUCCESSFULLY,546.902343,135.399990,682.302333,545.905258,681.305248,5.031797,2,-1.000000,""
105,w0,python3action_floatoperation_200000000,0.000000,1,-1.000000,1,COMPLETED_SUCCESSFULLY,682.302348,0.000010,682.302358,682.302348,682.302358,68230235.847211,2,-1.000000,""
113_updated,w0,python3action_floatoperation_200000000_nova,0.997085,1,2000.000000,1,COMPLETED_SUCCESSFULLY,546.902433,135.399990,682.302423,545.905348,681.305338,5.031798,3,-1.000000,""
113,w0,python3action_floatoperation_200000000,0.000000,1,-1.000000,1,COMPLETED_SUCCESSFULLY,682.302438,0.000010,682.302448,682.302438,682.302448,68230244.847211,3,-1.000000,""
124_updated,w0,python3action_floatoperation_200000000_nova,0.997085,1,2000.000000,1,COMPLETED_SUCCESSFULLY,546.902508,135.399990,682.302498,545.905423,681.305413,5.031798,4,-1.000000,""
124,w0,python3action_floatoperation_200000000,0.000000,1,-1.000000,1,COMPLETED_SUCCESSFULLY,682.302513,0.000010,682.302523,682.302513,682.302523,68230252.347211,4,-1.000000,""
126_updated,w0,python3action_floatoperation_200000000_nova,0.997085,1,2000.000000,1,COMPLETED_SUCCESSFULLY,546.902568,135.399990,682.302558,545.905483,681.305473,5.031799,5,-1.000000,""
126,w0,python3action_floatoperation_200000000,0.000000,1,-1.000000,1,COMPLETED_SUCCESSFULLY,682.302573,0.000010,682.302583,682.302573,682.302583,68230258.347613,5,-1.000000,""
134_updated,w0,python3action_floatoperation_200000000_nova,0.997085,1,2000.000000,1,COMPLETED_SUCCESSFULLY,554.702503,135.399990,690.102493,553.705418,689.105408,5.089405,6,-1.000000,""
134,w0,python3action_floatoperation_200000000,0.000000,1,-1.000000,1,COMPLETED_SUCCESSFULLY,690.102508,0.000010,690.102518,690.102508,690.102518,69010251.847211,6,-1.000000,""
73_updated,w0,python3action_linpack_6000_orion,0.997085,1,2000.000000,1,COMPLETED_SUCCESSFULLY,590.775873,106.000000,696.775873,589.778788,695.778788,6.563951,9,-1.000000,""
73,w0,python3action_linpack_6000,0.000000,1,-1.000000,1,COMPLETED_SUCCESSFULLY,696.775888,0.000010,696.775898,696.775888,696.775898,69677589.802812,9,-1.000000,""
98_updated,w0,python3action_chameleon_3000_troll,0.997085,1,2000.000000,1,COMPLETED_SUCCESSFULLY,608.269684,94.000000,702.269684,607.272599,701.272599,7.460347,20,-1.000000,""
98,w0,python3action_chameleon_3000,0.000000,1,-1.000000,1,COMPLETED_SUCCESSFULLY,702.269699,0.000010,702.269709,702.269699,702.269709,70226970.913197,20,-1.000000,""
169_updated,w0,python3action_floatoperation_200000000_nova,0.997085,1,2000.000000,1,COMPLETED_SUCCESSFULLY,579.902583,135.399990,715.302573,578.905498,714.305488,5.275521,7,-1.000000,""
169,w0,python3action_floatoperation_200000000,0.000000,1,-1.000000,1,COMPLETED_SUCCESSFULLY,715.302588,0.000010,715.302598,715.302588,715.302598,71530259.823907,7,-1.000000,""
python3action_facedetection_job15_6,w0,python3action_facedetection_reduced_1.83,0.997085,1,2000.000000,1,COMPLETED_SUCCESSFULLY,715.302618,0.000000,715.302618,714.305533,714.305533,14611855620196.453125,7,-1.000000,""
172_updated,w0,python3action_facedetection_SampleVideo_50mb_taurus,0.997085,1,2000.000000,1,COMPLETED_SUCCESSFULLY,588.051336,134.600046,722.651382,587.054251,721.654297,5.361471,13,-1.000000,""
172,w0,python3action_facedetection_SampleVideo_50mb,0.000000,1,-1.000000,1,COMPLETED_SUCCESSFULLY,722.651397,0.000010,722.651407,722.651397,722.651407,72265140.713881,13,-1.000000,""
python3action_video_processing_job102_11,w0,python3action_video_processing_reduced_2.8,0.997085,1,2000.000000,1,COMPLETED_SUCCESSFULLY,722.651427,0.000000,722.651427,721.654342,721.654342,6260097360325.087891,13,-1.000000,""
190_updated,w0,python3action_facedetection_SampleVideo_50mb_taurus,0.997085,1,2000.000000,1,COMPLETED_SUCCESSFULLY,588.051411,134.600046,722.651457,587.054326,721.654372,5.361472,14,-1.000000,""
190,w0,python3action_facedetection_SampleVideo_50mb,0.000000,1,-1.000000,1,COMPLETED_SUCCESSFULLY,722.651487,0.000010,722.651497,722.651487,722.651497,72265149.714283,14,-1.000000,""
python3action_video_processing_job107_12,w0,python3action_video_processing_reduced_2.8,0.997085,1,2000.000000,1,COMPLETED_SUCCESSFULLY,722.651517,0.000000,722.651517,721.654432,721.654432,6260098141078.241211,14,-1.000000,""
99_updated,w0,python3action_chameleon_3000_troll,0.997085,1,2000.000000,1,COMPLETED_SUCCESSFULLY,647.769679,94.000000,741.769679,646.772594,740.772594,7.880560,19,-1.000000,""
99,w0,python3action_chameleon_3000,0.000000,1,-1.000000,1,COMPLETED_SUCCESSFULLY,741.769694,0.000010,741.769704,741.769694,741.769704,74176970.413197,19,-1.000000,""
21_updated,w0,python3action_videoprocessing_SampleVideo_50mb_taurus,0.997085,1,2000.000000,1,COMPLETED_SUCCESSFULLY,588.051561,154.250029,742.301590,587.054476,741.304505,4.805863,15,-1.000000,""
21,w0,python3action_videoprocessing_SampleVideo_50mb,0.000000,1,-1.000000,1,COMPLETED_SUCCESSFULLY,742.301605,0.000010,742.301615,742.301605,742.301615,74230161.500201,15,-1.000000,""
29_updated,w0,python3action_videoprocessing_SampleVideo_50mb_taurus,0.997085,1,2000.000000,1,COMPLETED_SUCCESSFULLY,588.051621,154.250029,742.301650,587.054536,741.304565,4.805863,16,-1.000000,""
29,w0,python3action_videoprocessing_SampleVideo_50mb,0.000000,1,-1.000000,1,COMPLETED_SUCCESSFULLY,742.301665,0.000010,742.301675,742.301665,742.301675,74230167.500201,16,-1.000000,""
171_updated,w0,python3action_floatoperation_200000000_nova,0.997085,1,2000.000000,1,COMPLETED_SUCCESSFULLY,607.102613,135.399990,742.502603,606.105528,741.505518,5.476407,25,-1.000000,""
171,w0,python3action_floatoperation_200000000,0.000000,1,-1.000000,1,COMPLETED_SUCCESSFULLY,742.502618,0.000010,742.502628,742.502618,742.502628,74250262.847613,25,-1.000000,""
python3action_facedetection_job26_17,w0,python3action_facedetection_reduced_1.83,0.997085,1,2000.000000,1,COMPLETED_SUCCESSFULLY,742.502648,0.000000,742.502648,741.505563,741.505563,15168260262457.031250,25,-1.000000,""
182_updated,w0,python3action_floatoperation_200000000_nova,0.997085,1,2000.000000,1,COMPLETED_SUCCESSFULLY,607.102688,135.399990,742.502678,606.105603,741.505593,5.476408,26,-1.000000,""
182,w0,python3action_floatoperation_200000000,0.000000,1,-1.000000,1,COMPLETED_SUCCESSFULLY,742.502708,0.000010,742.502718,742.502708,742.502718,74250271.848014,26,-1.000000,""
python3action_facedetection_job51_18,w0,python3action_facedetection_reduced_1.83,0.997085,1,2000.000000,1,COMPLETED_SUCCESSFULLY,742.502738,0.000000,742.502738,741.505653,741.505653,15168262103581.906250,26,-1.000000,""
25_updated,w0,python3action_pyaes_4000_nova,0.997085,1,2000.000000,1,COMPLETED_SUCCESSFULLY,607.102808,139.600010,746.702818,606.105723,745.705733,5.341731,27,-1.000000,""
25,w0,python3action_pyaes_4000,0.000000,1,-1.000000,1,COMPLETED_SUCCESSFULLY,746.702833,0.000010,746.702843,746.702833,746.702843,74670284.300201,27,-1.000000,""
python3action_facedetection_job54_19,w0,python3action_facedetection_reduced_1.83,0.997085,1,2000.000000,1,COMPLETED_SUCCESSFULLY,746.702863,0.000000,746.702863,745.705778,745.705778,15254179977998.617188,27,-1.000000,""
85_updated,w0,python3action_pyaes_4000_nova,0.997085,1,2000.000000,1,COMPLETED_SUCCESSFULLY,607.102868,139.600010,746.702878,606.105783,745.705793,5.341732,28,-1.000000,""
85,w0,python3action_pyaes_4000,0.000000,1,-1.000000,1,COMPLETED_SUCCESSFULLY,746.702908,0.000010,746.702918,746.702908,746.702918,74670291.801205,28,-1.000000,""
97_updated,w0,python3action_pyaes_4000_nova,0.997085,1,2000.000000,1,COMPLETED_SUCCESSFULLY,607.102928,139.600010,746.702938,606.105843,745.705853,5.341732,29,-1.000000,""
python3action_facedetection_job64_20,w0,python3action_facedetection_reduced_1.83,0.997085,1,2000.000000,1,COMPLETED_SUCCESSFULLY,746.702938,0.000000,746.702938,745.705853,745.705853,15254181512406.271484,28,-1.000000,""
97,w0,python3action_pyaes_4000,0.000000,1,-1.000000,1,COMPLETED_SUCCESSFULLY,746.702968,0.000010,746.702978,746.702968,746.702978,74670297.802008,29,-1.000000,""
python3action_facedetection_job66_21,w0,python3action_facedetection_reduced_1.83,0.997085,1,2000.000000,1,COMPLETED_SUCCESSFULLY,746.703013,0.000000,746.703013,745.705928,745.705928,15254183046813.925781,29,-1.000000,""
92_updated,w0,python3action_linpack_6000_orion,0.997085,1,2000.000000,1,COMPLETED_SUCCESSFULLY,678.775873,106.000000,784.775873,677.778788,783.778788,7.394140,8,-1.000000,""
92,w0,python3action_linpack_6000,0.000000,1,-1.000000,1,COMPLETED_SUCCESSFULLY,784.775888,0.000010,784.775898,784.775888,784.775898,78477589.802812,8,-1.000000,""
141_updated,w0,python3action_chameleon_3000_troll,0.997085,1,2000.000000,1,COMPLETED_SUCCESSFULLY,702.269729,94.000000,796.269729,701.272644,795.272644,8.460347,20,-1.000000,""
141,w0,python3action_chameleon_3000,0.000000,1,-1.000000,1,COMPLETED_SUCCESSFULLY,796.269744,0.000010,796.269754,796.269744,796.269754,79626975.413799,20,-1.000000,""
93_updated,w0,python3action_linpack_6000_orion,0.997085,1,2000.000000,1,COMPLETED_SUCCESSFULLY,696.775918,106.000000,802.775918,695.778833,801.778833,7.563951,9,-1.000000,""
93,w0,python3action_linpack_6000,0.000000,1,-1.000000,1,COMPLETED_SUCCESSFULLY,802.775933,0.000010,802.775943,802.775933,802.775943,80277594.303414,9,-1.000000,""
49_updated,w0,python3action_videoprocessing_SampleVideo_50mb_taurus,0.997085,1,2000.000000,1,COMPLETED_SUCCESSFULLY,657.292078,154.250029,811.542107,656.294993,810.545022,5.254748,10,-1.000000,""
49,w0,python3action_videoprocessing_SampleVideo_50mb,0.000000,1,-1.000000,1,COMPLETED_SUCCESSFULLY,811.542122,0.000010,811.542132,811.542122,811.542132,81154213.207579,10,-1.000000,""
91_updated,w0,python3action_videoprocessing_SampleVideo_50mb_taurus,0.997085,1,2000.000000,1,COMPLETED_SUCCESSFULLY,657.292168,154.250029,811.542197,656.295083,810.545112,5.254749,11,-1.000000,""
91,w0,python3action_videoprocessing_SampleVideo_50mb,0.000000,1,-1.000000,1,COMPLETED_SUCCESSFULLY,811.542212,0.000010,811.542222,811.542212,811.542222,81154222.212141,11,-1.000000,""
104_updated,w0,python3action_pyaes_4000_nova,0.997085,1,2000.000000,1,COMPLETED_SUCCESSFULLY,682.302378,139.600010,821.902388,681.305293,820.905303,5.880410,2,-1.000000,""
104,w0,python3action_pyaes_4000,0.000000,1,-1.000000,1,COMPLETED_SUCCESSFULLY,821.902403,0.000010,821.902413,821.902403,821.902413,82190241.324710,2,-1.000000,""
python3action_facedetection_job78_1,w0,python3action_facedetection_reduced_1.83,0.997085,1,2000.000000,1,COMPLETED_SUCCESSFULLY,821.902433,0.000000,821.902433,820.905348,820.905348,16792464664291.406250,2,-1.000000,""
139_updated,w0,python3action_pyaes_4000_nova,0.997085,1,2000.000000,1,COMPLETED_SUCCESSFULLY,682.302468,139.600010,821.902478,681.305383,820.905393,5.880411,3,-1.000000,""
139,w0,python3action_pyaes_4000,0.000000,1,-1.000000,1,COMPLETED_SUCCESSFULLY,821.902493,0.000010,821.902503,821.902493,821.902503,82190250.324911,3,-1.000000,""
python3action_facedetection_job96_2,w0,python3action_facedetection_reduced_1.83,0.997085,1,2000.000000,1,COMPLETED_SUCCESSFULLY,821.902523,0.000000,821.902523,820.905438,820.905438,16792466505375.207031,3,-1.000000,""
150_updated,w0,python3action_pyaes_4000_nova,0.997085,1,2000.000000,1,COMPLETED_SUCCESSFULLY,682.302543,139.600010,821.902553,681.305458,820.905468,5.880411,4,-1.000000,""
150,w0,python3action_pyaes_4000,0.000000,1,-1.000000,1,COMPLETED_SUCCESSFULLY,821.902583,0.000010,821.902593,821.902583,821.902593,82190259.325112,4,-1.000000,""
157_updated,w0,python3action_pyaes_4000_nova,0.997085,1,2000.000000,1,COMPLETED_SUCCESSFULLY,682.302603,139.600010,821.902613,681.305518,820.905528,5.880412,5,-1.000000,""
python3action_facedetection_job112_3,w0,python3action_facedetection_reduced_1.83,0.997085,1,2000.000000,1,COMPLETED_SUCCESSFULLY,821.902613,0.000000,821.902613,820.905528,820.905528,16792468346376.849609,4,-1.000000,""
157,w0,python3action_pyaes_4000,0.000000,1,-1.000000,1,COMPLETED_SUCCESSFULLY,821.902643,0.000010,821.902653,821.902643,821.902653,82190265.325513,5,-1.000000,""
python3action_facedetection_job148_4,w0,python3action_facedetection_reduced_1.83,0.997085,1,2000.000000,1,COMPLETED_SUCCESSFULLY,821.902688,0.000000,821.902688,820.905603,820.905603,16792469880784.503906,5,-1.000000,""
187_updated,w0,python3action_pyaes_4000_nova,0.997085,1,2000.000000,1,COMPLETED_SUCCESSFULLY,690.102538,139.600010,829.702548,689.105453,828.705463,5.936285,6,-1.000000,""
187,w0,python3action_pyaes_4000,0.000000,1,-1.000000,1,COMPLETED_SUCCESSFULLY,829.702563,0.000010,829.702573,829.702563,829.702573,82970257.324710,6,-1.000000,""
python3action_facedetection_job191_5,w0,python3action_facedetection_reduced_1.83,0.997085,1,2000.000000,1,COMPLETED_SUCCESSFULLY,829.702593,0.000000,829.702593,828.705508,828.705508,16952024973473.037109,6,-1.000000,""
173_updated,w0,python3action_chameleon_3000_troll,0.997085,1,2000.000000,1,COMPLETED_SUCCESSFULLY,741.769724,94.000000,835.769724,740.772639,834.772639,8.880560,19,-1.000000,""
173,w0,python3action_chameleon_3000,0.000000,1,-1.000000,1,COMPLETED_SUCCESSFULLY,835.769739,0.000010,835.769749,835.769739,835.769749,83576974.913799,19,-1.000000,""
15_updated,w0,python3action_facedetection_SampleVideo_30mb_nova,0.997085,1,2000.000000,1,COMPLETED_SUCCESSFULLY,715.302648,160.399990,875.702638,714.305563,874.705553,5.453277,7,-1.000000,""
15,w0,python3action_facedetection_SampleVideo_30mb,0.000000,1,-1.000000,1,COMPLETED_SUCCESSFULLY,875.702653,0.000010,875.702663,875.702653,875.702663,87570266.348014,7,-1.000000,""
102_updated,w0,python3action_videoprocessing_SampleVideo_50mb_taurus,0.997085,1,2000.000000,1,COMPLETED_SUCCESSFULLY,722.651457,154.250029,876.901486,721.654372,875.904401,5.678472,13,-1.000000,""
102,w0,python3action_videoprocessing_SampleVideo_50mb,0.000000,1,-1.000000,1,COMPLETED_SUCCESSFULLY,876.901501,0.000010,876.901511,876.901501,876.901511,87690151.100201,13,-1.000000,""
107_updated,w0,python3action_videoprocessing_SampleVideo_50mb_taurus,0.997085,1,2000.000000,1,COMPLETED_SUCCESSFULLY,722.651547,154.250029,876.901576,721.654462,875.904491,5.678472,14,-1.000000,""
107,w0,python3action_videoprocessing_SampleVideo_50mb,0.000000,1,-1.000000,1,COMPLETED_SUCCESSFULLY,876.901591,0.000010,876.901601,876.901591,876.901601,87690160.100201,14,-1.000000,""
181_updated,w0,python3action_chameleon_3000_troll,0.997085,1,2000.000000,1,COMPLETED_SUCCESSFULLY,796.269774,94.000000,890.269774,795.272689,889.272689,9.460348,20,-1.000000,""
181,w0,python3action_chameleon_3000,0.000000,1,-1.000000,1,COMPLETED_SUCCESSFULLY,890.269789,0.000010,890.269799,890.269789,890.269799,89026979.914402,20,-1.000000,""
132_updated,w0,python3action_linpack_6000_orion,0.997085,1,2000.000000,1,COMPLETED_SUCCESSFULLY,784.775918,106.000000,890.775918,783.778833,889.778833,8.394140,8,-1.000000,""
132,w0,python3action_linpack_6000,0.000000,1,-1.000000,1,COMPLETED_SUCCESSFULLY,890.775933,0.000010,890.775943,890.775933,890.775943,89077594.303414,8,-1.000000,""
145_updated,w0,python3action_videoprocessing_SampleVideo_50mb_taurus,0.997085,1,2000.000000,1,COMPLETED_SUCCESSFULLY,742.301635,154.250029,896.551664,741.304550,895.554579,5.805863,15,-1.000000,""
145,w0,python3action_videoprocessing_SampleVideo_50mb,0.000000,1,-1.000000,1,COMPLETED_SUCCESSFULLY,896.551679,0.000010,896.551689,896.551679,896.551689,89655168.900201,15,-1.000000,""
160_updated,w0,python3action_videoprocessing_SampleVideo_50mb_taurus,0.997085,1,2000.000000,1,COMPLETED_SUCCESSFULLY,742.301695,154.250029,896.551724,741.304610,895.554639,5.805864,16,-1.000000,""
160,w0,python3action_videoprocessing_SampleVideo_50mb,0.000000,1,-1.000000,1,COMPLETED_SUCCESSFULLY,896.551739,0.000010,896.551749,896.551739,896.551749,89655174.900201,16,-1.000000,""
26_updated,w0,python3action_facedetection_SampleVideo_30mb_nova,0.997085,1,2000.000000,1,COMPLETED_SUCCESSFULLY,742.502678,160.399990,902.902669,741.505593,901.905584,5.622853,25,-1.000000,""
26,w0,python3action_facedetection_SampleVideo_30mb,0.000000,1,-1.000000,1,COMPLETED_SUCCESSFULLY,902.902684,0.000010,902.902694,902.902684,902.902694,90290269.400201,25,-1.000000,""
51_updated,w0,python3action_facedetection_SampleVideo_30mb_nova,0.997085,1,2000.000000,1,COMPLETED_SUCCESSFULLY,742.502768,160.399990,902.902759,741.505683,901.905674,5.622854,26,-1.000000,""
51,w0,python3action_facedetection_SampleVideo_30mb,0.000000,1,-1.000000,1,COMPLETED_SUCCESSFULLY,902.902774,0.000010,902.902784,902.902774,902.902784,90290278.400201,26,-1.000000,""
54_updated,w0,python3action_facedetection_SampleVideo_30mb_nova,0.997085,1,2000.000000,1,COMPLETED_SUCCESSFULLY,746.702893,160.399990,907.102883,745.705808,906.105798,5.649039,27,-1.000000,""
54,w0,python3action_facedetection_SampleVideo_30mb,0.000000,1,-1.000000,1,COMPLETED_SUCCESSFULLY,907.102898,0.000010,907.102908,907.102898,907.102908,90710290.824308,27,-1.000000,""
64_updated,w0,python3action_facedetection_SampleVideo_30mb_nova,0.997085,1,2000.000000,1,COMPLETED_SUCCESSFULLY,746.702983,160.399990,907.102973,745.705898,906.105888,5.649040,28,-1.000000,""
64,w0,python3action_facedetection_SampleVideo_30mb,0.000000,1,-1.000000,1,COMPLETED_SUCCESSFULLY,907.102988,0.000010,907.102998,907.102988,907.102998,90710299.825513,28,-1.000000,""
66_updated,w0,python3action_facedetection_SampleVideo_30mb_nova,0.997085,1,2000.000000,1,COMPLETED_SUCCESSFULLY,746.703043,160.399990,907.103033,745.705958,906.105948,5.649040,29,-1.000000,""
66,w0,python3action_facedetection_SampleVideo_30mb,0.000000,1,-1.000000,1,COMPLETED_SUCCESSFULLY,907.103048,0.000010,907.103058,907.103048,907.103058,90710305.826316,29,-1.000000,""
140_updated,w0,python3action_linpack_6000_orion,0.997085,1,2000.000000,1,COMPLETED_SUCCESSFULLY,802.775963,106.000000,908.775963,801.778878,907.778878,8.563952,9,-1.000000,""
140,w0,python3action_linpack_6000,0.000000,1,-1.000000,1,COMPLETED_SUCCESSFULLY,908.775978,0.000010,908.775988,908.775978,908.775988,90877598.804016,9,-1.000000,""
194_updated,w0,python3action_chameleon_3000_troll,0.997085,1,2000.000000,1,COMPLETED_SUCCESSFULLY,835.769769,94.000000,929.769769,834.772684,928.772684,9.880560,19,-1.000000,""
194,w0,python3action_chameleon_3000,0.000000,1,-1.000000,1,COMPLETED_SUCCESSFULLY,929.769784,0.000010,929.769794,929.769784,929.769794,92976979.414402,19,-1.000000,""
161_updated,w0,python3action_videoprocessing_SampleVideo_50mb_taurus,0.997085,1,2000.000000,1,COMPLETED_SUCCESSFULLY,811.542152,154.250029,965.792181,810.545067,964.795096,6.254748,10,-1.000000,""
161,w0,python3action_videoprocessing_SampleVideo_50mb,0.000000,1,-1.000000,1,COMPLETED_SUCCESSFULLY,965.792196,0.000010,965.792206,965.792196,965.792206,96579220.600201,10,-1.000000,""
176_updated,w0,python3action_videoprocessing_SampleVideo_50mb_taurus,0.997085,1,2000.000000,1,COMPLETED_SUCCESSFULLY,811.542242,154.250029,965.792271,810.545157,964.795186,6.254749,11,-1.000000,""
176,w0,python3action_videoprocessing_SampleVideo_50mb,0.000000,1,-1.000000,1,COMPLETED_SUCCESSFULLY,965.792286,0.000010,965.792296,965.792286,965.792296,96579229.600201,11,-1.000000,""
78_updated,w0,python3action_facedetection_SampleVideo_30mb_nova,0.997085,1,2000.000000,1,COMPLETED_SUCCESSFULLY,821.902463,160.399990,982.302453,820.905378,981.305368,6.117864,2,-1.000000,""
78,w0,python3action_facedetection_SampleVideo_30mb,0.000000,1,-1.000000,1,COMPLETED_SUCCESSFULLY,982.302468,0.000010,982.302478,982.302468,982.302478,98230247.848818,2,-1.000000,""
96_updated,w0,python3action_facedetection_SampleVideo_30mb_nova,0.997085,1,2000.000000,1,COMPLETED_SUCCESSFULLY,821.902553,160.399990,982.302543,820.905468,981.305458,6.117865,3,-1.000000,""
96,w0,python3action_facedetection_SampleVideo_30mb,0.000000,1,-1.000000,1,COMPLETED_SUCCESSFULLY,982.302558,0.000010,982.302568,982.302558,982.302568,98230256.848014,3,-1.000000,""
112_updated,w0,python3action_facedetection_SampleVideo_30mb_nova,0.997085,1,2000.000000,1,COMPLETED_SUCCESSFULLY,821.902658,160.399990,982.302648,820.905573,981.305563,6.117865,4,-1.000000,""
112,w0,python3action_facedetection_SampleVideo_30mb,0.000000,1,-1.000000,1,COMPLETED_SUCCESSFULLY,982.302663,0.000010,982.302673,982.302663,982.302673,98230267.349018,4,-1.000000,""
148_updated,w0,python3action_facedetection_SampleVideo_30mb_nova,0.997085,1,2000.000000,1,COMPLETED_SUCCESSFULLY,821.902718,160.399990,982.302708,820.905633,981.305623,6.117866,5,-1.000000,""
148,w0,python3action_facedetection_SampleVideo_30mb,0.000000,1,-1.000000,1,COMPLETED_SUCCESSFULLY,982.302723,0.000010,982.302733,982.302723,982.302733,98230273.349822,5,-1.000000,""
191_updated,w0,python3action_facedetection_SampleVideo_30mb_nova,0.997085,1,2000.000000,1,COMPLETED_SUCCESSFULLY,829.702623,160.399990,990.102613,828.705538,989.105528,6.166494,6,-1.000000,""
191,w0,python3action_facedetection_SampleVideo_30mb,0.000000,1,-1.000000,1,COMPLETED_SUCCESSFULLY,990.102628,0.000010,990.102638,990.102628,990.102638,99010263.848817,6,-1.000000,""
142_updated,w0,python3action_linpack_6000_orion,0.997085,1,2000.000000,1,COMPLETED_SUCCESSFULLY,890.775963,106.000000,996.775963,889.778878,995.778878,9.394140,8,-1.000000,""
142,w0,python3action_linpack_6000,0.000000,1,-1.000000,1,COMPLETED_SUCCESSFULLY,996.775978,0.000010,996.775988,996.775978,996.775988,99677598.804016,8,-1.000000,""
144_updated,w0,python3action_linpack_6000_orion,0.997085,1,2000.000000,1,COMPLETED_SUCCESSFULLY,908.776008,106.000000,1014.776008,907.778923,1013.778923,9.563952,9,-1.000000,""
144,w0,python3action_linpack_6000,0.000000,1,-1.000000,1,COMPLETED_SUCCESSFULLY,1014.776023,0.000010,1014.776033,1014.776023,1014.776033,101477603.304619,9,-1.000000,""
195_updated,w0,python3action_videoprocessing_SampleVideo_50mb_taurus,0.997085,1,2000.000000,1,COMPLETED_SUCCESSFULLY,876.901531,154.250029,1031.151560,875.904446,1030.154475,6.678472,13,-1.000000,""
195,w0,python3action_videoprocessing_SampleVideo_50mb,0.000000,1,-1.000000,1,COMPLETED_SUCCESSFULLY,1031.151575,0.000010,1031.151585,1031.151575,1031.151585,103115158.500201,13,-1.000000,""
