job_id,workload_name,profile,submission_time,requested_number_of_resources,requested_time,success,final_state,starting_time,execution_time,finish_time,waiting_time,turnaround_time,stretch,allocated_resources,consumed_energy,metadata
python3action_linpack_job35_0,w0,python3action_linpack,0.997085,1,2000.000000,1,COMPLETED_SUCCESSFULLY,1.002100,0.277720,1.279820,0.005015,0.282735,1.018058,0,-1.000000,""
python3action_linpack_job54_1,w0,python3action_linpack,0.997085,1,2000.000000,1,COMPLETED_SUCCESSFULLY,1.002115,0.277720,1.279835,0.005030,0.282750,1.018112,1,-1.000000,""
python3action_pyaes_job15_3,w0,python3action_pyaes,0.997085,1,2000.000000,1,COMPLETED_SUCCESSFULLY,1.002145,0.867914,1.870059,0.005060,0.872974,1.005830,4,-1.000000,""
python3action_chameleon_job27_4,w0,python3action_chameleon,0.997085,1,2000.000000,1,COMPLETED_SUCCESSFULLY,1.002160,0.892694,1.894854,0.005075,0.897769,1.005685,5,-1.000000,""
python3action_floatoperation_job5_5,w0,python3action_floatoperation,0.997085,1,2000.000000,1,COMPLETED_SUCCESSFULLY,1.002175,2.439945,3.442120,0.005090,2.445035,1.002086,6,-1.000000,""
python3action_floatoperation_job31_6,w0,python3action_floatoperation,0.997085,1,2000.000000,1,COMPLETED_SUCCESSFULLY,1.002190,2.439945,3.442135,0.005105,2.445050,1.002092,7,-1.000000,""
python3action_floatoperation_job43_7,w0,python3action_floatoperation,0.997085,1,2000.000000,1,COMPLETED_SUCCESSFULLY,1.002205,2.439945,3.442150,0.005120,2.445065,1.002098,8,-1.000000,""
python3action_floatoperation_job44_8,w0,python3action_floatoperation,0.997085,1,2000.000000,1,COMPLETED_SUCCESSFULLY,1.002220,2.439945,3.442165,0.005135,2.445080,1.002105,9,-1.000000,""
python3action_floatoperation_job47_9,w0,python3action_floatoperation,0.997085,1,2000.000000,1,COMPLETED_SUCCESSFULLY,1.002235,2.439945,3.442180,0.005150,2.445095,1.002111,10,-1.000000,""
python3action_linpack_job25_10,w0,python3action_linpack,0.997085,1,2000.000000,1,COMPLETED_SUCCESSFULLY,1.002250,5.760927,6.763177,0.005165,5.766092,1.000897,11,-1.000000,""
35_updated,w0,python3action_linpack_5000_neowise,0.997085,1,2000.000000,1,COMPLETED_SUCCESSFULLY,1.279835,20.750000,22.029835,0.282750,21.032750,1.013627,0,-1.000000,""
35,w0,python3action_linpack_5000,0.000000,1,-1.000000,1,COMPLETED_SUCCESSFULLY,22.029850,0.000010,22.029860,22.029850,22.029860,2202986.033426,0,-1.000000,""
54_updated,w0,python3action_linpack_5000_neowise,0.997085,1,2000.000000,1,COMPLETED_SUCCESSFULLY,1.279865,20.750000,22.029865,0.282780,21.032780,1.013628,1,-1.000000,""
54,w0,python3action_linpack_5000,0.000000,1,-1.000000,1,COMPLETED_SUCCESSFULLY,22.029895,0.000010,22.029905,22.029895,22.029905,2202990.534029,1,-1.000000,""
73_updated,w0,python3action_linpack_5000_neowise,0.997085,1,2000.000000,1,COMPLETED_SUCCESSFULLY,22.029880,20.750000,42.779880,21.032795,41.782795,2.013629,0,-1.000000,""
73,w0,python3action_linpack_5000,0.000000,1,-1.000000,1,COMPLETED_SUCCESSFULLY,42.779895,0.000010,42.779905,42.779895,42.779905,4277990.534029,0,-1.000000,""
107_updated,w0,python3action_linpack_5000_neowise,0.997085,1,2000.000000,1,COMPLETED_SUCCESSFULLY,22.029925,20.750000,42.779925,21.032840,41.782840,2.013631,1,-1.000000,""
107,w0,python3action_linpack_5000,0.000000,1,-1.000000,1,COMPLETED_SUCCESSFULLY,42.779955,0.000010,42.779965,42.779955,42.779965,4277996.534832,1,-1.000000,""
15_updated,w0,python3action_pyaes_3000_troll,0.997085,1,2000.000000,1,COMPLETED_SUCCESSFULLY,1.870074,57.166677,59.036751,0.872989,58.039666,1.015271,4,-1.000000,""
15,w0,python3action_pyaes_3000,0.000000,1,-1.000000,1,COMPLETED_SUCCESSFULLY,59.036766,0.000010,59.036776,59.036766,59.036776,5903677.600201,4,-1.000000,""
113_updated,w0,python3action_linpack_5000_neowise,0.997085,1,2000.000000,1,COMPLETED_SUCCESSFULLY,42.779925,20.750000,63.529925,41.782840,62.532840,3.013631,0,-1.000000,""
113,w0,python3action_linpack_5000,0.000000,1,-1.000000,1,COMPLETED_SUCCESSFULLY,63.529940,0.000010,63.529950,63.529940,63.529950,6352995.034631,0,-1.000000,""
167_updated,w0,python3action_linpack_5000_neowise,0.997085,1,2000.000000,1,COMPLETED_SUCCESSFULLY,42.779985,20.750000,63.529985,41.782900,62.532900,3.013634,1,-1.000000,""
167,w0,python3action_linpack_5000,0.000000,1,-1.000000,1,COMPLETED_SUCCESSFULLY,63.530000,0.000010,63.530010,63.530000,63.530010,6353001.035435,1,-1.000000,""
5_updated,w0,python3action_floatoperation_100000000_nova,0.997085,1,2000.000000,1,COMPLETED_SUCCESSFULLY,3.442135,66.200020,69.642155,2.445050,68.645070,1.036934,6,-1.000000,""
5,w0,python3action_floatoperation_100000000,0.000000,1,-1.000000,1,COMPLETED_SUCCESSFULLY,69.642170,0.000010,69.642180,69.642170,69.642180,6964218.000201,6,-1.000000,""
31_updated,w0,python3action_floatoperation_100000000_nova,0.997085,1,2000.000000,1,COMPLETED_SUCCESSFULLY,3.442165,66.200020,69.642185,2.445080,68.645100,1.036935,7,-1.000000,""
43_updated,w0,python3action_floatoperation_100000000_nova,0.997085,1,2000.000000,1,COMPLETED_SUCCESSFULLY,3.442195,66.200020,69.642215,2.445110,68.645130,1.036935,8,-1.000000,""
31,w0,python3action_floatoperation_100000000,0.000000,1,-1.000000,1,COMPLETED_SUCCESSFULLY,69.642215,0.000010,69.642225,69.642215,69.642225,6964222.485583,7,-1.000000,""
44_updated,w0,python3action_floatoperation_100000000_nova,0.997085,1,2000.000000,1,COMPLETED_SUCCESSFULLY,3.442210,66.200020,69.642230,2.445125,68.645145,1.036935,9,-1.000000,""
43,w0,python3action_floatoperation_100000000,0.000000,1,-1.000000,1,COMPLETED_SUCCESSFULLY,69.642245,0.000010,69.642255,69.642245,69.642255,6964225.500201,8,-1.000000,""
47_updated,w0,python3action_floatoperation_100000000_nova,0.997085,1,2000.000000,1,COMPLETED_SUCCESSFULLY,3.442240,66.200020,69.642260,2.445155,68.645175,1.036936,10,-1.000000,""
44,w0,python3action_floatoperation_100000000,0.000000,1,-1.000000,1,COMPLETED_SUCCESSFULLY,69.642275,0.000010,69.642285,69.642275,69.642285,6964228.486386,9,-1.000000,""
47,w0,python3action_floatoperation_100000000,0.000000,1,-1.000000,1,COMPLETED_SUCCESSFULLY,69.642320,0.000010,69.642330,69.642320,69.642330,6964233.000402,10,-1.000000,""
python3action_image_processing_job13_2,w0,python3action_image_processing,0.997085,1,2000.000000,1,COMPLETED_SUCCESSFULLY,1.002130,72.012455,73.014585,0.005045,72.017500,1.000070,2,-1.000000,""
python3action_image_processing_job33_11,w0,python3action_image_processing,0.997085,1,2000.000000,1,COMPLETED_SUCCESSFULLY,1.002265,72.012455,73.014720,0.005180,72.017635,1.000072,12,-1.000000,""
python3action_image_processing_job38_12,w0,python3action_image_processing,0.997085,1,2000.000000,1,COMPLETED_SUCCESSFULLY,1.002280,72.012455,73.014735,0.005195,72.017650,1.000072,13,-1.000000,""
168_updated,w0,python3action_linpack_5000_neowise,0.997085,1,2000.000000,1,COMPLETED_SUCCESSFULLY,63.529970,20.750000,84.279970,62.532885,83.282885,4.013633,0,-1.000000,""
168,w0,python3action_linpack_5000,0.000000,1,-1.000000,1,COMPLETED_SUCCESSFULLY,84.279985,0.000010,84.279995,84.279985,84.279995,8427999.535234,0,-1.000000,""
188_updated,w0,python3action_linpack_5000_neowise,0.997085,1,2000.000000,1,COMPLETED_SUCCESSFULLY,63.530030,20.750000,84.280030,62.532945,83.282945,4.013636,1,-1.000000,""
188,w0,python3action_linpack_5000,0.000000,1,-1.000000,1,COMPLETED_SUCCESSFULLY,84.280045,0.000010,84.280055,84.280045,84.280055,8428005.536037,1,-1.000000,""
python3action_modeltraining_job14_2,w0,python3action_modeltraining,0.997085,1,2000.000000,1,COMPLETED_SUCCESSFULLY,84.280075,3.471546,87.751621,83.282990,86.754536,24.990175,1,-1.000000,""
27_updated,w0,python3action_chameleon_3000_yeti,0.997085,1,2000.000000,1,COMPLETED_SUCCESSFULLY,1.894869,93.000000,94.894869,0.897784,93.897784,1.009654,5,-1.000000,""
27,w0,python3action_chameleon_3000,0.000000,1,-1.000000,1,COMPLETED_SUCCESSFULLY,94.894884,0.000010,94.894894,94.894884,94.894894,9489489.449765,5,-1.000000,""
192_updated,w0,python3action_linpack_5000_neowise,0.997085,1,2000.000000,1,COMPLETED_SUCCESSFULLY,84.280015,20.750000,105.030015,83.282930,104.032930,5.013635,0,-1.000000,""
192,w0,python3action_linpack_5000,0.000000,1,-1.000000,1,COMPLETED_SUCCESSFULLY,105.030030,0.000010,105.030040,105.030030,105.030040,10503004.035836,0,-1.000000,""
13_updated,w0,python3action_imageprocessing_SampleImage_40mb_taurus,0.997085,1,2000.000000,1,COMPLETED_SUCCESSFULLY,73.014600,32.600046,105.614646,72.017515,104.617561,3.209123,2,-1.000000,""
13,w0,python3action_imageprocessing_SampleImage_40mb,0.000000,1,-1.000000,1,COMPLETED_SUCCESSFULLY,105.614661,0.000010,105.614671,105.614661,105.614671,10561467.145163,2,-1.000000,""
33_updated,w0,python3action_imageprocessing_SampleImage_40mb_taurus,0.997085,1,2000.000000,1,COMPLETED_SUCCESSFULLY,73.014735,32.600046,105.614781,72.017650,104.617696,3.209127,12,-1.000000,""
33,w0,python3action_imageprocessing_SampleImage_40mb,0.000000,1,-1.000000,1,COMPLETED_SUCCESSFULLY,105.614796,0.000010,105.614806,105.614796,105.614806,10561480.646970,12,-1.000000,""
38_updated,w0,python3action_imageprocessing_SampleImage_40mb_taurus,0.997085,1,2000.000000,1,COMPLETED_SUCCESSFULLY,73.014765,32.600046,105.614811,72.017680,104.617726,3.209128,13,-1.000000,""
38,w0,python3action_imageprocessing_SampleImage_40mb,0.000000,1,-1.000000,1,COMPLETED_SUCCESSFULLY,105.614841,0.000010,105.614851,105.614841,105.614851,10561485.147572,13,-1.000000,""
python3action_modeltraining_job26_1,w0,python3action_modeltraining,0.997085,1,2000.000000,1,COMPLETED_SUCCESSFULLY,105.030060,3.471546,108.501606,104.032975,107.504521,30.967335,0,-1.000000,""
14_updated,w0,python3action_modeltraining_reviews50mb_neowise,0.997085,1,2000.000000,1,COMPLETED_SUCCESSFULLY,87.751636,22.799998,110.551634,86.754551,109.554549,4.805025,1,-1.000000,""
14,w0,python3action_modeltraining_reviews50mb,0.000000,1,-1.000000,1,COMPLETED_SUCCESSFULLY,110.551649,0.000010,110.551659,110.551649,110.551659,11055165.900201,1,-1.000000,""
25_updated,w0,python3action_linpack_6000_orion,0.997085,1,2000.000000,1,COMPLETED_SUCCESSFULLY,6.763192,106.000000,112.763192,5.766107,111.766107,1.054397,11,-1.000000,""
25,w0,python3action_linpack_6000,0.000000,1,-1.000000,1,COMPLETED_SUCCESSFULLY,112.763207,0.000010,112.763217,112.763207,112.763217,11276321.725480,11,-1.000000,""
17_updated,w0,python3action_pyaes_3000_troll,0.997085,1,2000.000000,1,COMPLETED_SUCCESSFULLY,59.036796,57.166677,116.203473,58.039711,115.206388,2.015272,4,-1.000000,""
17,w0,python3action_pyaes_3000,0.000000,1,-1.000000,1,COMPLETED_SUCCESSFULLY,116.203488,0.000010,116.203498,116.203488,116.203498,11620349.800201,4,-1.000000,""
26_updated,w0,python3action_modeltraining_reviews50mb_neowise,0.997085,1,2000.000000,1,COMPLETED_SUCCESSFULLY,108.501621,22.799998,131.301619,107.504536,130.304534,5.715112,0,-1.000000,""
26,w0,python3action_modeltraining_reviews50mb,0.000000,1,-1.000000,1,COMPLETED_SUCCESSFULLY,131.301634,0.000010,131.301644,131.301634,131.301644,13130164.400201,0,-1.000000,""
30_updated,w0,python3action_modeltraining_reviews50mb_neowise,0.997085,1,2000.000000,1,COMPLETED_SUCCESSFULLY,110.551679,22.799998,133.351677,109.554594,132.354592,5.805027,1,-1.000000,""
30,w0,python3action_modeltraining_reviews50mb,0.000000,1,-1.000000,1,COMPLETED_SUCCESSFULLY,133.351692,0.000010,133.351702,133.351692,133.351702,13335170.200201,1,-1.000000,""
79_updated,w0,python3action_floatoperation_100000000_nova,0.997085,1,2000.000000,1,COMPLETED_SUCCESSFULLY,69.642200,66.200020,135.842220,68.645115,134.845135,2.036935,6,-1.000000,""
79,w0,python3action_floatoperation_100000000,0.000000,1,-1.000000,1,COMPLETED_SUCCESSFULLY,135.842235,0.000010,135.842245,135.842235,135.842245,13584224.500201,6,-1.000000,""
100_updated,w0,python3action_floatoperation_100000000_nova,0.997085,1,2000.000000,1,COMPLETED_SUCCESSFULLY,69.642260,66.200020,135.842279,68.645175,134.845194,2.036936,7,-1.000000,""
100,w0,python3action_floatoperation_100000000,0.000000,1,-1.000000,1,COMPLETED_SUCCESSFULLY,135.842294,0.000010,135.842304,135.842294,135.842304,13584230.440379,7,-1.000000,""
109_updated,w0,python3action_floatoperation_100000000_nova,0.997085,1,2000.000000,1,COMPLETED_SUCCESSFULLY,69.642305,66.200020,135.842325,68.645220,134.845240,2.036937,8,-1.000000,""
109,w0,python3action_floatoperation_100000000,0.000000,1,-1.000000,1,COMPLETED_SUCCESSFULLY,135.842354,0.000010,135.842364,135.842354,135.842364,13584236.441183,8,-1.000000,""
173_updated,w0,python3action_floatoperation_100000000_nova,0.997085,1,2000.000000,1,COMPLETED_SUCCESSFULLY,69.642335,66.200020,135.842355,68.645250,134.845270,2.036937,9,-1.000000,""
199_updated,w0,python3action_floatoperation_100000000_nova,0.997085,1,2000.000000,1,COMPLETED_SUCCESSFULLY,69.642365,66.200020,135.842385,68.645280,134.845300,2.036937,10,-1.000000,""
173,w0,python3action_floatoperation_100000000,0.000000,1,-1.000000,1,COMPLETED_SUCCESSFULLY,135.842399,0.000010,135.842409,135.842399,135.842409,13584240.941785,9,-1.000000,""
199,w0,python3action_floatoperation_100000000,0.000000,1,-1.000000,1,COMPLETED_SUCCESSFULLY,135.842429,0.000010,135.842439,135.842429,135.842439,13584243.942187,10,-1.000000,""
61_updated,w0,python3action_imageprocessing_SampleImage_40mb_taurus,0.997085,1,2000.000000,1,COMPLETED_SUCCESSFULLY,105.614691,32.600046,138.214738,104.617606,137.217653,4.209124,2,-1.000000,""
61,w0,python3action_imageprocessing_SampleImage_40mb,0.000000,1,-1.000000,1,COMPLETED_SUCCESSFULLY,138.214753,0.000010,138.214763,138.214753,138.214763,13821476.300201,2,-1.000000,""
85_updated,w0,python3action_imageprocessing_SampleImage_40mb_taurus,0.997085,1,2000.000000,1,COMPLETED_SUCCESSFULLY,105.614826,32.600046,138.214873,104.617741,137.217788,4.209129,12,-1.000000,""
85,w0,python3action_imageprocessing_SampleImage_40mb,0.000000,1,-1.000000,1,COMPLETED_SUCCESSFULLY,138.214888,0.000010,138.214898,138.214888,138.214898,13821489.800201,12,-1.000000,""
92_updated,w0,python3action_imageprocessing_SampleImage_40mb_taurus,0.997085,1,2000.000000,1,COMPLETED_SUCCESSFULLY,105.614871,32.600046,138.214918,104.617786,137.217833,4.209130,13,-1.000000,""
92,w0,python3action_imageprocessing_SampleImage_40mb,0.000000,1,-1.000000,1,COMPLETED_SUCCESSFULLY,138.214948,0.000010,138.214958,138.214948,138.214958,13821495.800201,13,-1.000000,""
36_updated,w0,python3action_modeltraining_reviews50mb_neowise,0.997085,1,2000.000000,1,COMPLETED_SUCCESSFULLY,131.301664,22.799998,154.101662,130.304579,153.104577,6.715114,0,-1.000000,""
36,w0,python3action_modeltraining_reviews50mb,0.000000,1,-1.000000,1,COMPLETED_SUCCESSFULLY,154.101677,0.000010,154.101687,154.101677,154.101687,15410168.700201,0,-1.000000,""
52_updated,w0,python3action_modeltraining_reviews50mb_neowise,0.997085,1,2000.000000,1,COMPLETED_SUCCESSFULLY,133.351722,22.799998,156.151720,132.354637,155.154635,6.805029,1,-1.000000,""
52,w0,python3action_modeltraining_reviews50mb,0.000000,1,-1.000000,1,COMPLETED_SUCCESSFULLY,156.151735,0.000010,156.151745,156.151735,156.151745,15615174.500201,1,-1.000000,""
python3action_video_processing_job20_6,w0,python3action_video_processing,0.997085,1,2000.000000,1,COMPLETED_SUCCESSFULLY,135.842265,30.499683,166.341948,134.845180,165.344863,5.421199,6,-1.000000,""
python3action_video_processing_job42_7,w0,python3action_video_processing,0.997085,1,2000.000000,1,COMPLETED_SUCCESSFULLY,135.842324,30.499683,166.342007,134.845239,165.344922,5.421201,7,-1.000000,""
python3action_video_processing_job48_8,w0,python3action_video_processing,0.997085,1,2000.000000,1,COMPLETED_SUCCESSFULLY,135.842384,30.499683,166.342067,134.845299,165.344982,5.421203,8,-1.000000,""
python3action_video_processing_job66_9,w0,python3action_video_processing,0.997085,1,2000.000000,1,COMPLETED_SUCCESSFULLY,135.842444,30.499683,166.342127,134.845359,165.345042,5.421205,9,-1.000000,""
python3action_video_processing_job103_10,w0,python3action_video_processing,0.997085,1,2000.000000,1,COMPLETED_SUCCESSFULLY,135.842474,30.499683,166.342157,134.845389,165.345072,5.421206,10,-1.000000,""
133_updated,w0,python3action_imageprocessing_SampleImage_40mb_taurus,0.997085,1,2000.000000,1,COMPLETED_SUCCESSFULLY,138.214783,32.600046,170.814829,137.217698,169.817744,5.209126,2,-1.000000,""
133,w0,python3action_imageprocessing_SampleImage_40mb,0.000000,1,-1.000000,1,COMPLETED_SUCCESSFULLY,170.814844,0.000010,170.814854,170.814844,170.814854,17081485.413881,2,-1.000000,""
166_updated,w0,python3action_imageprocessing_SampleImage_40mb_taurus,0.997085,1,2000.000000,1,COMPLETED_SUCCESSFULLY,138.214918,32.600046,170.814964,137.217833,169.817879,5.209130,12,-1.000000,""
166,w0,python3action_imageprocessing_SampleImage_40mb,0.000000,1,-1.000000,1,COMPLETED_SUCCESSFULLY,170.814979,0.000010,170.814989,170.814979,170.814989,17081498.900201,12,-1.000000,""
186_updated,w0,python3action_imageprocessing_SampleImage_40mb_taurus,0.997085,1,2000.000000,1,COMPLETED_SUCCESSFULLY,138.214978,32.600046,170.815024,137.217893,169.817939,5.209132,13,-1.000000,""
186,w0,python3action_imageprocessing_SampleImage_40mb,0.000000,1,-1.000000,1,COMPLETED_SUCCESSFULLY,170.815039,0.000010,170.815049,170.815039,170.815049,17081504.913881,13,-1.000000,""
22_updated,w0,python3action_pyaes_3000_troll,0.997085,1,2000.000000,1,COMPLETED_SUCCESSFULLY,116.203518,57.166677,173.370195,115.206433,172.373110,3.015273,4,-1.000000,""
22,w0,python3action_pyaes_3000,0.000000,1,-1.000000,1,COMPLETED_SUCCESSFULLY,173.370210,0.000010,173.370220,173.370210,173.370220,17337022.000201,4,-1.000000,""
65_updated,w0,python3action_modeltraining_reviews50mb_neowise,0.997085,1,2000.000000,1,COMPLETED_SUCCESSFULLY,154.101707,22.799998,176.901705,153.104622,175.904620,7.715116,0,-1.000000,""
65,w0,python3action_modeltraining_reviews50mb,0.000000,1,-1.000000,1,COMPLETED_SUCCESSFULLY,176.901720,0.000010,176.901730,176.901720,176.901730,17690173.000201,0,-1.000000,""
python3action_facedetection_job3_3,w0,python3action_facedetection_reduced_0.91,0.997085,1,2000.000000,1,COMPLETED_SUCCESSFULLY,170.814874,6.172496,176.987370,169.817789,175.990285,28.512012,2,-1.000000,""
python3action_facedetection_job6_12,w0,python3action_facedetection_reduced_0.91,0.997085,1,2000.000000,1,COMPLETED_SUCCESSFULLY,170.815009,6.172496,176.987505,169.817924,175.990420,28.512034,12,-1.000000,""
python3action_facedetection_job32_13,w0,python3action_facedetection_reduced_0.91,0.997085,1,2000.000000,1,COMPLETED_SUCCESSFULLY,170.815069,6.172496,176.987565,169.817984,175.990480,28.512044,13,-1.000000,""
77_updated,w0,python3action_modeltraining_reviews50mb_neowise,0.997085,1,2000.000000,1,COMPLETED_SUCCESSFULLY,156.151765,22.799998,178.951763,155.154680,177.954678,7.805030,1,-1.000000,""
77,w0,python3action_modeltraining_reviews50mb,0.000000,1,-1.000000,1,COMPLETED_SUCCESSFULLY,178.951778,0.000010,178.951788,178.951778,178.951788,17895178.800201,1,-1.000000,""
29_updated,w0,python3action_chameleon_3000_yeti,0.997085,1,2000.000000,1,COMPLETED_SUCCESSFULLY,94.894915,93.000000,187.894915,93.897830,186.897830,2.009654,5,-1.000000,""
29,w0,python3action_chameleon_3000,0.000000,1,-1.000000,1,COMPLETED_SUCCESSFULLY,187.894930,0.000010,187.894940,187.894930,187.894940,18789494.000201,5,-1.000000,""
84_updated,w0,python3action_modeltraining_reviews50mb_neowise,0.997085,1,2000.000000,1,COMPLETED_SUCCESSFULLY,176.901750,22.799998,199.701748,175.904665,198.704663,8.715118,0,-1.000000,""
84,w0,python3action_modeltraining_reviews50mb,0.000000,1,-1.000000,1,COMPLETED_SUCCESSFULLY,199.701763,0.000010,199.701773,199.701763,199.701773,19970177.300201,0,-1.000000,""
112_updated,w0,python3action_modeltraining_reviews50mb_neowise,0.997085,1,2000.000000,1,COMPLETED_SUCCESSFULLY,178.951808,22.799998,201.751806,177.954723,200.754721,8.805032,1,-1.000000,""
112,w0,python3action_modeltraining_reviews50mb,0.000000,1,-1.000000,1,COMPLETED_SUCCESSFULLY,201.751821,0.000010,201.751831,201.751821,201.751831,20175183.100201,1,-1.000000,""
64_updated,w0,python3action_linpack_6000_orion,0.997085,1,2000.000000,1,COMPLETED_SUCCESSFULLY,112.763237,106.000000,218.763237,111.766152,217.766152,2.054398,11,-1.000000,""
64,w0,python3action_linpack_6000,0.000000,1,-1.000000,1,COMPLETED_SUCCESSFULLY,218.763252,0.000010,218.763262,218.763252,218.763262,21876326.226082,11,-1.000000,""
114_updated,w0,python3action_modeltraining_reviews50mb_neowise,0.997085,1,2000.000000,1,COMPLETED_SUCCESSFULLY,199.701793,22.799998,222.501791,198.704708,221.504706,9.715120,0,-1.000000,""
114,w0,python3action_modeltraining_reviews50mb,0.000000,1,-1.000000,1,COMPLETED_SUCCESSFULLY,222.501806,0.000010,222.501816,222.501806,222.501816,22250181.600201,0,-1.000000,""
123_updated,w0,python3action_modeltraining_reviews50mb_neowise,0.997085,1,2000.000000,1,COMPLETED_SUCCESSFULLY,201.751851,22.799998,224.551849,200.754766,223.554764,9.805034,1,-1.000000,""
123,w0,python3action_modeltraining_reviews50mb,0.000000,1,-1.000000,1,COMPLETED_SUCCESSFULLY,224.551864,0.000010,224.551874,224.551864,224.551874,22455187.400201,1,-1.000000,""
58_updated,w0,python3action_pyaes_3000_troll,0.997085,1,2000.000000,1,COMPLETED_SUCCESSFULLY,173.370240,57.166677,230.536917,172.373155,229.539832,4.015273,4,-1.000000,""
58,w0,python3action_pyaes_3000,0.000000,1,-1.000000,1,COMPLETED_SUCCESSFULLY,230.536932,0.000010,230.536942,230.536932,230.536942,23053694.200201,4,-1.000000,""
129_updated,w0,python3action_modeltraining_reviews50mb_neowise,0.997085,1,2000.000000,1,COMPLETED_SUCCESSFULLY,222.501836,22.799998,245.301834,221.504751,244.304749,10.715122,0,-1.000000,""
129,w0,python3action_modeltraining_reviews50mb,0.000000,1,-1.000000,1,COMPLETED_SUCCESSFULLY,245.301849,0.000010,245.301859,245.301849,245.301859,24530185.900201,0,-1.000000,""
131_updated,w0,python3action_modeltraining_reviews50mb_neowise,0.997085,1,2000.000000,1,COMPLETED_SUCCESSFULLY,224.551894,22.799998,247.351892,223.554809,246.354807,10.805036,1,-1.000000,""
131,w0,python3action_modeltraining_reviews50mb,0.000000,1,-1.000000,1,COMPLETED_SUCCESSFULLY,247.351907,0.000010,247.351917,247.351907,247.351917,24735191.700201,1,-1.000000,""
137_updated,w0,python3action_modeltraining_reviews50mb_neowise,0.997085,1,2000.000000,1,COMPLETED_SUCCESSFULLY,245.301879,22.799998,268.101877,244.304794,267.104792,11.715124,0,-1.000000,""
137,w0,python3action_modeltraining_reviews50mb,0.000000,1,-1.000000,1,COMPLETED_SUCCESSFULLY,268.101892,0.000010,268.101902,268.101892,268.101902,26810190.200201,0,-1.000000,""
146_updated,w0,python3action_modeltraining_reviews50mb_neowise,0.997085,1,2000.000000,1,COMPLETED_SUCCESSFULLY,247.351937,22.799998,270.151935,246.354852,269.154850,11.805038,1,-1.000000,""
146,w0,python3action_modeltraining_reviews50mb,0.000000,1,-1.000000,1,COMPLETED_SUCCESSFULLY,270.151950,0.000010,270.151960,270.151950,270.151960,27015196.000201,1,-1.000000,""
20_updated,w0,python3action_videoprocessing_SampleVideo_30mb_nova,0.997085,1,2000.000000,1,COMPLETED_SUCCESSFULLY,166.341963,106.799980,273.141943,165.344878,272.144858,2.548173,6,-1.000000,""
20,w0,python3action_videoprocessing_SampleVideo_30mb,0.000000,1,-1.000000,1,COMPLETED_SUCCESSFULLY,273.141958,0.000010,273.141968,273.141958,273.141968,27314196.846609,6,-1.000000,""
42_updated,w0,python3action_videoprocessing_SampleVideo_30mb_nova,0.997085,1,2000.000000,1,COMPLETED_SUCCESSFULLY,166.342022,106.799980,273.142002,165.344937,272.144917,2.548174,7,-1.000000,""
42,w0,python3action_videoprocessing_SampleVideo_30mb,0.000000,1,-1.000000,1,COMPLETED_SUCCESSFULLY,273.142017,0.000010,273.142027,273.142017,273.142027,27314202.746809,7,-1.000000,""
48_updated,w0,python3action_videoprocessing_SampleVideo_30mb_nova,0.997085,1,2000.000000,1,COMPLETED_SUCCESSFULLY,166.342082,106.799980,273.142062,165.344997,272.144977,2.548174,8,-1.000000,""
48,w0,python3action_videoprocessing_SampleVideo_30mb,0.000000,1,-1.000000,1,COMPLETED_SUCCESSFULLY,273.142077,0.000010,273.142087,273.142077,273.142087,27314208.746809,8,-1.000000,""
66_updated,w0,python3action_videoprocessing_SampleVideo_30mb_nova,0.997085,1,2000.000000,1,COMPLETED_SUCCESSFULLY,166.342142,106.799980,273.142122,165.345057,272.145037,2.548175,9,-1.000000,""
66,w0,python3action_videoprocessing_SampleVideo_30mb,0.000000,1,-1.000000,1,COMPLETED_SUCCESSFULLY,273.142137,0.000010,273.142147,273.142137,273.142147,27314214.746810,9,-1.000000,""
103_updated,w0,python3action_videoprocessing_SampleVideo_30mb_nova,0.997085,1,2000.000000,1,COMPLETED_SUCCESSFULLY,166.342172,106.799980,273.142152,165.345087,272.145067,2.548175,10,-1.000000,""
103,w0,python3action_videoprocessing_SampleVideo_30mb,0.000000,1,-1.000000,1,COMPLETED_SUCCESSFULLY,273.142182,0.000010,273.142192,273.142182,273.142192,27314219.247010,10,-1.000000,""
40_updated,w0,python3action_chameleon_3000_yeti,0.997085,1,2000.000000,1,COMPLETED_SUCCESSFULLY,187.894960,93.000000,280.894960,186.897875,279.897875,3.009655,5,-1.000000,""
40,w0,python3action_chameleon_3000,0.000000,1,-1.000000,1,COMPLETED_SUCCESSFULLY,280.894975,0.000010,280.894985,280.894975,280.894985,28089498.500803,5,-1.000000,""
81_updated,w0,python3action_pyaes_3000_troll,0.997085,1,2000.000000,1,COMPLETED_SUCCESSFULLY,230.536962,57.166677,287.703639,229.539877,286.706554,5.015274,4,-1.000000,""
81,w0,python3action_pyaes_3000,0.000000,1,-1.000000,1,COMPLETED_SUCCESSFULLY,287.703654,0.000010,287.703664,287.703654,287.703664,28770366.400201,4,-1.000000,""
153_updated,w0,python3action_modeltraining_reviews50mb_neowise,0.997085,1,2000.000000,1,COMPLETED_SUCCESSFULLY,268.101922,22.799998,290.901920,267.104837,289.904835,12.715126,0,-1.000000,""
153,w0,python3action_modeltraining_reviews50mb,0.000000,1,-1.000000,1,COMPLETED_SUCCESSFULLY,290.901935,0.000010,290.901945,290.901935,290.901945,29090194.500201,0,-1.000000,""
155_updated,w0,python3action_modeltraining_reviews50mb_neowise,0.997085,1,2000.000000,1,COMPLETED_SUCCESSFULLY,270.151980,22.799998,292.951978,269.154895,291.954893,12.805040,1,-1.000000,""
155,w0,python3action_modeltraining_reviews50mb,0.000000,1,-1.000000,1,COMPLETED_SUCCESSFULLY,292.951993,0.000010,292.952003,292.951993,292.952003,29295200.300201,1,-1.000000,""
python3action_chameleon_job18_2,w0,python3action_chameleon_reduced_0.85,0.997085,1,2000.000000,1,COMPLETED_SUCCESSFULLY,292.952023,0.036451,292.988474,291.954938,291.991389,8010.540490,1,-1.000000,""
3_updated,w0,python3action_facedetection_SampleVideo_50mb_taurus,0.997085,1,2000.000000,1,COMPLETED_SUCCESSFULLY,176.987385,134.600046,311.587431,175.990300,310.590346,2.307505,2,-1.000000,""
3,w0,python3action_facedetection_SampleVideo_50mb,0.000000,1,-1.000000,1,COMPLETED_SUCCESSFULLY,311.587446,0.000010,311.587456,311.587446,311.587456,31158745.644712,2,-1.000000,""
6_updated,w0,python3action_facedetection_SampleVideo_50mb_taurus,0.997085,1,2000.000000,1,COMPLETED_SUCCESSFULLY,176.987520,134.600046,311.587566,175.990435,310.590481,2.307506,12,-1.000000,""
6,w0,python3action_facedetection_SampleVideo_50mb,0.000000,1,-1.000000,1,COMPLETED_SUCCESSFULLY,311.587581,0.000010,311.587591,311.587581,311.587591,31158759.131032,12,-1.000000,""
32_updated,w0,python3action_facedetection_SampleVideo_50mb_taurus,0.997085,1,2000.000000,1,COMPLETED_SUCCESSFULLY,176.987580,134.600046,311.587626,175.990495,310.590541,2.307507,13,-1.000000,""
32,w0,python3action_facedetection_SampleVideo_50mb,0.000000,1,-1.000000,1,COMPLETED_SUCCESSFULLY,311.587641,0.000010,311.587651,311.587641,311.587651,31158765.144712,13,-1.000000,""
187_updated,w0,python3action_modeltraining_reviews50mb_neowise,0.997085,1,2000.000000,1,COMPLETED_SUCCESSFULLY,290.901965,22.799998,313.701963,289.904880,312.704878,13.715128,0,-1.000000,""
187,w0,python3action_modeltraining_reviews50mb,0.000000,1,-1.000000,1,COMPLETED_SUCCESSFULLY,313.701978,0.000010,313.701988,313.701978,313.701988,31370198.800201,0,-1.000000,""
python3action_chameleon_job21_1,w0,python3action_chameleon_reduced_0.85,0.997085,1,2000.000000,1,COMPLETED_SUCCESSFULLY,313.702008,0.036451,313.738459,312.704923,312.741374,8579.799041,0,-1.000000,""
18_updated,w0,python3action_chameleon_2000_neowise,0.997085,1,2000.000000,1,COMPLETED_SUCCESSFULLY,292.988489,24.200002,317.188491,291.991404,316.191406,13.065759,1,-1.000000,""
18,w0,python3action_chameleon_2000,0.000000,1,-1.000000,1,COMPLETED_SUCCESSFULLY,317.188506,0.000010,317.188516,317.188506,317.188516,31718851.622787,1,-1.000000,""
69_updated,w0,python3action_linpack_6000_orion,0.997085,1,2000.000000,1,COMPLETED_SUCCESSFULLY,218.763282,106.000000,324.763282,217.766197,323.766197,3.054398,11,-1.000000,""
69,w0,python3action_linpack_6000,0.000000,1,-1.000000,1,COMPLETED_SUCCESSFULLY,324.763297,0.000010,324.763307,324.763297,324.763307,32476330.726685,11,-1.000000,""
21_updated,w0,python3action_chameleon_2000_neowise,0.997085,1,2000.000000,1,COMPLETED_SUCCESSFULLY,313.738474,24.200002,337.938476,312.741389,336.941391,13.923197,0,-1.000000,""
21,w0,python3action_chameleon_2000,0.000000,1,-1.000000,1,COMPLETED_SUCCESSFULLY,337.938491,0.000010,337.938501,337.938491,337.938501,33793850.122787,0,-1.000000,""
24_updated,w0,python3action_chameleon_2000_neowise,0.997085,1,2000.000000,1,COMPLETED_SUCCESSFULLY,317.188536,24.200002,341.388538,316.191451,340.391453,14.065761,1,-1.000000,""
24,w0,python3action_chameleon_2000,0.000000,1,-1.000000,1,COMPLETED_SUCCESSFULLY,341.388553,0.000010,341.388563,341.388553,341.388563,34138856.345775,1,-1.000000,""
88_updated,w0,python3action_pyaes_3000_troll,0.997085,1,2000.000000,1,COMPLETED_SUCCESSFULLY,287.703684,57.166677,344.870361,286.706599,343.873276,6.015275,4,-1.000000,""
88,w0,python3action_pyaes_3000,0.000000,1,-1.000000,1,COMPLETED_SUCCESSFULLY,344.870376,0.000010,344.870386,344.870376,344.870386,34487038.600201,4,-1.000000,""
28_updated,w0,python3action_chameleon_2000_neowise,0.997085,1,2000.000000,1,COMPLETED_SUCCESSFULLY,337.938521,24.200002,362.138523,336.941436,361.141438,14.923199,0,-1.000000,""
28,w0,python3action_chameleon_2000,0.000000,1,-1.000000,1,COMPLETED_SUCCESSFULLY,362.138538,0.000010,362.138548,362.138538,362.138548,36213854.845775,0,-1.000000,""
41_updated,w0,python3action_chameleon_2000_neowise,0.997085,1,2000.000000,1,COMPLETED_SUCCESSFULLY,341.388583,24.200002,365.588586,340.391498,364.591501,15.065763,1,-1.000000,""
41,w0,python3action_chameleon_2000,0.000000,1,-1.000000,1,COMPLETED_SUCCESSFULLY,365.588601,0.000010,365.588611,365.588601,365.588611,36558861.100201,1,-1.000000,""
98_updated,w0,python3action_chameleon_3000_yeti,0.997085,1,2000.000000,1,COMPLETED_SUCCESSFULLY,280.895005,93.000000,373.895005,279.897920,372.897920,4.009655,5,-1.000000,""
98,w0,python3action_chameleon_3000,0.000000,1,-1.000000,1,COMPLETED_SUCCESSFULLY,373.895020,0.000010,373.895030,373.895020,373.895030,37389503.001406,5,-1.000000,""
126_updated,w0,python3action_videoprocessing_SampleVideo_30mb_nova,0.997085,1,2000.000000,1,COMPLETED_SUCCESSFULLY,273.141988,106.799980,379.941969,272.144903,378.944884,3.548174,6,-1.000000,""
126,w0,python3action_videoprocessing_SampleVideo_30mb,0.000000,1,-1.000000,1,COMPLETED_SUCCESSFULLY,379.941984,0.000010,379.941994,379.941984,379.941994,37994199.400201,6,-1.000000,""
149_updated,w0,python3action_videoprocessing_SampleVideo_30mb_nova,0.997085,1,2000.000000,1,COMPLETED_SUCCESSFULLY,273.142047,106.799980,379.942028,272.144962,378.944943,3.548174,7,-1.000000,""
149,w0,python3action_videoprocessing_SampleVideo_30mb,0.000000,1,-1.000000,1,COMPLETED_SUCCESSFULLY,379.942043,0.000010,379.942053,379.942043,379.942053,37994205.300201,7,-1.000000,""
176_updated,w0,python3action_videoprocessing_SampleVideo_30mb_nova,0.997085,1,2000.000000,1,COMPLETED_SUCCESSFULLY,273.142107,106.799980,379.942088,272.145022,378.945003,3.548175,8,-1.000000,""
176,w0,python3action_videoprocessing_SampleVideo_30mb,0.000000,1,-1.000000,1,COMPLETED_SUCCESSFULLY,379.942103,0.000010,379.942113,379.942103,379.942113,37994211.300201,8,-1.000000,""
45_updated,w0,python3action_chameleon_2000_neowise,0.997085,1,2000.000000,1,COMPLETED_SUCCESSFULLY,362.138568,24.200002,386.338571,361.141483,385.341486,15.923200,0,-1.000000,""
45,w0,python3action_chameleon_2000,0.000000,1,-1.000000,1,COMPLETED_SUCCESSFULLY,386.338586,0.000010,386.338596,386.338586,386.338596,38633859.600201,0,-1.000000,""
75_updated,w0,python3action_chameleon_2000_neowise,0.997085,1,2000.000000,1,COMPLETED_SUCCESSFULLY,365.588631,24.200002,389.788633,364.591546,388.791548,16.065765,1,-1.000000,""
75,w0,python3action_chameleon_2000,0.000000,1,-1.000000,1,COMPLETED_SUCCESSFULLY,389.788648,0.000010,389.788658,389.788648,389.788658,38978865.823189,1,-1.000000,""
106_updated,w0,python3action_pyaes_3000_troll,0.997085,1,2000.000000,1,COMPLETED_SUCCESSFULLY,344.870406,57.166677,402.037083,343.873321,401.039998,7.015276,4,-1.000000,""
106,w0,python3action_pyaes_3000,0.000000,1,-1.000000,1,COMPLETED_SUCCESSFULLY,402.037098,0.000010,402.037108,402.037098,402.037108,40203710.800201,4,-1.000000,""
2_updated,w0,python3action_floatoperation_200000000_nova,0.997085,1,2000.000000,1,COMPLETED_SUCCESSFULLY,273.142167,135.399990,408.542158,272.145082,407.545073,3.009934,9,-1.000000,""
2,w0,python3action_floatoperation_200000000,0.000000,1,-1.000000,1,COMPLETED_SUCCESSFULLY,408.542173,0.000010,408.542183,408.542173,408.542183,40854218.300201,9,-1.000000,""
51_updated,w0,python3action_floatoperation_200000000_nova,0.997085,1,2000.000000,1,COMPLETED_SUCCESSFULLY,273.142212,135.399990,408.542203,272.145127,407.545118,3.009935,10,-1.000000,""
51,w0,python3action_floatoperation_200000000,0.000000,1,-1.000000,1,COMPLETED_SUCCESSFULLY,408.542233,0.000010,408.542243,408.542233,408.542243,40854224.300201,10,-1.000000,""
82_updated,w0,python3action_chameleon_2000_neowise,0.997085,1,2000.000000,1,COMPLETED_SUCCESSFULLY,386.338616,24.200002,410.538618,385.341531,409.541533,16.923202,0,-1.000000,""
82,w0,python3action_chameleon_2000,0.000000,1,-1.000000,1,COMPLETED_SUCCESSFULLY,410.538633,0.000010,410.538643,410.538633,410.538643,41053864.323189,0,-1.000000,""
99_updated,w0,python3action_chameleon_2000_neowise,0.997085,1,2000.000000,1,COMPLETED_SUCCESSFULLY,389.788678,24.200002,413.988680,388.791593,412.991595,17.065767,1,-1.000000,""
99,w0,python3action_chameleon_2000,0.000000,1,-1.000000,1,COMPLETED_SUCCESSFULLY,413.988695,0.000010,413.988705,413.988695,413.988705,41398870.546176,1,-1.000000,""
128_updated,w0,python3action_linpack_6000_orion,0.997085,1,2000.000000,1,COMPLETED_SUCCESSFULLY,324.763327,106.000000,430.763327,323.766242,429.766242,4.054399,11,-1.000000,""
128,w0,python3action_linpack_6000,0.000000,1,-1.000000,1,COMPLETED_SUCCESSFULLY,430.763342,0.000010,430.763352,430.763342,430.763352,43076335.227287,11,-1.000000,""
119_updated,w0,python3action_chameleon_2000_neowise,0.997085,1,2000.000000,1,COMPLETED_SUCCESSFULLY,410.538663,24.200002,434.738665,409.541578,433.741580,17.923204,0,-1.000000,""
119,w0,python3action_chameleon_2000,0.000000,1,-1.000000,1,COMPLETED_SUCCESSFULLY,434.738680,0.000010,434.738690,434.738680,434.738690,43473869.046176,0,-1.000000,""
147_updated,w0,python3action_chameleon_2000_neowise,0.997085,1,2000.000000,1,COMPLETED_SUCCESSFULLY,413.988725,24.200002,438.188728,412.991640,437.191643,18.065769,1,-1.000000,""
147,w0,python3action_chameleon_2000,0.000000,1,-1.000000,1,COMPLETED_SUCCESSFULLY,438.188743,0.000010,438.188753,438.188743,438.188753,43818875.300201,1,-1.000000,""
37_updated,w0,python3action_facedetection_SampleVideo_50mb_taurus,0.997085,1,2000.000000,1,COMPLETED_SUCCESSFULLY,311.587476,134.600046,446.187523,310.590391,445.190438,3.307506,2,-1.000000,""
37,w0,python3action_facedetection_SampleVideo_50mb,0.000000,1,-1.000000,1,COMPLETED_SUCCESSFULLY,446.187538,0.000010,446.187548,446.187538,446.187548,44618754.800201,2,-1.000000,""
46_updated,w0,python3action_facedetection_SampleVideo_50mb_taurus,0.997085,1,2000.000000,1,COMPLETED_SUCCESSFULLY,311.587611,134.600046,446.187657,310.590526,445.190572,3.307507,12,-1.000000,""
46,w0,python3action_facedetection_SampleVideo_50mb,0.000000,1,-1.000000,1,COMPLETED_SUCCESSFULLY,446.187672,0.000010,446.187682,446.187672,446.187682,44618768.244713,12,-1.000000,""
50_updated,w0,python3action_facedetection_SampleVideo_50mb_taurus,0.997085,1,2000.000000,1,COMPLETED_SUCCESSFULLY,311.587671,134.600046,446.187718,310.590586,445.190633,3.307507,13,-1.000000,""
50,w0,python3action_facedetection_SampleVideo_50mb,0.000000,1,-1.000000,1,COMPLETED_SUCCESSFULLY,446.187733,0.000010,446.187743,446.187733,446.187743,44618774.300201,13,-1.000000,""
156_updated,w0,python3action_chameleon_2000_neowise,0.997085,1,2000.000000,1,COMPLETED_SUCCESSFULLY,434.738710,24.200002,458.938713,433.741625,457.941628,18.923206,0,-1.000000,""
156,w0,python3action_chameleon_2000,0.000000,1,-1.000000,1,COMPLETED_SUCCESSFULLY,458.938728,0.000010,458.938738,458.938728,458.938738,45893873.800201,0,-1.000000,""
135_updated,w0,python3action_pyaes_3000_troll,0.997085,1,2000.000000,1,COMPLETED_SUCCESSFULLY,402.037128,57.166677,459.203805,401.040043,458.206720,8.015277,4,-1.000000,""
135,w0,python3action_pyaes_3000,0.000000,1,-1.000000,1,COMPLETED_SUCCESSFULLY,459.203820,0.000010,459.203830,459.203820,459.203830,45920383.000201,4,-1.000000,""
python3action_image_processing_job8_1,w0,python3action_image_processing_reduced_0.86,0.997085,1,2000.000000,1,COMPLETED_SUCCESSFULLY,458.938758,0.469128,459.407886,457.941673,458.410801,977.155458,0,-1.000000,""
172_updated,w0,python3action_chameleon_2000_neowise,0.997085,1,2000.000000,1,COMPLETED_SUCCESSFULLY,438.188773,24.200002,462.388775,437.191688,461.391690,19.065771,1,-1.000000,""
172,w0,python3action_chameleon_2000,0.000000,1,-1.000000,1,COMPLETED_SUCCESSFULLY,462.388790,0.000010,462.388800,462.388790,462.388800,46238880.023189,1,-1.000000,""
python3action_image_processing_job39_2,w0,python3action_image_processing_reduced_0.86,0.997085,1,2000.000000,1,COMPLETED_SUCCESSFULLY,462.388820,0.469128,462.857948,461.391735,461.860863,984.509663,1,-1.000000,""
101_updated,w0,python3action_chameleon_3000_yeti,0.997085,1,2000.000000,1,COMPLETED_SUCCESSFULLY,373.895050,93.000000,466.895050,372.897965,465.897965,5.009656,5,-1.000000,""
101,w0,python3action_chameleon_3000,0.000000,1,-1.000000,1,COMPLETED_SUCCESSFULLY,466.895065,0.000010,466.895075,466.895065,466.895075,46689507.502009,5,-1.000000,""
8_updated,w0,python3action_imageprocessing_SampleImage_60mb_neowise,0.997085,1,2000.000000,1,COMPLETED_SUCCESSFULLY,459.407901,37.500000,496.907901,458.410816,495.910816,13.224288,0,-1.000000,""
8,w0,python3action_imageprocessing_SampleImage_60mb,0.000000,1,-1.000000,1,COMPLETED_SUCCESSFULLY,496.907916,0.000010,496.907926,496.907916,496.907926,49690792.600402,0,-1.000000,""
39_updated,w0,python3action_imageprocessing_SampleImage_60mb_neowise,0.997085,1,2000.000000,1,COMPLETED_SUCCESSFULLY,462.857963,37.500000,500.357963,461.860878,499.360878,13.316290,1,-1.000000,""
39,w0,python3action_imageprocessing_SampleImage_60mb,0.000000,1,-1.000000,1,COMPLETED_SUCCESSFULLY,500.357978,0.000010,500.357988,500.357978,500.357988,50035798.805076,1,-1.000000,""
63_updated,w0,python3action_floatoperation_200000000_nova,0.997085,1,2000.000000,1,COMPLETED_SUCCESSFULLY,379.942014,135.399990,515.342004,378.944929,514.344919,3.798707,6,-1.000000,""
63,w0,python3action_floatoperation_200000000,0.000000,1,-1.000000,1,COMPLETED_SUCCESSFULLY,515.342019,0.000010,515.342029,515.342019,515.342029,51534202.923907,6,-1.000000,""
136_updated,w0,python3action_floatoperation_200000000_nova,0.997085,1,2000.000000,1,COMPLETED_SUCCESSFULLY,379.942073,135.399990,515.342063,378.944988,514.344978,3.798708,7,-1.000000,""
136,w0,python3action_floatoperation_200000000,0.000000,1,-1.000000,1,COMPLETED_SUCCESSFULLY,515.342078,0.000010,515.342088,515.342078,515.342088,51534208.824108,7,-1.000000,""
138_updated,w0,python3action_floatoperation_200000000_nova,0.997085,1,2000.000000,1,COMPLETED_SUCCESSFULLY,379.942133,135.399990,515.342123,378.945048,514.345038,3.798708,8,-1.000000,""
138,w0,python3action_floatoperation_200000000,0.000000,1,-1.000000,1,COMPLETED_SUCCESSFULLY,515.342138,0.000010,515.342148,515.342138,515.342148,51534214.824108,8,-1.000000,""
141_updated,w0,python3action_pyaes_3000_troll,0.997085,1,2000.000000,1,COMPLETED_SUCCESSFULLY,459.203850,57.166677,516.370527,458.206765,515.373442,9.015277,4,-1.000000,""
141,w0,python3action_pyaes_3000,0.000000,1,-1.000000,1,COMPLETED_SUCCESSFULLY,516.370542,0.000010,516.370552,516.370542,516.370552,51637055.200201,4,-1.000000,""
72_updated,w0,python3action_imageprocessing_SampleImage_60mb_neowise,0.997085,1,2000.000000,1,COMPLETED_SUCCESSFULLY,496.907946,37.500000,534.407946,495.910861,533.410861,14.224290,0,-1.000000,""
72,w0,python3action_imageprocessing_SampleImage_60mb,0.000000,1,-1.000000,1,COMPLETED_SUCCESSFULLY,534.407961,0.000010,534.407971,534.407961,534.407971,53440797.101004,0,-1.000000,""
134_updated,w0,python3action_linpack_6000_orion,0.997085,1,2000.000000,1,COMPLETED_SUCCESSFULLY,430.763372,106.000000,536.763372,429.766287,535.766287,5.054399,11,-1.000000,""
134,w0,python3action_linpack_6000,0.000000,1,-1.000000,1,COMPLETED_SUCCESSFULLY,536.763387,0.000010,536.763397,536.763387,536.763397,53676339.727890,11,-1.000000,""
83_updated,w0,python3action_imageprocessing_SampleImage_60mb_neowise,0.997085,1,2000.000000,1,COMPLETED_SUCCESSFULLY,500.358008,37.500000,537.858008,499.360923,536.860923,14.316291,1,-1.000000,""
83,w0,python3action_imageprocessing_SampleImage_60mb,0.000000,1,-1.000000,1,COMPLETED_SUCCESSFULLY,537.858023,0.000010,537.858033,537.858023,537.858033,53785803.305679,1,-1.000000,""
158_updated,w0,python3action_floatoperation_200000000_nova,0.997085,1,2000.000000,1,COMPLETED_SUCCESSFULLY,408.542203,135.399990,543.942193,407.545118,542.945108,4.009935,9,-1.000000,""
158,w0,python3action_floatoperation_200000000,0.000000,1,-1.000000,1,COMPLETED_SUCCESSFULLY,543.942208,0.000010,543.942218,543.942208,543.942218,54394221.800201,9,-1.000000,""
159_updated,w0,python3action_floatoperation_200000000_nova,0.997085,1,2000.000000,1,COMPLETED_SUCCESSFULLY,408.542263,135.399990,543.942253,407.545178,542.945168,4.009935,10,-1.000000,""
159,w0,python3action_floatoperation_200000000,0.000000,1,-1.000000,1,COMPLETED_SUCCESSFULLY,543.942268,0.000010,543.942278,543.942268,543.942278,54394227.823907,10,-1.000000,""
111_updated,w0,python3action_chameleon_3000_yeti,0.997085,1,2000.000000,1,COMPLETED_SUCCESSFULLY,466.895095,93.000000,559.895095,465.898010,558.898010,6.009656,5,-1.000000,""
111,w0,python3action_chameleon_3000,0.000000,1,-1.000000,1,COMPLETED_SUCCESSFULLY,559.895110,0.000010,559.895120,559.895110,559.895120,55989512.002611,5,-1.000000,""
86_updated,w0,python3action_imageprocessing_SampleImage_60mb_neowise,0.997085,1,2000.000000,1,COMPLETED_SUCCESSFULLY,534.407991,37.500000,571.907991,533.410906,570.910906,15.224291,0,-1.000000,""
86,w0,python3action_imageprocessing_SampleImage_60mb,0.000000,1,-1.000000,1,COMPLETED_SUCCESSFULLY,571.908006,0.000010,571.908016,571.908006,571.908016,57190801.601606,0,-1.000000,""
144_updated,w0,python3action_pyaes_3000_troll,0.997085,1,2000.000000,1,COMPLETED_SUCCESSFULLY,516.370572,57.166677,573.537249,515.373487,572.540164,10.015278,4,-1.000000,""
144,w0,python3action_pyaes_3000,0.000000,1,-1.000000,1,COMPLETED_SUCCESSFULLY,573.537264,0.000010,573.537274,573.537264,573.537274,57353727.400201,4,-1.000000,""
89_updated,w0,python3action_imageprocessing_SampleImage_60mb_neowise,0.997085,1,2000.000000,1,COMPLETED_SUCCESSFULLY,537.858053,37.500000,575.358053,536.860968,574.360968,15.316292,1,-1.000000,""
89,w0,python3action_imageprocessing_SampleImage_60mb,0.000000,1,-1.000000,1,COMPLETED_SUCCESSFULLY,575.358068,0.000010,575.358078,575.358068,575.358078,57535807.806281,1,-1.000000,""
60_updated,w0,python3action_facedetection_SampleVideo_50mb_taurus,0.997085,1,2000.000000,1,COMPLETED_SUCCESSFULLY,446.187568,134.600046,580.787614,445.190483,579.790529,4.307506,2,-1.000000,""
60,w0,python3action_facedetection_SampleVideo_50mb,0.000000,1,-1.000000,1,COMPLETED_SUCCESSFULLY,580.787629,0.000010,580.787639,580.787629,580.787639,58078763.913881,2,-1.000000,""
94_updated,w0,python3action_facedetection_SampleVideo_50mb_taurus,0.997085,1,2000.000000,1,COMPLETED_SUCCESSFULLY,446.187702,134.600046,580.787749,445.190617,579.790664,4.307507,12,-1.000000,""
94,w0,python3action_facedetection_SampleVideo_50mb,0.000000,1,-1.000000,1,COMPLETED_SUCCESSFULLY,580.787764,0.000010,580.787774,580.787764,580.787774,58078777.400201,12,-1.000000,""
116_updated,w0,python3action_facedetection_SampleVideo_50mb_taurus,0.997085,1,2000.000000,1,COMPLETED_SUCCESSFULLY,446.187763,134.600046,580.787809,445.190678,579.790724,4.307508,13,-1.000000,""
116,w0,python3action_facedetection_SampleVideo_50mb,0.000000,1,-1.000000,1,COMPLETED_SUCCESSFULLY,580.787824,0.000010,580.787834,580.787824,580.787834,58078783.413881,13,-1.000000,""
102_updated,w0,python3action_imageprocessing_SampleImage_60mb_neowise,0.997085,1,2000.000000,1,COMPLETED_SUCCESSFULLY,571.908036,37.500000,609.408036,570.910951,608.410951,16.224292,0,-1.000000,""
102,w0,python3action_imageprocessing_SampleImage_60mb,0.000000,1,-1.000000,1,COMPLETED_SUCCESSFULLY,609.408051,0.000010,609.408061,609.408051,609.408061,60940806.102209,0,-1.000000,""
125_updated,w0,python3action_imageprocessing_SampleImage_60mb_neowise,0.997085,1,2000.000000,1,COMPLETED_SUCCESSFULLY,575.358098,37.500000,612.858098,574.361013,611.861013,16.316294,1,-1.000000,""
125,w0,python3action_imageprocessing_SampleImage_60mb,0.000000,1,-1.000000,1,COMPLETED_SUCCESSFULLY,612.858113,0.000010,612.858123,612.858113,612.858123,61285812.306884,1,-1.000000,""
151_updated,w0,python3action_pyaes_3000_troll,0.997085,1,2000.000000,1,COMPLETED_SUCCESSFULLY,573.537294,57.166677,630.703971,572.540209,629.706886,11.015279,4,-1.000000,""
151,w0,python3action_pyaes_3000,0.000000,1,-1.000000,1,COMPLETED_SUCCESSFULLY,630.703986,0.000010,630.703996,630.703986,630.703996,63070399.600201,4,-1.000000,""
145_updated,w0,python3action_linpack_6000_orion,0.997085,1,2000.000000,1,COMPLETED_SUCCESSFULLY,536.763417,106.000000,642.763417,535.766332,641.766332,6.054399,11,-1.000000,""
145,w0,python3action_linpack_6000,0.000000,1,-1.000000,1,COMPLETED_SUCCESSFULLY,642.763432,0.000010,642.763442,642.763432,642.763442,64276344.228492,11,-1.000000,""
130_updated,w0,python3action_imageprocessing_SampleImage_60mb_neowise,0.997085,1,2000.000000,1,COMPLETED_SUCCESSFULLY,609.408081,37.500000,646.908081,608.410996,645.910996,17.224293,0,-1.000000,""
130,w0,python3action_imageprocessing_SampleImage_60mb,0.000000,1,-1.000000,1,COMPLETED_SUCCESSFULLY,646.908096,0.000010,646.908106,646.908096,646.908106,64690810.602811,0,-1.000000,""
143_updated,w0,python3action_imageprocessing_SampleImage_60mb_neowise,0.997085,1,2000.000000,1,COMPLETED_SUCCESSFULLY,612.858143,37.500000,650.358143,611.861058,649.361058,17.316295,1,-1.000000,""
143,w0,python3action_imageprocessing_SampleImage_60mb,0.000000,1,-1.000000,1,COMPLETED_SUCCESSFULLY,650.358158,0.000010,650.358168,650.358158,650.358168,65035816.807486,1,-1.000000,""
182_updated,w0,python3action_floatoperation_200000000_nova,0.997085,1,2000.000000,1,COMPLETED_SUCCESSFULLY,515.342049,135.399990,650.742039,514.344964,649.744954,4.798708,6,-1.000000,""
182,w0,python3action_floatoperation_200000000,0.000000,1,-1.000000,1,COMPLETED_SUCCESSFULLY,650.742054,0.000010,650.742064,650.742054,650.742064,65074206.447613,6,-1.000000,""
115_updated,w0,python3action_chameleon_3000_yeti,0.997085,1,2000.000000,1,COMPLETED_SUCCESSFULLY,559.895140,93.000000,652.895140,558.898055,651.898055,7.009657,5,-1.000000,""
115,w0,python3action_chameleon_3000,0.000000,1,-1.000000,1,COMPLETED_SUCCESSFULLY,652.895155,0.000010,652.895165,652.895155,652.895165,65289516.503213,5,-1.000000,""
9_updated,w0,python3action_videoprocessing_SampleVideo_50mb_nova,0.997085,1,2000.000000,1,COMPLETED_SUCCESSFULLY,515.342108,139.600010,654.942118,514.345023,653.945033,4.684420,7,-1.000000,""
9,w0,python3action_videoprocessing_SampleVideo_50mb,0.000000,1,-1.000000,1,COMPLETED_SUCCESSFULLY,654.942133,0.000010,654.942143,654.942133,654.942143,65494214.301607,7,-1.000000,""
53_updated,w0,python3action_videoprocessing_SampleVideo_50mb_nova,0.997085,1,2000.000000,1,COMPLETED_SUCCESSFULLY,515.342168,139.600010,654.942178,514.345083,653.945093,4.684420,8,-1.000000,""
53,w0,python3action_videoprocessing_SampleVideo_50mb,0.000000,1,-1.000000,1,COMPLETED_SUCCESSFULLY,654.942193,0.000010,654.942203,654.942193,654.942203,65494220.301807,8,-1.000000,""
68_updated,w0,python3action_videoprocessing_SampleVideo_50mb_nova,0.997085,1,2000.000000,1,COMPLETED_SUCCESSFULLY,543.942238,139.600010,683.542248,542.945153,682.545163,4.889292,9,-1.000000,""
68,w0,python3action_videoprocessing_SampleVideo_50mb,0.000000,1,-1.000000,1,COMPLETED_SUCCESSFULLY,683.542263,0.000010,683.542273,683.542263,683.542273,68354227.300201,9,-1.000000,""
70_updated,w0,python3action_videoprocessing_SampleVideo_50mb_nova,0.997085,1,2000.000000,1,COMPLETED_SUCCESSFULLY,543.942298,139.600010,683.542308,542.945213,682.545223,4.889292,10,-1.000000,""
70,w0,python3action_videoprocessing_SampleVideo_50mb,0.000000,1,-1.000000,1,COMPLETED_SUCCESSFULLY,683.542323,0.000010,683.542333,683.542323,683.542333,68354233.301004,10,-1.000000,""
152_updated,w0,python3action_imageprocessing_SampleImage_60mb_neowise,0.997085,1,2000.000000,1,COMPLETED_SUCCESSFULLY,646.908126,37.500000,684.408126,645.911041,683.411041,18.224294,0,-1.000000,""
152,w0,python3action_imageprocessing_SampleImage_60mb,0.000000,1,-1.000000,1,COMPLETED_SUCCESSFULLY,684.408141,0.000010,684.408151,684.408141,684.408151,68440815.103414,0,-1.000000,""
169_updated,w0,python3action_pyaes_3000_troll,0.997085,1,2000.000000,1,COMPLETED_SUCCESSFULLY,630.704016,57.166677,687.870693,629.706931,686.873608,12.015280,4,-1.000000,""
169,w0,python3action_pyaes_3000,0.000000,1,-1.000000,1,COMPLETED_SUCCESSFULLY,687.870708,0.000010,687.870718,687.870708,687.870718,68787071.800201,4,-1.000000,""
10_updated,w0,python3action_modeltraining_reviews100mb_neowise,0.997085,1,2000.000000,1,COMPLETED_SUCCESSFULLY,650.358188,43.399999,693.758187,649.361103,692.761102,15.962238,1,-1.000000,""
10,w0,python3action_modeltraining_reviews100mb,0.000000,1,-1.000000,1,COMPLETED_SUCCESSFULLY,693.758202,0.000010,693.758212,693.758202,693.758212,69375821.200201,1,-1.000000,""
160_updated,w0,python3action_facedetection_SampleVideo_50mb_taurus,0.997085,1,2000.000000,1,COMPLETED_SUCCESSFULLY,580.787659,134.600046,715.387705,579.790574,714.390620,5.307507,2,-1.000000,""
160,w0,python3action_facedetection_SampleVideo_50mb,0.000000,1,-1.000000,1,COMPLETED_SUCCESSFULLY,715.387720,0.000010,715.387730,715.387720,715.387730,71538773.027562,2,-1.000000,""
170_updated,w0,python3action_facedetection_SampleVideo_50mb_taurus,0.997085,1,2000.000000,1,COMPLETED_SUCCESSFULLY,580.787794,134.600046,715.387840,579.790709,714.390755,5.307508,12,-1.000000,""
170,w0,python3action_facedetection_SampleVideo_50mb,0.000000,1,-1.000000,1,COMPLETED_SUCCESSFULLY,715.387855,0.000010,715.387865,715.387855,715.387865,71538786.513881,12,-1.000000,""
python3action_video_processing_job67_12,w0,python3action_video_processing_reduced_1.83,0.997085,1,2000.000000,1,COMPLETED_SUCCESSFULLY,715.387885,0.000000,715.387885,714.390800,714.390800,6197088690598.547852,12,-1.000000,""
194_updated,w0,python3action_facedetection_SampleVideo_50mb_taurus,0.997085,1,2000.000000,1,COMPLETED_SUCCESSFULLY,580.787854,134.600046,715.387900,579.790769,714.390815,5.307508,13,-1.000000,""
194,w0,python3action_facedetection_SampleVideo_50mb,0.000000,1,-1.000000,1,COMPLETED_SUCCESSFULLY,715.387945,0.000010,715.387955,715.387945,715.387955,71538795.515086,13,-1.000000,""
python3action_video_processing_job91_13,w0,python3action_video_processing_reduced_1.83,0.997085,1,2000.000000,1,COMPLETED_SUCCESSFULLY,715.387975,0.000000,715.387975,714.390890,714.390890,6197089471421.377930,13,-1.000000,""
11_updated,w0,python3action_modeltraining_reviews100mb_neowise,0.997085,1,2000.000000,1,COMPLETED_SUCCESSFULLY,684.408171,43.399999,727.808170,683.411086,726.811085,16.746800,0,-1.000000,""
11,w0,python3action_modeltraining_reviews100mb,0.000000,1,-1.000000,1,COMPLETED_SUCCESSFULLY,727.808185,0.000010,727.808195,727.808185,727.808195,72780819.500201,0,-1.000000,""
12_updated,w0,python3action_modeltraining_reviews100mb_neowise,0.997085,1,2000.000000,1,COMPLETED_SUCCESSFULLY,693.758232,43.399999,737.158231,692.761147,736.161146,16.962239,1,-1.000000,""
12,w0,python3action_modeltraining_reviews100mb,0.000000,1,-1.000000,1,COMPLETED_SUCCESSFULLY,737.158246,0.000010,737.158256,737.158246,737.158256,73715825.600201,1,-1.000000,""
185_updated,w0,python3action_pyaes_3000_troll,0.997085,1,2000.000000,1,COMPLETED_SUCCESSFULLY,687.870738,57.166677,745.037415,686.873653,744.040330,13.015280,4,-1.000000,""
185,w0,python3action_pyaes_3000,0.000000,1,-1.000000,1,COMPLETED_SUCCESSFULLY,745.037430,0.000010,745.037440,745.037430,745.037440,74503744.000201,4,-1.000000,""
117_updated,w0,python3action_chameleon_3000_yeti,0.997085,1,2000.000000,1,COMPLETED_SUCCESSFULLY,652.895185,93.000000,745.895185,651.898100,744.898100,8.009657,5,-1.000000,""
117,w0,python3action_chameleon_3000,0.000000,1,-1.000000,1,COMPLETED_SUCCESSFULLY,745.895200,0.000010,745.895210,745.895200,745.895210,74589521.003816,5,-1.000000,""
150_updated,w0,python3action_linpack_6000_orion,0.997085,1,2000.000000,1,COMPLETED_SUCCESSFULLY,642.763462,106.000000,748.763462,641.766377,747.766377,7.054400,11,-1.000000,""
150,w0,python3action_linpack_6000,0.000000,1,-1.000000,1,COMPLETED_SUCCESSFULLY,748.763477,0.000010,748.763487,748.763477,748.763487,74876348.729095,11,-1.000000,""
23_updated,w0,python3action_modeltraining_reviews100mb_neowise,0.997085,1,2000.000000,1,COMPLETED_SUCCESSFULLY,727.808215,43.399999,771.208214,726.811130,770.211129,17.746801,0,-1.000000,""
23,w0,python3action_modeltraining_reviews100mb,0.000000,1,-1.000000,1,COMPLETED_SUCCESSFULLY,771.208229,0.000010,771.208239,771.208229,771.208239,77120823.900201,0,-1.000000,""
55_updated,w0,python3action_modeltraining_reviews100mb_neowise,0.997085,1,2000.000000,1,COMPLETED_SUCCESSFULLY,737.158276,43.399999,780.558275,736.161191,779.561190,17.962240,1,-1.000000,""
55,w0,python3action_modeltraining_reviews100mb,0.000000,1,-1.000000,1,COMPLETED_SUCCESSFULLY,780.558290,0.000010,780.558300,780.558290,780.558300,78055830.000201,1,-1.000000,""
78_updated,w0,python3action_videoprocessing_SampleVideo_50mb_nova,0.997085,1,2000.000000,1,COMPLETED_SUCCESSFULLY,650.742084,139.600010,790.342094,649.744999,789.345009,5.654333,6,-1.000000,""
78,w0,python3action_videoprocessing_SampleVideo_50mb,0.000000,1,-1.000000,1,COMPLETED_SUCCESSFULLY,790.342109,0.000010,790.342119,790.342109,790.342119,79034211.925112,6,-1.000000,""
97_updated,w0,python3action_videoprocessing_SampleVideo_50mb_nova,0.997085,1,2000.000000,1,COMPLETED_SUCCESSFULLY,654.942163,139.600010,794.542173,653.945078,793.545088,5.684420,7,-1.000000,""
97,w0,python3action_videoprocessing_SampleVideo_50mb,0.000000,1,-1.000000,1,COMPLETED_SUCCESSFULLY,794.542188,0.000010,794.542198,794.542188,794.542198,79454219.800201,7,-1.000000,""
104_updated,w0,python3action_videoprocessing_SampleVideo_50mb_nova,0.997085,1,2000.000000,1,COMPLETED_SUCCESSFULLY,654.942223,139.600010,794.542233,653.945138,793.545148,5.684420,8,-1.000000,""
104,w0,python3action_videoprocessing_SampleVideo_50mb,0.000000,1,-1.000000,1,COMPLETED_SUCCESSFULLY,794.542248,0.000010,794.542258,794.542248,794.542258,79454225.800201,8,-1.000000,""
190_updated,w0,python3action_pyaes_3000_troll,0.997085,1,2000.000000,1,COMPLETED_SUCCESSFULLY,745.037460,57.166677,802.204137,744.040375,801.207052,14.015281,4,-1.000000,""
190,w0,python3action_pyaes_3000,0.000000,1,-1.000000,1,COMPLETED_SUCCESSFULLY,802.204152,0.000010,802.204162,802.204152,802.204162,80220416.200201,4,-1.000000,""
76_updated,w0,python3action_modeltraining_reviews100mb_neowise,0.997085,1,2000.000000,1,COMPLETED_SUCCESSFULLY,771.208259,43.399999,814.608258,770.211174,813.611173,18.746802,0,-1.000000,""
76,w0,python3action_modeltraining_reviews100mb,0.000000,1,-1.000000,1,COMPLETED_SUCCESSFULLY,814.608273,0.000010,814.608283,814.608273,814.608283,81460828.300201,0,-1.000000,""
120_updated,w0,python3action_videoprocessing_SampleVideo_50mb_nova,0.997085,1,2000.000000,1,COMPLETED_SUCCESSFULLY,683.542293,139.600010,823.142303,682.545208,822.145218,5.889292,9,-1.000000,""
120,w0,python3action_videoprocessing_SampleVideo_50mb,0.000000,1,-1.000000,1,COMPLETED_SUCCESSFULLY,823.142318,0.000010,823.142328,823.142318,823.142328,82314232.800201,9,-1.000000,""
121_updated,w0,python3action_videoprocessing_SampleVideo_50mb_nova,0.997085,1,2000.000000,1,COMPLETED_SUCCESSFULLY,683.542353,139.600010,823.142363,682.545268,822.145278,5.889292,10,-1.000000,""
121,w0,python3action_videoprocessing_SampleVideo_50mb,0.000000,1,-1.000000,1,COMPLETED_SUCCESSFULLY,823.142378,0.000010,823.142388,823.142378,823.142388,82314238.800201,10,-1.000000,""
95_updated,w0,python3action_modeltraining_reviews100mb_neowise,0.997085,1,2000.000000,1,COMPLETED_SUCCESSFULLY,780.558320,43.399999,823.958319,779.561235,822.961234,18.962241,1,-1.000000,""
95,w0,python3action_modeltraining_reviews100mb,0.000000,1,-1.000000,1,COMPLETED_SUCCESSFULLY,823.958334,0.000010,823.958344,823.958334,823.958344,82395834.400201,1,-1.000000,""
python3action_pyaes_job198_9,w0,python3action_pyaes,0.997085,1,2000.000000,1,COMPLETED_SUCCESSFULLY,823.142348,2.134958,825.277306,822.145263,824.280221,386.087281,9,-1.000000,""
python3action_facedetection_job16_10,w0,python3action_facedetection_reduced_0.91,0.997085,1,2000.000000,1,COMPLETED_SUCCESSFULLY,823.142408,2.614259,825.756667,822.145323,824.759582,315.485091,10,-1.000000,""
122_updated,w0,python3action_chameleon_3000_yeti,0.997085,1,2000.000000,1,COMPLETED_SUCCESSFULLY,745.895230,93.000000,838.895230,744.898145,837.898145,9.009657,5,-1.000000,""
122,w0,python3action_chameleon_3000,0.000000,1,-1.000000,1,COMPLETED_SUCCESSFULLY,838.895245,0.000010,838.895255,838.895245,838.895255,83889525.504418,5,-1.000000,""
python3action_pyaes_job87_5,w0,python3action_pyaes_reduced_0.85,0.997085,1,2000.000000,1,COMPLETED_SUCCESSFULLY,838.895275,0.133904,839.029179,837.898190,838.032094,6258.446457,5,-1.000000,""
195_updated,w0,python3action_facedetection_SampleVideo_50mb_taurus,0.997085,1,2000.000000,1,COMPLETED_SUCCESSFULLY,715.387750,134.600046,849.987796,714.390665,848.990711,6.307507,2,-1.000000,""
195,w0,python3action_facedetection_SampleVideo_50mb,0.000000,1,-1.000000,1,COMPLETED_SUCCESSFULLY,849.987811,0.000010,849.987821,849.987811,849.987821,84998782.141242,2,-1.000000,""
python3action_video_processing_job93_3,w0,python3action_video_processing_reduced_1.83,0.997085,1,2000.000000,1,COMPLETED_SUCCESSFULLY,849.987841,0.000000,849.987841,848.990756,848.990756,7364695925478.029297,2,-1.000000,""
162_updated,w0,python3action_linpack_6000_orion,0.997085,1,2000.000000,1,COMPLETED_SUCCESSFULLY,748.763507,106.000000,854.763507,747.766422,853.766422,8.054400,11,-1.000000,""
162,w0,python3action_linpack_6000,0.000000,1,-1.000000,1,COMPLETED_SUCCESSFULLY,854.763522,0.000010,854.763532,854.763522,854.763532,85476353.229697,11,-1.000000,""
132_updated,w0,python3action_modeltraining_reviews100mb_neowise,0.997085,1,2000.000000,1,COMPLETED_SUCCESSFULLY,814.608303,43.399999,858.008302,813.611218,857.011217,19.746803,0,-1.000000,""
132,w0,python3action_modeltraining_reviews100mb,0.000000,1,-1.000000,1,COMPLETED_SUCCESSFULLY,858.008317,0.000010,858.008327,858.008317,858.008327,85800832.700201,0,-1.000000,""
163_updated,w0,python3action_modeltraining_reviews100mb_neowise,0.997085,1,2000.000000,1,COMPLETED_SUCCESSFULLY,823.958364,43.399999,867.358363,822.961279,866.361278,19.962242,1,-1.000000,""
163,w0,python3action_modeltraining_reviews100mb,0.000000,1,-1.000000,1,COMPLETED_SUCCESSFULLY,867.358378,0.000010,867.358388,867.358378,867.358388,86735838.800201,1,-1.000000,""
67_updated,w0,python3action_videoprocessing_SampleVideo_50mb_taurus,0.997085,1,2000.000000,1,COMPLETED_SUCCESSFULLY,715.387915,154.250029,869.637944,714.390830,868.640859,5.631382,12,-1.000000,""
67,w0,python3action_videoprocessing_SampleVideo_50mb,0.000000,1,-1.000000,1,COMPLETED_SUCCESSFULLY,869.637959,0.000010,869.637969,869.637959,869.637969,86963796.900201,12,-1.000000,""
91_updated,w0,python3action_videoprocessing_SampleVideo_50mb_taurus,0.997085,1,2000.000000,1,COMPLETED_SUCCESSFULLY,715.388005,154.250029,869.638034,714.390920,868.640949,5.631383,13,-1.000000,""
91,w0,python3action_videoprocessing_SampleVideo_50mb,0.000000,1,-1.000000,1,COMPLETED_SUCCESSFULLY,869.638049,0.000010,869.638059,869.638049,869.638059,86963805.900201,13,-1.000000,""
180_updated,w0,python3action_modeltraining_reviews100mb_neowise,0.997085,1,2000.000000,1,COMPLETED_SUCCESSFULLY,858.008347,43.399999,901.408346,857.011262,900.411261,20.746804,0,-1.000000,""
180,w0,python3action_modeltraining_reviews100mb,0.000000,1,-1.000000,1,COMPLETED_SUCCESSFULLY,901.408361,0.000010,901.408371,901.408361,901.408371,90140837.100201,0,-1.000000,""
19_updated,w0,python3action_pyaes_4000_troll,0.997085,1,2000.000000,1,COMPLETED_SUCCESSFULLY,802.204182,102.333333,904.537515,801.207097,903.540430,8.829385,4,-1.000000,""
19,w0,python3action_pyaes_4000,0.000000,1,-1.000000,1,COMPLETED_SUCCESSFULLY,904.537530,0.000010,904.537540,904.537530,904.537540,90453754.034136,4,-1.000000,""
184_updated,w0,python3action_modeltraining_reviews100mb_neowise,0.997085,1,2000.000000,1,COMPLETED_SUCCESSFULLY,867.358408,43.399999,910.758407,866.361323,909.761322,20.962243,1,-1.000000,""
184,w0,python3action_modeltraining_reviews100mb,0.000000,1,-1.000000,1,COMPLETED_SUCCESSFULLY,910.758422,0.000010,910.758432,910.758422,910.758432,91075843.200201,1,-1.000000,""
164_updated,w0,python3action_videoprocessing_SampleVideo_50mb_nova,0.997085,1,2000.000000,1,COMPLETED_SUCCESSFULLY,790.342139,139.600010,929.942149,789.345054,928.945064,6.654334,6,-1.000000,""
164,w0,python3action_videoprocessing_SampleVideo_50mb,0.000000,1,-1.000000,1,COMPLETED_SUCCESSFULLY,929.942164,0.000010,929.942174,929.942164,929.942174,92994217.402610,6,-1.000000,""
python3action_facedetection_job57_6,w0,python3action_facedetection_reduced_0.91,0.997085,1,2000.000000,1,COMPLETED_SUCCESSFULLY,929.942194,2.614259,932.556453,928.945109,931.559368,356.337894,6,-1.000000,""
175_updated,w0,python3action_videoprocessing_SampleVideo_50mb_nova,0.997085,1,2000.000000,1,COMPLETED_SUCCESSFULLY,794.542218,139.600010,934.142228,793.545133,933.145143,6.684420,7,-1.000000,""
175,w0,python3action_videoprocessing_SampleVideo_50mb,0.000000,1,-1.000000,1,COMPLETED_SUCCESSFULLY,934.142243,0.000010,934.142253,934.142243,934.142253,93414225.300201,7,-1.000000,""
183_updated,w0,python3action_videoprocessing_SampleVideo_50mb_nova,0.997085,1,2000.000000,1,COMPLETED_SUCCESSFULLY,794.542278,139.600010,934.142288,793.545193,933.145203,6.684421,8,-1.000000,""
183,w0,python3action_videoprocessing_SampleVideo_50mb,0.000000,1,-1.000000,1,COMPLETED_SUCCESSFULLY,934.142303,0.000010,934.142313,934.142303,934.142313,93414231.300201,8,-1.000000,""
python3action_facedetection_job59_7,w0,python3action_facedetection_reduced_0.91,0.997085,1,2000.000000,1,COMPLETED_SUCCESSFULLY,934.142273,2.614259,936.756532,933.145188,935.759447,357.944498,7,-1.000000,""
python3action_facedetection_job62_8,w0,python3action_facedetection_reduced_0.91,0.997085,1,2000.000000,1,COMPLETED_SUCCESSFULLY,934.142333,2.614259,936.756592,933.145248,935.759507,357.944521,8,-1.000000,""
87_updated,w0,python3action_pyaes_4000_yeti,0.997085,1,2000.000000,1,COMPLETED_SUCCESSFULLY,839.029194,105.500010,944.529204,838.032109,943.532119,8.943432,5,-1.000000,""
87,w0,python3action_pyaes_4000,0.000000,1,-1.000000,1,COMPLETED_SUCCESSFULLY,944.529219,0.000010,944.529229,944.529219,944.529229,94452922.943654,5,-1.000000,""
197_updated,w0,python3action_modeltraining_reviews100mb_neowise,0.997085,1,2000.000000,1,COMPLETED_SUCCESSFULLY,901.408391,43.399999,944.808390,900.411306,943.811305,21.746805,0,-1.000000,""
197,w0,python3action_modeltraining_reviews100mb,0.000000,1,-1.000000,1,COMPLETED_SUCCESSFULLY,944.808405,0.000010,944.808415,944.808405,944.808415,94480841.500201,0,-1.000000,""
179_updated,w0,python3action_linpack_6000_orion,0.997085,1,2000.000000,1,COMPLETED_SUCCESSFULLY,854.763552,106.000000,960.763552,853.766467,959.766467,9.054401,11,-1.000000,""
179,w0,python3action_linpack_6000,0.000000,1,-1.000000,1,COMPLETED_SUCCESSFULLY,960.763567,0.000010,960.763577,960.763567,960.763577,96076357.730299,11,-1.000000,""
198_updated,w0,python3action_pyaes_4000_nova,0.997085,1,2000.000000,1,COMPLETED_SUCCESSFULLY,825.277321,139.600010,964.877331,824.280236,963.880246,6.904586,9,-1.000000,""
198,w0,python3action_pyaes_4000,0.000000,1,-1.000000,1,COMPLETED_SUCCESSFULLY,964.877346,0.000010,964.877356,964.877346,964.877356,96487735.601668,9,-1.000000,""
1_updated,w0,python3action_chameleon_3000_neowise,0.997085,1,2000.000000,1,COMPLETED_SUCCESSFULLY,910.758452,55.799998,966.558450,909.761367,965.561365,17.303968,1,-1.000000,""
1,w0,python3action_chameleon_3000,0.000000,1,-1.000000,1,COMPLETED_SUCCESSFULLY,966.558465,0.000010,966.558475,966.558465,966.558475,96655847.500201,1,-1.000000,""
python3action_facedetection_job71_9,w0,python3action_facedetection_reduced_0.91,0.997085,1,2000.000000,1,COMPLETED_SUCCESSFULLY,964.877376,2.614259,967.491635,963.880291,966.494550,369.701217,9,-1.000000,""
16_updated,w0,python3action_facedetection_SampleVideo_30mb_nova,0.997085,1,2000.000000,1,COMPLETED_SUCCESSFULLY,825.756682,160.399990,986.156672,824.759597,985.159587,6.141893,10,-1.000000,""
16,w0,python3action_facedetection_SampleVideo_30mb,0.000000,1,-1.000000,1,COMPLETED_SUCCESSFULLY,986.156687,0.000010,986.156697,986.156687,986.156697,98615669.723505,10,-1.000000,""
49_updated,w0,python3action_chameleon_3000_neowise,0.997085,1,2000.000000,1,COMPLETED_SUCCESSFULLY,944.808435,55.799998,1000.608433,943.811350,999.611348,17.914183,0,-1.000000,""
49,w0,python3action_chameleon_3000,0.000000,1,-1.000000,1,COMPLETED_SUCCESSFULLY,1000.608448,0.000010,1000.608458,1000.608448,1000.608458,100060845.800201,0,-1.000000,""
93_updated,w0,python3action_videoprocessing_SampleVideo_50mb_taurus,0.997085,1,2000.000000,1,COMPLETED_SUCCESSFULLY,849.987871,154.250029,1004.237900,848.990786,1003.240815,6.503991,2,-1.000000,""
93,w0,python3action_videoprocessing_SampleVideo_50mb,0.000000,1,-1.000000,1,COMPLETED_SUCCESSFULLY,1004.237915,0.000010,1004.237925,1004.237915,1004.237925,100423792.525420,2,-1.000000,""
34_updated,w0,python3action_pyaes_4000_troll,0.997085,1,2000.000000,1,COMPLETED_SUCCESSFULLY,904.537560,102.333333,1006.870894,903.540475,1005.873809,9.829386,4,-1.000000,""
34,w0,python3action_pyaes_4000,0.000000,1,-1.000000,1,COMPLETED_SUCCESSFULLY,1006.870909,0.000010,1006.870919,1006.870909,1006.870919,100687091.900201,4,-1.000000,""
python3action_linpack_job0_3,w0,python3action_linpack,0.997085,1,2000.000000,1,COMPLETED_SUCCESSFULLY,1004.237945,5.760927,1009.998872,1003.240860,1009.001787,175.145727,2,-1.000000,""
90_updated,w0,python3action_chameleon_3000_neowise,0.997085,1,2000.000000,1,COMPLETED_SUCCESSFULLY,966.558495,55.799998,1022.358493,965.561410,1021.361408,18.303969,1,-1.000000,""
90,w0,python3action_chameleon_3000,0.000000,1,-1.000000,1,COMPLETED_SUCCESSFULLY,1022.358508,0.000010,1022.358518,1022.358508,1022.358518,102235851.800201,1,-1.000000,""
110_updated,w0,python3action_videoprocessing_SampleVideo_50mb_taurus,0.997085,1,2000.000000,1,COMPLETED_SUCCESSFULLY,869.637989,154.250029,1023.888018,868.640904,1022.890933,6.631382,12,-1.000000,""
110,w0,python3action_videoprocessing_SampleVideo_50mb,0.000000,1,-1.000000,1,COMPLETED_SUCCESSFULLY,1023.888033,0.000010,1023.888043,1023.888033,1023.888043,102388804.300201,12,-1.000000,""
193_updated,w0,python3action_videoprocessing_SampleVideo_50mb_taurus,0.997085,1,2000.000000,1,COMPLETED_SUCCESSFULLY,869.638079,154.250029,1023.888108,868.640994,1022.891023,6.631383,13,-1.000000,""
193,w0,python3action_videoprocessing_SampleVideo_50mb,0.000000,1,-1.000000,1,COMPLETED_SUCCESSFULLY,1023.888123,0.000010,1023.888133,1023.888123,1023.888133,102388813.300201,13,-1.000000,""
python3action_linpack_job4_12,w0,python3action_linpack,0.997085,1,2000.000000,1,COMPLETED_SUCCESSFULLY,1023.888063,5.760927,1029.648990,1022.890978,1028.651905,178.556657,12,-1.000000,""
python3action_linpack_job7_13,w0,python3action_linpack,0.997085,1,2000.000000,1,COMPLETED_SUCCESSFULLY,1023.888153,5.760927,1029.649080,1022.891068,1028.651995,178.556672,13,-1.000000,""
118_updated,w0,python3action_pyaes_4000_yeti,0.997085,1,2000.000000,1,COMPLETED_SUCCESSFULLY,944.529249,105.500010,1050.029260,943.532164,1049.032175,9.943432,5,-1.000000,""
118,w0,python3action_pyaes_4000,0.000000,1,-1.000000,1,COMPLETED_SUCCESSFULLY,1050.029275,0.000010,1050.029285,1050.029275,1050.029285,105002928.500201,5,-1.000000,""
196_updated,w0,python3action_chameleon_3000_neowise,0.997085,1,2000.000000,1,COMPLETED_SUCCESSFULLY,1000.608478,55.799998,1056.408476,999.611393,1055.411391,18.914183,0,-1.000000,""
196,w0,python3action_chameleon_3000,0.000000,1,-1.000000,1,COMPLETED_SUCCESSFULLY,1056.408491,0.000010,1056.408501,1056.408491,1056.408501,105640850.100201,0,-1.000000,""
181_updated,w0,python3action_linpack_6000_orion,0.997085,1,2000.000000,1,COMPLETED_SUCCESSFULLY,960.763597,106.000000,1066.763597,959.766512,1065.766512,10.054401,11,-1.000000,""
181,w0,python3action_linpack_6000,0.000000,1,-1.000000,1,COMPLETED_SUCCESSFULLY,1066.763612,0.000010,1066.763622,1066.763612,1066.763622,106676362.230901,11,-1.000000,""
57_updated,w0,python3action_facedetection_SampleVideo_30mb_nova,0.997085,1,2000.000000,1,COMPLETED_SUCCESSFULLY,932.556468,160.399990,1092.956458,931.559383,1091.959373,6.807727,6,-1.000000,""
57,w0,python3action_facedetection_SampleVideo_30mb,0.000000,1,-1.000000,1,COMPLETED_SUCCESSFULLY,1092.956473,0.000010,1092.956483,1092.956473,1092.956483,109295648.323505,6,-1.000000,""
59_updated,w0,python3action_facedetection_SampleVideo_30mb_nova,0.997085,1,2000.000000,1,COMPLETED_SUCCESSFULLY,936.756547,160.399990,1097.156537,935.759462,1096.159452,6.833912,7,-1.000000,""
59,w0,python3action_facedetection_SampleVideo_30mb,0.000000,1,-1.000000,1,COMPLETED_SUCCESSFULLY,1097.156552,0.000010,1097.156562,1097.156552,1097.156562,109715656.223505,7,-1.000000,""
62_updated,w0,python3action_facedetection_SampleVideo_30mb_nova,0.997085,1,2000.000000,1,COMPLETED_SUCCESSFULLY,936.756607,160.399990,1097.156597,935.759522,1096.159512,6.833913,8,-1.000000,""
62,w0,python3action_facedetection_SampleVideo_30mb,0.000000,1,-1.000000,1,COMPLETED_SUCCESSFULLY,1097.156612,0.000010,1097.156622,1097.156612,1097.156622,109715662.223706,8,-1.000000,""
105_updated,w0,python3action_pyaes_4000_troll,0.997085,1,2000.000000,1,COMPLETED_SUCCESSFULLY,1006.870939,102.333333,1109.204272,1005.873854,1108.207187,10.829386,4,-1.000000,""
105,w0,python3action_pyaes_4000,0.000000,1,-1.000000,1,COMPLETED_SUCCESSFULLY,1109.204287,0.000010,1109.204297,1109.204287,1109.204297,110920429.734136,4,-1.000000,""
71_updated,w0,python3action_facedetection_SampleVideo_30mb_nova,0.997085,1,2000.000000,1,COMPLETED_SUCCESSFULLY,967.491650,160.399990,1127.891640,966.494565,1126.894555,7.025528,9,-1.000000,""
71,w0,python3action_facedetection_SampleVideo_30mb,0.000000,1,-1.000000,1,COMPLETED_SUCCESSFULLY,1127.891655,0.000010,1127.891665,1127.891655,1127.891665,112789166.523505,9,-1.000000,""
74_updated,w0,python3action_facedetection_SampleVideo_30mb_nova,0.997085,1,2000.000000,1,COMPLETED_SUCCESSFULLY,986.156717,160.399990,1146.556707,985.159632,1145.559622,7.141893,10,-1.000000,""
74,w0,python3action_facedetection_SampleVideo_30mb,0.000000,1,-1.000000,1,COMPLETED_SUCCESSFULLY,1146.556722,0.000010,1146.556732,1146.556722,1146.556732,114655673.247211,10,-1.000000,""
139_updated,w0,python3action_pyaes_4000_yeti,0.997085,1,2000.000000,1,COMPLETED_SUCCESSFULLY,1050.029305,105.500010,1155.529315,1049.032220,1154.532230,10.943432,5,-1.000000,""
139,w0,python3action_pyaes_4000,0.000000,1,-1.000000,1,COMPLETED_SUCCESSFULLY,1155.529330,0.000010,1155.529340,1155.529330,1155.529340,115552934.021982,5,-1.000000,""
0_updated,w0,python3action_linpack_6000_taurus,0.997085,1,2000.000000,1,COMPLETED_SUCCESSFULLY,1009.998887,157.600046,1167.598934,1009.001802,1166.601849,7.402294,2,-1.000000,""
0,w0,python3action_linpack_6000,0.000000,1,-1.000000,1,COMPLETED_SUCCESSFULLY,1167.598949,0.000010,1167.598959,1167.598949,1167.598959,116759895.900201,2,-1.000000,""
189_updated,w0,python3action_linpack_6000_orion,0.997085,1,2000.000000,1,COMPLETED_SUCCESSFULLY,1066.763642,106.000000,1172.763642,1065.766557,1171.766557,11.054401,11,-1.000000,""
189,w0,python3action_linpack_6000,0.000000,1,-1.000000,1,COMPLETED_SUCCESSFULLY,1172.763657,0.000010,1172.763667,1172.763657,1172.763667,117276366.731504,11,-1.000000,""
4_updated,w0,python3action_linpack_6000_taurus,0.997085,1,2000.000000,1,COMPLETED_SUCCESSFULLY,1029.649005,157.600046,1187.249051,1028.651920,1186.251966,7.526977,12,-1.000000,""
4,w0,python3action_linpack_6000,0.000000,1,-1.000000,1,COMPLETED_SUCCESSFULLY,1187.249066,0.000010,1187.249076,1187.249066,1187.249076,118724907.636951,12,-1.000000,""
7_updated,w0,python3action_linpack_6000_taurus,0.997085,1,2000.000000,1,COMPLETED_SUCCESSFULLY,1029.649095,157.600046,1187.249141,1028.652010,1186.252056,7.526978,13,-1.000000,""
7,w0,python3action_linpack_6000,0.000000,1,-1.000000,1,COMPLETED_SUCCESSFULLY,1187.249156,0.000010,1187.249166,1187.249156,1187.249166,118724916.636951,13,-1.000000,""
124_updated,w0,python3action_pyaes_4000_troll,0.997085,1,2000.000000,1,COMPLETED_SUCCESSFULLY,1109.204317,102.333333,1211.537651,1108.207232,1210.540566,11.829387,4,-1.000000,""
124,w0,python3action_pyaes_4000,0.000000,1,-1.000000,1,COMPLETED_SUCCESSFULLY,1211.537666,0.000010,1211.537676,1211.537666,1211.537676,121153767.600201,4,-1.000000,""
80_updated,w0,python3action_facedetection_SampleVideo_30mb_nova,0.997085,1,2000.000000,1,COMPLETED_SUCCESSFULLY,1092.956503,160.399990,1253.356493,1091.959418,1252.359408,7.807727,6,-1.000000,""
80,w0,python3action_facedetection_SampleVideo_30mb,0.000000,1,-1.000000,1,COMPLETED_SUCCESSFULLY,1253.356508,0.000010,1253.356518,1253.356508,1253.356518,125335651.847211,6,-1.000000,""
96_updated,w0,python3action_facedetection_SampleVideo_30mb_nova,0.997085,1,2000.000000,1,COMPLETED_SUCCESSFULLY,1097.156582,160.399990,1257.556572,1096.159497,1256.559487,7.833912,7,-1.000000,""
96,w0,python3action_facedetection_SampleVideo_30mb,0.000000,1,-1.000000,1,COMPLETED_SUCCESSFULLY,1257.556587,0.000010,1257.556597,1257.556587,1257.556597,125755659.747211,7,-1.000000,""
108_updated,w0,python3action_facedetection_SampleVideo_30mb_nova,0.997085,1,2000.000000,1,COMPLETED_SUCCESSFULLY,1097.156642,160.399990,1257.556632,1096.159557,1256.559547,7.833913,8,-1.000000,""
108,w0,python3action_facedetection_SampleVideo_30mb,0.000000,1,-1.000000,1,COMPLETED_SUCCESSFULLY,1257.556647,0.000010,1257.556657,1257.556647,1257.556657,125755665.747613,8,-1.000000,""
154_updated,w0,python3action_pyaes_4000_yeti,0.997085,1,2000.000000,1,COMPLETED_SUCCESSFULLY,1155.529360,105.500010,1261.029370,1154.532275,1260.032285,11.943433,5,-1.000000,""
154,w0,python3action_pyaes_4000,0.000000,1,-1.000000,1,COMPLETED_SUCCESSFULLY,1261.029385,0.000010,1261.029395,1261.029385,1261.029395,126102939.543764,5,-1.000000,""
191_updated,w0,python3action_linpack_6000_orion,0.997085,1,2000.000000,1,COMPLETED_SUCCESSFULLY,1172.763687,106.000000,1278.763687,1171.766602,1277.766602,12.054402,11,-1.000000,""
191,w0,python3action_linpack_6000,0.000000,1,-1.000000,1,COMPLETED_SUCCESSFULLY,1278.763702,0.000010,1278.763712,1278.763702,1278.763712,127876371.232106,11,-1.000000,""
127_updated,w0,python3action_facedetection_SampleVideo_30mb_nova,0.997085,1,2000.000000,1,COMPLETED_SUCCESSFULLY,1127.891685,160.399990,1288.291675,1126.894600,1287.294590,8.025528,9,-1.000000,""
127,w0,python3action_facedetection_SampleVideo_30mb,0.000000,1,-1.000000,1,COMPLETED_SUCCESSFULLY,1288.291690,0.000010,1288.291700,1288.291690,1288.291700,128829170.047211,9,-1.000000,""
142_updated,w0,python3action_facedetection_SampleVideo_30mb_nova,0.997085,1,2000.000000,1,COMPLETED_SUCCESSFULLY,1146.556752,160.399990,1306.956743,1145.559667,1305.959658,8.141894,10,-1.000000,""
142,w0,python3action_facedetection_SampleVideo_30mb,0.000000,1,-1.000000,1,COMPLETED_SUCCESSFULLY,1306.956758,0.000010,1306.956768,1306.956758,1306.956768,130695676.800201,10,-1.000000,""
148_updated,w0,python3action_pyaes_4000_troll,0.997085,1,2000.000000,1,COMPLETED_SUCCESSFULLY,1211.537696,102.333333,1313.871029,1210.540611,1312.873944,12.829387,4,-1.000000,""
148,w0,python3action_pyaes_4000,0.000000,1,-1.000000,1,COMPLETED_SUCCESSFULLY,1313.871044,0.000010,1313.871054,1313.871044,1313.871054,131387105.434136,4,-1.000000,""
56_updated,w0,python3action_linpack_6000_taurus,0.997085,1,2000.000000,1,COMPLETED_SUCCESSFULLY,1167.598979,157.600046,1325.199025,1166.601894,1324.201940,8.402294,2,-1.000000,""
56,w0,python3action_linpack_6000,0.000000,1,-1.000000,1,COMPLETED_SUCCESSFULLY,1325.199040,0.000010,1325.199050,1325.199040,1325.199050,132519905.013881,2,-1.000000,""
140_updated,w0,python3action_linpack_6000_taurus,0.997085,1,2000.000000,1,COMPLETED_SUCCESSFULLY,1187.249096,157.600046,1344.849143,1186.252011,1343.852058,8.526978,12,-1.000000,""
140,w0,python3action_linpack_6000,0.000000,1,-1.000000,1,COMPLETED_SUCCESSFULLY,1344.849158,0.000010,1344.849168,1344.849158,1344.849168,134484916.800201,12,-1.000000,""
171_updated,w0,python3action_linpack_6000_taurus,0.997085,1,2000.000000,1,COMPLETED_SUCCESSFULLY,1187.249186,157.600046,1344.849233,1186.252101,1343.852148,8.526978,13,-1.000000,""
171,w0,python3action_linpack_6000,0.000000,1,-1.000000,1,COMPLETED_SUCCESSFULLY,1344.849248,0.000010,1344.849258,1344.849248,1344.849258,134484925.800201,13,-1.000000,""
165_updated,w0,python3action_pyaes_4000_yeti,0.997085,1,2000.000000,1,COMPLETED_SUCCESSFULLY,1261.029415,105.500010,1366.529426,1260.032330,1365.532341,12.943433,5,-1.000000,""
165,w0,python3action_pyaes_4000,0.000000,1,-1.000000,1,COMPLETED_SUCCESSFULLY,1366.529441,0.000010,1366.529451,1366.529441,1366.529451,136652945.100201,5,-1.000000,""
157_updated,w0,python3action_facedetection_SampleVideo_30mb_nova,0.997085,1,2000.000000,1,COMPLETED_SUCCESSFULLY,1253.356538,160.399990,1413.756529,1252.359453,1412.759444,8.807728,6,-1.000000,""
157,w0,python3action_facedetection_SampleVideo_30mb,0.000000,1,-1.000000,1,COMPLETED_SUCCESSFULLY,1413.756544,0.000010,1413.756554,1413.756544,1413.756554,141375655.400201,6,-1.000000,""
178_updated,w0,python3action_pyaes_4000_troll,0.997085,1,2000.000000,1,COMPLETED_SUCCESSFULLY,1313.871074,102.333333,1416.204408,1312.873989,1415.207323,13.829388,4,-1.000000,""
178,w0,python3action_pyaes_4000,0.000000,1,-1.000000,1,COMPLETED_SUCCESSFULLY,1416.204423,0.000010,1416.204433,1416.204423,1416.204433,141620443.300201,4,-1.000000,""
161_updated,w0,python3action_facedetection_SampleVideo_30mb_nova,0.997085,1,2000.000000,1,COMPLETED_SUCCESSFULLY,1257.556617,160.399990,1417.956608,1256.559532,1416.959523,8.833913,7,-1.000000,""
161,w0,python3action_facedetection_SampleVideo_30mb,0.000000,1,-1.000000,1,COMPLETED_SUCCESSFULLY,1417.956623,0.000010,1417.956633,1417.956623,1417.956633,141795663.300201,7,-1.000000,""
177_updated,w0,python3action_facedetection_SampleVideo_30mb_nova,0.997085,1,2000.000000,1,COMPLETED_SUCCESSFULLY,1257.556677,160.399990,1417.956668,1256.559592,1416.959583,8.833913,8,-1.000000,""
177,w0,python3action_facedetection_SampleVideo_30mb,0.000000,1,-1.000000,1,COMPLETED_SUCCESSFULLY,1417.956683,0.000010,1417.956693,1417.956683,1417.956693,141795669.300201,8,-1.000000,""
174_updated,w0,python3action_linpack_6000_taurus,0.997085,1,2000.000000,1,COMPLETED_SUCCESSFULLY,1325.199070,157.600046,1482.799116,1324.201985,1481.802031,9.402294,2,-1.000000,""
174,w0,python3action_linpack_6000,0.000000,1,-1.000000,1,COMPLETED_SUCCESSFULLY,1482.799131,0.000010,1482.799141,1482.799131,1482.799141,148279914.127562,2,-1.000000,""
