job_id,workload_name,profile,submission_time,requested_number_of_resources,requested_time,success,final_state,starting_time,execution_time,finish_time,waiting_time,turnaround_time,stretch,allocated_resources,consumed_energy,metadata
python3action_chameleon_job11_14,w0,python3action_chameleon,0.997085,1,2000.000000,1,COMPLETED_SUCCESSFULLY,1.002310,0.867914,1.870224,0.005225,0.873139,1.006020,19,-1.000000,""
python3action_chameleon_job20_15,w0,python3action_chameleon,0.997085,1,2000.000000,1,COMPLETED_SUCCESSFULLY,1.002325,0.867914,1.870239,0.005240,0.873154,1.006038,20,-1.000000,""
python3action_chameleon_job140_16,w0,python3action_chameleon,0.997085,1,2000.000000,1,COMPLETED_SUCCESSFULLY,1.002340,0.892694,1.895035,0.005255,0.897950,1.005887,21,-1.000000,""
python3action_linpack_job23_0,w0,python3action_linpack,0.997085,1,2000.000000,1,COMPLETED_SUCCESSFULLY,1.002100,2.439945,3.442045,0.005015,2.444960,1.002055,2,-1.000000,""
python3action_linpack_job25_1,w0,python3action_linpack,0.997085,1,2000.000000,1,COMPLETED_SUCCESSFULLY,1.002115,2.439945,3.442060,0.005030,2.444975,1.002062,3,-1.000000,""
python3action_linpack_job36_2,w0,python3action_linpack,0.997085,1,2000.000000,1,COMPLETED_SUCCESSFULLY,1.002130,2.439945,3.442075,0.005045,2.444990,1.002068,4,-1.000000,""
python3action_linpack_job49_3,w0,python3action_linpack,0.997085,1,2000.000000,1,COMPLETED_SUCCESSFULLY,1.002145,2.439945,3.442090,0.005060,2.445005,1.002074,5,-1.000000,""
python3action_linpack_job79_4,w0,python3action_linpack,0.997085,1,2000.000000,1,COMPLETED_SUCCESSFULLY,1.002160,2.439945,3.442105,0.005075,2.445020,1.002080,6,-1.000000,""
python3action_linpack_job115_5,w0,python3action_linpack,0.997085,1,2000.000000,1,COMPLETED_SUCCESSFULLY,1.002175,2.439945,3.442120,0.005090,2.445035,1.002086,7,-1.000000,""
python3action_linpack_job120_17,w0,python3action_linpack,0.997085,1,2000.000000,1,COMPLETED_SUCCESSFULLY,1.002355,2.439945,3.442300,0.005270,2.445215,1.002160,25,-1.000000,""
python3action_linpack_job125_18,w0,python3action_linpack,0.997085,1,2000.000000,1,COMPLETED_SUCCESSFULLY,1.002370,2.439945,3.442315,0.005285,2.445230,1.002166,26,-1.000000,""
python3action_linpack_job129_19,w0,python3action_linpack,0.997085,1,2000.000000,1,COMPLETED_SUCCESSFULLY,1.002385,2.439945,3.442330,0.005300,2.445245,1.002172,27,-1.000000,""
python3action_linpack_job130_20,w0,python3action_linpack,0.997085,1,2000.000000,1,COMPLETED_SUCCESSFULLY,1.002400,2.439945,3.442345,0.005315,2.445260,1.002178,28,-1.000000,""
python3action_linpack_job132_21,w0,python3action_linpack,0.997085,1,2000.000000,1,COMPLETED_SUCCESSFULLY,1.002415,2.439945,3.442360,0.005330,2.445275,1.002184,29,-1.000000,""
23_updated,w0,python3action_linpack_5000_nova,0.997085,1,2000.000000,1,COMPLETED_SUCCESSFULLY,3.442060,34.600010,38.042070,2.444975,37.044985,1.070664,2,-1.000000,""
23,w0,python3action_linpack_5000,0.000000,1,-1.000000,1,COMPLETED_SUCCESSFULLY,38.042085,0.000010,38.042095,38.042085,38.042095,3804209.506879,2,-1.000000,""
25_updated,w0,python3action_linpack_5000_nova,0.997085,1,2000.000000,1,COMPLETED_SUCCESSFULLY,3.442090,34.600010,38.042100,2.445005,37.045015,1.070665,3,-1.000000,""
36_updated,w0,python3action_linpack_5000_nova,0.997085,1,2000.000000,1,COMPLETED_SUCCESSFULLY,3.442120,34.600010,38.042130,2.445035,37.045045,1.070666,4,-1.000000,""
25,w0,python3action_linpack_5000,0.000000,1,-1.000000,1,COMPLETED_SUCCESSFULLY,38.042130,0.000010,38.042140,38.042130,38.042140,3804214.007481,3,-1.000000,""
49_updated,w0,python3action_linpack_5000_nova,0.997085,1,2000.000000,1,COMPLETED_SUCCESSFULLY,3.442135,34.600010,38.042145,2.445050,37.045060,1.070666,5,-1.000000,""
36,w0,python3action_linpack_5000,0.000000,1,-1.000000,1,COMPLETED_SUCCESSFULLY,38.042160,0.000010,38.042170,38.042160,38.042170,3804217.007883,4,-1.000000,""
79_updated,w0,python3action_linpack_5000_nova,0.997085,1,2000.000000,1,COMPLETED_SUCCESSFULLY,3.442165,34.600010,38.042175,2.445080,37.045090,1.070667,6,-1.000000,""
115_updated,w0,python3action_linpack_5000_nova,0.997085,1,2000.000000,1,COMPLETED_SUCCESSFULLY,3.442180,34.600010,38.042190,2.445095,37.045105,1.070667,7,-1.000000,""
49,w0,python3action_linpack_5000,0.000000,1,-1.000000,1,COMPLETED_SUCCESSFULLY,38.042190,0.000010,38.042200,38.042190,38.042200,3804220.008285,5,-1.000000,""
79,w0,python3action_linpack_5000,0.000000,1,-1.000000,1,COMPLETED_SUCCESSFULLY,38.042235,0.000010,38.042245,38.042235,38.042245,3804224.508887,6,-1.000000,""
115,w0,python3action_linpack_5000,0.000000,1,-1.000000,1,COMPLETED_SUCCESSFULLY,38.042250,0.000010,38.042260,38.042250,38.042260,3804226.009088,7,-1.000000,""
120_updated,w0,python3action_linpack_5000_nova,0.997085,1,2000.000000,1,COMPLETED_SUCCESSFULLY,3.442315,34.600010,38.042325,2.445230,37.045240,1.070671,25,-1.000000,""
120,w0,python3action_linpack_5000,0.000000,1,-1.000000,1,COMPLETED_SUCCESSFULLY,38.042340,0.000010,38.042350,38.042340,38.042350,3804235.010293,25,-1.000000,""
125_updated,w0,python3action_linpack_5000_nova,0.997085,1,2000.000000,1,COMPLETED_SUCCESSFULLY,3.442345,34.600010,38.042355,2.445260,37.045270,1.070672,26,-1.000000,""
129_updated,w0,python3action_linpack_5000_nova,0.997085,1,2000.000000,1,COMPLETED_SUCCESSFULLY,3.442375,34.600010,38.042385,2.445290,37.045300,1.070673,27,-1.000000,""
125,w0,python3action_linpack_5000,0.000000,1,-1.000000,1,COMPLETED_SUCCESSFULLY,38.042385,0.000010,38.042395,38.042385,38.042395,3804239.510895,26,-1.000000,""
130_updated,w0,python3action_linpack_5000_nova,0.997085,1,2000.000000,1,COMPLETED_SUCCESSFULLY,3.442390,34.600010,38.042400,2.445305,37.045315,1.070674,28,-1.000000,""
129,w0,python3action_linpack_5000,0.000000,1,-1.000000,1,COMPLETED_SUCCESSFULLY,38.042415,0.000010,38.042425,38.042415,38.042425,3804242.511297,27,-1.000000,""
132_updated,w0,python3action_linpack_5000_nova,0.997085,1,2000.000000,1,COMPLETED_SUCCESSFULLY,3.442420,34.600010,38.042430,2.445335,37.045345,1.070674,29,-1.000000,""
130,w0,python3action_linpack_5000,0.000000,1,-1.000000,1,COMPLETED_SUCCESSFULLY,38.042445,0.000010,38.042455,38.042445,38.042455,3804245.511698,28,-1.000000,""
132,w0,python3action_linpack_5000,0.000000,1,-1.000000,1,COMPLETED_SUCCESSFULLY,38.042490,0.000010,38.042500,38.042490,38.042500,3804250.012301,29,-1.000000,""
11_updated,w0,python3action_chameleon_2000_troll,0.997085,1,2000.000000,1,COMPLETED_SUCCESSFULLY,1.870239,39.500010,41.370249,0.873154,40.373164,1.022105,19,-1.000000,""
11,w0,python3action_chameleon_2000,0.000000,1,-1.000000,1,COMPLETED_SUCCESSFULLY,41.370264,0.000010,41.370274,41.370264,41.370274,4137027.400201,19,-1.000000,""
20_updated,w0,python3action_chameleon_2000_troll,0.997085,1,2000.000000,1,COMPLETED_SUCCESSFULLY,1.870269,39.500010,41.370279,0.873184,40.373194,1.022106,20,-1.000000,""
20,w0,python3action_chameleon_2000,0.000000,1,-1.000000,1,COMPLETED_SUCCESSFULLY,41.370309,0.000010,41.370319,41.370309,41.370319,4137031.900402,20,-1.000000,""
python3action_modeltraining_job22_6,w0,python3action_modeltraining,0.997085,1,2000.000000,1,COMPLETED_SUCCESSFULLY,38.042310,30.499683,68.541993,37.045225,67.544908,2.214610,7,-1.000000,""
python3action_modeltraining_job38_18,w0,python3action_modeltraining,0.997085,1,2000.000000,1,COMPLETED_SUCCESSFULLY,38.042370,30.499683,68.542053,37.045285,67.544968,2.214612,25,-1.000000,""
python3action_modeltraining_job60_19,w0,python3action_modeltraining,0.997085,1,2000.000000,1,COMPLETED_SUCCESSFULLY,38.042430,30.499683,68.542113,37.045345,67.545028,2.214614,26,-1.000000,""
python3action_modeltraining_job65_20,w0,python3action_modeltraining,0.997085,1,2000.000000,1,COMPLETED_SUCCESSFULLY,38.042475,30.499683,68.542158,37.045390,67.545073,2.214616,27,-1.000000,""
python3action_modeltraining_job99_21,w0,python3action_modeltraining,0.997085,1,2000.000000,1,COMPLETED_SUCCESSFULLY,38.042505,30.499683,68.542188,37.045420,67.545103,2.214617,28,-1.000000,""
python3action_modeltraining_job103_22,w0,python3action_modeltraining,0.997085,1,2000.000000,1,COMPLETED_SUCCESSFULLY,38.042535,30.499683,68.542218,37.045450,67.545133,2.214618,29,-1.000000,""
148_updated,w0,python3action_linpack_5000_nova,0.997085,1,2000.000000,1,COMPLETED_SUCCESSFULLY,38.042115,34.600010,72.642125,37.045030,71.645040,2.070665,2,-1.000000,""
148,w0,python3action_linpack_5000,0.000000,1,-1.000000,1,COMPLETED_SUCCESSFULLY,72.642140,0.000010,72.642150,72.642140,72.642150,7264215.000201,2,-1.000000,""
164_updated,w0,python3action_linpack_5000_nova,0.997085,1,2000.000000,1,COMPLETED_SUCCESSFULLY,38.042175,34.600010,72.642185,37.045090,71.645100,2.070667,3,-1.000000,""
164,w0,python3action_linpack_5000,0.000000,1,-1.000000,1,COMPLETED_SUCCESSFULLY,72.642200,0.000010,72.642210,72.642200,72.642210,7264221.000201,3,-1.000000,""
167_updated,w0,python3action_linpack_5000_nova,0.997085,1,2000.000000,1,COMPLETED_SUCCESSFULLY,38.042220,34.600010,72.642230,37.045135,71.645145,2.070668,4,-1.000000,""
167,w0,python3action_linpack_5000,0.000000,1,-1.000000,1,COMPLETED_SUCCESSFULLY,72.642260,0.000010,72.642270,72.642260,72.642270,7264227.000201,4,-1.000000,""
179_updated,w0,python3action_linpack_5000_nova,0.997085,1,2000.000000,1,COMPLETED_SUCCESSFULLY,38.042265,34.600010,72.642275,37.045180,71.645190,2.070670,5,-1.000000,""
198_updated,w0,python3action_linpack_5000_nova,0.997085,1,2000.000000,1,COMPLETED_SUCCESSFULLY,38.042295,34.600010,72.642305,37.045210,71.645220,2.070671,6,-1.000000,""
179,w0,python3action_linpack_5000,0.000000,1,-1.000000,1,COMPLETED_SUCCESSFULLY,72.642305,0.000010,72.642315,72.642305,72.642315,7264231.486787,5,-1.000000,""
198,w0,python3action_linpack_5000,0.000000,1,-1.000000,1,COMPLETED_SUCCESSFULLY,72.642335,0.000010,72.642345,72.642335,72.642345,7264234.500201,6,-1.000000,""
python3action_image_processing_job16_6,w0,python3action_image_processing,0.997085,1,2000.000000,1,COMPLETED_SUCCESSFULLY,1.002190,72.012455,73.014645,0.005105,72.017560,1.000071,8,-1.000000,""
python3action_image_processing_job71_7,w0,python3action_image_processing,0.997085,1,2000.000000,1,COMPLETED_SUCCESSFULLY,1.002205,72.012455,73.014660,0.005120,72.017575,1.000071,9,-1.000000,""
python3action_image_processing_job35_8,w0,python3action_image_processing,0.997085,1,2000.000000,1,COMPLETED_SUCCESSFULLY,1.002220,72.012455,73.014675,0.005135,72.017590,1.000071,10,-1.000000,""
python3action_image_processing_job43_9,w0,python3action_image_processing,0.997085,1,2000.000000,1,COMPLETED_SUCCESSFULLY,1.002235,72.012455,73.014690,0.005150,72.017605,1.000072,11,-1.000000,""
python3action_image_processing_job45_10,w0,python3action_image_processing,0.997085,1,2000.000000,1,COMPLETED_SUCCESSFULLY,1.002250,72.012455,73.014705,0.005165,72.017620,1.000072,13,-1.000000,""
python3action_image_processing_job46_11,w0,python3action_image_processing,0.997085,1,2000.000000,1,COMPLETED_SUCCESSFULLY,1.002265,72.012455,73.014720,0.005180,72.017635,1.000072,14,-1.000000,""
python3action_image_processing_job76_12,w0,python3action_image_processing,0.997085,1,2000.000000,1,COMPLETED_SUCCESSFULLY,1.002280,72.012455,73.014735,0.005195,72.017650,1.000072,15,-1.000000,""
python3action_image_processing_job80_13,w0,python3action_image_processing,0.997085,1,2000.000000,1,COMPLETED_SUCCESSFULLY,1.002295,72.012455,73.014750,0.005210,72.017665,1.000072,16,-1.000000,""
python3action_floatoperation_job14_5,w0,python3action_floatoperation,0.997085,1,2000.000000,1,COMPLETED_SUCCESSFULLY,72.642380,2.439945,75.082325,71.645295,74.085240,30.363484,6,-1.000000,""
34_updated,w0,python3action_chameleon_2000_troll,0.997085,1,2000.000000,1,COMPLETED_SUCCESSFULLY,41.370294,39.500010,80.870304,40.373209,79.873219,2.022106,19,-1.000000,""
34,w0,python3action_chameleon_2000,0.000000,1,-1.000000,1,COMPLETED_SUCCESSFULLY,80.870319,0.000010,80.870329,80.870319,80.870329,8087032.900201,19,-1.000000,""
61_updated,w0,python3action_chameleon_2000_troll,0.997085,1,2000.000000,1,COMPLETED_SUCCESSFULLY,41.370339,39.500010,80.870349,40.373254,79.873264,2.022107,20,-1.000000,""
61,w0,python3action_chameleon_2000,0.000000,1,-1.000000,1,COMPLETED_SUCCESSFULLY,80.870379,0.000010,80.870389,80.870379,80.870389,8087038.900201,20,-1.000000,""
140_updated,w0,python3action_chameleon_3000_yeti,0.997085,1,2000.000000,1,COMPLETED_SUCCESSFULLY,1.895050,93.000000,94.895050,0.897965,93.897965,1.009656,21,-1.000000,""
140,w0,python3action_chameleon_3000,0.000000,1,-1.000000,1,COMPLETED_SUCCESSFULLY,94.895065,0.000010,94.895075,94.895065,94.895075,9489507.500402,21,-1.000000,""
python3action_modeltraining_job155_1,w0,python3action_modeltraining,0.997085,1,2000.000000,1,COMPLETED_SUCCESSFULLY,72.642170,30.499683,103.141853,71.645085,102.144768,3.349044,2,-1.000000,""
python3action_modeltraining_job159_2,w0,python3action_modeltraining,0.997085,1,2000.000000,1,COMPLETED_SUCCESSFULLY,72.642230,30.499683,103.141912,71.645145,102.144827,3.349046,3,-1.000000,""
python3action_modeltraining_job168_3,w0,python3action_modeltraining,0.997085,1,2000.000000,1,COMPLETED_SUCCESSFULLY,72.642290,30.499683,103.141973,71.645205,102.144888,3.349048,4,-1.000000,""
python3action_modeltraining_job190_4,w0,python3action_modeltraining,0.997085,1,2000.000000,1,COMPLETED_SUCCESSFULLY,72.642350,30.499683,103.142033,71.645265,102.144948,3.349050,5,-1.000000,""
35_updated,w0,python3action_imageprocessing_SampleImage_40mb_taurus,0.997085,1,2000.000000,1,COMPLETED_SUCCESSFULLY,73.014705,32.600046,105.614751,72.017620,104.617666,3.209126,10,-1.000000,""
35,w0,python3action_imageprocessing_SampleImage_40mb,0.000000,1,-1.000000,1,COMPLETED_SUCCESSFULLY,105.614766,0.000010,105.614776,105.614766,105.614776,10561477.646568,10,-1.000000,""
43_updated,w0,python3action_imageprocessing_SampleImage_40mb_taurus,0.997085,1,2000.000000,1,COMPLETED_SUCCESSFULLY,73.014735,32.600046,105.614781,72.017650,104.617696,3.209127,11,-1.000000,""
45_updated,w0,python3action_imageprocessing_SampleImage_40mb_taurus,0.997085,1,2000.000000,1,COMPLETED_SUCCESSFULLY,73.014750,32.600046,105.614796,72.017665,104.617711,3.209128,13,-1.000000,""
46_updated,w0,python3action_imageprocessing_SampleImage_40mb_taurus,0.997085,1,2000.000000,1,COMPLETED_SUCCESSFULLY,73.014765,32.600046,105.614811,72.017680,104.617726,3.209128,14,-1.000000,""
43,w0,python3action_imageprocessing_SampleImage_40mb,0.000000,1,-1.000000,1,COMPLETED_SUCCESSFULLY,105.614811,0.000010,105.614821,105.614811,105.614821,10561482.147171,11,-1.000000,""
76_updated,w0,python3action_imageprocessing_SampleImage_40mb_taurus,0.997085,1,2000.000000,1,COMPLETED_SUCCESSFULLY,73.014795,32.600046,105.614841,72.017710,104.617756,3.209129,15,-1.000000,""
45,w0,python3action_imageprocessing_SampleImage_40mb,0.000000,1,-1.000000,1,COMPLETED_SUCCESSFULLY,105.614841,0.000010,105.614851,105.614841,105.614851,10561485.147572,13,-1.000000,""
80_updated,w0,python3action_imageprocessing_SampleImage_40mb_taurus,0.997085,1,2000.000000,1,COMPLETED_SUCCESSFULLY,73.014810,32.600046,105.614856,72.017725,104.617771,3.209130,16,-1.000000,""
46,w0,python3action_imageprocessing_SampleImage_40mb,0.000000,1,-1.000000,1,COMPLETED_SUCCESSFULLY,105.614856,0.000010,105.614866,105.614856,105.614866,10561486.647773,14,-1.000000,""
76,w0,python3action_imageprocessing_SampleImage_40mb,0.000000,1,-1.000000,1,COMPLETED_SUCCESSFULLY,105.614901,0.000010,105.614911,105.614901,105.614911,10561491.148376,15,-1.000000,""
80,w0,python3action_imageprocessing_SampleImage_40mb,0.000000,1,-1.000000,1,COMPLETED_SUCCESSFULLY,105.614931,0.000010,105.614941,105.614931,105.614941,10561494.148777,16,-1.000000,""
22_updated,w0,python3action_modeltraining_reviews50mb_nova,0.997085,1,2000.000000,1,COMPLETED_SUCCESSFULLY,68.542008,42.399990,110.941998,67.544923,109.944913,2.593041,7,-1.000000,""
22,w0,python3action_modeltraining_reviews50mb,0.000000,1,-1.000000,1,COMPLETED_SUCCESSFULLY,110.942013,0.000010,110.942023,110.942013,110.942023,11094202.323505,7,-1.000000,""
38_updated,w0,python3action_modeltraining_reviews50mb_nova,0.997085,1,2000.000000,1,COMPLETED_SUCCESSFULLY,68.542068,42.399990,110.942058,67.544983,109.944973,2.593042,25,-1.000000,""
38,w0,python3action_modeltraining_reviews50mb,0.000000,1,-1.000000,1,COMPLETED_SUCCESSFULLY,110.942073,0.000010,110.942083,110.942073,110.942083,11094208.323706,25,-1.000000,""
60_updated,w0,python3action_modeltraining_reviews50mb_nova,0.997085,1,2000.000000,1,COMPLETED_SUCCESSFULLY,68.542128,42.399990,110.942118,67.545043,109.945033,2.593044,26,-1.000000,""
60,w0,python3action_modeltraining_reviews50mb,0.000000,1,-1.000000,1,COMPLETED_SUCCESSFULLY,110.942133,0.000010,110.942143,110.942133,110.942143,11094214.323706,26,-1.000000,""
65_updated,w0,python3action_modeltraining_reviews50mb_nova,0.997085,1,2000.000000,1,COMPLETED_SUCCESSFULLY,68.542173,42.399990,110.942163,67.545088,109.945078,2.593045,27,-1.000000,""
99_updated,w0,python3action_modeltraining_reviews50mb_nova,0.997085,1,2000.000000,1,COMPLETED_SUCCESSFULLY,68.542203,42.399990,110.942193,67.545118,109.945108,2.593046,28,-1.000000,""
65,w0,python3action_modeltraining_reviews50mb,0.000000,1,-1.000000,1,COMPLETED_SUCCESSFULLY,110.942193,0.000010,110.942203,110.942193,110.942203,11094220.323505,27,-1.000000,""
103_updated,w0,python3action_modeltraining_reviews50mb_nova,0.997085,1,2000.000000,1,COMPLETED_SUCCESSFULLY,68.542233,42.399990,110.942223,67.545148,109.945138,2.593046,29,-1.000000,""
99,w0,python3action_modeltraining_reviews50mb,0.000000,1,-1.000000,1,COMPLETED_SUCCESSFULLY,110.942223,0.000010,110.942233,110.942223,110.942233,11094223.323505,28,-1.000000,""
103,w0,python3action_modeltraining_reviews50mb,0.000000,1,-1.000000,1,COMPLETED_SUCCESSFULLY,110.942268,0.000010,110.942278,110.942268,110.942278,11094227.824108,29,-1.000000,""
python3action_floatoperation_job40_6,w0,python3action_floatoperation,0.997085,1,2000.000000,1,COMPLETED_SUCCESSFULLY,110.942043,2.439945,113.381989,109.944958,112.384904,46.060419,7,-1.000000,""
python3action_floatoperation_job41_18,w0,python3action_floatoperation,0.997085,1,2000.000000,1,COMPLETED_SUCCESSFULLY,110.942103,2.439945,113.382049,109.945018,112.384964,46.060444,25,-1.000000,""
python3action_floatoperation_job56_19,w0,python3action_floatoperation,0.997085,1,2000.000000,1,COMPLETED_SUCCESSFULLY,110.942163,2.439945,113.382109,109.945078,112.385024,46.060469,26,-1.000000,""
python3action_floatoperation_job57_20,w0,python3action_floatoperation,0.997085,1,2000.000000,1,COMPLETED_SUCCESSFULLY,110.942238,2.439945,113.382184,109.945153,112.385099,46.060499,27,-1.000000,""
python3action_floatoperation_job58_21,w0,python3action_floatoperation,0.997085,1,2000.000000,1,COMPLETED_SUCCESSFULLY,110.942283,2.439945,113.382229,109.945198,112.385144,46.060518,28,-1.000000,""
python3action_floatoperation_job74_22,w0,python3action_floatoperation,0.997085,1,2000.000000,1,COMPLETED_SUCCESSFULLY,110.942313,2.439945,113.382259,109.945228,112.385174,46.060530,29,-1.000000,""
106_updated,w0,python3action_chameleon_2000_troll,0.997085,1,2000.000000,1,COMPLETED_SUCCESSFULLY,80.870349,39.500010,120.370359,79.873264,119.373274,3.022107,19,-1.000000,""
106,w0,python3action_chameleon_2000,0.000000,1,-1.000000,1,COMPLETED_SUCCESSFULLY,120.370374,0.000010,120.370384,120.370374,120.370384,12037038.400201,19,-1.000000,""
121_updated,w0,python3action_chameleon_2000_troll,0.997085,1,2000.000000,1,COMPLETED_SUCCESSFULLY,80.870409,39.500010,120.370419,79.873324,119.373334,3.022109,20,-1.000000,""
121,w0,python3action_chameleon_2000,0.000000,1,-1.000000,1,COMPLETED_SUCCESSFULLY,120.370434,0.000010,120.370444,120.370434,120.370444,12037044.400201,20,-1.000000,""
96_updated,w0,python3action_imageprocessing_SampleImage_40mb_taurus,0.997085,1,2000.000000,1,COMPLETED_SUCCESSFULLY,105.614796,32.600046,138.214843,104.617711,137.217758,4.209128,10,-1.000000,""
96,w0,python3action_imageprocessing_SampleImage_40mb,0.000000,1,-1.000000,1,COMPLETED_SUCCESSFULLY,138.214858,0.000010,138.214868,138.214858,138.214868,13821486.800201,10,-1.000000,""
110_updated,w0,python3action_imageprocessing_SampleImage_40mb_taurus,0.997085,1,2000.000000,1,COMPLETED_SUCCESSFULLY,105.614871,32.600046,138.214918,104.617786,137.217833,4.209130,11,-1.000000,""
110,w0,python3action_imageprocessing_SampleImage_40mb,0.000000,1,-1.000000,1,COMPLETED_SUCCESSFULLY,138.214933,0.000010,138.214943,138.214933,138.214943,13821494.300201,11,-1.000000,""
111_updated,w0,python3action_imageprocessing_SampleImage_40mb_taurus,0.997085,1,2000.000000,1,COMPLETED_SUCCESSFULLY,105.614916,32.600046,138.214963,104.617831,137.217878,4.209131,13,-1.000000,""
python3action_facedetection_job0_10,w0,python3action_facedetection_reduced_0.91,0.997085,1,2000.000000,1,COMPLETED_SUCCESSFULLY,138.214963,0.000000,138.214963,137.217878,137.217878,13227191406496.882812,11,-1.000000,""
122_updated,w0,python3action_imageprocessing_SampleImage_40mb_taurus,0.997085,1,2000.000000,1,COMPLETED_SUCCESSFULLY,105.614946,32.600046,138.214993,104.617861,137.217908,4.209132,14,-1.000000,""
111,w0,python3action_imageprocessing_SampleImage_40mb,0.000000,1,-1.000000,1,COMPLETED_SUCCESSFULLY,138.214993,0.000010,138.215003,138.214993,138.215003,13821500.262257,13,-1.000000,""
150_updated,w0,python3action_imageprocessing_SampleImage_40mb_taurus,0.997085,1,2000.000000,1,COMPLETED_SUCCESSFULLY,105.614976,32.600046,138.215023,104.617891,137.217938,4.209133,15,-1.000000,""
187_updated,w0,python3action_imageprocessing_SampleImage_40mb_taurus,0.997085,1,2000.000000,1,COMPLETED_SUCCESSFULLY,105.614991,32.600046,138.215038,104.617906,137.217953,4.209134,16,-1.000000,""
122,w0,python3action_imageprocessing_SampleImage_40mb,0.000000,1,-1.000000,1,COMPLETED_SUCCESSFULLY,138.215038,0.000010,138.215048,138.215038,138.215048,13821504.762859,14,-1.000000,""
python3action_facedetection_job27_11,w0,python3action_facedetection_reduced_0.91,0.997085,1,2000.000000,1,COMPLETED_SUCCESSFULLY,138.215053,0.000000,138.215053,137.217968,137.217968,13227200083256.859375,13,-1.000000,""
150,w0,python3action_imageprocessing_SampleImage_40mb,0.000000,1,-1.000000,1,COMPLETED_SUCCESSFULLY,138.215068,0.000010,138.215078,138.215068,138.215078,13821507.763261,15,-1.000000,""
187,w0,python3action_imageprocessing_SampleImage_40mb,0.000000,1,-1.000000,1,COMPLETED_SUCCESSFULLY,138.215098,0.000010,138.215108,138.215098,138.215108,13821510.800201,16,-1.000000,""
python3action_facedetection_job29_12,w0,python3action_facedetection_reduced_0.91,0.997085,1,2000.000000,1,COMPLETED_SUCCESSFULLY,138.215113,0.000000,138.215113,137.218028,137.218028,13227205902984.750000,14,-1.000000,""
python3action_facedetection_job30_13,w0,python3action_facedetection_reduced_0.91,0.997085,1,2000.000000,1,COMPLETED_SUCCESSFULLY,138.215143,0.000000,138.215143,137.218058,137.218058,13227208795238.076172,15,-1.000000,""
python3action_facedetection_job39_14,w0,python3action_facedetection_reduced_0.91,0.997085,1,2000.000000,1,COMPLETED_SUCCESSFULLY,138.215173,0.000000,138.215173,137.218088,137.218088,13227211687491.402344,16,-1.000000,""
14_updated,w0,python3action_floatoperation_100000000_nova,0.997085,1,2000.000000,1,COMPLETED_SUCCESSFULLY,75.082340,66.200020,141.282360,74.085255,140.285275,2.119112,6,-1.000000,""
14,w0,python3action_floatoperation_100000000,0.000000,1,-1.000000,1,COMPLETED_SUCCESSFULLY,141.282375,0.000010,141.282385,141.282375,141.282385,14128238.500201,6,-1.000000,""
155_updated,w0,python3action_modeltraining_reviews50mb_nova,0.997085,1,2000.000000,1,COMPLETED_SUCCESSFULLY,103.141868,42.399990,145.541858,102.144783,144.544773,3.409076,2,-1.000000,""
155,w0,python3action_modeltraining_reviews50mb,0.000000,1,-1.000000,1,COMPLETED_SUCCESSFULLY,145.541873,0.000010,145.541883,145.541873,145.541883,14554188.323505,2,-1.000000,""
159_updated,w0,python3action_modeltraining_reviews50mb_nova,0.997085,1,2000.000000,1,COMPLETED_SUCCESSFULLY,103.141927,42.399990,145.541918,102.144842,144.544833,3.409077,3,-1.000000,""
159,w0,python3action_modeltraining_reviews50mb,0.000000,1,-1.000000,1,COMPLETED_SUCCESSFULLY,145.541933,0.000010,145.541943,145.541933,145.541943,14554194.300201,3,-1.000000,""
168_updated,w0,python3action_modeltraining_reviews50mb_nova,0.997085,1,2000.000000,1,COMPLETED_SUCCESSFULLY,103.141988,42.399990,145.541978,102.144903,144.544893,3.409078,4,-1.000000,""
168,w0,python3action_modeltraining_reviews50mb,0.000000,1,-1.000000,1,COMPLETED_SUCCESSFULLY,145.541993,0.000010,145.542003,145.541993,145.542003,14554200.323505,4,-1.000000,""
190_updated,w0,python3action_modeltraining_reviews50mb_nova,0.997085,1,2000.000000,1,COMPLETED_SUCCESSFULLY,103.142048,42.399990,145.542038,102.144963,144.544953,3.409080,5,-1.000000,""
190,w0,python3action_modeltraining_reviews50mb,0.000000,1,-1.000000,1,COMPLETED_SUCCESSFULLY,145.542053,0.000010,145.542063,145.542053,145.542063,14554206.323706,5,-1.000000,""
python3action_floatoperation_job119_1,w0,python3action_floatoperation,0.997085,1,2000.000000,1,COMPLETED_SUCCESSFULLY,145.541903,2.439945,147.981849,144.544818,146.984764,60.241008,2,-1.000000,""
python3action_floatoperation_job133_2,w0,python3action_floatoperation,0.997085,1,2000.000000,1,COMPLETED_SUCCESSFULLY,145.541963,2.439945,147.981908,144.544878,146.984823,60.241032,3,-1.000000,""
python3action_floatoperation_job134_3,w0,python3action_floatoperation,0.997085,1,2000.000000,1,COMPLETED_SUCCESSFULLY,145.542023,2.439945,147.981969,144.544938,146.984884,60.241057,4,-1.000000,""
python3action_floatoperation_job137_4,w0,python3action_floatoperation,0.997085,1,2000.000000,1,COMPLETED_SUCCESSFULLY,145.542083,2.439945,147.982029,144.544998,146.984944,60.241082,5,-1.000000,""
143_updated,w0,python3action_chameleon_2000_troll,0.997085,1,2000.000000,1,COMPLETED_SUCCESSFULLY,120.370404,39.500010,159.870414,119.373319,158.873329,4.022109,19,-1.000000,""
143,w0,python3action_chameleon_2000,0.000000,1,-1.000000,1,COMPLETED_SUCCESSFULLY,159.870429,0.000010,159.870439,159.870429,159.870439,15987043.900201,19,-1.000000,""
149_updated,w0,python3action_chameleon_2000_troll,0.997085,1,2000.000000,1,COMPLETED_SUCCESSFULLY,120.370464,39.500010,159.870474,119.373379,158.873389,4.022110,20,-1.000000,""
149,w0,python3action_chameleon_2000,0.000000,1,-1.000000,1,COMPLETED_SUCCESSFULLY,159.870489,0.000010,159.870499,159.870489,159.870499,15987049.900201,20,-1.000000,""
python3action_pyaes_job4_16,w0,python3action_pyaes_reduced_0.85,0.997085,1,2000.000000,1,COMPLETED_SUCCESSFULLY,159.870519,0.130187,160.000706,158.873434,159.003621,1221.347451,20,-1.000000,""
16_updated,w0,python3action_imageprocessing_SampleImage_60mb_orion,0.997085,1,2000.000000,1,COMPLETED_SUCCESSFULLY,73.014660,88.000000,161.014660,72.017575,160.017575,1.818382,8,-1.000000,""
16,w0,python3action_imageprocessing_SampleImage_60mb,0.000000,1,-1.000000,1,COMPLETED_SUCCESSFULLY,161.014675,0.000010,161.014685,161.014675,161.014685,16101468.532888,8,-1.000000,""
71_updated,w0,python3action_imageprocessing_SampleImage_60mb_orion,0.997085,1,2000.000000,1,COMPLETED_SUCCESSFULLY,73.014690,88.000000,161.014690,72.017605,160.017605,1.818382,9,-1.000000,""
71,w0,python3action_imageprocessing_SampleImage_60mb,0.000000,1,-1.000000,1,COMPLETED_SUCCESSFULLY,161.014720,0.000010,161.014730,161.014720,161.014730,16101473.033490,9,-1.000000,""
199_updated,w0,python3action_imageprocessing_SampleImage_40mb_taurus,0.997085,1,2000.000000,1,COMPLETED_SUCCESSFULLY,138.214888,32.600046,170.814934,137.217803,169.817849,5.209129,10,-1.000000,""
199,w0,python3action_imageprocessing_SampleImage_40mb,0.000000,1,-1.000000,1,COMPLETED_SUCCESSFULLY,170.814949,0.000010,170.814959,170.814949,170.814959,17081495.913881,10,-1.000000,""
python3action_facedetection_job59_9,w0,python3action_facedetection_reduced_0.91,0.997085,1,2000.000000,1,COMPLETED_SUCCESSFULLY,170.814979,0.000000,170.814979,169.817894,169.817894,16369687602365.750000,10,-1.000000,""
40_updated,w0,python3action_floatoperation_100000000_nova,0.997085,1,2000.000000,1,COMPLETED_SUCCESSFULLY,113.382004,66.200020,179.582024,112.384919,178.584939,2.697657,7,-1.000000,""
40,w0,python3action_floatoperation_100000000,0.000000,1,-1.000000,1,COMPLETED_SUCCESSFULLY,179.582039,0.000010,179.582049,179.582039,179.582049,17958204.900201,7,-1.000000,""
41_updated,w0,python3action_floatoperation_100000000_nova,0.997085,1,2000.000000,1,COMPLETED_SUCCESSFULLY,113.382064,66.200020,179.582084,112.384979,178.584999,2.697658,25,-1.000000,""
41,w0,python3action_floatoperation_100000000,0.000000,1,-1.000000,1,COMPLETED_SUCCESSFULLY,179.582099,0.000010,179.582109,179.582099,179.582109,17958210.900201,25,-1.000000,""
56_updated,w0,python3action_floatoperation_100000000_nova,0.997085,1,2000.000000,1,COMPLETED_SUCCESSFULLY,113.382124,66.200020,179.582144,112.385039,178.585059,2.697659,26,-1.000000,""
56,w0,python3action_floatoperation_100000000,0.000000,1,-1.000000,1,COMPLETED_SUCCESSFULLY,179.582159,0.000010,179.582169,179.582159,179.582169,17958216.900201,26,-1.000000,""
57_updated,w0,python3action_floatoperation_100000000_nova,0.997085,1,2000.000000,1,COMPLETED_SUCCESSFULLY,113.382199,66.200020,179.582219,112.385114,178.585134,2.697660,27,-1.000000,""
57,w0,python3action_floatoperation_100000000,0.000000,1,-1.000000,1,COMPLETED_SUCCESSFULLY,179.582234,0.000010,179.582244,179.582234,179.582244,17958224.400201,27,-1.000000,""
58_updated,w0,python3action_floatoperation_100000000_nova,0.997085,1,2000.000000,1,COMPLETED_SUCCESSFULLY,113.382244,66.200020,179.582264,112.385159,178.585179,2.697661,28,-1.000000,""
74_updated,w0,python3action_floatoperation_100000000_nova,0.997085,1,2000.000000,1,COMPLETED_SUCCESSFULLY,113.382274,66.200020,179.582294,112.385189,178.585209,2.697661,29,-1.000000,""
58,w0,python3action_floatoperation_100000000,0.000000,1,-1.000000,1,COMPLETED_SUCCESSFULLY,179.582294,0.000010,179.582304,179.582294,179.582304,17958230.354194,28,-1.000000,""
74,w0,python3action_floatoperation_100000000,0.000000,1,-1.000000,1,COMPLETED_SUCCESSFULLY,179.582324,0.000010,179.582334,179.582324,179.582334,17958233.400201,29,-1.000000,""
173_updated,w0,python3action_chameleon_2000_troll,0.997085,1,2000.000000,1,COMPLETED_SUCCESSFULLY,159.870459,39.500010,199.370469,158.873374,198.373384,5.022110,19,-1.000000,""
173,w0,python3action_chameleon_2000,0.000000,1,-1.000000,1,COMPLETED_SUCCESSFULLY,199.370484,0.000010,199.370494,199.370484,199.370494,19937049.400201,19,-1.000000,""
python3action_pyaes_job81_15,w0,python3action_pyaes_reduced_0.85,0.997085,1,2000.000000,1,COMPLETED_SUCCESSFULLY,199.370514,0.130187,199.500701,198.373429,198.503616,1524.757008,19,-1.000000,""
153_updated,w0,python3action_floatoperation_100000000_nova,0.997085,1,2000.000000,1,COMPLETED_SUCCESSFULLY,141.282405,66.200020,207.482425,140.285320,206.485340,3.119113,6,-1.000000,""
153,w0,python3action_floatoperation_100000000,0.000000,1,-1.000000,1,COMPLETED_SUCCESSFULLY,207.482440,0.000010,207.482450,207.482440,207.482450,20748245.000201,6,-1.000000,""
119_updated,w0,python3action_floatoperation_100000000_nova,0.997085,1,2000.000000,1,COMPLETED_SUCCESSFULLY,147.981864,66.200020,214.181884,146.984779,213.184799,3.220313,2,-1.000000,""
119,w0,python3action_floatoperation_100000000,0.000000,1,-1.000000,1,COMPLETED_SUCCESSFULLY,214.181899,0.000010,214.181909,214.181899,214.181909,21418190.900201,2,-1.000000,""
133_updated,w0,python3action_floatoperation_100000000_nova,0.997085,1,2000.000000,1,COMPLETED_SUCCESSFULLY,147.981923,66.200020,214.181943,146.984838,213.184858,3.220314,3,-1.000000,""
133,w0,python3action_floatoperation_100000000,0.000000,1,-1.000000,1,COMPLETED_SUCCESSFULLY,214.181958,0.000010,214.181968,214.181958,214.181968,21418196.800201,3,-1.000000,""
134_updated,w0,python3action_floatoperation_100000000_nova,0.997085,1,2000.000000,1,COMPLETED_SUCCESSFULLY,147.981984,66.200020,214.182004,146.984899,213.184919,3.220315,4,-1.000000,""
134,w0,python3action_floatoperation_100000000,0.000000,1,-1.000000,1,COMPLETED_SUCCESSFULLY,214.182019,0.000010,214.182029,214.182019,214.182029,21418202.900201,4,-1.000000,""
137_updated,w0,python3action_floatoperation_100000000_nova,0.997085,1,2000.000000,1,COMPLETED_SUCCESSFULLY,147.982044,66.200020,214.182064,146.984959,213.184979,3.220316,5,-1.000000,""
137,w0,python3action_floatoperation_100000000,0.000000,1,-1.000000,1,COMPLETED_SUCCESSFULLY,214.182079,0.000010,214.182089,214.182079,214.182089,21418208.900201,5,-1.000000,""
4_updated,w0,python3action_pyaes_3000_troll,0.997085,1,2000.000000,1,COMPLETED_SUCCESSFULLY,160.000721,57.166677,217.167398,159.003636,216.170313,3.781404,20,-1.000000,""
4,w0,python3action_pyaes_3000,0.000000,1,-1.000000,1,COMPLETED_SUCCESSFULLY,217.167413,0.000010,217.167423,217.167413,217.167423,21716742.300201,20,-1.000000,""
python3action_modeltraining_job105_5,w0,python3action_modeltraining,0.997085,1,2000.000000,1,COMPLETED_SUCCESSFULLY,207.482470,30.499683,237.982153,206.485385,236.985068,7.770083,6,-1.000000,""
185_updated,w0,python3action_floatoperation_100000000_nova,0.997085,1,2000.000000,1,COMPLETED_SUCCESSFULLY,179.582069,66.200020,245.782089,178.584984,244.785004,3.697658,7,-1.000000,""
185,w0,python3action_floatoperation_100000000,0.000000,1,-1.000000,1,COMPLETED_SUCCESSFULLY,245.782104,0.000010,245.782114,245.782104,245.782114,24578211.400201,7,-1.000000,""
194_updated,w0,python3action_floatoperation_100000000_nova,0.997085,1,2000.000000,1,COMPLETED_SUCCESSFULLY,179.582129,66.200020,245.782149,178.585044,244.785064,3.697658,25,-1.000000,""
194,w0,python3action_floatoperation_100000000,0.000000,1,-1.000000,1,COMPLETED_SUCCESSFULLY,245.782164,0.000010,245.782174,245.782164,245.782174,24578217.400201,25,-1.000000,""
89_updated,w0,python3action_imageprocessing_SampleImage_60mb_orion,0.997085,1,2000.000000,1,COMPLETED_SUCCESSFULLY,161.014705,88.000000,249.014705,160.017620,248.017620,2.818382,8,-1.000000,""
89,w0,python3action_imageprocessing_SampleImage_60mb,0.000000,1,-1.000000,1,COMPLETED_SUCCESSFULLY,249.014720,0.000010,249.014730,249.014720,249.014730,24901473.033490,8,-1.000000,""
116_updated,w0,python3action_imageprocessing_SampleImage_60mb_orion,0.997085,1,2000.000000,1,COMPLETED_SUCCESSFULLY,161.014750,88.000000,249.014750,160.017665,248.017665,2.818383,9,-1.000000,""
116,w0,python3action_imageprocessing_SampleImage_60mb,0.000000,1,-1.000000,1,COMPLETED_SUCCESSFULLY,249.014780,0.000010,249.014790,249.014780,249.014790,24901479.034293,9,-1.000000,""
81_updated,w0,python3action_pyaes_3000_troll,0.997085,1,2000.000000,1,COMPLETED_SUCCESSFULLY,199.500716,57.166677,256.667393,198.503631,255.670308,4.472366,19,-1.000000,""
81,w0,python3action_pyaes_3000,0.000000,1,-1.000000,1,COMPLETED_SUCCESSFULLY,256.667408,0.000010,256.667418,256.667408,256.667418,25666741.800201,19,-1.000000,""
5_updated,w0,python3action_modeltraining_reviews100mb_nova,0.997085,1,2000.000000,1,COMPLETED_SUCCESSFULLY,179.582189,79.600010,259.182199,178.585104,258.185114,3.243531,26,-1.000000,""
5,w0,python3action_modeltraining_reviews100mb,0.000000,1,-1.000000,1,COMPLETED_SUCCESSFULLY,259.182214,0.000010,259.182224,259.182214,259.182224,25918222.400201,26,-1.000000,""
6_updated,w0,python3action_modeltraining_reviews100mb_nova,0.997085,1,2000.000000,1,COMPLETED_SUCCESSFULLY,179.582264,79.600010,259.182273,178.585179,258.185188,3.243532,27,-1.000000,""
6,w0,python3action_modeltraining_reviews100mb,0.000000,1,-1.000000,1,COMPLETED_SUCCESSFULLY,259.182288,0.000010,259.182298,259.182288,259.182298,25918229.831291,27,-1.000000,""
python3action_video_processing_job9_20,w0,python3action_video_processing_reduced_0.97,0.997085,1,2000.000000,1,COMPLETED_SUCCESSFULLY,259.182318,0.000000,259.182318,258.185233,258.185233,5287593315987.476562,27,-1.000000,""
15_updated,w0,python3action_modeltraining_reviews100mb_nova,0.997085,1,2000.000000,1,COMPLETED_SUCCESSFULLY,179.582339,79.600010,259.182349,178.585254,258.185264,3.243533,28,-1.000000,""
15,w0,python3action_modeltraining_reviews100mb,0.000000,1,-1.000000,1,COMPLETED_SUCCESSFULLY,259.182378,0.000010,259.182388,259.182378,259.182388,25918238.832496,28,-1.000000,""
18_updated,w0,python3action_modeltraining_reviews100mb_nova,0.997085,1,2000.000000,1,COMPLETED_SUCCESSFULLY,179.582369,79.600010,259.182379,178.585284,258.185294,3.243533,29,-1.000000,""
python3action_video_processing_job44_21,w0,python3action_video_processing_reduced_0.97,0.997085,1,2000.000000,1,COMPLETED_SUCCESSFULLY,259.182408,0.000000,259.182408,258.185323,258.185323,5287595159420.189453,28,-1.000000,""
18,w0,python3action_modeltraining_reviews100mb,0.000000,1,-1.000000,1,COMPLETED_SUCCESSFULLY,259.182423,0.000010,259.182433,259.182423,259.182433,25918243.333099,29,-1.000000,""
python3action_video_processing_job85_22,w0,python3action_video_processing_reduced_0.97,0.997085,1,2000.000000,1,COMPLETED_SUCCESSFULLY,259.182468,0.000000,259.182468,258.185383,258.185383,5287596388375.331055,29,-1.000000,""
0_updated,w0,python3action_facedetection_SampleVideo_50mb_taurus,0.997085,1,2000.000000,1,COMPLETED_SUCCESSFULLY,138.215008,134.600046,272.815054,137.217923,271.817969,2.019449,11,-1.000000,""
0,w0,python3action_facedetection_SampleVideo_50mb,0.000000,1,-1.000000,1,COMPLETED_SUCCESSFULLY,272.815069,0.000010,272.815079,272.815069,272.815079,27281507.900201,11,-1.000000,""
27_updated,w0,python3action_facedetection_SampleVideo_50mb_taurus,0.997085,1,2000.000000,1,COMPLETED_SUCCESSFULLY,138.215128,134.600046,272.815174,137.218043,271.818089,2.019450,13,-1.000000,""
27,w0,python3action_facedetection_SampleVideo_50mb,0.000000,1,-1.000000,1,COMPLETED_SUCCESSFULLY,272.815189,0.000010,272.815199,272.815189,272.815199,27281519.913881,13,-1.000000,""
29_updated,w0,python3action_facedetection_SampleVideo_50mb_taurus,0.997085,1,2000.000000,1,COMPLETED_SUCCESSFULLY,138.215188,134.600046,272.815234,137.218103,271.818149,2.019451,14,-1.000000,""
30_updated,w0,python3action_facedetection_SampleVideo_50mb_taurus,0.997085,1,2000.000000,1,COMPLETED_SUCCESSFULLY,138.215203,134.600046,272.815249,137.218118,271.818164,2.019451,15,-1.000000,""
29,w0,python3action_facedetection_SampleVideo_50mb,0.000000,1,-1.000000,1,COMPLETED_SUCCESSFULLY,272.815249,0.000010,272.815259,272.815249,272.815259,27281525.914684,14,-1.000000,""
39_updated,w0,python3action_facedetection_SampleVideo_50mb_taurus,0.997085,1,2000.000000,1,COMPLETED_SUCCESSFULLY,138.215233,134.600046,272.815279,137.218148,271.818194,2.019451,16,-1.000000,""
30,w0,python3action_facedetection_SampleVideo_50mb,0.000000,1,-1.000000,1,COMPLETED_SUCCESSFULLY,272.815279,0.000010,272.815289,272.815279,272.815289,27281528.915086,15,-1.000000,""
39,w0,python3action_facedetection_SampleVideo_50mb,0.000000,1,-1.000000,1,COMPLETED_SUCCESSFULLY,272.815324,0.000010,272.815334,272.815324,272.815334,27281533.415688,16,-1.000000,""
84_updated,w0,python3action_pyaes_3000_troll,0.997085,1,2000.000000,1,COMPLETED_SUCCESSFULLY,217.167443,57.166677,274.334120,216.170358,273.337035,4.781405,20,-1.000000,""
84,w0,python3action_pyaes_3000,0.000000,1,-1.000000,1,COMPLETED_SUCCESSFULLY,274.334135,0.000010,274.334145,274.334135,274.334145,27433414.500201,20,-1.000000,""
python3action_image_processing_job64_16,w0,python3action_image_processing,0.997085,1,2000.000000,1,COMPLETED_SUCCESSFULLY,274.334165,12.398880,286.733045,273.337080,285.735960,23.045304,20,-1.000000,""
67_updated,w0,python3action_modeltraining_reviews100mb_nova,0.997085,1,2000.000000,1,COMPLETED_SUCCESSFULLY,214.181929,79.600010,293.781939,213.184844,292.784854,3.678201,2,-1.000000,""
67,w0,python3action_modeltraining_reviews100mb,0.000000,1,-1.000000,1,COMPLETED_SUCCESSFULLY,293.781954,0.000010,293.781964,293.781954,293.781964,29378196.400201,2,-1.000000,""
python3action_video_processing_job91_1,w0,python3action_video_processing_reduced_0.97,0.997085,1,2000.000000,1,COMPLETED_SUCCESSFULLY,293.781984,0.000000,293.781984,292.784899,292.784899,5996189073702.428711,2,-1.000000,""
68_updated,w0,python3action_modeltraining_reviews100mb_nova,0.997085,1,2000.000000,1,COMPLETED_SUCCESSFULLY,214.181988,79.600010,293.781998,213.184903,292.784913,3.678202,3,-1.000000,""
68,w0,python3action_modeltraining_reviews100mb,0.000000,1,-1.000000,1,COMPLETED_SUCCESSFULLY,293.782028,0.000010,293.782038,293.782028,293.782038,29378203.800402,3,-1.000000,""
python3action_video_processing_job114_2,w0,python3action_video_processing_reduced_0.97,0.997085,1,2000.000000,1,COMPLETED_SUCCESSFULLY,293.782058,0.000000,293.782058,292.784973,292.784973,5996190589252.013672,3,-1.000000,""
83_updated,w0,python3action_modeltraining_reviews100mb_nova,0.997085,1,2000.000000,1,COMPLETED_SUCCESSFULLY,214.182049,79.600010,293.782059,213.184964,292.784974,3.678203,4,-1.000000,""
83,w0,python3action_modeltraining_reviews100mb,0.000000,1,-1.000000,1,COMPLETED_SUCCESSFULLY,293.782103,0.000010,293.782113,293.782103,293.782113,29378211.301406,4,-1.000000,""
94_updated,w0,python3action_modeltraining_reviews100mb_nova,0.997085,1,2000.000000,1,COMPLETED_SUCCESSFULLY,214.182109,79.600010,293.782119,213.185024,292.785034,3.678203,5,-1.000000,""
python3action_video_processing_job147_3,w0,python3action_video_processing_reduced_0.97,0.997085,1,2000.000000,1,COMPLETED_SUCCESSFULLY,293.782133,0.000000,293.782133,292.785048,292.785048,5996192125445.941406,4,-1.000000,""
94,w0,python3action_modeltraining_reviews100mb,0.000000,1,-1.000000,1,COMPLETED_SUCCESSFULLY,293.782163,0.000010,293.782173,293.782163,293.782173,29378217.302209,5,-1.000000,""
python3action_video_processing_job169_4,w0,python3action_video_processing_reduced_0.97,0.997085,1,2000.000000,1,COMPLETED_SUCCESSFULLY,293.782208,0.000000,293.782208,292.785123,292.785123,5996193661639.869141,5,-1.000000,""
59_updated,w0,python3action_facedetection_SampleVideo_50mb_taurus,0.997085,1,2000.000000,1,COMPLETED_SUCCESSFULLY,170.815009,134.600046,305.415055,169.817924,304.417970,2.261648,10,-1.000000,""
59,w0,python3action_facedetection_SampleVideo_50mb,0.000000,1,-1.000000,1,COMPLETED_SUCCESSFULLY,305.415070,0.000010,305.415080,305.415070,305.415080,30541508.027963,10,-1.000000,""
174_updated,w0,python3action_pyaes_3000_troll,0.997085,1,2000.000000,1,COMPLETED_SUCCESSFULLY,256.667438,57.166677,313.834115,255.670353,312.837030,5.472367,19,-1.000000,""
174,w0,python3action_pyaes_3000,0.000000,1,-1.000000,1,COMPLETED_SUCCESSFULLY,313.834130,0.000010,313.834140,313.834130,313.834140,31383414.000201,19,-1.000000,""
105_updated,w0,python3action_modeltraining_reviews100mb_nova,0.997085,1,2000.000000,1,COMPLETED_SUCCESSFULLY,237.982168,79.600010,317.582178,236.985083,316.585093,3.977199,6,-1.000000,""
105,w0,python3action_modeltraining_reviews100mb,0.000000,1,-1.000000,1,COMPLETED_SUCCESSFULLY,317.582193,0.000010,317.582203,317.582193,317.582203,31758220.300201,6,-1.000000,""
python3action_video_processing_job175_5,w0,python3action_video_processing_reduced_0.97,0.997085,1,2000.000000,1,COMPLETED_SUCCESSFULLY,317.582223,0.000000,317.582223,316.585138,316.585138,6483614256926.602539,6,-1.000000,""
124_updated,w0,python3action_modeltraining_reviews100mb_nova,0.997085,1,2000.000000,1,COMPLETED_SUCCESSFULLY,245.782134,79.600010,325.382144,244.785049,324.385059,4.075189,7,-1.000000,""
124,w0,python3action_modeltraining_reviews100mb,0.000000,1,-1.000000,1,COMPLETED_SUCCESSFULLY,325.382159,0.000010,325.382169,325.382159,325.382169,32538216.900201,7,-1.000000,""
python3action_video_processing_job186_6,w0,python3action_video_processing_reduced_0.97,0.997085,1,2000.000000,1,COMPLETED_SUCCESSFULLY,325.382189,0.000000,325.382189,324.385104,324.385104,6643356344251.537109,7,-1.000000,""
131_updated,w0,python3action_modeltraining_reviews100mb_nova,0.997085,1,2000.000000,1,COMPLETED_SUCCESSFULLY,245.782194,79.600010,325.382204,244.785109,324.385119,4.075189,25,-1.000000,""
131,w0,python3action_modeltraining_reviews100mb,0.000000,1,-1.000000,1,COMPLETED_SUCCESSFULLY,325.382234,0.000010,325.382244,325.382234,325.382244,32538224.400402,25,-1.000000,""
python3action_video_processing_job189_18,w0,python3action_video_processing_reduced_0.97,0.997085,1,2000.000000,1,COMPLETED_SUCCESSFULLY,325.382264,0.000000,325.382264,324.385179,324.385179,6643357880280.966797,25,-1.000000,""
python3action_image_processing_job135_15,w0,python3action_image_processing,0.997085,1,2000.000000,1,COMPLETED_SUCCESSFULLY,313.834160,12.398880,326.233040,312.837075,325.235955,26.231075,19,-1.000000,""
138_updated,w0,python3action_imageprocessing_SampleImage_60mb_orion,0.997085,1,2000.000000,1,COMPLETED_SUCCESSFULLY,249.014750,88.000000,337.014750,248.017665,336.017665,3.818383,8,-1.000000,""
138,w0,python3action_imageprocessing_SampleImage_60mb,0.000000,1,-1.000000,1,COMPLETED_SUCCESSFULLY,337.014765,0.000010,337.014775,337.014765,337.014775,33701477.534093,8,-1.000000,""
141_updated,w0,python3action_imageprocessing_SampleImage_60mb_orion,0.997085,1,2000.000000,1,COMPLETED_SUCCESSFULLY,249.014810,88.000000,337.014810,248.017725,336.017725,3.818383,9,-1.000000,""
141,w0,python3action_imageprocessing_SampleImage_60mb,0.000000,1,-1.000000,1,COMPLETED_SUCCESSFULLY,337.014825,0.000010,337.014835,337.014825,337.014835,33701483.534896,9,-1.000000,""
162_updated,w0,python3action_modeltraining_reviews100mb_nova,0.997085,1,2000.000000,1,COMPLETED_SUCCESSFULLY,259.182244,79.600010,338.782254,258.185159,337.785169,4.243532,26,-1.000000,""
162,w0,python3action_modeltraining_reviews100mb,0.000000,1,-1.000000,1,COMPLETED_SUCCESSFULLY,338.782269,0.000010,338.782279,338.782269,338.782279,33878227.900201,26,-1.000000,""
python3action_linpack_job8_7,w0,python3action_linpack,0.997085,1,2000.000000,1,COMPLETED_SUCCESSFULLY,337.014795,5.760927,342.775723,336.017710,341.778638,59.327019,8,-1.000000,""
python3action_linpack_job13_8,w0,python3action_linpack,0.997085,1,2000.000000,1,COMPLETED_SUCCESSFULLY,337.014855,5.760927,342.775783,336.017770,341.778698,59.327029,9,-1.000000,""
64_updated,w0,python3action_imageprocessing_SampleImage_60mb_troll,0.997085,1,2000.000000,1,COMPLETED_SUCCESSFULLY,286.733060,62.000000,348.733060,285.735975,347.735975,5.608645,20,-1.000000,""
64,w0,python3action_imageprocessing_SampleImage_60mb,0.000000,1,-1.000000,1,COMPLETED_SUCCESSFULLY,348.733075,0.000010,348.733085,348.733075,348.733085,34873308.509582,20,-1.000000,""
9_updated,w0,python3action_videoprocessing_SampleVideo_30mb_nova,0.997085,1,2000.000000,1,COMPLETED_SUCCESSFULLY,259.182348,106.799980,365.982329,258.185263,364.985244,3.417465,27,-1.000000,""
9,w0,python3action_videoprocessing_SampleVideo_30mb,0.000000,1,-1.000000,1,COMPLETED_SUCCESSFULLY,365.982344,0.000010,365.982354,365.982344,365.982354,36598235.400201,27,-1.000000,""
44_updated,w0,python3action_videoprocessing_SampleVideo_30mb_nova,0.997085,1,2000.000000,1,COMPLETED_SUCCESSFULLY,259.182453,106.799980,365.982434,258.185368,364.985349,3.417466,28,-1.000000,""
44,w0,python3action_videoprocessing_SampleVideo_30mb,0.000000,1,-1.000000,1,COMPLETED_SUCCESSFULLY,365.982449,0.000010,365.982459,365.982449,365.982459,36598245.900201,28,-1.000000,""
85_updated,w0,python3action_videoprocessing_SampleVideo_30mb_nova,0.997085,1,2000.000000,1,COMPLETED_SUCCESSFULLY,259.182498,106.799980,365.982479,258.185413,364.985394,3.417467,29,-1.000000,""
85,w0,python3action_videoprocessing_SampleVideo_30mb,0.000000,1,-1.000000,1,COMPLETED_SUCCESSFULLY,365.982509,0.000010,365.982519,365.982509,365.982519,36598251.900201,29,-1.000000,""
135_updated,w0,python3action_imageprocessing_SampleImage_60mb_troll,0.997085,1,2000.000000,1,COMPLETED_SUCCESSFULLY,326.233055,62.000000,388.233055,325.235970,387.235970,6.245741,19,-1.000000,""
135,w0,python3action_imageprocessing_SampleImage_60mb,0.000000,1,-1.000000,1,COMPLETED_SUCCESSFULLY,388.233070,0.000010,388.233080,388.233070,388.233080,38823308.009582,19,-1.000000,""
91_updated,w0,python3action_videoprocessing_SampleVideo_30mb_nova,0.997085,1,2000.000000,1,COMPLETED_SUCCESSFULLY,293.782013,106.799980,400.581993,292.784928,399.584908,3.741432,2,-1.000000,""
91,w0,python3action_videoprocessing_SampleVideo_30mb,0.000000,1,-1.000000,1,COMPLETED_SUCCESSFULLY,400.582008,0.000010,400.582018,400.582008,400.582018,40058201.846609,2,-1.000000,""
114_updated,w0,python3action_videoprocessing_SampleVideo_30mb_nova,0.997085,1,2000.000000,1,COMPLETED_SUCCESSFULLY,293.782088,106.799980,400.582068,292.785003,399.584983,3.741433,3,-1.000000,""
114,w0,python3action_videoprocessing_SampleVideo_30mb,0.000000,1,-1.000000,1,COMPLETED_SUCCESSFULLY,400.582083,0.000010,400.582093,400.582083,400.582093,40058209.347613,3,-1.000000,""
147_updated,w0,python3action_videoprocessing_SampleVideo_30mb_nova,0.997085,1,2000.000000,1,COMPLETED_SUCCESSFULLY,293.782178,106.799980,400.582158,292.785093,399.585073,3.741434,4,-1.000000,""
147,w0,python3action_videoprocessing_SampleVideo_30mb,0.000000,1,-1.000000,1,COMPLETED_SUCCESSFULLY,400.582173,0.000010,400.582183,400.582173,400.582183,40058218.348818,4,-1.000000,""
169_updated,w0,python3action_videoprocessing_SampleVideo_30mb_nova,0.997085,1,2000.000000,1,COMPLETED_SUCCESSFULLY,293.782238,106.799980,400.582218,292.785153,399.585133,3.741435,5,-1.000000,""
169,w0,python3action_videoprocessing_SampleVideo_30mb,0.000000,1,-1.000000,1,COMPLETED_SUCCESSFULLY,400.582233,0.000010,400.582243,400.582233,400.582243,40058224.349621,5,-1.000000,""
66_updated,w0,python3action_facedetection_SampleVideo_50mb_taurus,0.997085,1,2000.000000,1,COMPLETED_SUCCESSFULLY,272.815099,134.600046,407.415145,271.818014,406.418060,3.019450,11,-1.000000,""
66,w0,python3action_facedetection_SampleVideo_50mb,0.000000,1,-1.000000,1,COMPLETED_SUCCESSFULLY,407.415160,0.000010,407.415170,407.415160,407.415170,40741517.013882,11,-1.000000,""
69_updated,w0,python3action_facedetection_SampleVideo_50mb_taurus,0.997085,1,2000.000000,1,COMPLETED_SUCCESSFULLY,272.815219,134.600046,407.415265,271.818134,406.418180,3.019451,13,-1.000000,""
69,w0,python3action_facedetection_SampleVideo_50mb,0.000000,1,-1.000000,1,COMPLETED_SUCCESSFULLY,407.415280,0.000010,407.415290,407.415280,407.415290,40741529.027562,13,-1.000000,""
72_updated,w0,python3action_facedetection_SampleVideo_50mb_taurus,0.997085,1,2000.000000,1,COMPLETED_SUCCESSFULLY,272.815294,134.600046,407.415340,271.818209,406.418255,3.019451,14,-1.000000,""
72,w0,python3action_facedetection_SampleVideo_50mb,0.000000,1,-1.000000,1,COMPLETED_SUCCESSFULLY,407.415355,0.000010,407.415365,407.415355,407.415365,40741536.528566,14,-1.000000,""
75_updated,w0,python3action_facedetection_SampleVideo_50mb_taurus,0.997085,1,2000.000000,1,COMPLETED_SUCCESSFULLY,272.815339,134.600046,407.415385,271.818254,406.418300,3.019451,15,-1.000000,""
107_updated,w0,python3action_facedetection_SampleVideo_50mb_taurus,0.997085,1,2000.000000,1,COMPLETED_SUCCESSFULLY,272.815369,134.600046,407.415415,271.818284,406.418330,3.019452,16,-1.000000,""
75,w0,python3action_facedetection_SampleVideo_50mb,0.000000,1,-1.000000,1,COMPLETED_SUCCESSFULLY,407.415415,0.000010,407.415425,407.415415,407.415425,40741542.529369,15,-1.000000,""
107,w0,python3action_facedetection_SampleVideo_50mb,0.000000,1,-1.000000,1,COMPLETED_SUCCESSFULLY,407.415445,0.000010,407.415455,407.415445,407.415455,40741545.529771,16,-1.000000,""
python3action_video_processing_job26_14,w0,python3action_video_processing_reduced_1.83,0.997085,1,2000.000000,1,COMPLETED_SUCCESSFULLY,407.415490,0.000000,407.415490,406.418405,406.418405,3523799013297.268066,16,-1.000000,""
184_updated,w0,python3action_imageprocessing_SampleImage_60mb_troll,0.997085,1,2000.000000,1,COMPLETED_SUCCESSFULLY,348.733105,62.000000,410.733105,347.736020,409.736020,6.608645,20,-1.000000,""
184,w0,python3action_imageprocessing_SampleImage_60mb,0.000000,1,-1.000000,1,COMPLETED_SUCCESSFULLY,410.733120,0.000010,410.733130,410.733120,410.733130,41073313.010185,20,-1.000000,""
175_updated,w0,python3action_videoprocessing_SampleVideo_30mb_nova,0.997085,1,2000.000000,1,COMPLETED_SUCCESSFULLY,317.582253,106.799980,424.382233,316.585168,423.385148,3.964281,6,-1.000000,""
175,w0,python3action_videoprocessing_SampleVideo_30mb,0.000000,1,-1.000000,1,COMPLETED_SUCCESSFULLY,424.382248,0.000010,424.382258,424.382248,424.382258,42438225.847412,6,-1.000000,""
186_updated,w0,python3action_videoprocessing_SampleVideo_30mb_nova,0.997085,1,2000.000000,1,COMPLETED_SUCCESSFULLY,325.382219,106.799980,432.182199,324.385134,431.185114,4.037315,7,-1.000000,""
186,w0,python3action_videoprocessing_SampleVideo_30mb,0.000000,1,-1.000000,1,COMPLETED_SUCCESSFULLY,432.182214,0.000010,432.182224,432.182214,432.182224,43218222.446609,7,-1.000000,""
189_updated,w0,python3action_videoprocessing_SampleVideo_30mb_nova,0.997085,1,2000.000000,1,COMPLETED_SUCCESSFULLY,325.382294,106.799980,432.182274,324.385209,431.185189,4.037315,25,-1.000000,""
189,w0,python3action_videoprocessing_SampleVideo_30mb,0.000000,1,-1.000000,1,COMPLETED_SUCCESSFULLY,432.182289,0.000010,432.182299,432.182289,432.182299,43218229.947613,25,-1.000000,""
108_updated,w0,python3action_facedetection_SampleVideo_50mb_taurus,0.997085,1,2000.000000,1,COMPLETED_SUCCESSFULLY,305.415100,134.600046,440.015146,304.418015,439.018061,3.261649,10,-1.000000,""
108,w0,python3action_facedetection_SampleVideo_50mb,0.000000,1,-1.000000,1,COMPLETED_SUCCESSFULLY,440.015161,0.000010,440.015171,440.015161,440.015171,44001517.141644,10,-1.000000,""
python3action_video_processing_job42_9,w0,python3action_video_processing_reduced_1.83,0.997085,1,2000.000000,1,COMPLETED_SUCCESSFULLY,440.015191,0.000000,440.015191,439.018106,439.018106,3806450569254.779297,10,-1.000000,""
8_updated,w0,python3action_linpack_6000_orion,0.997085,1,2000.000000,1,COMPLETED_SUCCESSFULLY,342.775738,106.000000,448.775738,341.778653,447.778653,4.224327,8,-1.000000,""
8,w0,python3action_linpack_6000,0.000000,1,-1.000000,1,COMPLETED_SUCCESSFULLY,448.775753,0.000010,448.775763,448.775753,448.775763,44877576.300402,8,-1.000000,""
13_updated,w0,python3action_linpack_6000_orion,0.997085,1,2000.000000,1,COMPLETED_SUCCESSFULLY,342.775798,106.000000,448.775798,341.778713,447.778713,4.224327,9,-1.000000,""
13,w0,python3action_linpack_6000,0.000000,1,-1.000000,1,COMPLETED_SUCCESSFULLY,448.775813,0.000010,448.775823,448.775813,448.775823,44877582.300603,9,-1.000000,""
7_updated,w0,python3action_floatoperation_200000000_nova,0.997085,1,2000.000000,1,COMPLETED_SUCCESSFULLY,338.782299,135.399990,474.182289,337.785214,473.185204,3.494721,26,-1.000000,""
7,w0,python3action_floatoperation_200000000,0.000000,1,-1.000000,1,COMPLETED_SUCCESSFULLY,474.182304,0.000010,474.182314,474.182304,474.182314,47418231.423907,26,-1.000000,""
2_updated,w0,python3action_chameleon_3000_troll,0.997085,1,2000.000000,1,COMPLETED_SUCCESSFULLY,388.233100,94.000000,482.233100,387.236015,481.236015,5.119532,19,-1.000000,""
2,w0,python3action_chameleon_3000,0.000000,1,-1.000000,1,COMPLETED_SUCCESSFULLY,482.233115,0.000010,482.233125,482.233115,482.233125,48223312.510185,19,-1.000000,""
28_updated,w0,python3action_floatoperation_200000000_nova,0.997085,1,2000.000000,1,COMPLETED_SUCCESSFULLY,365.982374,135.399990,501.382364,364.985289,500.385279,3.695608,27,-1.000000,""
28,w0,python3action_floatoperation_200000000,0.000000,1,-1.000000,1,COMPLETED_SUCCESSFULLY,501.382379,0.000010,501.382389,501.382379,501.382389,50138238.923907,27,-1.000000,""
33_updated,w0,python3action_floatoperation_200000000_nova,0.997085,1,2000.000000,1,COMPLETED_SUCCESSFULLY,365.982479,135.399990,501.382469,364.985394,500.385384,3.695609,28,-1.000000,""
33,w0,python3action_floatoperation_200000000,0.000000,1,-1.000000,1,COMPLETED_SUCCESSFULLY,501.382484,0.000010,501.382494,501.382484,501.382494,50138249.403816,28,-1.000000,""
73_updated,w0,python3action_floatoperation_200000000_nova,0.997085,1,2000.000000,1,COMPLETED_SUCCESSFULLY,365.982539,135.399990,501.382529,364.985454,500.385444,3.695609,29,-1.000000,""
73,w0,python3action_floatoperation_200000000,0.000000,1,-1.000000,1,COMPLETED_SUCCESSFULLY,501.382544,0.000010,501.382554,501.382544,501.382554,50138255.423907,29,-1.000000,""
python3action_pyaes_job1_21,w0,python3action_pyaes_reduced_0.85,0.997085,1,2000.000000,1,COMPLETED_SUCCESSFULLY,501.382514,0.320244,501.702758,500.385429,500.705673,1563.514339,28,-1.000000,""
python3action_pyaes_job10_22,w0,python3action_pyaes_reduced_0.85,0.997085,1,2000.000000,1,COMPLETED_SUCCESSFULLY,501.382574,0.320244,501.702818,500.385489,500.705733,1563.514527,29,-1.000000,""
62_updated,w0,python3action_chameleon_3000_troll,0.997085,1,2000.000000,1,COMPLETED_SUCCESSFULLY,410.733150,94.000000,504.733150,409.736065,503.736065,5.358894,20,-1.000000,""
62,w0,python3action_chameleon_3000,0.000000,1,-1.000000,1,COMPLETED_SUCCESSFULLY,504.733165,0.000010,504.733175,504.733165,504.733175,50473317.510788,20,-1.000000,""
87_updated,w0,python3action_floatoperation_200000000_nova,0.997085,1,2000.000000,1,COMPLETED_SUCCESSFULLY,400.582038,135.399990,535.982029,399.584953,534.984944,3.951145,2,-1.000000,""
87,w0,python3action_floatoperation_200000000,0.000000,1,-1.000000,1,COMPLETED_SUCCESSFULLY,535.982044,0.000010,535.982054,535.982044,535.982054,53598205.400201,2,-1.000000,""
92_updated,w0,python3action_floatoperation_200000000_nova,0.997085,1,2000.000000,1,COMPLETED_SUCCESSFULLY,400.582113,135.399990,535.982104,399.585028,534.985019,3.951145,3,-1.000000,""
92,w0,python3action_floatoperation_200000000,0.000000,1,-1.000000,1,COMPLETED_SUCCESSFULLY,535.982119,0.000010,535.982129,535.982119,535.982129,53598212.900201,3,-1.000000,""
93_updated,w0,python3action_floatoperation_200000000_nova,0.997085,1,2000.000000,1,COMPLETED_SUCCESSFULLY,400.582203,135.399990,535.982194,399.585118,534.985109,3.951146,4,-1.000000,""
93,w0,python3action_floatoperation_200000000,0.000000,1,-1.000000,1,COMPLETED_SUCCESSFULLY,535.982209,0.000010,535.982219,535.982209,535.982219,53598221.900201,4,-1.000000,""
102_updated,w0,python3action_floatoperation_200000000_nova,0.997085,1,2000.000000,1,COMPLETED_SUCCESSFULLY,400.582264,135.399990,535.982254,399.585179,534.985169,3.951146,5,-1.000000,""
102,w0,python3action_floatoperation_200000000,0.000000,1,-1.000000,1,COMPLETED_SUCCESSFULLY,535.982269,0.000010,535.982279,535.982269,535.982279,53598227.900201,5,-1.000000,""
python3action_pyaes_job12_1,w0,python3action_pyaes_reduced_0.85,0.997085,1,2000.000000,1,COMPLETED_SUCCESSFULLY,535.982074,0.320244,536.302318,534.984989,535.305233,1671.555672,2,-1.000000,""
python3action_pyaes_job19_2,w0,python3action_pyaes_reduced_0.85,0.997085,1,2000.000000,1,COMPLETED_SUCCESSFULLY,535.982149,0.320244,536.302393,534.985064,535.305308,1671.555906,3,-1.000000,""
python3action_pyaes_job37_3,w0,python3action_pyaes_reduced_0.85,0.997085,1,2000.000000,1,COMPLETED_SUCCESSFULLY,535.982239,0.320244,536.302483,534.985154,535.305398,1671.556187,4,-1.000000,""
python3action_pyaes_job48_4,w0,python3action_pyaes_reduced_0.85,0.997085,1,2000.000000,1,COMPLETED_SUCCESSFULLY,535.982299,0.320244,536.302543,534.985214,535.305458,1671.556375,5,-1.000000,""
139_updated,w0,python3action_facedetection_SampleVideo_50mb_taurus,0.997085,1,2000.000000,1,COMPLETED_SUCCESSFULLY,407.415190,134.600046,542.015236,406.418105,541.018151,4.019450,11,-1.000000,""
139,w0,python3action_facedetection_SampleVideo_50mb,0.000000,1,-1.000000,1,COMPLETED_SUCCESSFULLY,542.015251,0.000010,542.015261,542.015251,542.015261,54201526.127562,11,-1.000000,""
python3action_video_processing_job50_10,w0,python3action_video_processing_reduced_1.83,0.997085,1,2000.000000,1,COMPLETED_SUCCESSFULLY,542.015281,0.000000,542.015281,541.018196,541.018196,4693142387755.335938,11,-1.000000,""
154_updated,w0,python3action_facedetection_SampleVideo_50mb_taurus,0.997085,1,2000.000000,1,COMPLETED_SUCCESSFULLY,407.415310,134.600046,542.015356,406.418225,541.018271,4.019451,13,-1.000000,""
154,w0,python3action_facedetection_SampleVideo_50mb,0.000000,1,-1.000000,1,COMPLETED_SUCCESSFULLY,542.015371,0.000010,542.015381,542.015371,542.015381,54201538.141243,13,-1.000000,""
python3action_video_processing_job51_11,w0,python3action_video_processing_reduced_1.83,0.997085,1,2000.000000,1,COMPLETED_SUCCESSFULLY,542.015401,0.000000,542.015401,541.018316,541.018316,4693143429899.803711,13,-1.000000,""
157_updated,w0,python3action_facedetection_SampleVideo_50mb_taurus,0.997085,1,2000.000000,1,COMPLETED_SUCCESSFULLY,407.415385,134.600046,542.015431,406.418300,541.018346,4.019451,14,-1.000000,""
157,w0,python3action_facedetection_SampleVideo_50mb,0.000000,1,-1.000000,1,COMPLETED_SUCCESSFULLY,542.015461,0.000010,542.015471,542.015461,542.015471,54201547.142447,14,-1.000000,""
python3action_video_processing_job53_12,w0,python3action_video_processing_reduced_1.83,0.997085,1,2000.000000,1,COMPLETED_SUCCESSFULLY,542.015491,0.000000,542.015491,541.018406,541.018406,4693144210722.631836,14,-1.000000,""
160_updated,w0,python3action_facedetection_SampleVideo_50mb_taurus,0.997085,1,2000.000000,1,COMPLETED_SUCCESSFULLY,407.415460,134.600046,542.015506,406.418375,541.018421,4.019452,15,-1.000000,""
160,w0,python3action_facedetection_SampleVideo_50mb,0.000000,1,-1.000000,1,COMPLETED_SUCCESSFULLY,542.015536,0.000010,542.015546,542.015536,542.015546,54201554.643451,15,-1.000000,""
python3action_video_processing_job63_13,w0,python3action_video_processing_reduced_1.83,0.997085,1,2000.000000,1,COMPLETED_SUCCESSFULLY,542.015566,0.000000,542.015566,541.018481,541.018481,4693144861408.322266,15,-1.000000,""
17_updated,w0,python3action_linpack_6000_orion,0.997085,1,2000.000000,1,COMPLETED_SUCCESSFULLY,448.775783,106.000000,554.775783,447.778698,553.778698,5.224327,8,-1.000000,""
17,w0,python3action_linpack_6000,0.000000,1,-1.000000,1,COMPLETED_SUCCESSFULLY,554.775798,0.000010,554.775808,554.775798,554.775808,55477580.801004,8,-1.000000,""
32_updated,w0,python3action_linpack_6000_orion,0.997085,1,2000.000000,1,COMPLETED_SUCCESSFULLY,448.775843,106.000000,554.775843,447.778758,553.778758,5.224328,9,-1.000000,""
32,w0,python3action_linpack_6000,0.000000,1,-1.000000,1,COMPLETED_SUCCESSFULLY,554.775858,0.000010,554.775868,554.775858,554.775868,55477586.801406,9,-1.000000,""
142_updated,w0,python3action_floatoperation_200000000_nova,0.997085,1,2000.000000,1,COMPLETED_SUCCESSFULLY,424.382278,135.399990,559.782269,423.385193,558.785184,4.126922,6,-1.000000,""
142,w0,python3action_floatoperation_200000000,0.000000,1,-1.000000,1,COMPLETED_SUCCESSFULLY,559.782284,0.000010,559.782294,559.782284,559.782294,55978229.400201,6,-1.000000,""
python3action_pyaes_job77_5,w0,python3action_pyaes_reduced_0.85,0.997085,1,2000.000000,1,COMPLETED_SUCCESSFULLY,559.782314,0.320244,560.102558,558.785229,559.105473,1745.874815,6,-1.000000,""
26_updated,w0,python3action_videoprocessing_SampleVideo_50mb_taurus,0.997085,1,2000.000000,1,COMPLETED_SUCCESSFULLY,407.415520,154.250029,561.665549,406.418435,560.668464,3.634803,16,-1.000000,""
26,w0,python3action_videoprocessing_SampleVideo_50mb,0.000000,1,-1.000000,1,COMPLETED_SUCCESSFULLY,561.665564,0.000010,561.665574,561.665564,561.665574,56166557.414150,16,-1.000000,""
145_updated,w0,python3action_floatoperation_200000000_nova,0.997085,1,2000.000000,1,COMPLETED_SUCCESSFULLY,432.182244,135.399990,567.582235,431.185159,566.585150,4.184529,7,-1.000000,""
145,w0,python3action_floatoperation_200000000,0.000000,1,-1.000000,1,COMPLETED_SUCCESSFULLY,567.582250,0.000010,567.582260,567.582250,567.582260,56758226.000201,7,-1.000000,""
146_updated,w0,python3action_floatoperation_200000000_nova,0.997085,1,2000.000000,1,COMPLETED_SUCCESSFULLY,432.182319,135.399990,567.582310,431.185234,566.585225,4.184529,25,-1.000000,""
146,w0,python3action_floatoperation_200000000,0.000000,1,-1.000000,1,COMPLETED_SUCCESSFULLY,567.582325,0.000010,567.582335,567.582325,567.582335,56758233.500201,25,-1.000000,""
python3action_pyaes_job86_6,w0,python3action_pyaes_reduced_0.85,0.997085,1,2000.000000,1,COMPLETED_SUCCESSFULLY,567.582280,0.320244,567.902524,566.585195,566.905439,1770.231157,7,-1.000000,""
python3action_pyaes_job97_18,w0,python3action_pyaes_reduced_0.85,0.997085,1,2000.000000,1,COMPLETED_SUCCESSFULLY,567.582355,0.320244,567.902599,566.585270,566.905514,1770.231391,25,-1.000000,""
78_updated,w0,python3action_chameleon_3000_troll,0.997085,1,2000.000000,1,COMPLETED_SUCCESSFULLY,482.233145,94.000000,576.233145,481.236060,575.236060,6.119533,19,-1.000000,""
78,w0,python3action_chameleon_3000,0.000000,1,-1.000000,1,COMPLETED_SUCCESSFULLY,576.233160,0.000010,576.233170,576.233160,576.233170,57623317.010787,19,-1.000000,""
42_updated,w0,python3action_videoprocessing_SampleVideo_50mb_taurus,0.997085,1,2000.000000,1,COMPLETED_SUCCESSFULLY,440.015221,154.250029,594.265250,439.018136,593.268165,3.846146,10,-1.000000,""
42,w0,python3action_videoprocessing_SampleVideo_50mb,0.000000,1,-1.000000,1,COMPLETED_SUCCESSFULLY,594.265265,0.000010,594.265275,594.265265,594.265275,59426527.525822,10,-1.000000,""
98_updated,w0,python3action_chameleon_3000_troll,0.997085,1,2000.000000,1,COMPLETED_SUCCESSFULLY,504.733195,94.000000,598.733195,503.736110,597.736110,6.358895,20,-1.000000,""
98,w0,python3action_chameleon_3000,0.000000,1,-1.000000,1,COMPLETED_SUCCESSFULLY,598.733210,0.000010,598.733220,598.733210,598.733220,59873322.011390,20,-1.000000,""
151_updated,w0,python3action_floatoperation_200000000_nova,0.997085,1,2000.000000,1,COMPLETED_SUCCESSFULLY,474.182334,135.399990,609.582324,473.185249,608.585239,4.494721,26,-1.000000,""
151,w0,python3action_floatoperation_200000000,0.000000,1,-1.000000,1,COMPLETED_SUCCESSFULLY,609.582339,0.000010,609.582349,609.582339,609.582349,60958234.947613,26,-1.000000,""
python3action_pyaes_job101_19,w0,python3action_pyaes_reduced_0.85,0.997085,1,2000.000000,1,COMPLETED_SUCCESSFULLY,609.582369,0.320244,609.902613,608.585284,608.905528,1901.381543,26,-1.000000,""
178_updated,w0,python3action_floatoperation_200000000_nova,0.997085,1,2000.000000,1,COMPLETED_SUCCESSFULLY,501.382409,135.399990,636.782399,500.385324,635.785314,4.695608,27,-1.000000,""
178,w0,python3action_floatoperation_200000000,0.000000,1,-1.000000,1,COMPLETED_SUCCESSFULLY,636.782414,0.000010,636.782424,636.782414,636.782424,63678242.447613,27,-1.000000,""
python3action_pyaes_job109_20,w0,python3action_pyaes_reduced_0.85,0.997085,1,2000.000000,1,COMPLETED_SUCCESSFULLY,636.782444,0.320244,637.102688,635.785359,636.105603,1986.317084,27,-1.000000,""
1_updated,w0,python3action_pyaes_4000_nova,0.997085,1,2000.000000,1,COMPLETED_SUCCESSFULLY,501.702773,139.600010,641.302783,500.705688,640.305698,4.586717,28,-1.000000,""
1,w0,python3action_pyaes_4000,0.000000,1,-1.000000,1,COMPLETED_SUCCESSFULLY,641.302798,0.000010,641.302808,641.302798,641.302808,64130280.800201,28,-1.000000,""
10_updated,w0,python3action_pyaes_4000_nova,0.997085,1,2000.000000,1,COMPLETED_SUCCESSFULLY,501.702833,139.600010,641.302843,500.705748,640.305758,4.586717,29,-1.000000,""
10,w0,python3action_pyaes_4000,0.000000,1,-1.000000,1,COMPLETED_SUCCESSFULLY,641.302858,0.000010,641.302868,641.302858,641.302868,64130286.800201,29,-1.000000,""
47_updated,w0,python3action_linpack_6000_orion,0.997085,1,2000.000000,1,COMPLETED_SUCCESSFULLY,554.775828,106.000000,660.775828,553.778743,659.778743,6.224328,8,-1.000000,""
47,w0,python3action_linpack_6000,0.000000,1,-1.000000,1,COMPLETED_SUCCESSFULLY,660.775843,0.000010,660.775853,660.775843,660.775853,66077585.301607,8,-1.000000,""
95_updated,w0,python3action_linpack_6000_orion,0.997085,1,2000.000000,1,COMPLETED_SUCCESSFULLY,554.775888,106.000000,660.775888,553.778803,659.778803,6.224328,9,-1.000000,""
95,w0,python3action_linpack_6000,0.000000,1,-1.000000,1,COMPLETED_SUCCESSFULLY,660.775903,0.000010,660.775913,660.775903,660.775913,66077591.302209,9,-1.000000,""
126_updated,w0,python3action_chameleon_3000_troll,0.997085,1,2000.000000,1,COMPLETED_SUCCESSFULLY,576.233190,94.000000,670.233190,575.236105,669.236105,7.119533,19,-1.000000,""
126,w0,python3action_chameleon_3000,0.000000,1,-1.000000,1,COMPLETED_SUCCESSFULLY,670.233205,0.000010,670.233215,670.233205,670.233215,67023321.511390,19,-1.000000,""
12_updated,w0,python3action_pyaes_4000_nova,0.997085,1,2000.000000,1,COMPLETED_SUCCESSFULLY,536.302333,139.600010,675.902343,535.305248,674.905258,4.834565,2,-1.000000,""
12,w0,python3action_pyaes_4000,0.000000,1,-1.000000,1,COMPLETED_SUCCESSFULLY,675.902358,0.000010,675.902368,675.902358,675.902368,67590236.800201,2,-1.000000,""
19_updated,w0,python3action_pyaes_4000_nova,0.997085,1,2000.000000,1,COMPLETED_SUCCESSFULLY,536.302408,139.600010,675.902418,535.305323,674.905333,4.834565,3,-1.000000,""
19,w0,python3action_pyaes_4000,0.000000,1,-1.000000,1,COMPLETED_SUCCESSFULLY,675.902433,0.000010,675.902443,675.902433,675.902443,67590244.300201,3,-1.000000,""
37_updated,w0,python3action_pyaes_4000_nova,0.997085,1,2000.000000,1,COMPLETED_SUCCESSFULLY,536.302498,139.600010,675.902508,535.305413,674.905423,4.834566,4,-1.000000,""
37,w0,python3action_pyaes_4000,0.000000,1,-1.000000,1,COMPLETED_SUCCESSFULLY,675.902523,0.000010,675.902533,675.902523,675.902533,67590253.300201,4,-1.000000,""
48_updated,w0,python3action_pyaes_4000_nova,0.997085,1,2000.000000,1,COMPLETED_SUCCESSFULLY,536.302558,139.600010,675.902568,535.305473,674.905483,4.834566,5,-1.000000,""
48,w0,python3action_pyaes_4000,0.000000,1,-1.000000,1,COMPLETED_SUCCESSFULLY,675.902583,0.000010,675.902593,675.902583,675.902593,67590259.300201,5,-1.000000,""
127_updated,w0,python3action_chameleon_3000_troll,0.997085,1,2000.000000,1,COMPLETED_SUCCESSFULLY,598.733240,94.000000,692.733240,597.736155,691.736155,7.358895,20,-1.000000,""
127,w0,python3action_chameleon_3000,0.000000,1,-1.000000,1,COMPLETED_SUCCESSFULLY,692.733255,0.000010,692.733265,692.733255,692.733265,69273326.511992,20,-1.000000,""
50_updated,w0,python3action_videoprocessing_SampleVideo_50mb_taurus,0.997085,1,2000.000000,1,COMPLETED_SUCCESSFULLY,542.015311,154.250029,696.265340,541.018226,695.268255,4.507411,11,-1.000000,""
50,w0,python3action_videoprocessing_SampleVideo_50mb,0.000000,1,-1.000000,1,COMPLETED_SUCCESSFULLY,696.265355,0.000010,696.265365,696.265355,696.265365,69626536.511740,11,-1.000000,""
51_updated,w0,python3action_videoprocessing_SampleVideo_50mb_taurus,0.997085,1,2000.000000,1,COMPLETED_SUCCESSFULLY,542.015431,154.250029,696.265460,541.018346,695.268375,4.507412,13,-1.000000,""
51,w0,python3action_videoprocessing_SampleVideo_50mb,0.000000,1,-1.000000,1,COMPLETED_SUCCESSFULLY,696.265475,0.000010,696.265485,696.265475,696.265485,69626548.525420,13,-1.000000,""
53_updated,w0,python3action_videoprocessing_SampleVideo_50mb_taurus,0.997085,1,2000.000000,1,COMPLETED_SUCCESSFULLY,542.015521,154.250029,696.265550,541.018436,695.268465,4.507412,14,-1.000000,""
53,w0,python3action_videoprocessing_SampleVideo_50mb,0.000000,1,-1.000000,1,COMPLETED_SUCCESSFULLY,696.265565,0.000010,696.265575,696.265565,696.265575,69626557.526625,14,-1.000000,""
63_updated,w0,python3action_videoprocessing_SampleVideo_50mb_taurus,0.997085,1,2000.000000,1,COMPLETED_SUCCESSFULLY,542.015596,154.250029,696.265625,541.018511,695.268540,4.507413,15,-1.000000,""
63,w0,python3action_videoprocessing_SampleVideo_50mb,0.000000,1,-1.000000,1,COMPLETED_SUCCESSFULLY,696.265640,0.000010,696.265650,696.265640,696.265650,69626565.027629,15,-1.000000,""
77_updated,w0,python3action_pyaes_4000_nova,0.997085,1,2000.000000,1,COMPLETED_SUCCESSFULLY,560.102573,139.600010,699.702583,559.105488,698.705498,5.005053,6,-1.000000,""
77,w0,python3action_pyaes_4000,0.000000,1,-1.000000,1,COMPLETED_SUCCESSFULLY,699.702598,0.000010,699.702608,699.702598,699.702608,69970260.800201,6,-1.000000,""
86_updated,w0,python3action_pyaes_4000_nova,0.997085,1,2000.000000,1,COMPLETED_SUCCESSFULLY,567.902539,139.600010,707.502549,566.905454,706.505464,5.060927,7,-1.000000,""
86,w0,python3action_pyaes_4000,0.000000,1,-1.000000,1,COMPLETED_SUCCESSFULLY,707.502564,0.000010,707.502574,707.502564,707.502574,70750257.400201,7,-1.000000,""
97_updated,w0,python3action_pyaes_4000_nova,0.997085,1,2000.000000,1,COMPLETED_SUCCESSFULLY,567.902614,139.600010,707.502624,566.905529,706.505539,5.060928,25,-1.000000,""
97,w0,python3action_pyaes_4000,0.000000,1,-1.000000,1,COMPLETED_SUCCESSFULLY,707.502639,0.000010,707.502649,707.502639,707.502649,70750264.900201,25,-1.000000,""
python3action_facedetection_job3_18,w0,python3action_facedetection_reduced_1.83,0.997085,1,2000.000000,1,COMPLETED_SUCCESSFULLY,707.502669,0.000000,707.502669,706.505584,706.505584,159345867631446.531250,25,-1.000000,""
70_updated,w0,python3action_videoprocessing_SampleVideo_50mb_taurus,0.997085,1,2000.000000,1,COMPLETED_SUCCESSFULLY,561.665594,154.250029,715.915623,560.668509,714.918538,4.634803,16,-1.000000,""
70,w0,python3action_videoprocessing_SampleVideo_50mb,0.000000,1,-1.000000,1,COMPLETED_SUCCESSFULLY,715.915638,0.000010,715.915648,715.915638,715.915648,71591564.800201,16,-1.000000,""
88_updated,w0,python3action_videoprocessing_SampleVideo_50mb_taurus,0.997085,1,2000.000000,1,COMPLETED_SUCCESSFULLY,594.265295,154.250029,748.515324,593.268210,747.518239,4.846147,10,-1.000000,""
88,w0,python3action_videoprocessing_SampleVideo_50mb,0.000000,1,-1.000000,1,COMPLETED_SUCCESSFULLY,748.515339,0.000010,748.515349,748.515339,748.515349,74851534.909598,10,-1.000000,""
101_updated,w0,python3action_pyaes_4000_nova,0.997085,1,2000.000000,1,COMPLETED_SUCCESSFULLY,609.902628,139.600010,749.502638,608.905543,748.505553,5.361787,26,-1.000000,""
101,w0,python3action_pyaes_4000,0.000000,1,-1.000000,1,COMPLETED_SUCCESSFULLY,749.502653,0.000010,749.502663,749.502653,749.502663,74950266.300201,26,-1.000000,""
python3action_facedetection_job21_19,w0,python3action_facedetection_reduced_0.91,0.997085,1,2000.000000,1,COMPLETED_SUCCESSFULLY,749.502683,0.000000,749.502683,748.505598,748.505598,168818586351396.250000,26,-1.000000,""
144_updated,w0,python3action_chameleon_3000_troll,0.997085,1,2000.000000,1,COMPLETED_SUCCESSFULLY,670.233235,94.000000,764.233235,669.236150,763.236150,8.119534,19,-1.000000,""
144,w0,python3action_chameleon_3000,0.000000,1,-1.000000,1,COMPLETED_SUCCESSFULLY,764.233250,0.000010,764.233260,764.233250,764.233260,76423326.011992,19,-1.000000,""
104_updated,w0,python3action_linpack_6000_orion,0.997085,1,2000.000000,1,COMPLETED_SUCCESSFULLY,660.775873,106.000000,766.775873,659.778788,765.778788,7.224328,8,-1.000000,""
104,w0,python3action_linpack_6000,0.000000,1,-1.000000,1,COMPLETED_SUCCESSFULLY,766.775888,0.000010,766.775898,766.775888,766.775898,76677589.802209,8,-1.000000,""
170_updated,w0,python3action_linpack_6000_orion,0.997085,1,2000.000000,1,COMPLETED_SUCCESSFULLY,660.775933,106.000000,766.775933,659.778848,765.778848,7.224329,9,-1.000000,""
170,w0,python3action_linpack_6000,0.000000,1,-1.000000,1,COMPLETED_SUCCESSFULLY,766.775948,0.000010,766.775958,766.775948,766.775958,76677595.803012,9,-1.000000,""
109_updated,w0,python3action_pyaes_4000_nova,0.997085,1,2000.000000,1,COMPLETED_SUCCESSFULLY,637.102703,139.600010,776.702713,636.105618,775.705628,5.556630,27,-1.000000,""
109,w0,python3action_pyaes_4000,0.000000,1,-1.000000,1,COMPLETED_SUCCESSFULLY,776.702728,0.000010,776.702738,776.702728,776.702738,77670273.800201,27,-1.000000,""
python3action_facedetection_job24_20,w0,python3action_facedetection_reduced_1.83,0.997085,1,2000.000000,1,COMPLETED_SUCCESSFULLY,776.702758,0.000000,776.702758,775.705673,775.705673,174953314297833.031250,27,-1.000000,""
112_updated,w0,python3action_pyaes_4000_nova,0.997085,1,2000.000000,1,COMPLETED_SUCCESSFULLY,641.302828,139.600010,780.902838,640.305743,779.905753,5.586717,28,-1.000000,""
112,w0,python3action_pyaes_4000,0.000000,1,-1.000000,1,COMPLETED_SUCCESSFULLY,780.902853,0.000010,780.902863,780.902853,780.902863,78090286.300201,28,-1.000000,""
python3action_facedetection_job31_21,w0,python3action_facedetection_reduced_1.83,0.997085,1,2000.000000,1,COMPLETED_SUCCESSFULLY,780.902883,0.000000,780.902883,779.905798,779.905798,175900614046676.625000,28,-1.000000,""
136_updated,w0,python3action_pyaes_4000_nova,0.997085,1,2000.000000,1,COMPLETED_SUCCESSFULLY,641.302888,139.600010,780.902898,640.305803,779.905813,5.586717,29,-1.000000,""
136,w0,python3action_pyaes_4000,0.000000,1,-1.000000,1,COMPLETED_SUCCESSFULLY,780.902928,0.000010,780.902938,780.902928,780.902938,78090293.800402,29,-1.000000,""
python3action_facedetection_job52_22,w0,python3action_facedetection_reduced_1.83,0.997085,1,2000.000000,1,COMPLETED_SUCCESSFULLY,780.902958,0.000000,780.902958,779.905873,779.905873,175900630962693.031250,29,-1.000000,""
152_updated,w0,python3action_chameleon_3000_troll,0.997085,1,2000.000000,1,COMPLETED_SUCCESSFULLY,692.733285,94.000000,786.733285,691.736200,785.736200,8.358896,20,-1.000000,""
152,w0,python3action_chameleon_3000,0.000000,1,-1.000000,1,COMPLETED_SUCCESSFULLY,786.733300,0.000010,786.733310,786.733300,786.733310,78673331.012594,20,-1.000000,""
158_updated,w0,python3action_pyaes_4000_nova,0.997085,1,2000.000000,1,COMPLETED_SUCCESSFULLY,675.902388,139.600010,815.502398,674.905303,814.505313,5.834565,2,-1.000000,""
158,w0,python3action_pyaes_4000,0.000000,1,-1.000000,1,COMPLETED_SUCCESSFULLY,815.502413,0.000010,815.502423,815.502413,815.502423,81550242.300201,2,-1.000000,""
python3action_facedetection_job54_1,w0,python3action_facedetection_reduced_1.83,0.997085,1,2000.000000,1,COMPLETED_SUCCESSFULLY,815.502443,0.000000,815.502443,814.505358,814.505358,183704228105329.625000,2,-1.000000,""
161_updated,w0,python3action_pyaes_4000_nova,0.997085,1,2000.000000,1,COMPLETED_SUCCESSFULLY,675.902463,139.600010,815.502473,674.905378,814.505388,5.834565,3,-1.000000,""
161,w0,python3action_pyaes_4000,0.000000,1,-1.000000,1,COMPLETED_SUCCESSFULLY,815.502503,0.000010,815.502513,815.502503,815.502513,81550251.300201,3,-1.000000,""
python3action_facedetection_job55_2,w0,python3action_facedetection_reduced_1.83,0.997085,1,2000.000000,1,COMPLETED_SUCCESSFULLY,815.502533,0.000000,815.502533,814.505448,814.505448,183704248404005.843750,3,-1.000000,""
177_updated,w0,python3action_pyaes_4000_nova,0.997085,1,2000.000000,1,COMPLETED_SUCCESSFULLY,675.902553,139.600010,815.502563,674.905468,814.505478,5.834566,4,-1.000000,""
177,w0,python3action_pyaes_4000,0.000000,1,-1.000000,1,COMPLETED_SUCCESSFULLY,815.502593,0.000010,815.502603,815.502593,815.502603,81550260.300201,4,-1.000000,""
182_updated,w0,python3action_pyaes_4000_nova,0.997085,1,2000.000000,1,COMPLETED_SUCCESSFULLY,675.902613,139.600010,815.502623,674.905528,814.505538,5.834566,5,-1.000000,""
python3action_facedetection_job82_3,w0,python3action_facedetection_reduced_1.83,0.997085,1,2000.000000,1,COMPLETED_SUCCESSFULLY,815.502623,0.000000,815.502623,814.505538,814.505538,183704268651026.656250,4,-1.000000,""
182,w0,python3action_pyaes_4000,0.000000,1,-1.000000,1,COMPLETED_SUCCESSFULLY,815.502653,0.000010,815.502663,815.502653,815.502663,81550266.300201,5,-1.000000,""
python3action_facedetection_job90_4,w0,python3action_facedetection_reduced_1.83,0.997085,1,2000.000000,1,COMPLETED_SUCCESSFULLY,815.502698,0.000000,815.502698,814.505613,814.505613,183704285618698.468750,5,-1.000000,""
195_updated,w0,python3action_pyaes_4000_nova,0.997085,1,2000.000000,1,COMPLETED_SUCCESSFULLY,699.702628,139.600010,839.302638,698.705543,838.305553,6.005054,6,-1.000000,""
195,w0,python3action_pyaes_4000,0.000000,1,-1.000000,1,COMPLETED_SUCCESSFULLY,839.302653,0.000010,839.302663,839.302653,839.302663,83930266.300201,6,-1.000000,""
python3action_facedetection_job163_5,w0,python3action_facedetection_reduced_1.83,0.997085,1,2000.000000,1,COMPLETED_SUCCESSFULLY,839.302683,0.000000,839.302683,838.305598,838.305598,189072154387146.968750,6,-1.000000,""
196_updated,w0,python3action_pyaes_4000_nova,0.997085,1,2000.000000,1,COMPLETED_SUCCESSFULLY,707.502594,139.600010,847.102604,706.505509,846.105519,6.060927,7,-1.000000,""
196,w0,python3action_pyaes_4000,0.000000,1,-1.000000,1,COMPLETED_SUCCESSFULLY,847.102619,0.000010,847.102629,847.102619,847.102629,84710262.900201,7,-1.000000,""
python3action_facedetection_job166_6,w0,python3action_facedetection_reduced_1.83,0.997085,1,2000.000000,1,COMPLETED_SUCCESSFULLY,847.102649,0.000000,847.102649,846.105564,846.105564,190831365323199.781250,7,-1.000000,""
100_updated,w0,python3action_videoprocessing_SampleVideo_50mb_taurus,0.997085,1,2000.000000,1,COMPLETED_SUCCESSFULLY,696.265385,154.250029,850.515414,695.268300,849.518329,5.507411,11,-1.000000,""
100,w0,python3action_videoprocessing_SampleVideo_50mb,0.000000,1,-1.000000,1,COMPLETED_SUCCESSFULLY,850.515429,0.000010,850.515439,850.515429,850.515439,85051543.900201,11,-1.000000,""
113_updated,w0,python3action_videoprocessing_SampleVideo_50mb_taurus,0.997085,1,2000.000000,1,COMPLETED_SUCCESSFULLY,696.265505,154.250029,850.515534,695.268420,849.518449,5.507412,13,-1.000000,""
113,w0,python3action_videoprocessing_SampleVideo_50mb,0.000000,1,-1.000000,1,COMPLETED_SUCCESSFULLY,850.515549,0.000010,850.515559,850.515549,850.515559,85051555.909196,13,-1.000000,""
117_updated,w0,python3action_videoprocessing_SampleVideo_50mb_taurus,0.997085,1,2000.000000,1,COMPLETED_SUCCESSFULLY,696.265595,154.250029,850.515624,695.268510,849.518539,5.507413,14,-1.000000,""
117,w0,python3action_videoprocessing_SampleVideo_50mb,0.000000,1,-1.000000,1,COMPLETED_SUCCESSFULLY,850.515639,0.000010,850.515649,850.515639,850.515649,85051564.910401,14,-1.000000,""
118_updated,w0,python3action_videoprocessing_SampleVideo_50mb_taurus,0.997085,1,2000.000000,1,COMPLETED_SUCCESSFULLY,696.265670,154.250029,850.515699,695.268585,849.518614,5.507413,15,-1.000000,""
118,w0,python3action_videoprocessing_SampleVideo_50mb,0.000000,1,-1.000000,1,COMPLETED_SUCCESSFULLY,850.515714,0.000010,850.515724,850.515714,850.515724,85051572.411405,15,-1.000000,""
156_updated,w0,python3action_chameleon_3000_troll,0.997085,1,2000.000000,1,COMPLETED_SUCCESSFULLY,764.233280,94.000000,858.233280,763.236195,857.236195,9.119534,19,-1.000000,""
156,w0,python3action_chameleon_3000,0.000000,1,-1.000000,1,COMPLETED_SUCCESSFULLY,858.233295,0.000010,858.233305,858.233295,858.233305,85823330.512594,19,-1.000000,""
3_updated,w0,python3action_facedetection_SampleVideo_30mb_nova,0.997085,1,2000.000000,1,COMPLETED_SUCCESSFULLY,707.502699,160.399990,867.902689,706.505614,866.905604,5.404649,25,-1.000000,""
3,w0,python3action_facedetection_SampleVideo_30mb,0.000000,1,-1.000000,1,COMPLETED_SUCCESSFULLY,867.902704,0.000010,867.902714,867.902704,867.902714,86790271.424308,25,-1.000000,""
123_updated,w0,python3action_videoprocessing_SampleVideo_50mb_taurus,0.997085,1,2000.000000,1,COMPLETED_SUCCESSFULLY,715.915668,154.250029,870.165697,714.918583,869.168612,5.634804,16,-1.000000,""
123,w0,python3action_videoprocessing_SampleVideo_50mb,0.000000,1,-1.000000,1,COMPLETED_SUCCESSFULLY,870.165712,0.000010,870.165722,870.165712,870.165722,87016572.200201,16,-1.000000,""
172_updated,w0,python3action_linpack_6000_orion,0.997085,1,2000.000000,1,COMPLETED_SUCCESSFULLY,766.775918,106.000000,872.775918,765.778833,871.778833,8.224329,8,-1.000000,""
172,w0,python3action_linpack_6000,0.000000,1,-1.000000,1,COMPLETED_SUCCESSFULLY,872.775933,0.000010,872.775943,872.775933,872.775943,87277594.302811,8,-1.000000,""
183_updated,w0,python3action_linpack_6000_orion,0.997085,1,2000.000000,1,COMPLETED_SUCCESSFULLY,766.775978,106.000000,872.775978,765.778893,871.778893,8.224329,9,-1.000000,""
183,w0,python3action_linpack_6000,0.000000,1,-1.000000,1,COMPLETED_SUCCESSFULLY,872.775993,0.000010,872.776003,872.775993,872.776003,87277600.303614,9,-1.000000,""
176_updated,w0,python3action_chameleon_3000_troll,0.997085,1,2000.000000,1,COMPLETED_SUCCESSFULLY,786.733330,94.000000,880.733330,785.736245,879.736245,9.358896,20,-1.000000,""
176,w0,python3action_chameleon_3000,0.000000,1,-1.000000,1,COMPLETED_SUCCESSFULLY,880.733345,0.000010,880.733355,880.733345,880.733355,88073335.513197,20,-1.000000,""
128_updated,w0,python3action_videoprocessing_SampleVideo_50mb_taurus,0.997085,1,2000.000000,1,COMPLETED_SUCCESSFULLY,748.515369,154.250029,902.765398,747.518284,901.768313,5.846147,10,-1.000000,""
128,w0,python3action_videoprocessing_SampleVideo_50mb,0.000000,1,-1.000000,1,COMPLETED_SUCCESSFULLY,902.765413,0.000010,902.765423,902.765413,902.765423,90276542.300201,10,-1.000000,""
21_updated,w0,python3action_facedetection_SampleVideo_30mb_nova,0.997085,1,2000.000000,1,COMPLETED_SUCCESSFULLY,749.502713,160.399990,909.902703,748.505628,908.905618,5.666494,26,-1.000000,""
21,w0,python3action_facedetection_SampleVideo_30mb,0.000000,1,-1.000000,1,COMPLETED_SUCCESSFULLY,909.902718,0.000010,909.902728,909.902718,909.902728,90990272.824308,26,-1.000000,""
24_updated,w0,python3action_facedetection_SampleVideo_30mb_nova,0.997085,1,2000.000000,1,COMPLETED_SUCCESSFULLY,776.702788,160.399990,937.102778,775.705703,936.105693,5.836071,27,-1.000000,""
24,w0,python3action_facedetection_SampleVideo_30mb,0.000000,1,-1.000000,1,COMPLETED_SUCCESSFULLY,937.102793,0.000010,937.102803,937.102793,937.102803,93710280.324308,27,-1.000000,""
31_updated,w0,python3action_facedetection_SampleVideo_30mb_nova,0.997085,1,2000.000000,1,COMPLETED_SUCCESSFULLY,780.902913,160.399990,941.302903,779.905828,940.305818,5.862256,28,-1.000000,""
31,w0,python3action_facedetection_SampleVideo_30mb,0.000000,1,-1.000000,1,COMPLETED_SUCCESSFULLY,941.302918,0.000010,941.302928,941.302918,941.302928,94130292.823505,28,-1.000000,""
52_updated,w0,python3action_facedetection_SampleVideo_30mb_nova,0.997085,1,2000.000000,1,COMPLETED_SUCCESSFULLY,780.902988,160.399990,941.302978,779.905903,940.305893,5.862257,29,-1.000000,""
52,w0,python3action_facedetection_SampleVideo_30mb,0.000000,1,-1.000000,1,COMPLETED_SUCCESSFULLY,941.302993,0.000010,941.303003,941.302993,941.303003,94130300.324509,29,-1.000000,""
192_updated,w0,python3action_chameleon_3000_troll,0.997085,1,2000.000000,1,COMPLETED_SUCCESSFULLY,858.233325,94.000000,952.233325,857.236240,951.236240,10.119534,19,-1.000000,""
192,w0,python3action_chameleon_3000,0.000000,1,-1.000000,1,COMPLETED_SUCCESSFULLY,952.233340,0.000010,952.233350,952.233340,952.233350,95223335.013197,19,-1.000000,""
54_updated,w0,python3action_facedetection_SampleVideo_30mb_nova,0.997085,1,2000.000000,1,COMPLETED_SUCCESSFULLY,815.502473,160.399990,975.902463,814.505388,974.905378,6.077964,2,-1.000000,""
54,w0,python3action_facedetection_SampleVideo_30mb,0.000000,1,-1.000000,1,COMPLETED_SUCCESSFULLY,975.902478,0.000010,975.902488,975.902478,975.902488,97590248.801004,2,-1.000000,""
55_updated,w0,python3action_facedetection_SampleVideo_30mb_nova,0.997085,1,2000.000000,1,COMPLETED_SUCCESSFULLY,815.502563,160.399990,975.902553,814.505478,974.905468,6.077965,3,-1.000000,""
55,w0,python3action_facedetection_SampleVideo_30mb,0.000000,1,-1.000000,1,COMPLETED_SUCCESSFULLY,975.902568,0.000010,975.902578,975.902568,975.902578,97590257.801004,3,-1.000000,""
82_updated,w0,python3action_facedetection_SampleVideo_30mb_nova,0.997085,1,2000.000000,1,COMPLETED_SUCCESSFULLY,815.502668,160.399990,975.902658,814.505583,974.905573,6.077965,4,-1.000000,""
82,w0,python3action_facedetection_SampleVideo_30mb,0.000000,1,-1.000000,1,COMPLETED_SUCCESSFULLY,975.902673,0.000010,975.902683,975.902673,975.902683,97590268.323706,4,-1.000000,""
90_updated,w0,python3action_facedetection_SampleVideo_30mb_nova,0.997085,1,2000.000000,1,COMPLETED_SUCCESSFULLY,815.502728,160.399990,975.902718,814.505643,974.905633,6.077966,5,-1.000000,""
90,w0,python3action_facedetection_SampleVideo_30mb,0.000000,1,-1.000000,1,COMPLETED_SUCCESSFULLY,975.902733,0.000010,975.902743,975.902733,975.902743,97590274.324509,5,-1.000000,""
191_updated,w0,python3action_linpack_6000_orion,0.997085,1,2000.000000,1,COMPLETED_SUCCESSFULLY,872.775963,106.000000,978.775963,871.778878,977.778878,9.224329,8,-1.000000,""
191,w0,python3action_linpack_6000,0.000000,1,-1.000000,1,COMPLETED_SUCCESSFULLY,978.775978,0.000010,978.775988,978.775978,978.775988,97877598.803414,8,-1.000000,""
193_updated,w0,python3action_linpack_6000_orion,0.997085,1,2000.000000,1,COMPLETED_SUCCESSFULLY,872.776023,106.000000,978.776023,871.778938,977.778938,9.224330,9,-1.000000,""
193,w0,python3action_linpack_6000,0.000000,1,-1.000000,1,COMPLETED_SUCCESSFULLY,978.776038,0.000010,978.776048,978.776038,978.776048,97877604.804217,9,-1.000000,""
163_updated,w0,python3action_facedetection_SampleVideo_30mb_nova,0.997085,1,2000.000000,1,COMPLETED_SUCCESSFULLY,839.302713,160.399990,999.702703,838.305628,998.705618,6.226345,6,-1.000000,""
163,w0,python3action_facedetection_SampleVideo_30mb,0.000000,1,-1.000000,1,COMPLETED_SUCCESSFULLY,999.702718,0.000010,999.702728,999.702718,999.702728,99970272.824308,6,-1.000000,""
165_updated,w0,python3action_videoprocessing_SampleVideo_50mb_taurus,0.997085,1,2000.000000,1,COMPLETED_SUCCESSFULLY,850.515459,154.250029,1004.765488,849.518374,1003.768403,6.507411,11,-1.000000,""
165,w0,python3action_videoprocessing_SampleVideo_50mb,0.000000,1,-1.000000,1,COMPLETED_SUCCESSFULLY,1004.765503,0.000010,1004.765513,1004.765503,1004.765513,100476551.300201,11,-1.000000,""
171_updated,w0,python3action_videoprocessing_SampleVideo_50mb_taurus,0.997085,1,2000.000000,1,COMPLETED_SUCCESSFULLY,850.515579,154.250029,1004.765608,849.518494,1003.768523,6.507412,13,-1.000000,""
171,w0,python3action_videoprocessing_SampleVideo_50mb,0.000000,1,-1.000000,1,COMPLETED_SUCCESSFULLY,1004.765623,0.000010,1004.765633,1004.765623,1004.765633,100476563.300201,13,-1.000000,""
180_updated,w0,python3action_videoprocessing_SampleVideo_50mb_taurus,0.997085,1,2000.000000,1,COMPLETED_SUCCESSFULLY,850.515669,154.250029,1004.765698,849.518584,1003.768613,6.507413,14,-1.000000,""
180,w0,python3action_videoprocessing_SampleVideo_50mb,0.000000,1,-1.000000,1,COMPLETED_SUCCESSFULLY,1004.765713,0.000010,1004.765723,1004.765713,1004.765723,100476572.300201,14,-1.000000,""
188_updated,w0,python3action_videoprocessing_SampleVideo_50mb_taurus,0.997085,1,2000.000000,1,COMPLETED_SUCCESSFULLY,850.515744,154.250029,1004.765773,849.518659,1003.768688,6.507413,15,-1.000000,""
188,w0,python3action_videoprocessing_SampleVideo_50mb,0.000000,1,-1.000000,1,COMPLETED_SUCCESSFULLY,1004.765788,0.000010,1004.765798,1004.765788,1004.765798,100476579.800201,15,-1.000000,""
166_updated,w0,python3action_facedetection_SampleVideo_30mb_nova,0.997085,1,2000.000000,1,COMPLETED_SUCCESSFULLY,847.102679,160.399990,1007.502669,846.105594,1006.505584,6.274973,7,-1.000000,""
166,w0,python3action_facedetection_SampleVideo_30mb,0.000000,1,-1.000000,1,COMPLETED_SUCCESSFULLY,1007.502684,0.000010,1007.502694,1007.502684,1007.502694,100750269.424308,7,-1.000000,""
181_updated,w0,python3action_facedetection_SampleVideo_30mb_nova,0.997085,1,2000.000000,1,COMPLETED_SUCCESSFULLY,867.902734,160.399990,1028.302724,866.905649,1027.305639,6.404649,25,-1.000000,""
181,w0,python3action_facedetection_SampleVideo_30mb,0.000000,1,-1.000000,1,COMPLETED_SUCCESSFULLY,1028.302739,0.000010,1028.302749,1028.302739,1028.302749,102830274.948014,25,-1.000000,""
197_updated,w0,python3action_linpack_6000_orion,0.997085,1,2000.000000,1,COMPLETED_SUCCESSFULLY,978.776008,106.000000,1084.776008,977.778923,1083.778923,10.224329,8,-1.000000,""
197,w0,python3action_linpack_6000,0.000000,1,-1.000000,1,COMPLETED_SUCCESSFULLY,1084.776023,0.000010,1084.776033,1084.776023,1084.776033,108477603.304016,8,-1.000000,""
