job_id,workload_name,profile,submission_time,requested_number_of_resources,requested_time,success,final_state,starting_time,execution_time,finish_time,waiting_time,turnaround_time,stretch,allocated_resources,consumed_energy,metadata
python3action_pyaes_job20_3,w0,python3action_pyaes,0.997085,1,2000.000000,1,COMPLETED_SUCCESSFULLY,1.002145,0.867914,1.870059,0.005060,0.872974,1.005830,4,-1.000000,""
python3action_chameleon_job34_4,w0,python3action_chameleon,0.997085,1,2000.000000,1,COMPLETED_SUCCESSFULLY,1.002160,0.892694,1.894854,0.005075,0.897769,1.005685,5,-1.000000,""
python3action_floatoperation_job3_5,w0,python3action_floatoperation,0.997085,1,2000.000000,1,COMPLETED_SUCCESSFULLY,1.002175,2.439945,3.442120,0.005090,2.445035,1.002086,6,-1.000000,""
python3action_floatoperation_job15_6,w0,python3action_floatoperation,0.997085,1,2000.000000,1,COMPLETED_SUCCESSFULLY,1.002190,2.439945,3.442135,0.005105,2.445050,1.002092,7,-1.000000,""
python3action_floatoperation_job17_7,w0,python3action_floatoperation,0.997085,1,2000.000000,1,COMPLETED_SUCCESSFULLY,1.002205,2.439945,3.442150,0.005120,2.445065,1.002098,8,-1.000000,""
python3action_floatoperation_job24_8,w0,python3action_floatoperation,0.997085,1,2000.000000,1,COMPLETED_SUCCESSFULLY,1.002220,2.439945,3.442165,0.005135,2.445080,1.002105,9,-1.000000,""
python3action_floatoperation_job25_9,w0,python3action_floatoperation,0.997085,1,2000.000000,1,COMPLETED_SUCCESSFULLY,1.002235,2.439945,3.442180,0.005150,2.445095,1.002111,10,-1.000000,""
python3action_modeltraining_job11_0,w0,python3action_modeltraining,0.997085,1,2000.000000,1,COMPLETED_SUCCESSFULLY,1.002100,3.471546,4.473646,0.005015,3.476561,1.001445,0,-1.000000,""
python3action_modeltraining_job22_1,w0,python3action_modeltraining,0.997085,1,2000.000000,1,COMPLETED_SUCCESSFULLY,1.002115,3.471546,4.473661,0.005030,3.476576,1.001449,1,-1.000000,""
python3action_linpack_job8_10,w0,python3action_linpack,0.997085,1,2000.000000,1,COMPLETED_SUCCESSFULLY,1.002250,5.760927,6.763177,0.005165,5.766092,1.000897,11,-1.000000,""
11_updated,w0,python3action_modeltraining_reviews50mb_neowise,0.997085,1,2000.000000,1,COMPLETED_SUCCESSFULLY,4.473661,22.799998,27.273659,3.476576,26.276574,1.152481,0,-1.000000,""
11,w0,python3action_modeltraining_reviews50mb,0.000000,1,-1.000000,1,COMPLETED_SUCCESSFULLY,27.273674,0.000010,27.273684,27.273674,27.273684,2727368.400201,0,-1.000000,""
22_updated,w0,python3action_modeltraining_reviews50mb_neowise,0.997085,1,2000.000000,1,COMPLETED_SUCCESSFULLY,4.473691,22.799998,27.273689,3.476606,26.276604,1.152483,1,-1.000000,""
22,w0,python3action_modeltraining_reviews50mb,0.000000,1,-1.000000,1,COMPLETED_SUCCESSFULLY,27.273719,0.000010,27.273729,27.273719,27.273729,2727372.900402,1,-1.000000,""
28_updated,w0,python3action_modeltraining_reviews50mb_neowise,0.997085,1,2000.000000,1,COMPLETED_SUCCESSFULLY,27.273704,22.799998,50.073702,26.276619,49.076617,2.152483,0,-1.000000,""
28,w0,python3action_modeltraining_reviews50mb,0.000000,1,-1.000000,1,COMPLETED_SUCCESSFULLY,50.073717,0.000010,50.073727,50.073717,50.073727,5007372.700201,0,-1.000000,""
37_updated,w0,python3action_modeltraining_reviews50mb_neowise,0.997085,1,2000.000000,1,COMPLETED_SUCCESSFULLY,27.273749,22.799998,50.073747,26.276664,49.076662,2.152485,1,-1.000000,""
37,w0,python3action_modeltraining_reviews50mb,0.000000,1,-1.000000,1,COMPLETED_SUCCESSFULLY,50.073777,0.000010,50.073787,50.073777,50.073787,5007378.700201,1,-1.000000,""
20_updated,w0,python3action_pyaes_3000_troll,0.997085,1,2000.000000,1,COMPLETED_SUCCESSFULLY,1.870074,57.166677,59.036751,0.872989,58.039666,1.015271,4,-1.000000,""
20,w0,python3action_pyaes_3000,0.000000,1,-1.000000,1,COMPLETED_SUCCESSFULLY,59.036766,0.000010,59.036776,59.036766,59.036776,5903677.600201,4,-1.000000,""
3_updated,w0,python3action_floatoperation_100000000_nova,0.997085,1,2000.000000,1,COMPLETED_SUCCESSFULLY,3.442135,66.200020,69.642155,2.445050,68.645070,1.036934,6,-1.000000,""
3,w0,python3action_floatoperation_100000000,0.000000,1,-1.000000,1,COMPLETED_SUCCESSFULLY,69.642170,0.000010,69.642180,69.642170,69.642180,6964218.000201,6,-1.000000,""
15_updated,w0,python3action_floatoperation_100000000_nova,0.997085,1,2000.000000,1,COMPLETED_SUCCESSFULLY,3.442165,66.200020,69.642185,2.445080,68.645100,1.036935,7,-1.000000,""
17_updated,w0,python3action_floatoperation_100000000_nova,0.997085,1,2000.000000,1,COMPLETED_SUCCESSFULLY,3.442195,66.200020,69.642215,2.445110,68.645130,1.036935,8,-1.000000,""
15,w0,python3action_floatoperation_100000000,0.000000,1,-1.000000,1,COMPLETED_SUCCESSFULLY,69.642215,0.000010,69.642225,69.642215,69.642225,6964222.485583,7,-1.000000,""
24_updated,w0,python3action_floatoperation_100000000_nova,0.997085,1,2000.000000,1,COMPLETED_SUCCESSFULLY,3.442210,66.200020,69.642230,2.445125,68.645145,1.036935,9,-1.000000,""
17,w0,python3action_floatoperation_100000000,0.000000,1,-1.000000,1,COMPLETED_SUCCESSFULLY,69.642245,0.000010,69.642255,69.642245,69.642255,6964225.500201,8,-1.000000,""
25_updated,w0,python3action_floatoperation_100000000_nova,0.997085,1,2000.000000,1,COMPLETED_SUCCESSFULLY,3.442240,66.200020,69.642260,2.445155,68.645175,1.036936,10,-1.000000,""
24,w0,python3action_floatoperation_100000000,0.000000,1,-1.000000,1,COMPLETED_SUCCESSFULLY,69.642275,0.000010,69.642285,69.642275,69.642285,6964228.486386,9,-1.000000,""
25,w0,python3action_floatoperation_100000000,0.000000,1,-1.000000,1,COMPLETED_SUCCESSFULLY,69.642320,0.000010,69.642330,69.642320,69.642330,6964233.000402,10,-1.000000,""
40_updated,w0,python3action_modeltraining_reviews50mb_neowise,0.997085,1,2000.000000,1,COMPLETED_SUCCESSFULLY,50.073747,22.799998,72.873745,49.076662,71.876660,3.152485,0,-1.000000,""
40,w0,python3action_modeltraining_reviews50mb,0.000000,1,-1.000000,1,COMPLETED_SUCCESSFULLY,72.873760,0.000010,72.873770,72.873760,72.873770,7287377.000201,0,-1.000000,""
53_updated,w0,python3action_modeltraining_reviews50mb_neowise,0.997085,1,2000.000000,1,COMPLETED_SUCCESSFULLY,50.073807,22.799998,72.873805,49.076722,71.876720,3.152488,1,-1.000000,""
53,w0,python3action_modeltraining_reviews50mb,0.000000,1,-1.000000,1,COMPLETED_SUCCESSFULLY,72.873820,0.000010,72.873830,72.873820,72.873830,7287383.000201,1,-1.000000,""
python3action_image_processing_job42_2,w0,python3action_image_processing,0.997085,1,2000.000000,1,COMPLETED_SUCCESSFULLY,1.002130,72.012455,73.014585,0.005045,72.017500,1.000070,2,-1.000000,""
python3action_image_processing_job66_11,w0,python3action_image_processing,0.997085,1,2000.000000,1,COMPLETED_SUCCESSFULLY,1.002265,72.012455,73.014720,0.005180,72.017635,1.000072,12,-1.000000,""
python3action_image_processing_job80_12,w0,python3action_image_processing,0.997085,1,2000.000000,1,COMPLETED_SUCCESSFULLY,1.002280,72.012455,73.014735,0.005195,72.017650,1.000072,13,-1.000000,""
34_updated,w0,python3action_chameleon_3000_yeti,0.997085,1,2000.000000,1,COMPLETED_SUCCESSFULLY,1.894869,93.000000,94.894869,0.897784,93.897784,1.009654,5,-1.000000,""
34,w0,python3action_chameleon_3000,0.000000,1,-1.000000,1,COMPLETED_SUCCESSFULLY,94.894884,0.000010,94.894894,94.894884,94.894894,9489489.449765,5,-1.000000,""
60_updated,w0,python3action_modeltraining_reviews50mb_neowise,0.997085,1,2000.000000,1,COMPLETED_SUCCESSFULLY,72.873790,22.799998,95.673788,71.876705,94.676703,4.152487,0,-1.000000,""
60,w0,python3action_modeltraining_reviews50mb,0.000000,1,-1.000000,1,COMPLETED_SUCCESSFULLY,95.673803,0.000010,95.673813,95.673803,95.673813,9567381.300201,0,-1.000000,""
82_updated,w0,python3action_modeltraining_reviews50mb_neowise,0.997085,1,2000.000000,1,COMPLETED_SUCCESSFULLY,72.873850,22.799998,95.673848,71.876765,94.676763,4.152490,1,-1.000000,""
82,w0,python3action_modeltraining_reviews50mb,0.000000,1,-1.000000,1,COMPLETED_SUCCESSFULLY,95.673863,0.000010,95.673873,95.673863,95.673873,9567387.300201,1,-1.000000,""
42_updated,w0,python3action_imageprocessing_SampleImage_40mb_taurus,0.997085,1,2000.000000,1,COMPLETED_SUCCESSFULLY,73.014600,32.600046,105.614646,72.017515,104.617561,3.209123,2,-1.000000,""
42,w0,python3action_imageprocessing_SampleImage_40mb,0.000000,1,-1.000000,1,COMPLETED_SUCCESSFULLY,105.614661,0.000010,105.614671,105.614661,105.614671,10561467.145163,2,-1.000000,""
66_updated,w0,python3action_imageprocessing_SampleImage_40mb_taurus,0.997085,1,2000.000000,1,COMPLETED_SUCCESSFULLY,73.014735,32.600046,105.614781,72.017650,104.617696,3.209127,12,-1.000000,""
66,w0,python3action_imageprocessing_SampleImage_40mb,0.000000,1,-1.000000,1,COMPLETED_SUCCESSFULLY,105.614796,0.000010,105.614806,105.614796,105.614806,10561480.646970,12,-1.000000,""
80_updated,w0,python3action_imageprocessing_SampleImage_40mb_taurus,0.997085,1,2000.000000,1,COMPLETED_SUCCESSFULLY,73.014765,32.600046,105.614811,72.017680,104.617726,3.209128,13,-1.000000,""
80,w0,python3action_imageprocessing_SampleImage_40mb,0.000000,1,-1.000000,1,COMPLETED_SUCCESSFULLY,105.614841,0.000010,105.614851,105.614841,105.614851,10561485.147572,13,-1.000000,""
8_updated,w0,python3action_linpack_6000_orion,0.997085,1,2000.000000,1,COMPLETED_SUCCESSFULLY,6.763192,106.000000,112.763192,5.766107,111.766107,1.054397,11,-1.000000,""
8,w0,python3action_linpack_6000,0.000000,1,-1.000000,1,COMPLETED_SUCCESSFULLY,112.763207,0.000010,112.763217,112.763207,112.763217,11276321.725480,11,-1.000000,""
27_updated,w0,python3action_pyaes_3000_troll,0.997085,1,2000.000000,1,COMPLETED_SUCCESSFULLY,59.036796,57.166677,116.203473,58.039711,115.206388,2.015272,4,-1.000000,""
27,w0,python3action_pyaes_3000,0.000000,1,-1.000000,1,COMPLETED_SUCCESSFULLY,116.203488,0.000010,116.203498,116.203488,116.203498,11620349.800201,4,-1.000000,""
83_updated,w0,python3action_modeltraining_reviews50mb_neowise,0.997085,1,2000.000000,1,COMPLETED_SUCCESSFULLY,95.673833,22.799998,118.473831,94.676748,117.476746,5.152489,0,-1.000000,""
83,w0,python3action_modeltraining_reviews50mb,0.000000,1,-1.000000,1,COMPLETED_SUCCESSFULLY,118.473846,0.000010,118.473856,118.473846,118.473856,11847385.600201,0,-1.000000,""
93_updated,w0,python3action_modeltraining_reviews50mb_neowise,0.997085,1,2000.000000,1,COMPLETED_SUCCESSFULLY,95.673893,22.799998,118.473891,94.676808,117.476806,5.152492,1,-1.000000,""
93,w0,python3action_modeltraining_reviews50mb,0.000000,1,-1.000000,1,COMPLETED_SUCCESSFULLY,118.473906,0.000010,118.473916,118.473906,118.473916,11847391.600201,1,-1.000000,""
55_updated,w0,python3action_floatoperation_100000000_nova,0.997085,1,2000.000000,1,COMPLETED_SUCCESSFULLY,69.642200,66.200020,135.842220,68.645115,134.845135,2.036935,6,-1.000000,""
55,w0,python3action_floatoperation_100000000,0.000000,1,-1.000000,1,COMPLETED_SUCCESSFULLY,135.842235,0.000010,135.842245,135.842235,135.842245,13584224.500201,6,-1.000000,""
57_updated,w0,python3action_floatoperation_100000000_nova,0.997085,1,2000.000000,1,COMPLETED_SUCCESSFULLY,69.642260,66.200020,135.842279,68.645175,134.845194,2.036936,7,-1.000000,""
57,w0,python3action_floatoperation_100000000,0.000000,1,-1.000000,1,COMPLETED_SUCCESSFULLY,135.842294,0.000010,135.842304,135.842294,135.842304,13584230.440379,7,-1.000000,""
61_updated,w0,python3action_floatoperation_100000000_nova,0.997085,1,2000.000000,1,COMPLETED_SUCCESSFULLY,69.642305,66.200020,135.842325,68.645220,134.845240,2.036937,8,-1.000000,""
61,w0,python3action_floatoperation_100000000,0.000000,1,-1.000000,1,COMPLETED_SUCCESSFULLY,135.842354,0.000010,135.842364,135.842354,135.842364,13584236.441183,8,-1.000000,""
71_updated,w0,python3action_floatoperation_100000000_nova,0.997085,1,2000.000000,1,COMPLETED_SUCCESSFULLY,69.642335,66.200020,135.842355,68.645250,134.845270,2.036937,9,-1.000000,""
95_updated,w0,python3action_floatoperation_100000000_nova,0.997085,1,2000.000000,1,COMPLETED_SUCCESSFULLY,69.642365,66.200020,135.842385,68.645280,134.845300,2.036937,10,-1.000000,""
71,w0,python3action_floatoperation_100000000,0.000000,1,-1.000000,1,COMPLETED_SUCCESSFULLY,135.842399,0.000010,135.842409,135.842399,135.842409,13584240.941785,9,-1.000000,""
95,w0,python3action_floatoperation_100000000,0.000000,1,-1.000000,1,COMPLETED_SUCCESSFULLY,135.842429,0.000010,135.842439,135.842429,135.842439,13584243.942187,10,-1.000000,""
89_updated,w0,python3action_imageprocessing_SampleImage_40mb_taurus,0.997085,1,2000.000000,1,COMPLETED_SUCCESSFULLY,105.614691,32.600046,138.214738,104.617606,137.217653,4.209124,2,-1.000000,""
89,w0,python3action_imageprocessing_SampleImage_40mb,0.000000,1,-1.000000,1,COMPLETED_SUCCESSFULLY,138.214753,0.000010,138.214763,138.214753,138.214763,13821476.300201,2,-1.000000,""
117_updated,w0,python3action_imageprocessing_SampleImage_40mb_taurus,0.997085,1,2000.000000,1,COMPLETED_SUCCESSFULLY,105.614826,32.600046,138.214873,104.617741,137.217788,4.209129,12,-1.000000,""
117,w0,python3action_imageprocessing_SampleImage_40mb,0.000000,1,-1.000000,1,COMPLETED_SUCCESSFULLY,138.214888,0.000010,138.214898,138.214888,138.214898,13821489.800201,12,-1.000000,""
150_updated,w0,python3action_imageprocessing_SampleImage_40mb_taurus,0.997085,1,2000.000000,1,COMPLETED_SUCCESSFULLY,105.614871,32.600046,138.214918,104.617786,137.217833,4.209130,13,-1.000000,""
150,w0,python3action_imageprocessing_SampleImage_40mb,0.000000,1,-1.000000,1,COMPLETED_SUCCESSFULLY,138.214948,0.000010,138.214958,138.214948,138.214958,13821495.800201,13,-1.000000,""
108_updated,w0,python3action_modeltraining_reviews50mb_neowise,0.997085,1,2000.000000,1,COMPLETED_SUCCESSFULLY,118.473876,22.799998,141.273874,117.476791,140.276789,6.152491,0,-1.000000,""
108,w0,python3action_modeltraining_reviews50mb,0.000000,1,-1.000000,1,COMPLETED_SUCCESSFULLY,141.273889,0.000010,141.273899,141.273889,141.273899,14127389.900201,0,-1.000000,""
110_updated,w0,python3action_modeltraining_reviews50mb_neowise,0.997085,1,2000.000000,1,COMPLETED_SUCCESSFULLY,118.473936,22.799998,141.273934,117.476851,140.276849,6.152494,1,-1.000000,""
110,w0,python3action_modeltraining_reviews50mb,0.000000,1,-1.000000,1,COMPLETED_SUCCESSFULLY,141.273949,0.000010,141.273959,141.273949,141.273959,14127395.900201,1,-1.000000,""
113_updated,w0,python3action_modeltraining_reviews50mb_neowise,0.997085,1,2000.000000,1,COMPLETED_SUCCESSFULLY,141.273919,22.799998,164.073917,140.276834,163.076832,7.152493,0,-1.000000,""
113,w0,python3action_modeltraining_reviews50mb,0.000000,1,-1.000000,1,COMPLETED_SUCCESSFULLY,164.073932,0.000010,164.073942,164.073932,164.073942,16407394.200201,0,-1.000000,""
141_updated,w0,python3action_modeltraining_reviews50mb_neowise,0.997085,1,2000.000000,1,COMPLETED_SUCCESSFULLY,141.273979,22.799998,164.073977,140.276894,163.076892,7.152496,1,-1.000000,""
141,w0,python3action_modeltraining_reviews50mb,0.000000,1,-1.000000,1,COMPLETED_SUCCESSFULLY,164.073992,0.000010,164.074002,164.073992,164.074002,16407400.200201,1,-1.000000,""
168_updated,w0,python3action_imageprocessing_SampleImage_40mb_taurus,0.997085,1,2000.000000,1,COMPLETED_SUCCESSFULLY,138.214783,32.600046,170.814829,137.217698,169.817744,5.209126,2,-1.000000,""
168,w0,python3action_imageprocessing_SampleImage_40mb,0.000000,1,-1.000000,1,COMPLETED_SUCCESSFULLY,170.814844,0.000010,170.814854,170.814844,170.814854,17081485.413881,2,-1.000000,""
172_updated,w0,python3action_imageprocessing_SampleImage_40mb_taurus,0.997085,1,2000.000000,1,COMPLETED_SUCCESSFULLY,138.214918,32.600046,170.814964,137.217833,169.817879,5.209130,12,-1.000000,""
172,w0,python3action_imageprocessing_SampleImage_40mb,0.000000,1,-1.000000,1,COMPLETED_SUCCESSFULLY,170.814979,0.000010,170.814989,170.814979,170.814989,17081498.900201,12,-1.000000,""
188_updated,w0,python3action_imageprocessing_SampleImage_40mb_taurus,0.997085,1,2000.000000,1,COMPLETED_SUCCESSFULLY,138.214978,32.600046,170.815024,137.217893,169.817939,5.209132,13,-1.000000,""
188,w0,python3action_imageprocessing_SampleImage_40mb,0.000000,1,-1.000000,1,COMPLETED_SUCCESSFULLY,170.815039,0.000010,170.815049,170.815039,170.815049,17081504.913881,13,-1.000000,""
32_updated,w0,python3action_pyaes_3000_troll,0.997085,1,2000.000000,1,COMPLETED_SUCCESSFULLY,116.203518,57.166677,173.370195,115.206433,172.373110,3.015273,4,-1.000000,""
32,w0,python3action_pyaes_3000,0.000000,1,-1.000000,1,COMPLETED_SUCCESSFULLY,173.370210,0.000010,173.370220,173.370210,173.370220,17337022.000201,4,-1.000000,""
python3action_linpack_job12_3,w0,python3action_linpack,0.997085,1,2000.000000,1,COMPLETED_SUCCESSFULLY,170.814874,5.760927,176.575801,169.817789,175.578716,30.477510,2,-1.000000,""
python3action_linpack_job35_12,w0,python3action_linpack,0.997085,1,2000.000000,1,COMPLETED_SUCCESSFULLY,170.815009,5.760927,176.575936,169.817924,175.578851,30.477533,12,-1.000000,""
python3action_linpack_job51_13,w0,python3action_linpack,0.997085,1,2000.000000,1,COMPLETED_SUCCESSFULLY,170.815069,5.760927,176.575996,169.817984,175.578911,30.477544,13,-1.000000,""
147_updated,w0,python3action_modeltraining_reviews50mb_neowise,0.997085,1,2000.000000,1,COMPLETED_SUCCESSFULLY,164.073962,22.799998,186.873960,163.076877,185.876875,8.152495,0,-1.000000,""
147,w0,python3action_modeltraining_reviews50mb,0.000000,1,-1.000000,1,COMPLETED_SUCCESSFULLY,186.873975,0.000010,186.873985,186.873975,186.873985,18687398.500201,0,-1.000000,""
154_updated,w0,python3action_modeltraining_reviews50mb_neowise,0.997085,1,2000.000000,1,COMPLETED_SUCCESSFULLY,164.074022,22.799998,186.874020,163.076937,185.876935,8.152498,1,-1.000000,""
154,w0,python3action_modeltraining_reviews50mb,0.000000,1,-1.000000,1,COMPLETED_SUCCESSFULLY,186.874035,0.000010,186.874045,186.874035,186.874045,18687404.500201,1,-1.000000,""
python3action_chameleon_job0_2,w0,python3action_chameleon,0.997085,1,2000.000000,1,COMPLETED_SUCCESSFULLY,186.874065,0.243006,187.117071,185.876980,186.119986,765.907013,1,-1.000000,""
72_updated,w0,python3action_chameleon_3000_yeti,0.997085,1,2000.000000,1,COMPLETED_SUCCESSFULLY,94.894915,93.000000,187.894915,93.897830,186.897830,2.009654,5,-1.000000,""
72,w0,python3action_chameleon_3000,0.000000,1,-1.000000,1,COMPLETED_SUCCESSFULLY,187.894930,0.000010,187.894940,187.894930,187.894940,18789494.000201,5,-1.000000,""
101_updated,w0,python3action_floatoperation_100000000_nova,0.997085,1,2000.000000,1,COMPLETED_SUCCESSFULLY,135.842265,66.200020,202.042285,134.845180,201.045200,3.036936,6,-1.000000,""
101,w0,python3action_floatoperation_100000000,0.000000,1,-1.000000,1,COMPLETED_SUCCESSFULLY,202.042300,0.000010,202.042310,202.042300,202.042310,20204231.000201,6,-1.000000,""
104_updated,w0,python3action_floatoperation_100000000_nova,0.997085,1,2000.000000,1,COMPLETED_SUCCESSFULLY,135.842324,66.200020,202.042344,134.845239,201.045259,3.036937,7,-1.000000,""
104,w0,python3action_floatoperation_100000000,0.000000,1,-1.000000,1,COMPLETED_SUCCESSFULLY,202.042359,0.000010,202.042369,202.042359,202.042369,20204236.900201,7,-1.000000,""
136_updated,w0,python3action_floatoperation_100000000_nova,0.997085,1,2000.000000,1,COMPLETED_SUCCESSFULLY,135.842384,66.200020,202.042404,134.845299,201.045319,3.036937,8,-1.000000,""
136,w0,python3action_floatoperation_100000000,0.000000,1,-1.000000,1,COMPLETED_SUCCESSFULLY,202.042419,0.000010,202.042429,202.042419,202.042429,20204242.900201,8,-1.000000,""
149_updated,w0,python3action_floatoperation_100000000_nova,0.997085,1,2000.000000,1,COMPLETED_SUCCESSFULLY,135.842444,66.200020,202.042464,134.845359,201.045379,3.036938,9,-1.000000,""
149,w0,python3action_floatoperation_100000000,0.000000,1,-1.000000,1,COMPLETED_SUCCESSFULLY,202.042479,0.000010,202.042489,202.042479,202.042489,20204248.900201,9,-1.000000,""
169_updated,w0,python3action_floatoperation_100000000_nova,0.997085,1,2000.000000,1,COMPLETED_SUCCESSFULLY,135.842474,66.200020,202.042494,134.845389,201.045409,3.036939,10,-1.000000,""
169,w0,python3action_floatoperation_100000000,0.000000,1,-1.000000,1,COMPLETED_SUCCESSFULLY,202.042524,0.000010,202.042534,202.042524,202.042534,20204253.400402,10,-1.000000,""
165_updated,w0,python3action_modeltraining_reviews50mb_neowise,0.997085,1,2000.000000,1,COMPLETED_SUCCESSFULLY,186.874005,22.799998,209.674003,185.876920,208.676918,9.152497,0,-1.000000,""
165,w0,python3action_modeltraining_reviews50mb,0.000000,1,-1.000000,1,COMPLETED_SUCCESSFULLY,209.674018,0.000010,209.674028,209.674018,209.674028,20967402.800201,0,-1.000000,""
python3action_chameleon_job1_1,w0,python3action_chameleon,0.997085,1,2000.000000,1,COMPLETED_SUCCESSFULLY,209.674048,0.243006,209.917054,208.676963,208.919969,859.731794,0,-1.000000,""
0_updated,w0,python3action_chameleon_2000_neowise,0.997085,1,2000.000000,1,COMPLETED_SUCCESSFULLY,187.117086,24.200002,211.317088,186.120001,210.320003,8.690908,1,-1.000000,""
0,w0,python3action_chameleon_2000,0.000000,1,-1.000000,1,COMPLETED_SUCCESSFULLY,211.317103,0.000010,211.317113,211.317103,211.317113,21131711.322787,1,-1.000000,""
12_updated,w0,python3action_linpack_5000_taurus,0.997085,1,2000.000000,1,COMPLETED_SUCCESSFULLY,176.575816,38.500058,215.075874,175.578731,214.078789,5.560480,2,-1.000000,""
12,w0,python3action_linpack_5000,0.000000,1,-1.000000,1,COMPLETED_SUCCESSFULLY,215.075889,0.000010,215.075899,215.075889,215.075899,21507589.903901,2,-1.000000,""
35_updated,w0,python3action_linpack_5000_taurus,0.997085,1,2000.000000,1,COMPLETED_SUCCESSFULLY,176.575951,38.500058,215.076009,175.578866,214.078924,5.560483,12,-1.000000,""
35,w0,python3action_linpack_5000,0.000000,1,-1.000000,1,COMPLETED_SUCCESSFULLY,215.076024,0.000010,215.076034,215.076024,215.076034,21507603.400201,12,-1.000000,""
51_updated,w0,python3action_linpack_5000_taurus,0.997085,1,2000.000000,1,COMPLETED_SUCCESSFULLY,176.576011,38.500058,215.076069,175.578926,214.078984,5.560485,13,-1.000000,""
51,w0,python3action_linpack_5000,0.000000,1,-1.000000,1,COMPLETED_SUCCESSFULLY,215.076084,0.000010,215.076094,215.076084,215.076094,21507609.403901,13,-1.000000,""
26_updated,w0,python3action_linpack_6000_orion,0.997085,1,2000.000000,1,COMPLETED_SUCCESSFULLY,112.763237,106.000000,218.763237,111.766152,217.766152,2.054398,11,-1.000000,""
26,w0,python3action_linpack_6000,0.000000,1,-1.000000,1,COMPLETED_SUCCESSFULLY,218.763252,0.000010,218.763262,218.763252,218.763262,21876326.226082,11,-1.000000,""
52_updated,w0,python3action_pyaes_3000_troll,0.997085,1,2000.000000,1,COMPLETED_SUCCESSFULLY,173.370240,57.166677,230.536917,172.373155,229.539832,4.015273,4,-1.000000,""
52,w0,python3action_pyaes_3000,0.000000,1,-1.000000,1,COMPLETED_SUCCESSFULLY,230.536932,0.000010,230.536942,230.536932,230.536942,23053694.200201,4,-1.000000,""
python3action_modeltraining_job45_6,w0,python3action_modeltraining,0.997085,1,2000.000000,1,COMPLETED_SUCCESSFULLY,202.042330,30.499683,232.542013,201.045245,231.544928,7.591716,6,-1.000000,""
python3action_modeltraining_job67_7,w0,python3action_modeltraining,0.997085,1,2000.000000,1,COMPLETED_SUCCESSFULLY,202.042389,30.499683,232.542072,201.045304,231.544987,7.591718,7,-1.000000,""
python3action_modeltraining_job107_8,w0,python3action_modeltraining,0.997085,1,2000.000000,1,COMPLETED_SUCCESSFULLY,202.042449,30.499683,232.542132,201.045364,231.545047,7.591720,8,-1.000000,""
python3action_modeltraining_job138_9,w0,python3action_modeltraining,0.997085,1,2000.000000,1,COMPLETED_SUCCESSFULLY,202.042509,30.499683,232.542192,201.045424,231.545107,7.591722,9,-1.000000,""
python3action_modeltraining_job194_10,w0,python3action_modeltraining,0.997085,1,2000.000000,1,COMPLETED_SUCCESSFULLY,202.042554,30.499683,232.542237,201.045469,231.545152,7.591723,10,-1.000000,""
1_updated,w0,python3action_chameleon_2000_neowise,0.997085,1,2000.000000,1,COMPLETED_SUCCESSFULLY,209.917069,24.200002,234.117071,208.919984,233.119986,9.633056,0,-1.000000,""
1,w0,python3action_chameleon_2000,0.000000,1,-1.000000,1,COMPLETED_SUCCESSFULLY,234.117086,0.000010,234.117096,234.117086,234.117096,23411709.622787,0,-1.000000,""
38_updated,w0,python3action_chameleon_2000_neowise,0.997085,1,2000.000000,1,COMPLETED_SUCCESSFULLY,211.317133,24.200002,235.517135,210.320048,234.520050,9.690910,1,-1.000000,""
38,w0,python3action_chameleon_2000,0.000000,1,-1.000000,1,COMPLETED_SUCCESSFULLY,235.517150,0.000010,235.517160,235.517150,235.517160,23551716.045775,1,-1.000000,""
63_updated,w0,python3action_linpack_5000_taurus,0.997085,1,2000.000000,1,COMPLETED_SUCCESSFULLY,215.075919,38.500058,253.575977,214.078834,252.578892,6.560481,2,-1.000000,""
63,w0,python3action_linpack_5000,0.000000,1,-1.000000,1,COMPLETED_SUCCESSFULLY,253.575992,0.000010,253.576002,253.575992,253.576002,25357600.200201,2,-1.000000,""
69_updated,w0,python3action_linpack_5000_taurus,0.997085,1,2000.000000,1,COMPLETED_SUCCESSFULLY,215.076054,38.500058,253.576112,214.078969,252.579027,6.560484,12,-1.000000,""
69,w0,python3action_linpack_5000,0.000000,1,-1.000000,1,COMPLETED_SUCCESSFULLY,253.576127,0.000010,253.576137,253.576127,253.576137,25357613.700201,12,-1.000000,""
112_updated,w0,python3action_linpack_5000_taurus,0.997085,1,2000.000000,1,COMPLETED_SUCCESSFULLY,215.076114,38.500058,253.576172,214.079029,252.579087,6.560486,13,-1.000000,""
112,w0,python3action_linpack_5000,0.000000,1,-1.000000,1,COMPLETED_SUCCESSFULLY,253.576187,0.000010,253.576197,253.576187,253.576197,25357619.700201,13,-1.000000,""
41_updated,w0,python3action_chameleon_2000_neowise,0.997085,1,2000.000000,1,COMPLETED_SUCCESSFULLY,234.117116,24.200002,258.317118,233.120031,257.320033,10.633058,0,-1.000000,""
41,w0,python3action_chameleon_2000,0.000000,1,-1.000000,1,COMPLETED_SUCCESSFULLY,258.317133,0.000010,258.317143,258.317133,258.317143,25831714.345775,0,-1.000000,""
44_updated,w0,python3action_chameleon_2000_neowise,0.997085,1,2000.000000,1,COMPLETED_SUCCESSFULLY,235.517180,24.200002,259.717183,234.520095,258.720098,10.690912,1,-1.000000,""
44,w0,python3action_chameleon_2000,0.000000,1,-1.000000,1,COMPLETED_SUCCESSFULLY,259.717198,0.000010,259.717208,259.717198,259.717208,25971720.800201,1,-1.000000,""
84_updated,w0,python3action_chameleon_3000_yeti,0.997085,1,2000.000000,1,COMPLETED_SUCCESSFULLY,187.894960,93.000000,280.894960,186.897875,279.897875,3.009655,5,-1.000000,""
84,w0,python3action_chameleon_3000,0.000000,1,-1.000000,1,COMPLETED_SUCCESSFULLY,280.894975,0.000010,280.894985,280.894975,280.894985,28089498.500803,5,-1.000000,""
64_updated,w0,python3action_chameleon_2000_neowise,0.997085,1,2000.000000,1,COMPLETED_SUCCESSFULLY,258.317163,24.200002,282.517166,257.320078,281.520081,11.633060,0,-1.000000,""
64,w0,python3action_chameleon_2000,0.000000,1,-1.000000,1,COMPLETED_SUCCESSFULLY,282.517181,0.000010,282.517191,282.517181,282.517191,28251719.100201,0,-1.000000,""
70_updated,w0,python3action_chameleon_2000_neowise,0.997085,1,2000.000000,1,COMPLETED_SUCCESSFULLY,259.717228,24.200002,283.917230,258.720143,282.920145,11.690914,1,-1.000000,""
70,w0,python3action_chameleon_2000,0.000000,1,-1.000000,1,COMPLETED_SUCCESSFULLY,283.917245,0.000010,283.917255,283.917245,283.917255,28391725.523189,1,-1.000000,""
91_updated,w0,python3action_pyaes_3000_troll,0.997085,1,2000.000000,1,COMPLETED_SUCCESSFULLY,230.536962,57.166677,287.703639,229.539877,286.706554,5.015274,4,-1.000000,""
91,w0,python3action_pyaes_3000,0.000000,1,-1.000000,1,COMPLETED_SUCCESSFULLY,287.703654,0.000010,287.703664,287.703654,287.703664,28770366.400201,4,-1.000000,""
122_updated,w0,python3action_linpack_5000_taurus,0.997085,1,2000.000000,1,COMPLETED_SUCCESSFULLY,253.576022,38.500058,292.076080,252.578937,291.078995,7.560482,2,-1.000000,""
122,w0,python3action_linpack_5000,0.000000,1,-1.000000,1,COMPLETED_SUCCESSFULLY,292.076095,0.000010,292.076105,292.076095,292.076105,29207610.500201,2,-1.000000,""
151_updated,w0,python3action_linpack_5000_taurus,0.997085,1,2000.000000,1,COMPLETED_SUCCESSFULLY,253.576157,38.500058,292.076215,252.579072,291.079130,7.560486,12,-1.000000,""
151,w0,python3action_linpack_5000,0.000000,1,-1.000000,1,COMPLETED_SUCCESSFULLY,292.076230,0.000010,292.076240,292.076230,292.076240,29207624.000201,12,-1.000000,""
python3action_facedetection_job2_12,w0,python3action_facedetection_reduced_0.91,0.997085,1,2000.000000,1,COMPLETED_SUCCESSFULLY,292.076260,0.000000,292.076260,291.079175,291.079175,2523764909001.049805,12,-1.000000,""
155_updated,w0,python3action_linpack_5000_taurus,0.997085,1,2000.000000,1,COMPLETED_SUCCESSFULLY,253.576217,38.500058,292.076275,252.579132,291.079190,7.560487,13,-1.000000,""
155,w0,python3action_linpack_5000,0.000000,1,-1.000000,1,COMPLETED_SUCCESSFULLY,292.076305,0.000010,292.076315,292.076305,292.076315,29207631.500402,13,-1.000000,""
python3action_facedetection_job6_13,w0,python3action_facedetection_reduced_0.91,0.997085,1,2000.000000,1,COMPLETED_SUCCESSFULLY,292.076335,0.000000,292.076335,291.079250,291.079250,2523765559296.407227,13,-1.000000,""
90_updated,w0,python3action_chameleon_2000_neowise,0.997085,1,2000.000000,1,COMPLETED_SUCCESSFULLY,282.517211,24.200002,306.717213,281.520126,305.720128,12.633062,0,-1.000000,""
90,w0,python3action_chameleon_2000,0.000000,1,-1.000000,1,COMPLETED_SUCCESSFULLY,306.717228,0.000010,306.717238,306.717228,306.717238,30671723.823189,0,-1.000000,""
98_updated,w0,python3action_chameleon_2000_neowise,0.997085,1,2000.000000,1,COMPLETED_SUCCESSFULLY,283.917275,24.200002,308.117277,282.920190,307.120192,12.690916,1,-1.000000,""
98,w0,python3action_chameleon_2000,0.000000,1,-1.000000,1,COMPLETED_SUCCESSFULLY,308.117292,0.000010,308.117302,308.117292,308.117302,30811730.246176,1,-1.000000,""
45_updated,w0,python3action_modeltraining_reviews100mb_nova,0.997085,1,2000.000000,1,COMPLETED_SUCCESSFULLY,232.542028,79.600010,312.142038,231.544943,311.144953,3.908856,6,-1.000000,""
45,w0,python3action_modeltraining_reviews100mb,0.000000,1,-1.000000,1,COMPLETED_SUCCESSFULLY,312.142053,0.000010,312.142063,312.142053,312.142063,31214206.300201,6,-1.000000,""
python3action_video_processing_job31_6,w0,python3action_video_processing_reduced_0.97,0.997085,1,2000.000000,1,COMPLETED_SUCCESSFULLY,312.142083,0.000000,312.142083,311.144998,311.144998,210527718911978.812500,6,-1.000000,""
67_updated,w0,python3action_modeltraining_reviews100mb_nova,0.997085,1,2000.000000,1,COMPLETED_SUCCESSFULLY,232.542087,79.600010,312.142097,231.545002,311.145012,3.908856,7,-1.000000,""
67,w0,python3action_modeltraining_reviews100mb,0.000000,1,-1.000000,1,COMPLETED_SUCCESSFULLY,312.142127,0.000010,312.142137,312.142127,312.142137,31214213.700402,7,-1.000000,""
107_updated,w0,python3action_modeltraining_reviews100mb_nova,0.997085,1,2000.000000,1,COMPLETED_SUCCESSFULLY,232.542147,79.600010,312.142157,231.545062,311.145072,3.908857,8,-1.000000,""
python3action_video_processing_job47_7,w0,python3action_video_processing_reduced_0.97,0.997085,1,2000.000000,1,COMPLETED_SUCCESSFULLY,312.142157,0.000000,312.142157,311.145072,311.145072,210527768824365.031250,7,-1.000000,""
107,w0,python3action_modeltraining_reviews100mb,0.000000,1,-1.000000,1,COMPLETED_SUCCESSFULLY,312.142187,0.000010,312.142197,312.142187,312.142197,31214219.700201,8,-1.000000,""
138_updated,w0,python3action_modeltraining_reviews100mb_nova,0.997085,1,2000.000000,1,COMPLETED_SUCCESSFULLY,232.542207,79.600010,312.142217,231.545122,311.145132,3.908858,9,-1.000000,""
python3action_video_processing_job56_8,w0,python3action_video_processing_reduced_0.97,0.997085,1,2000.000000,1,COMPLETED_SUCCESSFULLY,312.142232,0.000000,312.142232,311.145147,311.145147,210527819726019.906250,8,-1.000000,""
138,w0,python3action_modeltraining_reviews100mb,0.000000,1,-1.000000,1,COMPLETED_SUCCESSFULLY,312.142247,0.000010,312.142257,312.142247,312.142257,31214225.700402,9,-1.000000,""
194_updated,w0,python3action_modeltraining_reviews100mb_nova,0.997085,1,2000.000000,1,COMPLETED_SUCCESSFULLY,232.542252,79.600010,312.142262,231.545167,311.145177,3.908859,10,-1.000000,""
python3action_video_processing_job58_9,w0,python3action_video_processing_reduced_0.97,0.997085,1,2000.000000,1,COMPLETED_SUCCESSFULLY,312.142292,0.000000,312.142292,311.145207,311.145207,210527860324731.031250,9,-1.000000,""
194,w0,python3action_modeltraining_reviews100mb,0.000000,1,-1.000000,1,COMPLETED_SUCCESSFULLY,312.142307,0.000010,312.142317,312.142307,312.142317,31214231.700602,10,-1.000000,""
python3action_video_processing_job74_10,w0,python3action_video_processing_reduced_0.97,0.997085,1,2000.000000,1,COMPLETED_SUCCESSFULLY,312.142352,0.000000,312.142352,311.145267,311.145267,210527900927518.250000,10,-1.000000,""
29_updated,w0,python3action_linpack_6000_orion,0.997085,1,2000.000000,1,COMPLETED_SUCCESSFULLY,218.763282,106.000000,324.763282,217.766197,323.766197,3.054398,11,-1.000000,""
29,w0,python3action_linpack_6000,0.000000,1,-1.000000,1,COMPLETED_SUCCESSFULLY,324.763297,0.000010,324.763307,324.763297,324.763307,32476330.726685,11,-1.000000,""
163_updated,w0,python3action_linpack_5000_taurus,0.997085,1,2000.000000,1,COMPLETED_SUCCESSFULLY,292.076125,38.500058,330.576183,291.079040,329.579098,8.560483,2,-1.000000,""
163,w0,python3action_linpack_5000,0.000000,1,-1.000000,1,COMPLETED_SUCCESSFULLY,330.576198,0.000010,330.576208,330.576198,330.576208,33057620.800201,2,-1.000000,""
python3action_facedetection_job14_3,w0,python3action_facedetection_reduced_0.91,0.997085,1,2000.000000,1,COMPLETED_SUCCESSFULLY,330.576228,0.000000,330.576228,329.579143,329.579143,2857573977389.449707,2,-1.000000,""
132_updated,w0,python3action_chameleon_2000_neowise,0.997085,1,2000.000000,1,COMPLETED_SUCCESSFULLY,306.717258,24.200002,330.917260,305.720173,329.920175,13.633064,0,-1.000000,""
132,w0,python3action_chameleon_2000,0.000000,1,-1.000000,1,COMPLETED_SUCCESSFULLY,330.917275,0.000010,330.917285,330.917275,330.917285,33091728.546176,0,-1.000000,""
137_updated,w0,python3action_chameleon_2000_neowise,0.997085,1,2000.000000,1,COMPLETED_SUCCESSFULLY,308.117322,24.200002,332.317325,307.120237,331.320240,13.690918,1,-1.000000,""
137,w0,python3action_chameleon_2000,0.000000,1,-1.000000,1,COMPLETED_SUCCESSFULLY,332.317340,0.000010,332.317350,332.317340,332.317350,33231735.000201,1,-1.000000,""
105_updated,w0,python3action_pyaes_3000_troll,0.997085,1,2000.000000,1,COMPLETED_SUCCESSFULLY,287.703684,57.166677,344.870361,286.706599,343.873276,6.015275,4,-1.000000,""
105,w0,python3action_pyaes_3000,0.000000,1,-1.000000,1,COMPLETED_SUCCESSFULLY,344.870376,0.000010,344.870386,344.870376,344.870386,34487038.600201,4,-1.000000,""
139_updated,w0,python3action_chameleon_2000_neowise,0.997085,1,2000.000000,1,COMPLETED_SUCCESSFULLY,330.917305,24.200002,355.117308,329.920220,354.120223,14.633066,0,-1.000000,""
139,w0,python3action_chameleon_2000,0.000000,1,-1.000000,1,COMPLETED_SUCCESSFULLY,355.117323,0.000010,355.117333,355.117323,355.117333,35511733.300201,0,-1.000000,""
153_updated,w0,python3action_chameleon_2000_neowise,0.997085,1,2000.000000,1,COMPLETED_SUCCESSFULLY,332.317370,24.200002,356.517372,331.320285,355.520287,14.690920,1,-1.000000,""
153,w0,python3action_chameleon_2000,0.000000,1,-1.000000,1,COMPLETED_SUCCESSFULLY,356.517387,0.000010,356.517397,356.517387,356.517397,35651739.723189,1,-1.000000,""
85_updated,w0,python3action_chameleon_3000_yeti,0.997085,1,2000.000000,1,COMPLETED_SUCCESSFULLY,280.895005,93.000000,373.895005,279.897920,372.897920,4.009655,5,-1.000000,""
85,w0,python3action_chameleon_3000,0.000000,1,-1.000000,1,COMPLETED_SUCCESSFULLY,373.895020,0.000010,373.895030,373.895020,373.895030,37389503.001406,5,-1.000000,""
170_updated,w0,python3action_chameleon_2000_neowise,0.997085,1,2000.000000,1,COMPLETED_SUCCESSFULLY,355.117353,24.200002,379.317355,354.120268,378.320270,15.633068,0,-1.000000,""
170,w0,python3action_chameleon_2000,0.000000,1,-1.000000,1,COMPLETED_SUCCESSFULLY,379.317370,0.000010,379.317380,379.317370,379.317380,37931738.023189,0,-1.000000,""
173_updated,w0,python3action_chameleon_2000_neowise,0.997085,1,2000.000000,1,COMPLETED_SUCCESSFULLY,356.517417,24.200002,380.717419,355.520332,379.720334,15.690921,1,-1.000000,""
173,w0,python3action_chameleon_2000,0.000000,1,-1.000000,1,COMPLETED_SUCCESSFULLY,380.717434,0.000010,380.717444,380.717434,380.717444,38071744.446176,1,-1.000000,""
121_updated,w0,python3action_pyaes_3000_troll,0.997085,1,2000.000000,1,COMPLETED_SUCCESSFULLY,344.870406,57.166677,402.037083,343.873321,401.039998,7.015276,4,-1.000000,""
121,w0,python3action_pyaes_3000,0.000000,1,-1.000000,1,COMPLETED_SUCCESSFULLY,402.037098,0.000010,402.037108,402.037098,402.037108,40203710.800201,4,-1.000000,""
181_updated,w0,python3action_chameleon_2000_neowise,0.997085,1,2000.000000,1,COMPLETED_SUCCESSFULLY,379.317400,24.200002,403.517402,378.320315,402.520317,16.633069,0,-1.000000,""
181,w0,python3action_chameleon_2000,0.000000,1,-1.000000,1,COMPLETED_SUCCESSFULLY,403.517417,0.000010,403.517427,403.517417,403.517427,40351742.746176,0,-1.000000,""
182_updated,w0,python3action_chameleon_2000_neowise,0.997085,1,2000.000000,1,COMPLETED_SUCCESSFULLY,380.717464,24.200002,404.917467,379.720379,403.920382,16.690923,1,-1.000000,""
182,w0,python3action_chameleon_2000,0.000000,1,-1.000000,1,COMPLETED_SUCCESSFULLY,404.917482,0.000010,404.917492,404.917482,404.917492,40491749.200201,1,-1.000000,""
python3action_image_processing_job4_2,w0,python3action_image_processing_reduced_0.86,0.997085,1,2000.000000,1,COMPLETED_SUCCESSFULLY,404.917512,0.469128,405.386640,403.920427,404.389555,862.002946,1,-1.000000,""
31_updated,w0,python3action_videoprocessing_SampleVideo_30mb_nova,0.997085,1,2000.000000,1,COMPLETED_SUCCESSFULLY,312.142112,106.799980,418.942092,311.145027,417.945007,3.913343,6,-1.000000,""
31,w0,python3action_videoprocessing_SampleVideo_30mb,0.000000,1,-1.000000,1,COMPLETED_SUCCESSFULLY,418.942107,0.000010,418.942117,418.942107,418.942117,41894211.746609,6,-1.000000,""
47_updated,w0,python3action_videoprocessing_SampleVideo_30mb_nova,0.997085,1,2000.000000,1,COMPLETED_SUCCESSFULLY,312.142202,106.799980,418.942182,311.145117,417.945097,3.913344,7,-1.000000,""
47,w0,python3action_videoprocessing_SampleVideo_30mb,0.000000,1,-1.000000,1,COMPLETED_SUCCESSFULLY,418.942197,0.000010,418.942207,418.942197,418.942207,41894220.746810,7,-1.000000,""
56_updated,w0,python3action_videoprocessing_SampleVideo_30mb_nova,0.997085,1,2000.000000,1,COMPLETED_SUCCESSFULLY,312.142277,106.799980,418.942257,311.145192,417.945172,3.913345,8,-1.000000,""
56,w0,python3action_videoprocessing_SampleVideo_30mb,0.000000,1,-1.000000,1,COMPLETED_SUCCESSFULLY,418.942272,0.000010,418.942282,418.942272,418.942282,41894228.246609,8,-1.000000,""
58_updated,w0,python3action_videoprocessing_SampleVideo_30mb_nova,0.997085,1,2000.000000,1,COMPLETED_SUCCESSFULLY,312.142337,106.799980,418.942317,311.145252,417.945232,3.913346,9,-1.000000,""
58,w0,python3action_videoprocessing_SampleVideo_30mb,0.000000,1,-1.000000,1,COMPLETED_SUCCESSFULLY,418.942332,0.000010,418.942342,418.942332,418.942342,41894234.247412,9,-1.000000,""
74_updated,w0,python3action_videoprocessing_SampleVideo_30mb_nova,0.997085,1,2000.000000,1,COMPLETED_SUCCESSFULLY,312.142382,106.799980,418.942362,311.145297,417.945277,3.913346,10,-1.000000,""
74,w0,python3action_videoprocessing_SampleVideo_30mb,0.000000,1,-1.000000,1,COMPLETED_SUCCESSFULLY,418.942392,0.000010,418.942402,418.942392,418.942402,41894240.248216,10,-1.000000,""
2_updated,w0,python3action_facedetection_SampleVideo_50mb_taurus,0.997085,1,2000.000000,1,COMPLETED_SUCCESSFULLY,292.076290,134.600046,426.676336,291.079205,425.679251,3.162549,12,-1.000000,""
2,w0,python3action_facedetection_SampleVideo_50mb,0.000000,1,-1.000000,1,COMPLETED_SUCCESSFULLY,426.676351,0.000010,426.676361,426.676351,426.676361,42667636.113480,12,-1.000000,""
6_updated,w0,python3action_facedetection_SampleVideo_50mb_taurus,0.997085,1,2000.000000,1,COMPLETED_SUCCESSFULLY,292.076365,134.600046,426.676411,291.079280,425.679326,3.162550,13,-1.000000,""
6,w0,python3action_facedetection_SampleVideo_50mb,0.000000,1,-1.000000,1,COMPLETED_SUCCESSFULLY,426.676426,0.000010,426.676436,426.676426,426.676436,42667643.614484,13,-1.000000,""
184_updated,w0,python3action_chameleon_2000_neowise,0.997085,1,2000.000000,1,COMPLETED_SUCCESSFULLY,403.517447,24.200002,427.717450,402.520362,426.720365,17.633071,0,-1.000000,""
184,w0,python3action_chameleon_2000,0.000000,1,-1.000000,1,COMPLETED_SUCCESSFULLY,427.717465,0.000010,427.717475,427.717465,427.717475,42771747.500201,0,-1.000000,""
python3action_image_processing_job36_1,w0,python3action_image_processing_reduced_0.86,0.997085,1,2000.000000,1,COMPLETED_SUCCESSFULLY,427.717495,0.469128,428.186623,426.720410,427.189538,910.603737,0,-1.000000,""
50_updated,w0,python3action_linpack_6000_orion,0.997085,1,2000.000000,1,COMPLETED_SUCCESSFULLY,324.763327,106.000000,430.763327,323.766242,429.766242,4.054399,11,-1.000000,""
50,w0,python3action_linpack_6000,0.000000,1,-1.000000,1,COMPLETED_SUCCESSFULLY,430.763342,0.000010,430.763352,430.763342,430.763352,43076335.227287,11,-1.000000,""
4_updated,w0,python3action_imageprocessing_SampleImage_60mb_neowise,0.997085,1,2000.000000,1,COMPLETED_SUCCESSFULLY,405.386655,37.500000,442.886655,404.389570,441.889570,11.783722,1,-1.000000,""
4,w0,python3action_imageprocessing_SampleImage_60mb,0.000000,1,-1.000000,1,COMPLETED_SUCCESSFULLY,442.886670,0.000010,442.886680,442.886670,442.886680,44288668.000402,1,-1.000000,""
130_updated,w0,python3action_pyaes_3000_troll,0.997085,1,2000.000000,1,COMPLETED_SUCCESSFULLY,402.037128,57.166677,459.203805,401.040043,458.206720,8.015277,4,-1.000000,""
130,w0,python3action_pyaes_3000,0.000000,1,-1.000000,1,COMPLETED_SUCCESSFULLY,459.203820,0.000010,459.203830,459.203820,459.203830,45920383.000201,4,-1.000000,""
14_updated,w0,python3action_facedetection_SampleVideo_50mb_taurus,0.997085,1,2000.000000,1,COMPLETED_SUCCESSFULLY,330.576258,134.600046,465.176304,329.579173,464.179219,3.448581,2,-1.000000,""
14,w0,python3action_facedetection_SampleVideo_50mb,0.000000,1,-1.000000,1,COMPLETED_SUCCESSFULLY,465.176319,0.000010,465.176329,465.176319,465.176329,46517632.914283,2,-1.000000,""
36_updated,w0,python3action_imageprocessing_SampleImage_60mb_neowise,0.997085,1,2000.000000,1,COMPLETED_SUCCESSFULLY,428.186638,37.500000,465.686638,427.189553,464.689553,12.391721,0,-1.000000,""
36,w0,python3action_imageprocessing_SampleImage_60mb,0.000000,1,-1.000000,1,COMPLETED_SUCCESSFULLY,465.686653,0.000010,465.686663,465.686653,465.686663,46568666.300402,0,-1.000000,""
119_updated,w0,python3action_chameleon_3000_yeti,0.997085,1,2000.000000,1,COMPLETED_SUCCESSFULLY,373.895050,93.000000,466.895050,372.897965,465.897965,5.009656,5,-1.000000,""
119,w0,python3action_chameleon_3000,0.000000,1,-1.000000,1,COMPLETED_SUCCESSFULLY,466.895065,0.000010,466.895075,466.895065,466.895075,46689507.502009,5,-1.000000,""
49_updated,w0,python3action_imageprocessing_SampleImage_60mb_neowise,0.997085,1,2000.000000,1,COMPLETED_SUCCESSFULLY,442.886700,37.500000,480.386700,441.889615,479.389615,12.783723,1,-1.000000,""
49,w0,python3action_imageprocessing_SampleImage_60mb,0.000000,1,-1.000000,1,COMPLETED_SUCCESSFULLY,480.386715,0.000010,480.386725,480.386715,480.386725,48038672.501004,1,-1.000000,""
59_updated,w0,python3action_imageprocessing_SampleImage_60mb_neowise,0.997085,1,2000.000000,1,COMPLETED_SUCCESSFULLY,465.686683,37.500000,503.186683,464.689598,502.189598,13.391723,0,-1.000000,""
59,w0,python3action_imageprocessing_SampleImage_60mb,0.000000,1,-1.000000,1,COMPLETED_SUCCESSFULLY,503.186698,0.000010,503.186708,503.186698,503.186708,50318670.801004,0,-1.000000,""
152_updated,w0,python3action_pyaes_3000_troll,0.997085,1,2000.000000,1,COMPLETED_SUCCESSFULLY,459.203850,57.166677,516.370527,458.206765,515.373442,9.015277,4,-1.000000,""
152,w0,python3action_pyaes_3000,0.000000,1,-1.000000,1,COMPLETED_SUCCESSFULLY,516.370542,0.000010,516.370552,516.370542,516.370552,51637055.200201,4,-1.000000,""
65_updated,w0,python3action_imageprocessing_SampleImage_60mb_neowise,0.997085,1,2000.000000,1,COMPLETED_SUCCESSFULLY,480.386745,37.500000,517.886745,479.389660,516.889660,13.783724,1,-1.000000,""
65,w0,python3action_imageprocessing_SampleImage_60mb,0.000000,1,-1.000000,1,COMPLETED_SUCCESSFULLY,517.886760,0.000010,517.886770,517.886760,517.886770,51788677.001607,1,-1.000000,""
81_updated,w0,python3action_videoprocessing_SampleVideo_30mb_nova,0.997085,1,2000.000000,1,COMPLETED_SUCCESSFULLY,418.942137,106.799980,525.742118,417.945052,524.745033,4.913344,6,-1.000000,""
81,w0,python3action_videoprocessing_SampleVideo_30mb,0.000000,1,-1.000000,1,COMPLETED_SUCCESSFULLY,525.742133,0.000010,525.742143,525.742133,525.742143,52574214.300201,6,-1.000000,""
86_updated,w0,python3action_videoprocessing_SampleVideo_30mb_nova,0.997085,1,2000.000000,1,COMPLETED_SUCCESSFULLY,418.942227,106.799980,525.742208,417.945142,524.745123,4.913345,7,-1.000000,""
86,w0,python3action_videoprocessing_SampleVideo_30mb,0.000000,1,-1.000000,1,COMPLETED_SUCCESSFULLY,525.742223,0.000010,525.742233,525.742223,525.742233,52574223.300201,7,-1.000000,""
87_updated,w0,python3action_videoprocessing_SampleVideo_30mb_nova,0.997085,1,2000.000000,1,COMPLETED_SUCCESSFULLY,418.942302,106.799980,525.742283,417.945217,524.745198,4.913345,8,-1.000000,""
87,w0,python3action_videoprocessing_SampleVideo_30mb,0.000000,1,-1.000000,1,COMPLETED_SUCCESSFULLY,525.742298,0.000010,525.742308,525.742298,525.742308,52574230.800201,8,-1.000000,""
94_updated,w0,python3action_videoprocessing_SampleVideo_30mb_nova,0.997085,1,2000.000000,1,COMPLETED_SUCCESSFULLY,418.942362,106.799980,525.742343,417.945277,524.745258,4.913346,9,-1.000000,""
94,w0,python3action_videoprocessing_SampleVideo_30mb,0.000000,1,-1.000000,1,COMPLETED_SUCCESSFULLY,525.742358,0.000010,525.742368,525.742358,525.742368,52574236.800201,9,-1.000000,""
102_updated,w0,python3action_videoprocessing_SampleVideo_30mb_nova,0.997085,1,2000.000000,1,COMPLETED_SUCCESSFULLY,418.942422,106.799980,525.742403,417.945337,524.745318,4.913347,10,-1.000000,""
102,w0,python3action_videoprocessing_SampleVideo_30mb,0.000000,1,-1.000000,1,COMPLETED_SUCCESSFULLY,525.742418,0.000010,525.742428,525.742418,525.742428,52574242.800201,10,-1.000000,""
96_updated,w0,python3action_linpack_6000_orion,0.997085,1,2000.000000,1,COMPLETED_SUCCESSFULLY,430.763372,106.000000,536.763372,429.766287,535.766287,5.054399,11,-1.000000,""
96,w0,python3action_linpack_6000,0.000000,1,-1.000000,1,COMPLETED_SUCCESSFULLY,536.763387,0.000010,536.763397,536.763387,536.763397,53676339.727890,11,-1.000000,""
77_updated,w0,python3action_imageprocessing_SampleImage_60mb_neowise,0.997085,1,2000.000000,1,COMPLETED_SUCCESSFULLY,503.186728,37.500000,540.686728,502.189643,539.689643,14.391724,0,-1.000000,""
77,w0,python3action_imageprocessing_SampleImage_60mb,0.000000,1,-1.000000,1,COMPLETED_SUCCESSFULLY,540.686743,0.000010,540.686753,540.686743,540.686753,54068675.301607,0,-1.000000,""
97_updated,w0,python3action_imageprocessing_SampleImage_60mb_neowise,0.997085,1,2000.000000,1,COMPLETED_SUCCESSFULLY,517.886790,37.500000,555.386790,516.889705,554.389705,14.783725,1,-1.000000,""
97,w0,python3action_imageprocessing_SampleImage_60mb,0.000000,1,-1.000000,1,COMPLETED_SUCCESSFULLY,555.386805,0.000010,555.386815,555.386805,555.386815,55538681.502209,1,-1.000000,""
125_updated,w0,python3action_chameleon_3000_yeti,0.997085,1,2000.000000,1,COMPLETED_SUCCESSFULLY,466.895095,93.000000,559.895095,465.898010,558.898010,6.009656,5,-1.000000,""
125,w0,python3action_chameleon_3000,0.000000,1,-1.000000,1,COMPLETED_SUCCESSFULLY,559.895110,0.000010,559.895120,559.895110,559.895120,55989512.002611,5,-1.000000,""
48_updated,w0,python3action_facedetection_SampleVideo_50mb_taurus,0.997085,1,2000.000000,1,COMPLETED_SUCCESSFULLY,426.676381,134.600046,561.276427,425.679296,560.279342,4.162549,12,-1.000000,""
48,w0,python3action_facedetection_SampleVideo_50mb,0.000000,1,-1.000000,1,COMPLETED_SUCCESSFULLY,561.276442,0.000010,561.276452,561.276442,561.276452,56127645.227161,12,-1.000000,""
62_updated,w0,python3action_facedetection_SampleVideo_50mb_taurus,0.997085,1,2000.000000,1,COMPLETED_SUCCESSFULLY,426.676456,134.600046,561.276502,425.679371,560.279417,4.162550,13,-1.000000,""
62,w0,python3action_facedetection_SampleVideo_50mb,0.000000,1,-1.000000,1,COMPLETED_SUCCESSFULLY,561.276517,0.000010,561.276527,561.276517,561.276527,56127652.728165,13,-1.000000,""
156_updated,w0,python3action_pyaes_3000_troll,0.997085,1,2000.000000,1,COMPLETED_SUCCESSFULLY,516.370572,57.166677,573.537249,515.373487,572.540164,10.015278,4,-1.000000,""
156,w0,python3action_pyaes_3000,0.000000,1,-1.000000,1,COMPLETED_SUCCESSFULLY,573.537264,0.000010,573.537274,573.537264,573.537274,57353727.400201,4,-1.000000,""
109_updated,w0,python3action_imageprocessing_SampleImage_60mb_neowise,0.997085,1,2000.000000,1,COMPLETED_SUCCESSFULLY,540.686773,37.500000,578.186773,539.689688,577.189688,15.391725,0,-1.000000,""
109,w0,python3action_imageprocessing_SampleImage_60mb,0.000000,1,-1.000000,1,COMPLETED_SUCCESSFULLY,578.186788,0.000010,578.186798,578.186788,578.186798,57818679.802209,0,-1.000000,""
162_updated,w0,python3action_imageprocessing_SampleImage_60mb_neowise,0.997085,1,2000.000000,1,COMPLETED_SUCCESSFULLY,555.386835,37.500000,592.886835,554.389750,591.889750,15.783727,1,-1.000000,""
162,w0,python3action_imageprocessing_SampleImage_60mb,0.000000,1,-1.000000,1,COMPLETED_SUCCESSFULLY,592.886850,0.000010,592.886860,592.886850,592.886860,59288686.002811,1,-1.000000,""
123_updated,w0,python3action_facedetection_SampleVideo_50mb_taurus,0.997085,1,2000.000000,1,COMPLETED_SUCCESSFULLY,465.176349,134.600046,599.776395,464.179264,598.779310,4.448582,2,-1.000000,""
123,w0,python3action_facedetection_SampleVideo_50mb,0.000000,1,-1.000000,1,COMPLETED_SUCCESSFULLY,599.776410,0.000010,599.776420,599.776410,599.776420,59977642.027964,2,-1.000000,""
python3action_video_processing_job10_3,w0,python3action_video_processing_reduced_1.83,0.997085,1,2000.000000,1,COMPLETED_SUCCESSFULLY,599.776440,0.000000,599.776440,598.779355,598.779355,175563963628425.781250,2,-1.000000,""
192_updated,w0,python3action_imageprocessing_SampleImage_60mb_neowise,0.997085,1,2000.000000,1,COMPLETED_SUCCESSFULLY,578.186818,37.500000,615.686818,577.189733,614.689733,16.391726,0,-1.000000,""
192,w0,python3action_imageprocessing_SampleImage_60mb,0.000000,1,-1.000000,1,COMPLETED_SUCCESSFULLY,615.686833,0.000010,615.686843,615.686833,615.686843,61568684.302811,0,-1.000000,""
195_updated,w0,python3action_imageprocessing_SampleImage_60mb_neowise,0.997085,1,2000.000000,1,COMPLETED_SUCCESSFULLY,592.886880,37.500000,630.386880,591.889795,629.389795,16.783728,1,-1.000000,""
195,w0,python3action_imageprocessing_SampleImage_60mb,0.000000,1,-1.000000,1,COMPLETED_SUCCESSFULLY,630.386895,0.000010,630.386905,630.386895,630.386905,63038690.503414,1,-1.000000,""
158_updated,w0,python3action_pyaes_3000_troll,0.997085,1,2000.000000,1,COMPLETED_SUCCESSFULLY,573.537294,57.166677,630.703971,572.540209,629.706886,11.015279,4,-1.000000,""
158,w0,python3action_pyaes_3000,0.000000,1,-1.000000,1,COMPLETED_SUCCESSFULLY,630.703986,0.000010,630.703996,630.703986,630.703996,63070399.600201,4,-1.000000,""
103_updated,w0,python3action_videoprocessing_SampleVideo_30mb_nova,0.997085,1,2000.000000,1,COMPLETED_SUCCESSFULLY,525.742163,106.799980,632.542143,524.745078,631.545058,5.913344,6,-1.000000,""
103,w0,python3action_videoprocessing_SampleVideo_30mb,0.000000,1,-1.000000,1,COMPLETED_SUCCESSFULLY,632.542158,0.000010,632.542168,632.542158,632.542168,63254216.847010,6,-1.000000,""
124_updated,w0,python3action_videoprocessing_SampleVideo_30mb_nova,0.997085,1,2000.000000,1,COMPLETED_SUCCESSFULLY,525.742253,106.799980,632.542233,524.745168,631.545148,5.913345,7,-1.000000,""
124,w0,python3action_videoprocessing_SampleVideo_30mb,0.000000,1,-1.000000,1,COMPLETED_SUCCESSFULLY,632.542248,0.000010,632.542258,632.542248,632.542258,63254225.847010,7,-1.000000,""
126_updated,w0,python3action_videoprocessing_SampleVideo_30mb_nova,0.997085,1,2000.000000,1,COMPLETED_SUCCESSFULLY,525.742328,106.799980,632.542308,524.745243,631.545223,5.913346,8,-1.000000,""
126,w0,python3action_videoprocessing_SampleVideo_30mb,0.000000,1,-1.000000,1,COMPLETED_SUCCESSFULLY,632.542323,0.000010,632.542333,632.542323,632.542333,63254233.347010,8,-1.000000,""
128_updated,w0,python3action_videoprocessing_SampleVideo_30mb_nova,0.997085,1,2000.000000,1,COMPLETED_SUCCESSFULLY,525.742388,106.799980,632.542368,524.745303,631.545283,5.913346,9,-1.000000,""
128,w0,python3action_videoprocessing_SampleVideo_30mb,0.000000,1,-1.000000,1,COMPLETED_SUCCESSFULLY,632.542383,0.000010,632.542393,632.542383,632.542393,63254239.347211,9,-1.000000,""
131_updated,w0,python3action_videoprocessing_SampleVideo_30mb_nova,0.997085,1,2000.000000,1,COMPLETED_SUCCESSFULLY,525.742448,106.799980,632.542428,524.745363,631.545343,5.913347,10,-1.000000,""
131,w0,python3action_videoprocessing_SampleVideo_30mb,0.000000,1,-1.000000,1,COMPLETED_SUCCESSFULLY,632.542443,0.000010,632.542453,632.542443,632.542453,63254245.347211,10,-1.000000,""
111_updated,w0,python3action_linpack_6000_orion,0.997085,1,2000.000000,1,COMPLETED_SUCCESSFULLY,536.763417,106.000000,642.763417,535.766332,641.766332,6.054399,11,-1.000000,""
111,w0,python3action_linpack_6000,0.000000,1,-1.000000,1,COMPLETED_SUCCESSFULLY,642.763432,0.000010,642.763442,642.763432,642.763442,64276344.228492,11,-1.000000,""
129_updated,w0,python3action_chameleon_3000_yeti,0.997085,1,2000.000000,1,COMPLETED_SUCCESSFULLY,559.895140,93.000000,652.895140,558.898055,651.898055,7.009657,5,-1.000000,""
129,w0,python3action_chameleon_3000,0.000000,1,-1.000000,1,COMPLETED_SUCCESSFULLY,652.895155,0.000010,652.895165,652.895155,652.895165,65289516.503213,5,-1.000000,""
30_updated,w0,python3action_modeltraining_reviews100mb_neowise,0.997085,1,2000.000000,1,COMPLETED_SUCCESSFULLY,615.686863,43.399999,659.086862,614.689778,658.089777,15.163359,0,-1.000000,""
30,w0,python3action_modeltraining_reviews100mb,0.000000,1,-1.000000,1,COMPLETED_SUCCESSFULLY,659.086877,0.000010,659.086887,659.086877,659.086887,65908688.700201,0,-1.000000,""
100_updated,w0,python3action_modeltraining_reviews100mb_neowise,0.997085,1,2000.000000,1,COMPLETED_SUCCESSFULLY,630.386925,43.399999,673.786924,629.389840,672.789839,15.502070,1,-1.000000,""
100,w0,python3action_modeltraining_reviews100mb,0.000000,1,-1.000000,1,COMPLETED_SUCCESSFULLY,673.786939,0.000010,673.786949,673.786939,673.786949,67378694.900201,1,-1.000000,""
189_updated,w0,python3action_pyaes_3000_troll,0.997085,1,2000.000000,1,COMPLETED_SUCCESSFULLY,630.704016,57.166677,687.870693,629.706931,686.873608,12.015280,4,-1.000000,""
189,w0,python3action_pyaes_3000,0.000000,1,-1.000000,1,COMPLETED_SUCCESSFULLY,687.870708,0.000010,687.870718,687.870708,687.870718,68787071.800201,4,-1.000000,""
134_updated,w0,python3action_facedetection_SampleVideo_50mb_taurus,0.997085,1,2000.000000,1,COMPLETED_SUCCESSFULLY,561.276472,134.600046,695.876518,560.279387,694.879433,5.162550,12,-1.000000,""
134,w0,python3action_facedetection_SampleVideo_50mb,0.000000,1,-1.000000,1,COMPLETED_SUCCESSFULLY,695.876533,0.000010,695.876543,695.876533,695.876543,69587654.340841,12,-1.000000,""
python3action_video_processing_job16_12,w0,python3action_video_processing_reduced_1.83,0.997085,1,2000.000000,1,COMPLETED_SUCCESSFULLY,695.876563,0.000000,695.876563,694.879478,694.879478,203740817711303.468750,12,-1.000000,""
160_updated,w0,python3action_facedetection_SampleVideo_50mb_taurus,0.997085,1,2000.000000,1,COMPLETED_SUCCESSFULLY,561.276547,134.600046,695.876593,560.279462,694.879508,5.162550,13,-1.000000,""
160,w0,python3action_facedetection_SampleVideo_50mb,0.000000,1,-1.000000,1,COMPLETED_SUCCESSFULLY,695.876623,0.000010,695.876633,695.876623,695.876633,69587663.342046,13,-1.000000,""
python3action_video_processing_job33_13,w0,python3action_video_processing_reduced_1.83,0.997085,1,2000.000000,1,COMPLETED_SUCCESSFULLY,695.876653,0.000000,695.876653,694.879568,694.879568,203740844103115.062500,13,-1.000000,""
166_updated,w0,python3action_modeltraining_reviews100mb_neowise,0.997085,1,2000.000000,1,COMPLETED_SUCCESSFULLY,659.086907,43.399999,702.486906,658.089822,701.489821,16.163360,0,-1.000000,""
166,w0,python3action_modeltraining_reviews100mb,0.000000,1,-1.000000,1,COMPLETED_SUCCESSFULLY,702.486921,0.000010,702.486931,702.486921,702.486931,70248693.100201,0,-1.000000,""
183_updated,w0,python3action_modeltraining_reviews100mb_neowise,0.997085,1,2000.000000,1,COMPLETED_SUCCESSFULLY,673.786969,43.399999,717.186968,672.789884,716.189883,16.502071,1,-1.000000,""
183,w0,python3action_modeltraining_reviews100mb,0.000000,1,-1.000000,1,COMPLETED_SUCCESSFULLY,717.186983,0.000010,717.186993,717.186983,717.186993,71718699.300201,1,-1.000000,""
145_updated,w0,python3action_videoprocessing_SampleVideo_30mb_nova,0.997085,1,2000.000000,1,COMPLETED_SUCCESSFULLY,632.542188,106.799980,739.342169,631.545103,738.345084,6.913345,6,-1.000000,""
145,w0,python3action_videoprocessing_SampleVideo_30mb,0.000000,1,-1.000000,1,COMPLETED_SUCCESSFULLY,739.342184,0.000010,739.342194,739.342184,739.342194,73934219.400201,6,-1.000000,""
157_updated,w0,python3action_videoprocessing_SampleVideo_30mb_nova,0.997085,1,2000.000000,1,COMPLETED_SUCCESSFULLY,632.542278,106.799980,739.342259,631.545193,738.345174,6.913346,7,-1.000000,""
157,w0,python3action_videoprocessing_SampleVideo_30mb,0.000000,1,-1.000000,1,COMPLETED_SUCCESSFULLY,739.342274,0.000010,739.342284,739.342274,739.342284,73934228.400201,7,-1.000000,""
197_updated,w0,python3action_videoprocessing_SampleVideo_30mb_nova,0.997085,1,2000.000000,1,COMPLETED_SUCCESSFULLY,632.542353,106.799980,739.342334,631.545268,738.345249,6.913346,8,-1.000000,""
197,w0,python3action_videoprocessing_SampleVideo_30mb,0.000000,1,-1.000000,1,COMPLETED_SUCCESSFULLY,739.342349,0.000010,739.342359,739.342349,739.342359,73934235.900201,8,-1.000000,""
199_updated,w0,python3action_pyaes_3000_troll,0.997085,1,2000.000000,1,COMPLETED_SUCCESSFULLY,687.870738,57.166677,745.037415,686.873653,744.040330,13.015280,4,-1.000000,""
199,w0,python3action_pyaes_3000,0.000000,1,-1.000000,1,COMPLETED_SUCCESSFULLY,745.037430,0.000010,745.037440,745.037430,745.037440,74503744.000201,4,-1.000000,""
142_updated,w0,python3action_chameleon_3000_yeti,0.997085,1,2000.000000,1,COMPLETED_SUCCESSFULLY,652.895185,93.000000,745.895185,651.898100,744.898100,8.009657,5,-1.000000,""
142,w0,python3action_chameleon_3000,0.000000,1,-1.000000,1,COMPLETED_SUCCESSFULLY,745.895200,0.000010,745.895210,745.895200,745.895210,74589521.003816,5,-1.000000,""
127_updated,w0,python3action_linpack_6000_orion,0.997085,1,2000.000000,1,COMPLETED_SUCCESSFULLY,642.763462,106.000000,748.763462,641.766377,747.766377,7.054400,11,-1.000000,""
127,w0,python3action_linpack_6000,0.000000,1,-1.000000,1,COMPLETED_SUCCESSFULLY,748.763477,0.000010,748.763487,748.763477,748.763487,74876348.729094,11,-1.000000,""
10_updated,w0,python3action_videoprocessing_SampleVideo_50mb_taurus,0.997085,1,2000.000000,1,COMPLETED_SUCCESSFULLY,599.776470,154.250029,754.026499,598.779385,753.029414,4.881875,2,-1.000000,""
10,w0,python3action_videoprocessing_SampleVideo_50mb,0.000000,1,-1.000000,1,COMPLETED_SUCCESSFULLY,754.026514,0.000010,754.026524,754.026514,754.026524,75402652.412141,2,-1.000000,""
75_updated,w0,python3action_chameleon_3000_neowise,0.997085,1,2000.000000,1,COMPLETED_SUCCESSFULLY,702.486951,55.799998,758.286949,701.489866,757.289864,13.571503,0,-1.000000,""
75,w0,python3action_chameleon_3000,0.000000,1,-1.000000,1,COMPLETED_SUCCESSFULLY,758.286964,0.000010,758.286974,758.286964,758.286974,75828697.400201,0,-1.000000,""
5_updated,w0,python3action_floatoperation_200000000_nova,0.997085,1,2000.000000,1,COMPLETED_SUCCESSFULLY,632.542413,135.399990,767.942404,631.545328,766.945319,5.664294,9,-1.000000,""
5,w0,python3action_floatoperation_200000000,0.000000,1,-1.000000,1,COMPLETED_SUCCESSFULLY,767.942419,0.000010,767.942429,767.942419,767.942429,76794242.900201,9,-1.000000,""
9_updated,w0,python3action_floatoperation_200000000_nova,0.997085,1,2000.000000,1,COMPLETED_SUCCESSFULLY,632.542473,135.399990,767.942464,631.545388,766.945379,5.664294,10,-1.000000,""
9,w0,python3action_floatoperation_200000000,0.000000,1,-1.000000,1,COMPLETED_SUCCESSFULLY,767.942479,0.000010,767.942489,767.942479,767.942489,76794248.900201,10,-1.000000,""
167_updated,w0,python3action_chameleon_3000_yeti,0.997085,1,2000.000000,1,COMPLETED_SUCCESSFULLY,745.895230,93.000000,838.895230,744.898145,837.898145,9.009657,5,-1.000000,""
167,w0,python3action_chameleon_3000,0.000000,1,-1.000000,1,COMPLETED_SUCCESSFULLY,838.895245,0.000010,838.895255,838.895245,838.895255,83889525.504418,5,-1.000000,""
7_updated,w0,python3action_pyaes_4000_troll,0.997085,1,2000.000000,1,COMPLETED_SUCCESSFULLY,745.037460,102.333333,847.370793,744.040375,846.373708,8.270753,4,-1.000000,""
7,w0,python3action_pyaes_4000,0.000000,1,-1.000000,1,COMPLETED_SUCCESSFULLY,847.370808,0.000010,847.370818,847.370808,847.370818,84737081.834137,4,-1.000000,""
16_updated,w0,python3action_videoprocessing_SampleVideo_50mb_taurus,0.997085,1,2000.000000,1,COMPLETED_SUCCESSFULLY,695.876593,154.250029,850.126622,694.879508,849.129537,5.504891,12,-1.000000,""
16,w0,python3action_videoprocessing_SampleVideo_50mb,0.000000,1,-1.000000,1,COMPLETED_SUCCESSFULLY,850.126637,0.000010,850.126647,850.126637,850.126647,85012664.725019,12,-1.000000,""
33_updated,w0,python3action_videoprocessing_SampleVideo_50mb_taurus,0.997085,1,2000.000000,1,COMPLETED_SUCCESSFULLY,695.876683,154.250029,850.126712,694.879598,849.129627,5.504891,13,-1.000000,""
33,w0,python3action_videoprocessing_SampleVideo_50mb,0.000000,1,-1.000000,1,COMPLETED_SUCCESSFULLY,850.126727,0.000010,850.126737,850.126727,850.126737,85012673.726223,13,-1.000000,""
133_updated,w0,python3action_linpack_6000_orion,0.997085,1,2000.000000,1,COMPLETED_SUCCESSFULLY,748.763507,106.000000,854.763507,747.766422,853.766422,8.054400,11,-1.000000,""
133,w0,python3action_linpack_6000,0.000000,1,-1.000000,1,COMPLETED_SUCCESSFULLY,854.763522,0.000010,854.763532,854.763522,854.763532,85476353.229697,11,-1.000000,""
19_updated,w0,python3action_floatoperation_200000000_nova,0.997085,1,2000.000000,1,COMPLETED_SUCCESSFULLY,739.342214,135.399990,874.742204,738.345129,873.745119,6.453066,6,-1.000000,""
19,w0,python3action_floatoperation_200000000,0.000000,1,-1.000000,1,COMPLETED_SUCCESSFULLY,874.742219,0.000010,874.742229,874.742219,874.742229,87474222.923907,6,-1.000000,""
116_updated,w0,python3action_floatoperation_200000000_nova,0.997085,1,2000.000000,1,COMPLETED_SUCCESSFULLY,739.342304,135.399990,874.742294,738.345219,873.745209,6.453067,7,-1.000000,""
116,w0,python3action_floatoperation_200000000,0.000000,1,-1.000000,1,COMPLETED_SUCCESSFULLY,874.742309,0.000010,874.742319,874.742309,874.742319,87474231.923907,7,-1.000000,""
180_updated,w0,python3action_floatoperation_200000000_nova,0.997085,1,2000.000000,1,COMPLETED_SUCCESSFULLY,739.342379,135.399990,874.742369,738.345294,873.745284,6.453068,8,-1.000000,""
180,w0,python3action_floatoperation_200000000,0.000000,1,-1.000000,1,COMPLETED_SUCCESSFULLY,874.742384,0.000010,874.742394,874.742384,874.742394,87474239.423907,8,-1.000000,""
python3action_pyaes_job68_6,w0,python3action_pyaes,0.997085,1,2000.000000,1,COMPLETED_SUCCESSFULLY,874.742249,2.134958,876.877207,873.745164,875.880122,410.256326,6,-1.000000,""
185_updated,w0,python3action_floatoperation_200000000_nova,0.997085,1,2000.000000,1,COMPLETED_SUCCESSFULLY,767.942449,135.399990,903.342439,766.945364,902.345354,6.664294,9,-1.000000,""
185,w0,python3action_floatoperation_200000000,0.000000,1,-1.000000,1,COMPLETED_SUCCESSFULLY,903.342454,0.000010,903.342464,903.342454,903.342464,90334246.423907,9,-1.000000,""
python3action_pyaes_job120_9,w0,python3action_pyaes,0.997085,1,2000.000000,1,COMPLETED_SUCCESSFULLY,903.342484,2.134958,905.477442,902.345399,904.480357,423.652483,9,-1.000000,""
18_updated,w0,python3action_videoprocessing_SampleVideo_50mb_nova,0.997085,1,2000.000000,1,COMPLETED_SUCCESSFULLY,767.942509,139.600010,907.542519,766.945424,906.545434,6.493878,10,-1.000000,""
18,w0,python3action_videoprocessing_SampleVideo_50mb,0.000000,1,-1.000000,1,COMPLETED_SUCCESSFULLY,907.542534,0.000010,907.542544,907.542534,907.542544,90754254.400201,10,-1.000000,""
43_updated,w0,python3action_videoprocessing_SampleVideo_50mb_taurus,0.997085,1,2000.000000,1,COMPLETED_SUCCESSFULLY,754.026544,154.250029,908.276573,753.029459,907.279488,5.881876,2,-1.000000,""
43,w0,python3action_videoprocessing_SampleVideo_50mb,0.000000,1,-1.000000,1,COMPLETED_SUCCESSFULLY,908.276588,0.000010,908.276598,908.276588,908.276598,90827659.800201,2,-1.000000,""
python3action_pyaes_job143_10,w0,python3action_pyaes,0.997085,1,2000.000000,1,COMPLETED_SUCCESSFULLY,907.542564,2.134958,909.677522,906.545479,908.680437,425.619771,10,-1.000000,""
174_updated,w0,python3action_chameleon_3000_yeti,0.997085,1,2000.000000,1,COMPLETED_SUCCESSFULLY,838.895275,93.000000,931.895275,837.898190,930.898190,10.009658,5,-1.000000,""
174,w0,python3action_chameleon_3000,0.000000,1,-1.000000,1,COMPLETED_SUCCESSFULLY,931.895290,0.000010,931.895300,931.895290,931.895300,93189530.005020,5,-1.000000,""
23_updated,w0,python3action_pyaes_4000_troll,0.997085,1,2000.000000,1,COMPLETED_SUCCESSFULLY,847.370838,102.333333,949.704172,846.373753,948.707087,9.270753,4,-1.000000,""
23,w0,python3action_pyaes_4000,0.000000,1,-1.000000,1,COMPLETED_SUCCESSFULLY,949.704187,0.000010,949.704197,949.704187,949.704197,94970419.700201,4,-1.000000,""
148_updated,w0,python3action_linpack_6000_orion,0.997085,1,2000.000000,1,COMPLETED_SUCCESSFULLY,854.763552,106.000000,960.763552,853.766467,959.766467,9.054401,11,-1.000000,""
148,w0,python3action_linpack_6000,0.000000,1,-1.000000,1,COMPLETED_SUCCESSFULLY,960.763567,0.000010,960.763577,960.763567,960.763577,96076357.730299,11,-1.000000,""
106_updated,w0,python3action_videoprocessing_SampleVideo_50mb_taurus,0.997085,1,2000.000000,1,COMPLETED_SUCCESSFULLY,850.126667,154.250029,1004.376696,849.129582,1003.379611,6.504891,12,-1.000000,""
106,w0,python3action_videoprocessing_SampleVideo_50mb,0.000000,1,-1.000000,1,COMPLETED_SUCCESSFULLY,1004.376711,0.000010,1004.376721,1004.376711,1004.376721,100437672.108795,12,-1.000000,""
135_updated,w0,python3action_videoprocessing_SampleVideo_50mb_taurus,0.997085,1,2000.000000,1,COMPLETED_SUCCESSFULLY,850.126757,154.250029,1004.376786,849.129672,1003.379701,6.504891,13,-1.000000,""
135,w0,python3action_videoprocessing_SampleVideo_50mb,0.000000,1,-1.000000,1,COMPLETED_SUCCESSFULLY,1004.376801,0.000010,1004.376811,1004.376801,1004.376811,100437681.110000,13,-1.000000,""
92_updated,w0,python3action_videoprocessing_SampleVideo_50mb_nova,0.997085,1,2000.000000,1,COMPLETED_SUCCESSFULLY,874.742339,139.600010,1014.342349,873.745254,1013.345264,7.258920,7,-1.000000,""
92,w0,python3action_videoprocessing_SampleVideo_50mb,0.000000,1,-1.000000,1,COMPLETED_SUCCESSFULLY,1014.342364,0.000010,1014.342374,1014.342364,1014.342374,101434237.401405,7,-1.000000,""
118_updated,w0,python3action_videoprocessing_SampleVideo_50mb_nova,0.997085,1,2000.000000,1,COMPLETED_SUCCESSFULLY,874.742414,139.600010,1014.342424,873.745329,1013.345339,7.258920,8,-1.000000,""
118,w0,python3action_videoprocessing_SampleVideo_50mb,0.000000,1,-1.000000,1,COMPLETED_SUCCESSFULLY,1014.342439,0.000010,1014.342449,1014.342439,1014.342449,101434244.901405,8,-1.000000,""
68_updated,w0,python3action_pyaes_4000_nova,0.997085,1,2000.000000,1,COMPLETED_SUCCESSFULLY,876.877222,139.600010,1016.477232,875.880137,1015.480147,7.274213,6,-1.000000,""
68,w0,python3action_pyaes_4000,0.000000,1,-1.000000,1,COMPLETED_SUCCESSFULLY,1016.477247,0.000010,1016.477257,1016.477247,1016.477257,101647725.725374,6,-1.000000,""
python3action_pyaes_job179_7,w0,python3action_pyaes,0.997085,1,2000.000000,1,COMPLETED_SUCCESSFULLY,1014.342394,2.134958,1016.477352,1013.345309,1015.480267,475.644090,7,-1.000000,""
python3action_pyaes_job198_8,w0,python3action_pyaes,0.997085,1,2000.000000,1,COMPLETED_SUCCESSFULLY,1014.342469,2.134958,1016.477427,1013.345384,1015.480342,475.644125,8,-1.000000,""
186_updated,w0,python3action_chameleon_3000_yeti,0.997085,1,2000.000000,1,COMPLETED_SUCCESSFULLY,931.895320,93.000000,1024.895320,930.898235,1023.898235,11.009658,5,-1.000000,""
186,w0,python3action_chameleon_3000,0.000000,1,-1.000000,1,COMPLETED_SUCCESSFULLY,1024.895335,0.000010,1024.895345,1024.895335,1024.895345,102489534.505623,5,-1.000000,""
120_updated,w0,python3action_pyaes_4000_nova,0.997085,1,2000.000000,1,COMPLETED_SUCCESSFULLY,905.477457,139.600010,1045.077467,904.480372,1044.080382,7.479085,9,-1.000000,""
120,w0,python3action_pyaes_4000,0.000000,1,-1.000000,1,COMPLETED_SUCCESSFULLY,1045.077482,0.000010,1045.077492,1045.077482,1045.077492,104507749.225374,9,-1.000000,""
python3action_facedetection_job13_9,w0,python3action_facedetection_reduced_1.83,0.997085,1,2000.000000,1,COMPLETED_SUCCESSFULLY,1045.077512,0.000000,1045.077512,1044.080427,1044.080427,21357740839131.011719,9,-1.000000,""
143_updated,w0,python3action_pyaes_4000_nova,0.997085,1,2000.000000,1,COMPLETED_SUCCESSFULLY,909.677537,139.600010,1049.277547,908.680452,1048.280462,7.509172,10,-1.000000,""
143,w0,python3action_pyaes_4000,0.000000,1,-1.000000,1,COMPLETED_SUCCESSFULLY,1049.277562,0.000010,1049.277572,1049.277562,1049.277572,104927757.201668,10,-1.000000,""
python3action_facedetection_job21_10,w0,python3action_facedetection_reduced_1.83,0.997085,1,2000.000000,1,COMPLETED_SUCCESSFULLY,1049.277592,0.000000,1049.277592,1048.280507,1048.280507,21443657797957.800781,10,-1.000000,""
39_updated,w0,python3action_pyaes_4000_troll,0.997085,1,2000.000000,1,COMPLETED_SUCCESSFULLY,949.704217,102.333333,1052.037550,948.707132,1051.040465,10.270754,4,-1.000000,""
39,w0,python3action_pyaes_4000,0.000000,1,-1.000000,1,COMPLETED_SUCCESSFULLY,1052.037565,0.000010,1052.037575,1052.037565,1052.037575,105203757.534136,4,-1.000000,""
140_updated,w0,python3action_videoprocessing_SampleVideo_50mb_taurus,0.997085,1,2000.000000,1,COMPLETED_SUCCESSFULLY,908.276618,154.250029,1062.526647,907.279533,1061.529562,6.881876,2,-1.000000,""
140,w0,python3action_videoprocessing_SampleVideo_50mb,0.000000,1,-1.000000,1,COMPLETED_SUCCESSFULLY,1062.526662,0.000010,1062.526672,1062.526662,1062.526672,106252667.200201,2,-1.000000,""
164_updated,w0,python3action_linpack_6000_orion,0.997085,1,2000.000000,1,COMPLETED_SUCCESSFULLY,960.763597,106.000000,1066.763597,959.766512,1065.766512,10.054401,11,-1.000000,""
164,w0,python3action_linpack_6000,0.000000,1,-1.000000,1,COMPLETED_SUCCESSFULLY,1066.763612,0.000010,1066.763622,1066.763612,1066.763622,106676362.230901,11,-1.000000,""
187_updated,w0,python3action_chameleon_3000_yeti,0.997085,1,2000.000000,1,COMPLETED_SUCCESSFULLY,1024.895365,93.000000,1117.895365,1023.898280,1116.898280,12.009659,5,-1.000000,""
187,w0,python3action_chameleon_3000,0.000000,1,-1.000000,1,COMPLETED_SUCCESSFULLY,1117.895380,0.000010,1117.895390,1117.895380,1117.895390,111789539.006225,5,-1.000000,""
114_updated,w0,python3action_pyaes_4000_troll,0.997085,1,2000.000000,1,COMPLETED_SUCCESSFULLY,1052.037595,102.333333,1154.370929,1051.040510,1153.373844,11.270754,4,-1.000000,""
114,w0,python3action_pyaes_4000,0.000000,1,-1.000000,1,COMPLETED_SUCCESSFULLY,1154.370944,0.000010,1154.370954,1154.370944,1154.370954,115437095.400201,4,-1.000000,""
146_updated,w0,python3action_pyaes_4000_nova,0.997085,1,2000.000000,1,COMPLETED_SUCCESSFULLY,1016.477277,139.600010,1156.077287,1015.480192,1155.080202,8.274213,6,-1.000000,""
146,w0,python3action_pyaes_4000,0.000000,1,-1.000000,1,COMPLETED_SUCCESSFULLY,1156.077302,0.000010,1156.077312,1156.077302,1156.077312,115607731.202873,6,-1.000000,""
python3action_facedetection_job46_6,w0,python3action_facedetection_reduced_1.83,0.997085,1,2000.000000,1,COMPLETED_SUCCESSFULLY,1156.077332,0.000000,1156.077332,1155.080247,1155.080247,23628356513989.414062,6,-1.000000,""
179_updated,w0,python3action_pyaes_4000_nova,0.997085,1,2000.000000,1,COMPLETED_SUCCESSFULLY,1016.477367,139.600010,1156.077377,1015.480282,1155.080292,8.274214,7,-1.000000,""
179,w0,python3action_pyaes_4000,0.000000,1,-1.000000,1,COMPLETED_SUCCESSFULLY,1156.077392,0.000010,1156.077402,1156.077392,1156.077402,115607740.203074,7,-1.000000,""
python3action_facedetection_job54_7,w0,python3action_facedetection_reduced_1.83,0.997085,1,2000.000000,1,COMPLETED_SUCCESSFULLY,1156.077422,0.000000,1156.077422,1155.080337,1155.080337,23628358355073.214844,7,-1.000000,""
198_updated,w0,python3action_pyaes_4000_nova,0.997085,1,2000.000000,1,COMPLETED_SUCCESSFULLY,1016.477442,139.600010,1156.077452,1015.480357,1155.080367,8.274214,8,-1.000000,""
198,w0,python3action_pyaes_4000,0.000000,1,-1.000000,1,COMPLETED_SUCCESSFULLY,1156.077482,0.000010,1156.077492,1156.077482,1156.077492,115607749.203274,8,-1.000000,""
python3action_facedetection_job76_8,w0,python3action_facedetection_reduced_1.83,0.997085,1,2000.000000,1,COMPLETED_SUCCESSFULLY,1156.077512,0.000000,1156.077512,1155.080427,1155.080427,23628360196157.011719,8,-1.000000,""
144_updated,w0,python3action_videoprocessing_SampleVideo_50mb_taurus,0.997085,1,2000.000000,1,COMPLETED_SUCCESSFULLY,1004.376741,154.250029,1158.626770,1003.379656,1157.629685,7.504891,12,-1.000000,""
144,w0,python3action_videoprocessing_SampleVideo_50mb,0.000000,1,-1.000000,1,COMPLETED_SUCCESSFULLY,1158.626785,0.000010,1158.626795,1158.626785,1158.626795,115862679.500201,12,-1.000000,""
175_updated,w0,python3action_videoprocessing_SampleVideo_50mb_taurus,0.997085,1,2000.000000,1,COMPLETED_SUCCESSFULLY,1004.376831,154.250029,1158.626860,1003.379746,1157.629775,7.504892,13,-1.000000,""
175,w0,python3action_videoprocessing_SampleVideo_50mb,0.000000,1,-1.000000,1,COMPLETED_SUCCESSFULLY,1158.626875,0.000010,1158.626885,1158.626875,1158.626885,115862688.500201,13,-1.000000,""
171_updated,w0,python3action_linpack_6000_orion,0.997085,1,2000.000000,1,COMPLETED_SUCCESSFULLY,1066.763642,106.000000,1172.763642,1065.766557,1171.766557,11.054401,11,-1.000000,""
171,w0,python3action_linpack_6000,0.000000,1,-1.000000,1,COMPLETED_SUCCESSFULLY,1172.763657,0.000010,1172.763667,1172.763657,1172.763667,117276366.731504,11,-1.000000,""
13_updated,w0,python3action_facedetection_SampleVideo_30mb_nova,0.997085,1,2000.000000,1,COMPLETED_SUCCESSFULLY,1045.077542,160.399990,1205.477532,1044.080457,1204.480447,7.509230,9,-1.000000,""
13,w0,python3action_facedetection_SampleVideo_30mb,0.000000,1,-1.000000,1,COMPLETED_SUCCESSFULLY,1205.477547,0.000010,1205.477557,1205.477547,1205.477557,120547755.749482,9,-1.000000,""
21_updated,w0,python3action_facedetection_SampleVideo_30mb_nova,0.997085,1,2000.000000,1,COMPLETED_SUCCESSFULLY,1049.277622,160.399990,1209.677612,1048.280537,1208.680527,7.535415,10,-1.000000,""
21,w0,python3action_facedetection_SampleVideo_30mb,0.000000,1,-1.000000,1,COMPLETED_SUCCESSFULLY,1209.677627,0.000010,1209.677637,1209.677627,1209.677637,120967763.725776,10,-1.000000,""
191_updated,w0,python3action_chameleon_3000_yeti,0.997085,1,2000.000000,1,COMPLETED_SUCCESSFULLY,1117.895410,93.000000,1210.895410,1116.898325,1209.898325,13.009659,5,-1.000000,""
191,w0,python3action_chameleon_3000,0.000000,1,-1.000000,1,COMPLETED_SUCCESSFULLY,1210.895425,0.000010,1210.895435,1210.895425,1210.895435,121089543.506827,5,-1.000000,""
176_updated,w0,python3action_videoprocessing_SampleVideo_50mb_taurus,0.997085,1,2000.000000,1,COMPLETED_SUCCESSFULLY,1062.526692,154.250029,1216.776721,1061.529607,1215.779636,7.881876,2,-1.000000,""
176,w0,python3action_videoprocessing_SampleVideo_50mb,0.000000,1,-1.000000,1,COMPLETED_SUCCESSFULLY,1216.776736,0.000010,1216.776746,1216.776736,1216.776746,121677674.600201,2,-1.000000,""
115_updated,w0,python3action_pyaes_4000_troll,0.997085,1,2000.000000,1,COMPLETED_SUCCESSFULLY,1154.370974,102.333333,1256.704307,1153.373889,1255.707222,12.270755,4,-1.000000,""
115,w0,python3action_pyaes_4000,0.000000,1,-1.000000,1,COMPLETED_SUCCESSFULLY,1256.704322,0.000010,1256.704332,1256.704322,1256.704332,125670433.234136,4,-1.000000,""
178_updated,w0,python3action_linpack_6000_orion,0.997085,1,2000.000000,1,COMPLETED_SUCCESSFULLY,1172.763687,106.000000,1278.763687,1171.766602,1277.766602,12.054402,11,-1.000000,""
178,w0,python3action_linpack_6000,0.000000,1,-1.000000,1,COMPLETED_SUCCESSFULLY,1278.763702,0.000010,1278.763712,1278.763702,1278.763712,127876371.232106,11,-1.000000,""
196_updated,w0,python3action_chameleon_3000_yeti,0.997085,1,2000.000000,1,COMPLETED_SUCCESSFULLY,1210.895455,93.000000,1303.895455,1209.898370,1302.898370,14.009660,5,-1.000000,""
196,w0,python3action_chameleon_3000,0.000000,1,-1.000000,1,COMPLETED_SUCCESSFULLY,1303.895470,0.000010,1303.895480,1303.895470,1303.895480,130389548.007430,5,-1.000000,""
190_updated,w0,python3action_videoprocessing_SampleVideo_50mb_taurus,0.997085,1,2000.000000,1,COMPLETED_SUCCESSFULLY,1158.626815,154.250029,1312.876844,1157.629730,1311.879759,8.504891,12,-1.000000,""
190,w0,python3action_videoprocessing_SampleVideo_50mb,0.000000,1,-1.000000,1,COMPLETED_SUCCESSFULLY,1312.876859,0.000010,1312.876869,1312.876859,1312.876869,131287686.900201,12,-1.000000,""
193_updated,w0,python3action_videoprocessing_SampleVideo_50mb_taurus,0.997085,1,2000.000000,1,COMPLETED_SUCCESSFULLY,1158.626905,154.250029,1312.876934,1157.629820,1311.879849,8.504892,13,-1.000000,""
193,w0,python3action_videoprocessing_SampleVideo_50mb,0.000000,1,-1.000000,1,COMPLETED_SUCCESSFULLY,1312.876949,0.000010,1312.876959,1312.876949,1312.876959,131287695.900201,13,-1.000000,""
46_updated,w0,python3action_facedetection_SampleVideo_30mb_nova,0.997085,1,2000.000000,1,COMPLETED_SUCCESSFULLY,1156.077362,160.399990,1316.477352,1155.080277,1315.480267,8.201249,6,-1.000000,""
46,w0,python3action_facedetection_SampleVideo_30mb,0.000000,1,-1.000000,1,COMPLETED_SUCCESSFULLY,1316.477367,0.000010,1316.477377,1316.477367,1316.477377,131647737.726980,6,-1.000000,""
54_updated,w0,python3action_facedetection_SampleVideo_30mb_nova,0.997085,1,2000.000000,1,COMPLETED_SUCCESSFULLY,1156.077452,160.399990,1316.477442,1155.080367,1315.480357,8.201250,7,-1.000000,""
54,w0,python3action_facedetection_SampleVideo_30mb,0.000000,1,-1.000000,1,COMPLETED_SUCCESSFULLY,1316.477457,0.000010,1316.477467,1316.477457,1316.477467,131647746.726177,7,-1.000000,""
76_updated,w0,python3action_facedetection_SampleVideo_30mb_nova,0.997085,1,2000.000000,1,COMPLETED_SUCCESSFULLY,1156.077542,160.399990,1316.477532,1155.080457,1315.480447,8.201250,8,-1.000000,""
76,w0,python3action_facedetection_SampleVideo_30mb,0.000000,1,-1.000000,1,COMPLETED_SUCCESSFULLY,1316.477547,0.000010,1316.477557,1316.477547,1316.477557,131647755.727382,8,-1.000000,""
161_updated,w0,python3action_pyaes_4000_troll,0.997085,1,2000.000000,1,COMPLETED_SUCCESSFULLY,1256.704352,102.333333,1359.037686,1255.707267,1358.040601,13.270755,4,-1.000000,""
161,w0,python3action_pyaes_4000,0.000000,1,-1.000000,1,COMPLETED_SUCCESSFULLY,1359.037701,0.000010,1359.037711,1359.037701,1359.037711,135903771.100201,4,-1.000000,""
78_updated,w0,python3action_facedetection_SampleVideo_30mb_nova,0.997085,1,2000.000000,1,COMPLETED_SUCCESSFULLY,1205.477577,160.399990,1365.877568,1204.480492,1364.880483,8.509230,9,-1.000000,""
78,w0,python3action_facedetection_SampleVideo_30mb,0.000000,1,-1.000000,1,COMPLETED_SUCCESSFULLY,1365.877583,0.000010,1365.877593,1365.877583,1365.877593,136587759.300201,9,-1.000000,""
79_updated,w0,python3action_facedetection_SampleVideo_30mb_nova,0.997085,1,2000.000000,1,COMPLETED_SUCCESSFULLY,1209.677657,160.399990,1370.077647,1208.680572,1369.080562,8.535415,10,-1.000000,""
79,w0,python3action_facedetection_SampleVideo_30mb,0.000000,1,-1.000000,1,COMPLETED_SUCCESSFULLY,1370.077662,0.000010,1370.077672,1370.077662,1370.077672,137007767.249482,10,-1.000000,""
73_updated,w0,python3action_linpack_6000_taurus,0.997085,1,2000.000000,1,COMPLETED_SUCCESSFULLY,1216.776766,157.600046,1374.376812,1215.779681,1373.379727,8.714336,2,-1.000000,""
73,w0,python3action_linpack_6000,0.000000,1,-1.000000,1,COMPLETED_SUCCESSFULLY,1374.376827,0.000010,1374.376837,1374.376827,1374.376837,137437683.713881,2,-1.000000,""
177_updated,w0,python3action_pyaes_4000_troll,0.997085,1,2000.000000,1,COMPLETED_SUCCESSFULLY,1359.037731,102.333333,1461.371064,1358.040646,1460.373979,14.270755,4,-1.000000,""
177,w0,python3action_pyaes_4000,0.000000,1,-1.000000,1,COMPLETED_SUCCESSFULLY,1461.371079,0.000010,1461.371089,1461.371079,1461.371089,146137108.934137,4,-1.000000,""
99_updated,w0,python3action_linpack_6000_taurus,0.997085,1,2000.000000,1,COMPLETED_SUCCESSFULLY,1312.876889,157.600046,1470.476935,1311.879804,1469.479850,9.324108,12,-1.000000,""
99,w0,python3action_linpack_6000,0.000000,1,-1.000000,1,COMPLETED_SUCCESSFULLY,1470.476950,0.000010,1470.476960,1470.476950,1470.476960,147047696.013881,12,-1.000000,""
88_updated,w0,python3action_facedetection_SampleVideo_30mb_nova,0.997085,1,2000.000000,1,COMPLETED_SUCCESSFULLY,1316.477397,160.399990,1476.877388,1315.480312,1475.880303,9.201249,6,-1.000000,""
88,w0,python3action_facedetection_SampleVideo_30mb,0.000000,1,-1.000000,1,COMPLETED_SUCCESSFULLY,1476.877403,0.000010,1476.877413,1476.877403,1476.877413,147687741.300201,6,-1.000000,""
159_updated,w0,python3action_facedetection_SampleVideo_30mb_nova,0.997085,1,2000.000000,1,COMPLETED_SUCCESSFULLY,1316.477487,160.399990,1476.877477,1315.480402,1475.880392,9.201250,7,-1.000000,""
159,w0,python3action_facedetection_SampleVideo_30mb,0.000000,1,-1.000000,1,COMPLETED_SUCCESSFULLY,1476.877492,0.000010,1476.877502,1476.877492,1476.877502,147687750.249883,7,-1.000000,""
