{
    "nb_res": 30,
    "jobs": [
        {
            "id": 0,
            "subtime": 0,
            "res": 1,
            "profile": "python3action_modeltraining_reviews50mb"
        },
        {
            "id": 1,
            "subtime": 0,
            "res": 1,
            "profile": "python3action_facedetection_SampleVideo_50mb"
        },
        {
            "id": 2,
            "subtime": 0,
            "res": 1,
            "profile": "python3action_facedetection_SampleVideo_50mb"
        },
        {
            "id": 3,
            "subtime": 0,
            "res": 1,
            "profile": "python3action_chameleon_2000"
        },
        {
            "id": 4,
            "subtime": 0,
            "res": 1,
            "profile": "python3action_videoprocessing_SampleVideo_30mb"
        },
        {
            "id": 5,
            "subtime": 0,
            "res": 1,
            "profile": "python3action_videoprocessing_SampleVideo_30mb"
        },
        {
            "id": 6,
            "subtime": 0,
            "res": 1,
            "profile": "python3action_videoprocessing_SampleVideo_30mb"
        },
        {
            "id": 7,
            "subtime": 0,
            "res": 1,
            "profile": "python3action_imageprocessing_SampleImage_40mb"
        },
        {
            "id": 8,
            "subtime": 0,
            "res": 1,
            "profile": "python3action_modeltraining_reviews50mb"
        },
        {
            "id": 9,
            "subtime": 0,
            "res": 1,
            "profile": "python3action_chameleon_2000"
        },
        {
            "id": 10,
            "subtime": 0,
            "res": 1,
            "profile": "python3action_linpack_6000"
        },
        {
            "id": 11,
            "subtime": 0,
            "res": 1,
            "profile": "python3action_videoprocessing_SampleVideo_30mb"
        },
        {
            "id": 12,
            "subtime": 0,
            "res": 1,
            "profile": "python3action_facedetection_SampleVideo_30mb"
        },
        {
            "id": 13,
            "subtime": 0,
            "res": 1,
            "profile": "python3action_chameleon_3000"
        },
        {
            "id": 14,
            "subtime": 0,
            "res": 1,
            "profile": "python3action_videoprocessing_SampleVideo_50mb"
        },
        {
            "id": 15,
            "subtime": 0,
            "res": 1,
            "profile": "python3action_pyaes_3000"
        },
        {
            "id": 16,
            "subtime": 0,
            "res": 1,
            "profile": "python3action_facedetection_SampleVideo_30mb"
        },
        {
            "id": 17,
            "subtime": 0,
            "res": 1,
            "profile": "python3action_linpack_5000"
        },
        {
            "id": 18,
            "subtime": 0,
            "res": 1,
            "profile": "python3action_floatoperation_100000000"
        },
        {
            "id": 19,
            "subtime": 0,
            "res": 1,
            "profile": "python3action_floatoperation_200000000"
        },
        {
            "id": 20,
            "subtime": 0,
            "res": 1,
            "profile": "python3action_linpack_5000"
        },
        {
            "id": 21,
            "subtime": 0,
            "res": 1,
            "profile": "python3action_floatoperation_200000000"
        },
        {
            "id": 22,
            "subtime": 0,
            "res": 1,
            "profile": "python3action_imageprocessing_SampleImage_60mb"
        },
        {
            "id": 23,
            "subtime": 0,
            "res": 1,
            "profile": "python3action_imageprocessing_SampleImage_60mb"
        },
        {
            "id": 24,
            "subtime": 0,
            "res": 1,
            "profile": "python3action_imageprocessing_SampleImage_60mb"
        },
        {
            "id": 25,
            "subtime": 0,
            "res": 1,
            "profile": "python3action_chameleon_2000"
        },
        {
            "id": 26,
            "subtime": 0,
            "res": 1,
            "profile": "python3action_chameleon_2000"
        },
        {
            "id": 27,
            "subtime": 0,
            "res": 1,
            "profile": "python3action_modeltraining_reviews100mb"
        },
        {
            "id": 28,
            "subtime": 0,
            "res": 1,
            "profile": "python3action_videoprocessing_SampleVideo_30mb"
        },
        {
            "id": 29,
            "subtime": 0,
            "res": 1,
            "profile": "python3action_videoprocessing_SampleVideo_50mb"
        },
        {
            "id": 30,
            "subtime": 0,
            "res": 1,
            "profile": "python3action_pyaes_3000"
        },
        {
            "id": 31,
            "subtime": 0,
            "res": 1,
            "profile": "python3action_floatoperation_200000000"
        },
        {
            "id": 32,
            "subtime": 0,
            "res": 1,
            "profile": "python3action_pyaes_4000"
        },
        {
            "id": 33,
            "subtime": 0,
            "res": 1,
            "profile": "python3action_imageprocessing_SampleImage_40mb"
        },
        {
            "id": 34,
            "subtime": 0,
            "res": 1,
            "profile": "python3action_facedetection_SampleVideo_30mb"
        },
        {
            "id": 35,
            "subtime": 0,
            "res": 1,
            "profile": "python3action_imageprocessing_SampleImage_40mb"
        },
        {
            "id": 36,
            "subtime": 0,
            "res": 1,
            "profile": "python3action_facedetection_SampleVideo_30mb"
        },
        {
            "id": 37,
            "subtime": 0,
            "res": 1,
            "profile": "python3action_pyaes_4000"
        },
        {
            "id": 38,
            "subtime": 0,
            "res": 1,
            "profile": "python3action_floatoperation_100000000"
        },
        {
            "id": 39,
            "subtime": 0,
            "res": 1,
            "profile": "python3action_modeltraining_reviews50mb"
        },
        {
            "id": 40,
            "subtime": 0,
            "res": 1,
            "profile": "python3action_linpack_6000"
        },
        {
            "id": 41,
            "subtime": 0,
            "res": 1,
            "profile": "python3action_facedetection_SampleVideo_30mb"
        },
        {
            "id": 42,
            "subtime": 0,
            "res": 1,
            "profile": "python3action_pyaes_4000"
        },
        {
            "id": 43,
            "subtime": 0,
            "res": 1,
            "profile": "python3action_floatoperation_100000000"
        },
        {
            "id": 44,
            "subtime": 0,
            "res": 1,
            "profile": "python3action_floatoperation_100000000"
        },
        {
            "id": 45,
            "subtime": 0,
            "res": 1,
            "profile": "python3action_modeltraining_reviews50mb"
        },
        {
            "id": 46,
            "subtime": 0,
            "res": 1,
            "profile": "python3action_modeltraining_reviews50mb"
        },
        {
            "id": 47,
            "subtime": 0,
            "res": 1,
            "profile": "python3action_floatoperation_200000000"
        },
        {
            "id": 48,
            "subtime": 0,
            "res": 1,
            "profile": "python3action_modeltraining_reviews50mb"
        },
        {
            "id": 49,
            "subtime": 0,
            "res": 1,
            "profile": "python3action_imageprocessing_SampleImage_40mb"
        },
        {
            "id": 50,
            "subtime": 0,
            "res": 1,
            "profile": "python3action_chameleon_2000"
        },
        {
            "id": 51,
            "subtime": 0,
            "res": 1,
            "profile": "python3action_chameleon_2000"
        },
        {
            "id": 52,
            "subtime": 0,
            "res": 1,
            "profile": "python3action_facedetection_SampleVideo_50mb"
        },
        {
            "id": 53,
            "subtime": 0,
            "res": 1,
            "profile": "python3action_imageprocessing_SampleImage_60mb"
        },
        {
            "id": 54,
            "subtime": 0,
            "res": 1,
            "profile": "python3action_chameleon_3000"
        },
        {
            "id": 55,
            "subtime": 0,
            "res": 1,
            "profile": "python3action_imageprocessing_SampleImage_60mb"
        },
        {
            "id": 56,
            "subtime": 0,
            "res": 1,
            "profile": "python3action_pyaes_4000"
        },
        {
            "id": 57,
            "subtime": 0,
            "res": 1,
            "profile": "python3action_facedetection_SampleVideo_50mb"
        },
        {
            "id": 58,
            "subtime": 0,
            "res": 1,
            "profile": "python3action_linpack_6000"
        },
        {
            "id": 59,
            "subtime": 0,
            "res": 1,
            "profile": "python3action_facedetection_SampleVideo_30mb"
        },
        {
            "id": 60,
            "subtime": 0,
            "res": 1,
            "profile": "python3action_facedetection_SampleVideo_50mb"
        },
        {
            "id": 61,
            "subtime": 0,
            "res": 1,
            "profile": "python3action_videoprocessing_SampleVideo_30mb"
        },
        {
            "id": 62,
            "subtime": 0,
            "res": 1,
            "profile": "python3action_floatoperation_100000000"
        },
        {
            "id": 63,
            "subtime": 0,
            "res": 1,
            "profile": "python3action_floatoperation_200000000"
        },
        {
            "id": 64,
            "subtime": 0,
            "res": 1,
            "profile": "python3action_floatoperation_200000000"
        },
        {
            "id": 65,
            "subtime": 0,
            "res": 1,
            "profile": "python3action_linpack_6000"
        },
        {
            "id": 66,
            "subtime": 0,
            "res": 1,
            "profile": "python3action_facedetection_SampleVideo_30mb"
        },
        {
            "id": 67,
            "subtime": 0,
            "res": 1,
            "profile": "python3action_modeltraining_reviews50mb"
        },
        {
            "id": 68,
            "subtime": 0,
            "res": 1,
            "profile": "python3action_modeltraining_reviews100mb"
        },
        {
            "id": 69,
            "subtime": 0,
            "res": 1,
            "profile": "python3action_imageprocessing_SampleImage_60mb"
        },
        {
            "id": 70,
            "subtime": 0,
            "res": 1,
            "profile": "python3action_linpack_6000"
        },
        {
            "id": 71,
            "subtime": 0,
            "res": 1,
            "profile": "python3action_modeltraining_reviews50mb"
        },
        {
            "id": 72,
            "subtime": 0,
            "res": 1,
            "profile": "python3action_floatoperation_200000000"
        },
        {
            "id": 73,
            "subtime": 0,
            "res": 1,
            "profile": "python3action_floatoperation_100000000"
        },
        {
            "id": 74,
            "subtime": 0,
            "res": 1,
            "profile": "python3action_videoprocessing_SampleVideo_50mb"
        },
        {
            "id": 75,
            "subtime": 0,
            "res": 1,
            "profile": "python3action_videoprocessing_SampleVideo_50mb"
        },
        {
            "id": 76,
            "subtime": 0,
            "res": 1,
            "profile": "python3action_facedetection_SampleVideo_50mb"
        },
        {
            "id": 77,
            "subtime": 0,
            "res": 1,
            "profile": "python3action_videoprocessing_SampleVideo_50mb"
        },
        {
            "id": 78,
            "subtime": 0,
            "res": 1,
            "profile": "python3action_imageprocessing_SampleImage_40mb"
        },
        {
            "id": 79,
            "subtime": 0,
            "res": 1,
            "profile": "python3action_facedetection_SampleVideo_50mb"
        },
        {
            "id": 80,
            "subtime": 0,
            "res": 1,
            "profile": "python3action_floatoperation_200000000"
        },
        {
            "id": 81,
            "subtime": 0,
            "res": 1,
            "profile": "python3action_videoprocessing_SampleVideo_50mb"
        },
        {
            "id": 82,
            "subtime": 0,
            "res": 1,
            "profile": "python3action_pyaes_4000"
        },
        {
            "id": 83,
            "subtime": 0,
            "res": 1,
            "profile": "python3action_linpack_6000"
        },
        {
            "id": 84,
            "subtime": 0,
            "res": 1,
            "profile": "python3action_floatoperation_100000000"
        },
        {
            "id": 85,
            "subtime": 0,
            "res": 1,
            "profile": "python3action_imageprocessing_SampleImage_60mb"
        },
        {
            "id": 86,
            "subtime": 0,
            "res": 1,
            "profile": "python3action_pyaes_3000"
        },
        {
            "id": 87,
            "subtime": 0,
            "res": 1,
            "profile": "python3action_floatoperation_100000000"
        },
        {
            "id": 88,
            "subtime": 0,
            "res": 1,
            "profile": "python3action_facedetection_SampleVideo_30mb"
        },
        {
            "id": 89,
            "subtime": 0,
            "res": 1,
            "profile": "python3action_chameleon_3000"
        },
        {
            "id": 90,
            "subtime": 0,
            "res": 1,
            "profile": "python3action_floatoperation_200000000"
        },
        {
            "id": 91,
            "subtime": 0,
            "res": 1,
            "profile": "python3action_facedetection_SampleVideo_30mb"
        },
        {
            "id": 92,
            "subtime": 0,
            "res": 1,
            "profile": "python3action_facedetection_SampleVideo_50mb"
        },
        {
            "id": 93,
            "subtime": 0,
            "res": 1,
            "profile": "python3action_chameleon_2000"
        },
        {
            "id": 94,
            "subtime": 0,
            "res": 1,
            "profile": "python3action_facedetection_SampleVideo_50mb"
        },
        {
            "id": 95,
            "subtime": 0,
            "res": 1,
            "profile": "python3action_modeltraining_reviews100mb"
        },
        {
            "id": 96,
            "subtime": 0,
            "res": 1,
            "profile": "python3action_floatoperation_200000000"
        },
        {
            "id": 97,
            "subtime": 0,
            "res": 1,
            "profile": "python3action_modeltraining_reviews50mb"
        },
        {
            "id": 98,
            "subtime": 0,
            "res": 1,
            "profile": "python3action_floatoperation_200000000"
        },
        {
            "id": 99,
            "subtime": 0,
            "res": 1,
            "profile": "python3action_facedetection_SampleVideo_30mb"
        },
        {
            "id": 100,
            "subtime": 0,
            "res": 1,
            "profile": "python3action_linpack_6000"
        },
        {
            "id": 101,
            "subtime": 0,
            "res": 1,
            "profile": "python3action_videoprocessing_SampleVideo_50mb"
        },
        {
            "id": 102,
            "subtime": 0,
            "res": 1,
            "profile": "python3action_facedetection_SampleVideo_30mb"
        },
        {
            "id": 103,
            "subtime": 0,
            "res": 1,
            "profile": "python3action_chameleon_2000"
        },
        {
            "id": 104,
            "subtime": 0,
            "res": 1,
            "profile": "python3action_chameleon_2000"
        },
        {
            "id": 105,
            "subtime": 0,
            "res": 1,
            "profile": "python3action_chameleon_2000"
        },
        {
            "id": 106,
            "subtime": 0,
            "res": 1,
            "profile": "python3action_modeltraining_reviews100mb"
        },
        {
            "id": 107,
            "subtime": 0,
            "res": 1,
            "profile": "python3action_facedetection_SampleVideo_30mb"
        },
        {
            "id": 108,
            "subtime": 0,
            "res": 1,
            "profile": "python3action_facedetection_SampleVideo_30mb"
        },
        {
            "id": 109,
            "subtime": 0,
            "res": 1,
            "profile": "python3action_floatoperation_100000000"
        },
        {
            "id": 110,
            "subtime": 0,
            "res": 1,
            "profile": "python3action_chameleon_2000"
        },
        {
            "id": 111,
            "subtime": 0,
            "res": 1,
            "profile": "python3action_imageprocessing_SampleImage_40mb"
        },
        {
            "id": 112,
            "subtime": 0,
            "res": 1,
            "profile": "python3action_pyaes_4000"
        },
        {
            "id": 113,
            "subtime": 0,
            "res": 1,
            "profile": "python3action_facedetection_SampleVideo_50mb"
        },
        {
            "id": 114,
            "subtime": 0,
            "res": 1,
            "profile": "python3action_imageprocessing_SampleImage_60mb"
        },
        {
            "id": 115,
            "subtime": 0,
            "res": 1,
            "profile": "python3action_facedetection_SampleVideo_30mb"
        },
        {
            "id": 116,
            "subtime": 0,
            "res": 1,
            "profile": "python3action_floatoperation_100000000"
        },
        {
            "id": 117,
            "subtime": 0,
            "res": 1,
            "profile": "python3action_modeltraining_reviews100mb"
        },
        {
            "id": 118,
            "subtime": 0,
            "res": 1,
            "profile": "python3action_modeltraining_reviews100mb"
        },
        {
            "id": 119,
            "subtime": 0,
            "res": 1,
            "profile": "python3action_linpack_5000"
        },
        {
            "id": 120,
            "subtime": 0,
            "res": 1,
            "profile": "python3action_facedetection_SampleVideo_30mb"
        },
        {
            "id": 121,
            "subtime": 0,
            "res": 1,
            "profile": "python3action_linpack_6000"
        },
        {
            "id": 122,
            "subtime": 0,
            "res": 1,
            "profile": "python3action_facedetection_SampleVideo_30mb"
        },
        {
            "id": 123,
            "subtime": 0,
            "res": 1,
            "profile": "python3action_floatoperation_200000000"
        },
        {
            "id": 124,
            "subtime": 0,
            "res": 1,
            "profile": "python3action_modeltraining_reviews50mb"
        },
        {
            "id": 125,
            "subtime": 0,
            "res": 1,
            "profile": "python3action_pyaes_4000"
        },
        {
            "id": 126,
            "subtime": 0,
            "res": 1,
            "profile": "python3action_facedetection_SampleVideo_30mb"
        },
        {
            "id": 127,
            "subtime": 0,
            "res": 1,
            "profile": "python3action_imageprocessing_SampleImage_60mb"
        },
        {
            "id": 128,
            "subtime": 0,
            "res": 1,
            "profile": "python3action_chameleon_3000"
        },
        {
            "id": 129,
            "subtime": 0,
            "res": 1,
            "profile": "python3action_pyaes_3000"
        },
        {
            "id": 130,
            "subtime": 0,
            "res": 1,
            "profile": "python3action_facedetection_SampleVideo_30mb"
        },
        {
            "id": 131,
            "subtime": 0,
            "res": 1,
            "profile": "python3action_facedetection_SampleVideo_30mb"
        },
        {
            "id": 132,
            "subtime": 0,
            "res": 1,
            "profile": "python3action_pyaes_3000"
        },
        {
            "id": 133,
            "subtime": 0,
            "res": 1,
            "profile": "python3action_floatoperation_100000000"
        },
        {
            "id": 134,
            "subtime": 0,
            "res": 1,
            "profile": "python3action_videoprocessing_SampleVideo_50mb"
        },
        {
            "id": 135,
            "subtime": 0,
            "res": 1,
            "profile": "python3action_floatoperation_100000000"
        },
        {
            "id": 136,
            "subtime": 0,
            "res": 1,
            "profile": "python3action_modeltraining_reviews50mb"
        },
        {
            "id": 137,
            "subtime": 0,
            "res": 1,
            "profile": "python3action_videoprocessing_SampleVideo_50mb"
        },
        {
            "id": 138,
            "subtime": 0,
            "res": 1,
            "profile": "python3action_imageprocessing_SampleImage_60mb"
        },
        {
            "id": 139,
            "subtime": 0,
            "res": 1,
            "profile": "python3action_videoprocessing_SampleVideo_50mb"
        },
        {
            "id": 140,
            "subtime": 0,
            "res": 1,
            "profile": "python3action_facedetection_SampleVideo_30mb"
        },
        {
            "id": 141,
            "subtime": 0,
            "res": 1,
            "profile": "python3action_chameleon_3000"
        },
        {
            "id": 142,
            "subtime": 0,
            "res": 1,
            "profile": "python3action_floatoperation_200000000"
        },
        {
            "id": 143,
            "subtime": 0,
            "res": 1,
            "profile": "python3action_linpack_5000"
        },
        {
            "id": 144,
            "subtime": 0,
            "res": 1,
            "profile": "python3action_floatoperation_200000000"
        },
        {
            "id": 145,
            "subtime": 0,
            "res": 1,
            "profile": "python3action_videoprocessing_SampleVideo_50mb"
        },
        {
            "id": 146,
            "subtime": 0,
            "res": 1,
            "profile": "python3action_imageprocessing_SampleImage_60mb"
        },
        {
            "id": 147,
            "subtime": 0,
            "res": 1,
            "profile": "python3action_floatoperation_200000000"
        },
        {
            "id": 148,
            "subtime": 0,
            "res": 1,
            "profile": "python3action_videoprocessing_SampleVideo_50mb"
        },
        {
            "id": 149,
            "subtime": 0,
            "res": 1,
            "profile": "python3action_videoprocessing_SampleVideo_50mb"
        },
        {
            "id": 150,
            "subtime": 0,
            "res": 1,
            "profile": "python3action_floatoperation_100000000"
        },
        {
            "id": 151,
            "subtime": 0,
            "res": 1,
            "profile": "python3action_pyaes_3000"
        },
        {
            "id": 152,
            "subtime": 0,
            "res": 1,
            "profile": "python3action_facedetection_SampleVideo_30mb"
        },
        {
            "id": 153,
            "subtime": 0,
            "res": 1,
            "profile": "python3action_chameleon_2000"
        },
        {
            "id": 154,
            "subtime": 0,
            "res": 1,
            "profile": "python3action_videoprocessing_SampleVideo_30mb"
        },
        {
            "id": 155,
            "subtime": 0,
            "res": 1,
            "profile": "python3action_chameleon_2000"
        },
        {
            "id": 156,
            "subtime": 0,
            "res": 1,
            "profile": "python3action_linpack_6000"
        },
        {
            "id": 157,
            "subtime": 0,
            "res": 1,
            "profile": "python3action_linpack_6000"
        },
        {
            "id": 158,
            "subtime": 0,
            "res": 1,
            "profile": "python3action_linpack_5000"
        },
        {
            "id": 159,
            "subtime": 0,
            "res": 1,
            "profile": "python3action_pyaes_3000"
        },
        {
            "id": 160,
            "subtime": 0,
            "res": 1,
            "profile": "python3action_chameleon_3000"
        },
        {
            "id": 161,
            "subtime": 0,
            "res": 1,
            "profile": "python3action_facedetection_SampleVideo_30mb"
        },
        {
            "id": 162,
            "subtime": 0,
            "res": 1,
            "profile": "python3action_facedetection_SampleVideo_50mb"
        },
        {
            "id": 163,
            "subtime": 0,
            "res": 1,
            "profile": "python3action_pyaes_3000"
        },
        {
            "id": 164,
            "subtime": 0,
            "res": 1,
            "profile": "python3action_floatoperation_100000000"
        },
        {
            "id": 165,
            "subtime": 0,
            "res": 1,
            "profile": "python3action_linpack_6000"
        },
        {
            "id": 166,
            "subtime": 0,
            "res": 1,
            "profile": "python3action_pyaes_3000"
        },
        {
            "id": 167,
            "subtime": 0,
            "res": 1,
            "profile": "python3action_floatoperation_100000000"
        },
        {
            "id": 168,
            "subtime": 0,
            "res": 1,
            "profile": "python3action_pyaes_3000"
        },
        {
            "id": 169,
            "subtime": 0,
            "res": 1,
            "profile": "python3action_pyaes_3000"
        },
        {
            "id": 170,
            "subtime": 0,
            "res": 1,
            "profile": "python3action_linpack_6000"
        },
        {
            "id": 171,
            "subtime": 0,
            "res": 1,
            "profile": "python3action_imageprocessing_SampleImage_40mb"
        },
        {
            "id": 172,
            "subtime": 0,
            "res": 1,
            "profile": "python3action_modeltraining_reviews50mb"
        },
        {
            "id": 173,
            "subtime": 0,
            "res": 1,
            "profile": "python3action_facedetection_SampleVideo_50mb"
        },
        {
            "id": 174,
            "subtime": 0,
            "res": 1,
            "profile": "python3action_floatoperation_200000000"
        },
        {
            "id": 175,
            "subtime": 0,
            "res": 1,
            "profile": "python3action_pyaes_4000"
        },
        {
            "id": 176,
            "subtime": 0,
            "res": 1,
            "profile": "python3action_floatoperation_200000000"
        },
        {
            "id": 177,
            "subtime": 0,
            "res": 1,
            "profile": "python3action_videoprocessing_SampleVideo_30mb"
        },
        {
            "id": 178,
            "subtime": 0,
            "res": 1,
            "profile": "python3action_chameleon_3000"
        },
        {
            "id": 179,
            "subtime": 0,
            "res": 1,
            "profile": "python3action_floatoperation_100000000"
        },
        {
            "id": 180,
            "subtime": 0,
            "res": 1,
            "profile": "python3action_chameleon_2000"
        },
        {
            "id": 181,
            "subtime": 0,
            "res": 1,
            "profile": "python3action_linpack_5000"
        },
        {
            "id": 182,
            "subtime": 0,
            "res": 1,
            "profile": "python3action_modeltraining_reviews50mb"
        },
        {
            "id": 183,
            "subtime": 0,
            "res": 1,
            "profile": "python3action_modeltraining_reviews50mb"
        },
        {
            "id": 184,
            "subtime": 0,
            "res": 1,
            "profile": "python3action_videoprocessing_SampleVideo_50mb"
        },
        {
            "id": 185,
            "subtime": 0,
            "res": 1,
            "profile": "python3action_facedetection_SampleVideo_30mb"
        },
        {
            "id": 186,
            "subtime": 0,
            "res": 1,
            "profile": "python3action_linpack_5000"
        },
        {
            "id": 187,
            "subtime": 0,
            "res": 1,
            "profile": "python3action_linpack_5000"
        },
        {
            "id": 188,
            "subtime": 0,
            "res": 1,
            "profile": "python3action_linpack_5000"
        },
        {
            "id": 189,
            "subtime": 0,
            "res": 1,
            "profile": "python3action_facedetection_SampleVideo_30mb"
        },
        {
            "id": 190,
            "subtime": 0,
            "res": 1,
            "profile": "python3action_linpack_5000"
        },
        {
            "id": 191,
            "subtime": 0,
            "res": 1,
            "profile": "python3action_pyaes_3000"
        },
        {
            "id": 192,
            "subtime": 0,
            "res": 1,
            "profile": "python3action_facedetection_SampleVideo_30mb"
        },
        {
            "id": 193,
            "subtime": 0,
            "res": 1,
            "profile": "python3action_modeltraining_reviews50mb"
        },
        {
            "id": 194,
            "subtime": 0,
            "res": 1,
            "profile": "python3action_facedetection_SampleVideo_50mb"
        },
        {
            "id": 195,
            "subtime": 0,
            "res": 1,
            "profile": "python3action_pyaes_4000"
        },
        {
            "id": 196,
            "subtime": 0,
            "res": 1,
            "profile": "python3action_facedetection_SampleVideo_50mb"
        },
        {
            "id": 197,
            "subtime": 0,
            "res": 1,
            "profile": "python3action_modeltraining_reviews100mb"
        },
        {
            "id": 198,
            "subtime": 0,
            "res": 1,
            "profile": "python3action_facedetection_SampleVideo_50mb"
        },
        {
            "id": 199,
            "subtime": 0,
            "res": 1,
            "profile": "python3action_pyaes_4000"
        }
    ],
    "profiles": {
        "python3action_pyaes_4000": {
            "type": "parallel_homogeneous",
            "com": 0,
            "io": 2,
            "cpu": 0,
            "container": {
                "image": "python3action",
                "tag": "pyaes"
            }
        },
        "python3action_pyaes_3000": {
            "type": "parallel_homogeneous",
            "com": 0,
            "io": 2,
            "cpu": 0,
            "container": {
                "image": "python3action",
                "tag": "pyaes"
            }
        },
        "python3action_linpack_6000": {
            "type": "parallel_homogeneous",
            "com": 0,
            "io": 2,
            "cpu": 0,
            "container": {
                "image": "python3action",
                "tag": "linpack"
            }
        },
        "python3action_linpack_5000": {
            "type": "parallel_homogeneous",
            "com": 0,
            "io": 2,
            "cpu": 0,
            "container": {
                "image": "python3action",
                "tag": "linpack"
            }
        },
        "python3action_floatoperation_200000000": {
            "type": "parallel_homogeneous",
            "com": 0,
            "io": 2,
            "cpu": 0,
            "container": {
                "image": "python3action",
                "tag": "floatoperation"
            }
        },
        "python3action_floatoperation_100000000": {
            "type": "parallel_homogeneous",
            "com": 0,
            "io": 2,
            "cpu": 0,
            "container": {
                "image": "python3action",
                "tag": "floatoperation"
            }
        },
        "python3action_chameleon_3000": {
            "type": "parallel_homogeneous",
            "com": 0,
            "io": 2,
            "cpu": 0,
            "container": {
                "image": "python3action",
                "tag": "chameleon"
            }
        },
        "python3action_chameleon_2000": {
            "type": "parallel_homogeneous",
            "com": 0,
            "io": 2,
            "cpu": 0,
            "container": {
                "image": "python3action",
                "tag": "chameleon"
            }
        },
        "python3action_facedetection_SampleVideo_30mb": {
            "type": "parallel_homogeneous",
            "com": 0,
            "io": 2,
            "cpu": 0,
            "container": {
                "image": "python3action",
                "tag": "facedetection"
            }
        },
        "python3action_facedetection_SampleVideo_50mb": {
            "type": "parallel_homogeneous",
            "com": 0,
            "io": 2,
            "cpu": 0,
            "container": {
                "image": "python3action",
                "tag": "facedetection"
            }
        },
        "python3action_imageprocessing_SampleImage_40mb": {
            "type": "parallel_homogeneous",
            "com": 0,
            "io": 2,
            "cpu": 0,
            "container": {
                "image": "python3action",
                "tag": "image_processing"
            }
        },
        "python3action_imageprocessing_SampleImage_60mb": {
            "type": "parallel_homogeneous",
            "com": 0,
            "io": 2,
            "cpu": 0,
            "container": {
                "image": "python3action",
                "tag": "image_processing"
            }
        },
        "python3action_modeltraining_reviews100mb": {
            "type": "parallel_homogeneous",
            "com": 0,
            "io": 2,
            "cpu": 0,
            "container": {
                "image": "python3action",
                "tag": "modeltraining"
            }
        },
        "python3action_modeltraining_reviews50mb": {
            "type": "parallel_homogeneous",
            "com": 0,
            "io": 2,
            "cpu": 0,
            "container": {
                "image": "python3action",
                "tag": "modeltraining"
            }
        },
        "python3action_videoprocessing_SampleVideo_30mb": {
            "type": "parallel_homogeneous",
            "com": 0,
            "io": 2,
            "cpu": 0,
            "container": {
                "image": "python3action",
                "tag": "video_processing"
            }
        },
        "python3action_videoprocessing_SampleVideo_50mb": {
            "type": "parallel_homogeneous",
            "com": 0,
            "io": 2,
            "cpu": 0,
            "container": {
                "image": "python3action",
                "tag": "video_processing"
            }
        }
    }
}