{
    "nb_res": 57,
    "jobs": [
        {
            "id": 0,
            "subtime": 0,
            "res": 1,
            "profile": "python3action_facedetection_SampleVideo_30mb"
        },
        {
            "id": 1,
            "subtime": 0,
            "res": 1,
            "profile": "python3action_modeltraining_reviews50mb"
        },
        {
            "id": 2,
            "subtime": 0,
            "res": 1,
            "profile": "python3action_videoprocessing_SampleVideo_50mb"
        },
        {
            "id": 3,
            "subtime": 0,
            "res": 1,
            "profile": "python3action_facedetection_SampleVideo_30mb"
        },
        {
            "id": 4,
            "subtime": 0,
            "res": 1,
            "profile": "python3action_linpack_6000"
        },
        {
            "id": 5,
            "subtime": 0,
            "res": 1,
            "profile": "python3action_facedetection_SampleVideo_50mb"
        },
        {
            "id": 6,
            "subtime": 0,
            "res": 1,
            "profile": "python3action_imageprocessing_SampleImage_40mb"
        },
        {
            "id": 7,
            "subtime": 0,
            "res": 1,
            "profile": "python3action_pyaes_4000"
        },
        {
            "id": 8,
            "subtime": 0,
            "res": 1,
            "profile": "python3action_linpack_6000"
        },
        {
            "id": 9,
            "subtime": 0,
            "res": 1,
            "profile": "python3action_videoprocessing_SampleVideo_50mb"
        },
        {
            "id": 10,
            "subtime": 0,
            "res": 1,
            "profile": "python3action_pyaes_4000"
        },
        {
            "id": 11,
            "subtime": 0,
            "res": 1,
            "profile": "python3action_linpack_5000"
        },
        {
            "id": 12,
            "subtime": 0,
            "res": 1,
            "profile": "python3action_facedetection_SampleVideo_50mb"
        },
        {
            "id": 13,
            "subtime": 0,
            "res": 1,
            "profile": "python3action_linpack_5000"
        },
        {
            "id": 14,
            "subtime": 0,
            "res": 1,
            "profile": "python3action_facedetection_SampleVideo_50mb"
        },
        {
            "id": 15,
            "subtime": 0,
            "res": 1,
            "profile": "python3action_pyaes_3000"
        },
        {
            "id": 16,
            "subtime": 0,
            "res": 1,
            "profile": "python3action_linpack_6000"
        },
        {
            "id": 17,
            "subtime": 0,
            "res": 1,
            "profile": "python3action_floatoperation_200000000"
        },
        {
            "id": 18,
            "subtime": 0,
            "res": 1,
            "profile": "python3action_facedetection_SampleVideo_30mb"
        },
        {
            "id": 19,
            "subtime": 0,
            "res": 1,
            "profile": "python3action_floatoperation_200000000"
        },
        {
            "id": 20,
            "subtime": 0,
            "res": 1,
            "profile": "python3action_chameleon_3000"
        },
        {
            "id": 21,
            "subtime": 0,
            "res": 1,
            "profile": "python3action_modeltraining_reviews50mb"
        },
        {
            "id": 22,
            "subtime": 0,
            "res": 1,
            "profile": "python3action_linpack_6000"
        },
        {
            "id": 23,
            "subtime": 0,
            "res": 1,
            "profile": "python3action_modeltraining_reviews50mb"
        },
        {
            "id": 24,
            "subtime": 0,
            "res": 1,
            "profile": "python3action_floatoperation_200000000"
        },
        {
            "id": 25,
            "subtime": 0,
            "res": 1,
            "profile": "python3action_pyaes_3000"
        },
        {
            "id": 26,
            "subtime": 0,
            "res": 1,
            "profile": "python3action_pyaes_3000"
        },
        {
            "id": 27,
            "subtime": 0,
            "res": 1,
            "profile": "python3action_floatoperation_100000000"
        },
        {
            "id": 28,
            "subtime": 0,
            "res": 1,
            "profile": "python3action_imageprocessing_SampleImage_40mb"
        },
        {
            "id": 29,
            "subtime": 0,
            "res": 1,
            "profile": "python3action_facedetection_SampleVideo_30mb"
        },
        {
            "id": 30,
            "subtime": 0,
            "res": 1,
            "profile": "python3action_imageprocessing_SampleImage_60mb"
        },
        {
            "id": 31,
            "subtime": 0,
            "res": 1,
            "profile": "python3action_imageprocessing_SampleImage_40mb"
        },
        {
            "id": 32,
            "subtime": 0,
            "res": 1,
            "profile": "python3action_linpack_5000"
        },
        {
            "id": 33,
            "subtime": 0,
            "res": 1,
            "profile": "python3action_modeltraining_reviews50mb"
        },
        {
            "id": 34,
            "subtime": 0,
            "res": 1,
            "profile": "python3action_linpack_6000"
        },
        {
            "id": 35,
            "subtime": 0,
            "res": 1,
            "profile": "python3action_pyaes_4000"
        },
        {
            "id": 36,
            "subtime": 0,
            "res": 1,
            "profile": "python3action_imageprocessing_SampleImage_40mb"
        },
        {
            "id": 37,
            "subtime": 0,
            "res": 1,
            "profile": "python3action_imageprocessing_SampleImage_40mb"
        },
        {
            "id": 38,
            "subtime": 0,
            "res": 1,
            "profile": "python3action_modeltraining_reviews100mb"
        },
        {
            "id": 39,
            "subtime": 0,
            "res": 1,
            "profile": "python3action_facedetection_SampleVideo_30mb"
        },
        {
            "id": 40,
            "subtime": 0,
            "res": 1,
            "profile": "python3action_pyaes_3000"
        },
        {
            "id": 41,
            "subtime": 0,
            "res": 1,
            "profile": "python3action_videoprocessing_SampleVideo_50mb"
        },
        {
            "id": 42,
            "subtime": 0,
            "res": 1,
            "profile": "python3action_imageprocessing_SampleImage_60mb"
        },
        {
            "id": 43,
            "subtime": 0,
            "res": 1,
            "profile": "python3action_chameleon_3000"
        },
        {
            "id": 44,
            "subtime": 0,
            "res": 1,
            "profile": "python3action_imageprocessing_SampleImage_60mb"
        },
        {
            "id": 45,
            "subtime": 0,
            "res": 1,
            "profile": "python3action_floatoperation_200000000"
        },
        {
            "id": 46,
            "subtime": 0,
            "res": 1,
            "profile": "python3action_pyaes_4000"
        },
        {
            "id": 47,
            "subtime": 0,
            "res": 1,
            "profile": "python3action_chameleon_2000"
        },
        {
            "id": 48,
            "subtime": 0,
            "res": 1,
            "profile": "python3action_videoprocessing_SampleVideo_50mb"
        },
        {
            "id": 49,
            "subtime": 0,
            "res": 1,
            "profile": "python3action_modeltraining_reviews50mb"
        },
        {
            "id": 50,
            "subtime": 0,
            "res": 1,
            "profile": "python3action_facedetection_SampleVideo_50mb"
        },
        {
            "id": 51,
            "subtime": 0,
            "res": 1,
            "profile": "python3action_chameleon_3000"
        },
        {
            "id": 52,
            "subtime": 0,
            "res": 1,
            "profile": "python3action_modeltraining_reviews50mb"
        },
        {
            "id": 53,
            "subtime": 0,
            "res": 1,
            "profile": "python3action_modeltraining_reviews100mb"
        },
        {
            "id": 54,
            "subtime": 0,
            "res": 1,
            "profile": "python3action_modeltraining_reviews100mb"
        },
        {
            "id": 55,
            "subtime": 0,
            "res": 1,
            "profile": "python3action_floatoperation_200000000"
        },
        {
            "id": 56,
            "subtime": 0,
            "res": 1,
            "profile": "python3action_videoprocessing_SampleVideo_30mb"
        },
        {
            "id": 57,
            "subtime": 0,
            "res": 1,
            "profile": "python3action_linpack_6000"
        },
        {
            "id": 58,
            "subtime": 0,
            "res": 1,
            "profile": "python3action_modeltraining_reviews100mb"
        },
        {
            "id": 59,
            "subtime": 0,
            "res": 1,
            "profile": "python3action_pyaes_3000"
        },
        {
            "id": 60,
            "subtime": 0,
            "res": 1,
            "profile": "python3action_pyaes_4000"
        },
        {
            "id": 61,
            "subtime": 0,
            "res": 1,
            "profile": "python3action_facedetection_SampleVideo_50mb"
        },
        {
            "id": 62,
            "subtime": 0,
            "res": 1,
            "profile": "python3action_imageprocessing_SampleImage_40mb"
        },
        {
            "id": 63,
            "subtime": 0,
            "res": 1,
            "profile": "python3action_facedetection_SampleVideo_50mb"
        },
        {
            "id": 64,
            "subtime": 0,
            "res": 1,
            "profile": "python3action_floatoperation_100000000"
        },
        {
            "id": 65,
            "subtime": 0,
            "res": 1,
            "profile": "python3action_floatoperation_100000000"
        },
        {
            "id": 66,
            "subtime": 0,
            "res": 1,
            "profile": "python3action_pyaes_4000"
        },
        {
            "id": 67,
            "subtime": 0,
            "res": 1,
            "profile": "python3action_facedetection_SampleVideo_30mb"
        },
        {
            "id": 68,
            "subtime": 0,
            "res": 1,
            "profile": "python3action_pyaes_3000"
        },
        {
            "id": 69,
            "subtime": 0,
            "res": 1,
            "profile": "python3action_modeltraining_reviews100mb"
        },
        {
            "id": 70,
            "subtime": 0,
            "res": 1,
            "profile": "python3action_linpack_5000"
        },
        {
            "id": 71,
            "subtime": 0,
            "res": 1,
            "profile": "python3action_pyaes_4000"
        },
        {
            "id": 72,
            "subtime": 0,
            "res": 1,
            "profile": "python3action_imageprocessing_SampleImage_60mb"
        },
        {
            "id": 73,
            "subtime": 0,
            "res": 1,
            "profile": "python3action_facedetection_SampleVideo_30mb"
        },
        {
            "id": 74,
            "subtime": 0,
            "res": 1,
            "profile": "python3action_videoprocessing_SampleVideo_30mb"
        },
        {
            "id": 75,
            "subtime": 0,
            "res": 1,
            "profile": "python3action_videoprocessing_SampleVideo_30mb"
        },
        {
            "id": 76,
            "subtime": 0,
            "res": 1,
            "profile": "python3action_chameleon_3000"
        },
        {
            "id": 77,
            "subtime": 0,
            "res": 1,
            "profile": "python3action_imageprocessing_SampleImage_40mb"
        },
        {
            "id": 78,
            "subtime": 0,
            "res": 1,
            "profile": "python3action_facedetection_SampleVideo_30mb"
        },
        {
            "id": 79,
            "subtime": 0,
            "res": 1,
            "profile": "python3action_chameleon_2000"
        },
        {
            "id": 80,
            "subtime": 0,
            "res": 1,
            "profile": "python3action_chameleon_2000"
        },
        {
            "id": 81,
            "subtime": 0,
            "res": 1,
            "profile": "python3action_videoprocessing_SampleVideo_50mb"
        },
        {
            "id": 82,
            "subtime": 0,
            "res": 1,
            "profile": "python3action_pyaes_4000"
        },
        {
            "id": 83,
            "subtime": 0,
            "res": 1,
            "profile": "python3action_floatoperation_200000000"
        },
        {
            "id": 84,
            "subtime": 0,
            "res": 1,
            "profile": "python3action_pyaes_4000"
        },
        {
            "id": 85,
            "subtime": 0,
            "res": 1,
            "profile": "python3action_facedetection_SampleVideo_30mb"
        },
        {
            "id": 86,
            "subtime": 0,
            "res": 1,
            "profile": "python3action_videoprocessing_SampleVideo_50mb"
        },
        {
            "id": 87,
            "subtime": 0,
            "res": 1,
            "profile": "python3action_linpack_5000"
        },
        {
            "id": 88,
            "subtime": 0,
            "res": 1,
            "profile": "python3action_floatoperation_100000000"
        },
        {
            "id": 89,
            "subtime": 0,
            "res": 1,
            "profile": "python3action_chameleon_3000"
        },
        {
            "id": 90,
            "subtime": 0,
            "res": 1,
            "profile": "python3action_linpack_6000"
        },
        {
            "id": 91,
            "subtime": 0,
            "res": 1,
            "profile": "python3action_linpack_6000"
        },
        {
            "id": 92,
            "subtime": 0,
            "res": 1,
            "profile": "python3action_linpack_6000"
        },
        {
            "id": 93,
            "subtime": 0,
            "res": 1,
            "profile": "python3action_floatoperation_200000000"
        },
        {
            "id": 94,
            "subtime": 0,
            "res": 1,
            "profile": "python3action_modeltraining_reviews100mb"
        },
        {
            "id": 95,
            "subtime": 0,
            "res": 1,
            "profile": "python3action_floatoperation_100000000"
        },
        {
            "id": 96,
            "subtime": 0,
            "res": 1,
            "profile": "python3action_linpack_6000"
        },
        {
            "id": 97,
            "subtime": 0,
            "res": 1,
            "profile": "python3action_videoprocessing_SampleVideo_30mb"
        },
        {
            "id": 98,
            "subtime": 0,
            "res": 1,
            "profile": "python3action_modeltraining_reviews100mb"
        },
        {
            "id": 99,
            "subtime": 0,
            "res": 1,
            "profile": "python3action_facedetection_SampleVideo_30mb"
        },
        {
            "id": 100,
            "subtime": 0,
            "res": 1,
            "profile": "python3action_modeltraining_reviews100mb"
        },
        {
            "id": 101,
            "subtime": 0,
            "res": 1,
            "profile": "python3action_modeltraining_reviews100mb"
        },
        {
            "id": 102,
            "subtime": 0,
            "res": 1,
            "profile": "python3action_modeltraining_reviews100mb"
        },
        {
            "id": 103,
            "subtime": 0,
            "res": 1,
            "profile": "python3action_floatoperation_100000000"
        },
        {
            "id": 104,
            "subtime": 0,
            "res": 1,
            "profile": "python3action_pyaes_4000"
        },
        {
            "id": 105,
            "subtime": 0,
            "res": 1,
            "profile": "python3action_linpack_6000"
        },
        {
            "id": 106,
            "subtime": 0,
            "res": 1,
            "profile": "python3action_imageprocessing_SampleImage_40mb"
        },
        {
            "id": 107,
            "subtime": 0,
            "res": 1,
            "profile": "python3action_modeltraining_reviews50mb"
        },
        {
            "id": 108,
            "subtime": 0,
            "res": 1,
            "profile": "python3action_chameleon_2000"
        },
        {
            "id": 109,
            "subtime": 0,
            "res": 1,
            "profile": "python3action_imageprocessing_SampleImage_40mb"
        },
        {
            "id": 110,
            "subtime": 0,
            "res": 1,
            "profile": "python3action_imageprocessing_SampleImage_60mb"
        },
        {
            "id": 111,
            "subtime": 0,
            "res": 1,
            "profile": "python3action_videoprocessing_SampleVideo_30mb"
        },
        {
            "id": 112,
            "subtime": 0,
            "res": 1,
            "profile": "python3action_chameleon_3000"
        },
        {
            "id": 113,
            "subtime": 0,
            "res": 1,
            "profile": "python3action_modeltraining_reviews100mb"
        },
        {
            "id": 114,
            "subtime": 0,
            "res": 1,
            "profile": "python3action_pyaes_4000"
        },
        {
            "id": 115,
            "subtime": 0,
            "res": 1,
            "profile": "python3action_modeltraining_reviews50mb"
        },
        {
            "id": 116,
            "subtime": 0,
            "res": 1,
            "profile": "python3action_pyaes_3000"
        },
        {
            "id": 117,
            "subtime": 0,
            "res": 1,
            "profile": "python3action_videoprocessing_SampleVideo_30mb"
        },
        {
            "id": 118,
            "subtime": 0,
            "res": 1,
            "profile": "python3action_pyaes_3000"
        },
        {
            "id": 119,
            "subtime": 0,
            "res": 1,
            "profile": "python3action_chameleon_2000"
        },
        {
            "id": 120,
            "subtime": 0,
            "res": 1,
            "profile": "python3action_chameleon_2000"
        },
        {
            "id": 121,
            "subtime": 0,
            "res": 1,
            "profile": "python3action_chameleon_2000"
        },
        {
            "id": 122,
            "subtime": 0,
            "res": 1,
            "profile": "python3action_pyaes_3000"
        },
        {
            "id": 123,
            "subtime": 0,
            "res": 1,
            "profile": "python3action_pyaes_3000"
        },
        {
            "id": 124,
            "subtime": 0,
            "res": 1,
            "profile": "python3action_linpack_6000"
        },
        {
            "id": 125,
            "subtime": 0,
            "res": 1,
            "profile": "python3action_imageprocessing_SampleImage_60mb"
        },
        {
            "id": 126,
            "subtime": 0,
            "res": 1,
            "profile": "python3action_facedetection_SampleVideo_50mb"
        },
        {
            "id": 127,
            "subtime": 0,
            "res": 1,
            "profile": "python3action_imageprocessing_SampleImage_40mb"
        },
        {
            "id": 128,
            "subtime": 0,
            "res": 1,
            "profile": "python3action_videoprocessing_SampleVideo_30mb"
        },
        {
            "id": 129,
            "subtime": 0,
            "res": 1,
            "profile": "python3action_modeltraining_reviews100mb"
        },
        {
            "id": 130,
            "subtime": 0,
            "res": 1,
            "profile": "python3action_pyaes_3000"
        },
        {
            "id": 131,
            "subtime": 0,
            "res": 1,
            "profile": "python3action_modeltraining_reviews100mb"
        },
        {
            "id": 132,
            "subtime": 0,
            "res": 1,
            "profile": "python3action_videoprocessing_SampleVideo_30mb"
        },
        {
            "id": 133,
            "subtime": 0,
            "res": 1,
            "profile": "python3action_modeltraining_reviews100mb"
        },
        {
            "id": 134,
            "subtime": 0,
            "res": 1,
            "profile": "python3action_pyaes_3000"
        },
        {
            "id": 135,
            "subtime": 0,
            "res": 1,
            "profile": "python3action_modeltraining_reviews100mb"
        },
        {
            "id": 136,
            "subtime": 0,
            "res": 1,
            "profile": "python3action_chameleon_2000"
        },
        {
            "id": 137,
            "subtime": 0,
            "res": 1,
            "profile": "python3action_modeltraining_reviews100mb"
        },
        {
            "id": 138,
            "subtime": 0,
            "res": 1,
            "profile": "python3action_pyaes_3000"
        },
        {
            "id": 139,
            "subtime": 0,
            "res": 1,
            "profile": "python3action_linpack_6000"
        },
        {
            "id": 140,
            "subtime": 0,
            "res": 1,
            "profile": "python3action_imageprocessing_SampleImage_60mb"
        },
        {
            "id": 141,
            "subtime": 0,
            "res": 1,
            "profile": "python3action_facedetection_SampleVideo_30mb"
        },
        {
            "id": 142,
            "subtime": 0,
            "res": 1,
            "profile": "python3action_linpack_6000"
        },
        {
            "id": 143,
            "subtime": 0,
            "res": 1,
            "profile": "python3action_floatoperation_200000000"
        },
        {
            "id": 144,
            "subtime": 0,
            "res": 1,
            "profile": "python3action_modeltraining_reviews100mb"
        },
        {
            "id": 145,
            "subtime": 0,
            "res": 1,
            "profile": "python3action_imageprocessing_SampleImage_40mb"
        },
        {
            "id": 146,
            "subtime": 0,
            "res": 1,
            "profile": "python3action_chameleon_2000"
        },
        {
            "id": 147,
            "subtime": 0,
            "res": 1,
            "profile": "python3action_pyaes_4000"
        },
        {
            "id": 148,
            "subtime": 0,
            "res": 1,
            "profile": "python3action_modeltraining_reviews50mb"
        },
        {
            "id": 149,
            "subtime": 0,
            "res": 1,
            "profile": "python3action_imageprocessing_SampleImage_40mb"
        },
        {
            "id": 150,
            "subtime": 0,
            "res": 1,
            "profile": "python3action_floatoperation_200000000"
        },
        {
            "id": 151,
            "subtime": 0,
            "res": 1,
            "profile": "python3action_linpack_6000"
        },
        {
            "id": 152,
            "subtime": 0,
            "res": 1,
            "profile": "python3action_modeltraining_reviews50mb"
        },
        {
            "id": 153,
            "subtime": 0,
            "res": 1,
            "profile": "python3action_linpack_5000"
        },
        {
            "id": 154,
            "subtime": 0,
            "res": 1,
            "profile": "python3action_floatoperation_200000000"
        },
        {
            "id": 155,
            "subtime": 0,
            "res": 1,
            "profile": "python3action_chameleon_2000"
        },
        {
            "id": 156,
            "subtime": 0,
            "res": 1,
            "profile": "python3action_linpack_6000"
        },
        {
            "id": 157,
            "subtime": 0,
            "res": 1,
            "profile": "python3action_pyaes_4000"
        },
        {
            "id": 158,
            "subtime": 0,
            "res": 1,
            "profile": "python3action_floatoperation_200000000"
        },
        {
            "id": 159,
            "subtime": 0,
            "res": 1,
            "profile": "python3action_facedetection_SampleVideo_50mb"
        },
        {
            "id": 160,
            "subtime": 0,
            "res": 1,
            "profile": "python3action_facedetection_SampleVideo_30mb"
        },
        {
            "id": 161,
            "subtime": 0,
            "res": 1,
            "profile": "python3action_floatoperation_200000000"
        },
        {
            "id": 162,
            "subtime": 0,
            "res": 1,
            "profile": "python3action_imageprocessing_SampleImage_40mb"
        },
        {
            "id": 163,
            "subtime": 0,
            "res": 1,
            "profile": "python3action_modeltraining_reviews100mb"
        },
        {
            "id": 164,
            "subtime": 0,
            "res": 1,
            "profile": "python3action_facedetection_SampleVideo_30mb"
        },
        {
            "id": 165,
            "subtime": 0,
            "res": 1,
            "profile": "python3action_modeltraining_reviews100mb"
        },
        {
            "id": 166,
            "subtime": 0,
            "res": 1,
            "profile": "python3action_chameleon_2000"
        },
        {
            "id": 167,
            "subtime": 0,
            "res": 1,
            "profile": "python3action_pyaes_4000"
        },
        {
            "id": 168,
            "subtime": 0,
            "res": 1,
            "profile": "python3action_chameleon_3000"
        },
        {
            "id": 169,
            "subtime": 0,
            "res": 1,
            "profile": "python3action_linpack_5000"
        },
        {
            "id": 170,
            "subtime": 0,
            "res": 1,
            "profile": "python3action_linpack_5000"
        },
        {
            "id": 171,
            "subtime": 0,
            "res": 1,
            "profile": "python3action_pyaes_3000"
        },
        {
            "id": 172,
            "subtime": 0,
            "res": 1,
            "profile": "python3action_videoprocessing_SampleVideo_50mb"
        },
        {
            "id": 173,
            "subtime": 0,
            "res": 1,
            "profile": "python3action_pyaes_3000"
        },
        {
            "id": 174,
            "subtime": 0,
            "res": 1,
            "profile": "python3action_modeltraining_reviews50mb"
        },
        {
            "id": 175,
            "subtime": 0,
            "res": 1,
            "profile": "python3action_imageprocessing_SampleImage_40mb"
        },
        {
            "id": 176,
            "subtime": 0,
            "res": 1,
            "profile": "python3action_imageprocessing_SampleImage_40mb"
        },
        {
            "id": 177,
            "subtime": 0,
            "res": 1,
            "profile": "python3action_videoprocessing_SampleVideo_30mb"
        },
        {
            "id": 178,
            "subtime": 0,
            "res": 1,
            "profile": "python3action_facedetection_SampleVideo_30mb"
        },
        {
            "id": 179,
            "subtime": 0,
            "res": 1,
            "profile": "python3action_facedetection_SampleVideo_30mb"
        },
        {
            "id": 180,
            "subtime": 0,
            "res": 1,
            "profile": "python3action_facedetection_SampleVideo_30mb"
        },
        {
            "id": 181,
            "subtime": 0,
            "res": 1,
            "profile": "python3action_pyaes_4000"
        },
        {
            "id": 182,
            "subtime": 0,
            "res": 1,
            "profile": "python3action_modeltraining_reviews50mb"
        },
        {
            "id": 183,
            "subtime": 0,
            "res": 1,
            "profile": "python3action_imageprocessing_SampleImage_60mb"
        },
        {
            "id": 184,
            "subtime": 0,
            "res": 1,
            "profile": "python3action_floatoperation_200000000"
        },
        {
            "id": 185,
            "subtime": 0,
            "res": 1,
            "profile": "python3action_videoprocessing_SampleVideo_50mb"
        },
        {
            "id": 186,
            "subtime": 0,
            "res": 1,
            "profile": "python3action_facedetection_SampleVideo_50mb"
        },
        {
            "id": 187,
            "subtime": 0,
            "res": 1,
            "profile": "python3action_chameleon_2000"
        },
        {
            "id": 188,
            "subtime": 0,
            "res": 1,
            "profile": "python3action_linpack_5000"
        },
        {
            "id": 189,
            "subtime": 0,
            "res": 1,
            "profile": "python3action_floatoperation_100000000"
        },
        {
            "id": 190,
            "subtime": 0,
            "res": 1,
            "profile": "python3action_videoprocessing_SampleVideo_30mb"
        },
        {
            "id": 191,
            "subtime": 0,
            "res": 1,
            "profile": "python3action_videoprocessing_SampleVideo_30mb"
        },
        {
            "id": 192,
            "subtime": 0,
            "res": 1,
            "profile": "python3action_linpack_5000"
        },
        {
            "id": 193,
            "subtime": 0,
            "res": 1,
            "profile": "python3action_linpack_6000"
        },
        {
            "id": 194,
            "subtime": 0,
            "res": 1,
            "profile": "python3action_modeltraining_reviews50mb"
        },
        {
            "id": 195,
            "subtime": 0,
            "res": 1,
            "profile": "python3action_imageprocessing_SampleImage_60mb"
        },
        {
            "id": 196,
            "subtime": 0,
            "res": 1,
            "profile": "python3action_chameleon_3000"
        },
        {
            "id": 197,
            "subtime": 0,
            "res": 1,
            "profile": "python3action_imageprocessing_SampleImage_40mb"
        },
        {
            "id": 198,
            "subtime": 0,
            "res": 1,
            "profile": "python3action_floatoperation_200000000"
        },
        {
            "id": 199,
            "subtime": 0,
            "res": 1,
            "profile": "python3action_modeltraining_reviews50mb"
        },
        {
            "id": 200,
            "subtime": 0,
            "res": 1,
            "profile": "python3action_linpack_5000"
        },
        {
            "id": 201,
            "subtime": 0,
            "res": 1,
            "profile": "python3action_videoprocessing_SampleVideo_50mb"
        },
        {
            "id": 202,
            "subtime": 0,
            "res": 1,
            "profile": "python3action_floatoperation_200000000"
        },
        {
            "id": 203,
            "subtime": 0,
            "res": 1,
            "profile": "python3action_modeltraining_reviews50mb"
        },
        {
            "id": 204,
            "subtime": 0,
            "res": 1,
            "profile": "python3action_chameleon_3000"
        },
        {
            "id": 205,
            "subtime": 0,
            "res": 1,
            "profile": "python3action_modeltraining_reviews100mb"
        },
        {
            "id": 206,
            "subtime": 0,
            "res": 1,
            "profile": "python3action_floatoperation_100000000"
        },
        {
            "id": 207,
            "subtime": 0,
            "res": 1,
            "profile": "python3action_facedetection_SampleVideo_30mb"
        },
        {
            "id": 208,
            "subtime": 0,
            "res": 1,
            "profile": "python3action_pyaes_4000"
        },
        {
            "id": 209,
            "subtime": 0,
            "res": 1,
            "profile": "python3action_imageprocessing_SampleImage_60mb"
        },
        {
            "id": 210,
            "subtime": 0,
            "res": 1,
            "profile": "python3action_pyaes_3000"
        },
        {
            "id": 211,
            "subtime": 0,
            "res": 1,
            "profile": "python3action_linpack_5000"
        },
        {
            "id": 212,
            "subtime": 0,
            "res": 1,
            "profile": "python3action_chameleon_2000"
        },
        {
            "id": 213,
            "subtime": 0,
            "res": 1,
            "profile": "python3action_videoprocessing_SampleVideo_50mb"
        },
        {
            "id": 214,
            "subtime": 0,
            "res": 1,
            "profile": "python3action_videoprocessing_SampleVideo_30mb"
        },
        {
            "id": 215,
            "subtime": 0,
            "res": 1,
            "profile": "python3action_imageprocessing_SampleImage_60mb"
        },
        {
            "id": 216,
            "subtime": 0,
            "res": 1,
            "profile": "python3action_floatoperation_200000000"
        },
        {
            "id": 217,
            "subtime": 0,
            "res": 1,
            "profile": "python3action_imageprocessing_SampleImage_60mb"
        },
        {
            "id": 218,
            "subtime": 0,
            "res": 1,
            "profile": "python3action_pyaes_3000"
        },
        {
            "id": 219,
            "subtime": 0,
            "res": 1,
            "profile": "python3action_imageprocessing_SampleImage_40mb"
        },
        {
            "id": 220,
            "subtime": 0,
            "res": 1,
            "profile": "python3action_facedetection_SampleVideo_50mb"
        },
        {
            "id": 221,
            "subtime": 0,
            "res": 1,
            "profile": "python3action_chameleon_3000"
        },
        {
            "id": 222,
            "subtime": 0,
            "res": 1,
            "profile": "python3action_floatoperation_100000000"
        },
        {
            "id": 223,
            "subtime": 0,
            "res": 1,
            "profile": "python3action_facedetection_SampleVideo_50mb"
        },
        {
            "id": 224,
            "subtime": 0,
            "res": 1,
            "profile": "python3action_pyaes_3000"
        },
        {
            "id": 225,
            "subtime": 0,
            "res": 1,
            "profile": "python3action_facedetection_SampleVideo_50mb"
        },
        {
            "id": 226,
            "subtime": 0,
            "res": 1,
            "profile": "python3action_videoprocessing_SampleVideo_50mb"
        },
        {
            "id": 227,
            "subtime": 0,
            "res": 1,
            "profile": "python3action_floatoperation_100000000"
        },
        {
            "id": 228,
            "subtime": 0,
            "res": 1,
            "profile": "python3action_imageprocessing_SampleImage_40mb"
        },
        {
            "id": 229,
            "subtime": 0,
            "res": 1,
            "profile": "python3action_facedetection_SampleVideo_50mb"
        },
        {
            "id": 230,
            "subtime": 0,
            "res": 1,
            "profile": "python3action_modeltraining_reviews50mb"
        },
        {
            "id": 231,
            "subtime": 0,
            "res": 1,
            "profile": "python3action_linpack_5000"
        },
        {
            "id": 232,
            "subtime": 0,
            "res": 1,
            "profile": "python3action_floatoperation_100000000"
        },
        {
            "id": 233,
            "subtime": 0,
            "res": 1,
            "profile": "python3action_floatoperation_100000000"
        },
        {
            "id": 234,
            "subtime": 0,
            "res": 1,
            "profile": "python3action_linpack_5000"
        },
        {
            "id": 235,
            "subtime": 0,
            "res": 1,
            "profile": "python3action_modeltraining_reviews100mb"
        },
        {
            "id": 236,
            "subtime": 0,
            "res": 1,
            "profile": "python3action_modeltraining_reviews100mb"
        },
        {
            "id": 237,
            "subtime": 0,
            "res": 1,
            "profile": "python3action_facedetection_SampleVideo_30mb"
        },
        {
            "id": 238,
            "subtime": 0,
            "res": 1,
            "profile": "python3action_facedetection_SampleVideo_50mb"
        },
        {
            "id": 239,
            "subtime": 0,
            "res": 1,
            "profile": "python3action_linpack_5000"
        },
        {
            "id": 240,
            "subtime": 0,
            "res": 1,
            "profile": "python3action_floatoperation_100000000"
        },
        {
            "id": 241,
            "subtime": 0,
            "res": 1,
            "profile": "python3action_modeltraining_reviews50mb"
        },
        {
            "id": 242,
            "subtime": 0,
            "res": 1,
            "profile": "python3action_imageprocessing_SampleImage_60mb"
        },
        {
            "id": 243,
            "subtime": 0,
            "res": 1,
            "profile": "python3action_floatoperation_200000000"
        },
        {
            "id": 244,
            "subtime": 0,
            "res": 1,
            "profile": "python3action_videoprocessing_SampleVideo_30mb"
        },
        {
            "id": 245,
            "subtime": 0,
            "res": 1,
            "profile": "python3action_videoprocessing_SampleVideo_30mb"
        },
        {
            "id": 246,
            "subtime": 0,
            "res": 1,
            "profile": "python3action_modeltraining_reviews100mb"
        },
        {
            "id": 247,
            "subtime": 0,
            "res": 1,
            "profile": "python3action_modeltraining_reviews100mb"
        },
        {
            "id": 248,
            "subtime": 0,
            "res": 1,
            "profile": "python3action_floatoperation_200000000"
        },
        {
            "id": 249,
            "subtime": 0,
            "res": 1,
            "profile": "python3action_videoprocessing_SampleVideo_50mb"
        },
        {
            "id": 250,
            "subtime": 0,
            "res": 1,
            "profile": "python3action_linpack_5000"
        },
        {
            "id": 251,
            "subtime": 0,
            "res": 1,
            "profile": "python3action_facedetection_SampleVideo_30mb"
        },
        {
            "id": 252,
            "subtime": 0,
            "res": 1,
            "profile": "python3action_linpack_5000"
        },
        {
            "id": 253,
            "subtime": 0,
            "res": 1,
            "profile": "python3action_facedetection_SampleVideo_30mb"
        },
        {
            "id": 254,
            "subtime": 0,
            "res": 1,
            "profile": "python3action_linpack_6000"
        },
        {
            "id": 255,
            "subtime": 0,
            "res": 1,
            "profile": "python3action_facedetection_SampleVideo_50mb"
        },
        {
            "id": 256,
            "subtime": 0,
            "res": 1,
            "profile": "python3action_facedetection_SampleVideo_30mb"
        },
        {
            "id": 257,
            "subtime": 0,
            "res": 1,
            "profile": "python3action_linpack_6000"
        },
        {
            "id": 258,
            "subtime": 0,
            "res": 1,
            "profile": "python3action_floatoperation_200000000"
        },
        {
            "id": 259,
            "subtime": 0,
            "res": 1,
            "profile": "python3action_pyaes_4000"
        },
        {
            "id": 260,
            "subtime": 0,
            "res": 1,
            "profile": "python3action_floatoperation_100000000"
        },
        {
            "id": 261,
            "subtime": 0,
            "res": 1,
            "profile": "python3action_facedetection_SampleVideo_50mb"
        },
        {
            "id": 262,
            "subtime": 0,
            "res": 1,
            "profile": "python3action_pyaes_4000"
        },
        {
            "id": 263,
            "subtime": 0,
            "res": 1,
            "profile": "python3action_pyaes_3000"
        },
        {
            "id": 264,
            "subtime": 0,
            "res": 1,
            "profile": "python3action_linpack_6000"
        },
        {
            "id": 265,
            "subtime": 0,
            "res": 1,
            "profile": "python3action_pyaes_4000"
        },
        {
            "id": 266,
            "subtime": 0,
            "res": 1,
            "profile": "python3action_modeltraining_reviews50mb"
        },
        {
            "id": 267,
            "subtime": 0,
            "res": 1,
            "profile": "python3action_chameleon_2000"
        },
        {
            "id": 268,
            "subtime": 0,
            "res": 1,
            "profile": "python3action_videoprocessing_SampleVideo_30mb"
        },
        {
            "id": 269,
            "subtime": 0,
            "res": 1,
            "profile": "python3action_modeltraining_reviews50mb"
        },
        {
            "id": 270,
            "subtime": 0,
            "res": 1,
            "profile": "python3action_floatoperation_100000000"
        },
        {
            "id": 271,
            "subtime": 0,
            "res": 1,
            "profile": "python3action_facedetection_SampleVideo_30mb"
        },
        {
            "id": 272,
            "subtime": 0,
            "res": 1,
            "profile": "python3action_imageprocessing_SampleImage_60mb"
        },
        {
            "id": 273,
            "subtime": 0,
            "res": 1,
            "profile": "python3action_videoprocessing_SampleVideo_50mb"
        },
        {
            "id": 274,
            "subtime": 0,
            "res": 1,
            "profile": "python3action_pyaes_3000"
        },
        {
            "id": 275,
            "subtime": 0,
            "res": 1,
            "profile": "python3action_facedetection_SampleVideo_50mb"
        },
        {
            "id": 276,
            "subtime": 0,
            "res": 1,
            "profile": "python3action_chameleon_3000"
        },
        {
            "id": 277,
            "subtime": 0,
            "res": 1,
            "profile": "python3action_modeltraining_reviews50mb"
        },
        {
            "id": 278,
            "subtime": 0,
            "res": 1,
            "profile": "python3action_videoprocessing_SampleVideo_30mb"
        },
        {
            "id": 279,
            "subtime": 0,
            "res": 1,
            "profile": "python3action_videoprocessing_SampleVideo_50mb"
        },
        {
            "id": 280,
            "subtime": 0,
            "res": 1,
            "profile": "python3action_linpack_5000"
        },
        {
            "id": 281,
            "subtime": 0,
            "res": 1,
            "profile": "python3action_floatoperation_100000000"
        },
        {
            "id": 282,
            "subtime": 0,
            "res": 1,
            "profile": "python3action_videoprocessing_SampleVideo_30mb"
        },
        {
            "id": 283,
            "subtime": 0,
            "res": 1,
            "profile": "python3action_imageprocessing_SampleImage_40mb"
        },
        {
            "id": 284,
            "subtime": 0,
            "res": 1,
            "profile": "python3action_imageprocessing_SampleImage_60mb"
        },
        {
            "id": 285,
            "subtime": 0,
            "res": 1,
            "profile": "python3action_imageprocessing_SampleImage_60mb"
        },
        {
            "id": 286,
            "subtime": 0,
            "res": 1,
            "profile": "python3action_chameleon_3000"
        },
        {
            "id": 287,
            "subtime": 0,
            "res": 1,
            "profile": "python3action_imageprocessing_SampleImage_40mb"
        },
        {
            "id": 288,
            "subtime": 0,
            "res": 1,
            "profile": "python3action_modeltraining_reviews100mb"
        },
        {
            "id": 289,
            "subtime": 0,
            "res": 1,
            "profile": "python3action_chameleon_3000"
        },
        {
            "id": 290,
            "subtime": 0,
            "res": 1,
            "profile": "python3action_facedetection_SampleVideo_50mb"
        },
        {
            "id": 291,
            "subtime": 0,
            "res": 1,
            "profile": "python3action_chameleon_2000"
        },
        {
            "id": 292,
            "subtime": 0,
            "res": 1,
            "profile": "python3action_floatoperation_200000000"
        },
        {
            "id": 293,
            "subtime": 0,
            "res": 1,
            "profile": "python3action_floatoperation_200000000"
        },
        {
            "id": 294,
            "subtime": 0,
            "res": 1,
            "profile": "python3action_pyaes_4000"
        },
        {
            "id": 295,
            "subtime": 0,
            "res": 1,
            "profile": "python3action_floatoperation_200000000"
        },
        {
            "id": 296,
            "subtime": 0,
            "res": 1,
            "profile": "python3action_videoprocessing_SampleVideo_30mb"
        },
        {
            "id": 297,
            "subtime": 0,
            "res": 1,
            "profile": "python3action_facedetection_SampleVideo_30mb"
        },
        {
            "id": 298,
            "subtime": 0,
            "res": 1,
            "profile": "python3action_videoprocessing_SampleVideo_50mb"
        },
        {
            "id": 299,
            "subtime": 0,
            "res": 1,
            "profile": "python3action_imageprocessing_SampleImage_60mb"
        },
        {
            "id": 300,
            "subtime": 0,
            "res": 1,
            "profile": "python3action_facedetection_SampleVideo_30mb"
        },
        {
            "id": 301,
            "subtime": 0,
            "res": 1,
            "profile": "python3action_linpack_5000"
        },
        {
            "id": 302,
            "subtime": 0,
            "res": 1,
            "profile": "python3action_linpack_6000"
        },
        {
            "id": 303,
            "subtime": 0,
            "res": 1,
            "profile": "python3action_chameleon_3000"
        },
        {
            "id": 304,
            "subtime": 0,
            "res": 1,
            "profile": "python3action_imageprocessing_SampleImage_60mb"
        },
        {
            "id": 305,
            "subtime": 0,
            "res": 1,
            "profile": "python3action_imageprocessing_SampleImage_40mb"
        },
        {
            "id": 306,
            "subtime": 0,
            "res": 1,
            "profile": "python3action_videoprocessing_SampleVideo_30mb"
        },
        {
            "id": 307,
            "subtime": 0,
            "res": 1,
            "profile": "python3action_facedetection_SampleVideo_30mb"
        },
        {
            "id": 308,
            "subtime": 0,
            "res": 1,
            "profile": "python3action_chameleon_2000"
        },
        {
            "id": 309,
            "subtime": 0,
            "res": 1,
            "profile": "python3action_floatoperation_100000000"
        },
        {
            "id": 310,
            "subtime": 0,
            "res": 1,
            "profile": "python3action_modeltraining_reviews50mb"
        },
        {
            "id": 311,
            "subtime": 0,
            "res": 1,
            "profile": "python3action_chameleon_2000"
        },
        {
            "id": 312,
            "subtime": 0,
            "res": 1,
            "profile": "python3action_modeltraining_reviews50mb"
        },
        {
            "id": 313,
            "subtime": 0,
            "res": 1,
            "profile": "python3action_chameleon_3000"
        },
        {
            "id": 314,
            "subtime": 0,
            "res": 1,
            "profile": "python3action_floatoperation_200000000"
        },
        {
            "id": 315,
            "subtime": 0,
            "res": 1,
            "profile": "python3action_facedetection_SampleVideo_50mb"
        },
        {
            "id": 316,
            "subtime": 0,
            "res": 1,
            "profile": "python3action_facedetection_SampleVideo_30mb"
        },
        {
            "id": 317,
            "subtime": 0,
            "res": 1,
            "profile": "python3action_facedetection_SampleVideo_50mb"
        },
        {
            "id": 318,
            "subtime": 0,
            "res": 1,
            "profile": "python3action_imageprocessing_SampleImage_60mb"
        },
        {
            "id": 319,
            "subtime": 0,
            "res": 1,
            "profile": "python3action_pyaes_4000"
        },
        {
            "id": 320,
            "subtime": 0,
            "res": 1,
            "profile": "python3action_videoprocessing_SampleVideo_50mb"
        },
        {
            "id": 321,
            "subtime": 0,
            "res": 1,
            "profile": "python3action_pyaes_4000"
        },
        {
            "id": 322,
            "subtime": 0,
            "res": 1,
            "profile": "python3action_floatoperation_100000000"
        },
        {
            "id": 323,
            "subtime": 0,
            "res": 1,
            "profile": "python3action_videoprocessing_SampleVideo_30mb"
        },
        {
            "id": 324,
            "subtime": 0,
            "res": 1,
            "profile": "python3action_pyaes_4000"
        },
        {
            "id": 325,
            "subtime": 0,
            "res": 1,
            "profile": "python3action_imageprocessing_SampleImage_40mb"
        },
        {
            "id": 326,
            "subtime": 0,
            "res": 1,
            "profile": "python3action_chameleon_3000"
        },
        {
            "id": 327,
            "subtime": 0,
            "res": 1,
            "profile": "python3action_imageprocessing_SampleImage_40mb"
        },
        {
            "id": 328,
            "subtime": 0,
            "res": 1,
            "profile": "python3action_facedetection_SampleVideo_30mb"
        },
        {
            "id": 329,
            "subtime": 0,
            "res": 1,
            "profile": "python3action_linpack_6000"
        },
        {
            "id": 330,
            "subtime": 0,
            "res": 1,
            "profile": "python3action_chameleon_2000"
        },
        {
            "id": 331,
            "subtime": 0,
            "res": 1,
            "profile": "python3action_videoprocessing_SampleVideo_50mb"
        },
        {
            "id": 332,
            "subtime": 0,
            "res": 1,
            "profile": "python3action_chameleon_3000"
        },
        {
            "id": 333,
            "subtime": 0,
            "res": 1,
            "profile": "python3action_videoprocessing_SampleVideo_30mb"
        },
        {
            "id": 334,
            "subtime": 0,
            "res": 1,
            "profile": "python3action_chameleon_2000"
        },
        {
            "id": 335,
            "subtime": 0,
            "res": 1,
            "profile": "python3action_facedetection_SampleVideo_50mb"
        },
        {
            "id": 336,
            "subtime": 0,
            "res": 1,
            "profile": "python3action_floatoperation_100000000"
        },
        {
            "id": 337,
            "subtime": 0,
            "res": 1,
            "profile": "python3action_chameleon_2000"
        },
        {
            "id": 338,
            "subtime": 0,
            "res": 1,
            "profile": "python3action_floatoperation_100000000"
        },
        {
            "id": 339,
            "subtime": 0,
            "res": 1,
            "profile": "python3action_floatoperation_100000000"
        },
        {
            "id": 340,
            "subtime": 0,
            "res": 1,
            "profile": "python3action_videoprocessing_SampleVideo_50mb"
        },
        {
            "id": 341,
            "subtime": 0,
            "res": 1,
            "profile": "python3action_floatoperation_200000000"
        },
        {
            "id": 342,
            "subtime": 0,
            "res": 1,
            "profile": "python3action_chameleon_2000"
        },
        {
            "id": 343,
            "subtime": 0,
            "res": 1,
            "profile": "python3action_facedetection_SampleVideo_50mb"
        },
        {
            "id": 344,
            "subtime": 0,
            "res": 1,
            "profile": "python3action_videoprocessing_SampleVideo_50mb"
        },
        {
            "id": 345,
            "subtime": 0,
            "res": 1,
            "profile": "python3action_videoprocessing_SampleVideo_50mb"
        },
        {
            "id": 346,
            "subtime": 0,
            "res": 1,
            "profile": "python3action_videoprocessing_SampleVideo_30mb"
        },
        {
            "id": 347,
            "subtime": 0,
            "res": 1,
            "profile": "python3action_modeltraining_reviews100mb"
        },
        {
            "id": 348,
            "subtime": 0,
            "res": 1,
            "profile": "python3action_facedetection_SampleVideo_50mb"
        },
        {
            "id": 349,
            "subtime": 0,
            "res": 1,
            "profile": "python3action_modeltraining_reviews50mb"
        },
        {
            "id": 350,
            "subtime": 0,
            "res": 1,
            "profile": "python3action_modeltraining_reviews50mb"
        },
        {
            "id": 351,
            "subtime": 0,
            "res": 1,
            "profile": "python3action_chameleon_2000"
        },
        {
            "id": 352,
            "subtime": 0,
            "res": 1,
            "profile": "python3action_modeltraining_reviews100mb"
        },
        {
            "id": 353,
            "subtime": 0,
            "res": 1,
            "profile": "python3action_facedetection_SampleVideo_30mb"
        },
        {
            "id": 354,
            "subtime": 0,
            "res": 1,
            "profile": "python3action_pyaes_4000"
        },
        {
            "id": 355,
            "subtime": 0,
            "res": 1,
            "profile": "python3action_videoprocessing_SampleVideo_30mb"
        },
        {
            "id": 356,
            "subtime": 0,
            "res": 1,
            "profile": "python3action_videoprocessing_SampleVideo_50mb"
        },
        {
            "id": 357,
            "subtime": 0,
            "res": 1,
            "profile": "python3action_pyaes_3000"
        },
        {
            "id": 358,
            "subtime": 0,
            "res": 1,
            "profile": "python3action_videoprocessing_SampleVideo_50mb"
        },
        {
            "id": 359,
            "subtime": 0,
            "res": 1,
            "profile": "python3action_chameleon_2000"
        },
        {
            "id": 360,
            "subtime": 0,
            "res": 1,
            "profile": "python3action_imageprocessing_SampleImage_40mb"
        },
        {
            "id": 361,
            "subtime": 0,
            "res": 1,
            "profile": "python3action_videoprocessing_SampleVideo_50mb"
        },
        {
            "id": 362,
            "subtime": 0,
            "res": 1,
            "profile": "python3action_modeltraining_reviews50mb"
        },
        {
            "id": 363,
            "subtime": 0,
            "res": 1,
            "profile": "python3action_floatoperation_100000000"
        },
        {
            "id": 364,
            "subtime": 0,
            "res": 1,
            "profile": "python3action_imageprocessing_SampleImage_60mb"
        },
        {
            "id": 365,
            "subtime": 0,
            "res": 1,
            "profile": "python3action_modeltraining_reviews50mb"
        },
        {
            "id": 366,
            "subtime": 0,
            "res": 1,
            "profile": "python3action_imageprocessing_SampleImage_40mb"
        },
        {
            "id": 367,
            "subtime": 0,
            "res": 1,
            "profile": "python3action_chameleon_2000"
        },
        {
            "id": 368,
            "subtime": 0,
            "res": 1,
            "profile": "python3action_pyaes_4000"
        },
        {
            "id": 369,
            "subtime": 0,
            "res": 1,
            "profile": "python3action_modeltraining_reviews50mb"
        },
        {
            "id": 370,
            "subtime": 0,
            "res": 1,
            "profile": "python3action_chameleon_2000"
        },
        {
            "id": 371,
            "subtime": 0,
            "res": 1,
            "profile": "python3action_modeltraining_reviews100mb"
        },
        {
            "id": 372,
            "subtime": 0,
            "res": 1,
            "profile": "python3action_linpack_5000"
        },
        {
            "id": 373,
            "subtime": 0,
            "res": 1,
            "profile": "python3action_pyaes_4000"
        },
        {
            "id": 374,
            "subtime": 0,
            "res": 1,
            "profile": "python3action_chameleon_3000"
        },
        {
            "id": 375,
            "subtime": 0,
            "res": 1,
            "profile": "python3action_facedetection_SampleVideo_30mb"
        },
        {
            "id": 376,
            "subtime": 0,
            "res": 1,
            "profile": "python3action_modeltraining_reviews100mb"
        },
        {
            "id": 377,
            "subtime": 0,
            "res": 1,
            "profile": "python3action_imageprocessing_SampleImage_60mb"
        },
        {
            "id": 378,
            "subtime": 0,
            "res": 1,
            "profile": "python3action_videoprocessing_SampleVideo_30mb"
        },
        {
            "id": 379,
            "subtime": 0,
            "res": 1,
            "profile": "python3action_chameleon_2000"
        },
        {
            "id": 380,
            "subtime": 0,
            "res": 1,
            "profile": "python3action_facedetection_SampleVideo_50mb"
        },
        {
            "id": 381,
            "subtime": 0,
            "res": 1,
            "profile": "python3action_videoprocessing_SampleVideo_50mb"
        },
        {
            "id": 382,
            "subtime": 0,
            "res": 1,
            "profile": "python3action_facedetection_SampleVideo_30mb"
        },
        {
            "id": 383,
            "subtime": 0,
            "res": 1,
            "profile": "python3action_chameleon_3000"
        },
        {
            "id": 384,
            "subtime": 0,
            "res": 1,
            "profile": "python3action_floatoperation_200000000"
        },
        {
            "id": 385,
            "subtime": 0,
            "res": 1,
            "profile": "python3action_imageprocessing_SampleImage_60mb"
        },
        {
            "id": 386,
            "subtime": 0,
            "res": 1,
            "profile": "python3action_chameleon_2000"
        },
        {
            "id": 387,
            "subtime": 0,
            "res": 1,
            "profile": "python3action_linpack_5000"
        },
        {
            "id": 388,
            "subtime": 0,
            "res": 1,
            "profile": "python3action_facedetection_SampleVideo_30mb"
        },
        {
            "id": 389,
            "subtime": 0,
            "res": 1,
            "profile": "python3action_imageprocessing_SampleImage_40mb"
        },
        {
            "id": 390,
            "subtime": 0,
            "res": 1,
            "profile": "python3action_imageprocessing_SampleImage_40mb"
        },
        {
            "id": 391,
            "subtime": 0,
            "res": 1,
            "profile": "python3action_pyaes_4000"
        },
        {
            "id": 392,
            "subtime": 0,
            "res": 1,
            "profile": "python3action_floatoperation_200000000"
        },
        {
            "id": 393,
            "subtime": 0,
            "res": 1,
            "profile": "python3action_videoprocessing_SampleVideo_30mb"
        },
        {
            "id": 394,
            "subtime": 0,
            "res": 1,
            "profile": "python3action_facedetection_SampleVideo_50mb"
        },
        {
            "id": 395,
            "subtime": 0,
            "res": 1,
            "profile": "python3action_floatoperation_200000000"
        },
        {
            "id": 396,
            "subtime": 0,
            "res": 1,
            "profile": "python3action_linpack_5000"
        },
        {
            "id": 397,
            "subtime": 0,
            "res": 1,
            "profile": "python3action_videoprocessing_SampleVideo_30mb"
        },
        {
            "id": 398,
            "subtime": 0,
            "res": 1,
            "profile": "python3action_videoprocessing_SampleVideo_50mb"
        },
        {
            "id": 399,
            "subtime": 0,
            "res": 1,
            "profile": "python3action_linpack_5000"
        },
        {
            "id": 400,
            "subtime": 0,
            "res": 1,
            "profile": "python3action_facedetection_SampleVideo_30mb"
        },
        {
            "id": 401,
            "subtime": 0,
            "res": 1,
            "profile": "python3action_chameleon_2000"
        },
        {
            "id": 402,
            "subtime": 0,
            "res": 1,
            "profile": "python3action_pyaes_4000"
        },
        {
            "id": 403,
            "subtime": 0,
            "res": 1,
            "profile": "python3action_imageprocessing_SampleImage_40mb"
        },
        {
            "id": 404,
            "subtime": 0,
            "res": 1,
            "profile": "python3action_chameleon_2000"
        },
        {
            "id": 405,
            "subtime": 0,
            "res": 1,
            "profile": "python3action_linpack_6000"
        },
        {
            "id": 406,
            "subtime": 0,
            "res": 1,
            "profile": "python3action_floatoperation_200000000"
        },
        {
            "id": 407,
            "subtime": 0,
            "res": 1,
            "profile": "python3action_pyaes_3000"
        },
        {
            "id": 408,
            "subtime": 0,
            "res": 1,
            "profile": "python3action_modeltraining_reviews100mb"
        },
        {
            "id": 409,
            "subtime": 0,
            "res": 1,
            "profile": "python3action_imageprocessing_SampleImage_60mb"
        },
        {
            "id": 410,
            "subtime": 0,
            "res": 1,
            "profile": "python3action_floatoperation_200000000"
        },
        {
            "id": 411,
            "subtime": 0,
            "res": 1,
            "profile": "python3action_floatoperation_200000000"
        },
        {
            "id": 412,
            "subtime": 0,
            "res": 1,
            "profile": "python3action_modeltraining_reviews100mb"
        },
        {
            "id": 413,
            "subtime": 0,
            "res": 1,
            "profile": "python3action_linpack_6000"
        },
        {
            "id": 414,
            "subtime": 0,
            "res": 1,
            "profile": "python3action_floatoperation_100000000"
        },
        {
            "id": 415,
            "subtime": 0,
            "res": 1,
            "profile": "python3action_modeltraining_reviews100mb"
        },
        {
            "id": 416,
            "subtime": 0,
            "res": 1,
            "profile": "python3action_linpack_6000"
        },
        {
            "id": 417,
            "subtime": 0,
            "res": 1,
            "profile": "python3action_floatoperation_100000000"
        },
        {
            "id": 418,
            "subtime": 0,
            "res": 1,
            "profile": "python3action_videoprocessing_SampleVideo_30mb"
        },
        {
            "id": 419,
            "subtime": 0,
            "res": 1,
            "profile": "python3action_imageprocessing_SampleImage_40mb"
        },
        {
            "id": 420,
            "subtime": 0,
            "res": 1,
            "profile": "python3action_imageprocessing_SampleImage_60mb"
        },
        {
            "id": 421,
            "subtime": 0,
            "res": 1,
            "profile": "python3action_videoprocessing_SampleVideo_50mb"
        },
        {
            "id": 422,
            "subtime": 0,
            "res": 1,
            "profile": "python3action_modeltraining_reviews100mb"
        },
        {
            "id": 423,
            "subtime": 0,
            "res": 1,
            "profile": "python3action_floatoperation_100000000"
        },
        {
            "id": 424,
            "subtime": 0,
            "res": 1,
            "profile": "python3action_imageprocessing_SampleImage_40mb"
        },
        {
            "id": 425,
            "subtime": 0,
            "res": 1,
            "profile": "python3action_floatoperation_100000000"
        },
        {
            "id": 426,
            "subtime": 0,
            "res": 1,
            "profile": "python3action_facedetection_SampleVideo_30mb"
        },
        {
            "id": 427,
            "subtime": 0,
            "res": 1,
            "profile": "python3action_pyaes_4000"
        },
        {
            "id": 428,
            "subtime": 0,
            "res": 1,
            "profile": "python3action_floatoperation_100000000"
        },
        {
            "id": 429,
            "subtime": 0,
            "res": 1,
            "profile": "python3action_pyaes_4000"
        },
        {
            "id": 430,
            "subtime": 0,
            "res": 1,
            "profile": "python3action_videoprocessing_SampleVideo_50mb"
        },
        {
            "id": 431,
            "subtime": 0,
            "res": 1,
            "profile": "python3action_floatoperation_100000000"
        },
        {
            "id": 432,
            "subtime": 0,
            "res": 1,
            "profile": "python3action_facedetection_SampleVideo_50mb"
        },
        {
            "id": 433,
            "subtime": 0,
            "res": 1,
            "profile": "python3action_chameleon_2000"
        },
        {
            "id": 434,
            "subtime": 0,
            "res": 1,
            "profile": "python3action_imageprocessing_SampleImage_40mb"
        },
        {
            "id": 435,
            "subtime": 0,
            "res": 1,
            "profile": "python3action_chameleon_3000"
        },
        {
            "id": 436,
            "subtime": 0,
            "res": 1,
            "profile": "python3action_pyaes_4000"
        },
        {
            "id": 437,
            "subtime": 0,
            "res": 1,
            "profile": "python3action_videoprocessing_SampleVideo_30mb"
        },
        {
            "id": 438,
            "subtime": 0,
            "res": 1,
            "profile": "python3action_pyaes_3000"
        },
        {
            "id": 439,
            "subtime": 0,
            "res": 1,
            "profile": "python3action_videoprocessing_SampleVideo_30mb"
        },
        {
            "id": 440,
            "subtime": 0,
            "res": 1,
            "profile": "python3action_imageprocessing_SampleImage_60mb"
        },
        {
            "id": 441,
            "subtime": 0,
            "res": 1,
            "profile": "python3action_pyaes_4000"
        },
        {
            "id": 442,
            "subtime": 0,
            "res": 1,
            "profile": "python3action_linpack_5000"
        },
        {
            "id": 443,
            "subtime": 0,
            "res": 1,
            "profile": "python3action_facedetection_SampleVideo_50mb"
        },
        {
            "id": 444,
            "subtime": 0,
            "res": 1,
            "profile": "python3action_chameleon_3000"
        },
        {
            "id": 445,
            "subtime": 0,
            "res": 1,
            "profile": "python3action_imageprocessing_SampleImage_40mb"
        },
        {
            "id": 446,
            "subtime": 0,
            "res": 1,
            "profile": "python3action_imageprocessing_SampleImage_40mb"
        },
        {
            "id": 447,
            "subtime": 0,
            "res": 1,
            "profile": "python3action_imageprocessing_SampleImage_60mb"
        },
        {
            "id": 448,
            "subtime": 0,
            "res": 1,
            "profile": "python3action_facedetection_SampleVideo_30mb"
        },
        {
            "id": 449,
            "subtime": 0,
            "res": 1,
            "profile": "python3action_modeltraining_reviews100mb"
        },
        {
            "id": 450,
            "subtime": 0,
            "res": 1,
            "profile": "python3action_chameleon_3000"
        },
        {
            "id": 451,
            "subtime": 0,
            "res": 1,
            "profile": "python3action_pyaes_3000"
        },
        {
            "id": 452,
            "subtime": 0,
            "res": 1,
            "profile": "python3action_videoprocessing_SampleVideo_50mb"
        },
        {
            "id": 453,
            "subtime": 0,
            "res": 1,
            "profile": "python3action_pyaes_4000"
        },
        {
            "id": 454,
            "subtime": 0,
            "res": 1,
            "profile": "python3action_chameleon_3000"
        },
        {
            "id": 455,
            "subtime": 0,
            "res": 1,
            "profile": "python3action_imageprocessing_SampleImage_40mb"
        },
        {
            "id": 456,
            "subtime": 0,
            "res": 1,
            "profile": "python3action_pyaes_3000"
        },
        {
            "id": 457,
            "subtime": 0,
            "res": 1,
            "profile": "python3action_linpack_5000"
        },
        {
            "id": 458,
            "subtime": 0,
            "res": 1,
            "profile": "python3action_chameleon_2000"
        },
        {
            "id": 459,
            "subtime": 0,
            "res": 1,
            "profile": "python3action_videoprocessing_SampleVideo_30mb"
        },
        {
            "id": 460,
            "subtime": 0,
            "res": 1,
            "profile": "python3action_pyaes_3000"
        },
        {
            "id": 461,
            "subtime": 0,
            "res": 1,
            "profile": "python3action_floatoperation_200000000"
        },
        {
            "id": 462,
            "subtime": 0,
            "res": 1,
            "profile": "python3action_chameleon_2000"
        },
        {
            "id": 463,
            "subtime": 0,
            "res": 1,
            "profile": "python3action_floatoperation_200000000"
        },
        {
            "id": 464,
            "subtime": 0,
            "res": 1,
            "profile": "python3action_imageprocessing_SampleImage_40mb"
        },
        {
            "id": 465,
            "subtime": 0,
            "res": 1,
            "profile": "python3action_modeltraining_reviews50mb"
        },
        {
            "id": 466,
            "subtime": 0,
            "res": 1,
            "profile": "python3action_linpack_6000"
        },
        {
            "id": 467,
            "subtime": 0,
            "res": 1,
            "profile": "python3action_floatoperation_200000000"
        },
        {
            "id": 468,
            "subtime": 0,
            "res": 1,
            "profile": "python3action_chameleon_2000"
        },
        {
            "id": 469,
            "subtime": 0,
            "res": 1,
            "profile": "python3action_imageprocessing_SampleImage_60mb"
        },
        {
            "id": 470,
            "subtime": 0,
            "res": 1,
            "profile": "python3action_imageprocessing_SampleImage_40mb"
        },
        {
            "id": 471,
            "subtime": 0,
            "res": 1,
            "profile": "python3action_linpack_5000"
        },
        {
            "id": 472,
            "subtime": 0,
            "res": 1,
            "profile": "python3action_floatoperation_100000000"
        },
        {
            "id": 473,
            "subtime": 0,
            "res": 1,
            "profile": "python3action_videoprocessing_SampleVideo_50mb"
        },
        {
            "id": 474,
            "subtime": 0,
            "res": 1,
            "profile": "python3action_chameleon_3000"
        },
        {
            "id": 475,
            "subtime": 0,
            "res": 1,
            "profile": "python3action_floatoperation_100000000"
        },
        {
            "id": 476,
            "subtime": 0,
            "res": 1,
            "profile": "python3action_videoprocessing_SampleVideo_30mb"
        },
        {
            "id": 477,
            "subtime": 0,
            "res": 1,
            "profile": "python3action_chameleon_2000"
        },
        {
            "id": 478,
            "subtime": 0,
            "res": 1,
            "profile": "python3action_floatoperation_200000000"
        },
        {
            "id": 479,
            "subtime": 0,
            "res": 1,
            "profile": "python3action_chameleon_3000"
        },
        {
            "id": 480,
            "subtime": 0,
            "res": 1,
            "profile": "python3action_pyaes_3000"
        },
        {
            "id": 481,
            "subtime": 0,
            "res": 1,
            "profile": "python3action_imageprocessing_SampleImage_40mb"
        },
        {
            "id": 482,
            "subtime": 0,
            "res": 1,
            "profile": "python3action_modeltraining_reviews100mb"
        },
        {
            "id": 483,
            "subtime": 0,
            "res": 1,
            "profile": "python3action_videoprocessing_SampleVideo_50mb"
        },
        {
            "id": 484,
            "subtime": 0,
            "res": 1,
            "profile": "python3action_floatoperation_100000000"
        },
        {
            "id": 485,
            "subtime": 0,
            "res": 1,
            "profile": "python3action_facedetection_SampleVideo_30mb"
        },
        {
            "id": 486,
            "subtime": 0,
            "res": 1,
            "profile": "python3action_videoprocessing_SampleVideo_50mb"
        },
        {
            "id": 487,
            "subtime": 0,
            "res": 1,
            "profile": "python3action_floatoperation_200000000"
        },
        {
            "id": 488,
            "subtime": 0,
            "res": 1,
            "profile": "python3action_videoprocessing_SampleVideo_50mb"
        },
        {
            "id": 489,
            "subtime": 0,
            "res": 1,
            "profile": "python3action_videoprocessing_SampleVideo_50mb"
        },
        {
            "id": 490,
            "subtime": 0,
            "res": 1,
            "profile": "python3action_videoprocessing_SampleVideo_30mb"
        },
        {
            "id": 491,
            "subtime": 0,
            "res": 1,
            "profile": "python3action_videoprocessing_SampleVideo_30mb"
        },
        {
            "id": 492,
            "subtime": 0,
            "res": 1,
            "profile": "python3action_floatoperation_200000000"
        },
        {
            "id": 493,
            "subtime": 0,
            "res": 1,
            "profile": "python3action_videoprocessing_SampleVideo_30mb"
        },
        {
            "id": 494,
            "subtime": 0,
            "res": 1,
            "profile": "python3action_chameleon_2000"
        },
        {
            "id": 495,
            "subtime": 0,
            "res": 1,
            "profile": "python3action_facedetection_SampleVideo_30mb"
        },
        {
            "id": 496,
            "subtime": 0,
            "res": 1,
            "profile": "python3action_facedetection_SampleVideo_30mb"
        },
        {
            "id": 497,
            "subtime": 0,
            "res": 1,
            "profile": "python3action_facedetection_SampleVideo_30mb"
        },
        {
            "id": 498,
            "subtime": 0,
            "res": 1,
            "profile": "python3action_floatoperation_200000000"
        },
        {
            "id": 499,
            "subtime": 0,
            "res": 1,
            "profile": "python3action_linpack_5000"
        },
        {
            "id": 500,
            "subtime": 0,
            "res": 1,
            "profile": "python3action_modeltraining_reviews100mb"
        },
        {
            "id": 501,
            "subtime": 0,
            "res": 1,
            "profile": "python3action_linpack_5000"
        },
        {
            "id": 502,
            "subtime": 0,
            "res": 1,
            "profile": "python3action_videoprocessing_SampleVideo_30mb"
        },
        {
            "id": 503,
            "subtime": 0,
            "res": 1,
            "profile": "python3action_pyaes_3000"
        },
        {
            "id": 504,
            "subtime": 0,
            "res": 1,
            "profile": "python3action_modeltraining_reviews100mb"
        },
        {
            "id": 505,
            "subtime": 0,
            "res": 1,
            "profile": "python3action_pyaes_3000"
        },
        {
            "id": 506,
            "subtime": 0,
            "res": 1,
            "profile": "python3action_linpack_6000"
        },
        {
            "id": 507,
            "subtime": 0,
            "res": 1,
            "profile": "python3action_pyaes_3000"
        },
        {
            "id": 508,
            "subtime": 0,
            "res": 1,
            "profile": "python3action_chameleon_2000"
        },
        {
            "id": 509,
            "subtime": 0,
            "res": 1,
            "profile": "python3action_pyaes_4000"
        },
        {
            "id": 510,
            "subtime": 0,
            "res": 1,
            "profile": "python3action_pyaes_4000"
        },
        {
            "id": 511,
            "subtime": 0,
            "res": 1,
            "profile": "python3action_chameleon_2000"
        },
        {
            "id": 512,
            "subtime": 0,
            "res": 1,
            "profile": "python3action_videoprocessing_SampleVideo_30mb"
        },
        {
            "id": 513,
            "subtime": 0,
            "res": 1,
            "profile": "python3action_pyaes_3000"
        },
        {
            "id": 514,
            "subtime": 0,
            "res": 1,
            "profile": "python3action_chameleon_3000"
        },
        {
            "id": 515,
            "subtime": 0,
            "res": 1,
            "profile": "python3action_chameleon_2000"
        },
        {
            "id": 516,
            "subtime": 0,
            "res": 1,
            "profile": "python3action_pyaes_4000"
        },
        {
            "id": 517,
            "subtime": 0,
            "res": 1,
            "profile": "python3action_imageprocessing_SampleImage_60mb"
        },
        {
            "id": 518,
            "subtime": 0,
            "res": 1,
            "profile": "python3action_facedetection_SampleVideo_50mb"
        },
        {
            "id": 519,
            "subtime": 0,
            "res": 1,
            "profile": "python3action_pyaes_4000"
        },
        {
            "id": 520,
            "subtime": 0,
            "res": 1,
            "profile": "python3action_chameleon_2000"
        },
        {
            "id": 521,
            "subtime": 0,
            "res": 1,
            "profile": "python3action_facedetection_SampleVideo_30mb"
        },
        {
            "id": 522,
            "subtime": 0,
            "res": 1,
            "profile": "python3action_modeltraining_reviews100mb"
        },
        {
            "id": 523,
            "subtime": 0,
            "res": 1,
            "profile": "python3action_floatoperation_100000000"
        },
        {
            "id": 524,
            "subtime": 0,
            "res": 1,
            "profile": "python3action_floatoperation_100000000"
        },
        {
            "id": 525,
            "subtime": 0,
            "res": 1,
            "profile": "python3action_chameleon_3000"
        },
        {
            "id": 526,
            "subtime": 0,
            "res": 1,
            "profile": "python3action_videoprocessing_SampleVideo_30mb"
        },
        {
            "id": 527,
            "subtime": 0,
            "res": 1,
            "profile": "python3action_modeltraining_reviews100mb"
        },
        {
            "id": 528,
            "subtime": 0,
            "res": 1,
            "profile": "python3action_pyaes_4000"
        },
        {
            "id": 529,
            "subtime": 0,
            "res": 1,
            "profile": "python3action_floatoperation_200000000"
        },
        {
            "id": 530,
            "subtime": 0,
            "res": 1,
            "profile": "python3action_chameleon_2000"
        },
        {
            "id": 531,
            "subtime": 0,
            "res": 1,
            "profile": "python3action_facedetection_SampleVideo_30mb"
        },
        {
            "id": 532,
            "subtime": 0,
            "res": 1,
            "profile": "python3action_videoprocessing_SampleVideo_30mb"
        },
        {
            "id": 533,
            "subtime": 0,
            "res": 1,
            "profile": "python3action_imageprocessing_SampleImage_60mb"
        },
        {
            "id": 534,
            "subtime": 0,
            "res": 1,
            "profile": "python3action_linpack_6000"
        },
        {
            "id": 535,
            "subtime": 0,
            "res": 1,
            "profile": "python3action_videoprocessing_SampleVideo_50mb"
        },
        {
            "id": 536,
            "subtime": 0,
            "res": 1,
            "profile": "python3action_linpack_6000"
        },
        {
            "id": 537,
            "subtime": 0,
            "res": 1,
            "profile": "python3action_pyaes_3000"
        },
        {
            "id": 538,
            "subtime": 0,
            "res": 1,
            "profile": "python3action_facedetection_SampleVideo_30mb"
        },
        {
            "id": 539,
            "subtime": 0,
            "res": 1,
            "profile": "python3action_floatoperation_200000000"
        },
        {
            "id": 540,
            "subtime": 0,
            "res": 1,
            "profile": "python3action_chameleon_3000"
        },
        {
            "id": 541,
            "subtime": 0,
            "res": 1,
            "profile": "python3action_pyaes_3000"
        },
        {
            "id": 542,
            "subtime": 0,
            "res": 1,
            "profile": "python3action_modeltraining_reviews100mb"
        },
        {
            "id": 543,
            "subtime": 0,
            "res": 1,
            "profile": "python3action_modeltraining_reviews50mb"
        },
        {
            "id": 544,
            "subtime": 0,
            "res": 1,
            "profile": "python3action_linpack_5000"
        },
        {
            "id": 545,
            "subtime": 0,
            "res": 1,
            "profile": "python3action_facedetection_SampleVideo_30mb"
        },
        {
            "id": 546,
            "subtime": 0,
            "res": 1,
            "profile": "python3action_chameleon_3000"
        },
        {
            "id": 547,
            "subtime": 0,
            "res": 1,
            "profile": "python3action_pyaes_3000"
        },
        {
            "id": 548,
            "subtime": 0,
            "res": 1,
            "profile": "python3action_chameleon_3000"
        },
        {
            "id": 549,
            "subtime": 0,
            "res": 1,
            "profile": "python3action_videoprocessing_SampleVideo_30mb"
        },
        {
            "id": 550,
            "subtime": 0,
            "res": 1,
            "profile": "python3action_imageprocessing_SampleImage_40mb"
        },
        {
            "id": 551,
            "subtime": 0,
            "res": 1,
            "profile": "python3action_chameleon_2000"
        },
        {
            "id": 552,
            "subtime": 0,
            "res": 1,
            "profile": "python3action_chameleon_3000"
        },
        {
            "id": 553,
            "subtime": 0,
            "res": 1,
            "profile": "python3action_modeltraining_reviews100mb"
        },
        {
            "id": 554,
            "subtime": 0,
            "res": 1,
            "profile": "python3action_imageprocessing_SampleImage_40mb"
        },
        {
            "id": 555,
            "subtime": 0,
            "res": 1,
            "profile": "python3action_modeltraining_reviews50mb"
        },
        {
            "id": 556,
            "subtime": 0,
            "res": 1,
            "profile": "python3action_videoprocessing_SampleVideo_30mb"
        },
        {
            "id": 557,
            "subtime": 0,
            "res": 1,
            "profile": "python3action_floatoperation_100000000"
        },
        {
            "id": 558,
            "subtime": 0,
            "res": 1,
            "profile": "python3action_modeltraining_reviews50mb"
        },
        {
            "id": 559,
            "subtime": 0,
            "res": 1,
            "profile": "python3action_linpack_6000"
        },
        {
            "id": 560,
            "subtime": 0,
            "res": 1,
            "profile": "python3action_floatoperation_100000000"
        },
        {
            "id": 561,
            "subtime": 0,
            "res": 1,
            "profile": "python3action_chameleon_2000"
        },
        {
            "id": 562,
            "subtime": 0,
            "res": 1,
            "profile": "python3action_modeltraining_reviews50mb"
        },
        {
            "id": 563,
            "subtime": 0,
            "res": 1,
            "profile": "python3action_linpack_6000"
        },
        {
            "id": 564,
            "subtime": 0,
            "res": 1,
            "profile": "python3action_linpack_6000"
        },
        {
            "id": 565,
            "subtime": 0,
            "res": 1,
            "profile": "python3action_imageprocessing_SampleImage_60mb"
        },
        {
            "id": 566,
            "subtime": 0,
            "res": 1,
            "profile": "python3action_pyaes_4000"
        },
        {
            "id": 567,
            "subtime": 0,
            "res": 1,
            "profile": "python3action_imageprocessing_SampleImage_60mb"
        },
        {
            "id": 568,
            "subtime": 0,
            "res": 1,
            "profile": "python3action_floatoperation_100000000"
        },
        {
            "id": 569,
            "subtime": 0,
            "res": 1,
            "profile": "python3action_chameleon_3000"
        },
        {
            "id": 570,
            "subtime": 0,
            "res": 1,
            "profile": "python3action_facedetection_SampleVideo_50mb"
        },
        {
            "id": 571,
            "subtime": 0,
            "res": 1,
            "profile": "python3action_facedetection_SampleVideo_30mb"
        },
        {
            "id": 572,
            "subtime": 0,
            "res": 1,
            "profile": "python3action_chameleon_3000"
        },
        {
            "id": 573,
            "subtime": 0,
            "res": 1,
            "profile": "python3action_linpack_6000"
        },
        {
            "id": 574,
            "subtime": 0,
            "res": 1,
            "profile": "python3action_pyaes_3000"
        },
        {
            "id": 575,
            "subtime": 0,
            "res": 1,
            "profile": "python3action_pyaes_3000"
        },
        {
            "id": 576,
            "subtime": 0,
            "res": 1,
            "profile": "python3action_facedetection_SampleVideo_30mb"
        },
        {
            "id": 577,
            "subtime": 0,
            "res": 1,
            "profile": "python3action_imageprocessing_SampleImage_60mb"
        },
        {
            "id": 578,
            "subtime": 0,
            "res": 1,
            "profile": "python3action_floatoperation_200000000"
        },
        {
            "id": 579,
            "subtime": 0,
            "res": 1,
            "profile": "python3action_linpack_5000"
        },
        {
            "id": 580,
            "subtime": 0,
            "res": 1,
            "profile": "python3action_floatoperation_100000000"
        },
        {
            "id": 581,
            "subtime": 0,
            "res": 1,
            "profile": "python3action_chameleon_3000"
        },
        {
            "id": 582,
            "subtime": 0,
            "res": 1,
            "profile": "python3action_floatoperation_100000000"
        },
        {
            "id": 583,
            "subtime": 0,
            "res": 1,
            "profile": "python3action_pyaes_4000"
        },
        {
            "id": 584,
            "subtime": 0,
            "res": 1,
            "profile": "python3action_modeltraining_reviews50mb"
        },
        {
            "id": 585,
            "subtime": 0,
            "res": 1,
            "profile": "python3action_pyaes_3000"
        },
        {
            "id": 586,
            "subtime": 0,
            "res": 1,
            "profile": "python3action_chameleon_2000"
        },
        {
            "id": 587,
            "subtime": 0,
            "res": 1,
            "profile": "python3action_chameleon_3000"
        },
        {
            "id": 588,
            "subtime": 0,
            "res": 1,
            "profile": "python3action_chameleon_2000"
        },
        {
            "id": 589,
            "subtime": 0,
            "res": 1,
            "profile": "python3action_linpack_6000"
        },
        {
            "id": 590,
            "subtime": 0,
            "res": 1,
            "profile": "python3action_chameleon_3000"
        },
        {
            "id": 591,
            "subtime": 0,
            "res": 1,
            "profile": "python3action_chameleon_2000"
        },
        {
            "id": 592,
            "subtime": 0,
            "res": 1,
            "profile": "python3action_modeltraining_reviews50mb"
        },
        {
            "id": 593,
            "subtime": 0,
            "res": 1,
            "profile": "python3action_imageprocessing_SampleImage_40mb"
        },
        {
            "id": 594,
            "subtime": 0,
            "res": 1,
            "profile": "python3action_floatoperation_100000000"
        },
        {
            "id": 595,
            "subtime": 0,
            "res": 1,
            "profile": "python3action_modeltraining_reviews100mb"
        },
        {
            "id": 596,
            "subtime": 0,
            "res": 1,
            "profile": "python3action_linpack_5000"
        },
        {
            "id": 597,
            "subtime": 0,
            "res": 1,
            "profile": "python3action_facedetection_SampleVideo_30mb"
        },
        {
            "id": 598,
            "subtime": 0,
            "res": 1,
            "profile": "python3action_linpack_5000"
        },
        {
            "id": 599,
            "subtime": 0,
            "res": 1,
            "profile": "python3action_facedetection_SampleVideo_30mb"
        }
    ],
    "profiles": {
        "python3action_pyaes_4000": {
            "type": "parallel_homogeneous",
            "com": 0,
            "io": 2,
            "cpu": 0,
            "container": {
                "image": "python3action",
                "tag": "pyaes"
            }
        },
        "python3action_pyaes_3000": {
            "type": "parallel_homogeneous",
            "com": 0,
            "io": 2,
            "cpu": 0,
            "container": {
                "image": "python3action",
                "tag": "pyaes"
            }
        },
        "python3action_linpack_6000": {
            "type": "parallel_homogeneous",
            "com": 0,
            "io": 2,
            "cpu": 0,
            "container": {
                "image": "python3action",
                "tag": "linpack"
            }
        },
        "python3action_linpack_5000": {
            "type": "parallel_homogeneous",
            "com": 0,
            "io": 2,
            "cpu": 0,
            "container": {
                "image": "python3action",
                "tag": "linpack"
            }
        },
        "python3action_floatoperation_200000000": {
            "type": "parallel_homogeneous",
            "com": 0,
            "io": 2,
            "cpu": 0,
            "container": {
                "image": "python3action",
                "tag": "floatoperation"
            }
        },
        "python3action_floatoperation_100000000": {
            "type": "parallel_homogeneous",
            "com": 0,
            "io": 2,
            "cpu": 0,
            "container": {
                "image": "python3action",
                "tag": "floatoperation"
            }
        },
        "python3action_chameleon_3000": {
            "type": "parallel_homogeneous",
            "com": 0,
            "io": 2,
            "cpu": 0,
            "container": {
                "image": "python3action",
                "tag": "chameleon"
            }
        },
        "python3action_chameleon_2000": {
            "type": "parallel_homogeneous",
            "com": 0,
            "io": 2,
            "cpu": 0,
            "container": {
                "image": "python3action",
                "tag": "chameleon"
            }
        },
        "python3action_facedetection_SampleVideo_30mb": {
            "type": "parallel_homogeneous",
            "com": 0,
            "io": 2,
            "cpu": 0,
            "container": {
                "image": "python3action",
                "tag": "facedetection"
            }
        },
        "python3action_facedetection_SampleVideo_50mb": {
            "type": "parallel_homogeneous",
            "com": 0,
            "io": 2,
            "cpu": 0,
            "container": {
                "image": "python3action",
                "tag": "facedetection"
            }
        },
        "python3action_imageprocessing_SampleImage_40mb": {
            "type": "parallel_homogeneous",
            "com": 0,
            "io": 2,
            "cpu": 0,
            "container": {
                "image": "python3action",
                "tag": "image_processing"
            }
        },
        "python3action_imageprocessing_SampleImage_60mb": {
            "type": "parallel_homogeneous",
            "com": 0,
            "io": 2,
            "cpu": 0,
            "container": {
                "image": "python3action",
                "tag": "image_processing"
            }
        },
        "python3action_modeltraining_reviews100mb": {
            "type": "parallel_homogeneous",
            "com": 0,
            "io": 2,
            "cpu": 0,
            "container": {
                "image": "python3action",
                "tag": "modeltraining"
            }
        },
        "python3action_modeltraining_reviews50mb": {
            "type": "parallel_homogeneous",
            "com": 0,
            "io": 2,
            "cpu": 0,
            "container": {
                "image": "python3action",
                "tag": "modeltraining"
            }
        },
        "python3action_videoprocessing_SampleVideo_30mb": {
            "type": "parallel_homogeneous",
            "com": 0,
            "io": 2,
            "cpu": 0,
            "container": {
                "image": "python3action",
                "tag": "video_processing"
            }
        },
        "python3action_videoprocessing_SampleVideo_50mb": {
            "type": "parallel_homogeneous",
            "com": 0,
            "io": 2,
            "cpu": 0,
            "container": {
                "image": "python3action",
                "tag": "video_processing"
            }
        }
    }
}