job_id,workload_name,profile,submission_time,requested_number_of_resources,requested_time,success,final_state,starting_time,execution_time,finish_time,waiting_time,turnaround_time,stretch,allocated_resources,consumed_energy,metadata
python3action_chameleon_job114_0,w0,python3action_chameleon,0.997085,1,2000.000000,1,COMPLETED_SUCCESSFULLY,1.002100,0.243006,1.245106,0.005015,0.248021,1.020637,0,-1.000000,""
python3action_pyaes_job120_3,w0,python3action_pyaes,0.997085,1,2000.000000,1,COMPLETED_SUCCESSFULLY,1.002145,0.697503,1.699648,0.005060,0.702563,1.007254,3,-1.000000,""
python3action_chameleon_job116_6,w0,python3action_chameleon,0.997085,1,2000.000000,1,COMPLETED_SUCCESSFULLY,1.002190,2.134958,3.137148,0.005105,2.140063,1.002391,6,-1.000000,""
python3action_modeltraining_job12_1,w0,python3action_modeltraining,0.997085,1,2000.000000,1,COMPLETED_SUCCESSFULLY,1.002115,3.471546,4.473661,0.005030,3.476576,1.001449,1,-1.000000,""
python3action_pyaes_job13_11,w0,python3action_pyaes,0.997085,1,2000.000000,1,COMPLETED_SUCCESSFULLY,1.002265,5.040826,6.043091,0.005180,5.046006,1.001028,11,-1.000000,""
python3action_linpack_job135_12,w0,python3action_linpack,0.997085,1,2000.000000,1,COMPLETED_SUCCESSFULLY,1.002280,5.760927,6.763207,0.005195,5.766122,1.000902,12,-1.000000,""
python3action_modeltraining_job126_4,w0,python3action_modeltraining,0.997085,1,2000.000000,1,COMPLETED_SUCCESSFULLY,1.002160,12.398880,13.401040,0.005075,12.403955,1.000409,4,-1.000000,""
python3action_modeltraining_job131_5,w0,python3action_modeltraining,0.997085,1,2000.000000,1,COMPLETED_SUCCESSFULLY,1.002175,12.752895,13.755070,0.005090,12.757985,1.000399,5,-1.000000,""
126_updated,w0,python3action_modeltraining_reviews50mb_taurus,0.997085,1,2000.000000,1,COMPLETED_SUCCESSFULLY,13.401055,7.920137,21.321192,12.403970,20.324107,2.566131,4,-1.000000,""
126,w0,python3action_modeltraining_reviews50mb,0.000000,1,-1.000000,1,COMPLETED_SUCCESSFULLY,21.321207,0.000010,21.321217,21.321207,21.321217,2132121.700201,4,-1.000000,""
131_updated,w0,python3action_modeltraining_reviews50mb_taurus,0.997085,1,2000.000000,1,COMPLETED_SUCCESSFULLY,13.755085,8.146274,21.901359,12.758000,20.904274,2.566115,5,-1.000000,""
131,w0,python3action_modeltraining_reviews50mb,0.000000,1,-1.000000,1,COMPLETED_SUCCESSFULLY,21.901374,0.000010,21.901384,21.901374,21.901384,2190138.400201,5,-1.000000,""
python3action_pyaes_job137_14,w0,python3action_pyaes,21.321222,1,2000.000000,1,COMPLETED_SUCCESSFULLY,21.326237,0.867914,22.194151,0.005015,0.872929,1.005778,4,-1.000000,""
python3action_floatoperation_job142_15,w0,python3action_floatoperation,21.901389,1,2000.000000,1,COMPLETED_SUCCESSFULLY,21.906404,1.020219,22.926623,0.005015,1.025234,1.004916,5,-1.000000,""
114_updated,w0,python3action_chameleon_2000_neowise,0.997085,1,2000.000000,1,COMPLETED_SUCCESSFULLY,1.245121,24.200002,25.445123,0.248036,24.448038,1.010249,0,-1.000000,""
114,w0,python3action_chameleon_2000,0.000000,1,-1.000000,1,COMPLETED_SUCCESSFULLY,25.445138,0.000010,25.445148,25.445138,25.445148,2544514.822787,0,-1.000000,""
120_updated,w0,python3action_pyaes_4000_taurus,0.997085,1,2000.000000,1,COMPLETED_SUCCESSFULLY,1.699663,25.681609,27.381272,0.702578,26.384187,1.027357,3,-1.000000,""
120,w0,python3action_pyaes_4000,0.000000,1,-1.000000,1,COMPLETED_SUCCESSFULLY,27.381287,0.000010,27.381297,27.381287,27.381297,2738129.700201,3,-1.000000,""
python3action_chameleon_job148_17,w0,python3action_chameleon_reduced_0.85,27.381302,1,2000.000000,1,COMPLETED_SUCCESSFULLY,27.386317,0.104625,27.490942,0.005015,0.109640,1.047933,3,-1.000000,""
python3action_video_processing_job125_16,w0,python3action_video_processing,25.445153,1,2000.000000,1,COMPLETED_SUCCESSFULLY,25.450168,3.471546,28.921714,0.005015,3.476561,1.001445,0,-1.000000,""
python3action_modeltraining_job117_7,w0,python3action_modeltraining,0.997085,1,2000.000000,1,COMPLETED_SUCCESSFULLY,1.002205,30.499683,31.501888,0.005120,30.504803,1.000168,7,-1.000000,""
python3action_modeltraining_job118_8,w0,python3action_modeltraining,0.997085,1,2000.000000,1,COMPLETED_SUCCESSFULLY,1.002220,30.499683,31.501903,0.005135,30.504818,1.000168,8,-1.000000,""
python3action_facedetection_job119_9,w0,python3action_facedetection,0.997085,1,2000.000000,1,COMPLETED_SUCCESSFULLY,1.002235,30.499683,31.501918,0.005150,30.504833,1.000169,9,-1.000000,""
python3action_image_processing_job124_10,w0,python3action_image_processing,0.997085,1,2000.000000,1,COMPLETED_SUCCESSFULLY,1.002250,30.499683,31.501933,0.005165,30.504848,1.000169,10,-1.000000,""
137_updated,w0,python3action_pyaes_3000_taurus,21.321222,1,2000.000000,1,COMPLETED_SUCCESSFULLY,22.194166,18.216318,40.410484,0.872944,19.089262,1.047921,4,-1.000000,""
137,w0,python3action_pyaes_3000,0.000000,1,-1.000000,1,COMPLETED_SUCCESSFULLY,40.410499,0.000010,40.410509,40.410499,40.410509,4041050.918674,4,-1.000000,""
python3action_linpack_job152_18,w0,python3action_linpack_reduced_0.85,40.410514,1,2000.000000,1,COMPLETED_SUCCESSFULLY,40.415529,0.148785,40.564314,0.005015,0.153800,1.033706,4,-1.000000,""
152_updated,w0,python3action_linpack_5000_taurus,40.410514,1,2000.000000,1,COMPLETED_SUCCESSFULLY,40.564329,6.628820,47.193149,0.153815,6.782635,1.023204,4,-1.000000,""
152,w0,python3action_linpack_5000,0.000000,1,-1.000000,1,COMPLETED_SUCCESSFULLY,47.193164,0.000010,47.193174,47.193164,47.193174,4719317.400201,4,-1.000000,""
12_updated,w0,python3action_modeltraining_reviews100mb_neowise,0.997085,1,2000.000000,1,COMPLETED_SUCCESSFULLY,4.473676,43.399999,47.873675,3.476591,46.876590,1.080106,1,-1.000000,""
12,w0,python3action_modeltraining_reviews100mb,0.000000,1,-1.000000,1,COMPLETED_SUCCESSFULLY,47.873690,0.000010,47.873700,47.873690,47.873700,4787370.000201,1,-1.000000,""
142_updated,w0,python3action_floatoperation_200000000_taurus,21.901389,1,2000.000000,1,COMPLETED_SUCCESSFULLY,22.926638,29.184915,52.111553,1.025249,30.210164,1.035129,5,-1.000000,""
142,w0,python3action_floatoperation_200000000,0.000000,1,-1.000000,1,COMPLETED_SUCCESSFULLY,52.111568,0.000010,52.111578,52.111568,52.111578,5211157.849533,5,-1.000000,""
148_updated,w0,python3action_chameleon_3000_taurus,27.381302,1,2000.000000,1,COMPLETED_SUCCESSFULLY,27.490957,29.749701,57.240658,0.109655,29.859356,1.003686,3,-1.000000,""
148,w0,python3action_chameleon_3000,0.000000,1,-1.000000,1,COMPLETED_SUCCESSFULLY,57.240673,0.000010,57.240683,57.240673,57.240683,5724068.318491,3,-1.000000,""
python3action_floatoperation_job10_19,w0,python3action_floatoperation,57.240688,1,2000.000000,1,COMPLETED_SUCCESSFULLY,57.245703,0.797144,58.042847,0.005015,0.802159,1.006291,3,-1.000000,""
163_updated,w0,python3action_modeltraining_reviews50mb_taurus,52.111583,1,2000.000000,1,COMPLETED_SUCCESSFULLY,52.116598,8.146274,60.262872,0.005015,8.151289,1.000616,5,-1.000000,""
163,w0,python3action_modeltraining_reviews50mb,0.000000,1,-1.000000,1,COMPLETED_SUCCESSFULLY,60.262887,0.000010,60.262897,60.262887,60.262897,6026289.700201,5,-1.000000,""
10_updated,w0,python3action_floatoperation_100000000_taurus,57.240688,1,2000.000000,1,COMPLETED_SUCCESSFULLY,58.042862,11.623139,69.666001,0.802174,12.425313,1.069015,3,-1.000000,""
10,w0,python3action_floatoperation_100000000,0.000000,1,-1.000000,1,COMPLETED_SUCCESSFULLY,69.666016,0.000010,69.666026,69.666016,69.666026,6966602.600201,3,-1.000000,""
python3action_modeltraining_job115_2,w0,python3action_modeltraining,0.997085,1,2000.000000,1,COMPLETED_SUCCESSFULLY,1.002130,72.012455,73.014585,0.005045,72.017500,1.000070,2,-1.000000,""
python3action_video_processing_job140_13,w0,python3action_video_processing,0.997085,1,2000.000000,1,COMPLETED_SUCCESSFULLY,1.002295,72.012455,73.014750,0.005210,72.017665,1.000072,13,-1.000000,""
100_updated,w0,python3action_modeltraining_reviews100mb_taurus,60.262902,1,2000.000000,1,COMPLETED_SUCCESSFULLY,60.267917,15.619590,75.887507,0.005015,15.624605,1.000321,5,-1.000000,""
100,w0,python3action_modeltraining_reviews100mb,0.000000,1,-1.000000,1,COMPLETED_SUCCESSFULLY,75.887522,0.000010,75.887532,75.887522,75.887532,7588753.230690,5,-1.000000,""
python3action_video_processing_job177_21,w0,python3action_video_processing_reduced_0.97,75.887537,1,2000.000000,1,COMPLETED_SUCCESSFULLY,75.892552,0.364368,76.256920,0.005015,0.369383,1.013764,5,-1.000000,""
158_updated,w0,python3action_pyaes_4000_taurus,47.193179,1,2000.000000,1,COMPLETED_SUCCESSFULLY,47.198194,31.956037,79.154231,0.005015,31.961052,1.000157,4,-1.000000,""
158,w0,python3action_pyaes_4000,0.000000,1,-1.000000,1,COMPLETED_SUCCESSFULLY,79.154246,0.000010,79.154256,79.154246,79.154256,7915425.641392,4,-1.000000,""
python3action_image_processing_job103_20,w0,python3action_image_processing,69.666031,1,2000.000000,1,COMPLETED_SUCCESSFULLY,69.671046,9.964414,79.635460,0.005015,9.969429,1.000503,3,-1.000000,""
103_updated,w0,python3action_imageprocessing_SampleImage_40mb_taurus,69.666031,1,2000.000000,1,COMPLETED_SUCCESSFULLY,79.635475,4.510891,84.146366,9.969444,14.480335,3.210083,3,-1.000000,""
103,w0,python3action_imageprocessing_SampleImage_40mb,0.000000,1,-1.000000,1,COMPLETED_SUCCESSFULLY,84.146381,0.000010,84.146391,84.146381,84.146391,8414639.125112,3,-1.000000,""
python3action_video_processing_job184_22,w0,python3action_video_processing_reduced_0.91,84.146396,1,2000.000000,1,COMPLETED_SUCCESSFULLY,84.151411,0.024403,84.175814,0.005015,0.029418,1.205511,3,-1.000000,""
180_updated,w0,python3action_linpack_5000_taurus,79.154261,1,2000.000000,1,COMPLETED_SUCCESSFULLY,79.159276,6.628820,85.788096,0.005015,6.633835,1.000757,4,-1.000000,""
180,w0,python3action_linpack_5000,0.000000,1,-1.000000,1,COMPLETED_SUCCESSFULLY,85.788111,0.000010,85.788121,85.788111,85.788121,8578812.100201,4,-1.000000,""
python3action_video_processing_job111_23,w0,python3action_video_processing_reduced_0.97,85.788126,1,2000.000000,1,COMPLETED_SUCCESSFULLY,85.793141,0.354254,86.147395,0.005015,0.359269,1.014157,4,-1.000000,""
135_updated,w0,python3action_linpack_5000_nova,0.997085,1,2000.000000,1,COMPLETED_SUCCESSFULLY,6.763222,81.693692,88.456914,5.766137,87.459829,1.070582,12,-1.000000,""
135,w0,python3action_linpack_5000,0.000000,1,-1.000000,1,COMPLETED_SUCCESSFULLY,88.456929,0.000010,88.456939,88.456929,88.456939,8845693.900201,12,-1.000000,""
130_updated,w0,python3action_modeltraining_reviews100mb_neowise,47.873705,1,2000.000000,1,COMPLETED_SUCCESSFULLY,47.878720,43.399999,91.278719,0.005015,43.405014,1.000116,1,-1.000000,""
130,w0,python3action_modeltraining_reviews100mb,0.000000,1,-1.000000,1,COMPLETED_SUCCESSFULLY,91.278734,0.000010,91.278744,91.278734,91.278744,9127874.400201,1,-1.000000,""
python3action_pyaes_job136_25,w0,python3action_pyaes,91.278749,1,2000.000000,1,COMPLETED_SUCCESSFULLY,91.283764,0.243006,91.526770,0.005015,0.248021,1.020637,1,-1.000000,""
python3action_floatoperation_job146_24,w0,python3action_floatoperation,88.456944,1,2000.000000,1,COMPLETED_SUCCESSFULLY,88.461959,5.760927,94.222886,0.005015,5.765942,1.000871,12,-1.000000,""
117_updated,w0,python3action_modeltraining_reviews50mb_troll,0.997085,1,2000.000000,1,COMPLETED_SUCCESSFULLY,31.501903,69.696429,101.198332,30.504818,100.201247,1.437681,7,-1.000000,""
117,w0,python3action_modeltraining_reviews50mb,0.000000,1,-1.000000,1,COMPLETED_SUCCESSFULLY,101.198347,0.000010,101.198357,101.198347,101.198357,10119835.700201,7,-1.000000,""
177_updated,w0,python3action_videoprocessing_SampleVideo_50mb_taurus,75.887537,1,2000.000000,1,COMPLETED_SUCCESSFULLY,76.256935,27.316586,103.573521,0.369398,27.685984,1.013523,5,-1.000000,""
177,w0,python3action_videoprocessing_SampleVideo_50mb,0.000000,1,-1.000000,1,COMPLETED_SUCCESSFULLY,103.573536,0.000010,103.573546,103.573536,103.573546,10357354.642934,5,-1.000000,""
python3action_facedetection_job190_27,w0,python3action_facedetection_reduced_1.83,103.573551,1,2000.000000,1,COMPLETED_SUCCESSFULLY,103.578566,0.000000,103.578566,0.005015,0.005015,245580650.516354,5,-1.000000,""
python3action_floatoperation_job122_26,w0,python3action_floatoperation,101.198362,1,2000.000000,1,COMPLETED_SUCCESSFULLY,101.203377,2.439945,103.643322,0.005015,2.444960,1.002055,7,-1.000000,""
184_updated,w0,python3action_videoprocessing_SampleVideo_50mb_taurus,84.146396,1,2000.000000,1,COMPLETED_SUCCESSFULLY,84.175829,21.343685,105.519514,0.029433,21.373118,1.001379,3,-1.000000,""
184,w0,python3action_videoprocessing_SampleVideo_50mb,0.000000,1,-1.000000,1,COMPLETED_SUCCESSFULLY,105.519529,0.000010,105.519539,105.519529,105.519539,10551953.900201,3,-1.000000,""
111_updated,w0,python3action_videoprocessing_SampleVideo_30mb_taurus,85.788126,1,2000.000000,1,COMPLETED_SUCCESSFULLY,86.147410,22.692917,108.840327,0.359284,23.052201,1.015832,4,-1.000000,""
111,w0,python3action_videoprocessing_SampleVideo_30mb,0.000000,1,-1.000000,1,COMPLETED_SUCCESSFULLY,108.840342,0.000010,108.840352,108.840342,108.840352,10884035.214228,4,-1.000000,""
python3action_chameleon_job91_28,w0,python3action_chameleon_reduced_1.7,108.840357,1,2000.000000,1,COMPLETED_SUCCESSFULLY,108.845372,0.000000,108.845372,0.005015,0.005015,252612308.340730,4,-1.000000,""
115_updated,w0,python3action_modeltraining_reviews50mb_taurus,0.997085,1,2000.000000,1,COMPLETED_SUCCESSFULLY,73.014600,46.000000,119.014600,72.017515,118.017515,2.565598,2,-1.000000,""
115,w0,python3action_modeltraining_reviews50mb,0.000000,1,-1.000000,1,COMPLETED_SUCCESSFULLY,119.014615,0.000010,119.014625,119.014615,119.014625,11901462.532085,2,-1.000000,""
91_updated,w0,python3action_chameleon_2000_taurus,108.840357,1,2000.000000,1,COMPLETED_SUCCESSFULLY,108.845402,11.053752,119.899154,0.005045,11.058797,1.000456,4,-1.000000,""
91,w0,python3action_chameleon_2000,0.000000,1,-1.000000,1,COMPLETED_SUCCESSFULLY,119.899169,0.000010,119.899179,119.899169,119.899179,11989917.900201,4,-1.000000,""
125_updated,w0,python3action_videoprocessing_SampleVideo_30mb_neowise,25.445153,1,2000.000000,1,COMPLETED_SUCCESSFULLY,28.921729,92.799998,121.721727,3.476576,96.276574,1.037463,0,-1.000000,""
125,w0,python3action_videoprocessing_SampleVideo_30mb,0.000000,1,-1.000000,1,COMPLETED_SUCCESSFULLY,121.721742,0.000010,121.721752,121.721742,121.721752,12172175.200201,0,-1.000000,""
python3action_pyaes_job141_30,w0,python3action_pyaes_reduced_0.85,121.721757,1,2000.000000,1,COMPLETED_SUCCESSFULLY,121.726772,0.036451,121.763223,0.005015,0.041466,1.137582,0,-1.000000,""
193_updated,w0,python3action_videoprocessing_SampleVideo_30mb_taurus,105.519544,1,2000.000000,1,COMPLETED_SUCCESSFULLY,105.524559,18.237262,123.761821,0.005015,18.242277,1.000275,3,-1.000000,""
193,w0,python3action_videoprocessing_SampleVideo_30mb,0.000000,1,-1.000000,1,COMPLETED_SUCCESSFULLY,123.761836,0.000010,123.761846,123.761836,123.761846,12376184.600201,3,-1.000000,""
python3action_floatoperation_job2_29,w0,python3action_floatoperation,119.014630,1,2000.000000,1,COMPLETED_SUCCESSFULLY,119.019645,5.760927,124.780572,0.005015,5.765942,1.000871,2,-1.000000,""
22_updated,w0,python3action_linpack_5000_taurus,119.899184,1,2000.000000,1,COMPLETED_SUCCESSFULLY,119.904199,6.628820,126.533019,0.005015,6.633835,1.000757,4,-1.000000,""
22,w0,python3action_linpack_5000,0.000000,1,-1.000000,1,COMPLETED_SUCCESSFULLY,126.533034,0.000010,126.533044,126.533034,126.533044,12653304.400201,4,-1.000000,""
190_updated,w0,python3action_facedetection_SampleVideo_30mb_taurus,103.573551,1,2000.000000,1,COMPLETED_SUCCESSFULLY,103.578596,30.849580,134.428176,0.005045,30.854625,1.000164,5,-1.000000,""
190,w0,python3action_facedetection_SampleVideo_30mb,0.000000,1,-1.000000,1,COMPLETED_SUCCESSFULLY,134.428191,0.000010,134.428201,134.428191,134.428201,13442820.130336,5,-1.000000,""
124_updated,w0,python3action_imageprocessing_SampleImage_60mb_nova,0.997085,1,2000.000000,1,COMPLETED_SUCCESSFULLY,31.501978,103.750012,135.251990,30.504893,134.254905,1.294023,10,-1.000000,""
124,w0,python3action_imageprocessing_SampleImage_60mb,0.000000,1,-1.000000,1,COMPLETED_SUCCESSFULLY,135.252005,0.000010,135.252015,135.252005,135.252015,13525201.521522,10,-1.000000,""
python3action_video_processing_job150_32,w0,python3action_video_processing_reduced_0.91,135.252020,1,2000.000000,1,COMPLETED_SUCCESSFULLY,135.257035,0.074693,135.331728,0.005015,0.079708,1.067141,10,-1.000000,""
python3action_linpack_job36_31,w0,python3action_linpack,134.428206,1,2000.000000,1,COMPLETED_SUCCESSFULLY,134.433221,1.020219,135.453440,0.005015,1.025234,1.004916,5,-1.000000,""
36_updated,w0,python3action_linpack_5000_taurus,134.428206,1,2000.000000,1,COMPLETED_SUCCESSFULLY,135.453455,6.818087,142.271542,1.025249,7.843336,1.150372,5,-1.000000,""
36,w0,python3action_linpack_5000,0.000000,1,-1.000000,1,COMPLETED_SUCCESSFULLY,142.271557,0.000010,142.271567,142.271557,142.271567,14227156.748234,5,-1.000000,""
25_updated,w0,python3action_pyaes_4000_taurus,123.761851,1,2000.000000,1,COMPLETED_SUCCESSFULLY,123.766866,25.681609,149.448475,0.005015,25.686624,1.000195,3,-1.000000,""
25,w0,python3action_pyaes_4000,0.000000,1,-1.000000,1,COMPLETED_SUCCESSFULLY,149.448490,0.000010,149.448500,149.448490,149.448500,14944850.000201,3,-1.000000,""
30_updated,w0,python3action_linpack_6000_taurus,126.533049,1,2000.000000,1,COMPLETED_SUCCESSFULLY,126.538064,27.135085,153.673149,0.005015,27.140100,1.000185,4,-1.000000,""
30,w0,python3action_linpack_6000,0.000000,1,-1.000000,1,COMPLETED_SUCCESSFULLY,153.673164,0.000010,153.673174,153.673164,153.673174,15367317.400201,4,-1.000000,""
python3action_floatoperation_job52_33,w0,python3action_floatoperation,153.673179,1,2000.000000,1,COMPLETED_SUCCESSFULLY,153.678194,0.991898,154.670092,0.005015,0.996913,1.005056,4,-1.000000,""
118_updated,w0,python3action_modeltraining_reviews100mb_yeti,0.997085,1,2000.000000,1,COMPLETED_SUCCESSFULLY,31.501933,129.145802,160.647734,30.504848,159.650649,1.236205,8,-1.000000,""
118,w0,python3action_modeltraining_reviews100mb,0.000000,1,-1.000000,1,COMPLETED_SUCCESSFULLY,160.647749,0.000010,160.647759,160.647749,160.647759,16064775.932249,8,-1.000000,""
47_updated,w0,python3action_floatoperation_100000000_taurus,149.448505,1,2000.000000,1,COMPLETED_SUCCESSFULLY,149.453520,11.623139,161.076659,0.005015,11.628154,1.000431,3,-1.000000,""
47,w0,python3action_floatoperation_100000000,0.000000,1,-1.000000,1,COMPLETED_SUCCESSFULLY,161.076674,0.000010,161.076684,161.076674,161.076684,16107668.400201,3,-1.000000,""
136_updated,w0,python3action_pyaes_3000_neowise,91.278749,1,2000.000000,1,COMPLETED_SUCCESSFULLY,91.526785,72.500000,164.026785,0.248036,72.748036,1.003421,1,-1.000000,""
136,w0,python3action_pyaes_3000,0.000000,1,-1.000000,1,COMPLETED_SUCCESSFULLY,164.026800,0.000010,164.026810,164.026800,164.026810,16402681.000402,1,-1.000000,""
python3action_floatoperation_job147_35,w0,python3action_floatoperation,164.026815,1,2000.000000,1,COMPLETED_SUCCESSFULLY,164.031830,0.277720,164.309550,0.005015,0.282735,1.018058,1,-1.000000,""
python3action_image_processing_job123_34,w0,python3action_image_processing_reduced_0.86,160.647764,1,2000.000000,1,COMPLETED_SUCCESSFULLY,160.652779,4.121579,164.774358,0.005015,4.126594,1.001217,8,-1.000000,""
52_updated,w0,python3action_floatoperation_100000000_taurus,153.673179,1,2000.000000,1,COMPLETED_SUCCESSFULLY,154.670107,14.462858,169.132966,0.996928,15.459787,1.068930,4,-1.000000,""
52,w0,python3action_floatoperation_100000000,0.000000,1,-1.000000,1,COMPLETED_SUCCESSFULLY,169.132981,0.000010,169.132991,169.132981,169.132991,16913299.100201,4,-1.000000,""
41_updated,w0,python3action_linpack_6000_taurus,142.271572,1,2000.000000,1,COMPLETED_SUCCESSFULLY,142.276587,27.909850,170.186437,0.005015,27.914865,1.000180,5,-1.000000,""
41,w0,python3action_linpack_6000,0.000000,1,-1.000000,1,COMPLETED_SUCCESSFULLY,170.186452,0.000010,170.186462,170.186452,170.186462,17018646.229914,5,-1.000000,""
python3action_pyaes_job69_36,w0,python3action_pyaes_reduced_0.85,170.186467,1,2000.000000,1,COMPLETED_SUCCESSFULLY,170.191482,0.133904,170.325386,0.005015,0.138919,1.037452,5,-1.000000,""
63_updated,w0,python3action_chameleon_2000_taurus,169.132996,1,2000.000000,1,COMPLETED_SUCCESSFULLY,169.138011,11.053752,180.191763,0.005015,11.058767,1.000454,4,-1.000000,""
63,w0,python3action_chameleon_2000,0.000000,1,-1.000000,1,COMPLETED_SUCCESSFULLY,180.191778,0.000010,180.191788,180.191778,180.191788,18019178.800201,4,-1.000000,""
58_updated,w0,python3action_pyaes_4000_taurus,161.076689,1,2000.000000,1,COMPLETED_SUCCESSFULLY,161.081704,25.681609,186.763313,0.005015,25.686624,1.000195,3,-1.000000,""
58,w0,python3action_pyaes_4000,0.000000,1,-1.000000,1,COMPLETED_SUCCESSFULLY,186.763328,0.000010,186.763338,186.763328,186.763338,18676333.800201,3,-1.000000,""
13_updated,w0,python3action_pyaes_3000_nova,0.997085,1,2000.000000,1,COMPLETED_SUCCESSFULLY,6.043106,184.637181,190.680287,5.046021,189.683202,1.027329,11,-1.000000,""
13,w0,python3action_pyaes_3000,0.000000,1,-1.000000,1,COMPLETED_SUCCESSFULLY,190.680302,0.000010,190.680312,190.680302,190.680312,19068031.241331,11,-1.000000,""
141_updated,w0,python3action_pyaes_3000_neowise,121.721757,1,2000.000000,1,COMPLETED_SUCCESSFULLY,121.763238,72.500000,194.263238,0.041481,72.541481,1.000572,0,-1.000000,""
141,w0,python3action_pyaes_3000,0.000000,1,-1.000000,1,COMPLETED_SUCCESSFULLY,194.263253,0.000010,194.263263,194.263253,194.263263,19426326.300401,0,-1.000000,""
python3action_facedetection_job151_38,w0,python3action_facedetection_reduced_0.91,194.263268,1,2000.000000,1,COMPLETED_SUCCESSFULLY,194.268283,0.000000,194.268283,0.005015,0.005015,9802760927.444445,0,-1.000000,""
8_updated,w0,python3action_pyaes_3000_taurus,186.763343,1,2000.000000,1,COMPLETED_SUCCESSFULLY,186.768358,14.639623,201.407981,0.005015,14.644638,1.000343,3,-1.000000,""
8,w0,python3action_pyaes_3000,0.000000,1,-1.000000,1,COMPLETED_SUCCESSFULLY,201.407996,0.000010,201.408006,201.407996,201.408006,20140800.639825,3,-1.000000,""
69_updated,w0,python3action_pyaes_4000_taurus,170.186467,1,2000.000000,1,COMPLETED_SUCCESSFULLY,170.325401,32.868452,203.193853,0.138934,33.007386,1.004227,5,-1.000000,""
69,w0,python3action_pyaes_4000,0.000000,1,-1.000000,1,COMPLETED_SUCCESSFULLY,203.193868,0.000010,203.193878,203.193868,203.193878,20319387.800201,5,-1.000000,""
74_updated,w0,python3action_linpack_6000_taurus,180.191793,1,2000.000000,1,COMPLETED_SUCCESSFULLY,180.196808,27.135085,207.331893,0.005015,27.140100,1.000185,4,-1.000000,""
74,w0,python3action_linpack_6000,0.000000,1,-1.000000,1,COMPLETED_SUCCESSFULLY,207.331908,0.000010,207.331918,207.331908,207.331918,20733191.800201,4,-1.000000,""
116_updated,w0,python3action_chameleon_3000_gemini,0.997085,1,2000.000000,1,COMPLETED_SUCCESSFULLY,3.137163,205.077663,208.214827,2.140078,207.217742,1.010435,6,-1.000000,""
116,w0,python3action_chameleon_3000,0.000000,1,-1.000000,1,COMPLETED_SUCCESSFULLY,208.214842,0.000010,208.214852,208.214842,208.214852,20821485.200201,6,-1.000000,""
85_updated,w0,python3action_pyaes_4000_taurus,201.408011,1,2000.000000,1,COMPLETED_SUCCESSFULLY,201.413026,25.681609,227.094635,0.005015,25.686624,1.000195,3,-1.000000,""
85,w0,python3action_pyaes_4000,0.000000,1,-1.000000,1,COMPLETED_SUCCESSFULLY,227.094650,0.000010,227.094660,227.094650,227.094660,22709466.000201,3,-1.000000,""
122_updated,w0,python3action_floatoperation_100000000_troll,101.198362,1,2000.000000,1,COMPLETED_SUCCESSFULLY,103.643337,125.863576,229.506914,2.444975,128.308552,1.019426,7,-1.000000,""
122,w0,python3action_floatoperation_100000000,0.000000,1,-1.000000,1,COMPLETED_SUCCESSFULLY,229.506929,0.000010,229.506939,229.506929,229.506939,22950693.900201,7,-1.000000,""
python3action_facedetection_job121_39,w0,python3action_facedetection,208.219842,1,2000.000000,1,COMPLETED_SUCCESSFULLY,208.224857,30.499683,238.724540,0.005015,30.504698,1.000164,6,-1.000000,""
150_updated,w0,python3action_videoprocessing_SampleVideo_30mb_nova,135.252020,1,2000.000000,1,COMPLETED_SUCCESSFULLY,135.331743,106.799980,242.131724,0.079723,106.879704,1.000746,10,-1.000000,""
150,w0,python3action_videoprocessing_SampleVideo_30mb,0.000000,1,-1.000000,1,COMPLETED_SUCCESSFULLY,242.131739,0.000010,242.131749,242.131739,242.131749,24213174.900201,10,-1.000000,""
python3action_pyaes_job161_40,w0,python3action_pyaes,242.136739,1,2000.000000,1,COMPLETED_SUCCESSFULLY,242.141754,2.134958,244.276712,0.005015,2.139973,1.002349,10,-1.000000,""
146_updated,w0,python3action_floatoperation_100000000_nova,88.456944,1,2000.000000,1,COMPLETED_SUCCESSFULLY,94.222901,156.304117,250.527018,5.765957,162.070074,1.036889,12,-1.000000,""
146,w0,python3action_floatoperation_100000000,0.000000,1,-1.000000,1,COMPLETED_SUCCESSFULLY,250.527033,0.000010,250.527043,250.527033,250.527043,25052704.340690,12,-1.000000,""
python3action_chameleon_job113_41,w0,python3action_chameleon_reduced_0.85,250.532033,1,2000.000000,1,COMPLETED_SUCCESSFULLY,250.537048,0.756124,251.293172,0.005015,0.761139,1.006633,12,-1.000000,""
119_updated,w0,python3action_facedetection_SampleVideo_50mb_nova,0.997085,1,2000.000000,1,COMPLETED_SUCCESSFULLY,31.501948,230.799980,262.301928,30.504863,261.304843,1.132170,9,-1.000000,""
119,w0,python3action_facedetection_SampleVideo_50mb,0.000000,1,-1.000000,1,COMPLETED_SUCCESSFULLY,262.301943,0.000010,262.301953,262.301943,262.301953,26230195.300201,9,-1.000000,""
python3action_modeltraining_job156_37,w0,python3action_modeltraining,190.680317,1,2000.000000,1,COMPLETED_SUCCESSFULLY,190.685332,72.012455,262.697787,0.005015,72.017470,1.000070,11,-1.000000,""
2_updated,w0,python3action_floatoperation_200000000_taurus,119.014630,1,2000.000000,1,COMPLETED_SUCCESSFULLY,124.780587,164.800023,289.580610,5.765957,170.565980,1.034988,2,-1.000000,""
2,w0,python3action_floatoperation_200000000,0.000000,1,-1.000000,1,COMPLETED_SUCCESSFULLY,289.580625,0.000010,289.580635,289.580625,289.580635,28958063.530010,2,-1.000000,""
147_updated,w0,python3action_floatoperation_200000000_neowise,164.026815,1,2000.000000,1,COMPLETED_SUCCESSFULLY,164.309565,129.200002,293.509568,0.282750,129.482753,1.002188,1,-1.000000,""
147,w0,python3action_floatoperation_200000000,0.000000,1,-1.000000,1,COMPLETED_SUCCESSFULLY,293.509583,0.000010,293.509593,293.509583,293.509593,29350959.300201,1,-1.000000,""
python3action_chameleon_job157_42,w0,python3action_chameleon_reduced_0.85,293.514583,1,2000.000000,1,COMPLETED_SUCCESSFULLY,293.519598,0.036451,293.556049,0.005015,0.041466,1.137582,1,-1.000000,""
157_updated,w0,python3action_chameleon_2000_neowise,293.514583,1,2000.000000,1,COMPLETED_SUCCESSFULLY,293.556064,24.200002,317.756066,0.041481,24.241483,1.001714,1,-1.000000,""
157,w0,python3action_chameleon_2000,0.000000,1,-1.000000,1,COMPLETED_SUCCESSFULLY,317.756081,0.000010,317.756091,317.756081,317.756091,31775609.122787,1,-1.000000,""
161_updated,w0,python3action_pyaes_3000_nova,242.136739,1,2000.000000,1,COMPLETED_SUCCESSFULLY,244.276727,78.200020,322.476747,2.139988,80.340008,1.027366,10,-1.000000,""
161,w0,python3action_pyaes_3000,0.000000,1,-1.000000,1,COMPLETED_SUCCESSFULLY,322.476762,0.000010,322.476772,322.476762,322.476772,32247677.200201,10,-1.000000,""
python3action_chameleon_job102_43,w0,python3action_chameleon_reduced_0.85,322.481762,1,2000.000000,1,COMPLETED_SUCCESSFULLY,322.486777,0.320244,322.807021,0.005015,0.325259,1.015660,10,-1.000000,""
123_updated,w0,python3action_imageprocessing_SampleImage_60mb_yeti,160.647764,1,2000.000000,1,COMPLETED_SUCCESSFULLY,164.774373,170.201436,334.975809,4.126609,174.328045,1.024245,8,-1.000000,""
123,w0,python3action_imageprocessing_SampleImage_60mb,0.000000,1,-1.000000,1,COMPLETED_SUCCESSFULLY,334.975824,0.000010,334.975834,334.975824,334.975834,33497583.404172,8,-1.000000,""
python3action_pyaes_job129_44,w0,python3action_pyaes,334.980824,1,2000.000000,1,COMPLETED_SUCCESSFULLY,334.985839,2.134958,337.120797,0.005015,2.139973,1.002349,8,-1.000000,""
128_updated,w0,python3action_floatoperation_100000000_troll,229.511929,1,2000.000000,1,COMPLETED_SUCCESSFULLY,229.516944,125.863576,355.380520,0.005015,125.868591,1.000040,7,-1.000000,""
128,w0,python3action_floatoperation_100000000,0.000000,1,-1.000000,1,COMPLETED_SUCCESSFULLY,355.380535,0.000010,355.380545,355.380535,355.380545,35538054.542174,7,-1.000000,""
python3action_facedetection_job133_45,w0,python3action_facedetection_reduced_0.91,355.385535,1,2000.000000,1,COMPLETED_SUCCESSFULLY,355.390550,0.000000,355.390550,0.005015,0.005015,1145777252.155844,7,-1.000000,""
151_updated,w0,python3action_facedetection_SampleVideo_30mb_neowise,194.263268,1,2000.000000,1,COMPLETED_SUCCESSFULLY,194.268313,162.200002,356.468315,0.005045,162.205047,1.000031,0,-1.000000,""
151,w0,python3action_facedetection_SampleVideo_30mb,0.000000,1,-1.000000,1,COMPLETED_SUCCESSFULLY,356.468330,0.000010,356.468340,356.468330,356.468340,35646834.023189,0,-1.000000,""
python3action_floatoperation_job167_46,w0,python3action_floatoperation,356.473330,1,2000.000000,1,COMPLETED_SUCCESSFULLY,356.478345,0.277720,356.756065,0.005015,0.282735,1.018058,0,-1.000000,""
156_updated,w0,python3action_modeltraining_reviews50mb_nova,190.680317,1,2000.000000,1,COMPLETED_SUCCESSFULLY,262.697802,100.110137,362.807940,72.017485,172.127623,1.719383,11,-1.000000,""
156,w0,python3action_modeltraining_reviews50mb,0.000000,1,-1.000000,1,COMPLETED_SUCCESSFULLY,362.807955,0.000010,362.807965,362.807955,362.807965,36280796.500201,11,-1.000000,""
python3action_chameleon_job104_47,w0,python3action_chameleon_reduced_0.85,362.812955,1,2000.000000,1,COMPLETED_SUCCESSFULLY,362.817970,0.756124,363.574094,0.005015,0.761139,1.006633,11,-1.000000,""
140_updated,w0,python3action_videoprocessing_SampleVideo_50mb_nova,0.997085,1,2000.000000,1,COMPLETED_SUCCESSFULLY,73.014765,329.608004,402.622769,72.017680,401.625684,1.218495,13,-1.000000,""
140,w0,python3action_videoprocessing_SampleVideo_50mb,0.000000,1,-1.000000,1,COMPLETED_SUCCESSFULLY,402.622784,0.000010,402.622794,402.622784,402.622794,40262279.403339,13,-1.000000,""
python3action_floatoperation_job18_48,w0,python3action_floatoperation,402.627784,1,2000.000000,1,COMPLETED_SUCCESSFULLY,402.632799,5.760927,408.393726,0.005015,5.765942,1.000871,13,-1.000000,""
113_updated,w0,python3action_chameleon_2000_nova,250.532033,1,2000.000000,1,COMPLETED_SUCCESSFULLY,251.293187,166.692884,417.986071,0.761154,167.454038,1.004566,12,-1.000000,""
113,w0,python3action_chameleon_2000,0.000000,1,-1.000000,1,COMPLETED_SUCCESSFULLY,417.986086,0.000010,417.986096,417.986086,417.986096,41798609.633109,12,-1.000000,""
167_updated,w0,python3action_floatoperation_100000000_neowise,356.473330,1,2000.000000,1,COMPLETED_SUCCESSFULLY,356.756080,64.600001,421.356081,0.282750,64.882751,1.004377,0,-1.000000,""
167,w0,python3action_floatoperation_100000000,0.000000,1,-1.000000,1,COMPLETED_SUCCESSFULLY,421.356096,0.000010,421.356106,421.356096,421.356106,42135610.644619,0,-1.000000,""
162_updated,w0,python3action_floatoperation_200000000_neowise,317.761081,1,2000.000000,1,COMPLETED_SUCCESSFULLY,317.766096,129.200002,446.966098,0.005015,129.205017,1.000039,1,-1.000000,""
162,w0,python3action_floatoperation_200000000,0.000000,1,-1.000000,1,COMPLETED_SUCCESSFULLY,446.966113,0.000010,446.966123,446.966113,446.966123,44696612.322787,1,-1.000000,""
129_updated,w0,python3action_pyaes_3000_yeti,334.980824,1,2000.000000,1,COMPLETED_SUCCESSFULLY,337.120812,142.698139,479.818951,2.139988,144.838127,1.014997,8,-1.000000,""
129,w0,python3action_pyaes_3000,0.000000,1,-1.000000,1,COMPLETED_SUCCESSFULLY,479.818966,0.000010,479.818976,479.818966,479.818976,47981897.625606,8,-1.000000,""
python3action_video_processing_job134_49,w0,python3action_video_processing_reduced_1.89,479.823966,1,2000.000000,1,COMPLETED_SUCCESSFULLY,479.828981,0.000000,479.828981,0.005015,0.005015,102706460.067520,8,-1.000000,""
17_updated,w0,python3action_floatoperation_100000000_neowise,421.361096,1,2000.000000,1,COMPLETED_SUCCESSFULLY,421.366111,64.600001,485.966112,0.005015,64.605016,1.000078,0,-1.000000,""
17,w0,python3action_floatoperation_100000000,0.000000,1,-1.000000,1,COMPLETED_SUCCESSFULLY,485.966127,0.000010,485.966137,485.966127,485.966137,48596613.711594,0,-1.000000,""
python3action_modeltraining_job176_50,w0,python3action_modeltraining_reduced_1.94,485.971127,1,2000.000000,1,COMPLETED_SUCCESSFULLY,485.976142,0.000000,485.976142,0.005015,0.005015,900253555.479592,0,-1.000000,""
1_updated,w0,python3action_facedetection_SampleVideo_50mb_nova,262.306943,1,2000.000000,1,COMPLETED_SUCCESSFULLY,262.311958,230.799980,493.111938,0.005015,230.804995,1.000022,9,-1.000000,""
1,w0,python3action_facedetection_SampleVideo_50mb,0.000000,1,-1.000000,1,COMPLETED_SUCCESSFULLY,493.111953,0.000010,493.111963,493.111953,493.111963,49311196.346609,9,-1.000000,""
python3action_modeltraining_job186_51,w0,python3action_modeltraining_reduced_0.94,493.116953,1,2000.000000,1,COMPLETED_SUCCESSFULLY,493.121968,0.000000,493.121968,0.005015,0.005015,1696631699.826923,9,-1.000000,""
172_updated,w0,python3action_chameleon_3000_neowise,446.971113,1,2000.000000,1,COMPLETED_SUCCESSFULLY,446.976128,55.799998,502.776126,0.005015,55.805013,1.000090,1,-1.000000,""
172,w0,python3action_chameleon_3000,0.000000,1,-1.000000,1,COMPLETED_SUCCESSFULLY,502.776141,0.000010,502.776151,502.776141,502.776151,50277615.100201,1,-1.000000,""
python3action_linpack_job106_52,w0,python3action_linpack_reduced_1.7,502.781141,1,2000.000000,1,COMPLETED_SUCCESSFULLY,502.786156,0.000000,502.786156,0.005015,0.005015,900253555.479592,1,-1.000000,""
176_updated,w0,python3action_modeltraining_reviews50mb_neowise,485.971127,1,2000.000000,1,COMPLETED_SUCCESSFULLY,485.976172,22.799998,508.776170,0.005045,22.805043,1.000221,0,-1.000000,""
176,w0,python3action_modeltraining_reviews50mb,0.000000,1,-1.000000,1,COMPLETED_SUCCESSFULLY,508.776185,0.000010,508.776195,508.776185,508.776195,50877619.500201,0,-1.000000,""
python3action_linpack_job109_53,w0,python3action_linpack_reduced_1.7,508.781185,1,2000.000000,1,COMPLETED_SUCCESSFULLY,508.786200,0.000000,508.786200,0.005015,0.005015,900253555.479592,0,-1.000000,""
106_updated,w0,python3action_linpack_5000_neowise,502.781141,1,2000.000000,1,COMPLETED_SUCCESSFULLY,502.786186,20.750000,523.536186,0.005045,20.755045,1.000243,1,-1.000000,""
106,w0,python3action_linpack_5000,0.000000,1,-1.000000,1,COMPLETED_SUCCESSFULLY,523.536201,0.000010,523.536211,523.536201,523.536211,52353621.100803,1,-1.000000,""
186_updated,w0,python3action_modeltraining_reviews100mb_nova,493.116953,1,2000.000000,1,COMPLETED_SUCCESSFULLY,493.121998,79.600010,572.722008,0.005045,79.605055,1.000063,9,-1.000000,""
186,w0,python3action_modeltraining_reviews100mb,0.000000,1,-1.000000,1,COMPLETED_SUCCESSFULLY,572.722023,0.000010,572.722033,572.722023,572.722033,57272203.300201,9,-1.000000,""
109_updated,w0,python3action_linpack_6000_neowise,508.781185,1,2000.000000,1,COMPLETED_SUCCESSFULLY,508.786230,108.600001,617.386231,0.005045,108.605046,1.000046,0,-1.000000,""
109,w0,python3action_linpack_6000,0.000000,1,-1.000000,1,COMPLETED_SUCCESSFULLY,617.386246,0.000010,617.386256,617.386246,617.386256,61738625.611996,0,-1.000000,""
187_updated,w0,python3action_pyaes_4000_neowise,523.541201,1,2000.000000,1,COMPLETED_SUCCESSFULLY,523.546216,128.200002,651.746218,0.005015,128.205017,1.000039,1,-1.000000,""
187,w0,python3action_pyaes_4000,0.000000,1,-1.000000,1,COMPLETED_SUCCESSFULLY,651.746233,0.000010,651.746243,651.746233,651.746243,65174624.322787,1,-1.000000,""
18_updated,w0,python3action_floatoperation_200000000_nova,402.627784,1,2000.000000,1,COMPLETED_SUCCESSFULLY,408.393741,319.691385,728.085126,5.765957,325.457342,1.018036,13,-1.000000,""
18,w0,python3action_floatoperation_200000000,0.000000,1,-1.000000,1,COMPLETED_SUCCESSFULLY,728.085141,0.000010,728.085151,728.085141,728.085151,72808515.131141,13,-1.000000,""
python3action_linpack_job192_54,w0,python3action_linpack,728.090141,1,2000.000000,1,COMPLETED_SUCCESSFULLY,728.095156,5.760927,733.856083,0.005015,5.765942,1.000871,13,-1.000000,""
90_updated,w0,python3action_linpack_6000_neowise,651.751233,1,2000.000000,1,COMPLETED_SUCCESSFULLY,651.756248,108.600001,760.356249,0.005015,108.605016,1.000046,1,-1.000000,""
90,w0,python3action_linpack_6000,0.000000,1,-1.000000,1,COMPLETED_SUCCESSFULLY,760.356264,0.000010,760.356274,760.356264,760.356274,76035627.411594,1,-1.000000,""
python3action_image_processing_job196_55,w0,python3action_image_processing_reduced_0.86,760.361264,1,2000.000000,1,COMPLETED_SUCCESSFULLY,760.366279,0.469128,760.835407,0.005015,0.474143,1.010690,1,-1.000000,""
88_updated,w0,python3action_videoprocessing_SampleVideo_50mb_neowise,617.391246,1,2000.000000,1,COMPLETED_SUCCESSFULLY,617.396261,164.799998,782.196259,0.005015,164.805013,1.000030,0,-1.000000,""
88,w0,python3action_videoprocessing_SampleVideo_50mb,0.000000,1,-1.000000,1,COMPLETED_SUCCESSFULLY,782.196274,0.000010,782.196284,782.196274,782.196284,78219628.400201,0,-1.000000,""
python3action_image_processing_job93_56,w0,python3action_image_processing_reduced_2.59,782.201274,1,2000.000000,1,COMPLETED_SUCCESSFULLY,782.206289,0.000000,782.206289,0.005015,0.005015,900253555.469388,0,-1.000000,""
196_updated,w0,python3action_imageprocessing_SampleImage_60mb_neowise,760.361264,1,2000.000000,1,COMPLETED_SUCCESSFULLY,760.835422,37.500000,798.335422,0.474158,37.974158,1.012644,1,-1.000000,""
196,w0,python3action_imageprocessing_SampleImage_60mb,0.000000,1,-1.000000,1,COMPLETED_SUCCESSFULLY,798.335437,0.000010,798.335447,798.335437,798.335447,79833544.700402,1,-1.000000,""
93_updated,w0,python3action_imageprocessing_SampleImage_40mb_neowise,782.201274,1,2000.000000,1,COMPLETED_SUCCESSFULLY,782.206319,20.909089,803.115408,0.005045,20.914134,1.000241,0,-1.000000,""
93,w0,python3action_imageprocessing_SampleImage_40mb,0.000000,1,-1.000000,1,COMPLETED_SUCCESSFULLY,803.115423,0.000010,803.115433,803.115423,803.115433,80311543.300201,0,-1.000000,""
19_updated,w0,python3action_facedetection_SampleVideo_50mb_nova,572.727023,1,2000.000000,1,COMPLETED_SUCCESSFULLY,572.732038,230.799980,803.532018,0.005015,230.804995,1.000022,9,-1.000000,""
19,w0,python3action_facedetection_SampleVideo_50mb,0.000000,1,-1.000000,1,COMPLETED_SUCCESSFULLY,803.532033,0.000010,803.532043,803.532033,803.532043,80353204.346609,9,-1.000000,""
python3action_video_processing_job195_57,w0,python3action_video_processing_reduced_1.89,803.537033,1,2000.000000,1,COMPLETED_SUCCESSFULLY,803.542048,0.000000,803.542048,0.005015,0.005015,102587033.951163,9,-1.000000,""
192_updated,w0,python3action_linpack_5000_nova,728.090141,1,2000.000000,1,COMPLETED_SUCCESSFULLY,733.856098,81.693692,815.549790,5.765957,87.459649,1.070580,13,-1.000000,""
192,w0,python3action_linpack_5000,0.000000,1,-1.000000,1,COMPLETED_SUCCESSFULLY,815.549805,0.000010,815.549815,815.549805,815.549815,81554981.500201,13,-1.000000,""
python3action_pyaes_job199_58,w0,python3action_pyaes_reduced_0.85,815.554805,1,2000.000000,1,COMPLETED_SUCCESSFULLY,815.559820,0.756124,816.315944,0.005015,0.761139,1.006633,13,-1.000000,""
96_updated,w0,python3action_imageprocessing_SampleImage_60mb_neowise,798.340437,1,2000.000000,1,COMPLETED_SUCCESSFULLY,798.345452,37.500000,835.845452,0.005015,37.505015,1.000134,1,-1.000000,""
96,w0,python3action_imageprocessing_SampleImage_60mb,0.000000,1,-1.000000,1,COMPLETED_SUCCESSFULLY,835.845467,0.000010,835.845477,835.845467,835.845477,83584547.700402,1,-1.000000,""
python3action_facedetection_job3_59,w0,python3action_facedetection_reduced_1.83,835.850467,1,2000.000000,1,COMPLETED_SUCCESSFULLY,835.855482,0.000000,835.855482,0.005015,0.005015,900253555.469388,1,-1.000000,""
99_updated,w0,python3action_floatoperation_100000000_neowise,803.120423,1,2000.000000,1,COMPLETED_SUCCESSFULLY,803.125438,64.600001,867.725439,0.005015,64.605016,1.000078,0,-1.000000,""
99,w0,python3action_floatoperation_100000000,0.000000,1,-1.000000,1,COMPLETED_SUCCESSFULLY,867.725454,0.000010,867.725464,867.725454,867.725464,86772546.411594,0,-1.000000,""
195_updated,w0,python3action_videoprocessing_SampleVideo_30mb_nova,803.537033,1,2000.000000,1,COMPLETED_SUCCESSFULLY,803.542078,106.799980,910.342058,0.005045,106.805025,1.000047,9,-1.000000,""
195,w0,python3action_videoprocessing_SampleVideo_30mb,0.000000,1,-1.000000,1,COMPLETED_SUCCESSFULLY,910.342073,0.000010,910.342083,910.342073,910.342083,91034208.347010,9,-1.000000,""
python3action_pyaes_job21_60,w0,python3action_pyaes,910.347073,1,2000.000000,1,COMPLETED_SUCCESSFULLY,910.352088,2.134958,912.487046,0.005015,2.139973,1.002349,9,-1.000000,""
35_updated,w0,python3action_chameleon_3000_neowise,867.730454,1,2000.000000,1,COMPLETED_SUCCESSFULLY,867.735469,55.799998,923.535467,0.005015,55.805013,1.000090,0,-1.000000,""
35,w0,python3action_chameleon_3000,0.000000,1,-1.000000,1,COMPLETED_SUCCESSFULLY,923.535482,0.000010,923.535492,923.535482,923.535492,92353549.200201,0,-1.000000,""
40_updated,w0,python3action_modeltraining_reviews100mb_neowise,923.540482,1,2000.000000,1,COMPLETED_SUCCESSFULLY,923.545497,43.399999,966.945496,0.005015,43.405014,1.000116,0,-1.000000,""
40,w0,python3action_modeltraining_reviews100mb,0.000000,1,-1.000000,1,COMPLETED_SUCCESSFULLY,966.945511,0.000010,966.945521,966.945511,966.945521,96694552.100201,0,-1.000000,""
134_updated,w0,python3action_videoprocessing_SampleVideo_30mb_yeti,479.823966,1,2000.000000,1,COMPLETED_SUCCESSFULLY,479.829011,493.464514,973.293525,0.005045,493.469559,1.000010,8,-1.000000,""
134,w0,python3action_videoprocessing_SampleVideo_30mb,0.000000,1,-1.000000,1,COMPLETED_SUCCESSFULLY,973.293540,0.000010,973.293550,973.293540,973.293550,97329355.024630,8,-1.000000,""
python3action_chameleon_job14_61,w0,python3action_chameleon_reduced_0.85,973.298540,1,2000.000000,1,COMPLETED_SUCCESSFULLY,973.303555,0.320244,973.623799,0.005015,0.325259,1.015660,8,-1.000000,""
102_updated,w0,python3action_chameleon_3000_nova,322.481762,1,2000.000000,1,COMPLETED_SUCCESSFULLY,322.807036,662.200020,985.007056,0.325274,662.525294,1.000491,10,-1.000000,""
102,w0,python3action_chameleon_3000,0.000000,1,-1.000000,1,COMPLETED_SUCCESSFULLY,985.007071,0.000010,985.007081,985.007071,985.007081,98500708.100201,10,-1.000000,""
python3action_floatoperation_job24_62,w0,python3action_floatoperation,985.012071,1,2000.000000,1,COMPLETED_SUCCESSFULLY,985.017086,2.439945,987.457031,0.005015,2.444960,1.002055,10,-1.000000,""
21_updated,w0,python3action_pyaes_3000_nova,910.347073,1,2000.000000,1,COMPLETED_SUCCESSFULLY,912.487061,78.200020,990.687081,2.139988,80.340008,1.027366,9,-1.000000,""
21,w0,python3action_pyaes_3000,0.000000,1,-1.000000,1,COMPLETED_SUCCESSFULLY,990.687096,0.000010,990.687106,990.687096,990.687106,99068710.600201,9,-1.000000,""
3_updated,w0,python3action_facedetection_SampleVideo_30mb_neowise,835.850467,1,2000.000000,1,COMPLETED_SUCCESSFULLY,835.855512,162.200002,998.055514,0.005045,162.205047,1.000031,1,-1.000000,""
3,w0,python3action_facedetection_SampleVideo_30mb,0.000000,1,-1.000000,1,COMPLETED_SUCCESSFULLY,998.055529,0.000010,998.055539,998.055529,998.055539,99805553.923188,1,-1.000000,""
199_updated,w0,python3action_pyaes_3000_nova,815.554805,1,2000.000000,1,COMPLETED_SUCCESSFULLY,816.315959,184.637181,1000.953140,0.761154,185.398335,1.004122,13,-1.000000,""
199,w0,python3action_pyaes_3000,0.000000,1,-1.000000,1,COMPLETED_SUCCESSFULLY,1000.953155,0.000010,1000.953165,1000.953155,1000.953165,100095316.541331,13,-1.000000,""
python3action_chameleon_job34_63,w0,python3action_chameleon_reduced_1.7,1000.958155,1,2000.000000,1,COMPLETED_SUCCESSFULLY,1000.963170,0.000000,1000.963170,0.005015,0.005015,43503377.892505,13,-1.000000,""
121_updated,w0,python3action_facedetection_SampleVideo_50mb_gemini,208.219842,1,2000.000000,1,COMPLETED_SUCCESSFULLY,238.724555,763.378645,1002.103200,30.504713,793.883358,1.039960,6,-1.000000,""
121,w0,python3action_facedetection_SampleVideo_50mb,0.000000,1,-1.000000,1,COMPLETED_SUCCESSFULLY,1002.103215,0.000010,1002.103225,1002.103215,1002.103225,100210322.504871,6,-1.000000,""
python3action_modeltraining_job127_64,w0,python3action_modeltraining_reduced_0.94,1002.108215,1,2000.000000,1,COMPLETED_SUCCESSFULLY,1002.113230,0.000000,1002.113230,0.005015,0.005015,1696631699.807692,6,-1.000000,""
51_updated,w0,python3action_modeltraining_reviews100mb_neowise,998.060529,1,2000.000000,1,COMPLETED_SUCCESSFULLY,998.065544,43.399999,1041.465543,0.005015,43.405014,1.000116,1,-1.000000,""
51,w0,python3action_modeltraining_reviews100mb,0.000000,1,-1.000000,1,COMPLETED_SUCCESSFULLY,1041.465558,0.000010,1041.465568,1041.465558,1041.465568,104146556.800201,1,-1.000000,""
14_updated,w0,python3action_chameleon_2000_yeti,973.298540,1,2000.000000,1,COMPLETED_SUCCESSFULLY,973.623814,79.321057,1052.944871,0.325274,79.646331,1.004101,8,-1.000000,""
14,w0,python3action_chameleon_2000,0.000000,1,-1.000000,1,COMPLETED_SUCCESSFULLY,1052.944886,0.000010,1052.944896,1052.944886,1052.944896,105294489.600592,8,-1.000000,""
133_updated,w0,python3action_facedetection_SampleVideo_50mb_troll,355.385535,1,2000.000000,1,COMPLETED_SUCCESSFULLY,355.390580,713.363454,1068.754034,0.005045,713.368499,1.000007,7,-1.000000,""
133,w0,python3action_facedetection_SampleVideo_50mb,0.000000,1,-1.000000,1,COMPLETED_SUCCESSFULLY,1068.754049,0.000010,1068.754059,1068.754049,1068.754059,106875405.931371,7,-1.000000,""
46_updated,w0,python3action_linpack_6000_neowise,966.950511,1,2000.000000,1,COMPLETED_SUCCESSFULLY,966.955526,108.600001,1075.555527,0.005015,108.605016,1.000046,0,-1.000000,""
46,w0,python3action_linpack_6000,0.000000,1,-1.000000,1,COMPLETED_SUCCESSFULLY,1075.555542,0.000010,1075.555552,1075.555542,1075.555552,107555555.211594,0,-1.000000,""
57_updated,w0,python3action_modeltraining_reviews100mb_neowise,1041.470558,1,2000.000000,1,COMPLETED_SUCCESSFULLY,1041.475573,43.399999,1084.875572,0.005015,43.405014,1.000116,1,-1.000000,""
57,w0,python3action_modeltraining_reviews100mb,0.000000,1,-1.000000,1,COMPLETED_SUCCESSFULLY,1084.875587,0.000010,1084.875597,1084.875587,1084.875597,108487559.700201,1,-1.000000,""
python3action_video_processing_job68_65,w0,python3action_video_processing_reduced_2.8,1084.880587,1,2000.000000,1,COMPLETED_SUCCESSFULLY,1084.885602,0.000000,1084.885602,0.005015,0.005015,919008837.875000,1,-1.000000,""
62_updated,w0,python3action_linpack_5000_neowise,1075.560542,1,2000.000000,1,COMPLETED_SUCCESSFULLY,1075.565557,20.750000,1096.315557,0.005015,20.755015,1.000242,0,-1.000000,""
62,w0,python3action_linpack_5000,0.000000,1,-1.000000,1,COMPLETED_SUCCESSFULLY,1096.315572,0.000010,1096.315582,1096.315572,1096.315582,109631558.200402,0,-1.000000,""
24_updated,w0,python3action_floatoperation_200000000_nova,985.012071,1,2000.000000,1,COMPLETED_SUCCESSFULLY,987.457046,135.399990,1122.857037,2.444975,137.844966,1.018057,10,-1.000000,""
24,w0,python3action_floatoperation_200000000,0.000000,1,-1.000000,1,COMPLETED_SUCCESSFULLY,1122.857052,0.000010,1122.857062,1122.857052,1122.857062,112285706.200201,10,-1.000000,""
29_updated,w0,python3action_facedetection_SampleVideo_30mb_nova,990.692096,1,2000.000000,1,COMPLETED_SUCCESSFULLY,990.697111,160.399990,1151.097101,0.005015,160.405005,1.000031,9,-1.000000,""
29,w0,python3action_facedetection_SampleVideo_30mb,0.000000,1,-1.000000,1,COMPLETED_SUCCESSFULLY,1151.097116,0.000010,1151.097126,1151.097116,1151.097126,115109712.623505,9,-1.000000,""
python3action_linpack_job45_66,w0,python3action_linpack_reduced_0.85,1151.102116,1,2000.000000,1,COMPLETED_SUCCESSFULLY,1151.107131,0.365992,1151.473123,0.005015,0.371007,1.013702,9,-1.000000,""
73_updated,w0,python3action_chameleon_3000_neowise,1096.320572,1,2000.000000,1,COMPLETED_SUCCESSFULLY,1096.325587,55.799998,1152.125585,0.005015,55.805013,1.000090,0,-1.000000,""
73,w0,python3action_chameleon_3000,0.000000,1,-1.000000,1,COMPLETED_SUCCESSFULLY,1152.125600,0.000010,1152.125610,1152.125600,1152.125610,115212561.000201,0,-1.000000,""
127_updated,w0,python3action_modeltraining_reviews100mb_gemini,1002.108215,1,2000.000000,1,COMPLETED_SUCCESSFULLY,1002.113260,189.773360,1191.886620,0.005045,189.778405,1.000027,6,-1.000000,""
127,w0,python3action_modeltraining_reviews100mb,0.000000,1,-1.000000,1,COMPLETED_SUCCESSFULLY,1191.886635,0.000010,1191.886645,1191.886635,1191.886645,119188664.504320,6,-1.000000,""
4_updated,w0,python3action_chameleon_2000_nova,1122.862052,1,2000.000000,1,COMPLETED_SUCCESSFULLY,1122.867067,70.600010,1193.467077,0.005015,70.605025,1.000071,10,-1.000000,""
4,w0,python3action_chameleon_2000,0.000000,1,-1.000000,1,COMPLETED_SUCCESSFULLY,1193.467092,0.000010,1193.467102,1193.467092,1193.467102,119346710.200201,10,-1.000000,""
python3action_modeltraining_job50_68,w0,python3action_modeltraining_reduced_1.94,1193.472092,1,2000.000000,1,COMPLETED_SUCCESSFULLY,1193.477107,0.000000,1193.477107,0.005015,0.005015,102587033.953488,10,-1.000000,""
python3action_floatoperation_job132_67,w0,python3action_floatoperation,1191.891635,1,2000.000000,1,COMPLETED_SUCCESSFULLY,1191.896650,2.439945,1194.336595,0.005015,2.444960,1.002055,6,-1.000000,""
139_updated,w0,python3action_floatoperation_100000000_troll,1068.759049,1,2000.000000,1,COMPLETED_SUCCESSFULLY,1068.764064,125.863576,1194.627640,0.005015,125.868591,1.000040,7,-1.000000,""
139,w0,python3action_floatoperation_100000000,0.000000,1,-1.000000,1,COMPLETED_SUCCESSFULLY,1194.627655,0.000010,1194.627665,1194.627655,1194.627665,119462766.542174,7,-1.000000,""
python3action_linpack_job144_69,w0,python3action_linpack,1194.632655,1,2000.000000,1,COMPLETED_SUCCESSFULLY,1194.637670,2.439945,1197.077615,0.005015,2.444960,1.002055,7,-1.000000,""
68_updated,w0,python3action_videoprocessing_SampleVideo_50mb_neowise,1084.880587,1,2000.000000,1,COMPLETED_SUCCESSFULLY,1084.885632,164.799998,1249.685630,0.005045,164.805043,1.000031,1,-1.000000,""
68,w0,python3action_videoprocessing_SampleVideo_50mb,0.000000,1,-1.000000,1,COMPLETED_SUCCESSFULLY,1249.685645,0.000010,1249.685655,1249.685645,1249.685655,124968565.500201,1,-1.000000,""
144_updated,w0,python3action_linpack_5000_troll,1194.632655,1,2000.000000,1,COMPLETED_SUCCESSFULLY,1197.077630,72.976261,1270.053892,2.444975,75.421237,1.033504,7,-1.000000,""
144,w0,python3action_linpack_5000,0.000000,1,-1.000000,1,COMPLETED_SUCCESSFULLY,1270.053907,0.000010,1270.053917,1270.053907,1270.053917,127005391.700201,7,-1.000000,""
50_updated,w0,python3action_modeltraining_reviews100mb_nova,1193.472092,1,2000.000000,1,COMPLETED_SUCCESSFULLY,1193.477137,79.600010,1273.077147,0.005045,79.605055,1.000063,10,-1.000000,""
50,w0,python3action_modeltraining_reviews100mb,0.000000,1,-1.000000,1,COMPLETED_SUCCESSFULLY,1273.077162,0.000010,1273.077172,1273.077162,1273.077172,127307717.200201,10,-1.000000,""
python3action_linpack_job56_70,w0,python3action_linpack_reduced_1.7,1273.082162,1,2000.000000,1,COMPLETED_SUCCESSFULLY,1273.087177,0.000000,1273.087177,0.005015,0.005015,102587033.953488,10,-1.000000,""
84_updated,w0,python3action_chameleon_2000_neowise,1249.690645,1,2000.000000,1,COMPLETED_SUCCESSFULLY,1249.695660,24.200002,1273.895662,0.005015,24.205017,1.000207,1,-1.000000,""
84,w0,python3action_chameleon_2000,0.000000,1,-1.000000,1,COMPLETED_SUCCESSFULLY,1273.895677,0.000010,1273.895687,1273.895677,1273.895687,127389568.722787,1,-1.000000,""
79_updated,w0,python3action_floatoperation_200000000_neowise,1152.130600,1,2000.000000,1,COMPLETED_SUCCESSFULLY,1152.135615,129.200002,1281.335617,0.005015,129.205017,1.000039,0,-1.000000,""
79,w0,python3action_floatoperation_200000000,0.000000,1,-1.000000,1,COMPLETED_SUCCESSFULLY,1281.335632,0.000010,1281.335642,1281.335632,1281.335642,128133564.222787,0,-1.000000,""
145_updated,w0,python3action_pyaes_4000_yeti,1052.949886,1,2000.000000,1,COMPLETED_SUCCESSFULLY,1052.954901,252.312656,1305.267557,0.005015,252.317671,1.000020,8,-1.000000,""
145,w0,python3action_pyaes_4000,0.000000,1,-1.000000,1,COMPLETED_SUCCESSFULLY,1305.267572,0.000010,1305.267582,1305.267572,1305.267582,130526758.200201,8,-1.000000,""
45_updated,w0,python3action_linpack_6000_nova,1151.102116,1,2000.000000,1,COMPLETED_SUCCESSFULLY,1151.473138,276.000000,1427.473138,0.371022,276.371022,1.001344,9,-1.000000,""
45,w0,python3action_linpack_6000,0.000000,1,-1.000000,1,COMPLETED_SUCCESSFULLY,1427.473153,0.000010,1427.473163,1427.473153,1427.473163,142747316.300401,9,-1.000000,""
python3action_floatoperation_job61_71,w0,python3action_floatoperation,1427.478153,1,2000.000000,1,COMPLETED_SUCCESSFULLY,1427.483168,2.439945,1429.923113,0.005015,2.444960,1.002055,9,-1.000000,""
132_updated,w0,python3action_floatoperation_200000000_gemini,1191.891635,1,2000.000000,1,COMPLETED_SUCCESSFULLY,1194.336610,348.325941,1542.662552,2.444975,350.770917,1.007019,6,-1.000000,""
132,w0,python3action_floatoperation_200000000,0.000000,1,-1.000000,1,COMPLETED_SUCCESSFULLY,1542.662567,0.000010,1542.662577,1542.662567,1542.662577,154266257.700201,6,-1.000000,""
56_updated,w0,python3action_linpack_6000_nova,1273.082162,1,2000.000000,1,COMPLETED_SUCCESSFULLY,1273.087207,276.000000,1549.087207,0.005045,276.005045,1.000018,10,-1.000000,""
56,w0,python3action_linpack_6000,0.000000,1,-1.000000,1,COMPLETED_SUCCESSFULLY,1549.087222,0.000010,1549.087232,1549.087222,1549.087232,154908723.200803,10,-1.000000,""
15_updated,w0,python3action_pyaes_4000_yeti,1305.272572,1,2000.000000,1,COMPLETED_SUCCESSFULLY,1305.277587,252.312656,1557.590243,0.005015,252.317671,1.000020,8,-1.000000,""
15,w0,python3action_pyaes_4000,0.000000,1,-1.000000,1,COMPLETED_SUCCESSFULLY,1557.590258,0.000010,1557.590268,1557.590258,1557.590268,155759026.800201,8,-1.000000,""
61_updated,w0,python3action_floatoperation_200000000_nova,1427.478153,1,2000.000000,1,COMPLETED_SUCCESSFULLY,1429.923128,135.399990,1565.323119,2.444975,137.844966,1.018057,9,-1.000000,""
61,w0,python3action_floatoperation_200000000,0.000000,1,-1.000000,1,COMPLETED_SUCCESSFULLY,1565.323134,0.000010,1565.323144,1565.323134,1565.323144,156532314.400201,9,-1.000000,""
155_updated,w0,python3action_modeltraining_reviews50mb_yeti,1557.595258,1,2000.000000,1,COMPLETED_SUCCESSFULLY,1557.600273,53.412153,1611.012426,0.005015,53.417168,1.000094,8,-1.000000,""
155,w0,python3action_modeltraining_reviews50mb,0.000000,1,-1.000000,1,COMPLETED_SUCCESSFULLY,1611.012441,0.000010,1611.012451,1611.012441,1611.012451,161101245.100201,8,-1.000000,""
python3action_linpack_job160_72,w0,python3action_linpack_reduced_1.7,1611.017441,1,2000.000000,1,COMPLETED_SUCCESSFULLY,1611.022456,0.000000,1611.022456,0.005015,0.005015,102587033.953488,8,-1.000000,""
67_updated,w0,python3action_pyaes_3000_nova,1549.092222,1,2000.000000,1,COMPLETED_SUCCESSFULLY,1549.097237,78.200020,1627.297257,0.005015,78.205035,1.000064,10,-1.000000,""
67,w0,python3action_pyaes_3000,0.000000,1,-1.000000,1,COMPLETED_SUCCESSFULLY,1627.297272,0.000010,1627.297282,1627.297272,1627.297282,162729728.200201,10,-1.000000,""
138_updated,w0,python3action_chameleon_2000_gemini,1542.667567,1,2000.000000,1,COMPLETED_SUCCESSFULLY,1542.672582,85.704098,1628.376680,0.005015,85.709113,1.000059,6,-1.000000,""
138,w0,python3action_chameleon_2000,0.000000,1,-1.000000,1,COMPLETED_SUCCESSFULLY,1628.376695,0.000010,1628.376705,1628.376695,1628.376705,162837670.508441,6,-1.000000,""
python3action_image_processing_job143_73,w0,python3action_image_processing_reduced_1.73,1628.381695,1,2000.000000,1,COMPLETED_SUCCESSFULLY,1628.386710,0.000000,1628.386710,0.005015,0.005015,102587033.948837,6,-1.000000,""
72_updated,w0,python3action_pyaes_3000_nova,1565.328134,1,2000.000000,1,COMPLETED_SUCCESSFULLY,1565.333149,78.200020,1643.533169,0.005015,78.205035,1.000064,9,-1.000000,""
72,w0,python3action_pyaes_3000,0.000000,1,-1.000000,1,COMPLETED_SUCCESSFULLY,1643.533184,0.000010,1643.533194,1643.533184,1643.533194,164353319.400201,9,-1.000000,""
python3action_image_processing_job83_74,w0,python3action_image_processing_reduced_2.59,1643.538184,1,2000.000000,1,COMPLETED_SUCCESSFULLY,1643.543199,0.000000,1643.543199,0.005015,0.005015,102587033.953488,9,-1.000000,""
83_updated,w0,python3action_imageprocessing_SampleImage_40mb_nova,1643.538184,1,2000.000000,1,COMPLETED_SUCCESSFULLY,1643.543229,36.000000,1679.543229,0.005045,36.005045,1.000140,9,-1.000000,""
83,w0,python3action_imageprocessing_SampleImage_40mb,0.000000,1,-1.000000,1,COMPLETED_SUCCESSFULLY,1679.543244,0.000010,1679.543254,1679.543244,1679.543254,167954325.400803,9,-1.000000,""
160_updated,w0,python3action_linpack_5000_yeti,1611.017441,1,2000.000000,1,COMPLETED_SUCCESSFULLY,1611.022486,76.929468,1687.951954,0.005045,76.934513,1.000066,8,-1.000000,""
160,w0,python3action_linpack_5000,0.000000,1,-1.000000,1,COMPLETED_SUCCESSFULLY,1687.951969,0.000010,1687.951979,1687.951969,1687.951979,168795197.908794,8,-1.000000,""
143_updated,w0,python3action_imageprocessing_SampleImage_40mb_gemini,1628.381695,1,2000.000000,1,COMPLETED_SUCCESSFULLY,1628.386740,83.255410,1711.642150,0.005045,83.260455,1.000061,6,-1.000000,""
143,w0,python3action_imageprocessing_SampleImage_40mb,0.000000,1,-1.000000,1,COMPLETED_SUCCESSFULLY,1711.642165,0.000010,1711.642175,1711.642165,1711.642175,171164217.500201,6,-1.000000,""
78_updated,w0,python3action_videoprocessing_SampleVideo_50mb_nova,1627.302272,1,2000.000000,1,COMPLETED_SUCCESSFULLY,1627.307287,139.600010,1766.907297,0.005015,139.605025,1.000036,10,-1.000000,""
78,w0,python3action_videoprocessing_SampleVideo_50mb,0.000000,1,-1.000000,1,COMPLETED_SUCCESSFULLY,1766.907312,0.000010,1766.907322,1766.907312,1766.907322,176690732.200201,10,-1.000000,""
149_updated,w0,python3action_floatoperation_100000000_gemini,1711.647165,1,2000.000000,1,COMPLETED_SUCCESSFULLY,1711.652180,174.469057,1886.121237,0.005015,174.474072,1.000029,6,-1.000000,""
149,w0,python3action_floatoperation_100000000,0.000000,1,-1.000000,1,COMPLETED_SUCCESSFULLY,1886.121252,0.000010,1886.121262,1886.121252,1886.121262,188612126.200201,6,-1.000000,""
166_updated,w0,python3action_chameleon_3000_yeti,1687.956969,1,2000.000000,1,COMPLETED_SUCCESSFULLY,1687.961984,222.417770,1910.379754,0.005015,222.422785,1.000023,8,-1.000000,""
166,w0,python3action_chameleon_3000,0.000000,1,-1.000000,1,COMPLETED_SUCCESSFULLY,1910.379769,0.000010,1910.379779,1910.379769,1910.379779,191037977.900201,8,-1.000000,""
104_updated,w0,python3action_chameleon_3000_nova,362.812955,1,2000.000000,1,COMPLETED_SUCCESSFULLY,363.574109,1563.512974,1927.087083,0.761154,1564.274128,1.000487,11,-1.000000,""
104,w0,python3action_chameleon_3000,0.000000,1,-1.000000,1,COMPLETED_SUCCESSFULLY,1927.087098,0.000010,1927.087108,1927.087098,1927.087108,192708710.828610,11,-1.000000,""
153_updated,w0,python3action_chameleon_2000_gemini,1886.126252,1,2000.000000,1,COMPLETED_SUCCESSFULLY,1886.131267,85.704098,1971.835365,0.005015,85.709113,1.000059,6,-1.000000,""
153,w0,python3action_chameleon_2000,0.000000,1,-1.000000,1,COMPLETED_SUCCESSFULLY,1971.835380,0.000010,1971.835390,1971.835380,1971.835390,197183539.008441,6,-1.000000,""
183_updated,w0,python3action_chameleon_3000_nova,417.991086,1,2000.000000,1,COMPLETED_SUCCESSFULLY,417.996101,1563.512974,1981.509075,0.005015,1563.517989,1.000003,12,-1.000000,""
183,w0,python3action_chameleon_3000,0.000000,1,-1.000000,1,COMPLETED_SUCCESSFULLY,1981.509090,0.000010,1981.509100,1981.509090,1981.509100,198150910.028610,12,-1.000000,""
0_updated,w0,python3action_facedetection_SampleVideo_50mb_troll,1270.058907,1,2000.000000,1,COMPLETED_SUCCESSFULLY,1270.063922,713.363454,1983.427376,0.005015,713.368469,1.000007,7,-1.000000,""
0,w0,python3action_facedetection_SampleVideo_50mb,0.000000,1,-1.000000,1,COMPLETED_SUCCESSFULLY,1983.427391,0.000010,1983.427401,1983.427391,1983.427401,198342740.130969,7,-1.000000,""
159_updated,w0,python3action_facedetection_SampleVideo_30mb_gemini,1971.840380,1,2000.000000,1,COMPLETED_SUCCESSFULLY,1971.845395,375.261515,2347.106910,0.005015,375.266530,1.000013,6,-1.000000,""
159,w0,python3action_facedetection_SampleVideo_30mb,0.000000,1,-1.000000,1,COMPLETED_SUCCESSFULLY,2347.106925,0.000010,2347.106935,2347.106925,2347.106935,234710693.517033,6,-1.000000,""
169_updated,w0,python3action_linpack_6000_yeti,1910.384769,1,2000.000000,1,COMPLETED_SUCCESSFULLY,1910.389784,511.002833,2421.392617,0.005015,511.007848,1.000010,8,-1.000000,""
169,w0,python3action_linpack_6000,0.000000,1,-1.000000,1,COMPLETED_SUCCESSFULLY,2421.392632,0.000010,2421.392642,2421.392632,2421.392642,242139264.200358,8,-1.000000,""
34_updated,w0,python3action_chameleon_3000_nova,1000.958155,1,2000.000000,1,COMPLETED_SUCCESSFULLY,1000.963200,1563.512974,2564.476174,0.005045,1563.518019,1.000003,13,-1.000000,""
34,w0,python3action_chameleon_3000,0.000000,1,-1.000000,1,COMPLETED_SUCCESSFULLY,2564.476189,0.000010,2564.476199,2564.476189,2564.476199,256447619.929012,13,-1.000000,""
154_updated,w0,python3action_linpack_6000_troll,1983.432391,1,2000.000000,1,COMPLETED_SUCCESSFULLY,1983.437406,620.708201,2604.145607,0.005015,620.713216,1.000008,7,-1.000000,""
154,w0,python3action_linpack_6000,0.000000,1,-1.000000,1,COMPLETED_SUCCESSFULLY,2604.145622,0.000010,2604.145632,2604.145622,2604.145632,260414563.204930,7,-1.000000,""
16_updated,w0,python3action_modeltraining_reviews50mb_troll,2604.150622,1,2000.000000,1,COMPLETED_SUCCESSFULLY,2604.155637,69.696429,2673.852066,0.005015,69.701444,1.000072,7,-1.000000,""
16,w0,python3action_modeltraining_reviews50mb,0.000000,1,-1.000000,1,COMPLETED_SUCCESSFULLY,2673.852081,0.000010,2673.852091,2673.852081,2673.852091,267385209.144767,7,-1.000000,""
python3action_chameleon_job165_75,w0,python3action_chameleon_reduced_0.85,2673.857081,1,2000.000000,1,COMPLETED_SUCCESSFULLY,2673.862096,0.320244,2674.182340,0.005015,0.325259,1.015660,7,-1.000000,""
164_updated,w0,python3action_floatoperation_200000000_gemini,2347.111925,1,2000.000000,1,COMPLETED_SUCCESSFULLY,2347.116940,348.325941,2695.442881,0.005015,348.330956,1.000014,6,-1.000000,""
164,w0,python3action_floatoperation_200000000,0.000000,1,-1.000000,1,COMPLETED_SUCCESSFULLY,2695.442896,0.000010,2695.442906,2695.442896,2695.442906,269544290.648793,6,-1.000000,""
165_updated,w0,python3action_chameleon_2000_troll,2673.857081,1,2000.000000,1,COMPLETED_SUCCESSFULLY,2674.182355,97.165047,2771.347402,0.325274,97.490321,1.003348,7,-1.000000,""
165,w0,python3action_chameleon_2000,0.000000,1,-1.000000,1,COMPLETED_SUCCESSFULLY,2771.347417,0.000010,2771.347427,2771.347417,2771.347427,277134742.700201,7,-1.000000,""
108_updated,w0,python3action_chameleon_2000_troll,2771.352417,1,2000.000000,1,COMPLETED_SUCCESSFULLY,2771.357432,97.165047,2868.522479,0.005015,97.170062,1.000052,7,-1.000000,""
108,w0,python3action_chameleon_2000,0.000000,1,-1.000000,1,COMPLETED_SUCCESSFULLY,2868.522494,0.000010,2868.522504,2868.522494,2868.522504,286852250.400201,7,-1.000000,""
python3action_video_processing_job101_76,w0,python3action_video_processing_reduced_1.89,2868.527494,1,2000.000000,1,COMPLETED_SUCCESSFULLY,2868.532509,0.000000,2868.532509,0.005015,0.005015,103066412.616822,7,-1.000000,""
171_updated,w0,python3action_videoprocessing_SampleVideo_50mb_yeti,2421.397632,1,2000.000000,1,COMPLETED_SUCCESSFULLY,2421.402647,686.386021,3107.788668,0.005015,686.391036,1.000007,8,-1.000000,""
171,w0,python3action_videoprocessing_SampleVideo_50mb,0.000000,1,-1.000000,1,COMPLETED_SUCCESSFULLY,3107.788683,0.000010,3107.788693,3107.788683,3107.788693,310778869.300201,8,-1.000000,""
python3action_floatoperation_job175_77,w0,python3action_floatoperation,3107.793683,1,2000.000000,1,COMPLETED_SUCCESSFULLY,3107.798698,2.439945,3110.238643,0.005015,2.444960,1.002055,8,-1.000000,""
175_updated,w0,python3action_floatoperation_200000000_yeti,3107.793683,1,2000.000000,1,COMPLETED_SUCCESSFULLY,3110.238658,253.508426,3363.747084,2.444975,255.953401,1.009645,8,-1.000000,""
175,w0,python3action_floatoperation_200000000,0.000000,1,-1.000000,1,COMPLETED_SUCCESSFULLY,3363.747099,0.000010,3363.747109,3363.747099,3363.747109,336374710.903128,8,-1.000000,""
105_updated,w0,python3action_linpack_5000_yeti,3363.752099,1,2000.000000,1,COMPLETED_SUCCESSFULLY,3363.757114,76.929468,3440.686582,0.005015,76.934483,1.000065,8,-1.000000,""
105,w0,python3action_linpack_5000,0.000000,1,-1.000000,1,COMPLETED_SUCCESSFULLY,3440.686597,0.000010,3440.686607,3440.686597,3440.686607,344068660.708393,8,-1.000000,""
python3action_facedetection_job182_78,w0,python3action_facedetection_reduced_2.74,3440.691597,1,2000.000000,1,COMPLETED_SUCCESSFULLY,3440.696612,0.000000,3440.696612,0.005015,0.005015,103066412.616822,8,-1.000000,""
168_updated,w0,python3action_facedetection_SampleVideo_50mb_gemini,2695.447896,1,2000.000000,1,COMPLETED_SUCCESSFULLY,2695.452911,763.378645,3458.831556,0.005015,763.383660,1.000007,6,-1.000000,""
168,w0,python3action_facedetection_SampleVideo_50mb,0.000000,1,-1.000000,1,COMPLETED_SUCCESSFULLY,3458.831571,0.000010,3458.831581,3458.831571,3458.831581,345883158.104872,6,-1.000000,""
python3action_linpack_job170_79,w0,python3action_linpack_reduced_0.85,3458.836571,1,2000.000000,1,COMPLETED_SUCCESSFULLY,3458.841586,0.365992,3459.207578,0.005015,0.371007,1.013702,6,-1.000000,""
101_updated,w0,python3action_videoprocessing_SampleVideo_50mb_troll,2868.527494,1,2000.000000,1,COMPLETED_SUCCESSFULLY,2868.532539,704.015923,3572.548462,0.005045,704.020968,1.000007,7,-1.000000,""
101,w0,python3action_videoprocessing_SampleVideo_50mb,0.000000,1,-1.000000,1,COMPLETED_SUCCESSFULLY,3572.548477,0.000010,3572.548487,3572.548477,3572.548487,357254848.741936,7,-1.000000,""
174_updated,w0,python3action_chameleon_3000_troll,3572.553477,1,2000.000000,1,COMPLETED_SUCCESSFULLY,3572.558492,231.228154,3803.786646,0.005015,231.233169,1.000022,7,-1.000000,""
174,w0,python3action_chameleon_3000,0.000000,1,-1.000000,1,COMPLETED_SUCCESSFULLY,3803.786661,0.000010,3803.786671,3803.786661,3803.786671,380378667.115827,7,-1.000000,""
python3action_pyaes_job179_80,w0,python3action_pyaes_reduced_1.7,3803.791661,1,2000.000000,1,COMPLETED_SUCCESSFULLY,3803.796676,0.000000,3803.796676,0.005015,0.005015,103066412.607477,7,-1.000000,""
170_updated,w0,python3action_linpack_6000_gemini,3458.836571,1,2000.000000,1,COMPLETED_SUCCESSFULLY,3459.207593,520.958482,3980.166075,0.371022,521.329504,1.000712,6,-1.000000,""
170,w0,python3action_linpack_6000,0.000000,1,-1.000000,1,COMPLETED_SUCCESSFULLY,3980.166090,0.000010,3980.166100,3980.166090,3980.166100,398016610.000201,6,-1.000000,""
179_updated,w0,python3action_pyaes_4000_troll,3803.791661,1,2000.000000,1,COMPLETED_SUCCESSFULLY,3803.796706,251.727104,4055.523810,0.005045,251.732149,1.000020,7,-1.000000,""
179,w0,python3action_pyaes_4000,0.000000,1,-1.000000,1,COMPLETED_SUCCESSFULLY,4055.523825,0.000010,4055.523835,4055.523825,4055.523835,405552383.500201,7,-1.000000,""
182_updated,w0,python3action_facedetection_SampleVideo_50mb_yeti,3440.691597,1,2000.000000,1,COMPLETED_SUCCESSFULLY,3440.696642,707.910321,4148.606963,0.005045,707.915366,1.000007,8,-1.000000,""
182,w0,python3action_facedetection_SampleVideo_50mb,0.000000,1,-1.000000,1,COMPLETED_SUCCESSFULLY,4148.606978,0.000010,4148.606988,4148.606978,4148.606988,414860698.800201,8,-1.000000,""
181_updated,w0,python3action_floatoperation_100000000_troll,4055.528825,1,2000.000000,1,COMPLETED_SUCCESSFULLY,4055.533840,125.863576,4181.397416,0.005015,125.868591,1.000040,7,-1.000000,""
181,w0,python3action_floatoperation_100000000,0.000000,1,-1.000000,1,COMPLETED_SUCCESSFULLY,4181.397431,0.000010,4181.397441,4181.397431,4181.397441,418139744.142174,7,-1.000000,""
185_updated,w0,python3action_chameleon_2000_troll,4181.402431,1,2000.000000,1,COMPLETED_SUCCESSFULLY,4181.407446,97.165047,4278.572493,0.005015,97.170062,1.000052,7,-1.000000,""
185,w0,python3action_chameleon_2000,0.000000,1,-1.000000,1,COMPLETED_SUCCESSFULLY,4278.572508,0.000010,4278.572518,4278.572508,4278.572518,427857251.800201,7,-1.000000,""
112_updated,w0,python3action_linpack_5000_troll,4278.577508,1,2000.000000,1,COMPLETED_SUCCESSFULLY,4278.582523,72.976261,4351.558784,0.005015,72.981276,1.000069,7,-1.000000,""
112,w0,python3action_linpack_5000,0.000000,1,-1.000000,1,COMPLETED_SUCCESSFULLY,4351.558799,0.000010,4351.558809,4351.558799,4351.558809,435155880.942149,7,-1.000000,""
173_updated,w0,python3action_facedetection_SampleVideo_30mb_gemini,3980.171090,1,2000.000000,1,COMPLETED_SUCCESSFULLY,3980.176105,375.261515,4355.437620,0.005015,375.266530,1.000013,6,-1.000000,""
173,w0,python3action_facedetection_SampleVideo_30mb,0.000000,1,-1.000000,1,COMPLETED_SUCCESSFULLY,4355.437635,0.000010,4355.437645,4355.437635,4355.437645,435543764.517033,6,-1.000000,""
110_updated,w0,python3action_pyaes_4000_yeti,4148.611978,1,2000.000000,1,COMPLETED_SUCCESSFULLY,4148.616993,252.312656,4400.929649,0.005015,252.317671,1.000020,8,-1.000000,""
110,w0,python3action_pyaes_4000,0.000000,1,-1.000000,1,COMPLETED_SUCCESSFULLY,4400.929664,0.000010,4400.929674,4400.929664,4400.929674,440092967.400201,8,-1.000000,""
191_updated,w0,python3action_floatoperation_100000000_troll,4351.563799,1,2000.000000,1,COMPLETED_SUCCESSFULLY,4351.568814,125.863576,4477.432390,0.005015,125.868591,1.000040,7,-1.000000,""
191,w0,python3action_floatoperation_100000000,0.000000,1,-1.000000,1,COMPLETED_SUCCESSFULLY,4477.432405,0.000010,4477.432415,4477.432405,4477.432415,447743241.542173,7,-1.000000,""
189_updated,w0,python3action_floatoperation_100000000_yeti,4400.934664,1,2000.000000,1,COMPLETED_SUCCESSFULLY,4400.939679,127.551409,4528.491088,0.005015,127.556424,1.000039,8,-1.000000,""
189,w0,python3action_floatoperation_100000000,0.000000,1,-1.000000,1,COMPLETED_SUCCESSFULLY,4528.491103,0.000010,4528.491113,4528.491103,4528.491113,452849111.317707,8,-1.000000,""
178_updated,w0,python3action_linpack_6000_gemini,4355.442635,1,2000.000000,1,COMPLETED_SUCCESSFULLY,4355.447650,520.958482,4876.406132,0.005015,520.963497,1.000010,6,-1.000000,""
178,w0,python3action_linpack_6000,0.000000,1,-1.000000,1,COMPLETED_SUCCESSFULLY,4876.406147,0.000010,4876.406157,4876.406147,4876.406157,487640615.700201,6,-1.000000,""
87_updated,w0,python3action_facedetection_SampleVideo_30mb_yeti,4528.496103,1,2000.000000,1,COMPLETED_SUCCESSFULLY,4528.501118,620.218727,5148.719845,0.005015,620.223742,1.000008,8,-1.000000,""
87,w0,python3action_facedetection_SampleVideo_30mb,0.000000,1,-1.000000,1,COMPLETED_SUCCESSFULLY,5148.719860,0.000010,5148.719870,5148.719860,5148.719870,514871987.010800,8,-1.000000,""
194_updated,w0,python3action_videoprocessing_SampleVideo_50mb_troll,4477.437405,1,2000.000000,1,COMPLETED_SUCCESSFULLY,4477.442420,704.015923,5181.458343,0.005015,704.020938,1.000007,7,-1.000000,""
194,w0,python3action_videoprocessing_SampleVideo_50mb,0.000000,1,-1.000000,1,COMPLETED_SUCCESSFULLY,5181.458358,0.000010,5181.458368,5181.458358,5181.458368,518145836.841533,7,-1.000000,""
107_updated,w0,python3action_floatoperation_200000000_gemini,4876.411147,1,2000.000000,1,COMPLETED_SUCCESSFULLY,4876.416162,348.325941,5224.742103,0.005015,348.330956,1.000014,6,-1.000000,""
107,w0,python3action_floatoperation_200000000,0.000000,1,-1.000000,1,COMPLETED_SUCCESSFULLY,5224.742118,0.000010,5224.742128,5224.742118,5224.742128,522474212.848792,6,-1.000000,""
198_updated,w0,python3action_chameleon_2000_troll,5181.463358,1,2000.000000,1,COMPLETED_SUCCESSFULLY,5181.468373,97.165047,5278.633420,0.005015,97.170062,1.000052,7,-1.000000,""
198,w0,python3action_chameleon_2000,0.000000,1,-1.000000,1,COMPLETED_SUCCESSFULLY,5278.633435,0.000010,5278.633445,5278.633435,5278.633445,527863344.500201,7,-1.000000,""
20_updated,w0,python3action_floatoperation_200000000_troll,5278.638435,1,2000.000000,1,COMPLETED_SUCCESSFULLY,5278.643450,256.236897,5534.880347,0.005015,256.241912,1.000020,7,-1.000000,""
20,w0,python3action_floatoperation_200000000,0.000000,1,-1.000000,1,COMPLETED_SUCCESSFULLY,5534.880362,0.000010,5534.880372,5534.880362,5534.880372,553488037.238105,7,-1.000000,""
11_updated,w0,python3action_floatoperation_200000000_gemini,5224.747118,1,2000.000000,1,COMPLETED_SUCCESSFULLY,5224.752133,348.325941,5573.078074,0.005015,348.330956,1.000014,6,-1.000000,""
11,w0,python3action_floatoperation_200000000,0.000000,1,-1.000000,1,COMPLETED_SUCCESSFULLY,5573.078089,0.000010,5573.078099,5573.078089,5573.078099,557307809.948792,6,-1.000000,""
9_updated,w0,python3action_linpack_6000_yeti,5148.724860,1,2000.000000,1,COMPLETED_SUCCESSFULLY,5148.729875,511.002833,5659.732708,0.005015,511.007848,1.000010,8,-1.000000,""
9,w0,python3action_linpack_6000,0.000000,1,-1.000000,1,COMPLETED_SUCCESSFULLY,5659.732723,0.000010,5659.732733,5659.732723,5659.732733,565973273.300357,8,-1.000000,""
188_updated,w0,python3action_chameleon_3000_gemini,5573.083089,1,2000.000000,1,COMPLETED_SUCCESSFULLY,5573.088104,205.077663,5778.165767,0.005015,205.082678,1.000024,6,-1.000000,""
188,w0,python3action_chameleon_3000,0.000000,1,-1.000000,1,COMPLETED_SUCCESSFULLY,5778.165782,0.000010,5778.165792,5778.165782,5778.165792,577816579.226782,6,-1.000000,""
86_updated,w0,python3action_imageprocessing_SampleImage_40mb_gemini,5778.170782,1,2000.000000,1,COMPLETED_SUCCESSFULLY,5778.175797,83.255410,5861.431207,0.005015,83.260425,1.000060,6,-1.000000,""
86,w0,python3action_imageprocessing_SampleImage_40mb,0.000000,1,-1.000000,1,COMPLETED_SUCCESSFULLY,5861.431222,0.000010,5861.431232,5861.431222,5861.431232,586143123.200201,6,-1.000000,""
89_updated,w0,python3action_imageprocessing_SampleImage_40mb_gemini,5861.436222,1,2000.000000,1,COMPLETED_SUCCESSFULLY,5861.441237,83.255410,5944.696647,0.005015,83.260425,1.000060,6,-1.000000,""
89,w0,python3action_imageprocessing_SampleImage_40mb,0.000000,1,-1.000000,1,COMPLETED_SUCCESSFULLY,5944.696662,0.000010,5944.696672,5944.696662,5944.696672,594469667.200201,6,-1.000000,""
197_updated,w0,python3action_imageprocessing_SampleImage_60mb_gemini,5944.701662,1,2000.000000,1,COMPLETED_SUCCESSFULLY,5944.706677,162.837786,6107.544463,0.005015,162.842801,1.000031,6,-1.000000,""
197,w0,python3action_imageprocessing_SampleImage_60mb,0.000000,1,-1.000000,1,COMPLETED_SUCCESSFULLY,6107.544478,0.000010,6107.544488,6107.544478,6107.544488,610754448.835677,6,-1.000000,""
94_updated,w0,python3action_chameleon_2000_gemini,6107.549478,1,2000.000000,1,COMPLETED_SUCCESSFULLY,6107.554493,85.704098,6193.258591,0.005015,85.709113,1.000059,6,-1.000000,""
94,w0,python3action_chameleon_2000,0.000000,1,-1.000000,1,COMPLETED_SUCCESSFULLY,6193.258606,0.000010,6193.258616,6193.258606,6193.258616,619325861.608441,6,-1.000000,""
23_updated,w0,python3action_facedetection_SampleVideo_50mb_troll,5534.885362,1,2000.000000,1,COMPLETED_SUCCESSFULLY,5534.890377,713.363454,6248.253831,0.005015,713.368469,1.000007,7,-1.000000,""
23,w0,python3action_facedetection_SampleVideo_50mb,0.000000,1,-1.000000,1,COMPLETED_SUCCESSFULLY,6248.253846,0.000010,6248.253856,6248.253846,6248.253856,624825385.630968,7,-1.000000,""
92_updated,w0,python3action_facedetection_SampleVideo_50mb_yeti,5659.737723,1,2000.000000,1,COMPLETED_SUCCESSFULLY,5659.742738,707.910321,6367.653059,0.005015,707.915336,1.000007,8,-1.000000,""
92,w0,python3action_facedetection_SampleVideo_50mb,0.000000,1,-1.000000,1,COMPLETED_SUCCESSFULLY,6367.653074,0.000010,6367.653084,6367.653074,6367.653084,636765308.400201,8,-1.000000,""
95_updated,w0,python3action_floatoperation_100000000_yeti,6367.658074,1,2000.000000,1,COMPLETED_SUCCESSFULLY,6367.663089,127.551409,6495.214498,0.005015,127.556424,1.000039,8,-1.000000,""
95,w0,python3action_floatoperation_100000000,0.000000,1,-1.000000,1,COMPLETED_SUCCESSFULLY,6495.214513,0.000010,6495.214523,6495.214513,6495.214523,649521452.317707,8,-1.000000,""
97_updated,w0,python3action_facedetection_SampleVideo_30mb_gemini,6193.263606,1,2000.000000,1,COMPLETED_SUCCESSFULLY,6193.268621,375.261515,6568.530136,0.005015,375.266530,1.000013,6,-1.000000,""
97,w0,python3action_facedetection_SampleVideo_30mb,0.000000,1,-1.000000,1,COMPLETED_SUCCESSFULLY,6568.530151,0.000010,6568.530161,6568.530151,6568.530161,656853016.117033,6,-1.000000,""
98_updated,w0,python3action_pyaes_3000_yeti,6495.219513,1,2000.000000,1,COMPLETED_SUCCESSFULLY,6495.224528,142.698139,6637.922667,0.005015,142.703154,1.000035,8,-1.000000,""
98,w0,python3action_pyaes_3000,0.000000,1,-1.000000,1,COMPLETED_SUCCESSFULLY,6637.922682,0.000010,6637.922692,6637.922682,6637.922692,663792269.201637,8,-1.000000,""
26_updated,w0,python3action_chameleon_2000_gemini,6568.535151,1,2000.000000,1,COMPLETED_SUCCESSFULLY,6568.540166,85.704098,6654.244264,0.005015,85.709113,1.000059,6,-1.000000,""
26,w0,python3action_chameleon_2000,0.000000,1,-1.000000,1,COMPLETED_SUCCESSFULLY,6654.244279,0.000010,6654.244289,6654.244279,6654.244289,665424428.908441,6,-1.000000,""
28_updated,w0,python3action_chameleon_2000_yeti,6637.927682,1,2000.000000,1,COMPLETED_SUCCESSFULLY,6637.932697,79.321057,6717.253754,0.005015,79.326072,1.000063,8,-1.000000,""
28,w0,python3action_chameleon_2000,0.000000,1,-1.000000,1,COMPLETED_SUCCESSFULLY,6717.253769,0.000010,6717.253779,6717.253769,6717.253779,671725377.900592,8,-1.000000,""
31_updated,w0,python3action_chameleon_2000_gemini,6654.249279,1,2000.000000,1,COMPLETED_SUCCESSFULLY,6654.254294,85.704098,6739.958392,0.005015,85.709113,1.000059,6,-1.000000,""
31,w0,python3action_chameleon_2000,0.000000,1,-1.000000,1,COMPLETED_SUCCESSFULLY,6739.958407,0.000010,6739.958417,6739.958407,6739.958417,673995841.708441,6,-1.000000,""
37_updated,w0,python3action_imageprocessing_SampleImage_40mb_gemini,6739.963407,1,2000.000000,1,COMPLETED_SUCCESSFULLY,6739.968422,83.255410,6823.223832,0.005015,83.260425,1.000060,6,-1.000000,""
37,w0,python3action_imageprocessing_SampleImage_40mb,0.000000,1,-1.000000,1,COMPLETED_SUCCESSFULLY,6823.223847,0.000010,6823.223857,6823.223847,6823.223857,682322385.700201,6,-1.000000,""
42_updated,w0,python3action_linpack_5000_gemini,6823.228847,1,2000.000000,1,COMPLETED_SUCCESSFULLY,6823.233862,91.213647,6914.447509,0.005015,91.218662,1.000055,6,-1.000000,""
42,w0,python3action_linpack_5000,0.000000,1,-1.000000,1,COMPLETED_SUCCESSFULLY,6914.447524,0.000010,6914.447534,6914.447524,6914.447534,691444753.424673,6,-1.000000,""
27_updated,w0,python3action_facedetection_SampleVideo_50mb_troll,6248.258846,1,2000.000000,1,COMPLETED_SUCCESSFULLY,6248.263861,713.363454,6961.627315,0.005015,713.368469,1.000007,7,-1.000000,""
27,w0,python3action_facedetection_SampleVideo_50mb,0.000000,1,-1.000000,1,COMPLETED_SUCCESSFULLY,6961.627330,0.000010,6961.627340,6961.627330,6961.627340,696162734.030967,7,-1.000000,""
48_updated,w0,python3action_modeltraining_reviews100mb_gemini,6914.452524,1,2000.000000,1,COMPLETED_SUCCESSFULLY,6914.457539,189.773360,7104.230899,0.005015,189.778375,1.000026,6,-1.000000,""
48,w0,python3action_modeltraining_reviews100mb,0.000000,1,-1.000000,1,COMPLETED_SUCCESSFULLY,7104.230914,0.000010,7104.230924,7104.230914,7104.230924,710423092.403918,6,-1.000000,""
53_updated,w0,python3action_imageprocessing_SampleImage_40mb_gemini,7104.235914,1,2000.000000,1,COMPLETED_SUCCESSFULLY,7104.240929,83.255410,7187.496339,0.005015,83.260425,1.000060,6,-1.000000,""
53,w0,python3action_imageprocessing_SampleImage_40mb,0.000000,1,-1.000000,1,COMPLETED_SUCCESSFULLY,7187.496354,0.000010,7187.496364,7187.496354,7187.496364,718749636.400201,6,-1.000000,""
python3action_video_processing_job59_81,w0,python3action_video_processing_reduced_2.8,7187.501354,1,2000.000000,1,COMPLETED_SUCCESSFULLY,7187.506369,0.000000,7187.506369,0.005015,0.005015,102112093.981481,6,-1.000000,""
32_updated,w0,python3action_floatoperation_200000000_troll,6961.632330,1,2000.000000,1,COMPLETED_SUCCESSFULLY,6961.637345,256.236897,7217.874242,0.005015,256.241912,1.000020,7,-1.000000,""
32,w0,python3action_floatoperation_200000000,0.000000,1,-1.000000,1,COMPLETED_SUCCESSFULLY,7217.874257,0.000010,7217.874267,7217.874257,7217.874267,721787426.738105,7,-1.000000,""
33_updated,w0,python3action_facedetection_SampleVideo_30mb_yeti,6717.258769,1,2000.000000,1,COMPLETED_SUCCESSFULLY,6717.263784,620.218727,7337.482511,0.005015,620.223742,1.000008,8,-1.000000,""
33,w0,python3action_facedetection_SampleVideo_30mb,0.000000,1,-1.000000,1,COMPLETED_SUCCESSFULLY,7337.482526,0.000010,7337.482536,7337.482526,7337.482536,733748253.610800,8,-1.000000,""
59_updated,w0,python3action_videoprocessing_SampleVideo_30mb_gemini,7187.501354,1,2000.000000,1,COMPLETED_SUCCESSFULLY,7187.506399,283.435696,7470.942095,0.005045,283.440741,1.000018,6,-1.000000,""
59,w0,python3action_videoprocessing_SampleVideo_30mb,0.000000,1,-1.000000,1,COMPLETED_SUCCESSFULLY,7470.942110,0.000010,7470.942120,7470.942110,7470.942120,747094212.000201,6,-1.000000,""
39_updated,w0,python3action_imageprocessing_SampleImage_60mb_yeti,7337.487526,1,2000.000000,1,COMPLETED_SUCCESSFULLY,7337.492541,170.201436,7507.693977,0.005015,170.206451,1.000029,8,-1.000000,""
39,w0,python3action_imageprocessing_SampleImage_60mb,0.000000,1,-1.000000,1,COMPLETED_SUCCESSFULLY,7507.693992,0.000010,7507.694002,7507.693992,7507.694002,750769400.204172,8,-1.000000,""
64_updated,w0,python3action_modeltraining_reviews50mb_gemini,7470.947110,1,2000.000000,1,COMPLETED_SUCCESSFULLY,7470.952125,105.905778,7576.857903,0.005015,105.910793,1.000047,6,-1.000000,""
64,w0,python3action_modeltraining_reviews50mb,0.000000,1,-1.000000,1,COMPLETED_SUCCESSFULLY,7576.857918,0.000010,7576.857928,7576.857918,7576.857928,757685792.834622,6,-1.000000,""
7_updated,w0,python3action_imageprocessing_SampleImage_40mb_gemini,7576.862918,1,2000.000000,1,COMPLETED_SUCCESSFULLY,7576.867933,83.255410,7660.123343,0.005015,83.260425,1.000060,6,-1.000000,""
7,w0,python3action_imageprocessing_SampleImage_40mb,0.000000,1,-1.000000,1,COMPLETED_SUCCESSFULLY,7660.123358,0.000010,7660.123368,7660.123358,7660.123368,766012336.800201,6,-1.000000,""
44_updated,w0,python3action_pyaes_4000_yeti,7507.698992,1,2000.000000,1,COMPLETED_SUCCESSFULLY,7507.704007,252.312656,7760.016663,0.005015,252.317671,1.000020,8,-1.000000,""
44,w0,python3action_pyaes_4000,0.000000,1,-1.000000,1,COMPLETED_SUCCESSFULLY,7760.016678,0.000010,7760.016688,7760.016678,7760.016688,776001668.800201,8,-1.000000,""
75_updated,w0,python3action_floatoperation_100000000_gemini,7660.128358,1,2000.000000,1,COMPLETED_SUCCESSFULLY,7660.133373,174.469057,7834.602430,0.005015,174.474072,1.000029,6,-1.000000,""
75,w0,python3action_floatoperation_100000000,0.000000,1,-1.000000,1,COMPLETED_SUCCESSFULLY,7834.602445,0.000010,7834.602455,7834.602445,7834.602455,783460245.500201,6,-1.000000,""
80_updated,w0,python3action_chameleon_2000_gemini,7834.607445,1,2000.000000,1,COMPLETED_SUCCESSFULLY,7834.612460,85.704098,7920.316558,0.005015,85.709113,1.000059,6,-1.000000,""
80,w0,python3action_chameleon_2000,0.000000,1,-1.000000,1,COMPLETED_SUCCESSFULLY,7920.316573,0.000010,7920.316583,7920.316573,7920.316583,792031658.308441,6,-1.000000,""
38_updated,w0,python3action_videoprocessing_SampleVideo_50mb_troll,7217.879257,1,2000.000000,1,COMPLETED_SUCCESSFULLY,7217.884272,704.015923,7921.900195,0.005015,704.020938,1.000007,7,-1.000000,""
38,w0,python3action_videoprocessing_SampleVideo_50mb,0.000000,1,-1.000000,1,COMPLETED_SUCCESSFULLY,7921.900210,0.000010,7921.900220,7921.900210,7921.900220,792190022.041533,7,-1.000000,""
43_updated,w0,python3action_pyaes_3000_troll,7921.905210,1,2000.000000,1,COMPLETED_SUCCESSFULLY,7921.910225,140.622820,8062.533045,0.005015,140.627835,1.000036,7,-1.000000,""
43,w0,python3action_pyaes_3000,0.000000,1,-1.000000,1,COMPLETED_SUCCESSFULLY,8062.533060,0.000010,8062.533070,8062.533060,8062.533070,806253307.030392,7,-1.000000,""
python3action_image_processing_job49_82,w0,python3action_image_processing_reduced_2.59,8062.538060,1,2000.000000,1,COMPLETED_SUCCESSFULLY,8062.543075,0.000000,8062.543075,0.005015,0.005015,102112093.981481,7,-1.000000,""
49_updated,w0,python3action_imageprocessing_SampleImage_40mb_troll,8062.538060,1,2000.000000,1,COMPLETED_SUCCESSFULLY,8062.543105,78.306013,8140.849118,0.005045,78.311058,1.000064,7,-1.000000,""
49,w0,python3action_imageprocessing_SampleImage_40mb,0.000000,1,-1.000000,1,COMPLETED_SUCCESSFULLY,8140.849133,0.000010,8140.849143,8140.849133,8140.849143,814084914.300201,7,-1.000000,""
54_updated,w0,python3action_imageprocessing_SampleImage_40mb_troll,8140.854133,1,2000.000000,1,COMPLETED_SUCCESSFULLY,8140.859148,78.306013,8219.165161,0.005015,78.311028,1.000064,7,-1.000000,""
54,w0,python3action_imageprocessing_SampleImage_40mb,0.000000,1,-1.000000,1,COMPLETED_SUCCESSFULLY,8219.165176,0.000010,8219.165186,8219.165176,8219.165186,821916518.600201,7,-1.000000,""
6_updated,w0,python3action_videoprocessing_SampleVideo_30mb_troll,8219.170176,1,2000.000000,1,COMPLETED_SUCCESSFULLY,8219.175191,200.069750,8419.244941,0.005015,200.074765,1.000025,7,-1.000000,""
6,w0,python3action_videoprocessing_SampleVideo_30mb,0.000000,1,-1.000000,1,COMPLETED_SUCCESSFULLY,8419.244956,0.000010,8419.244966,8419.244956,8419.244966,841924496.640698,7,-1.000000,""
5_updated,w0,python3action_videoprocessing_SampleVideo_50mb_yeti,7760.021678,1,2000.000000,1,COMPLETED_SUCCESSFULLY,7760.026693,686.386021,8446.412714,0.005015,686.391036,1.000007,8,-1.000000,""
5,w0,python3action_videoprocessing_SampleVideo_50mb,0.000000,1,-1.000000,1,COMPLETED_SUCCESSFULLY,8446.412729,0.000010,8446.412739,8446.412729,8446.412739,844641273.900201,8,-1.000000,""
55_updated,w0,python3action_videoprocessing_SampleVideo_30mb_yeti,8446.417729,1,2000.000000,1,COMPLETED_SUCCESSFULLY,8446.422744,493.464514,8939.887258,0.005015,493.469529,1.000010,8,-1.000000,""
55,w0,python3action_videoprocessing_SampleVideo_30mb,0.000000,1,-1.000000,1,COMPLETED_SUCCESSFULLY,8939.887273,0.000010,8939.887283,8939.887273,8939.887283,893988728.324228,8,-1.000000,""
65_updated,w0,python3action_linpack_6000_troll,8419.249956,1,2000.000000,1,COMPLETED_SUCCESSFULLY,8419.254971,620.708201,9039.963172,0.005015,620.713216,1.000008,7,-1.000000,""
65,w0,python3action_linpack_6000,0.000000,1,-1.000000,1,COMPLETED_SUCCESSFULLY,9039.963187,0.000010,9039.963197,9039.963187,9039.963197,903996319.704929,7,-1.000000,""
70_updated,w0,python3action_modeltraining_reviews50mb_troll,9039.968187,1,2000.000000,1,COMPLETED_SUCCESSFULLY,9039.973202,69.696429,9109.669631,0.005015,69.701444,1.000072,7,-1.000000,""
70,w0,python3action_modeltraining_reviews50mb,0.000000,1,-1.000000,1,COMPLETED_SUCCESSFULLY,9109.669646,0.000010,9109.669656,9109.669646,9109.669656,910966965.644767,7,-1.000000,""
76_updated,w0,python3action_imageprocessing_SampleImage_60mb_troll,9109.674646,1,2000.000000,1,COMPLETED_SUCCESSFULLY,9109.679661,152.512187,9262.191848,0.005015,152.517202,1.000033,7,-1.000000,""
76,w0,python3action_imageprocessing_SampleImage_60mb,0.000000,1,-1.000000,1,COMPLETED_SUCCESSFULLY,9262.191863,0.000010,9262.191873,9262.191863,9262.191873,926219187.300201,7,-1.000000,""
81_updated,w0,python3action_pyaes_4000_troll,9262.196863,1,2000.000000,1,COMPLETED_SUCCESSFULLY,9262.201878,251.727104,9513.928982,0.005015,251.732119,1.000020,7,-1.000000,""
81,w0,python3action_pyaes_4000,0.000000,1,-1.000000,1,COMPLETED_SUCCESSFULLY,9513.928997,0.000010,9513.929007,9513.928997,9513.929007,951392900.700201,7,-1.000000,""
60_updated,w0,python3action_facedetection_SampleVideo_30mb_yeti,8939.892273,1,2000.000000,1,COMPLETED_SUCCESSFULLY,8939.897288,620.218727,9560.116015,0.005015,620.223742,1.000008,8,-1.000000,""
60,w0,python3action_facedetection_SampleVideo_30mb,0.000000,1,-1.000000,1,COMPLETED_SUCCESSFULLY,9560.116030,0.000010,9560.116040,9560.116030,9560.116040,956011604.010800,8,-1.000000,""
66_updated,w0,python3action_modeltraining_reviews50mb_yeti,9560.121030,1,2000.000000,1,COMPLETED_SUCCESSFULLY,9560.126045,53.412153,9613.538198,0.005015,53.417168,1.000094,8,-1.000000,""
66,w0,python3action_modeltraining_reviews50mb,0.000000,1,-1.000000,1,COMPLETED_SUCCESSFULLY,9613.538213,0.000010,9613.538223,9613.538213,9613.538223,961353822.300201,8,-1.000000,""
71_updated,w0,python3action_linpack_5000_yeti,9613.543213,1,2000.000000,1,COMPLETED_SUCCESSFULLY,9613.548228,76.929468,9690.477696,0.005015,76.934483,1.000065,8,-1.000000,""
71,w0,python3action_linpack_5000,0.000000,1,-1.000000,1,COMPLETED_SUCCESSFULLY,9690.477711,0.000010,9690.477721,9690.477711,9690.477721,969047772.108393,8,-1.000000,""
77_updated,w0,python3action_modeltraining_reviews50mb_yeti,9690.482711,1,2000.000000,1,COMPLETED_SUCCESSFULLY,9690.487726,53.412153,9743.899879,0.005015,53.417168,1.000094,8,-1.000000,""
77,w0,python3action_modeltraining_reviews50mb,0.000000,1,-1.000000,1,COMPLETED_SUCCESSFULLY,9743.899894,0.000010,9743.899904,9743.899894,9743.899904,974389990.400201,8,-1.000000,""
82_updated,w0,python3action_videoprocessing_SampleVideo_50mb_yeti,9743.904894,1,2000.000000,1,COMPLETED_SUCCESSFULLY,9743.909909,686.386021,10430.295930,0.005015,686.391036,1.000007,8,-1.000000,""
82,w0,python3action_videoprocessing_SampleVideo_50mb,0.000000,1,-1.000000,1,COMPLETED_SUCCESSFULLY,10430.295945,0.000010,10430.295955,10430.295945,10430.295955,1043029595.500201,8,-1.000000,""
