job_id,workload_name,profile,submission_time,requested_number_of_resources,requested_time,success,final_state,starting_time,execution_time,finish_time,waiting_time,turnaround_time,stretch,allocated_resources,consumed_energy,metadata
python3action_floatoperation_job19_0,w0,python3action_floatoperation,0.997085,1,2000.000000,1,COMPLETED_SUCCESSFULLY,1.002100,0.277720,1.279820,0.005015,0.282735,1.018058,0,-1.000000,""
python3action_floatoperation_job36_23,w0,python3action_floatoperation,0.997085,1,2000.000000,1,COMPLETED_SUCCESSFULLY,1.002445,0.277720,1.280165,0.005360,0.283080,1.019300,23,-1.000000,""
python3action_floatoperation_job196_18,w0,python3action_floatoperation,0.997085,1,2000.000000,1,COMPLETED_SUCCESSFULLY,1.002370,0.797144,1.799514,0.005285,0.802429,1.006630,18,-1.000000,""
python3action_pyaes_job86_5,w0,python3action_pyaes,0.997085,1,2000.000000,1,COMPLETED_SUCCESSFULLY,1.002175,2.134958,3.137133,0.005090,2.140048,1.002384,5,-1.000000,""
python3action_chameleon_job89_6,w0,python3action_chameleon,0.997085,1,2000.000000,1,COMPLETED_SUCCESSFULLY,1.002190,2.134958,3.137148,0.005105,2.140063,1.002391,6,-1.000000,""
python3action_floatoperation_job9_25,w0,python3action_floatoperation,0.997085,1,2000.000000,1,COMPLETED_SUCCESSFULLY,1.002475,2.439945,3.442420,0.005390,2.445335,1.002209,25,-1.000000,""
python3action_floatoperation_job194_27,w0,python3action_floatoperation,0.997085,1,2000.000000,1,COMPLETED_SUCCESSFULLY,1.002505,2.439945,3.442450,0.005420,2.445365,1.002221,27,-1.000000,""
python3action_modeltraining_job192_1,w0,python3action_modeltraining,0.997085,1,2000.000000,1,COMPLETED_SUCCESSFULLY,1.002115,3.471546,4.473661,0.005030,3.476576,1.001449,1,-1.000000,""
python3action_facedetection_job35_12,w0,python3action_facedetection,0.997085,1,2000.000000,1,COMPLETED_SUCCESSFULLY,1.002280,3.471546,4.473826,0.005195,3.476741,1.001496,12,-1.000000,""
python3action_video_processing_job87_24,w0,python3action_video_processing,0.997085,1,2000.000000,1,COMPLETED_SUCCESSFULLY,1.002460,3.471546,4.474006,0.005375,3.476921,1.001548,24,-1.000000,""
python3action_chameleon_job94_8,w0,python3action_chameleon,0.997085,1,2000.000000,1,COMPLETED_SUCCESSFULLY,1.002220,5.040826,6.043046,0.005135,5.045961,1.001019,8,-1.000000,""
python3action_pyaes_job190_16,w0,python3action_pyaes,0.997085,1,2000.000000,1,COMPLETED_SUCCESSFULLY,1.002340,5.040826,6.043166,0.005255,5.046081,1.001042,16,-1.000000,""
python3action_linpack_job24_10,w0,python3action_linpack,0.997085,1,2000.000000,1,COMPLETED_SUCCESSFULLY,1.002250,5.760927,6.763177,0.005165,5.766092,1.000897,10,-1.000000,""
python3action_linpack_job51_15,w0,python3action_linpack,0.997085,1,2000.000000,1,COMPLETED_SUCCESSFULLY,1.002325,5.760927,6.763252,0.005240,5.766167,1.000910,15,-1.000000,""
36_updated,w0,python3action_floatoperation_200000000_orion,0.997085,1,2000.000000,1,COMPLETED_SUCCESSFULLY,1.280180,8.018525,9.298705,0.283095,8.301620,1.035305,23,-1.000000,""
36,w0,python3action_floatoperation_200000000,0.000000,1,-1.000000,1,COMPLETED_SUCCESSFULLY,9.298720,0.000010,9.298730,9.298720,9.298730,929873.007634,23,-1.000000,""
python3action_pyaes_job41_30,w0,python3action_pyaes,9.298735,1,2000.000000,1,COMPLETED_SUCCESSFULLY,9.303750,0.243006,9.546756,0.005015,0.248021,1.020637,23,-1.000000,""
python3action_video_processing_job193_17,w0,python3action_video_processing,0.997085,1,2000.000000,1,COMPLETED_SUCCESSFULLY,1.002355,9.964414,10.966769,0.005270,9.969684,1.000529,17,-1.000000,""
196_updated,w0,python3action_floatoperation_100000000_orion,0.997085,1,2000.000000,1,COMPLETED_SUCCESSFULLY,1.799529,11.300279,13.099808,0.802444,12.102723,1.071011,18,-1.000000,""
196,w0,python3action_floatoperation_100000000,0.000000,1,-1.000000,1,COMPLETED_SUCCESSFULLY,13.099823,0.000010,13.099833,13.099823,13.099833,1309983.326676,18,-1.000000,""
python3action_modeltraining_job199_19,w0,python3action_modeltraining,0.997085,1,2000.000000,1,COMPLETED_SUCCESSFULLY,1.002385,12.398880,13.401265,0.005300,12.404180,1.000427,19,-1.000000,""
python3action_facedetection_job21_20,w0,python3action_facedetection,0.997085,1,2000.000000,1,COMPLETED_SUCCESSFULLY,1.002400,12.398880,13.401280,0.005315,12.404195,1.000429,20,-1.000000,""
python3action_image_processing_job25_21,w0,python3action_image_processing,0.997085,1,2000.000000,1,COMPLETED_SUCCESSFULLY,1.002415,12.752895,13.755310,0.005330,12.758225,1.000418,21,-1.000000,""
python3action_facedetection_job30_22,w0,python3action_facedetection,0.997085,1,2000.000000,1,COMPLETED_SUCCESSFULLY,1.002430,12.752895,13.755325,0.005345,12.758240,1.000419,22,-1.000000,""
41_updated,w0,python3action_pyaes_4000_orion,9.298735,1,2000.000000,1,COMPLETED_SUCCESSFULLY,9.546771,8.976249,18.523020,0.248036,9.224285,1.027632,23,-1.000000,""
41,w0,python3action_pyaes_4000,0.000000,1,-1.000000,1,COMPLETED_SUCCESSFULLY,18.523035,0.000010,18.523045,18.523035,18.523045,1852304.525347,23,-1.000000,""
python3action_linpack_job52_32,w0,python3action_linpack_reduced_0.85,18.523050,1,2000.000000,1,COMPLETED_SUCCESSFULLY,18.528065,0.041658,18.569723,0.005015,0.046673,1.120385,23,-1.000000,""
199_updated,w0,python3action_modeltraining_reviews50mb_orion,0.997085,1,2000.000000,1,COMPLETED_SUCCESSFULLY,13.401280,7.885705,21.286985,12.404195,20.289900,2.572998,19,-1.000000,""
199,w0,python3action_modeltraining_reviews50mb,0.000000,1,-1.000000,1,COMPLETED_SUCCESSFULLY,21.287000,0.000010,21.287010,21.287000,21.287010,2128701.033835,19,-1.000000,""
35_updated,w0,python3action_facedetection_SampleVideo_30mb_nova,0.997085,1,2000.000000,1,COMPLETED_SUCCESSFULLY,4.473841,18.257105,22.730946,3.476756,21.733861,1.190433,12,-1.000000,""
35,w0,python3action_facedetection_SampleVideo_30mb,0.000000,1,-1.000000,1,COMPLETED_SUCCESSFULLY,22.730961,0.000010,22.730971,22.730961,22.730971,2273097.121450,12,-1.000000,""
python3action_modeltraining_job47_31,w0,python3action_modeltraining,13.099838,1,2000.000000,1,COMPLETED_SUCCESSFULLY,13.104853,9.964414,23.069267,0.005015,9.969429,1.000503,18,-1.000000,""
python3action_image_processing_job57_33,w0,python3action_image_processing_reduced_0.86,22.730976,1,2000.000000,1,COMPLETED_SUCCESSFULLY,22.735991,0.469128,23.205119,0.005015,0.474143,1.010690,12,-1.000000,""
52_updated,w0,python3action_linpack_6000_orion,18.523050,1,2000.000000,1,COMPLETED_SUCCESSFULLY,18.569738,5.110003,23.679741,0.046688,5.156691,1.009137,23,-1.000000,""
52,w0,python3action_linpack_6000,0.000000,1,-1.000000,1,COMPLETED_SUCCESSFULLY,23.679756,0.000010,23.679766,23.679756,23.679766,2367976.600201,23,-1.000000,""
python3action_video_processing_job63_34,w0,python3action_video_processing,23.679771,1,2000.000000,1,COMPLETED_SUCCESSFULLY,23.684786,3.471546,27.156332,0.005015,3.476561,1.001445,23,-1.000000,""
58_updated,w0,python3action_modeltraining_reviews50mb_orion,21.287015,1,2000.000000,1,COMPLETED_SUCCESSFULLY,21.292030,7.885705,29.177735,0.005015,7.890720,1.000636,19,-1.000000,""
58,w0,python3action_modeltraining_reviews50mb,0.000000,1,-1.000000,1,COMPLETED_SUCCESSFULLY,29.177750,0.000010,29.177760,29.177750,29.177760,2917776.021241,19,-1.000000,""
25_updated,w0,python3action_imageprocessing_SampleImage_60mb_orion,0.997085,1,2000.000000,1,COMPLETED_SUCCESSFULLY,13.755325,15.584176,29.339501,12.758240,28.342416,1.818666,21,-1.000000,""
25,w0,python3action_imageprocessing_SampleImage_60mb,0.000000,1,-1.000000,1,COMPLETED_SUCCESSFULLY,29.339516,0.000010,29.339526,29.339516,29.339526,2933952.600201,21,-1.000000,""
47_updated,w0,python3action_modeltraining_reviews50mb_orion,13.099838,1,2000.000000,1,COMPLETED_SUCCESSFULLY,23.069282,6.337381,29.406663,9.969444,16.306825,2.573117,18,-1.000000,""
47,w0,python3action_modeltraining_reviews50mb,0.000000,1,-1.000000,1,COMPLETED_SUCCESSFULLY,29.406678,0.000010,29.406688,29.406678,29.406688,2940668.831735,18,-1.000000,""
python3action_pyaes_job69_35,w0,python3action_pyaes,29.177765,1,2000.000000,1,COMPLETED_SUCCESSFULLY,29.182780,0.867914,30.050694,0.005015,0.872929,1.005778,19,-1.000000,""
python3action_facedetection_job78_37,w0,python3action_facedetection_reduced_0.91,29.406693,1,2000.000000,1,COMPLETED_SUCCESSFULLY,29.411708,0.854093,30.265801,0.005015,0.859108,1.005872,18,-1.000000,""
python3action_linpack_job73_36,w0,python3action_linpack,29.339531,1,2000.000000,1,COMPLETED_SUCCESSFULLY,29.344546,1.020219,30.364765,0.005015,1.025234,1.004916,21,-1.000000,""
python3action_video_processing_job195_2,w0,python3action_video_processing,0.997085,1,2000.000000,1,COMPLETED_SUCCESSFULLY,1.002130,30.499683,31.501813,0.005045,30.504728,1.000165,2,-1.000000,""
python3action_image_processing_job198_3,w0,python3action_image_processing,0.997085,1,2000.000000,1,COMPLETED_SUCCESSFULLY,1.002145,30.499683,31.501828,0.005060,30.504743,1.000166,3,-1.000000,""
python3action_facedetection_job20_4,w0,python3action_facedetection,0.997085,1,2000.000000,1,COMPLETED_SUCCESSFULLY,1.002160,30.499683,31.501843,0.005075,30.504758,1.000166,4,-1.000000,""
python3action_image_processing_job91_7,w0,python3action_image_processing,0.997085,1,2000.000000,1,COMPLETED_SUCCESSFULLY,1.002205,30.499683,31.501888,0.005120,30.504803,1.000168,7,-1.000000,""
python3action_video_processing_job191_26,w0,python3action_video_processing,0.997085,1,2000.000000,1,COMPLETED_SUCCESSFULLY,1.002490,30.499683,31.502173,0.005405,30.505088,1.000177,26,-1.000000,""
python3action_image_processing_job88_28,w0,python3action_image_processing,0.997085,1,2000.000000,1,COMPLETED_SUCCESSFULLY,1.002520,30.499683,31.502203,0.005435,30.505118,1.000178,28,-1.000000,""
python3action_image_processing_job90_29,w0,python3action_image_processing,0.997085,1,2000.000000,1,COMPLETED_SUCCESSFULLY,1.002535,30.499683,31.502218,0.005450,30.505133,1.000179,29,-1.000000,""
193_updated,w0,python3action_videoprocessing_SampleVideo_50mb_orion,0.997085,1,2000.000000,1,COMPLETED_SUCCESSFULLY,10.966784,20.921647,31.888431,9.969699,30.891346,1.476526,17,-1.000000,""
193,w0,python3action_videoprocessing_SampleVideo_50mb,0.000000,1,-1.000000,1,COMPLETED_SUCCESSFULLY,31.888446,0.000010,31.888456,31.888446,31.888456,3188845.600201,17,-1.000000,""
python3action_floatoperation_job83_38,w0,python3action_floatoperation,31.888461,1,2000.000000,1,COMPLETED_SUCCESSFULLY,31.893476,0.797144,32.690620,0.005015,0.802159,1.006291,17,-1.000000,""
63_updated,w0,python3action_videoprocessing_SampleVideo_50mb_orion,23.679771,1,2000.000000,1,COMPLETED_SUCCESSFULLY,27.156347,7.288984,34.445331,3.476576,10.765560,1.476963,23,-1.000000,""
63,w0,python3action_videoprocessing_SampleVideo_50mb,0.000000,1,-1.000000,1,COMPLETED_SUCCESSFULLY,34.445346,0.000010,34.445356,34.445346,34.445356,3444535.614794,23,-1.000000,""
57_updated,w0,python3action_imageprocessing_SampleImage_60mb_nova,22.730976,1,2000.000000,1,COMPLETED_SUCCESSFULLY,23.205134,11.809071,35.014205,0.474158,12.283229,1.040152,12,-1.000000,""
57,w0,python3action_imageprocessing_SampleImage_60mb,0.000000,1,-1.000000,1,COMPLETED_SUCCESSFULLY,35.014220,0.000010,35.014230,35.014220,35.014230,3501423.010060,12,-1.000000,""
python3action_linpack_job62_39,w0,python3action_linpack,35.014235,1,2000.000000,1,COMPLETED_SUCCESSFULLY,35.019250,0.277720,35.296970,0.005015,0.282735,1.018058,12,-1.000000,""
87_updated,w0,python3action_videoprocessing_SampleVideo_30mb_gemini,0.997085,1,2000.000000,1,COMPLETED_SUCCESSFULLY,4.474021,32.261319,36.735340,3.476936,35.738255,1.107774,24,-1.000000,""
87,w0,python3action_videoprocessing_SampleVideo_30mb,0.000000,1,-1.000000,1,COMPLETED_SUCCESSFULLY,36.735355,0.000010,36.735365,36.735355,36.735365,3673536.541603,24,-1.000000,""
73_updated,w0,python3action_linpack_5000_orion,29.339531,1,2000.000000,1,COMPLETED_SUCCESSFULLY,30.364780,6.410759,36.775539,1.025249,7.436008,1.159926,21,-1.000000,""
73,w0,python3action_linpack_5000,0.000000,1,-1.000000,1,COMPLETED_SUCCESSFULLY,36.775554,0.000010,36.775564,36.775554,36.775564,3677556.449999,21,-1.000000,""
python3action_image_processing_job92_40,w0,python3action_image_processing_reduced_0.86,36.735370,1,2000.000000,1,COMPLETED_SUCCESSFULLY,36.740385,0.469128,37.209513,0.005015,0.474143,1.010690,24,-1.000000,""
30_updated,w0,python3action_facedetection_SampleVideo_50mb_orion,0.997085,1,2000.000000,1,COMPLETED_SUCCESSFULLY,13.755355,23.482528,37.237883,12.758270,36.240798,1.543309,22,-1.000000,""
30,w0,python3action_facedetection_SampleVideo_50mb,0.000000,1,-1.000000,1,COMPLETED_SUCCESSFULLY,37.237898,0.000010,37.237908,37.237898,37.237908,3723790.800201,22,-1.000000,""
python3action_video_processing_job122_41,w0,python3action_video_processing_reduced_0.91,36.775570,1,2000.000000,1,COMPLETED_SUCCESSFULLY,36.780585,1.093105,37.873690,0.005015,1.098120,1.004588,21,-1.000000,""
python3action_image_processing_job128_42,w0,python3action_image_processing_reduced_0.86,37.237913,1,2000.000000,1,COMPLETED_SUCCESSFULLY,37.242928,1.723364,38.966292,0.005015,1.728379,1.002910,22,-1.000000,""
62_updated,w0,python3action_linpack_5000_nova,35.014235,1,2000.000000,1,COMPLETED_SUCCESSFULLY,35.296985,3.938255,39.235240,0.282750,4.221005,1.071796,12,-1.000000,""
62,w0,python3action_linpack_5000,0.000000,1,-1.000000,1,COMPLETED_SUCCESSFULLY,39.235255,0.000010,39.235265,39.235255,39.235265,3923526.505439,12,-1.000000,""
python3action_chameleon_job68_43,w0,python3action_chameleon_reduced_0.85,39.235270,1,2000.000000,1,COMPLETED_SUCCESSFULLY,39.240285,0.036451,39.276736,0.005015,0.041466,1.137582,12,-1.000000,""
117_updated,w0,python3action_videoprocessing_SampleVideo_50mb_orion,34.445361,1,2000.000000,1,COMPLETED_SUCCESSFULLY,34.450376,7.288984,41.739360,0.005015,7.293999,1.000688,23,-1.000000,""
117,w0,python3action_videoprocessing_SampleVideo_50mb,0.000000,1,-1.000000,1,COMPLETED_SUCCESSFULLY,41.739375,0.000010,41.739385,41.739375,41.739385,4173938.514794,23,-1.000000,""
83_updated,w0,python3action_floatoperation_100000000_orion,31.888461,1,2000.000000,1,COMPLETED_SUCCESSFULLY,32.690635,11.300279,43.990914,0.802174,12.102453,1.070987,17,-1.000000,""
83,w0,python3action_floatoperation_100000000,0.000000,1,-1.000000,1,COMPLETED_SUCCESSFULLY,43.990929,0.000010,43.990939,43.990929,43.990939,4399093.926676,17,-1.000000,""
21_updated,w0,python3action_facedetection_SampleVideo_30mb_orion,0.997085,1,2000.000000,1,COMPLETED_SUCCESSFULLY,13.401310,31.439507,44.840817,12.404225,43.843732,1.394543,20,-1.000000,""
21,w0,python3action_facedetection_SampleVideo_30mb,0.000000,1,-1.000000,1,COMPLETED_SUCCESSFULLY,44.840832,0.000010,44.840842,44.840832,44.840842,4484084.200201,20,-1.000000,""
python3action_image_processing_job139_44,w0,python3action_image_processing_reduced_0.86,43.990944,1,2000.000000,1,COMPLETED_SUCCESSFULLY,43.995959,1.346542,45.342501,0.005015,1.351557,1.003724,17,-1.000000,""
python3action_linpack_job144_45,w0,python3action_linpack,44.840847,1,2000.000000,1,COMPLETED_SUCCESSFULLY,44.845862,0.991898,45.837760,0.005015,0.996913,1.005056,20,-1.000000,""
133_updated,w0,python3action_linpack_6000_orion,41.739390,1,2000.000000,1,COMPLETED_SUCCESSFULLY,41.744405,5.110003,46.854408,0.005015,5.115018,1.000981,23,-1.000000,""
133,w0,python3action_linpack_6000,0.000000,1,-1.000000,1,COMPLETED_SUCCESSFULLY,46.854423,0.000010,46.854433,46.854423,46.854433,4685443.300201,23,-1.000000,""
68_updated,w0,python3action_chameleon_2000_nova,39.235270,1,2000.000000,1,COMPLETED_SUCCESSFULLY,39.276751,8.035860,47.312611,0.041481,8.077341,1.005162,12,-1.000000,""
68,w0,python3action_chameleon_2000,0.000000,1,-1.000000,1,COMPLETED_SUCCESSFULLY,47.312626,0.000010,47.312636,47.312626,47.312636,4731263.600201,12,-1.000000,""
python3action_image_processing_job0_46,w0,python3action_image_processing_reduced_0.86,46.854438,1,2000.000000,1,COMPLETED_SUCCESSFULLY,46.859453,0.469128,47.328581,0.005015,0.474143,1.010690,23,-1.000000,""
69_updated,w0,python3action_pyaes_3000_orion,29.177765,1,2000.000000,1,COMPLETED_SUCCESSFULLY,30.050709,17.803082,47.853791,0.872944,18.676026,1.049033,19,-1.000000,""
69,w0,python3action_pyaes_3000,0.000000,1,-1.000000,1,COMPLETED_SUCCESSFULLY,47.853806,0.000010,47.853816,47.853806,47.853816,4785381.600201,19,-1.000000,""
192_updated,w0,python3action_modeltraining_reviews100mb_neowise,0.997085,1,2000.000000,1,COMPLETED_SUCCESSFULLY,4.473676,43.399999,47.873675,3.476591,46.876590,1.080106,1,-1.000000,""
192,w0,python3action_modeltraining_reviews100mb,0.000000,1,-1.000000,1,COMPLETED_SUCCESSFULLY,47.873690,0.000010,47.873700,47.873690,47.873700,4787370.000201,1,-1.000000,""
python3action_linpack_job154_47,w0,python3action_linpack_reduced_0.85,47.853821,1,2000.000000,1,COMPLETED_SUCCESSFULLY,47.858836,0.148785,48.007621,0.005015,0.153800,1.033706,19,-1.000000,""
python3action_image_processing_job23_48,w0,python3action_image_processing_reduced_0.86,47.873705,1,2000.000000,1,COMPLETED_SUCCESSFULLY,47.878720,0.469128,48.347848,0.005015,0.474143,1.010690,1,-1.000000,""
0_updated,w0,python3action_imageprocessing_SampleImage_60mb_orion,46.854438,1,2000.000000,1,COMPLETED_SUCCESSFULLY,47.328596,4.242267,51.570863,0.474158,4.716425,1.111770,23,-1.000000,""
0,w0,python3action_imageprocessing_SampleImage_60mb,0.000000,1,-1.000000,1,COMPLETED_SUCCESSFULLY,51.570878,0.000010,51.570888,51.570878,51.570888,5157088.800201,23,-1.000000,""
python3action_modeltraining_job159_49,w0,python3action_modeltraining_reduced_1.94,51.570893,1,2000.000000,1,COMPLETED_SUCCESSFULLY,51.575908,0.000000,51.575908,0.005015,0.005015,902555994.231458,23,-1.000000,""
144_updated,w0,python3action_linpack_5000_orion,44.840847,1,2000.000000,1,COMPLETED_SUCCESSFULLY,45.837775,6.232799,52.070575,0.996928,7.229728,1.159949,20,-1.000000,""
144,w0,python3action_linpack_5000,0.000000,1,-1.000000,1,COMPLETED_SUCCESSFULLY,52.070590,0.000010,52.070600,52.070590,52.070600,5207060.000201,20,-1.000000,""
python3action_image_processing_job164_50,w0,python3action_image_processing_reduced_0.86,52.070605,1,2000.000000,1,COMPLETED_SUCCESSFULLY,52.075620,1.675524,53.751144,0.005015,1.680539,1.002993,20,-1.000000,""
154_updated,w0,python3action_linpack_5000_orion,47.853821,1,2000.000000,1,COMPLETED_SUCCESSFULLY,48.007636,6.232799,54.240435,0.153815,6.386614,1.024678,19,-1.000000,""
154,w0,python3action_linpack_5000,0.000000,1,-1.000000,1,COMPLETED_SUCCESSFULLY,54.240450,0.000010,54.240460,54.240450,54.240460,5424046.019387,19,-1.000000,""
128_updated,w0,python3action_imageprocessing_SampleImage_60mb_orion,37.237913,1,2000.000000,1,COMPLETED_SUCCESSFULLY,38.966307,15.584176,54.550483,1.728394,17.312570,1.110907,22,-1.000000,""
128,w0,python3action_imageprocessing_SampleImage_60mb,0.000000,1,-1.000000,1,COMPLETED_SUCCESSFULLY,54.550498,0.000010,54.550508,54.550498,54.550508,5455050.800727,22,-1.000000,""
72_updated,w0,python3action_chameleon_2000_nova,47.312641,1,2000.000000,1,COMPLETED_SUCCESSFULLY,47.317656,8.035860,55.353516,0.005015,8.040875,1.000624,12,-1.000000,""
72,w0,python3action_chameleon_2000,0.000000,1,-1.000000,1,COMPLETED_SUCCESSFULLY,55.353531,0.000010,55.353541,55.353531,55.353541,5535354.100201,12,-1.000000,""
78_updated,w0,python3action_facedetection_SampleVideo_30mb_orion,29.406693,1,2000.000000,1,COMPLETED_SUCCESSFULLY,30.265816,25.266496,55.532312,0.859123,26.125619,1.034002,18,-1.000000,""
78,w0,python3action_facedetection_SampleVideo_30mb,0.000000,1,-1.000000,1,COMPLETED_SUCCESSFULLY,55.532327,0.000010,55.532337,55.532327,55.532337,5553233.745339,18,-1.000000,""
159_updated,w0,python3action_modeltraining_reviews100mb_orion,51.570893,1,2000.000000,1,COMPLETED_SUCCESSFULLY,51.575938,4.145851,55.721789,0.005045,4.150896,1.001217,23,-1.000000,""
159,w0,python3action_modeltraining_reviews100mb,0.000000,1,-1.000000,1,COMPLETED_SUCCESSFULLY,55.721804,0.000010,55.721814,55.721804,55.721814,5572181.441017,23,-1.000000,""
92_updated,w0,python3action_imageprocessing_SampleImage_60mb_gemini,36.735370,1,2000.000000,1,COMPLETED_SUCCESSFULLY,37.209528,18.534581,55.744109,0.474158,19.008739,1.025582,24,-1.000000,""
92,w0,python3action_imageprocessing_SampleImage_60mb,0.000000,1,-1.000000,1,COMPLETED_SUCCESSFULLY,55.744124,0.000010,55.744134,55.744124,55.744134,5574413.400201,24,-1.000000,""
python3action_linpack_job174_51,w0,python3action_linpack,55.532342,1,2000.000000,1,COMPLETED_SUCCESSFULLY,55.537357,0.797144,56.334501,0.005015,0.802159,1.006291,18,-1.000000,""
139_updated,w0,python3action_imageprocessing_SampleImage_60mb_orion,43.990944,1,2000.000000,1,COMPLETED_SUCCESSFULLY,45.342516,12.176622,57.519138,1.351572,13.528194,1.110997,17,-1.000000,""
139,w0,python3action_imageprocessing_SampleImage_60mb,0.000000,1,-1.000000,1,COMPLETED_SUCCESSFULLY,57.519153,0.000010,57.519163,57.519153,57.519163,5751916.314998,17,-1.000000,""
179_updated,w0,python3action_modeltraining_reviews50mb_orion,55.721819,1,2000.000000,1,COMPLETED_SUCCESSFULLY,55.726834,2.207908,57.934742,0.005015,2.212923,1.002271,23,-1.000000,""
179,w0,python3action_modeltraining_reviews50mb,0.000000,1,-1.000000,1,COMPLETED_SUCCESSFULLY,57.934757,0.000010,57.934767,57.934757,57.934767,5793476.702545,23,-1.000000,""
164_updated,w0,python3action_imageprocessing_SampleImage_40mb_orion,52.070605,1,2000.000000,1,COMPLETED_SUCCESSFULLY,53.751159,5.509660,59.260820,1.680554,7.190215,1.305020,20,-1.000000,""
164,w0,python3action_imageprocessing_SampleImage_40mb,0.000000,1,-1.000000,1,COMPLETED_SUCCESSFULLY,59.260835,0.000010,59.260845,59.260835,59.260845,5926084.500201,20,-1.000000,""
122_updated,w0,python3action_videoprocessing_SampleVideo_30mb_orion,36.775570,1,2000.000000,1,COMPLETED_SUCCESSFULLY,37.873705,23.022078,60.895783,1.098135,24.120213,1.047699,21,-1.000000,""
122,w0,python3action_videoprocessing_SampleVideo_30mb,0.000000,1,-1.000000,1,COMPLETED_SUCCESSFULLY,60.895798,0.000010,60.895808,60.895798,60.895808,6089580.819099,21,-1.000000,""
185_updated,w0,python3action_imageprocessing_SampleImage_60mb_orion,57.934772,1,2000.000000,1,COMPLETED_SUCCESSFULLY,57.939787,4.242267,62.182054,0.005015,4.247282,1.001182,23,-1.000000,""
185,w0,python3action_imageprocessing_SampleImage_60mb,0.000000,1,-1.000000,1,COMPLETED_SUCCESSFULLY,62.182069,0.000010,62.182079,62.182069,62.182079,6218207.900201,23,-1.000000,""
95_updated,w0,python3action_imageprocessing_SampleImage_40mb_gemini,55.744139,1,2000.000000,1,COMPLETED_SUCCESSFULLY,55.749154,9.476327,65.225481,0.005015,9.481342,1.000529,24,-1.000000,""
95,w0,python3action_imageprocessing_SampleImage_40mb,0.000000,1,-1.000000,1,COMPLETED_SUCCESSFULLY,65.225496,0.000010,65.225506,65.225496,65.225506,6522550.608832,24,-1.000000,""
python3action_linpack_job98_52,w0,python3action_linpack,65.230496,1,2000.000000,1,COMPLETED_SUCCESSFULLY,65.235511,0.277720,65.513231,0.005015,0.282735,1.018058,24,-1.000000,""
19_updated,w0,python3action_floatoperation_100000000_neowise,0.997085,1,2000.000000,1,COMPLETED_SUCCESSFULLY,1.279835,64.600001,65.879836,0.282750,64.882751,1.004377,0,-1.000000,""
19,w0,python3action_floatoperation_100000000,0.000000,1,-1.000000,1,COMPLETED_SUCCESSFULLY,65.879851,0.000010,65.879861,65.879851,65.879861,6587986.144619,0,-1.000000,""
23_updated,w0,python3action_imageprocessing_SampleImage_40mb_neowise,47.873705,1,2000.000000,1,COMPLETED_SUCCESSFULLY,48.347863,20.909089,69.256952,0.474158,21.383247,1.022677,1,-1.000000,""
23,w0,python3action_imageprocessing_SampleImage_40mb,0.000000,1,-1.000000,1,COMPLETED_SUCCESSFULLY,69.256967,0.000010,69.256977,69.256967,69.256977,6925697.700201,1,-1.000000,""
python3action_facedetection_job34_54,w0,python3action_facedetection_reduced_1.83,69.261967,1,2000.000000,1,COMPLETED_SUCCESSFULLY,69.266982,0.000000,69.266982,0.005015,0.005015,902555994.232737,1,-1.000000,""
python3action_modeltraining_job29_53,w0,python3action_modeltraining,65.884851,1,2000.000000,1,COMPLETED_SUCCESSFULLY,65.889866,3.471546,69.361412,0.005015,3.476561,1.001445,0,-1.000000,""
174_updated,w0,python3action_linpack_6000_orion,55.532342,1,2000.000000,1,COMPLETED_SUCCESSFULLY,56.334516,14.667294,71.001810,0.802174,15.469468,1.054691,18,-1.000000,""
174,w0,python3action_linpack_6000,0.000000,1,-1.000000,1,COMPLETED_SUCCESSFULLY,71.001825,0.000010,71.001835,71.001825,71.001835,7100183.534695,18,-1.000000,""
108_updated,w0,python3action_linpack_6000_orion,54.240465,1,2000.000000,1,COMPLETED_SUCCESSFULLY,54.245480,18.250750,72.496230,0.005015,18.255765,1.000275,19,-1.000000,""
108,w0,python3action_linpack_6000,0.000000,1,-1.000000,1,COMPLETED_SUCCESSFULLY,72.496245,0.000010,72.496255,72.496245,72.496255,7249625.500201,19,-1.000000,""
python3action_image_processing_job97_9,w0,python3action_image_processing,0.997085,1,2000.000000,1,COMPLETED_SUCCESSFULLY,1.002235,72.012455,73.014690,0.005150,72.017605,1.000072,9,-1.000000,""
python3action_facedetection_job3_11,w0,python3action_facedetection,0.997085,1,2000.000000,1,COMPLETED_SUCCESSFULLY,1.002265,72.012455,73.014720,0.005180,72.017635,1.000072,11,-1.000000,""
python3action_image_processing_job40_13,w0,python3action_image_processing,0.997085,1,2000.000000,1,COMPLETED_SUCCESSFULLY,1.002295,72.012455,73.014750,0.005210,72.017665,1.000072,13,-1.000000,""
python3action_image_processing_job46_14,w0,python3action_image_processing,0.997085,1,2000.000000,1,COMPLETED_SUCCESSFULLY,1.002310,72.012455,73.014765,0.005225,72.017680,1.000073,14,-1.000000,""
77_updated,w0,python3action_facedetection_SampleVideo_30mb_nova,55.353546,1,2000.000000,1,COMPLETED_SUCCESSFULLY,55.358561,18.257105,73.615666,0.005015,18.262120,1.000275,12,-1.000000,""
77,w0,python3action_facedetection_SampleVideo_30mb,0.000000,1,-1.000000,1,COMPLETED_SUCCESSFULLY,73.615681,0.000010,73.615691,73.615681,73.615691,7361569.121450,12,-1.000000,""
python3action_pyaes_job82_55,w0,python3action_pyaes_reduced_1.7,73.620681,1,2000.000000,1,COMPLETED_SUCCESSFULLY,73.625696,0.000000,73.625696,0.005015,0.005015,902555994.232737,12,-1.000000,""
89_updated,w0,python3action_chameleon_2000_nova,0.997085,1,2000.000000,1,COMPLETED_SUCCESSFULLY,3.137178,70.600010,73.737188,2.140093,72.740103,1.030313,6,-1.000000,""
89,w0,python3action_chameleon_2000,0.000000,1,-1.000000,1,COMPLETED_SUCCESSFULLY,73.737203,0.000010,73.737213,73.737203,73.737213,7373721.302672,6,-1.000000,""
98_updated,w0,python3action_linpack_5000_gemini,65.230496,1,2000.000000,1,COMPLETED_SUCCESSFULLY,65.513246,10.382152,75.895399,0.282750,10.664903,1.027234,24,-1.000000,""
98,w0,python3action_linpack_5000,0.000000,1,-1.000000,1,COMPLETED_SUCCESSFULLY,75.895414,0.000010,75.895424,75.895414,75.895424,7589542.400201,24,-1.000000,""
python3action_floatoperation_job26_57,w0,python3action_floatoperation,75.900414,1,2000.000000,1,COMPLETED_SUCCESSFULLY,75.905429,0.277720,76.183149,0.005015,0.282735,1.018058,24,-1.000000,""
python3action_floatoperation_job116_56,w0,python3action_floatoperation,73.742203,1,2000.000000,1,COMPLETED_SUCCESSFULLY,73.747218,2.439945,76.187163,0.005015,2.444960,1.002055,6,-1.000000,""
181_updated,w0,python3action_videoprocessing_SampleVideo_50mb_orion,57.519168,1,2000.000000,1,COMPLETED_SUCCESSFULLY,57.524183,20.921647,78.445830,0.005015,20.926662,1.000240,17,-1.000000,""
181,w0,python3action_videoprocessing_SampleVideo_50mb,0.000000,1,-1.000000,1,COMPLETED_SUCCESSFULLY,78.445845,0.000010,78.445855,78.445845,78.445855,7844585.500201,17,-1.000000,""
86_updated,w0,python3action_pyaes_3000_nova,0.997085,1,2000.000000,1,COMPLETED_SUCCESSFULLY,3.137148,78.200020,81.337168,2.140063,80.340083,1.027367,5,-1.000000,""
86,w0,python3action_pyaes_3000,0.000000,1,-1.000000,1,COMPLETED_SUCCESSFULLY,81.337183,0.000010,81.337193,81.337183,81.337193,8133719.300201,5,-1.000000,""
101_updated,w0,python3action_facedetection_SampleVideo_30mb_orion,54.550513,1,2000.000000,1,COMPLETED_SUCCESSFULLY,54.555528,32.337173,86.892701,0.005015,32.342188,1.000155,22,-1.000000,""
101,w0,python3action_facedetection_SampleVideo_30mb,0.000000,1,-1.000000,1,COMPLETED_SUCCESSFULLY,86.892716,0.000010,86.892726,86.892716,86.892726,8689272.600201,22,-1.000000,""
24_updated,w0,python3action_linpack_5000_nova,0.997085,1,2000.000000,1,COMPLETED_SUCCESSFULLY,6.763192,81.693692,88.456884,5.766107,87.459799,1.070582,10,-1.000000,""
24,w0,python3action_linpack_5000,0.000000,1,-1.000000,1,COMPLETED_SUCCESSFULLY,88.456899,0.000010,88.456909,88.456899,88.456909,8845690.900201,10,-1.000000,""
python3action_pyaes_job127_59,w0,python3action_pyaes_reduced_0.85,88.461899,1,2000.000000,1,COMPLETED_SUCCESSFULLY,88.466914,0.000000,88.466914,0.005015,0.005015,289974851.742810,10,-1.000000,""
82_updated,w0,python3action_pyaes_4000_nova,73.620681,1,2000.000000,1,COMPLETED_SUCCESSFULLY,73.625726,15.889602,89.515328,0.005045,15.894647,1.000318,12,-1.000000,""
82,w0,python3action_pyaes_4000,0.000000,1,-1.000000,1,COMPLETED_SUCCESSFULLY,89.515343,0.000010,89.515353,89.515343,89.515353,8951535.338311,12,-1.000000,""
python3action_modeltraining_job132_60,w0,python3action_modeltraining_reduced_1.88,89.520343,1,2000.000000,1,COMPLETED_SUCCESSFULLY,89.525358,0.000000,89.525358,0.005015,0.005015,902555994.232737,12,-1.000000,""
132_updated,w0,python3action_modeltraining_reviews50mb_nova,89.520343,1,2000.000000,1,COMPLETED_SUCCESSFULLY,89.525388,4.826067,94.351455,0.005045,4.831112,1.001045,12,-1.000000,""
132,w0,python3action_modeltraining_reviews50mb,0.000000,1,-1.000000,1,COMPLETED_SUCCESSFULLY,94.351470,0.000010,94.351480,94.351470,94.351480,9435148.000201,12,-1.000000,""
26_updated,w0,python3action_floatoperation_100000000_gemini,75.900414,1,2000.000000,1,COMPLETED_SUCCESSFULLY,76.183164,19.858480,96.041644,0.282750,20.141230,1.014238,24,-1.000000,""
26,w0,python3action_floatoperation_100000000,0.000000,1,-1.000000,1,COMPLETED_SUCCESSFULLY,96.041659,0.000010,96.041669,96.041659,96.041669,9604166.900201,24,-1.000000,""
138_updated,w0,python3action_pyaes_3000_nova,94.356470,1,2000.000000,1,COMPLETED_SUCCESSFULLY,94.361485,8.900911,103.262396,0.005015,8.905926,1.000563,12,-1.000000,""
138,w0,python3action_pyaes_3000,0.000000,1,-1.000000,1,COMPLETED_SUCCESSFULLY,103.262411,0.000010,103.262421,103.262411,103.262421,10326242.100201,12,-1.000000,""
31_updated,w0,python3action_linpack_5000_gemini,96.046659,1,2000.000000,1,COMPLETED_SUCCESSFULLY,96.051674,10.382152,106.433826,0.005015,10.387167,1.000483,24,-1.000000,""
31,w0,python3action_linpack_5000,0.000000,1,-1.000000,1,COMPLETED_SUCCESSFULLY,106.433841,0.000010,106.433851,106.433841,106.433851,10643385.147138,24,-1.000000,""
python3action_facedetection_job121_58,w0,python3action_facedetection,81.342183,1,2000.000000,1,COMPLETED_SUCCESSFULLY,81.347198,30.499683,111.846881,0.005015,30.504698,1.000164,5,-1.000000,""
29_updated,w0,python3action_modeltraining_reviews100mb_neowise,65.884851,1,2000.000000,1,COMPLETED_SUCCESSFULLY,69.361427,43.399999,112.761426,3.476576,46.876575,1.080105,0,-1.000000,""
29,w0,python3action_modeltraining_reviews100mb,0.000000,1,-1.000000,1,COMPLETED_SUCCESSFULLY,112.761441,0.000010,112.761451,112.761441,112.761451,11276145.100201,0,-1.000000,""
python3action_image_processing_job4_61,w0,python3action_image_processing_reduced_0.86,112.766441,1,2000.000000,1,COMPLETED_SUCCESSFULLY,112.771456,0.469128,113.240584,0.005015,0.474143,1.010690,0,-1.000000,""
37_updated,w0,python3action_linpack_5000_gemini,106.438841,1,2000.000000,1,COMPLETED_SUCCESSFULLY,106.443856,10.382152,116.826008,0.005015,10.387167,1.000483,24,-1.000000,""
37,w0,python3action_linpack_5000,0.000000,1,-1.000000,1,COMPLETED_SUCCESSFULLY,116.826023,0.000010,116.826033,116.826023,116.826033,11682603.347138,24,-1.000000,""
python3action_chameleon_job42_62,w0,python3action_chameleon_reduced_0.85,116.831023,1,2000.000000,1,COMPLETED_SUCCESSFULLY,116.836038,0.036451,116.872489,0.005015,0.041466,1.137582,24,-1.000000,""
88_updated,w0,python3action_imageprocessing_SampleImage_40mb_yeti,0.997085,1,2000.000000,1,COMPLETED_SUCCESSFULLY,31.502218,86.495824,117.998041,30.505133,117.000956,1.352678,28,-1.000000,""
88,w0,python3action_imageprocessing_SampleImage_40mb,0.000000,1,-1.000000,1,COMPLETED_SUCCESSFULLY,117.998056,0.000010,117.998066,117.998056,117.998066,11799806.634082,28,-1.000000,""
143_updated,w0,python3action_pyaes_4000_nova,103.267411,1,2000.000000,1,COMPLETED_SUCCESSFULLY,103.272426,15.889602,119.162028,0.005015,15.894617,1.000316,12,-1.000000,""
143,w0,python3action_pyaes_4000,0.000000,1,-1.000000,1,COMPLETED_SUCCESSFULLY,119.162043,0.000010,119.162053,119.162043,119.162053,11916205.337909,12,-1.000000,""
python3action_pyaes_job93_63,w0,python3action_pyaes,118.003056,1,2000.000000,1,COMPLETED_SUCCESSFULLY,118.008071,2.134958,120.143029,0.005015,2.139973,1.002349,28,-1.000000,""
149_updated,w0,python3action_modeltraining_reviews50mb_nova,119.167043,1,2000.000000,1,COMPLETED_SUCCESSFULLY,119.172058,4.826067,123.998125,0.005015,4.831082,1.001039,12,-1.000000,""
149,w0,python3action_modeltraining_reviews50mb,0.000000,1,-1.000000,1,COMPLETED_SUCCESSFULLY,123.998140,0.000010,123.998150,123.998140,123.998150,12399815.000201,12,-1.000000,""
153_updated,w0,python3action_imageprocessing_SampleImage_40mb_nova,124.003140,1,2000.000000,1,COMPLETED_SUCCESSFULLY,124.008155,4.097605,128.105760,0.005015,4.102620,1.001224,12,-1.000000,""
153,w0,python3action_imageprocessing_SampleImage_40mb,0.000000,1,-1.000000,1,COMPLETED_SUCCESSFULLY,128.105775,0.000010,128.105785,128.105775,128.105785,12810578.500201,12,-1.000000,""
4_updated,w0,python3action_imageprocessing_SampleImage_40mb_neowise,112.766441,1,2000.000000,1,COMPLETED_SUCCESSFULLY,113.240599,20.909089,134.149688,0.474158,21.383247,1.022677,0,-1.000000,""
4,w0,python3action_imageprocessing_SampleImage_40mb,0.000000,1,-1.000000,1,COMPLETED_SUCCESSFULLY,134.149703,0.000010,134.149713,134.149703,134.149713,13414971.300201,0,-1.000000,""
91_updated,w0,python3action_imageprocessing_SampleImage_60mb_nova,0.997085,1,2000.000000,1,COMPLETED_SUCCESSFULLY,31.501903,103.750012,135.251915,30.504818,134.254830,1.294022,7,-1.000000,""
91,w0,python3action_imageprocessing_SampleImage_60mb,0.000000,1,-1.000000,1,COMPLETED_SUCCESSFULLY,135.251930,0.000010,135.251940,135.251930,135.251940,13525194.021522,7,-1.000000,""
python3action_pyaes_job163_64,w0,python3action_pyaes,135.256930,1,2000.000000,1,COMPLETED_SUCCESSFULLY,135.261945,2.134958,137.396903,0.005015,2.139973,1.002349,7,-1.000000,""
42_updated,w0,python3action_chameleon_3000_gemini,116.831023,1,2000.000000,1,COMPLETED_SUCCESSFULLY,116.872504,23.342423,140.214927,0.041481,23.383904,1.001777,24,-1.000000,""
42,w0,python3action_chameleon_3000,0.000000,1,-1.000000,1,COMPLETED_SUCCESSFULLY,140.214942,0.000010,140.214952,140.214942,140.214952,14021495.233668,24,-1.000000,""
116_updated,w0,python3action_floatoperation_100000000_nova,73.742203,1,2000.000000,1,COMPLETED_SUCCESSFULLY,76.188179,66.200020,142.388199,2.445976,68.645996,1.036948,6,-1.000000,""
116,w0,python3action_floatoperation_100000000,0.000000,1,-1.000000,1,COMPLETED_SUCCESSFULLY,142.388214,0.000010,142.388224,142.388214,142.388224,14238822.400201,6,-1.000000,""
97_updated,w0,python3action_imageprocessing_SampleImage_40mb_nova,0.997085,1,2000.000000,1,COMPLETED_SUCCESSFULLY,73.014705,84.999193,158.013898,72.017620,157.016813,1.847274,9,-1.000000,""
97,w0,python3action_imageprocessing_SampleImage_40mb,0.000000,1,-1.000000,1,COMPLETED_SUCCESSFULLY,158.013913,0.000010,158.013923,158.013913,158.013923,15801392.304624,9,-1.000000,""
46_updated,w0,python3action_imageprocessing_SampleImage_40mb_nova,0.997085,1,2000.000000,1,COMPLETED_SUCCESSFULLY,73.029720,84.999193,158.028913,72.032635,157.031828,1.847451,14,-1.000000,""
46,w0,python3action_imageprocessing_SampleImage_40mb,0.000000,1,-1.000000,1,COMPLETED_SUCCESSFULLY,158.028928,0.000010,158.028938,158.028928,158.028938,15802893.800201,14,-1.000000,""
python3action_video_processing_job170_66,w0,python3action_video_processing_reduced_0.91,158.018913,1,2000.000000,1,COMPLETED_SUCCESSFULLY,158.023928,6.172496,164.196424,0.005015,6.177511,1.000812,9,-1.000000,""
48_updated,w0,python3action_videoprocessing_SampleVideo_30mb_gemini,140.219942,1,2000.000000,1,COMPLETED_SUCCESSFULLY,140.224957,32.261319,172.486276,0.005015,32.266334,1.000155,24,-1.000000,""
48,w0,python3action_videoprocessing_SampleVideo_30mb,0.000000,1,-1.000000,1,COMPLETED_SUCCESSFULLY,172.486291,0.000010,172.486301,172.486291,172.486301,17248630.141603,24,-1.000000,""
python3action_modeltraining_job168_65,w0,python3action_modeltraining,142.393214,1,2000.000000,1,COMPLETED_SUCCESSFULLY,142.398229,30.499683,172.897912,0.005015,30.504698,1.000164,6,-1.000000,""
53_updated,w0,python3action_imageprocessing_SampleImage_60mb_gemini,172.491291,1,2000.000000,1,COMPLETED_SUCCESSFULLY,172.496306,18.534581,191.030887,0.005015,18.539596,1.000271,24,-1.000000,""
53,w0,python3action_imageprocessing_SampleImage_60mb,0.000000,1,-1.000000,1,COMPLETED_SUCCESSFULLY,191.030902,0.000010,191.030912,191.030902,191.030912,19103091.200201,24,-1.000000,""
python3action_facedetection_job59_67,w0,python3action_facedetection_reduced_1.83,191.035902,1,2000.000000,1,COMPLETED_SUCCESSFULLY,191.040917,0.000000,191.040917,0.005015,0.005015,900253555.469388,24,-1.000000,""
190_updated,w0,python3action_pyaes_4000_orion,0.997085,1,2000.000000,1,COMPLETED_SUCCESSFULLY,6.043181,186.199977,192.243158,5.046096,191.246073,1.027100,16,-1.000000,""
190,w0,python3action_pyaes_4000,0.000000,1,-1.000000,1,COMPLETED_SUCCESSFULLY,192.243173,0.000010,192.243183,192.243173,192.243183,19224318.300201,16,-1.000000,""
45_updated,w0,python3action_floatoperation_100000000_neowise,134.154703,1,2000.000000,1,COMPLETED_SUCCESSFULLY,134.159718,64.600001,198.759719,0.005015,64.605016,1.000078,0,-1.000000,""
45,w0,python3action_floatoperation_100000000,0.000000,1,-1.000000,1,COMPLETED_SUCCESSFULLY,198.759734,0.000010,198.759744,198.759734,198.759744,19875974.411594,0,-1.000000,""
python3action_pyaes_job50_68,w0,python3action_pyaes,198.764734,1,2000.000000,1,COMPLETED_SUCCESSFULLY,198.769749,0.243006,199.012755,0.005015,0.248021,1.020637,0,-1.000000,""
90_updated,w0,python3action_imageprocessing_SampleImage_60mb_yeti,0.997085,1,2000.000000,1,COMPLETED_SUCCESSFULLY,31.502248,170.201436,201.703684,30.505163,200.706599,1.179230,29,-1.000000,""
90,w0,python3action_imageprocessing_SampleImage_60mb,0.000000,1,-1.000000,1,COMPLETED_SUCCESSFULLY,201.703699,0.000010,201.703709,201.703699,201.703709,20170370.904172,29,-1.000000,""
python3action_modeltraining_job96_69,w0,python3action_modeltraining_reduced_0.94,201.708699,1,2000.000000,1,COMPLETED_SUCCESSFULLY,201.713714,0.000000,201.713714,0.005015,0.005015,1713103852.223301,29,-1.000000,""
158_updated,w0,python3action_chameleon_3000_nova,128.110775,1,2000.000000,1,COMPLETED_SUCCESSFULLY,128.115790,75.373168,203.488958,0.005015,75.378183,1.000067,12,-1.000000,""
158,w0,python3action_chameleon_3000,0.000000,1,-1.000000,1,COMPLETED_SUCCESSFULLY,203.488973,0.000010,203.488983,203.488973,203.488983,20348898.310507,12,-1.000000,""
198_updated,w0,python3action_imageprocessing_SampleImage_40mb_neowise,0.997085,1,2000.000000,1,COMPLETED_SUCCESSFULLY,31.501858,183.699311,215.201169,30.504773,214.204084,1.166058,3,-1.000000,""
198,w0,python3action_imageprocessing_SampleImage_40mb,0.000000,1,-1.000000,1,COMPLETED_SUCCESSFULLY,215.201184,0.000010,215.201194,215.201184,215.201194,21520119.429206,3,-1.000000,""
168_updated,w0,python3action_modeltraining_reviews50mb_nova,142.393214,1,2000.000000,1,COMPLETED_SUCCESSFULLY,172.897927,42.399990,215.297917,30.504713,72.904703,1.719451,6,-1.000000,""
168,w0,python3action_modeltraining_reviews50mb,0.000000,1,-1.000000,1,COMPLETED_SUCCESSFULLY,215.297932,0.000010,215.297942,215.297932,215.297942,21529794.223505,6,-1.000000,""
python3action_pyaes_job107_71,w0,python3action_pyaes_reduced_0.85,215.302932,1,2000.000000,1,COMPLETED_SUCCESSFULLY,215.307947,0.000000,215.307947,0.005015,0.005015,683913554.007752,6,-1.000000,""
python3action_chameleon_job56_70,w0,python3action_chameleon,215.206184,1,2000.000000,1,COMPLETED_SUCCESSFULLY,215.211199,2.134958,217.346157,0.005015,2.139973,1.002349,3,-1.000000,""
178_updated,w0,python3action_facedetection_SampleVideo_50mb_nova,203.493973,1,2000.000000,1,COMPLETED_SUCCESSFULLY,203.498988,26.270198,229.769186,0.005015,26.275213,1.000191,12,-1.000000,""
178,w0,python3action_facedetection_SampleVideo_50mb,0.000000,1,-1.000000,1,COMPLETED_SUCCESSFULLY,229.769201,0.000010,229.769211,229.769201,229.769211,22976921.114932,12,-1.000000,""
11_updated,w0,python3action_modeltraining_reviews100mb_nova,229.774201,1,2000.000000,1,COMPLETED_SUCCESSFULLY,229.779216,9.060261,238.839477,0.005015,9.065276,1.000554,12,-1.000000,""
11,w0,python3action_modeltraining_reviews100mb,0.000000,1,-1.000000,1,COMPLETED_SUCCESSFULLY,238.839492,0.000010,238.839502,238.839492,238.839502,23883950.200201,12,-1.000000,""
python3action_video_processing_job112_72,w0,python3action_video_processing_reduced_2.8,238.844492,1,2000.000000,1,COMPLETED_SUCCESSFULLY,238.849507,0.000000,238.849507,0.005015,0.005015,900253555.469388,12,-1.000000,""
173_updated,w0,python3action_imageprocessing_SampleImage_40mb_nova,158.033928,1,2000.000000,1,COMPLETED_SUCCESSFULLY,158.038943,84.999193,243.038136,0.005015,85.004208,1.000059,14,-1.000000,""
173,w0,python3action_imageprocessing_SampleImage_40mb,0.000000,1,-1.000000,1,COMPLETED_SUCCESSFULLY,243.038151,0.000010,243.038161,243.038151,243.038161,24303816.100201,14,-1.000000,""
112_updated,w0,python3action_videoprocessing_SampleVideo_30mb_nova,238.844492,1,2000.000000,1,COMPLETED_SUCCESSFULLY,238.849537,12.156226,251.005763,0.005045,12.161271,1.000415,12,-1.000000,""
112,w0,python3action_videoprocessing_SampleVideo_30mb,0.000000,1,-1.000000,1,COMPLETED_SUCCESSFULLY,251.005778,0.000010,251.005788,251.005778,251.005788,25100578.800201,12,-1.000000,""
194_updated,w0,python3action_floatoperation_200000000_troll,0.997085,1,2000.000000,1,COMPLETED_SUCCESSFULLY,3.442465,256.236897,259.679363,2.445380,258.682278,1.009543,27,-1.000000,""
194,w0,python3action_floatoperation_200000000,0.000000,1,-1.000000,1,COMPLETED_SUCCESSFULLY,259.679378,0.000010,259.679388,259.679378,259.679388,25967938.800201,27,-1.000000,""
34_updated,w0,python3action_facedetection_SampleVideo_50mb_neowise,69.261967,1,2000.000000,1,COMPLETED_SUCCESSFULLY,69.267012,196.399999,265.667011,0.005045,196.405044,1.000026,1,-1.000000,""
34,w0,python3action_facedetection_SampleVideo_50mb,0.000000,1,-1.000000,1,COMPLETED_SUCCESSFULLY,265.667026,0.000010,265.667036,265.667026,265.667036,26566703.600201,1,-1.000000,""
python3action_linpack_job61_74,w0,python3action_linpack,265.672026,1,2000.000000,1,COMPLETED_SUCCESSFULLY,265.677041,0.277720,265.954761,0.005015,0.282735,1.018058,1,-1.000000,""
50_updated,w0,python3action_pyaes_3000_neowise,198.764734,1,2000.000000,1,COMPLETED_SUCCESSFULLY,199.012770,72.500000,271.512770,0.248036,72.748036,1.003421,0,-1.000000,""
50,w0,python3action_pyaes_3000,0.000000,1,-1.000000,1,COMPLETED_SUCCESSFULLY,271.512785,0.000010,271.512795,271.512785,271.512795,27151279.500402,0,-1.000000,""
python3action_linpack_job67_75,w0,python3action_linpack_reduced_0.85,271.517785,1,2000.000000,1,COMPLETED_SUCCESSFULLY,271.522800,0.041658,271.564458,0.005015,0.046673,1.120385,0,-1.000000,""
163_updated,w0,python3action_pyaes_4000_nova,135.256930,1,2000.000000,1,COMPLETED_SUCCESSFULLY,137.396918,139.600010,276.996928,2.139988,141.739998,1.015329,7,-1.000000,""
163,w0,python3action_pyaes_4000,0.000000,1,-1.000000,1,COMPLETED_SUCCESSFULLY,276.996943,0.000010,276.996953,276.996943,276.996953,27699695.301267,7,-1.000000,""
59_updated,w0,python3action_facedetection_SampleVideo_50mb_gemini,191.035902,1,2000.000000,1,COMPLETED_SUCCESSFULLY,191.040947,86.889558,277.930505,0.005045,86.894603,1.000058,24,-1.000000,""
59,w0,python3action_facedetection_SampleVideo_50mb,0.000000,1,-1.000000,1,COMPLETED_SUCCESSFULLY,277.930520,0.000010,277.930530,277.930520,277.930530,27793053.000201,24,-1.000000,""
61_updated,w0,python3action_linpack_5000_neowise,265.672026,1,2000.000000,1,COMPLETED_SUCCESSFULLY,265.954776,20.750000,286.704776,0.282750,21.032750,1.013627,1,-1.000000,""
61,w0,python3action_linpack_5000,0.000000,1,-1.000000,1,COMPLETED_SUCCESSFULLY,286.704791,0.000010,286.704801,286.704791,286.704801,28670480.133427,1,-1.000000,""
python3action_facedetection_job197_73,w0,python3action_facedetection,259.684378,1,2000.000000,1,COMPLETED_SUCCESSFULLY,259.689393,30.499683,290.189076,0.005015,30.504698,1.000164,27,-1.000000,""
107_updated,w0,python3action_pyaes_3000_nova,215.302932,1,2000.000000,1,COMPLETED_SUCCESSFULLY,215.307977,78.200020,293.507997,0.005045,78.205065,1.000065,6,-1.000000,""
107,w0,python3action_pyaes_3000,0.000000,1,-1.000000,1,COMPLETED_SUCCESSFULLY,293.508012,0.000010,293.508022,293.508012,293.508022,29350802.200201,6,-1.000000,""
64_updated,w0,python3action_floatoperation_100000000_gemini,277.935520,1,2000.000000,1,COMPLETED_SUCCESSFULLY,277.940535,19.858480,297.799015,0.005015,19.863495,1.000253,24,-1.000000,""
64,w0,python3action_floatoperation_100000000,0.000000,1,-1.000000,1,COMPLETED_SUCCESSFULLY,297.799030,0.000010,297.799040,297.799030,297.799040,29779904.000201,24,-1.000000,""
7_updated,w0,python3action_imageprocessing_SampleImage_60mb_gemini,297.804030,1,2000.000000,1,COMPLETED_SUCCESSFULLY,297.809045,18.534581,316.343626,0.005015,18.539596,1.000271,24,-1.000000,""
7,w0,python3action_imageprocessing_SampleImage_60mb,0.000000,1,-1.000000,1,COMPLETED_SUCCESSFULLY,316.343641,0.000010,316.343651,316.343641,316.343651,31634365.100201,24,-1.000000,""
40_updated,w0,python3action_imageprocessing_SampleImage_60mb_nova,0.997085,1,2000.000000,1,COMPLETED_SUCCESSFULLY,73.024720,244.962980,317.987700,72.027635,316.990615,1.294035,13,-1.000000,""
40,w0,python3action_imageprocessing_SampleImage_60mb,0.000000,1,-1.000000,1,COMPLETED_SUCCESSFULLY,317.987715,0.000010,317.987725,317.987715,317.987725,31798772.505245,13,-1.000000,""
96_updated,w0,python3action_modeltraining_reviews100mb_yeti,201.708699,1,2000.000000,1,COMPLETED_SUCCESSFULLY,201.713744,129.145802,330.859546,0.005045,129.150847,1.000039,29,-1.000000,""
96,w0,python3action_modeltraining_reviews100mb,0.000000,1,-1.000000,1,COMPLETED_SUCCESSFULLY,330.859561,0.000010,330.859571,330.859561,330.859571,33085957.100201,29,-1.000000,""
python3action_chameleon_job99_76,w0,python3action_chameleon,330.864561,1,2000.000000,1,COMPLETED_SUCCESSFULLY,330.869576,2.134958,333.004534,0.005015,2.139973,1.002349,29,-1.000000,""
74_updated,w0,python3action_imageprocessing_SampleImage_60mb_gemini,316.348641,1,2000.000000,1,COMPLETED_SUCCESSFULLY,316.353656,18.534581,334.888237,0.005015,18.539596,1.000271,24,-1.000000,""
74,w0,python3action_imageprocessing_SampleImage_60mb,0.000000,1,-1.000000,1,COMPLETED_SUCCESSFULLY,334.888252,0.000010,334.888262,334.888252,334.888262,33488826.200201,24,-1.000000,""
121_updated,w0,python3action_facedetection_SampleVideo_50mb_nova,81.342183,1,2000.000000,1,COMPLETED_SUCCESSFULLY,111.846896,230.799980,342.646876,30.504713,261.304693,1.132169,5,-1.000000,""
121,w0,python3action_facedetection_SampleVideo_50mb,0.000000,1,-1.000000,1,COMPLETED_SUCCESSFULLY,342.646891,0.000010,342.646901,342.646891,342.646901,34264690.146609,5,-1.000000,""
79_updated,w0,python3action_linpack_5000_gemini,334.893252,1,2000.000000,1,COMPLETED_SUCCESSFULLY,334.898267,10.382152,345.280419,0.005015,10.387167,1.000483,24,-1.000000,""
79,w0,python3action_linpack_5000,0.000000,1,-1.000000,1,COMPLETED_SUCCESSFULLY,345.280434,0.000010,345.280444,345.280434,345.280444,34528044.447138,24,-1.000000,""
9_updated,w0,python3action_floatoperation_200000000_gemini,0.997085,1,2000.000000,1,COMPLETED_SUCCESSFULLY,3.442435,348.325941,351.768377,2.445350,350.771292,1.007020,25,-1.000000,""
9,w0,python3action_floatoperation_200000000,0.000000,1,-1.000000,1,COMPLETED_SUCCESSFULLY,351.768392,0.000010,351.768402,351.768392,351.768402,35176840.200201,25,-1.000000,""
python3action_pyaes_job118_77,w0,python3action_pyaes,351.773392,1,2000.000000,1,COMPLETED_SUCCESSFULLY,351.778407,2.134958,353.913365,0.005015,2.139973,1.002349,25,-1.000000,""
93_updated,w0,python3action_pyaes_4000_yeti,118.003056,1,2000.000000,1,COMPLETED_SUCCESSFULLY,120.143044,252.312656,372.455700,2.139988,254.452644,1.008481,28,-1.000000,""
93,w0,python3action_pyaes_4000,0.000000,1,-1.000000,1,COMPLETED_SUCCESSFULLY,372.455715,0.000010,372.455725,372.455715,372.455725,37245572.500201,28,-1.000000,""
python3action_video_processing_job28_78,w0,python3action_video_processing_reduced_0.91,372.460715,1,2000.000000,1,COMPLETED_SUCCESSFULLY,372.465730,2.614259,375.079989,0.005015,2.619274,1.001918,28,-1.000000,""
67_updated,w0,python3action_linpack_6000_neowise,271.517785,1,2000.000000,1,COMPLETED_SUCCESSFULLY,271.564473,108.600001,380.164474,0.046688,108.646689,1.000430,0,-1.000000,""
67,w0,python3action_linpack_6000,0.000000,1,-1.000000,1,COMPLETED_SUCCESSFULLY,380.164489,0.000010,380.164499,380.164489,380.164499,38016449.916719,0,-1.000000,""
python3action_video_processing_job189_79,w0,python3action_video_processing_reduced_1.89,380.169489,1,2000.000000,1,COMPLETED_SUCCESSFULLY,380.174504,0.000000,380.174504,0.005015,0.005015,900253555.479592,0,-1.000000,""
84_updated,w0,python3action_floatoperation_200000000_gemini,345.285434,1,2000.000000,1,COMPLETED_SUCCESSFULLY,345.290449,39.647280,384.937729,0.005015,39.652295,1.000126,24,-1.000000,""
84,w0,python3action_floatoperation_200000000,0.000000,1,-1.000000,1,COMPLETED_SUCCESSFULLY,384.937744,0.000010,384.937754,384.937744,384.937754,38493775.423174,24,-1.000000,""
188_updated,w0,python3action_linpack_6000_neowise,286.709791,1,2000.000000,1,COMPLETED_SUCCESSFULLY,286.714806,108.600001,395.314807,0.005015,108.605016,1.000046,1,-1.000000,""
188,w0,python3action_linpack_6000,0.000000,1,-1.000000,1,COMPLETED_SUCCESSFULLY,395.314822,0.000010,395.314832,395.314822,395.314832,39531483.211595,1,-1.000000,""
python3action_video_processing_job81_80,w0,python3action_video_processing_reduced_2.8,395.319822,1,2000.000000,1,COMPLETED_SUCCESSFULLY,395.324837,0.000000,395.324837,0.005015,0.005015,900253555.479592,1,-1.000000,""
123_updated,w0,python3action_floatoperation_100000000_gemini,384.942744,1,2000.000000,1,COMPLETED_SUCCESSFULLY,384.947759,19.858480,404.806239,0.005015,19.863495,1.000253,24,-1.000000,""
123,w0,python3action_floatoperation_100000000,0.000000,1,-1.000000,1,COMPLETED_SUCCESSFULLY,404.806254,0.000010,404.806264,404.806254,404.806264,40480626.400201,24,-1.000000,""
99_updated,w0,python3action_chameleon_2000_yeti,330.864561,1,2000.000000,1,COMPLETED_SUCCESSFULLY,333.004549,79.321057,412.325606,2.139988,81.461045,1.026979,29,-1.000000,""
99,w0,python3action_chameleon_2000,0.000000,1,-1.000000,1,COMPLETED_SUCCESSFULLY,412.325621,0.000010,412.325631,412.325621,412.325631,41232563.124561,29,-1.000000,""
170_updated,w0,python3action_videoprocessing_SampleVideo_30mb_nova,158.018913,1,2000.000000,1,COMPLETED_SUCCESSFULLY,164.196439,252.164226,416.360665,6.177526,258.341752,1.024498,9,-1.000000,""
170,w0,python3action_videoprocessing_SampleVideo_30mb,0.000000,1,-1.000000,1,COMPLETED_SUCCESSFULLY,416.360680,0.000010,416.360690,416.360680,416.360690,41636069.000201,9,-1.000000,""
127_updated,w0,python3action_pyaes_4000_nova,88.461899,1,2000.000000,1,COMPLETED_SUCCESSFULLY,88.466944,329.608004,418.074948,0.005045,329.613049,1.000015,10,-1.000000,""
127,w0,python3action_pyaes_4000,0.000000,1,-1.000000,1,COMPLETED_SUCCESSFULLY,418.074963,0.000010,418.074973,418.074963,418.074973,41807497.300201,10,-1.000000,""
129_updated,w0,python3action_chameleon_3000_gemini,404.811254,1,2000.000000,1,COMPLETED_SUCCESSFULLY,404.816269,23.342423,428.158692,0.005015,23.347438,1.000215,24,-1.000000,""
129,w0,python3action_chameleon_3000,0.000000,1,-1.000000,1,COMPLETED_SUCCESSFULLY,428.158707,0.000010,428.158717,428.158707,428.158717,42815871.733668,24,-1.000000,""
56_updated,w0,python3action_chameleon_2000_neowise,215.206184,1,2000.000000,1,COMPLETED_SUCCESSFULLY,217.346172,212.612026,429.958198,2.139988,214.752014,1.010065,3,-1.000000,""
56,w0,python3action_chameleon_2000,0.000000,1,-1.000000,1,COMPLETED_SUCCESSFULLY,429.958213,0.000010,429.958223,429.958213,429.958223,42995822.300201,3,-1.000000,""
python3action_video_processing_job115_81,w0,python3action_video_processing_reduced_0.91,429.963213,1,2000.000000,1,COMPLETED_SUCCESSFULLY,429.968228,2.614259,432.582487,0.005015,2.619274,1.001918,3,-1.000000,""
134_updated,w0,python3action_videoprocessing_SampleVideo_30mb_gemini,428.163707,1,2000.000000,1,COMPLETED_SUCCESSFULLY,428.168722,32.261319,460.430041,0.005015,32.266334,1.000155,24,-1.000000,""
134,w0,python3action_videoprocessing_SampleVideo_30mb,0.000000,1,-1.000000,1,COMPLETED_SUCCESSFULLY,460.430056,0.000010,460.430066,460.430056,460.430066,46043006.641603,24,-1.000000,""
python3action_modeltraining_job14_82,w0,python3action_modeltraining_reduced_2.88,460.435056,1,2000.000000,1,COMPLETED_SUCCESSFULLY,460.440071,0.000000,460.440071,0.005015,0.005015,900253555.489796,24,-1.000000,""
14_updated,w0,python3action_modeltraining_reviews50mb_gemini,460.435056,1,2000.000000,1,COMPLETED_SUCCESSFULLY,460.440101,12.054445,472.494546,0.005045,12.059490,1.000419,24,-1.000000,""
14,w0,python3action_modeltraining_reviews50mb,0.000000,1,-1.000000,1,COMPLETED_SUCCESSFULLY,472.494561,0.000010,472.494571,472.494561,472.494571,47249457.149027,24,-1.000000,""
145_updated,w0,python3action_linpack_6000_gemini,472.499561,1,2000.000000,1,COMPLETED_SUCCESSFULLY,472.504576,59.296723,531.801299,0.005015,59.301738,1.000085,24,-1.000000,""
145,w0,python3action_linpack_6000,0.000000,1,-1.000000,1,COMPLETED_SUCCESSFULLY,531.801314,0.000010,531.801324,531.801314,531.801324,53180132.415655,24,-1.000000,""
189_updated,w0,python3action_videoprocessing_SampleVideo_50mb_neowise,380.169489,1,2000.000000,1,COMPLETED_SUCCESSFULLY,380.174534,164.799998,544.974532,0.005045,164.805043,1.000031,0,-1.000000,""
189,w0,python3action_videoprocessing_SampleVideo_50mb,0.000000,1,-1.000000,1,COMPLETED_SUCCESSFULLY,544.974547,0.000010,544.974557,544.974547,544.974557,54497455.700201,0,-1.000000,""
15_updated,w0,python3action_modeltraining_reviews100mb_gemini,531.806314,1,2000.000000,1,COMPLETED_SUCCESSFULLY,531.811329,21.600451,553.411780,0.005015,21.605466,1.000232,24,-1.000000,""
15,w0,python3action_modeltraining_reviews100mb,0.000000,1,-1.000000,1,COMPLETED_SUCCESSFULLY,553.411795,0.000010,553.411805,553.411795,553.411805,55341180.544618,24,-1.000000,""
81_updated,w0,python3action_videoprocessing_SampleVideo_50mb_neowise,395.319822,1,2000.000000,1,COMPLETED_SUCCESSFULLY,395.324867,164.799998,560.124865,0.005045,164.805043,1.000031,1,-1.000000,""
81,w0,python3action_videoprocessing_SampleVideo_50mb,0.000000,1,-1.000000,1,COMPLETED_SUCCESSFULLY,560.124880,0.000010,560.124890,560.124880,560.124890,56012489.000201,1,-1.000000,""
33_updated,w0,python3action_imageprocessing_SampleImage_60mb_yeti,412.330621,1,2000.000000,1,COMPLETED_SUCCESSFULLY,412.335636,170.201436,582.537072,0.005015,170.206451,1.000029,29,-1.000000,""
33,w0,python3action_imageprocessing_SampleImage_60mb,0.000000,1,-1.000000,1,COMPLETED_SUCCESSFULLY,582.537087,0.000010,582.537097,582.537087,582.537097,58253709.704172,29,-1.000000,""
197_updated,w0,python3action_facedetection_SampleVideo_30mb_troll,259.684378,1,2000.000000,1,COMPLETED_SUCCESSFULLY,290.189091,300.924584,591.113675,30.504713,331.429297,1.101370,27,-1.000000,""
197,w0,python3action_facedetection_SampleVideo_30mb,0.000000,1,-1.000000,1,COMPLETED_SUCCESSFULLY,591.113690,0.000010,591.113700,591.113690,591.113700,59111370.000201,27,-1.000000,""
python3action_pyaes_job2_83,w0,python3action_pyaes,591.118690,1,2000.000000,1,COMPLETED_SUCCESSFULLY,591.123705,2.134958,593.258663,0.005015,2.139973,1.002349,27,-1.000000,""
3_updated,w0,python3action_facedetection_SampleVideo_50mb_nova,0.997085,1,2000.000000,1,COMPLETED_SUCCESSFULLY,73.019720,544.939223,617.958943,72.022635,616.961858,1.132166,11,-1.000000,""
3,w0,python3action_facedetection_SampleVideo_50mb,0.000000,1,-1.000000,1,COMPLETED_SUCCESSFULLY,617.958958,0.000010,617.958968,617.958958,617.958968,61795896.800201,11,-1.000000,""
155_updated,w0,python3action_videoprocessing_SampleVideo_50mb_gemini,553.416795,1,2000.000000,1,COMPLETED_SUCCESSFULLY,553.421810,86.576006,639.997816,0.005015,86.581021,1.000058,24,-1.000000,""
155,w0,python3action_videoprocessing_SampleVideo_50mb,0.000000,1,-1.000000,1,COMPLETED_SUCCESSFULLY,639.997831,0.000010,639.997841,639.997831,639.997841,63999784.100201,24,-1.000000,""
51_updated,w0,python3action_linpack_6000_nova,0.997085,1,2000.000000,1,COMPLETED_SUCCESSFULLY,6.763267,651.660477,658.423745,5.766182,657.426660,1.008848,15,-1.000000,""
51,w0,python3action_linpack_6000,0.000000,1,-1.000000,1,COMPLETED_SUCCESSFULLY,658.423760,0.000010,658.423770,658.423760,658.423770,65842377.000201,15,-1.000000,""
126_updated,w0,python3action_linpack_6000_neowise,560.129880,1,2000.000000,1,COMPLETED_SUCCESSFULLY,560.134895,108.600001,668.734896,0.005015,108.605016,1.000046,1,-1.000000,""
126,w0,python3action_linpack_6000,0.000000,1,-1.000000,1,COMPLETED_SUCCESSFULLY,668.734911,0.000010,668.734921,668.734911,668.734921,66873492.111594,1,-1.000000,""
python3action_pyaes_job131_84,w0,python3action_pyaes_reduced_0.85,668.739911,1,2000.000000,1,COMPLETED_SUCCESSFULLY,668.744926,0.000000,668.744926,0.005015,0.005015,6301774882.285714,1,-1.000000,""
16_updated,w0,python3action_videoprocessing_SampleVideo_30mb_gemini,640.002831,1,2000.000000,1,COMPLETED_SUCCESSFULLY,640.007846,32.261319,672.269165,0.005015,32.266334,1.000155,24,-1.000000,""
16,w0,python3action_videoprocessing_SampleVideo_30mb,0.000000,1,-1.000000,1,COMPLETED_SUCCESSFULLY,672.269180,0.000010,672.269190,672.269180,672.269190,67226919.041603,24,-1.000000,""
120_updated,w0,python3action_floatoperation_200000000_neowise,544.979547,1,2000.000000,1,COMPLETED_SUCCESSFULLY,544.984562,129.200002,674.184564,0.005015,129.205017,1.000039,0,-1.000000,""
120,w0,python3action_floatoperation_200000000,0.000000,1,-1.000000,1,COMPLETED_SUCCESSFULLY,674.184579,0.000010,674.184589,674.184579,674.184589,67418458.922787,0,-1.000000,""
165_updated,w0,python3action_chameleon_3000_gemini,672.274180,1,2000.000000,1,COMPLETED_SUCCESSFULLY,672.279195,23.342423,695.621618,0.005015,23.347438,1.000215,24,-1.000000,""
165,w0,python3action_chameleon_3000,0.000000,1,-1.000000,1,COMPLETED_SUCCESSFULLY,695.621633,0.000010,695.621643,695.621633,695.621643,69562164.333668,24,-1.000000,""
39_updated,w0,python3action_modeltraining_reviews100mb_yeti,582.542087,1,2000.000000,1,COMPLETED_SUCCESSFULLY,582.547102,129.145802,711.692904,0.005015,129.150817,1.000039,29,-1.000000,""
39,w0,python3action_modeltraining_reviews100mb,0.000000,1,-1.000000,1,COMPLETED_SUCCESSFULLY,711.692919,0.000010,711.692929,711.692919,711.692929,71169292.900201,29,-1.000000,""
python3action_pyaes_job44_85,w0,python3action_pyaes_reduced_0.85,711.697919,1,2000.000000,1,COMPLETED_SUCCESSFULLY,711.702934,0.000000,711.702934,0.005015,0.005015,689256628.640625,29,-1.000000,""
169_updated,w0,python3action_modeltraining_reviews100mb_gemini,695.626633,1,2000.000000,1,COMPLETED_SUCCESSFULLY,695.631648,21.600451,717.232099,0.005015,21.605466,1.000232,24,-1.000000,""
169,w0,python3action_modeltraining_reviews100mb,0.000000,1,-1.000000,1,COMPLETED_SUCCESSFULLY,717.232114,0.000010,717.232124,717.232114,717.232124,71723212.444618,24,-1.000000,""
137_updated,w0,python3action_modeltraining_reviews100mb_neowise,674.189579,1,2000.000000,1,COMPLETED_SUCCESSFULLY,674.194594,43.399999,717.594593,0.005015,43.405014,1.000116,0,-1.000000,""
137,w0,python3action_modeltraining_reviews100mb,0.000000,1,-1.000000,1,COMPLETED_SUCCESSFULLY,717.594608,0.000010,717.594618,717.594608,717.594618,71759461.800201,0,-1.000000,""
118_updated,w0,python3action_pyaes_4000_gemini,351.773392,1,2000.000000,1,COMPLETED_SUCCESSFULLY,353.913380,365.007620,718.921000,2.139988,367.147608,1.005863,25,-1.000000,""
118,w0,python3action_pyaes_4000,0.000000,1,-1.000000,1,COMPLETED_SUCCESSFULLY,718.921015,0.000010,718.921025,718.921015,718.921025,71892102.503563,25,-1.000000,""
171_updated,w0,python3action_modeltraining_reviews50mb_gemini,717.237114,1,2000.000000,1,COMPLETED_SUCCESSFULLY,717.242129,12.054445,729.296574,0.005015,12.059460,1.000416,24,-1.000000,""
171,w0,python3action_modeltraining_reviews50mb,0.000000,1,-1.000000,1,COMPLETED_SUCCESSFULLY,729.296589,0.000010,729.296599,729.296589,729.296599,72929659.948626,24,-1.000000,""
191_updated,w0,python3action_videoprocessing_SampleVideo_50mb_troll,0.997085,1,2000.000000,1,COMPLETED_SUCCESSFULLY,31.502188,704.015923,735.518111,30.505103,734.521026,1.043330,26,-1.000000,""
191,w0,python3action_videoprocessing_SampleVideo_50mb,0.000000,1,-1.000000,1,COMPLETED_SUCCESSFULLY,735.518126,0.000010,735.518136,735.518126,735.518136,73551813.641534,26,-1.000000,""
python3action_pyaes_job22_86,w0,python3action_pyaes,735.523126,1,2000.000000,1,COMPLETED_SUCCESSFULLY,735.528141,2.134958,737.663099,0.005015,2.139973,1.002349,26,-1.000000,""
131_updated,w0,python3action_pyaes_3000_neowise,668.739911,1,2000.000000,1,COMPLETED_SUCCESSFULLY,668.744956,72.500000,741.244956,0.005045,72.505045,1.000070,1,-1.000000,""
131,w0,python3action_pyaes_3000,0.000000,1,-1.000000,1,COMPLETED_SUCCESSFULLY,741.244971,0.000010,741.244981,741.244971,741.244981,74124498.100803,1,-1.000000,""
105_updated,w0,python3action_chameleon_3000_gemini,729.301589,1,2000.000000,1,COMPLETED_SUCCESSFULLY,729.306604,23.342423,752.649027,0.005015,23.347438,1.000215,24,-1.000000,""
105,w0,python3action_chameleon_3000,0.000000,1,-1.000000,1,COMPLETED_SUCCESSFULLY,752.649042,0.000010,752.649052,752.649042,752.649052,75264905.233668,24,-1.000000,""
142_updated,w0,python3action_floatoperation_100000000_neowise,717.599608,1,2000.000000,1,COMPLETED_SUCCESSFULLY,717.604623,64.600001,782.204624,0.005015,64.605016,1.000078,0,-1.000000,""
142,w0,python3action_floatoperation_100000000,0.000000,1,-1.000000,1,COMPLETED_SUCCESSFULLY,782.204639,0.000010,782.204649,782.204639,782.204649,78220464.911594,0,-1.000000,""
182_updated,w0,python3action_videoprocessing_SampleVideo_50mb_gemini,752.654042,1,2000.000000,1,COMPLETED_SUCCESSFULLY,752.659057,86.576006,839.235063,0.005015,86.581021,1.000058,24,-1.000000,""
182,w0,python3action_videoprocessing_SampleVideo_50mb,0.000000,1,-1.000000,1,COMPLETED_SUCCESSFULLY,839.235078,0.000010,839.235088,839.235078,839.235088,83923508.800201,24,-1.000000,""
2_updated,w0,python3action_pyaes_4000_troll,591.118690,1,2000.000000,1,COMPLETED_SUCCESSFULLY,593.258678,251.727104,844.985782,2.139988,253.867092,1.008501,27,-1.000000,""
2,w0,python3action_pyaes_4000,0.000000,1,-1.000000,1,COMPLETED_SUCCESSFULLY,844.985797,0.000010,844.985807,844.985797,844.985807,84498580.723432,27,-1.000000,""
python3action_modeltraining_job27_87,w0,python3action_modeltraining_reduced_0.94,844.990797,1,2000.000000,1,COMPLETED_SUCCESSFULLY,844.995812,0.000000,844.995812,0.005015,0.005015,1696631699.807692,27,-1.000000,""
195_updated,w0,python3action_videoprocessing_SampleVideo_30mb_neowise,0.997085,1,2000.000000,1,COMPLETED_SUCCESSFULLY,31.501828,815.305524,846.807352,30.504743,845.810267,1.037415,2,-1.000000,""
195,w0,python3action_videoprocessing_SampleVideo_30mb,0.000000,1,-1.000000,1,COMPLETED_SUCCESSFULLY,846.807367,0.000010,846.807377,846.807367,846.807377,84680737.700201,2,-1.000000,""
python3action_facedetection_job157_88,w0,python3action_facedetection_reduced_0.91,846.812367,1,2000.000000,1,COMPLETED_SUCCESSFULLY,846.817382,2.614259,849.431641,0.005015,2.619274,1.001918,2,-1.000000,""
44_updated,w0,python3action_pyaes_3000_yeti,711.697919,1,2000.000000,1,COMPLETED_SUCCESSFULLY,711.702964,142.698139,854.401103,0.005045,142.703184,1.000035,29,-1.000000,""
44,w0,python3action_pyaes_3000,0.000000,1,-1.000000,1,COMPLETED_SUCCESSFULLY,854.401118,0.000010,854.401128,854.401118,854.401128,85440112.802039,29,-1.000000,""
python3action_facedetection_job5_89,w0,python3action_facedetection_reduced_1.83,854.406118,1,2000.000000,1,COMPLETED_SUCCESSFULLY,854.411133,0.000000,854.411133,0.005015,0.005015,102587033.951163,29,-1.000000,""
152_updated,w0,python3action_videoprocessing_SampleVideo_30mb_neowise,782.209639,1,2000.000000,1,COMPLETED_SUCCESSFULLY,782.214654,92.799998,875.014652,0.005015,92.805013,1.000054,0,-1.000000,""
152,w0,python3action_videoprocessing_SampleVideo_30mb,0.000000,1,-1.000000,1,COMPLETED_SUCCESSFULLY,875.014667,0.000010,875.014677,875.014667,875.014677,87501467.700201,0,-1.000000,""
22_updated,w0,python3action_pyaes_3000_troll,735.523126,1,2000.000000,1,COMPLETED_SUCCESSFULLY,737.663114,140.622820,878.285935,2.139988,142.762809,1.015218,26,-1.000000,""
22,w0,python3action_pyaes_3000,0.000000,1,-1.000000,1,COMPLETED_SUCCESSFULLY,878.285950,0.000010,878.285960,878.285950,878.285960,87828596.000201,26,-1.000000,""
python3action_modeltraining_job32_90,w0,python3action_modeltraining_reduced_1.0,878.290950,1,2000.000000,1,COMPLETED_SUCCESSFULLY,878.295965,0.000000,878.295965,0.005015,0.005015,102587033.951163,26,-1.000000,""
162_updated,w0,python3action_imageprocessing_SampleImage_40mb_neowise,875.019667,1,2000.000000,1,COMPLETED_SUCCESSFULLY,875.024682,20.909089,895.933771,0.005015,20.914104,1.000240,0,-1.000000,""
162,w0,python3action_imageprocessing_SampleImage_40mb,0.000000,1,-1.000000,1,COMPLETED_SUCCESSFULLY,895.933786,0.000010,895.933796,895.933786,895.933796,89593379.600201,0,-1.000000,""
python3action_facedetection_job167_91,w0,python3action_facedetection_reduced_2.74,895.938786,1,2000.000000,1,COMPLETED_SUCCESSFULLY,895.943801,0.000000,895.943801,0.005015,0.005015,900253555.469388,0,-1.000000,""
110_updated,w0,python3action_linpack_6000_gemini,839.240078,1,2000.000000,1,COMPLETED_SUCCESSFULLY,839.245093,59.296723,898.541816,0.005015,59.301738,1.000085,24,-1.000000,""
110,w0,python3action_linpack_6000,0.000000,1,-1.000000,1,COMPLETED_SUCCESSFULLY,898.541831,0.000010,898.541841,898.541831,898.541841,89854184.115655,24,-1.000000,""
148_updated,w0,python3action_videoprocessing_SampleVideo_50mb_neowise,741.249971,1,2000.000000,1,COMPLETED_SUCCESSFULLY,741.254986,164.799998,906.054984,0.005015,164.805013,1.000030,1,-1.000000,""
148,w0,python3action_videoprocessing_SampleVideo_50mb,0.000000,1,-1.000000,1,COMPLETED_SUCCESSFULLY,906.054999,0.000010,906.055009,906.054999,906.055009,90605500.900201,1,-1.000000,""
python3action_chameleon_job100_92,w0,python3action_chameleon_reduced_1.7,906.059999,1,2000.000000,1,COMPLETED_SUCCESSFULLY,906.065014,0.000000,906.065014,0.005015,0.005015,900253555.469388,1,-1.000000,""
100_updated,w0,python3action_chameleon_2000_neowise,906.059999,1,2000.000000,1,COMPLETED_SUCCESSFULLY,906.065044,24.200002,930.265046,0.005045,24.205047,1.000208,1,-1.000000,""
100,w0,python3action_chameleon_2000,0.000000,1,-1.000000,1,COMPLETED_SUCCESSFULLY,930.265061,0.000010,930.265071,930.265061,930.265071,93026507.123189,1,-1.000000,""
32_updated,w0,python3action_modeltraining_reviews50mb_troll,878.290950,1,2000.000000,1,COMPLETED_SUCCESSFULLY,878.295995,69.696429,947.992424,0.005045,69.701474,1.000072,26,-1.000000,""
32,w0,python3action_modeltraining_reviews50mb,0.000000,1,-1.000000,1,COMPLETED_SUCCESSFULLY,947.992439,0.000010,947.992449,947.992439,947.992449,94799244.945169,26,-1.000000,""
27_updated,w0,python3action_modeltraining_reviews100mb_troll,844.990797,1,2000.000000,1,COMPLETED_SUCCESSFULLY,844.995842,143.902652,988.898494,0.005045,143.907697,1.000035,27,-1.000000,""
27,w0,python3action_modeltraining_reviews100mb,0.000000,1,-1.000000,1,COMPLETED_SUCCESSFULLY,988.898509,0.000010,988.898519,988.898509,988.898519,98889851.928176,27,-1.000000,""
python3action_chameleon_job43_93,w0,python3action_chameleon_reduced_0.85,988.903509,1,2000.000000,1,COMPLETED_SUCCESSFULLY,988.908524,0.320244,989.228768,0.005015,0.325259,1.015660,27,-1.000000,""
167_updated,w0,python3action_facedetection_SampleVideo_30mb_neowise,895.938786,1,2000.000000,1,COMPLETED_SUCCESSFULLY,895.943831,162.200002,1058.143833,0.005045,162.205047,1.000031,0,-1.000000,""
167,w0,python3action_facedetection_SampleVideo_30mb,0.000000,1,-1.000000,1,COMPLETED_SUCCESSFULLY,1058.143848,0.000010,1058.143858,1058.143848,1058.143858,105814385.823188,0,-1.000000,""
28_updated,w0,python3action_videoprocessing_SampleVideo_50mb_yeti,372.460715,1,2000.000000,1,COMPLETED_SUCCESSFULLY,375.080004,686.386021,1061.466025,2.619289,689.005310,1.003816,28,-1.000000,""
28,w0,python3action_videoprocessing_SampleVideo_50mb,0.000000,1,-1.000000,1,COMPLETED_SUCCESSFULLY,1061.466040,0.000010,1061.466050,1061.466040,1061.466050,106146605.000201,28,-1.000000,""
python3action_facedetection_job55_94,w0,python3action_facedetection_reduced_1.83,1061.471040,1,2000.000000,1,COMPLETED_SUCCESSFULLY,1061.476055,0.000000,1061.476055,0.005015,0.005015,102587033.953488,28,-1.000000,""
175_updated,w0,python3action_pyaes_4000_gemini,718.926015,1,2000.000000,1,COMPLETED_SUCCESSFULLY,718.931030,365.007620,1083.938650,0.005015,365.012635,1.000014,25,-1.000000,""
175,w0,python3action_pyaes_4000,0.000000,1,-1.000000,1,COMPLETED_SUCCESSFULLY,1083.938665,0.000010,1083.938675,1083.938665,1083.938675,108393867.500201,25,-1.000000,""
103_updated,w0,python3action_facedetection_SampleVideo_30mb_neowise,930.270061,1,2000.000000,1,COMPLETED_SUCCESSFULLY,930.275076,162.200002,1092.475078,0.005015,162.205017,1.000031,1,-1.000000,""
103,w0,python3action_facedetection_SampleVideo_30mb,0.000000,1,-1.000000,1,COMPLETED_SUCCESSFULLY,1092.475093,0.000010,1092.475103,1092.475093,1092.475103,109247510.322787,1,-1.000000,""
180_updated,w0,python3action_modeltraining_reviews100mb_neowise,1092.480093,1,2000.000000,1,COMPLETED_SUCCESSFULLY,1092.485108,43.399999,1135.885107,0.005015,43.405014,1.000116,1,-1.000000,""
180,w0,python3action_modeltraining_reviews100mb,0.000000,1,-1.000000,1,COMPLETED_SUCCESSFULLY,1135.885122,0.000010,1135.885132,1135.885122,1135.885132,113588513.200201,1,-1.000000,""
184_updated,w0,python3action_modeltraining_reviews50mb_neowise,1135.890122,1,2000.000000,1,COMPLETED_SUCCESSFULLY,1135.895137,22.799998,1158.695135,0.005015,22.805013,1.000220,1,-1.000000,""
184,w0,python3action_modeltraining_reviews50mb,0.000000,1,-1.000000,1,COMPLETED_SUCCESSFULLY,1158.695150,0.000010,1158.695160,1158.695150,1158.695160,115869516.000201,1,-1.000000,""
177_updated,w0,python3action_linpack_6000_neowise,1058.148848,1,2000.000000,1,COMPLETED_SUCCESSFULLY,1058.153863,108.600001,1166.753864,0.005015,108.605016,1.000046,0,-1.000000,""
177,w0,python3action_linpack_6000,0.000000,1,-1.000000,1,COMPLETED_SUCCESSFULLY,1166.753879,0.000010,1166.753889,1166.753879,1166.753889,116675388.911594,0,-1.000000,""
111_updated,w0,python3action_imageprocessing_SampleImage_40mb_neowise,1158.700150,1,2000.000000,1,COMPLETED_SUCCESSFULLY,1158.705165,20.909089,1179.614254,0.005015,20.914104,1.000240,1,-1.000000,""
111,w0,python3action_imageprocessing_SampleImage_40mb,0.000000,1,-1.000000,1,COMPLETED_SUCCESSFULLY,1179.614269,0.000010,1179.614279,1179.614269,1179.614279,117961427.900201,1,-1.000000,""
43_updated,w0,python3action_chameleon_3000_troll,988.903509,1,2000.000000,1,COMPLETED_SUCCESSFULLY,989.228783,231.228154,1220.456937,0.325274,231.553428,1.001407,27,-1.000000,""
43,w0,python3action_chameleon_3000,0.000000,1,-1.000000,1,COMPLETED_SUCCESSFULLY,1220.456952,0.000010,1220.456962,1220.456952,1220.456962,122045696.215827,27,-1.000000,""
49_updated,w0,python3action_floatoperation_100000000_troll,1220.461952,1,2000.000000,1,COMPLETED_SUCCESSFULLY,1220.466967,125.863576,1346.330543,0.005015,125.868591,1.000040,27,-1.000000,""
49,w0,python3action_floatoperation_100000000,0.000000,1,-1.000000,1,COMPLETED_SUCCESSFULLY,1346.330558,0.000010,1346.330568,1346.330558,1346.330568,134633056.842174,27,-1.000000,""
5_updated,w0,python3action_facedetection_SampleVideo_50mb_yeti,854.406118,1,2000.000000,1,COMPLETED_SUCCESSFULLY,854.411163,707.910321,1562.321484,0.005045,707.915366,1.000007,29,-1.000000,""
5,w0,python3action_facedetection_SampleVideo_50mb,0.000000,1,-1.000000,1,COMPLETED_SUCCESSFULLY,1562.321499,0.000010,1562.321509,1562.321499,1562.321509,156232150.900201,29,-1.000000,""
python3action_linpack_job60_95,w0,python3action_linpack_reduced_1.7,1562.326499,1,2000.000000,1,COMPLETED_SUCCESSFULLY,1562.331514,0.000000,1562.331514,0.005015,0.005015,102587033.948837,29,-1.000000,""
94_updated,w0,python3action_chameleon_3000_nova,0.997085,1,2000.000000,1,COMPLETED_SUCCESSFULLY,6.043061,1563.512974,1569.556035,5.045976,1568.558950,1.003227,8,-1.000000,""
94,w0,python3action_chameleon_3000,0.000000,1,-1.000000,1,COMPLETED_SUCCESSFULLY,1569.556050,0.000010,1569.556060,1569.556050,1569.556060,156955606.028610,8,-1.000000,""
38_updated,w0,python3action_videoprocessing_SampleVideo_50mb_troll,947.997439,1,2000.000000,1,COMPLETED_SUCCESSFULLY,948.002454,704.015923,1652.018377,0.005015,704.020938,1.000007,26,-1.000000,""
38,w0,python3action_videoprocessing_SampleVideo_50mb,0.000000,1,-1.000000,1,COMPLETED_SUCCESSFULLY,1652.018392,0.000010,1652.018402,1652.018392,1652.018402,165201840.241534,26,-1.000000,""
python3action_floatoperation_job6_96,w0,python3action_floatoperation,1652.023392,1,2000.000000,1,COMPLETED_SUCCESSFULLY,1652.028407,2.439945,1654.468352,0.005015,2.444960,1.002055,26,-1.000000,""
55_updated,w0,python3action_facedetection_SampleVideo_30mb_yeti,1061.471040,1,2000.000000,1,COMPLETED_SUCCESSFULLY,1061.476085,620.218727,1681.694812,0.005045,620.223772,1.000008,28,-1.000000,""
55,w0,python3action_facedetection_SampleVideo_30mb,0.000000,1,-1.000000,1,COMPLETED_SUCCESSFULLY,1681.694827,0.000010,1681.694837,1681.694827,1681.694837,168169483.711202,28,-1.000000,""
20_updated,w0,python3action_facedetection_SampleVideo_50mb_neowise,0.997085,1,2000.000000,1,COMPLETED_SUCCESSFULLY,31.501873,1725.495775,1756.997648,30.504788,1756.000563,1.017679,4,-1.000000,""
20,w0,python3action_facedetection_SampleVideo_50mb,0.000000,1,-1.000000,1,COMPLETED_SUCCESSFULLY,1756.997663,0.000010,1756.997673,1756.997663,1756.997673,175699767.300201,4,-1.000000,""
66_updated,w0,python3action_imageprocessing_SampleImage_40mb_yeti,1681.699827,1,2000.000000,1,COMPLETED_SUCCESSFULLY,1681.704842,86.495824,1768.200666,0.005015,86.500839,1.000058,28,-1.000000,""
66,w0,python3action_imageprocessing_SampleImage_40mb,0.000000,1,-1.000000,1,COMPLETED_SUCCESSFULLY,1768.200681,0.000010,1768.200691,1768.200681,1768.200691,176820069.100201,28,-1.000000,""
python3action_chameleon_job71_97,w0,python3action_chameleon_reduced_0.85,1768.205681,1,2000.000000,1,COMPLETED_SUCCESSFULLY,1768.210696,0.320244,1768.530940,0.005015,0.325259,1.015660,28,-1.000000,""
6_updated,w0,python3action_floatoperation_100000000_troll,1652.023392,1,2000.000000,1,COMPLETED_SUCCESSFULLY,1654.468367,125.863576,1780.331944,2.444975,128.308552,1.019426,26,-1.000000,""
6,w0,python3action_floatoperation_100000000,0.000000,1,-1.000000,1,COMPLETED_SUCCESSFULLY,1780.331959,0.000010,1780.331969,1780.331959,1780.331969,178033196.900201,26,-1.000000,""
65_updated,w0,python3action_modeltraining_reviews50mb_troll,1780.336959,1,2000.000000,1,COMPLETED_SUCCESSFULLY,1780.341974,69.696429,1850.038403,0.005015,69.701444,1.000072,26,-1.000000,""
65,w0,python3action_modeltraining_reviews50mb,0.000000,1,-1.000000,1,COMPLETED_SUCCESSFULLY,1850.038418,0.000010,1850.038428,1850.038418,1850.038428,185003842.844767,26,-1.000000,""
python3action_facedetection_job70_98,w0,python3action_facedetection_reduced_1.83,1850.043418,1,2000.000000,1,COMPLETED_SUCCESSFULLY,1850.048433,0.000000,1850.048433,0.005015,0.005015,102587033.953488,26,-1.000000,""
115_updated,w0,python3action_videoprocessing_SampleVideo_50mb_neowise,429.963213,1,2000.000000,1,COMPLETED_SUCCESSFULLY,432.582502,1447.870170,1880.452672,2.619289,1450.489459,1.001809,3,-1.000000,""
115,w0,python3action_videoprocessing_SampleVideo_50mb,0.000000,1,-1.000000,1,COMPLETED_SUCCESSFULLY,1880.452687,0.000010,1880.452697,1880.452687,1880.452697,188045269.747243,3,-1.000000,""
71_updated,w0,python3action_chameleon_3000_yeti,1768.205681,1,2000.000000,1,COMPLETED_SUCCESSFULLY,1768.530955,222.417770,1990.948725,0.325274,222.743044,1.001462,28,-1.000000,""
71,w0,python3action_chameleon_3000,0.000000,1,-1.000000,1,COMPLETED_SUCCESSFULLY,1990.948740,0.000010,1990.948750,1990.948740,1990.948750,199094875.000201,28,-1.000000,""
54_updated,w0,python3action_facedetection_SampleVideo_50mb_troll,1346.335558,1,2000.000000,1,COMPLETED_SUCCESSFULLY,1346.340573,713.363454,2059.704027,0.005015,713.368469,1.000007,27,-1.000000,""
54,w0,python3action_facedetection_SampleVideo_50mb,0.000000,1,-1.000000,1,COMPLETED_SUCCESSFULLY,2059.704042,0.000010,2059.704052,2059.704042,2059.704052,205970405.230969,27,-1.000000,""
60_updated,w0,python3action_linpack_6000_yeti,1562.326499,1,2000.000000,1,COMPLETED_SUCCESSFULLY,1562.331544,511.002833,2073.334377,0.005045,511.007878,1.000010,29,-1.000000,""
60,w0,python3action_linpack_6000,0.000000,1,-1.000000,1,COMPLETED_SUCCESSFULLY,2073.334392,0.000010,2073.334402,2073.334392,2073.334402,207333440.200759,29,-1.000000,""
python3action_video_processing_job80_99,w0,python3action_video_processing_reduced_2.8,2073.339392,1,2000.000000,1,COMPLETED_SUCCESSFULLY,2073.344407,0.000000,2073.344407,0.005015,0.005015,103066412.616822,29,-1.000000,""
75_updated,w0,python3action_floatoperation_100000000_troll,2059.709042,1,2000.000000,1,COMPLETED_SUCCESSFULLY,2059.714057,125.863576,2185.577633,0.005015,125.868591,1.000040,27,-1.000000,""
75,w0,python3action_floatoperation_100000000,0.000000,1,-1.000000,1,COMPLETED_SUCCESSFULLY,2185.577648,0.000010,2185.577658,2185.577648,2185.577658,218557765.842174,27,-1.000000,""
76_updated,w0,python3action_chameleon_3000_yeti,1990.953740,1,2000.000000,1,COMPLETED_SUCCESSFULLY,1990.958755,222.417770,2213.376525,0.005015,222.422785,1.000023,28,-1.000000,""
76,w0,python3action_chameleon_3000,0.000000,1,-1.000000,1,COMPLETED_SUCCESSFULLY,2213.376540,0.000010,2213.376550,2213.376540,2213.376550,221337655.000201,28,-1.000000,""
157_updated,w0,python3action_facedetection_SampleVideo_30mb_neowise,846.812367,1,2000.000000,1,COMPLETED_SUCCESSFULLY,849.431656,1425.027597,2274.459253,2.619289,1427.646886,1.001838,2,-1.000000,""
157,w0,python3action_facedetection_SampleVideo_30mb,0.000000,1,-1.000000,1,COMPLETED_SUCCESSFULLY,2274.459268,0.000010,2274.459278,2274.459268,2274.459278,227445927.832732,2,-1.000000,""
8_updated,w0,python3action_floatoperation_100000000_troll,2185.582648,1,2000.000000,1,COMPLETED_SUCCESSFULLY,2185.587663,125.863576,2311.451239,0.005015,125.868591,1.000040,27,-1.000000,""
8,w0,python3action_floatoperation_100000000,0.000000,1,-1.000000,1,COMPLETED_SUCCESSFULLY,2311.451254,0.000010,2311.451264,2311.451254,2311.451264,231145126.442174,27,-1.000000,""
85_updated,w0,python3action_chameleon_3000_troll,2311.456254,1,2000.000000,1,COMPLETED_SUCCESSFULLY,2311.461269,231.228154,2542.689423,0.005015,231.233169,1.000022,27,-1.000000,""
85,w0,python3action_chameleon_3000,0.000000,1,-1.000000,1,COMPLETED_SUCCESSFULLY,2542.689438,0.000010,2542.689448,2542.689438,2542.689448,254268944.815827,27,-1.000000,""
70_updated,w0,python3action_facedetection_SampleVideo_50mb_troll,1850.043418,1,2000.000000,1,COMPLETED_SUCCESSFULLY,1850.048463,713.363454,2563.411917,0.005045,713.368499,1.000007,26,-1.000000,""
70,w0,python3action_facedetection_SampleVideo_50mb,0.000000,1,-1.000000,1,COMPLETED_SUCCESSFULLY,2563.411932,0.000010,2563.411942,2563.411932,2563.411942,256341194.231371,26,-1.000000,""
124_updated,w0,python3action_floatoperation_100000000_troll,2563.416932,1,2000.000000,1,COMPLETED_SUCCESSFULLY,2563.421947,125.863576,2689.285523,0.005015,125.868591,1.000040,26,-1.000000,""
124,w0,python3action_floatoperation_100000000,0.000000,1,-1.000000,1,COMPLETED_SUCCESSFULLY,2689.285538,0.000010,2689.285548,2689.285538,2689.285548,268928554.842174,26,-1.000000,""
80_updated,w0,python3action_videoprocessing_SampleVideo_50mb_yeti,2073.339392,1,2000.000000,1,COMPLETED_SUCCESSFULLY,2073.344437,686.386021,2759.730458,0.005045,686.391066,1.000007,29,-1.000000,""
80,w0,python3action_videoprocessing_SampleVideo_50mb,0.000000,1,-1.000000,1,COMPLETED_SUCCESSFULLY,2759.730473,0.000010,2759.730483,2759.730473,2759.730483,275973048.300201,29,-1.000000,""
119_updated,w0,python3action_pyaes_4000_troll,2542.694438,1,2000.000000,1,COMPLETED_SUCCESSFULLY,2542.699453,251.727104,2794.426557,0.005015,251.732119,1.000020,27,-1.000000,""
119,w0,python3action_pyaes_4000,0.000000,1,-1.000000,1,COMPLETED_SUCCESSFULLY,2794.426572,0.000010,2794.426582,2794.426572,2794.426582,279442658.200201,27,-1.000000,""
python3action_video_processing_job135_100,w0,python3action_video_processing_reduced_1.89,2794.431572,1,2000.000000,1,COMPLETED_SUCCESSFULLY,2794.436587,0.000000,2794.436587,0.005015,0.005015,103066412.616822,27,-1.000000,""
13_updated,w0,python3action_floatoperation_100000000_troll,2689.290538,1,2000.000000,1,COMPLETED_SUCCESSFULLY,2689.295553,125.863576,2815.159129,0.005015,125.868591,1.000040,26,-1.000000,""
13,w0,python3action_floatoperation_100000000,0.000000,1,-1.000000,1,COMPLETED_SUCCESSFULLY,2815.159144,0.000010,2815.159154,2815.159144,2815.159154,281515915.442174,26,-1.000000,""
114_updated,w0,python3action_videoprocessing_SampleVideo_50mb_yeti,2213.381540,1,2000.000000,1,COMPLETED_SUCCESSFULLY,2213.386555,686.386021,2899.772576,0.005015,686.391036,1.000007,28,-1.000000,""
114,w0,python3action_videoprocessing_SampleVideo_50mb,0.000000,1,-1.000000,1,COMPLETED_SUCCESSFULLY,2899.772591,0.000010,2899.772601,2899.772591,2899.772601,289977260.100201,28,-1.000000,""
12_updated,w0,python3action_imageprocessing_SampleImage_60mb_yeti,2759.735473,1,2000.000000,1,COMPLETED_SUCCESSFULLY,2759.740488,170.201436,2929.941924,0.005015,170.206451,1.000029,29,-1.000000,""
12,w0,python3action_imageprocessing_SampleImage_60mb,0.000000,1,-1.000000,1,COMPLETED_SUCCESSFULLY,2929.941939,0.000010,2929.941949,2929.941939,2929.941949,292994194.904173,29,-1.000000,""
125_updated,w0,python3action_chameleon_2000_yeti,2899.777591,1,2000.000000,1,COMPLETED_SUCCESSFULLY,2899.782606,79.321057,2979.103663,0.005015,79.326072,1.000063,28,-1.000000,""
125,w0,python3action_chameleon_2000,0.000000,1,-1.000000,1,COMPLETED_SUCCESSFULLY,2979.103678,0.000010,2979.103688,2979.103678,2979.103688,297910368.800592,28,-1.000000,""
python3action_linpack_job136_101,w0,python3action_linpack_reduced_1.7,2979.108678,1,2000.000000,1,COMPLETED_SUCCESSFULLY,2979.113693,0.000000,2979.113693,0.005015,0.005015,103066412.616822,28,-1.000000,""
135_updated,w0,python3action_videoprocessing_SampleVideo_30mb_troll,2794.431572,1,2000.000000,1,COMPLETED_SUCCESSFULLY,2794.436617,200.069750,2994.506367,0.005045,200.074795,1.000025,27,-1.000000,""
135,w0,python3action_videoprocessing_SampleVideo_30mb,0.000000,1,-1.000000,1,COMPLETED_SUCCESSFULLY,2994.506382,0.000010,2994.506392,2994.506382,2994.506392,299450639.241101,27,-1.000000,""
140_updated,w0,python3action_videoprocessing_SampleVideo_30mb_troll,2815.164144,1,2000.000000,1,COMPLETED_SUCCESSFULLY,2815.169159,200.069750,3015.238909,0.005015,200.074765,1.000025,26,-1.000000,""
140,w0,python3action_videoprocessing_SampleVideo_30mb,0.000000,1,-1.000000,1,COMPLETED_SUCCESSFULLY,3015.238924,0.000010,3015.238934,3015.238924,3015.238934,301523893.440699,26,-1.000000,""
130_updated,w0,python3action_modeltraining_reviews100mb_yeti,2929.946939,1,2000.000000,1,COMPLETED_SUCCESSFULLY,2929.951954,129.145802,3059.097756,0.005015,129.150817,1.000039,29,-1.000000,""
130,w0,python3action_modeltraining_reviews100mb,0.000000,1,-1.000000,1,COMPLETED_SUCCESSFULLY,3059.097771,0.000010,3059.097781,3059.097771,3059.097781,305909778.100201,29,-1.000000,""
141_updated,w0,python3action_linpack_5000_yeti,3059.102771,1,2000.000000,1,COMPLETED_SUCCESSFULLY,3059.107786,76.929468,3136.037254,0.005015,76.934483,1.000065,29,-1.000000,""
141,w0,python3action_linpack_5000,0.000000,1,-1.000000,1,COMPLETED_SUCCESSFULLY,3136.037269,0.000010,3136.037279,3136.037269,3136.037279,313603727.908393,29,-1.000000,""
146_updated,w0,python3action_pyaes_4000_troll,2994.511382,1,2000.000000,1,COMPLETED_SUCCESSFULLY,2994.516397,251.727104,3246.243501,0.005015,251.732119,1.000020,27,-1.000000,""
146,w0,python3action_pyaes_4000,0.000000,1,-1.000000,1,COMPLETED_SUCCESSFULLY,3246.243516,0.000010,3246.243526,3246.243516,3246.243526,324624352.600201,27,-1.000000,""
150_updated,w0,python3action_facedetection_SampleVideo_30mb_troll,3015.243924,1,2000.000000,1,COMPLETED_SUCCESSFULLY,3015.248939,300.924584,3316.173523,0.005015,300.929599,1.000017,26,-1.000000,""
150,w0,python3action_facedetection_SampleVideo_30mb,0.000000,1,-1.000000,1,COMPLETED_SUCCESSFULLY,3316.173538,0.000010,3316.173548,3316.173538,3316.173548,331617354.800201,26,-1.000000,""
python3action_image_processing_job160_102,w0,python3action_image_processing_reduced_2.59,3316.178538,1,2000.000000,1,COMPLETED_SUCCESSFULLY,3316.183553,0.000000,3316.183553,0.005015,0.005015,103066412.616822,26,-1.000000,""
156_updated,w0,python3action_floatoperation_100000000_troll,3246.248516,1,2000.000000,1,COMPLETED_SUCCESSFULLY,3246.253531,125.863576,3372.117107,0.005015,125.868591,1.000040,27,-1.000000,""
156,w0,python3action_floatoperation_100000000,0.000000,1,-1.000000,1,COMPLETED_SUCCESSFULLY,3372.117122,0.000010,3372.117132,3372.117122,3372.117132,337211713.242174,27,-1.000000,""
160_updated,w0,python3action_imageprocessing_SampleImage_60mb_troll,3316.178538,1,2000.000000,1,COMPLETED_SUCCESSFULLY,3316.183583,152.512187,3468.695770,0.005045,152.517232,1.000033,26,-1.000000,""
160,w0,python3action_imageprocessing_SampleImage_60mb,0.000000,1,-1.000000,1,COMPLETED_SUCCESSFULLY,3468.695785,0.000010,3468.695795,3468.695785,3468.695795,346869579.500201,26,-1.000000,""
python3action_linpack_job1_103,w0,python3action_linpack_reduced_0.85,3468.700785,1,2000.000000,1,COMPLETED_SUCCESSFULLY,3468.705800,0.365992,3469.071792,0.005015,0.371007,1.013702,26,-1.000000,""
136_updated,w0,python3action_linpack_6000_yeti,2979.108678,1,2000.000000,1,COMPLETED_SUCCESSFULLY,2979.113723,511.002833,3490.116556,0.005045,511.007878,1.000010,28,-1.000000,""
136,w0,python3action_linpack_6000,0.000000,1,-1.000000,1,COMPLETED_SUCCESSFULLY,3490.116571,0.000010,3490.116581,3490.116571,3490.116581,349011658.100760,28,-1.000000,""
1_updated,w0,python3action_linpack_5000_troll,3468.700785,1,2000.000000,1,COMPLETED_SUCCESSFULLY,3469.071807,72.976261,3542.048068,0.371022,73.347283,1.005084,26,-1.000000,""
1,w0,python3action_linpack_5000,0.000000,1,-1.000000,1,COMPLETED_SUCCESSFULLY,3542.048083,0.000010,3542.048093,3542.048083,3542.048093,354204809.342149,26,-1.000000,""
147_updated,w0,python3action_videoprocessing_SampleVideo_50mb_yeti,3136.042269,1,2000.000000,1,COMPLETED_SUCCESSFULLY,3136.047284,686.386021,3822.433305,0.005015,686.391036,1.000007,29,-1.000000,""
147,w0,python3action_videoprocessing_SampleVideo_50mb,0.000000,1,-1.000000,1,COMPLETED_SUCCESSFULLY,3822.433320,0.000010,3822.433330,3822.433320,3822.433330,382243333.000201,29,-1.000000,""
10_updated,w0,python3action_linpack_5000_yeti,3822.438320,1,2000.000000,1,COMPLETED_SUCCESSFULLY,3822.443335,76.929468,3899.372803,0.005015,76.934483,1.000065,29,-1.000000,""
10,w0,python3action_linpack_5000,0.000000,1,-1.000000,1,COMPLETED_SUCCESSFULLY,3899.372818,0.000010,3899.372828,3899.372818,3899.372828,389937282.808393,29,-1.000000,""
166_updated,w0,python3action_videoprocessing_SampleVideo_50mb_troll,3372.122122,1,2000.000000,1,COMPLETED_SUCCESSFULLY,3372.127137,704.015923,4076.143060,0.005015,704.020938,1.000007,27,-1.000000,""
166,w0,python3action_videoprocessing_SampleVideo_50mb,0.000000,1,-1.000000,1,COMPLETED_SUCCESSFULLY,4076.143075,0.000010,4076.143085,4076.143075,4076.143085,407614308.541535,27,-1.000000,""
python3action_linpack_job104_104,w0,python3action_linpack_reduced_1.7,4076.148075,1,2000.000000,1,COMPLETED_SUCCESSFULLY,4076.153090,0.000000,4076.153090,0.005015,0.005015,103066412.616822,27,-1.000000,""
151_updated,w0,python3action_facedetection_SampleVideo_30mb_yeti,3490.121571,1,2000.000000,1,COMPLETED_SUCCESSFULLY,3490.126586,620.218727,4110.345313,0.005015,620.223742,1.000008,28,-1.000000,""
151,w0,python3action_facedetection_SampleVideo_30mb,0.000000,1,-1.000000,1,COMPLETED_SUCCESSFULLY,4110.345328,0.000010,4110.345338,4110.345328,4110.345338,411034533.810801,28,-1.000000,""
102_updated,w0,python3action_linpack_6000_troll,3542.053083,1,2000.000000,1,COMPLETED_SUCCESSFULLY,3542.058098,620.708201,4162.766299,0.005015,620.713216,1.000008,26,-1.000000,""
102,w0,python3action_linpack_6000,0.000000,1,-1.000000,1,COMPLETED_SUCCESSFULLY,4162.766314,0.000010,4162.766324,4162.766314,4162.766324,416276632.404930,26,-1.000000,""
python3action_chameleon_job18_105,w0,python3action_chameleon_reduced_1.7,4162.771314,1,2000.000000,1,COMPLETED_SUCCESSFULLY,4162.776329,0.000000,4162.776329,0.005015,0.005015,102112093.981481,26,-1.000000,""
18_updated,w0,python3action_chameleon_2000_troll,4162.771314,1,2000.000000,1,COMPLETED_SUCCESSFULLY,4162.776359,97.165047,4259.941406,0.005045,97.170092,1.000052,26,-1.000000,""
18,w0,python3action_chameleon_2000,0.000000,1,-1.000000,1,COMPLETED_SUCCESSFULLY,4259.941421,0.000010,4259.941431,4259.941421,4259.941431,425994143.100201,26,-1.000000,""
183_updated,w0,python3action_facedetection_SampleVideo_30mb_troll,4259.946421,1,2000.000000,1,COMPLETED_SUCCESSFULLY,4259.951436,300.924584,4560.876020,0.005015,300.929599,1.000017,26,-1.000000,""
183,w0,python3action_facedetection_SampleVideo_30mb,0.000000,1,-1.000000,1,COMPLETED_SUCCESSFULLY,4560.876035,0.000010,4560.876045,4560.876035,4560.876045,456087604.500201,26,-1.000000,""
113_updated,w0,python3action_videoprocessing_SampleVideo_30mb_yeti,4110.350328,1,2000.000000,1,COMPLETED_SUCCESSFULLY,4110.355343,493.464514,4603.819857,0.005015,493.469529,1.000010,28,-1.000000,""
113,w0,python3action_videoprocessing_SampleVideo_30mb,0.000000,1,-1.000000,1,COMPLETED_SUCCESSFULLY,4603.819872,0.000010,4603.819882,4603.819872,4603.819882,460381988.224228,28,-1.000000,""
161_updated,w0,python3action_facedetection_SampleVideo_50mb_yeti,3899.377818,1,2000.000000,1,COMPLETED_SUCCESSFULLY,3899.382833,707.910321,4607.293154,0.005015,707.915336,1.000007,29,-1.000000,""
161,w0,python3action_facedetection_SampleVideo_50mb,0.000000,1,-1.000000,1,COMPLETED_SUCCESSFULLY,4607.293169,0.000010,4607.293179,4607.293169,4607.293179,460729317.900201,29,-1.000000,""
186_updated,w0,python3action_imageprocessing_SampleImage_40mb_troll,4560.881035,1,2000.000000,1,COMPLETED_SUCCESSFULLY,4560.886050,78.306013,4639.192063,0.005015,78.311028,1.000064,26,-1.000000,""
186,w0,python3action_imageprocessing_SampleImage_40mb,0.000000,1,-1.000000,1,COMPLETED_SUCCESSFULLY,4639.192078,0.000010,4639.192088,4639.192078,4639.192088,463919208.800201,26,-1.000000,""
172_updated,w0,python3action_imageprocessing_SampleImage_40mb_yeti,4607.298169,1,2000.000000,1,COMPLETED_SUCCESSFULLY,4607.303184,86.495824,4693.799008,0.005015,86.500839,1.000058,29,-1.000000,""
172,w0,python3action_imageprocessing_SampleImage_40mb,0.000000,1,-1.000000,1,COMPLETED_SUCCESSFULLY,4693.799023,0.000010,4693.799033,4693.799023,4693.799033,469379903.300201,29,-1.000000,""
104_updated,w0,python3action_linpack_6000_troll,4076.148075,1,2000.000000,1,COMPLETED_SUCCESSFULLY,4076.153120,620.708201,4696.861321,0.005045,620.713246,1.000008,27,-1.000000,""
104,w0,python3action_linpack_6000,0.000000,1,-1.000000,1,COMPLETED_SUCCESSFULLY,4696.861336,0.000010,4696.861346,4696.861336,4696.861346,469686134.605330,27,-1.000000,""
176_updated,w0,python3action_chameleon_2000_yeti,4693.804023,1,2000.000000,1,COMPLETED_SUCCESSFULLY,4693.809038,79.321057,4773.130095,0.005015,79.326072,1.000063,29,-1.000000,""
176,w0,python3action_chameleon_2000,0.000000,1,-1.000000,1,COMPLETED_SUCCESSFULLY,4773.130110,0.000010,4773.130120,4773.130110,4773.130120,477313012.000592,29,-1.000000,""
106_updated,w0,python3action_pyaes_3000_yeti,4773.135110,1,2000.000000,1,COMPLETED_SUCCESSFULLY,4773.140125,142.698139,4915.838264,0.005015,142.703154,1.000035,29,-1.000000,""
106,w0,python3action_pyaes_3000,0.000000,1,-1.000000,1,COMPLETED_SUCCESSFULLY,4915.838279,0.000010,4915.838289,4915.838279,4915.838289,491583828.901637,29,-1.000000,""
109_updated,w0,python3action_imageprocessing_SampleImage_60mb_yeti,4915.843279,1,2000.000000,1,COMPLETED_SUCCESSFULLY,4915.848294,170.201436,5086.049730,0.005015,170.206451,1.000029,29,-1.000000,""
109,w0,python3action_imageprocessing_SampleImage_60mb,0.000000,1,-1.000000,1,COMPLETED_SUCCESSFULLY,5086.049745,0.000010,5086.049755,5086.049745,5086.049755,508604975.504172,29,-1.000000,""
187_updated,w0,python3action_pyaes_3000_yeti,5086.054745,1,2000.000000,1,COMPLETED_SUCCESSFULLY,5086.059760,142.698139,5228.757899,0.005015,142.703154,1.000035,29,-1.000000,""
187,w0,python3action_pyaes_3000,0.000000,1,-1.000000,1,COMPLETED_SUCCESSFULLY,5228.757914,0.000010,5228.757924,5228.757914,5228.757924,522875792.401637,29,-1.000000,""
17_updated,w0,python3action_videoprocessing_SampleVideo_50mb_yeti,4603.824872,1,2000.000000,1,COMPLETED_SUCCESSFULLY,4603.829887,686.386021,5290.215908,0.005015,686.391036,1.000007,28,-1.000000,""
17,w0,python3action_videoprocessing_SampleVideo_50mb,0.000000,1,-1.000000,1,COMPLETED_SUCCESSFULLY,5290.215923,0.000010,5290.215933,5290.215923,5290.215933,529021593.300201,28,-1.000000,""
