job_id,workload_name,profile,submission_time,requested_number_of_resources,requested_time,success,final_state,starting_time,execution_time,finish_time,waiting_time,turnaround_time,stretch,allocated_resources,consumed_energy,metadata
python3action_pyaes_job141_23,w0,python3action_pyaes,0.997085,1,2000.000000,1,COMPLETED_SUCCESSFULLY,1.002445,0.243006,1.245451,0.005360,0.248366,1.022057,23,-1.000000,""
python3action_chameleon_job117_56,w0,python3action_chameleon,0.997085,1,2000.000000,1,COMPLETED_SUCCESSFULLY,1.002940,0.243006,1.245946,0.005855,0.248861,1.024095,56,-1.000000,""
python3action_linpack_job189_0,w0,python3action_linpack,0.997085,1,2000.000000,1,COMPLETED_SUCCESSFULLY,1.002100,0.277720,1.279820,0.005015,0.282735,1.018058,0,-1.000000,""
python3action_floatoperation_job9_53,w0,python3action_floatoperation,0.997085,1,2000.000000,1,COMPLETED_SUCCESSFULLY,1.002895,0.277720,1.280615,0.005810,0.283530,1.020921,53,-1.000000,""
python3action_pyaes_job3_42,w0,python3action_pyaes,0.997085,1,2000.000000,1,COMPLETED_SUCCESSFULLY,1.002730,0.697503,1.700233,0.005645,0.703148,1.008093,42,-1.000000,""
python3action_pyaes_job88_47,w0,python3action_pyaes,0.997085,1,2000.000000,1,COMPLETED_SUCCESSFULLY,1.002805,0.867914,1.870719,0.005720,0.873634,1.006591,47,-1.000000,""
python3action_pyaes_job91_48,w0,python3action_pyaes,0.997085,1,2000.000000,1,COMPLETED_SUCCESSFULLY,1.002820,0.867914,1.870734,0.005735,0.873649,1.006608,48,-1.000000,""
python3action_floatoperation_job35_44,w0,python3action_floatoperation,0.997085,1,2000.000000,1,COMPLETED_SUCCESSFULLY,1.002760,0.991898,1.994659,0.005675,0.997574,1.005721,44,-1.000000,""
python3action_linpack_job92_50,w0,python3action_linpack,0.997085,1,2000.000000,1,COMPLETED_SUCCESSFULLY,1.002850,1.020219,2.023069,0.005765,1.025984,1.005651,50,-1.000000,""
python3action_chameleon_job99_3,w0,python3action_chameleon,0.997085,1,2000.000000,1,COMPLETED_SUCCESSFULLY,1.002145,2.134958,3.137103,0.005060,2.140018,1.002370,3,-1.000000,""
python3action_chameleon_job192_4,w0,python3action_chameleon,0.997085,1,2000.000000,1,COMPLETED_SUCCESSFULLY,1.002160,2.134958,3.137118,0.005075,2.140033,1.002377,4,-1.000000,""
python3action_pyaes_job20_7,w0,python3action_pyaes,0.997085,1,2000.000000,1,COMPLETED_SUCCESSFULLY,1.002205,2.134958,3.137163,0.005120,2.140078,1.002398,7,-1.000000,""
python3action_pyaes_job26_9,w0,python3action_pyaes,0.997085,1,2000.000000,1,COMPLETED_SUCCESSFULLY,1.002235,2.134958,3.137193,0.005150,2.140108,1.002412,9,-1.000000,""
python3action_pyaes_job10_17,w0,python3action_pyaes,0.997085,1,2000.000000,1,COMPLETED_SUCCESSFULLY,1.002355,2.134958,3.137313,0.005270,2.140228,1.002468,17,-1.000000,""
python3action_chameleon_job130_19,w0,python3action_chameleon,0.997085,1,2000.000000,1,COMPLETED_SUCCESSFULLY,1.002385,2.134958,3.137343,0.005300,2.140258,1.002483,19,-1.000000,""
python3action_pyaes_job136_21,w0,python3action_pyaes,0.997085,1,2000.000000,1,COMPLETED_SUCCESSFULLY,1.002415,2.134958,3.137373,0.005330,2.140288,1.002497,21,-1.000000,""
python3action_linpack_job94_2,w0,python3action_linpack,0.997085,1,2000.000000,1,COMPLETED_SUCCESSFULLY,1.002130,2.439945,3.442075,0.005045,2.444990,1.002068,2,-1.000000,""
python3action_linpack_job195_5,w0,python3action_linpack,0.997085,1,2000.000000,1,COMPLETED_SUCCESSFULLY,1.002175,2.439945,3.442120,0.005090,2.445035,1.002086,5,-1.000000,""
python3action_floatoperation_job23_8,w0,python3action_floatoperation,0.997085,1,2000.000000,1,COMPLETED_SUCCESSFULLY,1.002220,2.439945,3.442165,0.005135,2.445080,1.002105,8,-1.000000,""
python3action_linpack_job123_16,w0,python3action_linpack,0.997085,1,2000.000000,1,COMPLETED_SUCCESSFULLY,1.002340,2.439945,3.442285,0.005255,2.445200,1.002154,16,-1.000000,""
python3action_linpack_job133_20,w0,python3action_linpack,0.997085,1,2000.000000,1,COMPLETED_SUCCESSFULLY,1.002400,2.439945,3.442345,0.005315,2.445260,1.002178,20,-1.000000,""
python3action_linpack_job139_22,w0,python3action_linpack,0.997085,1,2000.000000,1,COMPLETED_SUCCESSFULLY,1.002430,2.439945,3.442375,0.005345,2.445290,1.002191,22,-1.000000,""
python3action_floatoperation_job144_24,w0,python3action_floatoperation,0.997085,1,2000.000000,1,COMPLETED_SUCCESSFULLY,1.002460,2.439945,3.442405,0.005375,2.445320,1.002203,24,-1.000000,""
python3action_floatoperation_job147_25,w0,python3action_floatoperation,0.997085,1,2000.000000,1,COMPLETED_SUCCESSFULLY,1.002475,2.439945,3.442420,0.005390,2.445335,1.002209,25,-1.000000,""
python3action_video_processing_job90_1,w0,python3action_video_processing,0.997085,1,2000.000000,1,COMPLETED_SUCCESSFULLY,1.002115,3.471546,4.473661,0.005030,3.476576,1.001449,1,-1.000000,""
python3action_facedetection_job95_12,w0,python3action_facedetection,0.997085,1,2000.000000,1,COMPLETED_SUCCESSFULLY,1.002280,3.471546,4.473826,0.005195,3.476741,1.001496,12,-1.000000,""
python3action_image_processing_job86_34,w0,python3action_image_processing,0.997085,1,2000.000000,1,COMPLETED_SUCCESSFULLY,1.002610,3.471546,4.474156,0.005525,3.477071,1.001592,34,-1.000000,""
python3action_modeltraining_job38_45,w0,python3action_modeltraining,0.997085,1,2000.000000,1,COMPLETED_SUCCESSFULLY,1.002775,3.471546,4.474321,0.005690,3.477236,1.001639,45,-1.000000,""
python3action_image_processing_job93_54,w0,python3action_image_processing,0.997085,1,2000.000000,1,COMPLETED_SUCCESSFULLY,1.002910,3.471546,4.474456,0.005825,3.477371,1.001678,54,-1.000000,""
python3action_image_processing_job98_55,w0,python3action_image_processing,0.997085,1,2000.000000,1,COMPLETED_SUCCESSFULLY,1.002925,3.471546,4.474471,0.005840,3.477386,1.001682,55,-1.000000,""
86_updated,w0,python3action_imageprocessing_SampleImage_40mb_orion,0.997085,1,2000.000000,1,COMPLETED_SUCCESSFULLY,4.474171,1.542642,6.016813,3.477086,5.019728,3.253981,34,-1.000000,""
86,w0,python3action_imageprocessing_SampleImage_40mb,0.000000,1,-1.000000,1,COMPLETED_SUCCESSFULLY,6.016828,0.000010,6.016838,6.016828,6.016838,601683.838621,34,-1.000000,""
python3action_chameleon_job48_27,w0,python3action_chameleon,0.997085,1,2000.000000,1,COMPLETED_SUCCESSFULLY,1.002505,5.040826,6.043331,0.005420,5.046246,1.001075,27,-1.000000,""
python3action_pyaes_job53_29,w0,python3action_pyaes,0.997085,1,2000.000000,1,COMPLETED_SUCCESSFULLY,1.002535,5.040826,6.043361,0.005450,5.046276,1.001081,29,-1.000000,""
python3action_chameleon_job56_30,w0,python3action_chameleon,0.997085,1,2000.000000,1,COMPLETED_SUCCESSFULLY,1.002550,5.040826,6.043376,0.005465,5.046291,1.001084,30,-1.000000,""
python3action_pyaes_job85_33,w0,python3action_pyaes,0.997085,1,2000.000000,1,COMPLETED_SUCCESSFULLY,1.002595,5.040826,6.043421,0.005510,5.046336,1.001093,33,-1.000000,""
python3action_chameleon_job193_36,w0,python3action_chameleon,0.997085,1,2000.000000,1,COMPLETED_SUCCESSFULLY,1.002640,5.040826,6.043466,0.005555,5.046381,1.001102,36,-1.000000,""
python3action_pyaes_job199_38,w0,python3action_pyaes,0.997085,1,2000.000000,1,COMPLETED_SUCCESSFULLY,1.002670,5.040826,6.043496,0.005585,5.046411,1.001108,38,-1.000000,""
python3action_chameleon_job126_39,w0,python3action_chameleon,0.997085,1,2000.000000,1,COMPLETED_SUCCESSFULLY,1.002685,5.040826,6.043511,0.005600,5.046426,1.001111,39,-1.000000,""
python3action_pyaes_job24_40,w0,python3action_pyaes,0.997085,1,2000.000000,1,COMPLETED_SUCCESSFULLY,1.002700,5.040826,6.043526,0.005615,5.046441,1.001114,40,-1.000000,""
python3action_pyaes_job43_57,w0,python3action_pyaes,6.016843,1,2000.000000,1,COMPLETED_SUCCESSFULLY,6.021858,0.243006,6.264864,0.005015,0.248021,1.020637,34,-1.000000,""
38_updated,w0,python3action_modeltraining_reviews50mb_orion,0.997085,1,2000.000000,1,COMPLETED_SUCCESSFULLY,4.474336,2.207908,6.682244,3.477251,5.685159,2.574908,45,-1.000000,""
38,w0,python3action_modeltraining_reviews50mb,0.000000,1,-1.000000,1,COMPLETED_SUCCESSFULLY,6.682259,0.000010,6.682269,6.682259,6.682269,668226.902545,45,-1.000000,""
python3action_linpack_job59_31,w0,python3action_linpack,0.997085,1,2000.000000,1,COMPLETED_SUCCESSFULLY,1.002565,5.760927,6.763492,0.005480,5.766407,1.000951,31,-1.000000,""
python3action_floatoperation_job87_32,w0,python3action_floatoperation,0.997085,1,2000.000000,1,COMPLETED_SUCCESSFULLY,1.002580,5.760927,6.763507,0.005495,5.766422,1.000954,32,-1.000000,""
0_updated,w0,python3action_modeltraining_reviews50mb_orion,6.682274,1,2000.000000,1,COMPLETED_SUCCESSFULLY,6.687289,2.207908,8.895197,0.005015,2.212923,1.002271,45,-1.000000,""
0,w0,python3action_modeltraining_reviews50mb,0.000000,1,-1.000000,1,COMPLETED_SUCCESSFULLY,8.895212,0.000010,8.895222,8.895212,8.895222,889522.202545,45,-1.000000,""
python3action_linpack_job152_58,w0,python3action_linpack,8.895227,1,2000.000000,1,COMPLETED_SUCCESSFULLY,8.900242,0.277720,9.177962,0.005015,0.282735,1.018058,45,-1.000000,""
141_updated,w0,python3action_pyaes_3000_nova,0.997085,1,2000.000000,1,COMPLETED_SUCCESSFULLY,1.245466,8.900911,10.146377,0.248381,9.149292,1.027905,23,-1.000000,""
141,w0,python3action_pyaes_3000,0.000000,1,-1.000000,1,COMPLETED_SUCCESSFULLY,10.146392,0.000010,10.146402,10.146392,10.146402,1014640.200201,23,-1.000000,""
python3action_chameleon_job61_59,w0,python3action_chameleon_reduced_0.85,10.146407,1,2000.000000,1,COMPLETED_SUCCESSFULLY,10.151422,0.036451,10.187873,0.005015,0.041466,1.137582,23,-1.000000,""
152_updated,w0,python3action_linpack_5000_orion,8.895227,1,2000.000000,1,COMPLETED_SUCCESSFULLY,9.177977,1.745113,10.923090,0.282750,2.027863,1.162024,45,-1.000000,""
152,w0,python3action_linpack_5000,0.000000,1,-1.000000,1,COMPLETED_SUCCESSFULLY,10.923105,0.000010,10.923115,10.923105,10.923115,1092311.541719,45,-1.000000,""
python3action_image_processing_job32_43,w0,python3action_image_processing,0.997085,1,2000.000000,1,COMPLETED_SUCCESSFULLY,1.002745,9.964414,10.967159,0.005660,9.970074,1.000568,43,-1.000000,""
python3action_facedetection_job155_60,w0,python3action_facedetection_reduced_0.91,10.923120,1,2000.000000,1,COMPLETED_SUCCESSFULLY,10.928135,0.297561,11.225696,0.005015,0.302576,1.016854,45,-1.000000,""
43_updated,w0,python3action_pyaes_3000_orion,6.016843,1,2000.000000,1,COMPLETED_SUCCESSFULLY,6.264879,4.984661,11.249540,0.248036,5.232697,1.049760,34,-1.000000,""
43,w0,python3action_pyaes_3000,0.000000,1,-1.000000,1,COMPLETED_SUCCESSFULLY,11.249555,0.000010,11.249565,11.249555,11.249565,1124956.500201,34,-1.000000,""
python3action_linpack_job158_61,w0,python3action_linpack_reduced_0.85,11.249570,1,2000.000000,1,COMPLETED_SUCCESSFULLY,11.254585,0.041658,11.296243,0.005015,0.046673,1.120385,34,-1.000000,""
python3action_facedetection_job40_46,w0,python3action_facedetection,0.997085,1,2000.000000,1,COMPLETED_SUCCESSFULLY,1.002790,12.398880,13.401670,0.005705,12.404585,1.000460,46,-1.000000,""
python3action_video_processing_job89_49,w0,python3action_video_processing,0.997085,1,2000.000000,1,COMPLETED_SUCCESSFULLY,1.002835,12.752895,13.755730,0.005750,12.758645,1.000451,49,-1.000000,""
python3action_video_processing_job97_51,w0,python3action_video_processing,0.997085,1,2000.000000,1,COMPLETED_SUCCESSFULLY,1.002865,12.752895,13.755760,0.005780,12.758675,1.000453,51,-1.000000,""
python3action_modeltraining_job191_52,w0,python3action_modeltraining,0.997085,1,2000.000000,1,COMPLETED_SUCCESSFULLY,1.002880,12.752895,13.755775,0.005795,12.758690,1.000454,52,-1.000000,""
9_updated,w0,python3action_floatoperation_100000000_yeti,0.997085,1,2000.000000,1,COMPLETED_SUCCESSFULLY,1.280630,14.518202,15.798833,0.283545,14.801748,1.019530,53,-1.000000,""
9,w0,python3action_floatoperation_100000000,0.000000,1,-1.000000,1,COMPLETED_SUCCESSFULLY,15.798848,0.000010,15.798858,15.798848,15.798858,1579885.800201,53,-1.000000,""
158_updated,w0,python3action_linpack_6000_orion,11.249570,1,2000.000000,1,COMPLETED_SUCCESSFULLY,11.296258,5.110003,16.406261,0.046688,5.156691,1.009137,34,-1.000000,""
158,w0,python3action_linpack_6000,0.000000,1,-1.000000,1,COMPLETED_SUCCESSFULLY,16.406276,0.000010,16.406286,16.406276,16.406286,1640628.600201,34,-1.000000,""
python3action_floatoperation_job160_63,w0,python3action_floatoperation,16.406291,1,2000.000000,1,COMPLETED_SUCCESSFULLY,16.411306,0.277720,16.689026,0.005015,0.282735,1.018058,34,-1.000000,""
61_updated,w0,python3action_chameleon_2000_nova,10.146407,1,2000.000000,1,COMPLETED_SUCCESSFULLY,10.187888,8.035860,18.223748,0.041481,8.077341,1.005162,23,-1.000000,""
61,w0,python3action_chameleon_2000,0.000000,1,-1.000000,1,COMPLETED_SUCCESSFULLY,18.223763,0.000010,18.223773,18.223763,18.223773,1822377.300201,23,-1.000000,""
python3action_video_processing_job12_62,w0,python3action_video_processing,15.798863,1,2000.000000,1,COMPLETED_SUCCESSFULLY,15.803878,3.471546,19.275424,0.005015,3.476561,1.001445,53,-1.000000,""
155_updated,w0,python3action_facedetection_SampleVideo_30mb_orion,10.923120,1,2000.000000,1,COMPLETED_SUCCESSFULLY,11.225711,8.802705,20.028416,0.302591,9.105296,1.034375,45,-1.000000,""
155,w0,python3action_facedetection_SampleVideo_30mb,0.000000,1,-1.000000,1,COMPLETED_SUCCESSFULLY,20.028431,0.000010,20.028441,20.028431,20.028441,2002844.139185,45,-1.000000,""
python3action_pyaes_job163_64,w0,python3action_pyaes_reduced_0.85,20.028446,1,2000.000000,1,COMPLETED_SUCCESSFULLY,20.033461,0.036451,20.069912,0.005015,0.041466,1.137582,45,-1.000000,""
189_updated,w0,python3action_linpack_5000_neowise,0.997085,1,2000.000000,1,COMPLETED_SUCCESSFULLY,1.279835,20.750000,22.029835,0.282750,21.032750,1.013627,0,-1.000000,""
189,w0,python3action_linpack_5000,0.000000,1,-1.000000,1,COMPLETED_SUCCESSFULLY,22.029850,0.000010,22.029860,22.029850,22.029860,2202986.033426,0,-1.000000,""
95_updated,w0,python3action_facedetection_SampleVideo_30mb_nova,0.997085,1,2000.000000,1,COMPLETED_SUCCESSFULLY,4.473841,18.257105,22.730946,3.476756,21.733861,1.190433,12,-1.000000,""
95,w0,python3action_facedetection_SampleVideo_30mb,0.000000,1,-1.000000,1,COMPLETED_SUCCESSFULLY,22.730961,0.000010,22.730971,22.730961,22.730971,2273097.121450,12,-1.000000,""
python3action_modeltraining_job17_66,w0,python3action_modeltraining_reduced_0.94,22.730976,1,2000.000000,1,COMPLETED_SUCCESSFULLY,22.735991,0.204209,22.940200,0.005015,0.209224,1.024558,12,-1.000000,""
32_updated,w0,python3action_imageprocessing_SampleImage_60mb_orion,0.997085,1,2000.000000,1,COMPLETED_SUCCESSFULLY,10.967174,12.176622,23.143796,9.970089,22.146711,1.818789,43,-1.000000,""
32,w0,python3action_imageprocessing_SampleImage_60mb,0.000000,1,-1.000000,1,COMPLETED_SUCCESSFULLY,23.143811,0.000010,23.143821,23.143811,23.143821,2314382.100201,43,-1.000000,""
93_updated,w0,python3action_imageprocessing_SampleImage_60mb_yeti,0.997085,1,2000.000000,1,COMPLETED_SUCCESSFULLY,4.474471,19.372729,23.847200,3.477386,22.850115,1.179499,54,-1.000000,""
93,w0,python3action_imageprocessing_SampleImage_60mb,0.000000,1,-1.000000,1,COMPLETED_SUCCESSFULLY,23.847215,0.000010,23.847225,23.847215,23.847225,2384722.500201,54,-1.000000,""
98_updated,w0,python3action_imageprocessing_SampleImage_60mb_yeti,0.997085,1,2000.000000,1,COMPLETED_SUCCESSFULLY,4.474501,19.372729,23.847230,3.477416,22.850145,1.179501,55,-1.000000,""
98,w0,python3action_imageprocessing_SampleImage_60mb,0.000000,1,-1.000000,1,COMPLETED_SUCCESSFULLY,23.852260,0.000010,23.852270,23.852260,23.852270,2385227.000402,55,-1.000000,""
python3action_floatoperation_job166_67,w0,python3action_floatoperation,23.143826,1,2000.000000,1,COMPLETED_SUCCESSFULLY,23.148841,0.797144,23.945985,0.005015,0.802159,1.006291,43,-1.000000,""
python3action_pyaes_job122_68,w0,python3action_pyaes,23.847230,1,2000.000000,1,COMPLETED_SUCCESSFULLY,23.852245,0.243006,24.095251,0.005015,0.248021,1.020637,54,-1.000000,""
python3action_chameleon_job125_69,w0,python3action_chameleon,23.852275,1,2000.000000,1,COMPLETED_SUCCESSFULLY,23.857290,0.243006,24.100296,0.005015,0.248021,1.020637,55,-1.000000,""
160_updated,w0,python3action_floatoperation_200000000_orion,16.406291,1,2000.000000,1,COMPLETED_SUCCESSFULLY,16.689041,8.018525,24.707566,0.282750,8.301275,1.035262,34,-1.000000,""
160,w0,python3action_floatoperation_200000000,0.000000,1,-1.000000,1,COMPLETED_SUCCESSFULLY,24.707581,0.000010,24.707591,24.707581,24.707591,2470759.103015,34,-1.000000,""
python3action_video_processing_job29_65,w0,python3action_video_processing,22.029865,1,2000.000000,1,COMPLETED_SUCCESSFULLY,22.034880,3.471546,25.506426,0.005015,3.476561,1.001445,0,-1.000000,""
168_updated,w0,python3action_chameleon_2000_nova,18.223778,1,2000.000000,1,COMPLETED_SUCCESSFULLY,18.228793,8.035860,26.264653,0.005015,8.040875,1.000624,23,-1.000000,""
168,w0,python3action_chameleon_2000,0.000000,1,-1.000000,1,COMPLETED_SUCCESSFULLY,26.264668,0.000010,26.264678,26.264668,26.264678,2626467.800201,23,-1.000000,""
117_updated,w0,python3action_chameleon_3000_yeti,0.997085,1,2000.000000,1,COMPLETED_SUCCESSFULLY,1.245961,25.316115,26.562076,0.248876,25.564991,1.009831,56,-1.000000,""
117,w0,python3action_chameleon_3000,0.000000,1,-1.000000,1,COMPLETED_SUCCESSFULLY,26.562091,0.000010,26.562101,26.562091,26.562101,2656210.125175,56,-1.000000,""
3_updated,w0,python3action_pyaes_4000_orion,0.997085,1,2000.000000,1,COMPLETED_SUCCESSFULLY,1.700248,25.764621,27.464869,0.703163,26.467784,1.027292,42,-1.000000,""
3,w0,python3action_pyaes_4000,0.000000,1,-1.000000,1,COMPLETED_SUCCESSFULLY,27.464884,0.000010,27.464894,27.464884,27.464894,2746489.440352,42,-1.000000,""
163_updated,w0,python3action_pyaes_4000_orion,20.028446,1,2000.000000,1,COMPLETED_SUCCESSFULLY,20.069927,8.976249,29.046176,0.041481,9.017730,1.004621,45,-1.000000,""
163,w0,python3action_pyaes_4000,0.000000,1,-1.000000,1,COMPLETED_SUCCESSFULLY,29.046191,0.000010,29.046201,29.046191,29.046201,2904620.125347,45,-1.000000,""
python3action_video_processing_job171_70,w0,python3action_video_processing,26.264683,1,2000.000000,1,COMPLETED_SUCCESSFULLY,26.269698,3.471546,29.741244,0.005015,3.476561,1.001445,23,-1.000000,""
python3action_modeltraining_job127_71,w0,python3action_modeltraining,26.562106,1,2000.000000,1,COMPLETED_SUCCESSFULLY,26.567121,3.471546,30.038667,0.005015,3.476561,1.001445,56,-1.000000,""
35_updated,w0,python3action_floatoperation_200000000_orion,0.997085,1,2000.000000,1,COMPLETED_SUCCESSFULLY,1.994674,28.638748,30.633422,0.997589,29.636337,1.034834,44,-1.000000,""
35,w0,python3action_floatoperation_200000000,0.000000,1,-1.000000,1,COMPLETED_SUCCESSFULLY,30.633437,0.000010,30.633447,30.633437,30.633447,3063344.724174,44,-1.000000,""
python3action_facedetection_job198_6,w0,python3action_facedetection,0.997085,1,2000.000000,1,COMPLETED_SUCCESSFULLY,1.002190,30.499683,31.501873,0.005105,30.504788,1.000167,6,-1.000000,""
python3action_facedetection_job84_10,w0,python3action_facedetection,0.997085,1,2000.000000,1,COMPLETED_SUCCESSFULLY,1.002250,30.499683,31.501933,0.005165,30.504848,1.000169,10,-1.000000,""
python3action_image_processing_job19_11,w0,python3action_image_processing,0.997085,1,2000.000000,1,COMPLETED_SUCCESSFULLY,1.002265,30.499683,31.501948,0.005180,30.504863,1.000170,11,-1.000000,""
python3action_video_processing_job115_13,w0,python3action_video_processing,0.997085,1,2000.000000,1,COMPLETED_SUCCESSFULLY,1.002295,30.499683,31.501978,0.005210,30.504893,1.000171,13,-1.000000,""
python3action_video_processing_job118_14,w0,python3action_video_processing,0.997085,1,2000.000000,1,COMPLETED_SUCCESSFULLY,1.002310,30.499683,31.501993,0.005225,30.504908,1.000171,14,-1.000000,""
python3action_image_processing_job120_15,w0,python3action_image_processing,0.997085,1,2000.000000,1,COMPLETED_SUCCESSFULLY,1.002325,30.499683,31.502008,0.005240,30.504923,1.000172,15,-1.000000,""
python3action_modeltraining_job128_18,w0,python3action_modeltraining,0.997085,1,2000.000000,1,COMPLETED_SUCCESSFULLY,1.002370,30.499683,31.502053,0.005285,30.504968,1.000173,18,-1.000000,""
python3action_linpack_job7_73,w0,python3action_linpack,30.633452,1,2000.000000,1,COMPLETED_SUCCESSFULLY,30.638467,0.991898,31.630365,0.005015,0.996913,1.005056,44,-1.000000,""
17_updated,w0,python3action_modeltraining_reviews100mb_nova,22.730976,1,2000.000000,1,COMPLETED_SUCCESSFULLY,22.940215,9.060261,32.000476,0.209239,9.269500,1.023094,12,-1.000000,""
17,w0,python3action_modeltraining_reviews100mb,0.000000,1,-1.000000,1,COMPLETED_SUCCESSFULLY,32.000491,0.000010,32.000501,32.000491,32.000501,3200050.100201,12,-1.000000,""
python3action_floatoperation_job173_74,w0,python3action_floatoperation,32.000506,1,2000.000000,1,COMPLETED_SUCCESSFULLY,32.005521,0.277720,32.283241,0.005015,0.282735,1.018058,12,-1.000000,""
92_updated,w0,python3action_linpack_5000_troll,0.997085,1,2000.000000,1,COMPLETED_SUCCESSFULLY,2.023084,30.513714,32.536799,1.025999,31.539714,1.033624,50,-1.000000,""
92,w0,python3action_linpack_5000,0.000000,1,-1.000000,1,COMPLETED_SUCCESSFULLY,32.536814,0.000010,32.536824,32.536814,32.536824,3253682.400201,50,-1.000000,""
125_updated,w0,python3action_chameleon_2000_yeti,23.852275,1,2000.000000,1,COMPLETED_SUCCESSFULLY,24.100311,9.028510,33.128821,0.248036,9.276546,1.027473,55,-1.000000,""
125,w0,python3action_chameleon_2000,0.000000,1,-1.000000,1,COMPLETED_SUCCESSFULLY,33.128836,0.000010,33.128846,33.128836,33.128846,3312884.600201,55,-1.000000,""
python3action_pyaes_job13_76,w0,python3action_pyaes_reduced_0.85,33.128851,1,2000.000000,1,COMPLETED_SUCCESSFULLY,33.133866,0.036451,33.170317,0.005015,0.041466,1.137582,55,-1.000000,""
68_updated,w0,python3action_modeltraining_reviews100mb_orion,29.046206,1,2000.000000,1,COMPLETED_SUCCESSFULLY,29.051221,4.145851,33.197072,0.005015,4.150866,1.001210,45,-1.000000,""
68,w0,python3action_modeltraining_reviews100mb,0.000000,1,-1.000000,1,COMPLETED_SUCCESSFULLY,33.197087,0.000010,33.197097,33.197087,33.197097,3319709.740616,45,-1.000000,""
64_updated,w0,python3action_pyaes_4000_orion,24.707596,1,2000.000000,1,COMPLETED_SUCCESSFULLY,24.712611,8.976249,33.688860,0.005015,8.981264,1.000559,34,-1.000000,""
64,w0,python3action_pyaes_4000,0.000000,1,-1.000000,1,COMPLETED_SUCCESSFULLY,33.688875,0.000010,33.688885,33.688875,33.688885,3368888.525347,34,-1.000000,""
python3action_chameleon_job74_77,w0,python3action_chameleon_reduced_1.7,33.688890,1,2000.000000,1,COMPLETED_SUCCESSFULLY,33.693905,0.000000,33.693905,0.005015,0.005015,902555994.231458,34,-1.000000,""
127_updated,w0,python3action_modeltraining_reviews50mb_yeti,26.562106,1,2000.000000,1,COMPLETED_SUCCESSFULLY,30.038682,6.079497,36.118179,3.476576,9.556073,1.571853,56,-1.000000,""
127,w0,python3action_modeltraining_reviews50mb,0.000000,1,-1.000000,1,COMPLETED_SUCCESSFULLY,36.118194,0.000010,36.118204,36.118194,36.118204,3611820.419084,56,-1.000000,""
40_updated,w0,python3action_facedetection_SampleVideo_50mb_orion,0.997085,1,2000.000000,1,COMPLETED_SUCCESSFULLY,13.401685,22.830663,36.232348,12.404600,35.235263,1.543331,46,-1.000000,""
40,w0,python3action_facedetection_SampleVideo_50mb,0.000000,1,-1.000000,1,COMPLETED_SUCCESSFULLY,36.232363,0.000010,36.232373,36.232363,36.232373,3623237.300201,46,-1.000000,""
python3action_image_processing_job132_78,w0,python3action_image_processing_reduced_0.86,36.118209,1,2000.000000,1,COMPLETED_SUCCESSFULLY,36.123224,0.469128,36.592352,0.005015,0.474143,1.010690,56,-1.000000,""
74_updated,w0,python3action_chameleon_2000_orion,33.688890,1,2000.000000,1,COMPLETED_SUCCESSFULLY,33.693935,2.988870,36.682805,0.005045,2.993915,1.001688,34,-1.000000,""
74,w0,python3action_chameleon_2000,0.000000,1,-1.000000,1,COMPLETED_SUCCESSFULLY,36.682820,0.000010,36.682830,36.682820,36.682830,3668283.000201,34,-1.000000,""
python3action_linpack_job180_79,w0,python3action_linpack,36.232378,1,2000.000000,1,COMPLETED_SUCCESSFULLY,36.237393,0.991898,37.229291,0.005015,0.996913,1.005056,46,-1.000000,""
python3action_image_processing_job66_72,w0,python3action_image_processing,27.464899,1,2000.000000,1,COMPLETED_SUCCESSFULLY,27.469914,9.964414,37.434328,0.005015,9.969429,1.000503,42,-1.000000,""
7_updated,w0,python3action_linpack_5000_orion,30.633452,1,2000.000000,1,COMPLETED_SUCCESSFULLY,31.630380,6.232799,37.863180,0.996928,7.229728,1.159949,44,-1.000000,""
7,w0,python3action_linpack_5000,0.000000,1,-1.000000,1,COMPLETED_SUCCESSFULLY,37.863195,0.000010,37.863205,37.863195,37.863205,3786320.500201,44,-1.000000,""
123_updated,w0,python3action_linpack_5000_nova,0.997085,1,2000.000000,1,COMPLETED_SUCCESSFULLY,3.442300,34.600010,38.042310,2.445215,37.045225,1.070671,16,-1.000000,""
123,w0,python3action_linpack_5000,0.000000,1,-1.000000,1,COMPLETED_SUCCESSFULLY,38.042325,0.000010,38.042335,38.042325,38.042335,3804233.510092,16,-1.000000,""
139_updated,w0,python3action_linpack_5000_nova,0.997085,1,2000.000000,1,COMPLETED_SUCCESSFULLY,3.442390,34.600010,38.042400,2.445305,37.045315,1.070674,22,-1.000000,""
139,w0,python3action_linpack_5000,0.000000,1,-1.000000,1,COMPLETED_SUCCESSFULLY,38.047385,0.000010,38.047395,38.047385,38.047395,3804739.500602,22,-1.000000,""
182_updated,w0,python3action_pyaes_3000_orion,36.682835,1,2000.000000,1,COMPLETED_SUCCESSFULLY,36.687850,4.984661,41.672511,0.005015,4.989676,1.001006,34,-1.000000,""
182,w0,python3action_pyaes_3000,0.000000,1,-1.000000,1,COMPLETED_SUCCESSFULLY,41.672526,0.000010,41.672536,41.672526,41.672536,4167253.600201,34,-1.000000,""
176_updated,w0,python3action_facedetection_SampleVideo_30mb_orion,33.197102,1,2000.000000,1,COMPLETED_SUCCESSFULLY,33.202117,8.802705,42.004822,0.005015,8.807720,1.000570,45,-1.000000,""
176,w0,python3action_facedetection_SampleVideo_30mb,0.000000,1,-1.000000,1,COMPLETED_SUCCESSFULLY,42.004837,0.000010,42.004847,42.004837,42.004847,4200484.732125,45,-1.000000,""
191_updated,w0,python3action_modeltraining_reviews50mb_troll,0.997085,1,2000.000000,1,COMPLETED_SUCCESSFULLY,13.755805,29.142312,42.898117,12.758720,41.901032,1.437807,52,-1.000000,""
191,w0,python3action_modeltraining_reviews50mb,0.000000,1,-1.000000,1,COMPLETED_SUCCESSFULLY,42.898132,0.000010,42.898142,42.898132,42.898142,4289814.200201,52,-1.000000,""
180_updated,w0,python3action_linpack_5000_orion,36.232378,1,2000.000000,1,COMPLETED_SUCCESSFULLY,37.229306,6.232799,43.462106,0.996928,7.229728,1.159949,46,-1.000000,""
180,w0,python3action_linpack_5000,0.000000,1,-1.000000,1,COMPLETED_SUCCESSFULLY,43.462121,0.000010,43.462131,43.462121,43.462131,4346213.100201,46,-1.000000,""
python3action_pyaes_job197_81,w0,python3action_pyaes,42.903132,1,2000.000000,1,COMPLETED_SUCCESSFULLY,42.908147,0.892694,43.800841,0.005015,0.897709,1.005618,52,-1.000000,""
111_updated,w0,python3action_chameleon_2000_orion,41.672541,1,2000.000000,1,COMPLETED_SUCCESSFULLY,41.677556,2.988870,44.666426,0.005015,2.993885,1.001678,34,-1.000000,""
111,w0,python3action_chameleon_2000,0.000000,1,-1.000000,1,COMPLETED_SUCCESSFULLY,44.666441,0.000010,44.666451,44.666441,44.666451,4466645.100201,34,-1.000000,""
python3action_facedetection_job194_75,w0,python3action_facedetection,32.536829,1,2000.000000,1,COMPLETED_SUCCESSFULLY,32.541844,12.752895,45.294739,0.005015,12.757910,1.000393,50,-1.000000,""
171_updated,w0,python3action_videoprocessing_SampleVideo_50mb_nova,26.264683,1,2000.000000,1,COMPLETED_SUCCESSFULLY,29.741259,15.889602,45.630861,3.476576,19.366178,1.218796,23,-1.000000,""
171,w0,python3action_videoprocessing_SampleVideo_50mb,0.000000,1,-1.000000,1,COMPLETED_SUCCESSFULLY,45.630876,0.000010,45.630886,45.630876,45.630886,4563088.637909,23,-1.000000,""
132_updated,w0,python3action_imageprocessing_SampleImage_40mb_yeti,36.118209,1,2000.000000,1,COMPLETED_SUCCESSFULLY,36.592367,9.845159,46.437526,0.474158,10.319317,1.048162,56,-1.000000,""
132,w0,python3action_imageprocessing_SampleImage_40mb,0.000000,1,-1.000000,1,COMPLETED_SUCCESSFULLY,46.437541,0.000010,46.437551,46.437541,46.437551,4643755.100201,56,-1.000000,""
166_updated,w0,python3action_floatoperation_200000000_orion,23.143826,1,2000.000000,1,COMPLETED_SUCCESSFULLY,23.946000,23.015655,46.961655,0.802174,23.817829,1.034853,43,-1.000000,""
166,w0,python3action_floatoperation_200000000,0.000000,1,-1.000000,1,COMPLETED_SUCCESSFULLY,46.961670,0.000010,46.961680,46.961670,46.961680,4696168.000201,43,-1.000000,""
173_updated,w0,python3action_floatoperation_200000000_nova,32.000506,1,2000.000000,1,COMPLETED_SUCCESSFULLY,32.283256,15.411546,47.694803,0.282750,15.694297,1.018347,12,-1.000000,""
173,w0,python3action_floatoperation_200000000,0.000000,1,-1.000000,1,COMPLETED_SUCCESSFULLY,47.694818,0.000010,47.694828,47.694818,47.694828,4769482.800201,12,-1.000000,""
13_updated,w0,python3action_pyaes_3000_yeti,33.128851,1,2000.000000,1,COMPLETED_SUCCESSFULLY,33.170332,16.242239,49.412571,0.041481,16.283720,1.002554,55,-1.000000,""
13,w0,python3action_pyaes_3000,0.000000,1,-1.000000,1,COMPLETED_SUCCESSFULLY,49.412586,0.000010,49.412596,49.412586,49.412596,4941259.600201,55,-1.000000,""
python3action_linpack_job138_82,w0,python3action_linpack_reduced_1.7,49.417586,1,2000.000000,1,COMPLETED_SUCCESSFULLY,49.422601,0.000000,49.422601,0.005015,0.005015,902555994.231458,55,-1.000000,""
66_updated,w0,python3action_imageprocessing_SampleImage_60mb_orion,27.464899,1,2000.000000,1,COMPLETED_SUCCESSFULLY,37.434343,12.176622,49.610965,9.969444,22.146066,1.818736,42,-1.000000,""
66,w0,python3action_imageprocessing_SampleImage_60mb,0.000000,1,-1.000000,1,COMPLETED_SUCCESSFULLY,49.610980,0.000010,49.610990,49.610980,49.610990,4961099.000201,42,-1.000000,""
python3action_image_processing_job11_80,w0,python3action_image_processing,37.863210,1,2000.000000,1,COMPLETED_SUCCESSFULLY,37.868225,12.398880,50.267105,0.005015,12.403895,1.000404,44,-1.000000,""
122_updated,w0,python3action_pyaes_4000_yeti,23.847230,1,2000.000000,1,COMPLETED_SUCCESSFULLY,24.095266,28.718822,52.814088,0.248036,28.966858,1.008637,54,-1.000000,""
122,w0,python3action_pyaes_4000,0.000000,1,-1.000000,1,COMPLETED_SUCCESSFULLY,52.814103,0.000010,52.814113,52.814103,52.814113,5281411.300201,54,-1.000000,""
python3action_video_processing_job140_83,w0,python3action_video_processing_reduced_0.91,52.819103,1,2000.000000,1,COMPLETED_SUCCESSFULLY,52.824118,0.297561,53.121679,0.005015,0.302576,1.016854,54,-1.000000,""
106_updated,w0,python3action_chameleon_2000_nova,45.635876,1,2000.000000,1,COMPLETED_SUCCESSFULLY,45.640891,8.035860,53.676751,0.005015,8.040875,1.000624,23,-1.000000,""
106,w0,python3action_chameleon_2000,0.000000,1,-1.000000,1,COMPLETED_SUCCESSFULLY,53.676766,0.000010,53.676776,53.676766,53.676776,5367677.600201,23,-1.000000,""
python3action_modeltraining_job80_84,w0,python3action_modeltraining_reduced_1.0,53.681766,1,2000.000000,1,COMPLETED_SUCCESSFULLY,53.686781,0.000000,53.686781,0.005015,0.005015,902555994.231458,23,-1.000000,""
11_updated,w0,python3action_imageprocessing_SampleImage_40mb_orion,37.863210,1,2000.000000,1,COMPLETED_SUCCESSFULLY,50.267120,5.509660,55.776780,12.403910,17.913570,3.251302,44,-1.000000,""
11,w0,python3action_imageprocessing_SampleImage_40mb,0.000000,1,-1.000000,1,COMPLETED_SUCCESSFULLY,55.776795,0.000010,55.776805,55.776795,55.776805,5577680.534478,44,-1.000000,""
135_updated,w0,python3action_imageprocessing_SampleImage_40mb_yeti,46.442541,1,2000.000000,1,COMPLETED_SUCCESSFULLY,46.447556,9.845159,56.292715,0.005015,9.850174,1.000509,56,-1.000000,""
135,w0,python3action_imageprocessing_SampleImage_40mb,0.000000,1,-1.000000,1,COMPLETED_SUCCESSFULLY,56.292730,0.000010,56.292740,56.292730,56.292740,5629274.000201,56,-1.000000,""
python3action_facedetection_job143_85,w0,python3action_facedetection_reduced_1.83,56.297730,1,2000.000000,1,COMPLETED_SUCCESSFULLY,56.302745,0.000000,56.302745,0.005015,0.005015,902555994.230179,56,-1.000000,""
80_updated,w0,python3action_modeltraining_reviews50mb_nova,53.681766,1,2000.000000,1,COMPLETED_SUCCESSFULLY,53.686811,4.826067,58.512878,0.005045,4.831112,1.001045,23,-1.000000,""
80,w0,python3action_modeltraining_reviews50mb,0.000000,1,-1.000000,1,COMPLETED_SUCCESSFULLY,58.512893,0.000010,58.512903,58.512893,58.512903,5851290.300201,23,-1.000000,""
python3action_floatoperation_job82_86,w0,python3action_floatoperation,58.517893,1,2000.000000,1,COMPLETED_SUCCESSFULLY,58.522908,0.277720,58.800628,0.005015,0.282735,1.018058,23,-1.000000,""
108_updated,w0,python3action_facedetection_SampleVideo_30mb_nova,47.699818,1,2000.000000,1,COMPLETED_SUCCESSFULLY,47.704833,18.257105,65.961938,0.005015,18.262120,1.000275,12,-1.000000,""
108,w0,python3action_facedetection_SampleVideo_30mb,0.000000,1,-1.000000,1,COMPLETED_SUCCESSFULLY,65.961953,0.000010,65.961963,65.961953,65.961963,6596196.321450,12,-1.000000,""
python3action_linpack_job113_87,w0,python3action_linpack,65.966953,1,2000.000000,1,COMPLETED_SUCCESSFULLY,65.971968,0.277720,66.249688,0.005015,0.282735,1.018058,12,-1.000000,""
82_updated,w0,python3action_floatoperation_100000000_nova,58.517893,1,2000.000000,1,COMPLETED_SUCCESSFULLY,58.800643,7.535042,66.335686,0.282750,7.817793,1.037525,23,-1.000000,""
82,w0,python3action_floatoperation_100000000,0.000000,1,-1.000000,1,COMPLETED_SUCCESSFULLY,66.335701,0.000010,66.335711,66.335701,66.335711,6633571.100201,23,-1.000000,""
19_updated,w0,python3action_imageprocessing_SampleImage_40mb_nova,0.997085,1,2000.000000,1,COMPLETED_SUCCESSFULLY,31.501978,36.000000,67.501978,30.504893,66.504893,1.847358,11,-1.000000,""
19,w0,python3action_imageprocessing_SampleImage_40mb,0.000000,1,-1.000000,1,COMPLETED_SUCCESSFULLY,67.501993,0.000010,67.502003,67.501993,67.502003,6750200.300201,11,-1.000000,""
193_updated,w0,python3action_chameleon_2000_orion,0.997085,1,2000.000000,1,COMPLETED_SUCCESSFULLY,6.043481,62.000000,68.043481,5.046396,67.046396,1.081393,36,-1.000000,""
193,w0,python3action_chameleon_2000,0.000000,1,-1.000000,1,COMPLETED_SUCCESSFULLY,68.043496,0.000010,68.043506,68.043496,68.043506,6804350.600402,36,-1.000000,""
126_updated,w0,python3action_chameleon_2000_orion,0.997085,1,2000.000000,1,COMPLETED_SUCCESSFULLY,6.043541,62.000000,68.043541,5.046456,67.046456,1.081394,39,-1.000000,""
126,w0,python3action_chameleon_2000,0.000000,1,-1.000000,1,COMPLETED_SUCCESSFULLY,68.053511,0.000010,68.053521,68.053511,68.053521,6805352.100201,39,-1.000000,""
113_updated,w0,python3action_linpack_5000_nova,65.966953,1,2000.000000,1,COMPLETED_SUCCESSFULLY,66.249703,3.938255,70.187958,0.282750,4.221005,1.071796,12,-1.000000,""
113,w0,python3action_linpack_5000,0.000000,1,-1.000000,1,COMPLETED_SUCCESSFULLY,70.187973,0.000010,70.187983,70.187973,70.187983,7018798.305439,12,-1.000000,""
71_updated,w0,python3action_linpack_5000_nova,38.042340,1,2000.000000,1,COMPLETED_SUCCESSFULLY,38.047355,34.600010,72.647365,0.005015,34.605025,1.000145,16,-1.000000,""
71,w0,python3action_linpack_5000,0.000000,1,-1.000000,1,COMPLETED_SUCCESSFULLY,72.647380,0.000010,72.647390,72.647380,72.647390,7264739.000201,16,-1.000000,""
python3action_facedetection_job15_26,w0,python3action_facedetection,0.997085,1,2000.000000,1,COMPLETED_SUCCESSFULLY,1.002490,72.012455,73.014945,0.005405,72.017860,1.000075,26,-1.000000,""
python3action_video_processing_job50_28,w0,python3action_video_processing,0.997085,1,2000.000000,1,COMPLETED_SUCCESSFULLY,1.002520,72.012455,73.014975,0.005435,72.017890,1.000075,28,-1.000000,""
python3action_modeltraining_job190_35,w0,python3action_modeltraining,0.997085,1,2000.000000,1,COMPLETED_SUCCESSFULLY,1.002625,72.012455,73.015080,0.005540,72.017995,1.000077,35,-1.000000,""
python3action_video_processing_job196_37,w0,python3action_video_processing,0.997085,1,2000.000000,1,COMPLETED_SUCCESSFULLY,1.002655,72.012455,73.015110,0.005570,72.018025,1.000077,37,-1.000000,""
python3action_video_processing_job27_41,w0,python3action_video_processing,0.997085,1,2000.000000,1,COMPLETED_SUCCESSFULLY,1.002715,72.012455,73.015170,0.005630,72.018085,1.000078,41,-1.000000,""
130_updated,w0,python3action_chameleon_2000_nova,0.997085,1,2000.000000,1,COMPLETED_SUCCESSFULLY,3.137358,70.600010,73.737368,2.140273,72.740283,1.030315,19,-1.000000,""
130,w0,python3action_chameleon_2000,0.000000,1,-1.000000,1,COMPLETED_SUCCESSFULLY,73.737383,0.000010,73.737393,73.737383,73.737393,7373739.305082,19,-1.000000,""
12_updated,w0,python3action_videoprocessing_SampleVideo_30mb_yeti,15.798863,1,2000.000000,1,COMPLETED_SUCCESSFULLY,19.275439,56.167295,75.442734,3.476576,59.643871,1.061897,53,-1.000000,""
12,w0,python3action_videoprocessing_SampleVideo_30mb,0.000000,1,-1.000000,1,COMPLETED_SUCCESSFULLY,75.442749,0.000010,75.442759,75.442749,75.442759,7544275.900201,53,-1.000000,""
python3action_facedetection_job146_88,w0,python3action_facedetection_reduced_0.91,75.447749,1,2000.000000,1,COMPLETED_SUCCESSFULLY,75.452764,0.297561,75.750325,0.005015,0.302576,1.016854,53,-1.000000,""
10_updated,w0,python3action_pyaes_3000_nova,0.997085,1,2000.000000,1,COMPLETED_SUCCESSFULLY,3.137328,78.200020,81.337348,2.140243,80.340263,1.027369,17,-1.000000,""
10,w0,python3action_pyaes_3000,0.000000,1,-1.000000,1,COMPLETED_SUCCESSFULLY,81.337363,0.000010,81.337373,81.337363,81.337373,8133737.300201,17,-1.000000,""
136_updated,w0,python3action_pyaes_3000_nova,0.997085,1,2000.000000,1,COMPLETED_SUCCESSFULLY,3.137388,78.200020,81.337408,2.140303,80.340323,1.027370,21,-1.000000,""
136,w0,python3action_pyaes_3000,0.000000,1,-1.000000,1,COMPLETED_SUCCESSFULLY,81.347378,0.000010,81.347388,81.347378,81.347388,8134738.800201,21,-1.000000,""
97_updated,w0,python3action_videoprocessing_SampleVideo_30mb_troll,0.997085,1,2000.000000,1,COMPLETED_SUCCESSFULLY,13.755775,83.655577,97.411352,12.758690,96.414267,1.152515,51,-1.000000,""
97,w0,python3action_videoprocessing_SampleVideo_30mb,0.000000,1,-1.000000,1,COMPLETED_SUCCESSFULLY,97.411367,0.000010,97.411377,97.411367,97.411377,9741137.700201,51,-1.000000,""
138_updated,w0,python3action_linpack_6000_yeti,49.417586,1,2000.000000,1,COMPLETED_SUCCESSFULLY,49.422631,58.163548,107.586179,0.005045,58.168593,1.000087,55,-1.000000,""
138,w0,python3action_linpack_6000,0.000000,1,-1.000000,1,COMPLETED_SUCCESSFULLY,107.586194,0.000010,107.586204,107.586194,107.586204,10758620.400201,55,-1.000000,""
199_updated,w0,python3action_pyaes_3000_orion,0.997085,1,2000.000000,1,COMPLETED_SUCCESSFULLY,6.043511,103.399954,109.443465,5.046426,108.446380,1.048805,38,-1.000000,""
199,w0,python3action_pyaes_3000,0.000000,1,-1.000000,1,COMPLETED_SUCCESSFULLY,109.443480,0.000010,109.443490,109.443480,109.443490,10944349.000201,38,-1.000000,""
24_updated,w0,python3action_pyaes_3000_orion,0.997085,1,2000.000000,1,COMPLETED_SUCCESSFULLY,6.043556,103.399954,109.443510,5.046471,108.446425,1.048805,40,-1.000000,""
24,w0,python3action_pyaes_3000,0.000000,1,-1.000000,1,COMPLETED_SUCCESSFULLY,109.453495,0.000010,109.453505,109.453495,109.453505,10945350.500201,40,-1.000000,""
128_updated,w0,python3action_modeltraining_reviews100mb_nova,0.997085,1,2000.000000,1,COMPLETED_SUCCESSFULLY,31.502083,79.600010,111.102093,30.504998,110.105008,1.383229,18,-1.000000,""
128,w0,python3action_modeltraining_reviews100mb,0.000000,1,-1.000000,1,COMPLETED_SUCCESSFULLY,111.102108,0.000010,111.102118,111.102108,111.102118,11110211.800201,18,-1.000000,""
149_updated,w0,python3action_chameleon_2000_yeti,107.591194,1,2000.000000,1,COMPLETED_SUCCESSFULLY,107.596209,9.028510,116.624719,0.005015,9.033525,1.000555,55,-1.000000,""
149,w0,python3action_chameleon_2000,0.000000,1,-1.000000,1,COMPLETED_SUCCESSFULLY,116.624734,0.000010,116.624744,116.624734,116.624744,11662474.400201,55,-1.000000,""
29_updated,w0,python3action_videoprocessing_SampleVideo_30mb_neowise,22.029865,1,2000.000000,1,COMPLETED_SUCCESSFULLY,25.506441,92.799998,118.306439,3.476576,96.276574,1.037463,0,-1.000000,""
29,w0,python3action_videoprocessing_SampleVideo_30mb,0.000000,1,-1.000000,1,COMPLETED_SUCCESSFULLY,118.306454,0.000010,118.306464,118.306454,118.306464,11830646.400201,0,-1.000000,""
python3action_modeltraining_job31_89,w0,python3action_modeltraining_reduced_1.0,118.311454,1,2000.000000,1,COMPLETED_SUCCESSFULLY,118.316469,0.000000,118.316469,0.005015,0.005015,902555994.232737,0,-1.000000,""
143_updated,w0,python3action_facedetection_SampleVideo_30mb_yeti,56.297730,1,2000.000000,1,COMPLETED_SUCCESSFULLY,56.302775,70.594758,126.897533,0.005045,70.599803,1.000071,56,-1.000000,""
143,w0,python3action_facedetection_SampleVideo_30mb,0.000000,1,-1.000000,1,COMPLETED_SUCCESSFULLY,126.897548,0.000010,126.897558,126.897548,126.897558,12689755.838640,56,-1.000000,""
python3action_video_processing_job5_90,w0,python3action_video_processing_reduced_2.8,126.902548,1,2000.000000,1,COMPLETED_SUCCESSFULLY,126.907563,0.000000,126.907563,0.005015,0.005015,902555994.235294,56,-1.000000,""
140_updated,w0,python3action_videoprocessing_SampleVideo_50mb_yeti,52.819103,1,2000.000000,1,COMPLETED_SUCCESSFULLY,53.121694,78.126076,131.247770,0.302591,78.428667,1.003873,54,-1.000000,""
140,w0,python3action_videoprocessing_SampleVideo_50mb,0.000000,1,-1.000000,1,COMPLETED_SUCCESSFULLY,131.247785,0.000010,131.247795,131.247785,131.247795,13124779.500201,54,-1.000000,""
python3action_facedetection_job52_91,w0,python3action_facedetection_reduced_1.83,131.252785,1,2000.000000,1,COMPLETED_SUCCESSFULLY,131.257800,0.000000,131.257800,0.005015,0.005015,900253555.469388,54,-1.000000,""
120_updated,w0,python3action_imageprocessing_SampleImage_60mb_nova,0.997085,1,2000.000000,1,COMPLETED_SUCCESSFULLY,31.502053,103.750012,135.252065,30.504968,134.254980,1.294024,15,-1.000000,""
120,w0,python3action_imageprocessing_SampleImage_60mb,0.000000,1,-1.000000,1,COMPLETED_SUCCESSFULLY,135.252080,0.000010,135.252090,135.252080,135.252090,13525209.000201,15,-1.000000,""
144_updated,w0,python3action_floatoperation_200000000_nova,0.997085,1,2000.000000,1,COMPLETED_SUCCESSFULLY,3.442420,135.399990,138.842411,2.445335,137.845326,1.018060,24,-1.000000,""
144,w0,python3action_floatoperation_200000000,0.000000,1,-1.000000,1,COMPLETED_SUCCESSFULLY,138.842426,0.000010,138.842436,138.842426,138.842436,13884243.600201,24,-1.000000,""
147_updated,w0,python3action_floatoperation_200000000_nova,0.997085,1,2000.000000,1,COMPLETED_SUCCESSFULLY,3.442450,135.399990,138.842441,2.445365,137.845356,1.018060,25,-1.000000,""
147,w0,python3action_floatoperation_200000000,0.000000,1,-1.000000,1,COMPLETED_SUCCESSFULLY,138.852441,0.000010,138.852451,138.852441,138.852451,13885245.100201,25,-1.000000,""
31_updated,w0,python3action_modeltraining_reviews50mb_neowise,118.311454,1,2000.000000,1,COMPLETED_SUCCESSFULLY,118.316499,22.799998,141.116497,0.005045,22.805043,1.000221,0,-1.000000,""
31,w0,python3action_modeltraining_reviews50mb,0.000000,1,-1.000000,1,COMPLETED_SUCCESSFULLY,141.116512,0.000010,141.116522,141.116512,141.116522,14111652.200201,0,-1.000000,""
python3action_pyaes_job34_92,w0,python3action_pyaes_reduced_0.85,141.121512,1,2000.000000,1,COMPLETED_SUCCESSFULLY,141.126527,0.036451,141.162978,0.005015,0.041466,1.137582,0,-1.000000,""
146_updated,w0,python3action_facedetection_SampleVideo_30mb_yeti,75.447749,1,2000.000000,1,COMPLETED_SUCCESSFULLY,75.750340,70.594758,146.345098,0.302591,70.897349,1.004286,53,-1.000000,""
146,w0,python3action_facedetection_SampleVideo_30mb,0.000000,1,-1.000000,1,COMPLETED_SUCCESSFULLY,146.345113,0.000010,146.345123,146.345113,146.345123,14634512.345298,53,-1.000000,""
197_updated,w0,python3action_pyaes_4000_troll,42.903132,1,2000.000000,1,COMPLETED_SUCCESSFULLY,43.800856,105.255172,149.056029,0.897724,106.152897,1.008529,52,-1.000000,""
197,w0,python3action_pyaes_4000,0.000000,1,-1.000000,1,COMPLETED_SUCCESSFULLY,149.056044,0.000010,149.056054,149.056044,149.056054,14905605.400201,52,-1.000000,""
88_updated,w0,python3action_pyaes_4000_gemini,0.997085,1,2000.000000,1,COMPLETED_SUCCESSFULLY,1.870734,148.384683,150.255416,0.873649,149.258331,1.005888,47,-1.000000,""
88,w0,python3action_pyaes_4000,0.000000,1,-1.000000,1,COMPLETED_SUCCESSFULLY,150.255431,0.000010,150.255441,150.255431,150.255441,15025544.135745,47,-1.000000,""
91_updated,w0,python3action_pyaes_4000_gemini,0.997085,1,2000.000000,1,COMPLETED_SUCCESSFULLY,1.870764,148.384683,150.255447,0.873679,149.258362,1.005888,48,-1.000000,""
91,w0,python3action_pyaes_4000,0.000000,1,-1.000000,1,COMPLETED_SUCCESSFULLY,150.265461,0.000010,150.265471,150.265461,150.265471,15026547.100402,48,-1.000000,""
python3action_chameleon_job116_93,w0,python3action_chameleon_reduced_0.85,150.270446,1,2000.000000,1,COMPLETED_SUCCESSFULLY,150.275461,0.130187,150.405648,0.005015,0.135202,1.038522,48,-1.000000,""
190_updated,w0,python3action_modeltraining_reviews100mb_orion,0.997085,1,2000.000000,1,COMPLETED_SUCCESSFULLY,73.024975,86.000000,159.024975,72.027890,158.027890,1.837534,35,-1.000000,""
190,w0,python3action_modeltraining_reviews100mb,0.000000,1,-1.000000,1,COMPLETED_SUCCESSFULLY,159.024990,0.000010,159.025000,159.024990,159.025000,15902500.000402,35,-1.000000,""
90_updated,w0,python3action_videoprocessing_SampleVideo_50mb_neowise,0.997085,1,2000.000000,1,COMPLETED_SUCCESSFULLY,4.473676,164.799998,169.273674,3.476591,168.276589,1.021096,1,-1.000000,""
90,w0,python3action_videoprocessing_SampleVideo_50mb,0.000000,1,-1.000000,1,COMPLETED_SUCCESSFULLY,169.273689,0.000010,169.273699,169.273689,169.273699,16927369.900201,1,-1.000000,""
python3action_facedetection_job37_94,w0,python3action_facedetection_reduced_0.91,169.278689,1,2000.000000,1,COMPLETED_SUCCESSFULLY,169.283704,0.297561,169.581265,0.005015,0.302576,1.016854,1,-1.000000,""
115_updated,w0,python3action_videoprocessing_SampleVideo_50mb_nova,0.997085,1,2000.000000,1,COMPLETED_SUCCESSFULLY,31.502008,139.600010,171.102017,30.504923,170.104932,1.218517,13,-1.000000,""
118_updated,w0,python3action_videoprocessing_SampleVideo_50mb_nova,0.997085,1,2000.000000,1,COMPLETED_SUCCESSFULLY,31.502023,139.600010,171.102032,30.504938,170.104947,1.218517,14,-1.000000,""
115,w0,python3action_videoprocessing_SampleVideo_50mb,0.000000,1,-1.000000,1,COMPLETED_SUCCESSFULLY,171.102032,0.000010,171.102042,171.102032,171.102042,17110204.231378,13,-1.000000,""
118,w0,python3action_videoprocessing_SampleVideo_50mb,0.000000,1,-1.000000,1,COMPLETED_SUCCESSFULLY,171.107047,0.000010,171.107057,171.107047,171.107057,17110705.700402,14,-1.000000,""
194_updated,w0,python3action_facedetection_SampleVideo_30mb_troll,32.536829,1,2000.000000,1,COMPLETED_SUCCESSFULLY,45.294754,125.826216,171.120970,12.757925,138.584141,1.101393,50,-1.000000,""
194,w0,python3action_facedetection_SampleVideo_30mb,0.000000,1,-1.000000,1,COMPLETED_SUCCESSFULLY,171.122077,0.000010,171.122087,171.122077,171.122087,17112208.700402,50,-1.000000,""
python3action_chameleon_job25_95,w0,python3action_chameleon_reduced_0.85,171.127077,1,2000.000000,1,COMPLETED_SUCCESSFULLY,171.132092,0.133904,171.265996,0.005015,0.138919,1.037452,50,-1.000000,""
48_updated,w0,python3action_chameleon_2000_nova,0.997085,1,2000.000000,1,COMPLETED_SUCCESSFULLY,6.043346,166.692884,172.736230,5.046261,171.739145,1.030273,27,-1.000000,""
48,w0,python3action_chameleon_2000,0.000000,1,-1.000000,1,COMPLETED_SUCCESSFULLY,172.736245,0.000010,172.736255,172.736245,172.736255,17273625.533109,27,-1.000000,""
87_updated,w0,python3action_floatoperation_200000000_orion,0.997085,1,2000.000000,1,COMPLETED_SUCCESSFULLY,6.763537,166.333295,173.096832,5.766452,172.099747,1.034668,32,-1.000000,""
87,w0,python3action_floatoperation_200000000,0.000000,1,-1.000000,1,COMPLETED_SUCCESSFULLY,173.096847,0.000010,173.096857,173.096847,173.096857,17309685.719199,32,-1.000000,""
47_updated,w0,python3action_linpack_6000_yeti,116.629734,1,2000.000000,1,COMPLETED_SUCCESSFULLY,116.634749,58.163548,174.798297,0.005015,58.168563,1.000086,55,-1.000000,""
47,w0,python3action_linpack_6000,0.000000,1,-1.000000,1,COMPLETED_SUCCESSFULLY,174.798312,0.000010,174.798322,174.798312,174.798322,17479832.200201,55,-1.000000,""
python3action_facedetection_job58_96,w0,python3action_facedetection_reduced_0.91,174.803312,1,2000.000000,1,COMPLETED_SUCCESSFULLY,174.808327,0.297561,175.105888,0.005015,0.302576,1.016854,55,-1.000000,""
2_updated,w0,python3action_videoprocessing_SampleVideo_30mb_troll,97.416367,1,2000.000000,1,COMPLETED_SUCCESSFULLY,97.421382,83.655577,181.076959,0.005015,83.660592,1.000060,51,-1.000000,""
2,w0,python3action_videoprocessing_SampleVideo_30mb,0.000000,1,-1.000000,1,COMPLETED_SUCCESSFULLY,181.076974,0.000010,181.076984,181.076974,181.076984,18107698.400201,51,-1.000000,""
python3action_modeltraining_job28_97,w0,python3action_modeltraining_reduced_1.0,181.081974,1,2000.000000,1,COMPLETED_SUCCESSFULLY,181.086989,0.000000,181.086989,0.005015,0.005015,245409871.203060,51,-1.000000,""
85_updated,w0,python3action_pyaes_4000_orion,0.997085,1,2000.000000,1,COMPLETED_SUCCESSFULLY,6.043436,186.199977,192.243413,5.046351,191.246328,1.027102,33,-1.000000,""
85,w0,python3action_pyaes_4000,0.000000,1,-1.000000,1,COMPLETED_SUCCESSFULLY,192.243428,0.000010,192.243438,192.243428,192.243438,19224343.800201,33,-1.000000,""
27_updated,w0,python3action_videoprocessing_SampleVideo_30mb_orion,0.997085,1,2000.000000,1,COMPLETED_SUCCESSFULLY,73.034975,130.000000,203.034975,72.037890,202.037890,1.554138,41,-1.000000,""
27,w0,python3action_videoprocessing_SampleVideo_30mb,0.000000,1,-1.000000,1,COMPLETED_SUCCESSFULLY,203.034990,0.000010,203.035000,203.034990,203.035000,20303500.000401,41,-1.000000,""
5_updated,w0,python3action_videoprocessing_SampleVideo_50mb_yeti,126.902548,1,2000.000000,1,COMPLETED_SUCCESSFULLY,126.907593,78.126076,205.033669,0.005045,78.131121,1.000065,56,-1.000000,""
5,w0,python3action_videoprocessing_SampleVideo_50mb,0.000000,1,-1.000000,1,COMPLETED_SUCCESSFULLY,205.033684,0.000010,205.033694,205.033684,205.033694,20503369.400201,56,-1.000000,""
22_updated,w0,python3action_pyaes_3000_troll,149.061044,1,2000.000000,1,COMPLETED_SUCCESSFULLY,149.066059,58.798909,207.864968,0.005015,58.803924,1.000085,52,-1.000000,""
22,w0,python3action_pyaes_3000,0.000000,1,-1.000000,1,COMPLETED_SUCCESSFULLY,207.864983,0.000010,207.864993,207.864983,207.864993,20786499.338457,52,-1.000000,""
python3action_facedetection_job30_98,w0,python3action_facedetection_reduced_0.91,207.869983,1,2000.000000,1,COMPLETED_SUCCESSFULLY,207.874998,1.093105,208.968103,0.005015,1.098120,1.004588,52,-1.000000,""
28_updated,w0,python3action_modeltraining_reviews50mb_troll,181.081974,1,2000.000000,1,COMPLETED_SUCCESSFULLY,181.087019,29.142312,210.229331,0.005045,29.147357,1.000173,51,-1.000000,""
28,w0,python3action_modeltraining_reviews50mb,0.000000,1,-1.000000,1,COMPLETED_SUCCESSFULLY,210.229346,0.000010,210.229356,210.229346,210.229356,21022935.600201,51,-1.000000,""
60_updated,w0,python3action_modeltraining_reviews50mb_yeti,205.038684,1,2000.000000,1,COMPLETED_SUCCESSFULLY,205.043699,6.079497,211.123196,0.005015,6.084512,1.000825,56,-1.000000,""
60,w0,python3action_modeltraining_reviews50mb,0.000000,1,-1.000000,1,COMPLETED_SUCCESSFULLY,211.123211,0.000010,211.123221,211.123211,211.123221,21112322.119084,56,-1.000000,""
python3action_pyaes_job63_99,w0,python3action_pyaes_reduced_0.85,211.128211,1,2000.000000,1,COMPLETED_SUCCESSFULLY,211.133226,0.036451,211.169677,0.005015,0.041466,1.137582,56,-1.000000,""
52_updated,w0,python3action_facedetection_SampleVideo_50mb_yeti,131.252785,1,2000.000000,1,COMPLETED_SUCCESSFULLY,131.257830,80.576022,211.833852,0.005045,80.581067,1.000063,54,-1.000000,""
52,w0,python3action_facedetection_SampleVideo_50mb,0.000000,1,-1.000000,1,COMPLETED_SUCCESSFULLY,211.833867,0.000010,211.833877,211.833867,211.833877,21183387.742447,54,-1.000000,""
192_updated,w0,python3action_chameleon_2000_neowise,0.997085,1,2000.000000,1,COMPLETED_SUCCESSFULLY,3.137148,212.612026,215.749174,2.140063,214.752089,1.010066,4,-1.000000,""
192,w0,python3action_chameleon_2000,0.000000,1,-1.000000,1,COMPLETED_SUCCESSFULLY,215.749189,0.000010,215.749199,215.749189,215.749199,21574919.900201,4,-1.000000,""
196_updated,w0,python3action_videoprocessing_SampleVideo_50mb_orion,0.997085,1,2000.000000,1,COMPLETED_SUCCESSFULLY,73.029975,151.199977,224.229952,72.032890,223.232867,1.476408,37,-1.000000,""
196,w0,python3action_videoprocessing_SampleVideo_50mb,0.000000,1,-1.000000,1,COMPLETED_SUCCESSFULLY,224.229967,0.000010,224.229977,224.229967,224.229977,22422997.700201,37,-1.000000,""
55_updated,w0,python3action_videoprocessing_SampleVideo_50mb_yeti,146.350113,1,2000.000000,1,COMPLETED_SUCCESSFULLY,146.355128,78.126076,224.481204,0.005015,78.131091,1.000064,53,-1.000000,""
55,w0,python3action_videoprocessing_SampleVideo_50mb,0.000000,1,-1.000000,1,COMPLETED_SUCCESSFULLY,224.481219,0.000010,224.481229,224.481219,224.481229,22448122.900201,53,-1.000000,""
python3action_chameleon_job67_101,w0,python3action_chameleon,224.486219,1,2000.000000,1,COMPLETED_SUCCESSFULLY,224.491234,0.243006,224.734240,0.005015,0.248021,1.020637,53,-1.000000,""
63_updated,w0,python3action_pyaes_3000_yeti,211.128211,1,2000.000000,1,COMPLETED_SUCCESSFULLY,211.169692,16.242239,227.411931,0.041481,16.283720,1.002554,56,-1.000000,""
63,w0,python3action_pyaes_3000,0.000000,1,-1.000000,1,COMPLETED_SUCCESSFULLY,227.411946,0.000010,227.411956,227.411946,227.411956,22741195.600201,56,-1.000000,""
python3action_linpack_job69_102,w0,python3action_linpack_reduced_1.7,227.416946,1,2000.000000,1,COMPLETED_SUCCESSFULLY,227.421961,0.000000,227.421961,0.005015,0.005015,900253555.469388,56,-1.000000,""
96_updated,w0,python3action_pyaes_3000_gemini,150.260431,1,2000.000000,1,COMPLETED_SUCCESSFULLY,150.265446,82.124859,232.390305,0.005015,82.129874,1.000061,47,-1.000000,""
96,w0,python3action_pyaes_3000,0.000000,1,-1.000000,1,COMPLETED_SUCCESSFULLY,232.390320,0.000010,232.390330,232.390320,232.390330,23239033.000201,47,-1.000000,""
116_updated,w0,python3action_chameleon_3000_gemini,150.270446,1,2000.000000,1,COMPLETED_SUCCESSFULLY,150.405663,83.369175,233.774838,0.135217,83.504392,1.001622,48,-1.000000,""
116,w0,python3action_chameleon_3000,0.000000,1,-1.000000,1,COMPLETED_SUCCESSFULLY,233.774853,0.000010,233.774863,233.774853,233.774863,23377486.300201,48,-1.000000,""
65_updated,w0,python3action_pyaes_4000_yeti,211.838867,1,2000.000000,1,COMPLETED_SUCCESSFULLY,211.843882,28.718822,240.562704,0.005015,28.723837,1.000175,54,-1.000000,""
65,w0,python3action_pyaes_4000,0.000000,1,-1.000000,1,COMPLETED_SUCCESSFULLY,240.562719,0.000010,240.562729,240.562719,240.562729,24056272.900201,54,-1.000000,""
python3action_chameleon_job70_105,w0,python3action_chameleon_reduced_0.85,240.567719,1,2000.000000,1,COMPLETED_SUCCESSFULLY,240.572734,0.036451,240.609185,0.005015,0.041466,1.137582,54,-1.000000,""
python3action_modeltraining_job119_103,w0,python3action_modeltraining,232.395320,1,2000.000000,1,COMPLETED_SUCCESSFULLY,232.400335,12.398880,244.799215,0.005015,12.403895,1.000404,47,-1.000000,""
58_updated,w0,python3action_facedetection_SampleVideo_30mb_yeti,174.803312,1,2000.000000,1,COMPLETED_SUCCESSFULLY,175.105903,70.594758,245.700661,0.302591,70.897349,1.004286,55,-1.000000,""
58,w0,python3action_facedetection_SampleVideo_30mb,0.000000,1,-1.000000,1,COMPLETED_SUCCESSFULLY,245.700676,0.000010,245.700686,245.700676,245.700686,24570068.645298,55,-1.000000,""
python3action_floatoperation_job177_106,w0,python3action_floatoperation,245.705676,1,2000.000000,1,COMPLETED_SUCCESSFULLY,245.710691,0.277720,245.988411,0.005015,0.282735,1.018058,55,-1.000000,""
python3action_facedetection_job121_104,w0,python3action_facedetection,233.779853,1,2000.000000,1,COMPLETED_SUCCESSFULLY,233.784868,12.398880,246.183748,0.005015,12.403895,1.000404,48,-1.000000,""
python3action_image_processing_job4_100,w0,python3action_image_processing,215.754189,1,2000.000000,1,COMPLETED_SUCCESSFULLY,215.759204,30.499683,246.258887,0.005015,30.504698,1.000164,4,-1.000000,""
70_updated,w0,python3action_chameleon_2000_yeti,240.567719,1,2000.000000,1,COMPLETED_SUCCESSFULLY,240.609200,9.028510,249.637710,0.041481,9.069991,1.004594,54,-1.000000,""
70,w0,python3action_chameleon_2000,0.000000,1,-1.000000,1,COMPLETED_SUCCESSFULLY,249.637725,0.000010,249.637735,249.637725,249.637735,24963773.500201,54,-1.000000,""
python3action_floatoperation_job18_107,w0,python3action_floatoperation,249.642725,1,2000.000000,1,COMPLETED_SUCCESSFULLY,249.647740,0.277720,249.925460,0.005015,0.282735,1.018058,54,-1.000000,""
67_updated,w0,python3action_chameleon_3000_yeti,224.486219,1,2000.000000,1,COMPLETED_SUCCESSFULLY,224.734255,25.316115,250.050370,0.248036,25.564151,1.009798,53,-1.000000,""
67,w0,python3action_chameleon_3000,0.000000,1,-1.000000,1,COMPLETED_SUCCESSFULLY,250.050385,0.000010,250.050395,250.050385,250.050395,25005039.515513,53,-1.000000,""
177_updated,w0,python3action_floatoperation_100000000_yeti,245.705676,1,2000.000000,1,COMPLETED_SUCCESSFULLY,245.988426,14.518202,260.506629,0.282750,14.800953,1.019476,55,-1.000000,""
177,w0,python3action_floatoperation_100000000,0.000000,1,-1.000000,1,COMPLETED_SUCCESSFULLY,260.506644,0.000010,260.506654,260.506644,260.506654,26050665.400201,55,-1.000000,""
84_updated,w0,python3action_facedetection_SampleVideo_50mb_nova,0.997085,1,2000.000000,1,COMPLETED_SUCCESSFULLY,31.501948,230.799980,262.301928,30.504863,261.304843,1.132170,10,-1.000000,""
84,w0,python3action_facedetection_SampleVideo_50mb,0.000000,1,-1.000000,1,COMPLETED_SUCCESSFULLY,262.301943,0.000010,262.301953,262.301943,262.301953,26230195.300201,10,-1.000000,""
18_updated,w0,python3action_floatoperation_100000000_yeti,249.642725,1,2000.000000,1,COMPLETED_SUCCESSFULLY,249.925475,14.518202,264.443678,0.282750,14.800953,1.019476,54,-1.000000,""
18,w0,python3action_floatoperation_100000000,0.000000,1,-1.000000,1,COMPLETED_SUCCESSFULLY,264.443693,0.000010,264.443703,264.443693,264.443703,26444370.300201,54,-1.000000,""
181_updated,w0,python3action_floatoperation_100000000_yeti,250.055385,1,2000.000000,1,COMPLETED_SUCCESSFULLY,250.060400,14.518202,264.578602,0.005015,14.523217,1.000345,53,-1.000000,""
181,w0,python3action_floatoperation_100000000,0.000000,1,-1.000000,1,COMPLETED_SUCCESSFULLY,264.578617,0.000010,264.578627,264.578617,264.578627,26457862.724121,53,-1.000000,""
python3action_linpack_job188_108,w0,python3action_linpack_reduced_0.85,264.583617,1,2000.000000,1,COMPLETED_SUCCESSFULLY,264.588632,0.041658,264.630290,0.005015,0.046673,1.120385,53,-1.000000,""
25_updated,w0,python3action_chameleon_3000_troll,171.127077,1,2000.000000,1,COMPLETED_SUCCESSFULLY,171.266011,96.683904,267.949915,0.138934,96.822838,1.001437,50,-1.000000,""
25,w0,python3action_chameleon_3000,0.000000,1,-1.000000,1,COMPLETED_SUCCESSFULLY,267.949930,0.000010,267.949940,267.949930,267.949940,26794994.035110,50,-1.000000,""
python3action_modeltraining_job36_109,w0,python3action_modeltraining_reduced_0.94,267.954930,1,2000.000000,1,COMPLETED_SUCCESSFULLY,267.959945,0.750170,268.710115,0.005015,0.755185,1.006685,50,-1.000000,""
34_updated,w0,python3action_pyaes_4000_neowise,141.121512,1,2000.000000,1,COMPLETED_SUCCESSFULLY,141.162993,128.200002,269.362995,0.041481,128.241483,1.000324,0,-1.000000,""
34,w0,python3action_pyaes_4000,0.000000,1,-1.000000,1,COMPLETED_SUCCESSFULLY,269.363010,0.000010,269.363020,269.363010,269.363020,26936302.022787,0,-1.000000,""
python3action_facedetection_job42_110,w0,python3action_facedetection_reduced_1.83,269.368010,1,2000.000000,1,COMPLETED_SUCCESSFULLY,269.373025,0.000000,269.373025,0.005015,0.005015,900253555.479592,0,-1.000000,""
33_updated,w0,python3action_modeltraining_reviews100mb_troll,210.234346,1,2000.000000,1,COMPLETED_SUCCESSFULLY,210.239361,60.170312,270.409673,0.005015,60.175327,1.000083,51,-1.000000,""
33,w0,python3action_modeltraining_reviews100mb,0.000000,1,-1.000000,1,COMPLETED_SUCCESSFULLY,270.409688,0.000010,270.409698,270.409688,270.409698,27040969.828063,51,-1.000000,""
python3action_chameleon_job39_111,w0,python3action_chameleon,270.414688,1,2000.000000,1,COMPLETED_SUCCESSFULLY,270.419703,0.892694,271.312397,0.005015,0.897709,1.005618,51,-1.000000,""
188_updated,w0,python3action_linpack_5000_yeti,264.583617,1,2000.000000,1,COMPLETED_SUCCESSFULLY,264.630305,8.756294,273.386599,0.046688,8.802982,1.005332,53,-1.000000,""
188,w0,python3action_linpack_5000,0.000000,1,-1.000000,1,COMPLETED_SUCCESSFULLY,273.386614,0.000010,273.386624,273.386614,273.386624,27338662.400201,53,-1.000000,""
133_updated,w0,python3action_linpack_6000_nova,0.997085,1,2000.000000,1,COMPLETED_SUCCESSFULLY,3.442360,276.000000,279.442360,2.445275,278.445275,1.008860,20,-1.000000,""
133,w0,python3action_linpack_6000,0.000000,1,-1.000000,1,COMPLETED_SUCCESSFULLY,279.442375,0.000010,279.442385,279.442375,279.442385,27944238.533997,20,-1.000000,""
110_updated,w0,python3action_imageprocessing_SampleImage_60mb_yeti,264.448693,1,2000.000000,1,COMPLETED_SUCCESSFULLY,264.453708,19.372729,283.826437,0.005015,19.377744,1.000259,54,-1.000000,""
110,w0,python3action_imageprocessing_SampleImage_60mb,0.000000,1,-1.000000,1,COMPLETED_SUCCESSFULLY,283.826452,0.000010,283.826462,283.826452,283.826462,28382646.200201,54,-1.000000,""
69_updated,w0,python3action_linpack_6000_yeti,227.416946,1,2000.000000,1,COMPLETED_SUCCESSFULLY,227.421991,58.163548,285.585539,0.005045,58.168593,1.000087,56,-1.000000,""
69,w0,python3action_linpack_6000,0.000000,1,-1.000000,1,COMPLETED_SUCCESSFULLY,285.585554,0.000010,285.585564,285.585554,285.585564,28558556.400201,56,-1.000000,""
89_updated,w0,python3action_videoprocessing_SampleVideo_50mb_troll,0.997085,1,2000.000000,1,COMPLETED_SUCCESSFULLY,13.755745,294.371628,308.127373,12.758660,307.130288,1.043342,49,-1.000000,""
89,w0,python3action_videoprocessing_SampleVideo_50mb,0.000000,1,-1.000000,1,COMPLETED_SUCCESSFULLY,308.127388,0.000010,308.127398,308.127388,308.127398,30812739.800201,49,-1.000000,""
python3action_chameleon_job41_112,w0,python3action_chameleon,308.132388,1,2000.000000,1,COMPLETED_SUCCESSFULLY,308.137403,0.892694,309.030097,0.005015,0.897709,1.005618,49,-1.000000,""
39_updated,w0,python3action_chameleon_2000_troll,270.414688,1,2000.000000,1,COMPLETED_SUCCESSFULLY,271.312412,40.627821,311.940233,0.897724,41.525545,1.022096,51,-1.000000,""
39,w0,python3action_chameleon_2000,0.000000,1,-1.000000,1,COMPLETED_SUCCESSFULLY,311.940248,0.000010,311.940258,311.940248,311.940258,31194025.849731,51,-1.000000,""
178_updated,w0,python3action_linpack_6000_nova,38.047400,1,2000.000000,1,COMPLETED_SUCCESSFULLY,38.052415,276.000000,314.052415,0.005015,276.005015,1.000018,22,-1.000000,""
178,w0,python3action_linpack_6000,0.000000,1,-1.000000,1,COMPLETED_SUCCESSFULLY,314.052430,0.000010,314.052440,314.052430,314.052440,31405244.000401,22,-1.000000,""
119_updated,w0,python3action_modeltraining_reviews100mb_gemini,232.395320,1,2000.000000,1,COMPLETED_SUCCESSFULLY,244.799230,77.147594,321.946824,12.403910,89.551504,1.160782,47,-1.000000,""
119,w0,python3action_modeltraining_reviews100mb,0.000000,1,-1.000000,1,COMPLETED_SUCCESSFULLY,321.946839,0.000010,321.946849,321.946839,321.946849,32194684.946047,47,-1.000000,""
python3action_floatoperation_job124_113,w0,python3action_floatoperation,321.951839,1,2000.000000,1,COMPLETED_SUCCESSFULLY,321.956854,0.991898,322.948752,0.005015,0.996913,1.005056,47,-1.000000,""
50_updated,w0,python3action_videoprocessing_SampleVideo_30mb_nova,0.997085,1,2000.000000,1,COMPLETED_SUCCESSFULLY,73.019975,252.164226,325.184201,72.022890,324.187116,1.285619,28,-1.000000,""
50,w0,python3action_videoprocessing_SampleVideo_30mb,0.000000,1,-1.000000,1,COMPLETED_SUCCESSFULLY,325.184216,0.000010,325.184226,325.184216,325.184226,32518422.600201,28,-1.000000,""
36_updated,w0,python3action_modeltraining_reviews100mb_troll,267.954930,1,2000.000000,1,COMPLETED_SUCCESSFULLY,268.710130,60.170312,328.880443,0.755200,60.925513,1.012551,50,-1.000000,""
36,w0,python3action_modeltraining_reviews100mb,0.000000,1,-1.000000,1,COMPLETED_SUCCESSFULLY,328.880458,0.000010,328.880468,328.880458,328.880468,32888046.800201,50,-1.000000,""
python3action_video_processing_job150_114,w0,python3action_video_processing_reduced_1.89,328.885458,1,2000.000000,1,COMPLETED_SUCCESSFULLY,328.890473,0.000000,328.890473,0.005015,0.005015,245751667.682451,50,-1.000000,""
8_updated,w0,python3action_facedetection_SampleVideo_30mb_yeti,260.511644,1,2000.000000,1,COMPLETED_SUCCESSFULLY,260.516659,70.594758,331.111417,0.005015,70.599773,1.000071,55,-1.000000,""
8,w0,python3action_facedetection_SampleVideo_30mb,0.000000,1,-1.000000,1,COMPLETED_SUCCESSFULLY,331.111432,0.000010,331.111442,331.111432,331.111442,33111144.238239,55,-1.000000,""
53_updated,w0,python3action_pyaes_4000_nova,0.997085,1,2000.000000,1,COMPLETED_SUCCESSFULLY,6.043376,329.608004,335.651379,5.046291,334.654294,1.015310,29,-1.000000,""
53,w0,python3action_pyaes_4000,0.000000,1,-1.000000,1,COMPLETED_SUCCESSFULLY,335.651394,0.000010,335.651404,335.651394,335.651404,33565140.449769,29,-1.000000,""
41_updated,w0,python3action_chameleon_2000_troll,308.132388,1,2000.000000,1,COMPLETED_SUCCESSFULLY,309.030112,40.627821,349.657933,0.897724,41.525545,1.022096,49,-1.000000,""
41,w0,python3action_chameleon_2000,0.000000,1,-1.000000,1,COMPLETED_SUCCESSFULLY,349.657948,0.000010,349.657958,349.657948,349.657958,34965795.849731,49,-1.000000,""
37_updated,w0,python3action_facedetection_SampleVideo_50mb_neowise,169.278689,1,2000.000000,1,COMPLETED_SUCCESSFULLY,169.581280,196.399999,365.981279,0.302591,196.702590,1.001541,1,-1.000000,""
37,w0,python3action_facedetection_SampleVideo_50mb,0.000000,1,-1.000000,1,COMPLETED_SUCCESSFULLY,365.981294,0.000010,365.981304,365.981294,365.981304,36598130.400201,1,-1.000000,""
python3action_modeltraining_job45_115,w0,python3action_modeltraining_reduced_1.94,365.986294,1,2000.000000,1,COMPLETED_SUCCESSFULLY,365.991309,0.000000,365.991309,0.005015,0.005015,900253555.479592,1,-1.000000,""
44_updated,w0,python3action_modeltraining_reviews100mb_troll,311.945248,1,2000.000000,1,COMPLETED_SUCCESSFULLY,311.950263,60.170312,372.120575,0.005015,60.175327,1.000083,51,-1.000000,""
44,w0,python3action_modeltraining_reviews100mb,0.000000,1,-1.000000,1,COMPLETED_SUCCESSFULLY,372.120590,0.000010,372.120600,372.120590,372.120600,37212060.028063,51,-1.000000,""
python3action_floatoperation_job156_116,w0,python3action_floatoperation,372.125590,1,2000.000000,1,COMPLETED_SUCCESSFULLY,372.130605,1.020219,373.150824,0.005015,1.025234,1.004916,51,-1.000000,""
153_updated,w0,python3action_chameleon_2000_troll,349.662948,1,2000.000000,1,COMPLETED_SUCCESSFULLY,349.667963,40.627821,390.295784,0.005015,40.632836,1.000123,49,-1.000000,""
153,w0,python3action_chameleon_2000,0.000000,1,-1.000000,1,COMPLETED_SUCCESSFULLY,390.295799,0.000010,390.295809,390.295799,390.295809,39029580.901172,49,-1.000000,""
python3action_floatoperation_job159_117,w0,python3action_floatoperation,390.300799,1,2000.000000,1,COMPLETED_SUCCESSFULLY,390.305814,1.020219,391.326033,0.005015,1.025234,1.004916,49,-1.000000,""
124_updated,w0,python3action_floatoperation_100000000_gemini,321.951839,1,2000.000000,1,COMPLETED_SUCCESSFULLY,322.948767,70.926014,393.874782,0.996928,71.922943,1.014056,47,-1.000000,""
124,w0,python3action_floatoperation_100000000,0.000000,1,-1.000000,1,COMPLETED_SUCCESSFULLY,393.874797,0.000010,393.874807,393.874797,393.874807,39387480.700201,47,-1.000000,""
python3action_video_processing_job21_118,w0,python3action_video_processing_reduced_0.97,393.879797,1,2000.000000,1,COMPLETED_SUCCESSFULLY,393.884812,0.000000,393.884812,0.005015,0.005015,8822484834.900000,47,-1.000000,""
45_updated,w0,python3action_modeltraining_reviews100mb_neowise,365.986294,1,2000.000000,1,COMPLETED_SUCCESSFULLY,365.991339,43.399999,409.391338,0.005045,43.405044,1.000116,1,-1.000000,""
45,w0,python3action_modeltraining_reviews100mb,0.000000,1,-1.000000,1,COMPLETED_SUCCESSFULLY,409.391353,0.000010,409.391363,409.391353,409.391363,40939136.300201,1,-1.000000,""
python3action_pyaes_job151_119,w0,python3action_pyaes,409.396353,1,2000.000000,1,COMPLETED_SUCCESSFULLY,409.401368,0.243006,409.644374,0.005015,0.248021,1.020637,1,-1.000000,""
156_updated,w0,python3action_floatoperation_100000000_troll,372.125590,1,2000.000000,1,COMPLETED_SUCCESSFULLY,373.150839,52.627596,425.778436,1.025249,53.652846,1.019481,51,-1.000000,""
156,w0,python3action_floatoperation_100000000,0.000000,1,-1.000000,1,COMPLETED_SUCCESSFULLY,425.778451,0.000010,425.778461,425.778451,425.778461,42577846.100201,51,-1.000000,""
4_updated,w0,python3action_imageprocessing_SampleImage_40mb_neowise,215.754189,1,2000.000000,1,COMPLETED_SUCCESSFULLY,246.258902,183.699311,429.958213,30.504713,214.204024,1.166058,4,-1.000000,""
4,w0,python3action_imageprocessing_SampleImage_40mb,0.000000,1,-1.000000,1,COMPLETED_SUCCESSFULLY,429.958228,0.000010,429.958238,429.958228,429.958238,42995823.829206,4,-1.000000,""
42_updated,w0,python3action_facedetection_SampleVideo_30mb_neowise,269.368010,1,2000.000000,1,COMPLETED_SUCCESSFULLY,269.373055,162.200002,431.573057,0.005045,162.205047,1.000031,0,-1.000000,""
42,w0,python3action_facedetection_SampleVideo_30mb,0.000000,1,-1.000000,1,COMPLETED_SUCCESSFULLY,431.573072,0.000010,431.573082,431.573072,431.573082,43157308.223189,0,-1.000000,""
15_updated,w0,python3action_facedetection_SampleVideo_30mb_nova,0.997085,1,2000.000000,1,COMPLETED_SUCCESSFULLY,73.014960,378.718602,451.733563,72.017875,450.736478,1.190162,26,-1.000000,""
15,w0,python3action_facedetection_SampleVideo_30mb,0.000000,1,-1.000000,1,COMPLETED_SUCCESSFULLY,451.733578,0.000010,451.733588,451.733578,451.733588,45173358.800201,26,-1.000000,""
157_updated,w0,python3action_linpack_5000_neowise,431.578072,1,2000.000000,1,COMPLETED_SUCCESSFULLY,431.583087,20.750000,452.333087,0.005015,20.755015,1.000242,0,-1.000000,""
157,w0,python3action_linpack_5000,0.000000,1,-1.000000,1,COMPLETED_SUCCESSFULLY,452.333102,0.000010,452.333112,452.333102,452.333112,45233311.200402,0,-1.000000,""
161_updated,w0,python3action_modeltraining_reviews50mb_troll,425.783451,1,2000.000000,1,COMPLETED_SUCCESSFULLY,425.788466,29.142312,454.930778,0.005015,29.147327,1.000172,51,-1.000000,""
161,w0,python3action_modeltraining_reviews50mb,0.000000,1,-1.000000,1,COMPLETED_SUCCESSFULLY,454.930793,0.000010,454.930803,454.930793,454.930803,45493080.300201,51,-1.000000,""
99_updated,w0,python3action_chameleon_3000_neowise,0.997085,1,2000.000000,1,COMPLETED_SUCCESSFULLY,3.137118,490.237581,493.374699,2.140033,492.377614,1.004365,3,-1.000000,""
99,w0,python3action_chameleon_3000,0.000000,1,-1.000000,1,COMPLETED_SUCCESSFULLY,493.374714,0.000010,493.374724,493.374714,493.374724,49337472.445422,3,-1.000000,""
python3action_floatoperation_job162_120,w0,python3action_floatoperation,493.379714,1,2000.000000,1,COMPLETED_SUCCESSFULLY,493.384729,2.439945,495.824674,0.005015,2.444960,1.002055,3,-1.000000,""
159_updated,w0,python3action_floatoperation_200000000_troll,390.300799,1,2000.000000,1,COMPLETED_SUCCESSFULLY,391.326048,107.140861,498.466910,1.025249,108.166111,1.009569,49,-1.000000,""
159,w0,python3action_floatoperation_200000000,0.000000,1,-1.000000,1,COMPLETED_SUCCESSFULLY,498.466925,0.000010,498.466935,498.466925,498.466935,49846693.500201,49,-1.000000,""
30_updated,w0,python3action_facedetection_SampleVideo_50mb_troll,207.869983,1,2000.000000,1,COMPLETED_SUCCESSFULLY,208.968118,298.280130,507.248248,1.098135,299.378265,1.003682,52,-1.000000,""
30,w0,python3action_facedetection_SampleVideo_50mb,0.000000,1,-1.000000,1,COMPLETED_SUCCESSFULLY,507.248263,0.000010,507.248273,507.248263,507.248273,50724827.318945,52,-1.000000,""
python3action_image_processing_job169_121,w0,python3action_image_processing_reduced_1.73,507.253263,1,2000.000000,1,COMPLETED_SUCCESSFULLY,507.258278,0.000000,507.258278,0.005015,0.005015,245751667.682451,52,-1.000000,""
151_updated,w0,python3action_pyaes_4000_neowise,409.396353,1,2000.000000,1,COMPLETED_SUCCESSFULLY,409.644389,128.200002,537.844391,0.248036,128.448038,1.001935,1,-1.000000,""
151,w0,python3action_pyaes_4000,0.000000,1,-1.000000,1,COMPLETED_SUCCESSFULLY,537.844406,0.000010,537.844416,537.844406,537.844416,53784441.622787,1,-1.000000,""
python3action_image_processing_job165_122,w0,python3action_image_processing_reduced_2.59,537.849406,1,2000.000000,1,COMPLETED_SUCCESSFULLY,537.854421,0.000000,537.854421,0.005015,0.005015,900253555.469388,1,-1.000000,""
164_updated,w0,python3action_videoprocessing_SampleVideo_30mb_troll,454.935793,1,2000.000000,1,COMPLETED_SUCCESSFULLY,454.940808,83.655577,538.596385,0.005015,83.660592,1.000060,51,-1.000000,""
164,w0,python3action_videoprocessing_SampleVideo_30mb,0.000000,1,-1.000000,1,COMPLETED_SUCCESSFULLY,538.596400,0.000010,538.596410,538.596400,538.596410,53859641.000201,51,-1.000000,""
121_updated,w0,python3action_facedetection_SampleVideo_50mb_gemini,233.779853,1,2000.000000,1,COMPLETED_SUCCESSFULLY,246.183763,310.332420,556.516183,12.403910,322.736330,1.039970,48,-1.000000,""
121,w0,python3action_facedetection_SampleVideo_50mb,0.000000,1,-1.000000,1,COMPLETED_SUCCESSFULLY,556.516198,0.000010,556.516208,556.516198,556.516208,55651620.801993,48,-1.000000,""
python3action_video_processing_job129_123,w0,python3action_video_processing_reduced_0.91,556.521198,1,2000.000000,1,COMPLETED_SUCCESSFULLY,556.526213,1.062761,557.588974,0.005015,1.067776,1.004719,48,-1.000000,""
23_updated,w0,python3action_floatoperation_100000000_neowise,0.997085,1,2000.000000,1,COMPLETED_SUCCESSFULLY,3.442180,567.551067,570.993248,2.445095,569.996163,1.004308,8,-1.000000,""
23,w0,python3action_floatoperation_100000000,0.000000,1,-1.000000,1,COMPLETED_SUCCESSFULLY,570.993263,0.000010,570.993273,570.993263,570.993273,57099327.300201,8,-1.000000,""
169_updated,w0,python3action_imageprocessing_SampleImage_60mb_troll,507.253263,1,2000.000000,1,COMPLETED_SUCCESSFULLY,507.258308,63.770235,571.028543,0.005045,63.775280,1.000079,52,-1.000000,""
169,w0,python3action_imageprocessing_SampleImage_60mb,0.000000,1,-1.000000,1,COMPLETED_SUCCESSFULLY,571.028558,0.000010,571.028568,571.028558,571.028568,57102856.800201,52,-1.000000,""
165_updated,w0,python3action_imageprocessing_SampleImage_60mb_neowise,537.849406,1,2000.000000,1,COMPLETED_SUCCESSFULLY,537.854451,37.500000,575.354451,0.005045,37.505045,1.000135,1,-1.000000,""
165,w0,python3action_imageprocessing_SampleImage_60mb,0.000000,1,-1.000000,1,COMPLETED_SUCCESSFULLY,575.354466,0.000010,575.354476,575.354466,575.354476,57535447.600803,1,-1.000000,""
167_updated,w0,python3action_videoprocessing_SampleVideo_30mb_troll,498.471925,1,2000.000000,1,COMPLETED_SUCCESSFULLY,498.476940,83.655577,582.132517,0.005015,83.660592,1.000060,49,-1.000000,""
167,w0,python3action_videoprocessing_SampleVideo_30mb,0.000000,1,-1.000000,1,COMPLETED_SUCCESSFULLY,582.132532,0.000010,582.132542,582.132532,582.132542,58213254.200201,49,-1.000000,""
python3action_pyaes_job174_125,w0,python3action_pyaes_reduced_0.85,582.137532,1,2000.000000,1,COMPLETED_SUCCESSFULLY,582.142547,0.133904,582.276451,0.005015,0.138919,1.037452,49,-1.000000,""
python3action_modeltraining_job114_124,w0,python3action_modeltraining,570.998263,1,2000.000000,1,COMPLETED_SUCCESSFULLY,571.003278,30.499683,601.502961,0.005015,30.504698,1.000164,8,-1.000000,""
16_updated,w0,python3action_facedetection_SampleVideo_30mb_neowise,452.338102,1,2000.000000,1,COMPLETED_SUCCESSFULLY,452.343117,162.200002,614.543119,0.005015,162.205017,1.000031,0,-1.000000,""
16,w0,python3action_facedetection_SampleVideo_30mb,0.000000,1,-1.000000,1,COMPLETED_SUCCESSFULLY,614.543134,0.000010,614.543144,614.543134,614.543144,61454314.422787,0,-1.000000,""
150_updated,w0,python3action_videoprocessing_SampleVideo_50mb_troll,328.885458,1,2000.000000,1,COMPLETED_SUCCESSFULLY,328.890503,294.371628,623.262131,0.005045,294.376673,1.000017,50,-1.000000,""
150,w0,python3action_videoprocessing_SampleVideo_50mb,0.000000,1,-1.000000,1,COMPLETED_SUCCESSFULLY,623.262146,0.000010,623.262156,623.262146,623.262156,62326215.600201,50,-1.000000,""
172_updated,w0,python3action_pyaes_3000_troll,571.033558,1,2000.000000,1,COMPLETED_SUCCESSFULLY,571.038573,58.798909,629.837482,0.005015,58.803924,1.000085,52,-1.000000,""
172,w0,python3action_pyaes_3000,0.000000,1,-1.000000,1,COMPLETED_SUCCESSFULLY,629.837497,0.000010,629.837507,629.837497,629.837507,62983750.738457,52,-1.000000,""
python3action_chameleon_job75_126,w0,python3action_chameleon_reduced_0.85,629.842497,1,2000.000000,1,COMPLETED_SUCCESSFULLY,629.847512,0.133904,629.981416,0.005015,0.138919,1.037452,52,-1.000000,""
26_updated,w0,python3action_pyaes_3000_neowise,0.997085,1,2000.000000,1,COMPLETED_SUCCESSFULLY,3.137208,636.957456,640.094664,2.140123,639.097579,1.003360,9,-1.000000,""
26,w0,python3action_pyaes_3000,0.000000,1,-1.000000,1,COMPLETED_SUCCESSFULLY,640.094679,0.000010,640.094689,640.094679,640.094689,64009468.942353,9,-1.000000,""
174_updated,w0,python3action_pyaes_3000_troll,582.137532,1,2000.000000,1,COMPLETED_SUCCESSFULLY,582.276466,58.798909,641.075376,0.138934,58.937844,1.002363,49,-1.000000,""
174,w0,python3action_pyaes_3000,0.000000,1,-1.000000,1,COMPLETED_SUCCESSFULLY,641.075391,0.000010,641.075401,641.075391,641.075401,64107540.100201,49,-1.000000,""
105_updated,w0,python3action_linpack_5000_troll,623.267146,1,2000.000000,1,COMPLETED_SUCCESSFULLY,623.272161,30.513714,653.785875,0.005015,30.518729,1.000164,50,-1.000000,""
105,w0,python3action_linpack_5000,0.000000,1,-1.000000,1,COMPLETED_SUCCESSFULLY,653.785890,0.000010,653.785900,653.785890,653.785900,65378590.044145,50,-1.000000,""
python3action_pyaes_job183_128,w0,python3action_pyaes_reduced_1.7,653.790890,1,2000.000000,1,COMPLETED_SUCCESSFULLY,653.795905,0.000000,653.795905,0.005015,0.005015,245069024.161111,50,-1.000000,""
101_updated,w0,python3action_modeltraining_reviews100mb_neowise,614.548134,1,2000.000000,1,COMPLETED_SUCCESSFULLY,614.553149,43.399999,657.953148,0.005015,43.405014,1.000116,0,-1.000000,""
101,w0,python3action_modeltraining_reviews100mb,0.000000,1,-1.000000,1,COMPLETED_SUCCESSFULLY,657.953163,0.000010,657.953173,657.953163,657.953173,65795317.300201,0,-1.000000,""
python3action_image_processing_job175_129,w0,python3action_image_processing_reduced_2.59,657.958163,1,2000.000000,1,COMPLETED_SUCCESSFULLY,657.963178,0.000000,657.963178,0.005015,0.005015,900253555.469388,0,-1.000000,""
59_updated,w0,python3action_linpack_6000_nova,0.997085,1,2000.000000,1,COMPLETED_SUCCESSFULLY,6.763507,651.660477,658.423985,5.766422,657.426900,1.008849,31,-1.000000,""
59,w0,python3action_linpack_6000,0.000000,1,-1.000000,1,COMPLETED_SUCCESSFULLY,658.424000,0.000010,658.424010,658.424000,658.424010,65842401.000201,31,-1.000000,""
python3action_image_processing_job103_127,w0,python3action_image_processing,640.099679,1,2000.000000,1,COMPLETED_SUCCESSFULLY,640.104694,30.499683,670.604377,0.005015,30.504698,1.000164,9,-1.000000,""
75_updated,w0,python3action_chameleon_2000_troll,629.842497,1,2000.000000,1,COMPLETED_SUCCESSFULLY,629.981431,40.627821,670.609252,0.138934,40.766755,1.003420,52,-1.000000,""
75,w0,python3action_chameleon_2000,0.000000,1,-1.000000,1,COMPLETED_SUCCESSFULLY,670.609407,0.000010,670.609417,670.609407,670.609417,67060941.700402,52,-1.000000,""
python3action_floatoperation_job81_130,w0,python3action_floatoperation,670.614407,1,2000.000000,1,COMPLETED_SUCCESSFULLY,670.619422,1.020219,671.639641,0.005015,1.025234,1.004916,52,-1.000000,""
175_updated,w0,python3action_imageprocessing_SampleImage_40mb_neowise,657.958163,1,2000.000000,1,COMPLETED_SUCCESSFULLY,657.963208,20.909089,678.872297,0.005045,20.914134,1.000241,0,-1.000000,""
175,w0,python3action_imageprocessing_SampleImage_40mb,0.000000,1,-1.000000,1,COMPLETED_SUCCESSFULLY,678.872312,0.000010,678.872322,678.872312,678.872322,67887232.200201,0,-1.000000,""
107_updated,w0,python3action_chameleon_2000_troll,641.080391,1,2000.000000,1,COMPLETED_SUCCESSFULLY,641.085406,40.627821,681.713227,0.005015,40.632836,1.000123,49,-1.000000,""
107,w0,python3action_chameleon_2000,0.000000,1,-1.000000,1,COMPLETED_SUCCESSFULLY,681.713242,0.000010,681.713252,681.713242,681.713252,68171325.201172,49,-1.000000,""
python3action_modeltraining_job83_131,w0,python3action_modeltraining_reduced_1.0,681.718242,1,2000.000000,1,COMPLETED_SUCCESSFULLY,681.723257,0.000000,681.723257,0.005015,0.005015,245069024.161111,49,-1.000000,""
73_updated,w0,python3action_imageprocessing_SampleImage_40mb_neowise,678.877312,1,2000.000000,1,COMPLETED_SUCCESSFULLY,678.882327,20.909089,699.791416,0.005015,20.914104,1.000240,0,-1.000000,""
73,w0,python3action_imageprocessing_SampleImage_40mb,0.000000,1,-1.000000,1,COMPLETED_SUCCESSFULLY,699.791431,0.000010,699.791441,699.791431,699.791441,69979144.100201,0,-1.000000,""
21_updated,w0,python3action_videoprocessing_SampleVideo_50mb_gemini,393.879797,1,2000.000000,1,COMPLETED_SUCCESSFULLY,393.884842,309.212545,703.097387,0.005045,309.217590,1.000016,47,-1.000000,""
21,w0,python3action_videoprocessing_SampleVideo_50mb,0.000000,1,-1.000000,1,COMPLETED_SUCCESSFULLY,703.097402,0.000010,703.097412,703.097402,703.097412,70309741.243008,47,-1.000000,""
109_updated,w0,python3action_pyaes_4000_neowise,575.359466,1,2000.000000,1,COMPLETED_SUCCESSFULLY,575.364481,128.200002,703.564483,0.005015,128.205017,1.000039,1,-1.000000,""
109,w0,python3action_pyaes_4000,0.000000,1,-1.000000,1,COMPLETED_SUCCESSFULLY,703.564498,0.000010,703.564508,703.564498,703.564508,70356450.822787,1,-1.000000,""
81_updated,w0,python3action_floatoperation_100000000_troll,670.614407,1,2000.000000,1,COMPLETED_SUCCESSFULLY,671.639656,52.627596,724.267253,1.025249,53.652846,1.019481,52,-1.000000,""
81,w0,python3action_floatoperation_100000000,0.000000,1,-1.000000,1,COMPLETED_SUCCESSFULLY,724.267268,0.000010,724.267278,724.267268,724.267278,72426727.800201,52,-1.000000,""
78_updated,w0,python3action_modeltraining_reviews50mb_neowise,703.569498,1,2000.000000,1,COMPLETED_SUCCESSFULLY,703.574513,22.799998,726.374511,0.005015,22.805013,1.000220,1,-1.000000,""
78,w0,python3action_modeltraining_reviews50mb,0.000000,1,-1.000000,1,COMPLETED_SUCCESSFULLY,726.374526,0.000010,726.374536,726.374526,726.374536,72637453.600201,1,-1.000000,""
83_updated,w0,python3action_modeltraining_reviews100mb_troll,681.718242,1,2000.000000,1,COMPLETED_SUCCESSFULLY,681.723287,60.170312,741.893599,0.005045,60.175357,1.000084,49,-1.000000,""
83,w0,python3action_modeltraining_reviews100mb,0.000000,1,-1.000000,1,COMPLETED_SUCCESSFULLY,741.893614,0.000010,741.893624,741.893614,741.893624,74189362.428465,49,-1.000000,""
183_updated,w0,python3action_pyaes_4000_troll,653.790890,1,2000.000000,1,COMPLETED_SUCCESSFULLY,653.795935,105.255172,759.051107,0.005045,105.260217,1.000048,50,-1.000000,""
183,w0,python3action_pyaes_4000,0.000000,1,-1.000000,1,COMPLETED_SUCCESSFULLY,759.051122,0.000010,759.051132,759.051122,759.051132,75905113.228097,50,-1.000000,""
131_updated,w0,python3action_pyaes_3000_gemini,703.102402,1,2000.000000,1,COMPLETED_SUCCESSFULLY,703.107417,82.124859,785.232276,0.005015,82.129874,1.000061,47,-1.000000,""
131,w0,python3action_pyaes_3000,0.000000,1,-1.000000,1,COMPLETED_SUCCESSFULLY,785.232291,0.000010,785.232301,785.232291,785.232301,78523230.100201,47,-1.000000,""
python3action_chameleon_job134_132,w0,python3action_chameleon_reduced_0.85,785.237291,1,2000.000000,1,COMPLETED_SUCCESSFULLY,785.242306,0.130187,785.372493,0.005015,0.135202,1.038522,47,-1.000000,""
76_updated,w0,python3action_videoprocessing_SampleVideo_30mb_neowise,699.796431,1,2000.000000,1,COMPLETED_SUCCESSFULLY,699.801446,92.799998,792.601444,0.005015,92.805013,1.000054,0,-1.000000,""
76,w0,python3action_videoprocessing_SampleVideo_30mb,0.000000,1,-1.000000,1,COMPLETED_SUCCESSFULLY,792.601459,0.000010,792.601469,792.601459,792.601469,79260146.900201,0,-1.000000,""
186_updated,w0,python3action_imageprocessing_SampleImage_60mb_neowise,792.606459,1,2000.000000,1,COMPLETED_SUCCESSFULLY,792.611474,37.500000,830.111474,0.005015,37.505015,1.000134,0,-1.000000,""
186,w0,python3action_imageprocessing_SampleImage_60mb,0.000000,1,-1.000000,1,COMPLETED_SUCCESSFULLY,830.111489,0.000010,830.111499,830.111489,830.111499,83011149.900402,0,-1.000000,""
170_updated,w0,python3action_videoprocessing_SampleVideo_50mb_troll,538.601400,1,2000.000000,1,COMPLETED_SUCCESSFULLY,538.606415,294.371628,832.978043,0.005015,294.376643,1.000017,51,-1.000000,""
170,w0,python3action_videoprocessing_SampleVideo_50mb,0.000000,1,-1.000000,1,COMPLETED_SUCCESSFULLY,832.978058,0.000010,832.978068,832.978058,832.978068,83297806.800201,51,-1.000000,""
103_updated,w0,python3action_imageprocessing_SampleImage_40mb_neowise,640.099679,1,2000.000000,1,COMPLETED_SUCCESSFULLY,670.604392,183.699311,854.303703,30.504713,214.204024,1.166058,9,-1.000000,""
103,w0,python3action_imageprocessing_SampleImage_40mb,0.000000,1,-1.000000,1,COMPLETED_SUCCESSFULLY,854.303718,0.000010,854.303728,854.303718,854.303728,85430372.829205,9,-1.000000,""
129_updated,w0,python3action_videoprocessing_SampleVideo_50mb_gemini,556.521198,1,2000.000000,1,COMPLETED_SUCCESSFULLY,557.588989,309.212545,866.801535,1.067791,310.280337,1.003453,48,-1.000000,""
129,w0,python3action_videoprocessing_SampleVideo_50mb,0.000000,1,-1.000000,1,COMPLETED_SUCCESSFULLY,866.801550,0.000010,866.801560,866.801550,866.801560,86680156.000201,48,-1.000000,""
python3action_modeltraining_job137_133,w0,python3action_modeltraining_reduced_1.94,866.806550,1,2000.000000,1,COMPLETED_SUCCESSFULLY,866.811565,0.000000,866.811565,0.005015,0.005015,252070996.251429,48,-1.000000,""
112_updated,w0,python3action_imageprocessing_SampleImage_60mb_neowise,830.116489,1,2000.000000,1,COMPLETED_SUCCESSFULLY,830.121504,37.500000,867.621504,0.005015,37.505015,1.000134,0,-1.000000,""
112,w0,python3action_imageprocessing_SampleImage_60mb,0.000000,1,-1.000000,1,COMPLETED_SUCCESSFULLY,867.621519,0.000010,867.621529,867.621519,867.621529,86762152.900402,0,-1.000000,""
134_updated,w0,python3action_chameleon_3000_gemini,785.237291,1,2000.000000,1,COMPLETED_SUCCESSFULLY,785.372508,83.369175,868.741683,0.135217,83.504392,1.001622,47,-1.000000,""
134,w0,python3action_chameleon_3000,0.000000,1,-1.000000,1,COMPLETED_SUCCESSFULLY,868.741698,0.000010,868.741708,868.741698,868.741708,86874170.800201,47,-1.000000,""
python3action_facedetection_job14_134,w0,python3action_facedetection_reduced_1.83,868.746698,1,2000.000000,1,COMPLETED_SUCCESSFULLY,868.751713,0.000000,868.751713,0.005015,0.005015,252070996.251429,47,-1.000000,""
154_updated,w0,python3action_chameleon_3000_neowise,429.963228,1,2000.000000,1,COMPLETED_SUCCESSFULLY,429.968243,490.237581,920.205824,0.005015,490.242596,1.000010,4,-1.000000,""
154,w0,python3action_chameleon_3000,0.000000,1,-1.000000,1,COMPLETED_SUCCESSFULLY,920.205839,0.000010,920.205849,920.205839,920.205849,92020584.920852,4,-1.000000,""
184_updated,w0,python3action_facedetection_SampleVideo_50mb_neowise,726.379526,1,2000.000000,1,COMPLETED_SUCCESSFULLY,726.384541,196.399999,922.784540,0.005015,196.405014,1.000026,1,-1.000000,""
184,w0,python3action_facedetection_SampleVideo_50mb,0.000000,1,-1.000000,1,COMPLETED_SUCCESSFULLY,922.784555,0.000010,922.784565,922.784555,922.784565,92278456.500201,1,-1.000000,""
137_updated,w0,python3action_modeltraining_reviews100mb_gemini,866.806550,1,2000.000000,1,COMPLETED_SUCCESSFULLY,866.811595,77.147594,943.959189,0.005045,77.152639,1.000065,48,-1.000000,""
137,w0,python3action_modeltraining_reviews100mb,0.000000,1,-1.000000,1,COMPLETED_SUCCESSFULLY,943.959204,0.000010,943.959214,943.959204,943.959214,94395921.437669,48,-1.000000,""
python3action_floatoperation_job142_135,w0,python3action_floatoperation,943.964204,1,2000.000000,1,COMPLETED_SUCCESSFULLY,943.969219,0.991898,944.961117,0.005015,0.996913,1.005056,48,-1.000000,""
94_updated,w0,python3action_linpack_6000_neowise,0.997085,1,2000.000000,1,COMPLETED_SUCCESSFULLY,3.442090,954.118351,957.560441,2.445005,956.563356,1.002563,2,-1.000000,""
94,w0,python3action_linpack_6000,0.000000,1,-1.000000,1,COMPLETED_SUCCESSFULLY,957.560456,0.000010,957.560466,957.560456,957.560466,95756046.630264,2,-1.000000,""
195_updated,w0,python3action_linpack_6000_neowise,0.997085,1,2000.000000,1,COMPLETED_SUCCESSFULLY,3.442135,954.118351,957.560486,2.445050,956.563401,1.002563,5,-1.000000,""
195,w0,python3action_linpack_6000,0.000000,1,-1.000000,1,COMPLETED_SUCCESSFULLY,957.570471,0.000010,957.570481,957.570471,957.570481,95757048.100201,5,-1.000000,""
114_updated,w0,python3action_modeltraining_reviews100mb_neowise,570.998263,1,2000.000000,1,COMPLETED_SUCCESSFULLY,601.502976,381.295902,982.798878,30.504713,411.800615,1.080003,8,-1.000000,""
114,w0,python3action_modeltraining_reviews100mb,0.000000,1,-1.000000,1,COMPLETED_SUCCESSFULLY,982.798893,0.000010,982.798903,982.798893,982.798903,98279890.300201,8,-1.000000,""
142_updated,w0,python3action_floatoperation_100000000_gemini,943.964204,1,2000.000000,1,COMPLETED_SUCCESSFULLY,944.961132,70.926014,1015.887147,0.996928,71.922943,1.014056,48,-1.000000,""
142,w0,python3action_floatoperation_100000000,0.000000,1,-1.000000,1,COMPLETED_SUCCESSFULLY,1015.887162,0.000010,1015.887172,1015.887162,1015.887172,101588717.200201,48,-1.000000,""
python3action_linpack_job145_136,w0,python3action_linpack_reduced_1.7,1015.892162,1,2000.000000,1,COMPLETED_SUCCESSFULLY,1015.897177,0.000000,1015.897177,0.005015,0.005015,252070996.251429,48,-1.000000,""
14_updated,w0,python3action_facedetection_SampleVideo_30mb_gemini,868.746698,1,2000.000000,1,COMPLETED_SUCCESSFULLY,868.751743,152.553146,1021.304889,0.005045,152.558191,1.000033,47,-1.000000,""
14,w0,python3action_facedetection_SampleVideo_30mb,0.000000,1,-1.000000,1,COMPLETED_SUCCESSFULLY,1021.304904,0.000010,1021.304914,1021.304904,1021.304914,102130491.429186,47,-1.000000,""
20_updated,w0,python3action_pyaes_4000_neowise,0.997085,1,2000.000000,1,COMPLETED_SUCCESSFULLY,3.137178,1126.316514,1129.453693,2.140093,1128.456608,1.001900,7,-1.000000,""
20,w0,python3action_pyaes_4000,0.000000,1,-1.000000,1,COMPLETED_SUCCESSFULLY,1129.453708,0.000010,1129.453718,1129.453708,1129.453718,112945371.800201,7,-1.000000,""
145_updated,w0,python3action_linpack_6000_gemini,1015.892162,1,2000.000000,1,COMPLETED_SUCCESSFULLY,1015.897207,211.782590,1227.679797,0.005045,211.787635,1.000024,48,-1.000000,""
145,w0,python3action_linpack_6000,0.000000,1,-1.000000,1,COMPLETED_SUCCESSFULLY,1227.679812,0.000010,1227.679822,1227.679812,1227.679822,122767982.200201,48,-1.000000,""
46_updated,w0,python3action_chameleon_2000_gemini,1227.684812,1,2000.000000,1,COMPLETED_SUCCESSFULLY,1227.689827,34.840849,1262.530676,0.005015,34.845864,1.000144,48,-1.000000,""
46,w0,python3action_chameleon_2000,0.000000,1,-1.000000,1,COMPLETED_SUCCESSFULLY,1262.530691,0.000010,1262.530701,1262.530691,1262.530701,126253070.107373,48,-1.000000,""
49_updated,w0,python3action_modeltraining_reviews50mb_gemini,1262.535691,1,2000.000000,1,COMPLETED_SUCCESSFULLY,1262.540706,43.053335,1305.594041,0.005015,43.058350,1.000116,48,-1.000000,""
49,w0,python3action_modeltraining_reviews50mb,0.000000,1,-1.000000,1,COMPLETED_SUCCESSFULLY,1305.594056,0.000010,1305.594066,1305.594056,1305.594066,130559406.600201,48,-1.000000,""
148_updated,w0,python3action_videoprocessing_SampleVideo_50mb_gemini,1021.309904,1,2000.000000,1,COMPLETED_SUCCESSFULLY,1021.314919,309.212545,1330.527464,0.005015,309.217560,1.000016,47,-1.000000,""
148,w0,python3action_videoprocessing_SampleVideo_50mb,0.000000,1,-1.000000,1,COMPLETED_SUCCESSFULLY,1330.527479,0.000010,1330.527489,1330.527479,1330.527489,133052748.942607,47,-1.000000,""
51_updated,w0,python3action_modeltraining_reviews50mb_gemini,1305.599056,1,2000.000000,1,COMPLETED_SUCCESSFULLY,1305.604071,43.053335,1348.657406,0.005015,43.058350,1.000116,48,-1.000000,""
51,w0,python3action_modeltraining_reviews50mb,0.000000,1,-1.000000,1,COMPLETED_SUCCESSFULLY,1348.657421,0.000010,1348.657431,1348.657421,1348.657431,134865743.100201,48,-1.000000,""
python3action_image_processing_job57_137,w0,python3action_image_processing_reduced_2.59,1348.662421,1,2000.000000,1,COMPLETED_SUCCESSFULLY,1348.667436,0.000000,1348.667436,0.005015,0.005015,253519680.137931,48,-1.000000,""
57_updated,w0,python3action_imageprocessing_SampleImage_40mb_gemini,1348.662421,1,2000.000000,1,COMPLETED_SUCCESSFULLY,1348.667466,33.845396,1382.512862,0.005045,33.850441,1.000149,48,-1.000000,""
57,w0,python3action_imageprocessing_SampleImage_40mb,0.000000,1,-1.000000,1,COMPLETED_SUCCESSFULLY,1382.512877,0.000010,1382.512887,1382.512877,1382.512887,138251288.724719,48,-1.000000,""
54_updated,w0,python3action_floatoperation_100000000_gemini,1330.532479,1,2000.000000,1,COMPLETED_SUCCESSFULLY,1330.537494,70.926014,1401.463508,0.005015,70.931029,1.000071,47,-1.000000,""
54,w0,python3action_floatoperation_100000000,0.000000,1,-1.000000,1,COMPLETED_SUCCESSFULLY,1401.463523,0.000010,1401.463533,1401.463523,1401.463533,140146353.318165,47,-1.000000,""
198_updated,w0,python3action_facedetection_SampleVideo_30mb_neowise,0.997085,1,2000.000000,1,COMPLETED_SUCCESSFULLY,31.501888,1425.027597,1456.529485,30.504803,1455.532400,1.021406,6,-1.000000,""
198,w0,python3action_facedetection_SampleVideo_30mb,0.000000,1,-1.000000,1,COMPLETED_SUCCESSFULLY,1456.529500,0.000010,1456.529510,1456.529500,1456.529510,145652951.032730,6,-1.000000,""
62_updated,w0,python3action_pyaes_3000_gemini,1401.468523,1,2000.000000,1,COMPLETED_SUCCESSFULLY,1401.473538,82.124859,1483.598397,0.005015,82.129874,1.000061,47,-1.000000,""
62,w0,python3action_pyaes_3000,0.000000,1,-1.000000,1,COMPLETED_SUCCESSFULLY,1483.598412,0.000010,1483.598422,1483.598412,1483.598422,148359842.200201,47,-1.000000,""
6_updated,w0,python3action_facedetection_SampleVideo_30mb_gemini,1382.517877,1,2000.000000,1,COMPLETED_SUCCESSFULLY,1382.522892,152.553146,1535.076038,0.005015,152.558161,1.000033,48,-1.000000,""
6,w0,python3action_facedetection_SampleVideo_30mb,0.000000,1,-1.000000,1,COMPLETED_SUCCESSFULLY,1535.076053,0.000010,1535.076063,1535.076053,1535.076063,153507606.328785,48,-1.000000,""
56_updated,w0,python3action_chameleon_3000_nova,0.997085,1,2000.000000,1,COMPLETED_SUCCESSFULLY,6.043406,1563.512974,1569.556380,5.046321,1568.559295,1.003228,30,-1.000000,""
56,w0,python3action_chameleon_3000,0.000000,1,-1.000000,1,COMPLETED_SUCCESSFULLY,1569.556395,0.000010,1569.556405,1569.556395,1569.556405,156955640.528610,30,-1.000000,""
162_updated,w0,python3action_floatoperation_200000000_neowise,493.379714,1,2000.000000,1,COMPLETED_SUCCESSFULLY,495.824689,1135.102135,1630.926824,2.444975,1137.547110,1.002154,3,-1.000000,""
162,w0,python3action_floatoperation_200000000,0.000000,1,-1.000000,1,COMPLETED_SUCCESSFULLY,1630.926839,0.000010,1630.926849,1630.926839,1630.926849,163092684.900201,3,-1.000000,""
1_updated,w0,python3action_pyaes_4000_gemini,1483.603412,1,2000.000000,1,COMPLETED_SUCCESSFULLY,1483.608427,148.384683,1631.993110,0.005015,148.389698,1.000034,47,-1.000000,""
1,w0,python3action_pyaes_4000,0.000000,1,-1.000000,1,COMPLETED_SUCCESSFULLY,1631.993125,0.000010,1631.993135,1631.993125,1631.993135,163199313.500201,47,-1.000000,""
python3action_linpack_job102_138,w0,python3action_linpack_reduced_1.7,1631.998125,1,2000.000000,1,COMPLETED_SUCCESSFULLY,1632.003140,0.000000,1632.003140,0.005015,0.005015,253519680.137931,47,-1.000000,""
100_updated,w0,python3action_videoprocessing_SampleVideo_30mb_gemini,1535.081053,1,2000.000000,1,COMPLETED_SUCCESSFULLY,1535.086068,115.223665,1650.309733,0.005015,115.228680,1.000044,48,-1.000000,""
100,w0,python3action_videoprocessing_SampleVideo_30mb,0.000000,1,-1.000000,1,COMPLETED_SUCCESSFULLY,1650.309748,0.000010,1650.309758,1650.309748,1650.309758,165030975.814172,48,-1.000000,""
102_updated,w0,python3action_linpack_5000_gemini,1631.998125,1,2000.000000,1,COMPLETED_SUCCESSFULLY,1632.003170,37.080618,1669.083788,0.005045,37.085663,1.000136,47,-1.000000,""
102,w0,python3action_linpack_5000,0.000000,1,-1.000000,1,COMPLETED_SUCCESSFULLY,1669.083803,0.000010,1669.083813,1669.083803,1669.083813,166908381.300201,47,-1.000000,""
72_updated,w0,python3action_chameleon_2000_gemini,1669.088803,1,2000.000000,1,COMPLETED_SUCCESSFULLY,1669.093818,34.840849,1703.934667,0.005015,34.845864,1.000144,47,-1.000000,""
72,w0,python3action_chameleon_2000,0.000000,1,-1.000000,1,COMPLETED_SUCCESSFULLY,1703.934682,0.000010,1703.934692,1703.934682,1703.934692,170393469.207373,47,-1.000000,""
104_updated,w0,python3action_linpack_6000_gemini,1650.314748,1,2000.000000,1,COMPLETED_SUCCESSFULLY,1650.319763,211.782590,1862.102353,0.005015,211.787605,1.000024,48,-1.000000,""
104,w0,python3action_linpack_6000,0.000000,1,-1.000000,1,COMPLETED_SUCCESSFULLY,1862.102368,0.000010,1862.102378,1862.102368,1862.102378,186210237.800201,48,-1.000000,""
179_updated,w0,python3action_facedetection_SampleVideo_50mb_gemini,1703.939682,1,2000.000000,1,COMPLETED_SUCCESSFULLY,1703.944697,310.332420,2014.277117,0.005015,310.337435,1.000016,47,-1.000000,""
179,w0,python3action_facedetection_SampleVideo_50mb,0.000000,1,-1.000000,1,COMPLETED_SUCCESSFULLY,2014.277132,0.000010,2014.277142,2014.277132,2014.277142,201427714.200201,47,-1.000000,""
77_updated,w0,python3action_linpack_6000_gemini,1862.107368,1,2000.000000,1,COMPLETED_SUCCESSFULLY,1862.112383,211.782590,2073.894973,0.005015,211.787605,1.000024,48,-1.000000,""
77,w0,python3action_linpack_6000,0.000000,1,-1.000000,1,COMPLETED_SUCCESSFULLY,2073.894988,0.000010,2073.894998,2073.894988,2073.894998,207389499.800201,48,-1.000000,""
185_updated,w0,python3action_linpack_5000_gemini,2073.899988,1,2000.000000,1,COMPLETED_SUCCESSFULLY,2073.905003,37.080618,2110.985621,0.005015,37.085633,1.000135,48,-1.000000,""
185,w0,python3action_linpack_5000,0.000000,1,-1.000000,1,COMPLETED_SUCCESSFULLY,2110.985636,0.000010,2110.985646,2110.985636,2110.985646,211098564.600201,48,-1.000000,""
79_updated,w0,python3action_linpack_6000_gemini,2014.282132,1,2000.000000,1,COMPLETED_SUCCESSFULLY,2014.287147,211.782590,2226.069737,0.005015,211.787605,1.000024,47,-1.000000,""
79,w0,python3action_linpack_6000,0.000000,1,-1.000000,1,COMPLETED_SUCCESSFULLY,2226.069752,0.000010,2226.069762,2226.069752,2226.069762,222606976.200201,47,-1.000000,""
187_updated,w0,python3action_facedetection_SampleVideo_50mb_gemini,2110.990636,1,2000.000000,1,COMPLETED_SUCCESSFULLY,2110.995651,310.332420,2421.328071,0.005015,310.337435,1.000016,48,-1.000000,""
187,w0,python3action_facedetection_SampleVideo_50mb,0.000000,1,-1.000000,1,COMPLETED_SUCCESSFULLY,2421.328086,0.000010,2421.328096,2421.328086,2421.328096,242132809.600201,48,-1.000000,""
