job_id,workload_name,profile,submission_time,requested_number_of_resources,requested_time,success,final_state,starting_time,execution_time,finish_time,waiting_time,turnaround_time,stretch,allocated_resources,consumed_energy,metadata
python3action_pyaes_job93_5,w0,python3action_pyaes,0.997085,1,2000.000000,1,COMPLETED_SUCCESSFULLY,1.002175,0.892694,1.894869,0.005090,0.897784,1.005702,5,-1.000000,""
python3action_floatoperation_job196_4,w0,python3action_floatoperation,0.997085,1,2000.000000,1,COMPLETED_SUCCESSFULLY,1.002160,0.991898,1.994059,0.005075,0.996974,1.005116,4,-1.000000,""
python3action_linpack_job191_8,w0,python3action_linpack,0.997085,1,2000.000000,1,COMPLETED_SUCCESSFULLY,1.002220,2.439945,3.442165,0.005135,2.445080,1.002105,8,-1.000000,""
python3action_floatoperation_job87_9,w0,python3action_floatoperation,0.997085,1,2000.000000,1,COMPLETED_SUCCESSFULLY,1.002235,2.439945,3.442180,0.005150,2.445095,1.002111,9,-1.000000,""
python3action_linpack_job9_10,w0,python3action_linpack,0.997085,1,2000.000000,1,COMPLETED_SUCCESSFULLY,1.002250,2.439945,3.442195,0.005165,2.445110,1.002117,10,-1.000000,""
python3action_image_processing_job19_0,w0,python3action_image_processing,0.997085,1,2000.000000,1,COMPLETED_SUCCESSFULLY,1.002100,3.471546,4.473646,0.005015,3.476561,1.001445,0,-1.000000,""
python3action_video_processing_job192_1,w0,python3action_video_processing,0.997085,1,2000.000000,1,COMPLETED_SUCCESSFULLY,1.002115,3.471546,4.473661,0.005030,3.476576,1.001449,1,-1.000000,""
python3action_linpack_job88_2,w0,python3action_linpack,0.997085,1,2000.000000,1,COMPLETED_SUCCESSFULLY,1.002130,5.760927,6.763057,0.005045,5.765972,1.000876,2,-1.000000,""
python3action_linpack_job92_11,w0,python3action_linpack,0.997085,1,2000.000000,1,COMPLETED_SUCCESSFULLY,1.002265,5.760927,6.763192,0.005180,5.766107,1.000899,11,-1.000000,""
python3action_linpack_job95_12,w0,python3action_linpack,0.997085,1,2000.000000,1,COMPLETED_SUCCESSFULLY,1.002280,5.760927,6.763207,0.005195,5.766122,1.000902,12,-1.000000,""
python3action_image_processing_job90_3,w0,python3action_image_processing,0.997085,1,2000.000000,1,COMPLETED_SUCCESSFULLY,1.002145,9.964414,10.966559,0.005060,9.969474,1.000508,3,-1.000000,""
90_updated,w0,python3action_imageprocessing_SampleImage_40mb_taurus,0.997085,1,2000.000000,1,COMPLETED_SUCCESSFULLY,10.966574,4.510891,15.477465,9.969489,14.480380,3.210093,3,-1.000000,""
90,w0,python3action_imageprocessing_SampleImage_40mb,0.000000,1,-1.000000,1,COMPLETED_SUCCESSFULLY,15.477480,0.000010,15.477490,15.477480,15.477490,1547749.025112,3,-1.000000,""
196_updated,w0,python3action_floatoperation_100000000_taurus,0.997085,1,2000.000000,1,COMPLETED_SUCCESSFULLY,1.994074,14.462858,16.456932,0.996989,15.459847,1.068934,4,-1.000000,""
196,w0,python3action_floatoperation_100000000,0.000000,1,-1.000000,1,COMPLETED_SUCCESSFULLY,16.456947,0.000010,16.456957,16.456947,16.456957,1645695.716807,4,-1.000000,""
96_updated,w0,python3action_imageprocessing_SampleImage_40mb_taurus,15.477495,1,2000.000000,1,COMPLETED_SUCCESSFULLY,15.482510,4.510891,19.993401,0.005015,4.515906,1.001112,3,-1.000000,""
96,w0,python3action_imageprocessing_SampleImage_40mb,0.000000,1,-1.000000,1,COMPLETED_SUCCESSFULLY,19.993416,0.000010,19.993426,19.993416,19.993426,1999342.625112,3,-1.000000,""
python3action_video_processing_job3_15,w0,python3action_video_processing_reduced_0.91,19.993431,1,2000.000000,1,COMPLETED_SUCCESSFULLY,19.998446,0.854093,20.852539,0.005015,0.859108,1.005872,3,-1.000000,""
python3action_video_processing_job99_14,w0,python3action_video_processing,16.456962,1,2000.000000,1,COMPLETED_SUCCESSFULLY,16.461977,12.398880,28.860857,0.005015,12.403895,1.000404,4,-1.000000,""
python3action_image_processing_job190_6,w0,python3action_image_processing,0.997085,1,2000.000000,1,COMPLETED_SUCCESSFULLY,1.002190,30.499683,31.501873,0.005105,30.504788,1.000167,6,-1.000000,""
python3action_image_processing_job86_7,w0,python3action_image_processing,0.997085,1,2000.000000,1,COMPLETED_SUCCESSFULLY,1.002205,30.499683,31.501888,0.005120,30.504803,1.000168,7,-1.000000,""
93_updated,w0,python3action_pyaes_4000_taurus,0.997085,1,2000.000000,1,COMPLETED_SUCCESSFULLY,1.894884,32.868452,34.763336,0.897799,33.766251,1.027315,5,-1.000000,""
93,w0,python3action_pyaes_4000,0.000000,1,-1.000000,1,COMPLETED_SUCCESSFULLY,34.763351,0.000010,34.763361,34.763351,34.763361,3476336.118766,5,-1.000000,""
9_updated,w0,python3action_linpack_5000_nova,0.997085,1,2000.000000,1,COMPLETED_SUCCESSFULLY,3.442240,34.600010,38.042250,2.445155,37.045165,1.070669,10,-1.000000,""
9,w0,python3action_linpack_5000,0.000000,1,-1.000000,1,COMPLETED_SUCCESSFULLY,38.042265,0.000010,38.042275,38.042265,38.042275,3804227.509289,10,-1.000000,""
19_updated,w0,python3action_imageprocessing_SampleImage_60mb_neowise,0.997085,1,2000.000000,1,COMPLETED_SUCCESSFULLY,4.473661,37.500000,41.973661,3.476576,40.976576,1.092709,0,-1.000000,""
19,w0,python3action_imageprocessing_SampleImage_60mb,0.000000,1,-1.000000,1,COMPLETED_SUCCESSFULLY,41.973676,0.000010,41.973686,41.973676,41.973686,4197368.600201,0,-1.000000,""
3_updated,w0,python3action_videoprocessing_SampleVideo_50mb_taurus,19.993431,1,2000.000000,1,COMPLETED_SUCCESSFULLY,20.852554,21.343685,42.196239,0.859123,22.202808,1.040252,3,-1.000000,""
3,w0,python3action_videoprocessing_SampleVideo_50mb,0.000000,1,-1.000000,1,COMPLETED_SUCCESSFULLY,42.196254,0.000010,42.196264,42.196254,42.196264,4219626.400201,3,-1.000000,""
python3action_pyaes_job195_18,w0,python3action_pyaes,41.973691,1,2000.000000,1,COMPLETED_SUCCESSFULLY,41.978706,0.243006,42.221712,0.005015,0.248021,1.020637,0,-1.000000,""
python3action_floatoperation_job40_19,w0,python3action_floatoperation,42.196269,1,2000.000000,1,COMPLETED_SUCCESSFULLY,42.201284,0.797144,42.998428,0.005015,0.802159,1.006291,3,-1.000000,""
88_updated,w0,python3action_linpack_5000_taurus,0.997085,1,2000.000000,1,COMPLETED_SUCCESSFULLY,6.763072,38.500058,45.263130,5.765987,44.266045,1.149766,2,-1.000000,""
88,w0,python3action_linpack_5000,0.000000,1,-1.000000,1,COMPLETED_SUCCESSFULLY,45.263145,0.000010,45.263155,45.263145,45.263155,4526315.500201,2,-1.000000,""
python3action_image_processing_job35_16,w0,python3action_image_processing,34.763366,1,2000.000000,1,COMPLETED_SUCCESSFULLY,34.768381,12.752895,47.521276,0.005015,12.757910,1.000393,5,-1.000000,""
python3action_floatoperation_job46_20,w0,python3action_floatoperation,45.263160,1,2000.000000,1,COMPLETED_SUCCESSFULLY,45.268175,5.760927,51.029102,0.005015,5.765942,1.000871,2,-1.000000,""
99_updated,w0,python3action_videoprocessing_SampleVideo_30mb_taurus,16.456962,1,2000.000000,1,COMPLETED_SUCCESSFULLY,28.860872,22.692917,51.553789,12.403910,35.096827,1.546598,4,-1.000000,""
99,w0,python3action_videoprocessing_SampleVideo_30mb,0.000000,1,-1.000000,1,COMPLETED_SUCCESSFULLY,51.553804,0.000010,51.553814,51.553804,51.553814,5155381.423007,4,-1.000000,""
python3action_chameleon_job51_21,w0,python3action_chameleon,51.553819,1,2000.000000,1,COMPLETED_SUCCESSFULLY,51.558834,0.867914,52.426748,0.005015,0.872929,1.005778,4,-1.000000,""
35_updated,w0,python3action_imageprocessing_SampleImage_40mb_taurus,34.763366,1,2000.000000,1,COMPLETED_SUCCESSFULLY,47.521291,5.773237,53.294528,12.757925,18.531162,3.209839,5,-1.000000,""
35,w0,python3action_imageprocessing_SampleImage_40mb,0.000000,1,-1.000000,1,COMPLETED_SUCCESSFULLY,53.294543,0.000010,53.294553,53.294543,53.294553,5329455.300201,5,-1.000000,""
python3action_facedetection_job57_22,w0,python3action_facedetection_reduced_0.91,53.294558,1,2000.000000,1,COMPLETED_SUCCESSFULLY,53.299573,1.093105,54.392678,0.005015,1.098120,1.004588,5,-1.000000,""
40_updated,w0,python3action_floatoperation_200000000_taurus,42.196269,1,2000.000000,1,COMPLETED_SUCCESSFULLY,42.998443,22.803495,65.801938,0.802174,23.605669,1.035178,3,-1.000000,""
40,w0,python3action_floatoperation_200000000,0.000000,1,-1.000000,1,COMPLETED_SUCCESSFULLY,65.801953,0.000010,65.801963,65.801953,65.801963,6580196.300201,3,-1.000000,""
python3action_modeltraining_job62_23,w0,python3action_modeltraining_reduced_1.94,65.801968,1,2000.000000,1,COMPLETED_SUCCESSFULLY,65.806983,0.000000,65.806983,0.005015,0.005015,314247012.000890,3,-1.000000,""
python3action_video_processing_job28_17,w0,python3action_video_processing,38.042280,1,2000.000000,1,COMPLETED_SUCCESSFULLY,38.047295,30.499683,68.546978,0.005015,30.504698,1.000164,10,-1.000000,""
62_updated,w0,python3action_modeltraining_reviews50mb_taurus,65.801968,1,2000.000000,1,COMPLETED_SUCCESSFULLY,65.807013,6.365052,72.172065,0.005045,6.370097,1.000793,3,-1.000000,""
62,w0,python3action_modeltraining_reviews50mb,0.000000,1,-1.000000,1,COMPLETED_SUCCESSFULLY,72.172080,0.000010,72.172090,72.172080,72.172090,7217209.027006,3,-1.000000,""
python3action_video_processing_job98_13,w0,python3action_video_processing,0.997085,1,2000.000000,1,COMPLETED_SUCCESSFULLY,1.002295,72.012455,73.014750,0.005210,72.017665,1.000072,13,-1.000000,""
57_updated,w0,python3action_facedetection_SampleVideo_50mb_taurus,53.294558,1,2000.000000,1,COMPLETED_SUCCESSFULLY,54.392693,23.836713,78.229407,1.098135,24.934849,1.046069,5,-1.000000,""
57,w0,python3action_facedetection_SampleVideo_50mb,0.000000,1,-1.000000,1,COMPLETED_SUCCESSFULLY,78.229422,0.000010,78.229432,78.229422,78.229432,7822943.200201,5,-1.000000,""
python3action_floatoperation_job73_24,w0,python3action_floatoperation,78.229437,1,2000.000000,1,COMPLETED_SUCCESSFULLY,78.234452,1.020219,79.254671,0.005015,1.025234,1.004916,5,-1.000000,""
191_updated,w0,python3action_linpack_5000_yeti,0.997085,1,2000.000000,1,COMPLETED_SUCCESSFULLY,3.442180,76.929468,80.371648,2.445095,79.374563,1.031784,8,-1.000000,""
191,w0,python3action_linpack_5000,0.000000,1,-1.000000,1,COMPLETED_SUCCESSFULLY,80.371663,0.000010,80.371673,80.371663,80.371673,8037167.339580,8,-1.000000,""
python3action_pyaes_job194_25,w0,python3action_pyaes_reduced_0.85,80.371678,1,2000.000000,1,COMPLETED_SUCCESSFULLY,80.376693,0.320244,80.696937,0.005015,0.325259,1.015660,8,-1.000000,""
68_updated,w0,python3action_floatoperation_100000000_taurus,72.172095,1,2000.000000,1,COMPLETED_SUCCESSFULLY,72.177110,11.623139,83.800249,0.005015,11.628154,1.000431,3,-1.000000,""
68,w0,python3action_floatoperation_100000000,0.000000,1,-1.000000,1,COMPLETED_SUCCESSFULLY,83.800264,0.000010,83.800274,83.800264,83.800274,8380027.400201,3,-1.000000,""
python3action_chameleon_job79_26,w0,python3action_chameleon,83.800279,1,2000.000000,1,COMPLETED_SUCCESSFULLY,83.805294,0.697503,84.502797,0.005015,0.702518,1.007190,3,-1.000000,""
92_updated,w0,python3action_linpack_5000_nova,0.997085,1,2000.000000,1,COMPLETED_SUCCESSFULLY,6.763207,81.693692,88.456899,5.766122,87.459814,1.070582,11,-1.000000,""
92,w0,python3action_linpack_5000,0.000000,1,-1.000000,1,COMPLETED_SUCCESSFULLY,88.456914,0.000010,88.456924,88.456914,88.456924,8845692.400201,11,-1.000000,""
51_updated,w0,python3action_chameleon_3000_taurus,51.553819,1,2000.000000,1,COMPLETED_SUCCESSFULLY,52.426763,37.018030,89.444793,0.872944,37.890974,1.023582,4,-1.000000,""
51,w0,python3action_chameleon_3000,0.000000,1,-1.000000,1,COMPLETED_SUCCESSFULLY,89.444808,0.000010,89.444818,89.444808,89.444818,8944481.800201,4,-1.000000,""
python3action_pyaes_job84_27,w0,python3action_pyaes_reduced_0.85,89.444823,1,2000.000000,1,COMPLETED_SUCCESSFULLY,89.449838,0.130187,89.580025,0.005015,0.135202,1.038522,4,-1.000000,""
79_updated,w0,python3action_chameleon_2000_taurus,83.800279,1,2000.000000,1,COMPLETED_SUCCESSFULLY,84.502812,8.883396,93.386208,0.702533,9.585929,1.079084,3,-1.000000,""
79,w0,python3action_chameleon_2000,0.000000,1,-1.000000,1,COMPLETED_SUCCESSFULLY,93.386223,0.000010,93.386233,93.386223,93.386233,9338623.300201,3,-1.000000,""
118_updated,w0,python3action_floatoperation_100000000_taurus,93.386238,1,2000.000000,1,COMPLETED_SUCCESSFULLY,93.391253,11.623139,105.014392,0.005015,11.628154,1.000431,3,-1.000000,""
118,w0,python3action_floatoperation_100000000,0.000000,1,-1.000000,1,COMPLETED_SUCCESSFULLY,105.014407,0.000010,105.014417,105.014407,105.014417,10501441.700201,3,-1.000000,""
73_updated,w0,python3action_floatoperation_200000000_taurus,78.229437,1,2000.000000,1,COMPLETED_SUCCESSFULLY,79.254686,29.184915,108.439601,1.025249,30.210164,1.035129,5,-1.000000,""
73,w0,python3action_floatoperation_200000000,0.000000,1,-1.000000,1,COMPLETED_SUCCESSFULLY,108.439616,0.000010,108.439626,108.439616,108.439626,10843962.649533,5,-1.000000,""
python3action_modeltraining_job129_28,w0,python3action_modeltraining_reduced_1.88,108.439631,1,2000.000000,1,COMPLETED_SUCCESSFULLY,108.444646,0.000000,108.444646,0.005015,0.005015,245580650.515658,5,-1.000000,""
86_updated,w0,python3action_imageprocessing_SampleImage_40mb_troll,0.997085,1,2000.000000,1,COMPLETED_SUCCESSFULLY,31.501918,78.306013,109.807931,30.504833,108.810846,1.389559,7,-1.000000,""
86,w0,python3action_imageprocessing_SampleImage_40mb,0.000000,1,-1.000000,1,COMPLETED_SUCCESSFULLY,109.807946,0.000010,109.807956,109.807946,109.807956,10980795.600201,7,-1.000000,""
123_updated,w0,python3action_modeltraining_reviews50mb_taurus,105.014422,1,2000.000000,1,COMPLETED_SUCCESSFULLY,105.019437,6.365052,111.384489,0.005015,6.370067,1.000788,3,-1.000000,""
123,w0,python3action_modeltraining_reviews50mb,0.000000,1,-1.000000,1,COMPLETED_SUCCESSFULLY,111.384504,0.000010,111.384514,111.384504,111.384514,11138451.426604,3,-1.000000,""
python3action_linpack_job89_29,w0,python3action_linpack,109.807961,1,2000.000000,1,COMPLETED_SUCCESSFULLY,109.812976,2.439945,112.252921,0.005015,2.444960,1.002055,7,-1.000000,""
195_updated,w0,python3action_pyaes_3000_neowise,41.973691,1,2000.000000,1,COMPLETED_SUCCESSFULLY,42.221727,72.500000,114.721727,0.248036,72.748036,1.003421,0,-1.000000,""
195,w0,python3action_pyaes_3000,0.000000,1,-1.000000,1,COMPLETED_SUCCESSFULLY,114.721742,0.000010,114.721752,114.721742,114.721752,11472175.200402,0,-1.000000,""
python3action_video_processing_job199_30,w0,python3action_video_processing_reduced_0.91,114.721757,1,2000.000000,1,COMPLETED_SUCCESSFULLY,114.726772,0.297561,115.024333,0.005015,0.302576,1.016854,0,-1.000000,""
84_updated,w0,python3action_pyaes_4000_taurus,89.444823,1,2000.000000,1,COMPLETED_SUCCESSFULLY,89.580040,31.956037,121.536077,0.135217,32.091254,1.004231,4,-1.000000,""
84,w0,python3action_pyaes_4000,0.000000,1,-1.000000,1,COMPLETED_SUCCESSFULLY,121.536092,0.000010,121.536102,121.536092,121.536102,12153610.246543,4,-1.000000,""
python3action_modeltraining_job14_31,w0,python3action_modeltraining_reduced_1.0,121.536107,1,2000.000000,1,COMPLETED_SUCCESSFULLY,121.541122,0.000000,121.541122,0.005015,0.005015,252612308.340014,4,-1.000000,""
129_updated,w0,python3action_modeltraining_reviews100mb_taurus,108.439631,1,2000.000000,1,COMPLETED_SUCCESSFULLY,108.444676,15.619590,124.064266,0.005045,15.624635,1.000323,5,-1.000000,""
129,w0,python3action_modeltraining_reviews100mb,0.000000,1,-1.000000,1,COMPLETED_SUCCESSFULLY,124.064281,0.000010,124.064291,124.064281,124.064291,12406429.131091,5,-1.000000,""
14_updated,w0,python3action_modeltraining_reviews50mb_taurus,121.536107,1,2000.000000,1,COMPLETED_SUCCESSFULLY,121.541152,7.920137,129.461289,0.005045,7.925182,1.000637,4,-1.000000,""
14,w0,python3action_modeltraining_reviews50mb,0.000000,1,-1.000000,1,COMPLETED_SUCCESSFULLY,129.461304,0.000010,129.461314,129.461304,129.461314,12946131.400201,4,-1.000000,""
144_updated,w0,python3action_imageprocessing_SampleImage_40mb_taurus,124.064296,1,2000.000000,1,COMPLETED_SUCCESSFULLY,124.069311,5.773237,129.842548,0.005015,5.778252,1.000869,5,-1.000000,""
144,w0,python3action_imageprocessing_SampleImage_40mb,0.000000,1,-1.000000,1,COMPLETED_SUCCESSFULLY,129.842563,0.000010,129.842573,129.842563,129.842573,12984257.300201,5,-1.000000,""
134_updated,w0,python3action_floatoperation_200000000_taurus,111.384519,1,2000.000000,1,COMPLETED_SUCCESSFULLY,111.389534,22.803495,134.193029,0.005015,22.808510,1.000220,3,-1.000000,""
134,w0,python3action_floatoperation_200000000,0.000000,1,-1.000000,1,COMPLETED_SUCCESSFULLY,134.193044,0.000010,134.193054,134.193044,134.193054,13419305.400201,3,-1.000000,""
149_updated,w0,python3action_modeltraining_reviews50mb_taurus,129.461319,1,2000.000000,1,COMPLETED_SUCCESSFULLY,129.466334,7.920137,137.386471,0.005015,7.925152,1.000633,4,-1.000000,""
149,w0,python3action_modeltraining_reviews50mb,0.000000,1,-1.000000,1,COMPLETED_SUCCESSFULLY,137.386486,0.000010,137.386496,137.386486,137.386496,13738649.600201,4,-1.000000,""
python3action_facedetection_job164_32,w0,python3action_facedetection_reduced_1.83,137.386501,1,2000.000000,1,COMPLETED_SUCCESSFULLY,137.391516,0.000000,137.391516,0.005015,0.005015,252431612.839771,4,-1.000000,""
87_updated,w0,python3action_floatoperation_200000000_nova,0.997085,1,2000.000000,1,COMPLETED_SUCCESSFULLY,3.442210,135.399990,138.842201,2.445125,137.845116,1.018059,9,-1.000000,""
87,w0,python3action_floatoperation_200000000,0.000000,1,-1.000000,1,COMPLETED_SUCCESSFULLY,138.842216,0.000010,138.842226,138.842216,138.842226,13884222.600201,9,-1.000000,""
159_updated,w0,python3action_floatoperation_100000000_taurus,134.193059,1,2000.000000,1,COMPLETED_SUCCESSFULLY,134.198074,11.623139,145.821213,0.005015,11.628154,1.000431,3,-1.000000,""
159,w0,python3action_floatoperation_100000000,0.000000,1,-1.000000,1,COMPLETED_SUCCESSFULLY,145.821228,0.000010,145.821238,145.821228,145.821238,14582123.800201,3,-1.000000,""
153_updated,w0,python3action_imageprocessing_SampleImage_60mb_taurus,129.842578,1,2000.000000,1,COMPLETED_SUCCESSFULLY,129.847593,17.974940,147.822533,0.005015,17.979955,1.000279,5,-1.000000,""
153,w0,python3action_imageprocessing_SampleImage_60mb,0.000000,1,-1.000000,1,COMPLETED_SUCCESSFULLY,147.822548,0.000010,147.822558,147.822548,147.822558,14782255.826503,5,-1.000000,""
168_updated,w0,python3action_imageprocessing_SampleImage_60mb_taurus,145.821243,1,2000.000000,1,COMPLETED_SUCCESSFULLY,145.826258,14.044634,159.870892,0.005015,14.049649,1.000357,3,-1.000000,""
168,w0,python3action_imageprocessing_SampleImage_60mb,0.000000,1,-1.000000,1,COMPLETED_SUCCESSFULLY,159.870907,0.000010,159.870917,159.870907,159.870917,15987091.716982,3,-1.000000,""
python3action_pyaes_job173_34,w0,python3action_pyaes_reduced_0.85,159.870922,1,2000.000000,1,COMPLETED_SUCCESSFULLY,159.875937,0.104625,159.980562,0.005015,0.109640,1.047933,3,-1.000000,""
164_updated,w0,python3action_facedetection_SampleVideo_30mb_taurus,137.386501,1,2000.000000,1,COMPLETED_SUCCESSFULLY,137.391546,29.993209,167.384755,0.005045,29.998254,1.000168,4,-1.000000,""
164,w0,python3action_facedetection_SampleVideo_30mb,0.000000,1,-1.000000,1,COMPLETED_SUCCESSFULLY,167.384770,0.000010,167.384780,167.384770,167.384780,16738478.003883,4,-1.000000,""
192_updated,w0,python3action_videoprocessing_SampleVideo_50mb_neowise,0.997085,1,2000.000000,1,COMPLETED_SUCCESSFULLY,4.473691,164.799998,169.273689,3.476606,168.276604,1.021096,1,-1.000000,""
192,w0,python3action_videoprocessing_SampleVideo_50mb,0.000000,1,-1.000000,1,COMPLETED_SUCCESSFULLY,169.273704,0.000010,169.273714,169.273704,169.273714,16927371.400201,1,-1.000000,""
python3action_modeltraining_job21_35,w0,python3action_modeltraining_reduced_1.0,169.273719,1,2000.000000,1,COMPLETED_SUCCESSFULLY,169.278734,0.000000,169.278734,0.005015,0.005015,900253555.469388,1,-1.000000,""
python3action_facedetection_job39_33,w0,python3action_facedetection,138.842231,1,2000.000000,1,COMPLETED_SUCCESSFULLY,138.847246,30.499683,169.346929,0.005015,30.504698,1.000164,9,-1.000000,""
173_updated,w0,python3action_pyaes_3000_taurus,159.870922,1,2000.000000,1,COMPLETED_SUCCESSFULLY,159.980577,14.639623,174.620201,0.109655,14.749279,1.007490,3,-1.000000,""
173,w0,python3action_pyaes_3000,0.000000,1,-1.000000,1,COMPLETED_SUCCESSFULLY,174.620216,0.000010,174.620226,174.620216,174.620226,17462022.600201,3,-1.000000,""
170_updated,w0,python3action_facedetection_SampleVideo_30mb_taurus,147.822563,1,2000.000000,1,COMPLETED_SUCCESSFULLY,147.827578,30.849580,178.677158,0.005015,30.854595,1.000163,5,-1.000000,""
170,w0,python3action_facedetection_SampleVideo_30mb,0.000000,1,-1.000000,1,COMPLETED_SUCCESSFULLY,178.677173,0.000010,178.677183,178.677173,178.677183,17867718.329934,5,-1.000000,""
21_updated,w0,python3action_modeltraining_reviews50mb_neowise,169.273719,1,2000.000000,1,COMPLETED_SUCCESSFULLY,169.278764,22.799998,192.078762,0.005045,22.805043,1.000221,1,-1.000000,""
21,w0,python3action_modeltraining_reviews50mb,0.000000,1,-1.000000,1,COMPLETED_SUCCESSFULLY,192.078777,0.000010,192.078787,192.078777,192.078787,19207878.700201,1,-1.000000,""
python3action_floatoperation_job24_36,w0,python3action_floatoperation,192.078792,1,2000.000000,1,COMPLETED_SUCCESSFULLY,192.083807,0.277720,192.361527,0.005015,0.282735,1.018058,1,-1.000000,""
190_updated,w0,python3action_imageprocessing_SampleImage_60mb_gemini,0.997085,1,2000.000000,1,COMPLETED_SUCCESSFULLY,31.501888,162.837786,194.339674,30.504803,193.342589,1.187332,6,-1.000000,""
190,w0,python3action_imageprocessing_SampleImage_60mb,0.000000,1,-1.000000,1,COMPLETED_SUCCESSFULLY,194.339689,0.000010,194.339699,194.339689,194.339699,19433969.900201,6,-1.000000,""
python3action_modeltraining_job193_37,w0,python3action_modeltraining_reduced_0.94,194.339704,1,2000.000000,1,COMPLETED_SUCCESSFULLY,194.344719,0.000000,194.344719,0.005015,0.005015,1713103852.223301,6,-1.000000,""
107_updated,w0,python3action_videoprocessing_SampleVideo_50mb_taurus,174.620231,1,2000.000000,1,COMPLETED_SUCCESSFULLY,174.625246,21.343685,195.968931,0.005015,21.348700,1.000235,3,-1.000000,""
107,w0,python3action_videoprocessing_SampleVideo_50mb,0.000000,1,-1.000000,1,COMPLETED_SUCCESSFULLY,195.968946,0.000010,195.968956,195.968946,195.968956,19596895.600201,3,-1.000000,""
178_updated,w0,python3action_facedetection_SampleVideo_30mb_taurus,167.384785,1,2000.000000,1,COMPLETED_SUCCESSFULLY,167.389800,29.993209,197.383009,0.005015,29.998224,1.000167,4,-1.000000,""
178,w0,python3action_facedetection_SampleVideo_30mb,0.000000,1,-1.000000,1,COMPLETED_SUCCESSFULLY,197.383024,0.000010,197.383034,197.383024,197.383034,19738303.403481,4,-1.000000,""
199_updated,w0,python3action_videoprocessing_SampleVideo_30mb_neowise,114.721757,1,2000.000000,1,COMPLETED_SUCCESSFULLY,115.024348,92.799998,207.824346,0.302591,93.102589,1.003261,0,-1.000000,""
199,w0,python3action_videoprocessing_SampleVideo_30mb,0.000000,1,-1.000000,1,COMPLETED_SUCCESSFULLY,207.824361,0.000010,207.824371,207.824361,207.824371,20782437.100201,0,-1.000000,""
11_updated,w0,python3action_floatoperation_200000000_taurus,178.677188,1,2000.000000,1,COMPLETED_SUCCESSFULLY,178.682203,29.184915,207.867118,0.005015,29.189930,1.000172,5,-1.000000,""
11,w0,python3action_floatoperation_200000000,0.000000,1,-1.000000,1,COMPLETED_SUCCESSFULLY,207.867133,0.000010,207.867143,207.867133,207.867143,20786714.314402,5,-1.000000,""
python3action_chameleon_job29_38,w0,python3action_chameleon_reduced_0.85,207.829361,1,2000.000000,1,COMPLETED_SUCCESSFULLY,207.834376,0.036451,207.870827,0.005015,0.041466,1.137582,0,-1.000000,""
28_updated,w0,python3action_videoprocessing_SampleVideo_50mb_nova,38.042280,1,2000.000000,1,COMPLETED_SUCCESSFULLY,68.546993,139.600010,208.147003,30.504713,170.104723,1.218515,10,-1.000000,""
28,w0,python3action_videoprocessing_SampleVideo_50mb,0.000000,1,-1.000000,1,COMPLETED_SUCCESSFULLY,208.147018,0.000010,208.147028,208.147018,208.147028,20814702.800201,10,-1.000000,""
112_updated,w0,python3action_modeltraining_reviews100mb_taurus,195.968961,1,2000.000000,1,COMPLETED_SUCCESSFULLY,195.973976,12.204293,208.178269,0.005015,12.209308,1.000411,3,-1.000000,""
112,w0,python3action_modeltraining_reviews100mb,0.000000,1,-1.000000,1,COMPLETED_SUCCESSFULLY,208.178284,0.000010,208.178294,208.178284,208.178294,20817829.400201,3,-1.000000,""
python3action_pyaes_job44_39,w0,python3action_pyaes_reduced_0.85,208.152018,1,2000.000000,1,COMPLETED_SUCCESSFULLY,208.157033,0.320244,208.477277,0.005015,0.325259,1.015660,10,-1.000000,""
46_updated,w0,python3action_floatoperation_200000000_taurus,45.263160,1,2000.000000,1,COMPLETED_SUCCESSFULLY,51.029117,164.800023,215.829140,5.765957,170.565980,1.034988,2,-1.000000,""
46,w0,python3action_floatoperation_200000000,0.000000,1,-1.000000,1,COMPLETED_SUCCESSFULLY,215.829155,0.000010,215.829165,215.829155,215.829165,21582916.530010,2,-1.000000,""
29_updated,w0,python3action_chameleon_2000_neowise,207.829361,1,2000.000000,1,COMPLETED_SUCCESSFULLY,207.877148,24.200002,232.077150,0.047787,24.247789,1.001975,0,-1.000000,""
29,w0,python3action_chameleon_2000,0.000000,1,-1.000000,1,COMPLETED_SUCCESSFULLY,232.077165,0.000010,232.077175,232.077165,232.077175,23207717.522787,0,-1.000000,""
24_updated,w0,python3action_floatoperation_200000000_neowise,192.078792,1,2000.000000,1,COMPLETED_SUCCESSFULLY,192.361542,129.200002,321.561545,0.282750,129.482753,1.002188,1,-1.000000,""
24,w0,python3action_floatoperation_200000000,0.000000,1,-1.000000,1,COMPLETED_SUCCESSFULLY,321.561560,0.000010,321.561570,321.561560,321.561570,32156157.000201,1,-1.000000,""
python3action_facedetection_job4_40,w0,python3action_facedetection_reduced_1.83,321.566560,1,2000.000000,1,COMPLETED_SUCCESSFULLY,321.571575,0.000000,321.571575,0.005015,0.005015,900253555.479592,1,-1.000000,""
98_updated,w0,python3action_videoprocessing_SampleVideo_30mb_nova,0.997085,1,2000.000000,1,COMPLETED_SUCCESSFULLY,73.014765,252.164226,325.178991,72.017680,324.181906,1.285598,13,-1.000000,""
98,w0,python3action_videoprocessing_SampleVideo_30mb,0.000000,1,-1.000000,1,COMPLETED_SUCCESSFULLY,325.179006,0.000010,325.179016,325.179006,325.179016,32517901.600201,13,-1.000000,""
python3action_linpack_job5_41,w0,python3action_linpack,325.184006,1,2000.000000,1,COMPLETED_SUCCESSFULLY,325.189021,5.760927,330.949948,0.005015,5.765942,1.000871,13,-1.000000,""
194_updated,w0,python3action_pyaes_4000_yeti,80.371678,1,2000.000000,1,COMPLETED_SUCCESSFULLY,80.696952,252.312656,333.009608,0.325274,252.637930,1.001289,8,-1.000000,""
194,w0,python3action_pyaes_4000,0.000000,1,-1.000000,1,COMPLETED_SUCCESSFULLY,333.009623,0.000010,333.009633,333.009623,333.009633,33300963.300201,8,-1.000000,""
python3action_floatoperation_job198_42,w0,python3action_floatoperation,333.014623,1,2000.000000,1,COMPLETED_SUCCESSFULLY,333.019638,2.439945,335.459583,0.005015,2.444960,1.002055,8,-1.000000,""
44_updated,w0,python3action_pyaes_4000_nova,208.152018,1,2000.000000,1,COMPLETED_SUCCESSFULLY,208.477292,139.600010,348.077302,0.325274,139.925284,1.002330,10,-1.000000,""
44,w0,python3action_pyaes_4000,0.000000,1,-1.000000,1,COMPLETED_SUCCESSFULLY,348.077317,0.000010,348.077327,348.077317,348.077327,34807732.700201,10,-1.000000,""
python3action_image_processing_job55_43,w0,python3action_image_processing_reduced_0.86,348.082317,1,2000.000000,1,COMPLETED_SUCCESSFULLY,348.087332,4.121579,352.208911,0.005015,4.126594,1.001217,10,-1.000000,""
193_updated,w0,python3action_modeltraining_reviews100mb_gemini,194.339704,1,2000.000000,1,COMPLETED_SUCCESSFULLY,194.344749,189.773360,384.118109,0.005045,189.778405,1.000027,6,-1.000000,""
193,w0,python3action_modeltraining_reviews100mb,0.000000,1,-1.000000,1,COMPLETED_SUCCESSFULLY,384.118124,0.000010,384.118134,384.118124,384.118134,38411813.404320,6,-1.000000,""
python3action_pyaes_job91_44,w0,python3action_pyaes,384.123124,1,2000.000000,1,COMPLETED_SUCCESSFULLY,384.128139,2.134958,386.263097,0.005015,2.139973,1.002349,6,-1.000000,""
34_updated,w0,python3action_videoprocessing_SampleVideo_50mb_neowise,232.082165,1,2000.000000,1,COMPLETED_SUCCESSFULLY,232.087180,164.799998,396.887178,0.005015,164.805013,1.000030,0,-1.000000,""
34,w0,python3action_videoprocessing_SampleVideo_50mb,0.000000,1,-1.000000,1,COMPLETED_SUCCESSFULLY,396.887193,0.000010,396.887203,396.887193,396.887203,39688720.300201,0,-1.000000,""
python3action_facedetection_job45_45,w0,python3action_facedetection_reduced_1.83,396.892193,1,2000.000000,1,COMPLETED_SUCCESSFULLY,396.897208,0.000000,396.897208,0.005015,0.005015,900253555.479592,0,-1.000000,""
39_updated,w0,python3action_facedetection_SampleVideo_50mb_nova,138.842231,1,2000.000000,1,COMPLETED_SUCCESSFULLY,169.346944,230.799980,400.146924,30.504713,261.304693,1.132169,9,-1.000000,""
39,w0,python3action_facedetection_SampleVideo_50mb,0.000000,1,-1.000000,1,COMPLETED_SUCCESSFULLY,400.146939,0.000010,400.146949,400.146939,400.146949,40014694.946609,9,-1.000000,""
python3action_pyaes_job60_46,w0,python3action_pyaes,400.151939,1,2000.000000,1,COMPLETED_SUCCESSFULLY,400.156954,2.134958,402.291912,0.005015,2.139973,1.002349,9,-1.000000,""
55_updated,w0,python3action_imageprocessing_SampleImage_60mb_nova,348.082317,1,2000.000000,1,COMPLETED_SUCCESSFULLY,352.208926,103.750012,455.958938,4.126609,107.876621,1.039775,10,-1.000000,""
55,w0,python3action_imageprocessing_SampleImage_60mb,0.000000,1,-1.000000,1,COMPLETED_SUCCESSFULLY,455.958953,0.000010,455.958963,455.958953,455.958963,45595896.321522,10,-1.000000,""
198_updated,w0,python3action_floatoperation_100000000_yeti,333.014623,1,2000.000000,1,COMPLETED_SUCCESSFULLY,335.459598,127.551409,463.011007,2.444975,129.996384,1.019169,8,-1.000000,""
198,w0,python3action_floatoperation_100000000,0.000000,1,-1.000000,1,COMPLETED_SUCCESSFULLY,463.011022,0.000010,463.011032,463.011022,463.011032,46301103.247288,8,-1.000000,""
60_updated,w0,python3action_pyaes_3000_nova,400.151939,1,2000.000000,1,COMPLETED_SUCCESSFULLY,402.291927,78.200020,480.491947,2.139988,80.340008,1.027366,9,-1.000000,""
60,w0,python3action_pyaes_3000,0.000000,1,-1.000000,1,COMPLETED_SUCCESSFULLY,480.491962,0.000010,480.491972,480.491962,480.491972,48049197.200201,9,-1.000000,""
4_updated,w0,python3action_facedetection_SampleVideo_30mb_neowise,321.566560,1,2000.000000,1,COMPLETED_SUCCESSFULLY,321.571605,162.200002,483.771607,0.005045,162.205047,1.000031,1,-1.000000,""
4,w0,python3action_facedetection_SampleVideo_30mb,0.000000,1,-1.000000,1,COMPLETED_SUCCESSFULLY,483.771622,0.000010,483.771632,483.771622,483.771632,48377163.223189,1,-1.000000,""
python3action_chameleon_job50_47,w0,python3action_chameleon,483.776622,1,2000.000000,1,COMPLETED_SUCCESSFULLY,483.781637,0.243006,484.024643,0.005015,0.248021,1.020637,1,-1.000000,""
50_updated,w0,python3action_chameleon_3000_neowise,483.776622,1,2000.000000,1,COMPLETED_SUCCESSFULLY,484.024658,55.799998,539.824656,0.248036,56.048034,1.004445,1,-1.000000,""
50,w0,python3action_chameleon_3000,0.000000,1,-1.000000,1,COMPLETED_SUCCESSFULLY,539.824671,0.000010,539.824681,539.824671,539.824681,53982468.100201,1,-1.000000,""
python3action_pyaes_job56_48,w0,python3action_pyaes_reduced_0.85,539.829671,1,2000.000000,1,COMPLETED_SUCCESSFULLY,539.834686,0.036451,539.871137,0.005015,0.041466,1.137582,1,-1.000000,""
20_updated,w0,python3action_linpack_5000_yeti,463.016022,1,2000.000000,1,COMPLETED_SUCCESSFULLY,463.021037,76.929468,539.950505,0.005015,76.934483,1.000065,8,-1.000000,""
20,w0,python3action_linpack_5000,0.000000,1,-1.000000,1,COMPLETED_SUCCESSFULLY,539.950520,0.000010,539.950530,539.950520,539.950530,53995053.008393,8,-1.000000,""
45_updated,w0,python3action_facedetection_SampleVideo_30mb_neowise,396.892193,1,2000.000000,1,COMPLETED_SUCCESSFULLY,396.897238,162.200002,559.097240,0.005045,162.205047,1.000031,0,-1.000000,""
45,w0,python3action_facedetection_SampleVideo_30mb,0.000000,1,-1.000000,1,COMPLETED_SUCCESSFULLY,559.097255,0.000010,559.097265,559.097255,559.097265,55909726.523189,0,-1.000000,""
python3action_facedetection_job23_49,w0,python3action_facedetection,539.955520,1,2000.000000,1,COMPLETED_SUCCESSFULLY,539.960535,30.499683,570.460218,0.005015,30.504698,1.000164,8,-1.000000,""
61_updated,w0,python3action_imageprocessing_SampleImage_40mb_neowise,559.102255,1,2000.000000,1,COMPLETED_SUCCESSFULLY,559.107270,20.909089,580.016359,0.005015,20.914104,1.000240,0,-1.000000,""
61,w0,python3action_imageprocessing_SampleImage_40mb,0.000000,1,-1.000000,1,COMPLETED_SUCCESSFULLY,580.016374,0.000010,580.016384,580.016374,580.016384,58001638.400201,0,-1.000000,""
python3action_floatoperation_job67_50,w0,python3action_floatoperation,580.021374,1,2000.000000,1,COMPLETED_SUCCESSFULLY,580.026389,0.277720,580.304109,0.005015,0.282735,1.018058,0,-1.000000,""
66_updated,w0,python3action_videoprocessing_SampleVideo_50mb_nova,455.963953,1,2000.000000,1,COMPLETED_SUCCESSFULLY,455.968968,139.600010,595.568978,0.005015,139.605025,1.000036,10,-1.000000,""
66,w0,python3action_videoprocessing_SampleVideo_50mb,0.000000,1,-1.000000,1,COMPLETED_SUCCESSFULLY,595.568993,0.000010,595.569003,595.568993,595.569003,59556900.300201,10,-1.000000,""
56_updated,w0,python3action_pyaes_3000_neowise,539.829671,1,2000.000000,1,COMPLETED_SUCCESSFULLY,539.871152,72.500000,612.371152,0.041481,72.541481,1.000572,1,-1.000000,""
56,w0,python3action_pyaes_3000,0.000000,1,-1.000000,1,COMPLETED_SUCCESSFULLY,612.371167,0.000010,612.371177,612.371167,612.371177,61237117.700402,1,-1.000000,""
71_updated,w0,python3action_pyaes_4000_nova,480.496962,1,2000.000000,1,COMPLETED_SUCCESSFULLY,480.501977,139.600010,620.101987,0.005015,139.605025,1.000036,9,-1.000000,""
71,w0,python3action_pyaes_4000,0.000000,1,-1.000000,1,COMPLETED_SUCCESSFULLY,620.102002,0.000010,620.102012,620.102002,620.102012,62010201.200201,9,-1.000000,""
67_updated,w0,python3action_floatoperation_100000000_neowise,580.021374,1,2000.000000,1,COMPLETED_SUCCESSFULLY,580.304124,64.600001,644.904125,0.282750,64.882751,1.004377,0,-1.000000,""
67,w0,python3action_floatoperation_100000000,0.000000,1,-1.000000,1,COMPLETED_SUCCESSFULLY,644.904140,0.000010,644.904150,644.904140,644.904150,64490415.044619,0,-1.000000,""
python3action_linpack_job78_51,w0,python3action_linpack_reduced_1.7,644.909140,1,2000.000000,1,COMPLETED_SUCCESSFULLY,644.914155,0.000000,644.914155,0.005015,0.005015,900253555.469388,0,-1.000000,""
95_updated,w0,python3action_linpack_6000_nova,0.997085,1,2000.000000,1,COMPLETED_SUCCESSFULLY,6.763237,651.660477,658.423715,5.766152,657.426630,1.008848,12,-1.000000,""
95,w0,python3action_linpack_6000,0.000000,1,-1.000000,1,COMPLETED_SUCCESSFULLY,658.423730,0.000010,658.423740,658.423730,658.423740,65842374.000201,12,-1.000000,""
77_updated,w0,python3action_pyaes_3000_nova,595.573993,1,2000.000000,1,COMPLETED_SUCCESSFULLY,595.579008,78.200020,673.779028,0.005015,78.205035,1.000064,10,-1.000000,""
77,w0,python3action_pyaes_3000,0.000000,1,-1.000000,1,COMPLETED_SUCCESSFULLY,673.779043,0.000010,673.779053,673.779043,673.779053,67377905.300201,10,-1.000000,""
python3action_modeltraining_job121_52,w0,python3action_modeltraining_reduced_1.94,673.784043,1,2000.000000,1,COMPLETED_SUCCESSFULLY,673.789058,0.000000,673.789058,0.005015,0.005015,102587033.951163,10,-1.000000,""
82_updated,w0,python3action_pyaes_3000_nova,620.107002,1,2000.000000,1,COMPLETED_SUCCESSFULLY,620.112017,78.200020,698.312037,0.005015,78.205035,1.000064,9,-1.000000,""
82,w0,python3action_pyaes_3000,0.000000,1,-1.000000,1,COMPLETED_SUCCESSFULLY,698.312052,0.000010,698.312062,698.312052,698.312062,69831206.200201,9,-1.000000,""
python3action_chameleon_job127_53,w0,python3action_chameleon_reduced_0.85,698.317052,1,2000.000000,1,COMPLETED_SUCCESSFULLY,698.322067,0.320244,698.642311,0.005015,0.325259,1.015660,9,-1.000000,""
89_updated,w0,python3action_linpack_6000_troll,109.807961,1,2000.000000,1,COMPLETED_SUCCESSFULLY,112.252936,620.708201,732.961137,2.444975,623.153176,1.003939,7,-1.000000,""
89,w0,python3action_linpack_6000,0.000000,1,-1.000000,1,COMPLETED_SUCCESSFULLY,732.961152,0.000010,732.961162,732.961152,732.961162,73296116.234510,7,-1.000000,""
python3action_modeltraining_job197_54,w0,python3action_modeltraining_reduced_0.94,732.966152,1,2000.000000,1,COMPLETED_SUCCESSFULLY,732.971167,0.000000,732.971167,0.005015,0.005015,1696631699.807692,7,-1.000000,""
33_updated,w0,python3action_linpack_6000_nova,88.456929,1,2000.000000,1,COMPLETED_SUCCESSFULLY,88.461944,651.660477,740.122421,0.005015,651.665492,1.000008,11,-1.000000,""
33,w0,python3action_linpack_6000,0.000000,1,-1.000000,1,COMPLETED_SUCCESSFULLY,740.122436,0.000010,740.122446,740.122436,740.122446,74012244.645760,11,-1.000000,""
116_updated,w0,python3action_linpack_5000_nova,658.428730,1,2000.000000,1,COMPLETED_SUCCESSFULLY,658.433745,81.693692,740.127437,0.005015,81.698707,1.000061,12,-1.000000,""
116,w0,python3action_linpack_5000,0.000000,1,-1.000000,1,COMPLETED_SUCCESSFULLY,740.132481,0.000010,740.132491,740.132481,740.132491,74013249.100602,12,-1.000000,""
python3action_chameleon_job132_55,w0,python3action_chameleon_reduced_0.85,740.127436,1,2000.000000,1,COMPLETED_SUCCESSFULLY,740.132451,0.756124,740.888575,0.005015,0.761139,1.006633,11,-1.000000,""
72_updated,w0,python3action_floatoperation_200000000_neowise,612.376167,1,2000.000000,1,COMPLETED_SUCCESSFULLY,612.381182,129.200002,741.581184,0.005015,129.205017,1.000039,1,-1.000000,""
72,w0,python3action_floatoperation_200000000,0.000000,1,-1.000000,1,COMPLETED_SUCCESSFULLY,741.581199,0.000010,741.581209,741.581199,741.581209,74158120.922787,1,-1.000000,""
91_updated,w0,python3action_pyaes_4000_gemini,384.123124,1,2000.000000,1,COMPLETED_SUCCESSFULLY,386.263112,365.007620,751.270732,2.139988,367.147608,1.005863,6,-1.000000,""
91,w0,python3action_pyaes_4000,0.000000,1,-1.000000,1,COMPLETED_SUCCESSFULLY,751.270747,0.000010,751.270757,751.270747,751.270757,75127075.703562,6,-1.000000,""
121_updated,w0,python3action_modeltraining_reviews100mb_nova,673.784043,1,2000.000000,1,COMPLETED_SUCCESSFULLY,673.789088,79.600010,753.389098,0.005045,79.605055,1.000063,10,-1.000000,""
121,w0,python3action_modeltraining_reviews100mb,0.000000,1,-1.000000,1,COMPLETED_SUCCESSFULLY,753.389113,0.000010,753.389123,753.389113,753.389123,75338912.300201,10,-1.000000,""
78_updated,w0,python3action_linpack_6000_neowise,644.909140,1,2000.000000,1,COMPLETED_SUCCESSFULLY,644.914185,108.600001,753.514186,0.005045,108.605046,1.000046,0,-1.000000,""
78,w0,python3action_linpack_6000,0.000000,1,-1.000000,1,COMPLETED_SUCCESSFULLY,753.514201,0.000010,753.514211,753.514201,753.514211,75351421.111996,0,-1.000000,""
127_updated,w0,python3action_chameleon_2000_nova,698.317052,1,2000.000000,1,COMPLETED_SUCCESSFULLY,698.642326,70.600010,769.242336,0.325274,70.925284,1.004607,9,-1.000000,""
127,w0,python3action_chameleon_2000,0.000000,1,-1.000000,1,COMPLETED_SUCCESSFULLY,769.242351,0.000010,769.242361,769.242351,769.242361,76924236.100201,9,-1.000000,""
142_updated,w0,python3action_linpack_5000_nova,753.394113,1,2000.000000,1,COMPLETED_SUCCESSFULLY,753.399128,34.600010,787.999138,0.005015,34.605025,1.000145,10,-1.000000,""
142,w0,python3action_linpack_5000,0.000000,1,-1.000000,1,COMPLETED_SUCCESSFULLY,787.999153,0.000010,787.999163,787.999153,787.999163,78799916.300201,10,-1.000000,""
python3action_floatoperation_job151_56,w0,python3action_floatoperation,788.004153,1,2000.000000,1,COMPLETED_SUCCESSFULLY,788.009168,2.439945,790.449113,0.005015,2.444960,1.002055,10,-1.000000,""
83_updated,w0,python3action_chameleon_3000_neowise,741.586199,1,2000.000000,1,COMPLETED_SUCCESSFULLY,741.591214,55.799998,797.391212,0.005015,55.805013,1.000090,1,-1.000000,""
83,w0,python3action_chameleon_3000,0.000000,1,-1.000000,1,COMPLETED_SUCCESSFULLY,797.391227,0.000010,797.391237,797.391227,797.391237,79739123.700201,1,-1.000000,""
117_updated,w0,python3action_pyaes_3000_neowise,753.519201,1,2000.000000,1,COMPLETED_SUCCESSFULLY,753.524216,72.500000,826.024216,0.005015,72.505015,1.000069,0,-1.000000,""
117,w0,python3action_pyaes_3000,0.000000,1,-1.000000,1,COMPLETED_SUCCESSFULLY,826.024231,0.000010,826.024241,826.024231,826.024241,82602424.100402,0,-1.000000,""
147_updated,w0,python3action_chameleon_2000_nova,769.247351,1,2000.000000,1,COMPLETED_SUCCESSFULLY,769.252366,70.600010,839.852376,0.005015,70.605025,1.000071,9,-1.000000,""
147,w0,python3action_chameleon_2000,0.000000,1,-1.000000,1,COMPLETED_SUCCESSFULLY,839.852391,0.000010,839.852401,839.852391,839.852401,83985240.100201,9,-1.000000,""
2_updated,w0,python3action_modeltraining_reviews50mb_gemini,751.275747,1,2000.000000,1,COMPLETED_SUCCESSFULLY,751.280762,105.905778,857.186540,0.005015,105.910793,1.000047,6,-1.000000,""
2,w0,python3action_modeltraining_reviews50mb,0.000000,1,-1.000000,1,COMPLETED_SUCCESSFULLY,857.186555,0.000010,857.186565,857.186555,857.186565,85718656.534622,6,-1.000000,""
python3action_video_processing_job22_57,w0,python3action_video_processing_reduced_1.89,857.191555,1,2000.000000,1,COMPLETED_SUCCESSFULLY,857.196570,0.000000,857.196570,0.005015,0.005015,102587033.951163,6,-1.000000,""
197_updated,w0,python3action_modeltraining_reviews100mb_troll,732.966152,1,2000.000000,1,COMPLETED_SUCCESSFULLY,732.971197,143.902652,876.873849,0.005045,143.907697,1.000035,7,-1.000000,""
197,w0,python3action_modeltraining_reviews100mb,0.000000,1,-1.000000,1,COMPLETED_SUCCESSFULLY,876.873864,0.000010,876.873874,876.873864,876.873874,87687387.428176,7,-1.000000,""
python3action_video_processing_job94_58,w0,python3action_video_processing_reduced_1.89,876.878864,1,2000.000000,1,COMPLETED_SUCCESSFULLY,876.883879,0.000000,876.883879,0.005015,0.005015,102587033.951163,7,-1.000000,""
128_updated,w0,python3action_floatoperation_100000000_neowise,826.029231,1,2000.000000,1,COMPLETED_SUCCESSFULLY,826.034246,64.600001,890.634247,0.005015,64.605016,1.000078,0,-1.000000,""
128,w0,python3action_floatoperation_100000000,0.000000,1,-1.000000,1,COMPLETED_SUCCESSFULLY,890.634262,0.000010,890.634272,890.634262,890.634272,89063427.211594,0,-1.000000,""
python3action_modeltraining_job133_59,w0,python3action_modeltraining_reduced_2.88,890.639262,1,2000.000000,1,COMPLETED_SUCCESSFULLY,890.644277,0.000000,890.644277,0.005015,0.005015,900253555.469388,0,-1.000000,""
151_updated,w0,python3action_floatoperation_200000000_nova,788.004153,1,2000.000000,1,COMPLETED_SUCCESSFULLY,790.449128,135.399990,925.849119,2.444975,137.844966,1.018057,10,-1.000000,""
151,w0,python3action_floatoperation_200000000,0.000000,1,-1.000000,1,COMPLETED_SUCCESSFULLY,925.849134,0.000010,925.849144,925.849134,925.849144,92584914.400201,10,-1.000000,""
122_updated,w0,python3action_floatoperation_200000000_neowise,797.396227,1,2000.000000,1,COMPLETED_SUCCESSFULLY,797.401242,129.200002,926.601244,0.005015,129.205017,1.000039,1,-1.000000,""
122,w0,python3action_floatoperation_200000000,0.000000,1,-1.000000,1,COMPLETED_SUCCESSFULLY,926.601259,0.000010,926.601269,926.601259,926.601269,92660126.922787,1,-1.000000,""
133_updated,w0,python3action_modeltraining_reviews100mb_neowise,890.639262,1,2000.000000,1,COMPLETED_SUCCESSFULLY,890.644307,43.399999,934.044306,0.005045,43.405044,1.000116,0,-1.000000,""
133,w0,python3action_modeltraining_reviews100mb,0.000000,1,-1.000000,1,COMPLETED_SUCCESSFULLY,934.044321,0.000010,934.044331,934.044321,934.044331,93404433.100201,0,-1.000000,""
143_updated,w0,python3action_linpack_5000_neowise,934.049321,1,2000.000000,1,COMPLETED_SUCCESSFULLY,934.054336,20.750000,954.804336,0.005015,20.755015,1.000242,0,-1.000000,""
143,w0,python3action_linpack_5000,0.000000,1,-1.000000,1,COMPLETED_SUCCESSFULLY,954.804351,0.000010,954.804361,954.804351,954.804361,95480436.100402,0,-1.000000,""
162_updated,w0,python3action_modeltraining_reviews50mb_nova,925.854134,1,2000.000000,1,COMPLETED_SUCCESSFULLY,925.859149,42.399990,968.259139,0.005015,42.405005,1.000118,10,-1.000000,""
162,w0,python3action_modeltraining_reviews50mb,0.000000,1,-1.000000,1,COMPLETED_SUCCESSFULLY,968.259154,0.000010,968.259164,968.259154,968.259164,96825916.423505,10,-1.000000,""
157_updated,w0,python3action_floatoperation_200000000_nova,839.857391,1,2000.000000,1,COMPLETED_SUCCESSFULLY,839.862406,135.399990,975.262396,0.005015,135.405005,1.000037,9,-1.000000,""
157,w0,python3action_floatoperation_200000000,0.000000,1,-1.000000,1,COMPLETED_SUCCESSFULLY,975.262411,0.000010,975.262421,975.262411,975.262421,97526242.123505,9,-1.000000,""
148_updated,w0,python3action_chameleon_2000_neowise,954.809351,1,2000.000000,1,COMPLETED_SUCCESSFULLY,954.814366,24.200002,979.014368,0.005015,24.205017,1.000207,0,-1.000000,""
148,w0,python3action_chameleon_2000,0.000000,1,-1.000000,1,COMPLETED_SUCCESSFULLY,979.014383,0.000010,979.014393,979.014383,979.014393,97901439.322787,0,-1.000000,""
5_updated,w0,python3action_linpack_6000_nova,325.184006,1,2000.000000,1,COMPLETED_SUCCESSFULLY,330.949963,651.660477,982.610441,5.765957,657.426435,1.008848,13,-1.000000,""
5,w0,python3action_linpack_6000,0.000000,1,-1.000000,1,COMPLETED_SUCCESSFULLY,982.610456,0.000010,982.610466,982.610456,982.610466,98261046.600201,13,-1.000000,""
python3action_modeltraining_job172_60,w0,python3action_modeltraining_reduced_1.0,982.615456,1,2000.000000,1,COMPLETED_SUCCESSFULLY,982.620471,0.000000,982.620471,0.005015,0.005015,43503377.892505,13,-1.000000,""
167_updated,w0,python3action_imageprocessing_SampleImage_40mb_nova,968.264154,1,2000.000000,1,COMPLETED_SUCCESSFULLY,968.269169,36.000000,1004.269169,0.005015,36.005015,1.000139,10,-1.000000,""
167,w0,python3action_imageprocessing_SampleImage_40mb,0.000000,1,-1.000000,1,COMPLETED_SUCCESSFULLY,1004.269184,0.000010,1004.269194,1004.269184,1004.269194,100426919.400402,10,-1.000000,""
python3action_chameleon_job176_61,w0,python3action_chameleon_reduced_1.7,1004.274184,1,2000.000000,1,COMPLETED_SUCCESSFULLY,1004.279199,0.000000,1004.279199,0.005015,0.005015,102587033.951163,10,-1.000000,""
152_updated,w0,python3action_modeltraining_reviews100mb_neowise,979.019383,1,2000.000000,1,COMPLETED_SUCCESSFULLY,979.024398,43.399999,1022.424397,0.005015,43.405014,1.000116,0,-1.000000,""
152,w0,python3action_modeltraining_reviews100mb,0.000000,1,-1.000000,1,COMPLETED_SUCCESSFULLY,1022.424412,0.000010,1022.424422,1022.424412,1022.424422,102242442.200201,0,-1.000000,""
158_updated,w0,python3action_imageprocessing_SampleImage_40mb_neowise,1022.429412,1,2000.000000,1,COMPLETED_SUCCESSFULLY,1022.434427,20.909089,1043.343516,0.005015,20.914104,1.000240,0,-1.000000,""
158,w0,python3action_imageprocessing_SampleImage_40mb,0.000000,1,-1.000000,1,COMPLETED_SUCCESSFULLY,1043.343531,0.000010,1043.343541,1043.343531,1043.343541,104334354.100201,0,-1.000000,""
139_updated,w0,python3action_floatoperation_200000000_neowise,926.606259,1,2000.000000,1,COMPLETED_SUCCESSFULLY,926.611274,129.200002,1055.811276,0.005015,129.205017,1.000039,1,-1.000000,""
139,w0,python3action_floatoperation_200000000,0.000000,1,-1.000000,1,COMPLETED_SUCCESSFULLY,1055.811291,0.000010,1055.811301,1055.811291,1055.811301,105581130.122787,1,-1.000000,""
python3action_linpack_job10_62,w0,python3action_linpack_reduced_1.7,1055.816291,1,2000.000000,1,COMPLETED_SUCCESSFULLY,1055.821306,0.000000,1055.821306,0.005015,0.005015,919008837.875000,1,-1.000000,""
176_updated,w0,python3action_chameleon_2000_nova,1004.274184,1,2000.000000,1,COMPLETED_SUCCESSFULLY,1004.279229,70.600010,1074.879239,0.005045,70.605055,1.000071,10,-1.000000,""
176,w0,python3action_chameleon_2000,0.000000,1,-1.000000,1,COMPLETED_SUCCESSFULLY,1074.879254,0.000010,1074.879264,1074.879254,1074.879264,107487926.400201,10,-1.000000,""
22_updated,w0,python3action_videoprocessing_SampleVideo_30mb_gemini,857.191555,1,2000.000000,1,COMPLETED_SUCCESSFULLY,857.196600,283.435696,1140.632296,0.005045,283.440741,1.000018,6,-1.000000,""
22,w0,python3action_videoprocessing_SampleVideo_30mb,0.000000,1,-1.000000,1,COMPLETED_SUCCESSFULLY,1140.632311,0.000010,1140.632321,1140.632311,1140.632321,114063232.100201,6,-1.000000,""
python3action_chameleon_job25_63,w0,python3action_chameleon_reduced_0.85,1140.637311,1,2000.000000,1,COMPLETED_SUCCESSFULLY,1140.642326,0.320244,1140.962570,0.005015,0.325259,1.015660,6,-1.000000,""
106_updated,w0,python3action_chameleon_2000_nova,1074.884254,1,2000.000000,1,COMPLETED_SUCCESSFULLY,1074.889269,70.600010,1145.489279,0.005015,70.605025,1.000071,10,-1.000000,""
106,w0,python3action_chameleon_2000,0.000000,1,-1.000000,1,COMPLETED_SUCCESSFULLY,1145.489294,0.000010,1145.489304,1145.489294,1145.489304,114548930.400201,10,-1.000000,""
python3action_facedetection_job109_64,w0,python3action_facedetection_reduced_2.74,1145.494294,1,2000.000000,1,COMPLETED_SUCCESSFULLY,1145.499309,0.000000,1145.499309,0.005015,0.005015,102587033.953488,10,-1.000000,""
10_updated,w0,python3action_linpack_6000_neowise,1055.816291,1,2000.000000,1,COMPLETED_SUCCESSFULLY,1055.821336,108.600001,1164.421337,0.005045,108.605046,1.000046,1,-1.000000,""
10,w0,python3action_linpack_6000,0.000000,1,-1.000000,1,COMPLETED_SUCCESSFULLY,1164.421352,0.000010,1164.421362,1164.421352,1164.421362,116442136.211996,1,-1.000000,""
172_updated,w0,python3action_modeltraining_reviews100mb_nova,982.615456,1,2000.000000,1,COMPLETED_SUCCESSFULLY,982.620501,187.942683,1170.563184,0.005045,187.947728,1.000027,13,-1.000000,""
172,w0,python3action_modeltraining_reviews100mb,0.000000,1,-1.000000,1,COMPLETED_SUCCESSFULLY,1170.563199,0.000010,1170.563209,1170.563199,1170.563209,117056320.900201,13,-1.000000,""
python3action_floatoperation_job187_65,w0,python3action_floatoperation,1170.568199,1,2000.000000,1,COMPLETED_SUCCESSFULLY,1170.573214,5.760927,1176.334141,0.005015,5.765942,1.000871,13,-1.000000,""
23_updated,w0,python3action_facedetection_SampleVideo_30mb_yeti,539.955520,1,2000.000000,1,COMPLETED_SUCCESSFULLY,570.460233,620.218727,1190.678960,30.504713,650.723440,1.049184,8,-1.000000,""
23,w0,python3action_facedetection_SampleVideo_30mb,0.000000,1,-1.000000,1,COMPLETED_SUCCESSFULLY,1190.678975,0.000010,1190.678985,1190.678975,1190.678985,119067898.510800,8,-1.000000,""
python3action_modeltraining_job27_66,w0,python3action_modeltraining_reduced_0.94,1190.683975,1,2000.000000,1,COMPLETED_SUCCESSFULLY,1190.688990,0.000000,1190.688990,0.005015,0.005015,1696631699.846154,8,-1.000000,""
163_updated,w0,python3action_facedetection_SampleVideo_30mb_neowise,1043.348531,1,2000.000000,1,COMPLETED_SUCCESSFULLY,1043.353546,162.200002,1205.553548,0.005015,162.205017,1.000031,0,-1.000000,""
163,w0,python3action_facedetection_SampleVideo_30mb,0.000000,1,-1.000000,1,COMPLETED_SUCCESSFULLY,1205.553563,0.000010,1205.553573,1205.553563,1205.553573,120555357.322787,0,-1.000000,""
17_updated,w0,python3action_facedetection_SampleVideo_50mb_nova,975.267411,1,2000.000000,1,COMPLETED_SUCCESSFULLY,975.272426,230.799980,1206.072406,0.005015,230.804995,1.000022,9,-1.000000,""
17,w0,python3action_facedetection_SampleVideo_50mb,0.000000,1,-1.000000,1,COMPLETED_SUCCESSFULLY,1206.072421,0.000010,1206.072431,1206.072421,1206.072431,120607243.146609,9,-1.000000,""
100_updated,w0,python3action_modeltraining_reviews100mb_neowise,1164.426352,1,2000.000000,1,COMPLETED_SUCCESSFULLY,1164.431367,43.399999,1207.831366,0.005015,43.405014,1.000116,1,-1.000000,""
100,w0,python3action_modeltraining_reviews100mb,0.000000,1,-1.000000,1,COMPLETED_SUCCESSFULLY,1207.831381,0.000010,1207.831391,1207.831381,1207.831391,120783139.100201,1,-1.000000,""
103_updated,w0,python3action_chameleon_2000_neowise,1205.558563,1,2000.000000,1,COMPLETED_SUCCESSFULLY,1205.563578,24.200002,1229.763580,0.005015,24.205017,1.000207,0,-1.000000,""
103,w0,python3action_chameleon_2000,0.000000,1,-1.000000,1,COMPLETED_SUCCESSFULLY,1229.763595,0.000010,1229.763605,1229.763595,1229.763605,122976360.522787,0,-1.000000,""
27_updated,w0,python3action_modeltraining_reviews50mb_yeti,1190.683975,1,2000.000000,1,COMPLETED_SUCCESSFULLY,1190.689020,53.412153,1244.101173,0.005045,53.417198,1.000094,8,-1.000000,""
27,w0,python3action_modeltraining_reviews50mb,0.000000,1,-1.000000,1,COMPLETED_SUCCESSFULLY,1244.101188,0.000010,1244.101198,1244.101188,1244.101198,124410119.800201,8,-1.000000,""
python3action_chameleon_job32_67,w0,python3action_chameleon_reduced_1.7,1244.106188,1,2000.000000,1,COMPLETED_SUCCESSFULLY,1244.111203,0.000000,1244.111203,0.005015,0.005015,102587033.953488,8,-1.000000,""
177_updated,w0,python3action_modeltraining_reviews100mb_neowise,1207.836381,1,2000.000000,1,COMPLETED_SUCCESSFULLY,1207.841396,43.399999,1251.241395,0.005015,43.405014,1.000116,1,-1.000000,""
177,w0,python3action_modeltraining_reviews100mb,0.000000,1,-1.000000,1,COMPLETED_SUCCESSFULLY,1251.241410,0.000010,1251.241420,1251.241410,1251.241420,125124142.000201,1,-1.000000,""
184_updated,w0,python3action_linpack_5000_neowise,1251.246410,1,2000.000000,1,COMPLETED_SUCCESSFULLY,1251.251425,20.750000,1272.001425,0.005015,20.755015,1.000242,1,-1.000000,""
184,w0,python3action_linpack_5000,0.000000,1,-1.000000,1,COMPLETED_SUCCESSFULLY,1272.001440,0.000010,1272.001450,1272.001440,1272.001450,127200145.000402,1,-1.000000,""
111_updated,w0,python3action_chameleon_2000_neowise,1272.006440,1,2000.000000,1,COMPLETED_SUCCESSFULLY,1272.011455,24.200002,1296.211457,0.005015,24.205017,1.000207,1,-1.000000,""
111,w0,python3action_chameleon_2000,0.000000,1,-1.000000,1,COMPLETED_SUCCESSFULLY,1296.211472,0.000010,1296.211482,1296.211472,1296.211482,129621148.222787,1,-1.000000,""
32_updated,w0,python3action_chameleon_2000_yeti,1244.106188,1,2000.000000,1,COMPLETED_SUCCESSFULLY,1244.111233,79.321057,1323.432290,0.005045,79.326102,1.000064,8,-1.000000,""
32,w0,python3action_chameleon_2000,0.000000,1,-1.000000,1,COMPLETED_SUCCESSFULLY,1323.432305,0.000010,1323.432315,1323.432305,1323.432315,132343231.500994,8,-1.000000,""
25_updated,w0,python3action_chameleon_3000_gemini,1140.637311,1,2000.000000,1,COMPLETED_SUCCESSFULLY,1140.962585,205.077663,1346.040248,0.325274,205.402937,1.001586,6,-1.000000,""
25,w0,python3action_chameleon_3000,0.000000,1,-1.000000,1,COMPLETED_SUCCESSFULLY,1346.040263,0.000010,1346.040273,1346.040263,1346.040273,134604027.326782,6,-1.000000,""
python3action_floatoperation_job30_68,w0,python3action_floatoperation,1346.045263,1,2000.000000,1,COMPLETED_SUCCESSFULLY,1346.050278,2.439945,1348.490223,0.005015,2.444960,1.002055,6,-1.000000,""
109_updated,w0,python3action_facedetection_SampleVideo_50mb_nova,1145.494294,1,2000.000000,1,COMPLETED_SUCCESSFULLY,1145.499339,230.799980,1376.299319,0.005045,230.805025,1.000022,10,-1.000000,""
109,w0,python3action_facedetection_SampleVideo_50mb,0.000000,1,-1.000000,1,COMPLETED_SUCCESSFULLY,1376.299334,0.000010,1376.299344,1376.299334,1376.299344,137629934.447010,10,-1.000000,""
138_updated,w0,python3action_linpack_6000_nova,740.137481,1,2000.000000,1,COMPLETED_SUCCESSFULLY,740.142496,651.660477,1391.802973,0.005015,651.665492,1.000008,12,-1.000000,""
138,w0,python3action_linpack_6000,0.000000,1,-1.000000,1,COMPLETED_SUCCESSFULLY,1391.802988,0.000010,1391.802998,1391.802988,1391.802998,139180299.845759,12,-1.000000,""
180_updated,w0,python3action_videoprocessing_SampleVideo_50mb_neowise,1229.768595,1,2000.000000,1,COMPLETED_SUCCESSFULLY,1229.773610,164.799998,1394.573608,0.005015,164.805013,1.000030,0,-1.000000,""
180,w0,python3action_videoprocessing_SampleVideo_50mb,0.000000,1,-1.000000,1,COMPLETED_SUCCESSFULLY,1394.573623,0.000010,1394.573633,1394.573623,1394.573633,139457363.300201,0,-1.000000,""
38_updated,w0,python3action_floatoperation_100000000_yeti,1323.437305,1,2000.000000,1,COMPLETED_SUCCESSFULLY,1323.442320,127.551409,1450.993729,0.005015,127.556424,1.000039,8,-1.000000,""
38,w0,python3action_floatoperation_100000000,0.000000,1,-1.000000,1,COMPLETED_SUCCESSFULLY,1450.993744,0.000010,1450.993754,1450.993744,1450.993754,145099375.417707,8,-1.000000,""
187_updated,w0,python3action_floatoperation_200000000_nova,1170.568199,1,2000.000000,1,COMPLETED_SUCCESSFULLY,1176.334156,319.691385,1496.025541,5.765957,325.457342,1.018036,13,-1.000000,""
187,w0,python3action_floatoperation_200000000,0.000000,1,-1.000000,1,COMPLETED_SUCCESSFULLY,1496.025556,0.000010,1496.025566,1496.025556,1496.025566,149602556.631141,13,-1.000000,""
30_updated,w0,python3action_floatoperation_100000000_gemini,1346.045263,1,2000.000000,1,COMPLETED_SUCCESSFULLY,1348.490238,174.469057,1522.959295,2.444975,176.914032,1.014014,6,-1.000000,""
30,w0,python3action_floatoperation_100000000,0.000000,1,-1.000000,1,COMPLETED_SUCCESSFULLY,1522.959310,0.000010,1522.959320,1522.959310,1522.959320,152295932.010635,6,-1.000000,""
43_updated,w0,python3action_floatoperation_100000000_yeti,1450.998744,1,2000.000000,1,COMPLETED_SUCCESSFULLY,1451.003759,127.551409,1578.555168,0.005015,127.556424,1.000039,8,-1.000000,""
43,w0,python3action_floatoperation_100000000,0.000000,1,-1.000000,1,COMPLETED_SUCCESSFULLY,1578.555183,0.000010,1578.555193,1578.555183,1578.555193,157855519.317707,8,-1.000000,""
94_updated,w0,python3action_videoprocessing_SampleVideo_50mb_troll,876.878864,1,2000.000000,1,COMPLETED_SUCCESSFULLY,876.883909,704.015923,1580.899832,0.005045,704.020968,1.000007,7,-1.000000,""
94,w0,python3action_videoprocessing_SampleVideo_50mb,0.000000,1,-1.000000,1,COMPLETED_SUCCESSFULLY,1580.899847,0.000010,1580.899857,1580.899847,1580.899857,158089985.741935,7,-1.000000,""
python3action_chameleon_job97_69,w0,python3action_chameleon_reduced_0.85,1580.904847,1,2000.000000,1,COMPLETED_SUCCESSFULLY,1580.909862,0.320244,1581.230106,0.005015,0.325259,1.015660,7,-1.000000,""
36_updated,w0,python3action_imageprocessing_SampleImage_40mb_gemini,1522.964310,1,2000.000000,1,COMPLETED_SUCCESSFULLY,1522.969325,83.255410,1606.224735,0.005015,83.260425,1.000060,6,-1.000000,""
36,w0,python3action_imageprocessing_SampleImage_40mb,0.000000,1,-1.000000,1,COMPLETED_SUCCESSFULLY,1606.224750,0.000010,1606.224760,1606.224750,1606.224760,160622476.000201,6,-1.000000,""
49_updated,w0,python3action_modeltraining_reviews100mb_yeti,1578.560183,1,2000.000000,1,COMPLETED_SUCCESSFULLY,1578.565198,129.145802,1707.711000,0.005015,129.150817,1.000039,8,-1.000000,""
49,w0,python3action_modeltraining_reviews100mb,0.000000,1,-1.000000,1,COMPLETED_SUCCESSFULLY,1707.711015,0.000010,1707.711025,1707.711015,1707.711025,170771102.500201,8,-1.000000,""
python3action_image_processing_job54_70,w0,python3action_image_processing_reduced_1.73,1707.716015,1,2000.000000,1,COMPLETED_SUCCESSFULLY,1707.721030,0.000000,1707.721030,0.005015,0.005015,102587033.953488,8,-1.000000,""
54_updated,w0,python3action_imageprocessing_SampleImage_40mb_yeti,1707.716015,1,2000.000000,1,COMPLETED_SUCCESSFULLY,1707.721060,86.495824,1794.216884,0.005045,86.500869,1.000058,8,-1.000000,""
54,w0,python3action_imageprocessing_SampleImage_40mb,0.000000,1,-1.000000,1,COMPLETED_SUCCESSFULLY,1794.216899,0.000010,1794.216909,1794.216899,1794.216909,179421690.900201,8,-1.000000,""
41_updated,w0,python3action_chameleon_3000_gemini,1606.229750,1,2000.000000,1,COMPLETED_SUCCESSFULLY,1606.234765,205.077663,1811.312428,0.005015,205.082678,1.000024,6,-1.000000,""
41,w0,python3action_chameleon_3000,0.000000,1,-1.000000,1,COMPLETED_SUCCESSFULLY,1811.312443,0.000010,1811.312453,1811.312443,1811.312453,181131245.326783,6,-1.000000,""
97_updated,w0,python3action_chameleon_3000_troll,1580.904847,1,2000.000000,1,COMPLETED_SUCCESSFULLY,1581.230121,231.228154,1812.458275,0.325274,231.553428,1.001407,7,-1.000000,""
97,w0,python3action_chameleon_3000,0.000000,1,-1.000000,1,COMPLETED_SUCCESSFULLY,1812.458290,0.000010,1812.458300,1812.458290,1812.458300,181245830.015827,7,-1.000000,""
python3action_facedetection_job26_71,w0,python3action_facedetection_reduced_2.74,1812.463290,1,2000.000000,1,COMPLETED_SUCCESSFULLY,1812.468305,0.000000,1812.468305,0.005015,0.005015,102587033.953488,7,-1.000000,""
6_updated,w0,python3action_modeltraining_reviews50mb_yeti,1794.221899,1,2000.000000,1,COMPLETED_SUCCESSFULLY,1794.226914,53.412153,1847.639067,0.005015,53.417168,1.000094,8,-1.000000,""
6,w0,python3action_modeltraining_reviews50mb,0.000000,1,-1.000000,1,COMPLETED_SUCCESSFULLY,1847.639082,0.000010,1847.639092,1847.639082,1847.639092,184763909.200201,8,-1.000000,""
26_updated,w0,python3action_facedetection_SampleVideo_30mb_troll,1812.463290,1,2000.000000,1,COMPLETED_SUCCESSFULLY,1812.468335,300.924584,2113.392919,0.005045,300.929629,1.000017,7,-1.000000,""
26,w0,python3action_facedetection_SampleVideo_30mb,0.000000,1,-1.000000,1,COMPLETED_SUCCESSFULLY,2113.392934,0.000010,2113.392944,2113.392934,2113.392944,211339294.400201,7,-1.000000,""
47_updated,w0,python3action_pyaes_4000_gemini,1811.317443,1,2000.000000,1,COMPLETED_SUCCESSFULLY,1811.322458,365.007620,2176.330078,0.005015,365.012635,1.000014,6,-1.000000,""
47,w0,python3action_pyaes_4000,0.000000,1,-1.000000,1,COMPLETED_SUCCESSFULLY,2176.330093,0.000010,2176.330103,2176.330093,2176.330103,217633010.300201,6,-1.000000,""
132_updated,w0,python3action_chameleon_3000_nova,740.127436,1,2000.000000,1,COMPLETED_SUCCESSFULLY,740.888590,1563.512974,2304.401564,0.761154,1564.274128,1.000487,11,-1.000000,""
132,w0,python3action_chameleon_3000,0.000000,1,-1.000000,1,COMPLETED_SUCCESSFULLY,2304.401579,0.000010,2304.401589,2304.401579,2304.401589,230440158.928610,11,-1.000000,""
31_updated,w0,python3action_videoprocessing_SampleVideo_30mb_troll,2113.397934,1,2000.000000,1,COMPLETED_SUCCESSFULLY,2113.402949,200.069750,2313.472699,0.005015,200.074765,1.000025,7,-1.000000,""
31,w0,python3action_videoprocessing_SampleVideo_30mb,0.000000,1,-1.000000,1,COMPLETED_SUCCESSFULLY,2313.472714,0.000010,2313.472724,2313.472714,2313.472724,231347272.440699,7,-1.000000,""
65_updated,w0,python3action_linpack_6000_yeti,1847.644082,1,2000.000000,1,COMPLETED_SUCCESSFULLY,1847.649097,511.002833,2358.651930,0.005015,511.007848,1.000010,8,-1.000000,""
65,w0,python3action_linpack_6000,0.000000,1,-1.000000,1,COMPLETED_SUCCESSFULLY,2358.651945,0.000010,2358.651955,2358.651945,2358.651955,235865195.500358,8,-1.000000,""
37_updated,w0,python3action_chameleon_2000_troll,2313.477714,1,2000.000000,1,COMPLETED_SUCCESSFULLY,2313.482729,97.165047,2410.647776,0.005015,97.170062,1.000052,7,-1.000000,""
37,w0,python3action_chameleon_2000,0.000000,1,-1.000000,1,COMPLETED_SUCCESSFULLY,2410.647791,0.000010,2410.647801,2410.647791,2410.647801,241064780.100201,7,-1.000000,""
70_updated,w0,python3action_pyaes_3000_yeti,2358.656945,1,2000.000000,1,COMPLETED_SUCCESSFULLY,2358.661960,142.698139,2501.360099,0.005015,142.703154,1.000035,8,-1.000000,""
70,w0,python3action_pyaes_3000,0.000000,1,-1.000000,1,COMPLETED_SUCCESSFULLY,2501.360114,0.000010,2501.360124,2501.360114,2501.360124,250136012.401638,8,-1.000000,""
42_updated,w0,python3action_facedetection_SampleVideo_30mb_troll,2410.652791,1,2000.000000,1,COMPLETED_SUCCESSFULLY,2410.657806,300.924584,2711.582390,0.005015,300.929599,1.000017,7,-1.000000,""
42,w0,python3action_facedetection_SampleVideo_30mb,0.000000,1,-1.000000,1,COMPLETED_SUCCESSFULLY,2711.582405,0.000010,2711.582415,2711.582405,2711.582415,271158241.500201,7,-1.000000,""
48_updated,w0,python3action_videoprocessing_SampleVideo_30mb_troll,2711.587405,1,2000.000000,1,COMPLETED_SUCCESSFULLY,2711.592420,200.069750,2911.662170,0.005015,200.074765,1.000025,7,-1.000000,""
48,w0,python3action_videoprocessing_SampleVideo_30mb,0.000000,1,-1.000000,1,COMPLETED_SUCCESSFULLY,2911.662185,0.000010,2911.662195,2911.662185,2911.662195,291166219.540699,7,-1.000000,""
52_updated,w0,python3action_videoprocessing_SampleVideo_50mb_gemini,2176.335093,1,2000.000000,1,COMPLETED_SUCCESSFULLY,2176.340108,760.623895,2936.964003,0.005015,760.628910,1.000007,6,-1.000000,""
52,w0,python3action_videoprocessing_SampleVideo_50mb,0.000000,1,-1.000000,1,COMPLETED_SUCCESSFULLY,2936.964018,0.000010,2936.964028,2936.964018,2936.964028,293696402.800201,6,-1.000000,""
53_updated,w0,python3action_videoprocessing_SampleVideo_30mb_troll,2911.667185,1,2000.000000,1,COMPLETED_SUCCESSFULLY,2911.672200,200.069750,3111.741950,0.005015,200.074765,1.000025,7,-1.000000,""
53,w0,python3action_videoprocessing_SampleVideo_30mb,0.000000,1,-1.000000,1,COMPLETED_SUCCESSFULLY,3111.741965,0.000010,3111.741975,3111.741965,3111.741975,311174197.540699,7,-1.000000,""
58_updated,w0,python3action_modeltraining_reviews100mb_gemini,2936.969018,1,2000.000000,1,COMPLETED_SUCCESSFULLY,2936.974033,189.773360,3126.747393,0.005015,189.778375,1.000026,6,-1.000000,""
58,w0,python3action_modeltraining_reviews100mb,0.000000,1,-1.000000,1,COMPLETED_SUCCESSFULLY,3126.747408,0.000010,3126.747418,3126.747408,3126.747418,312674741.803919,6,-1.000000,""
python3action_linpack_job63_72,w0,python3action_linpack_reduced_1.7,3126.752408,1,2000.000000,1,COMPLETED_SUCCESSFULLY,3126.757423,0.000000,3126.757423,0.005015,0.005015,103066412.616822,6,-1.000000,""
59_updated,w0,python3action_modeltraining_reviews50mb_troll,3111.746965,1,2000.000000,1,COMPLETED_SUCCESSFULLY,3111.751980,69.696429,3181.448409,0.005015,69.701444,1.000072,7,-1.000000,""
59,w0,python3action_modeltraining_reviews50mb,0.000000,1,-1.000000,1,COMPLETED_SUCCESSFULLY,3181.448424,0.000010,3181.448434,3181.448424,3181.448434,318144843.444768,7,-1.000000,""
76_updated,w0,python3action_facedetection_SampleVideo_50mb_yeti,2501.365114,1,2000.000000,1,COMPLETED_SUCCESSFULLY,2501.370129,707.910321,3209.280450,0.005015,707.915336,1.000007,8,-1.000000,""
76,w0,python3action_facedetection_SampleVideo_50mb,0.000000,1,-1.000000,1,COMPLETED_SUCCESSFULLY,3209.280465,0.000010,3209.280475,3209.280465,3209.280475,320928047.500201,8,-1.000000,""
81_updated,w0,python3action_pyaes_4000_yeti,3209.285465,1,2000.000000,1,COMPLETED_SUCCESSFULLY,3209.290480,252.312656,3461.603136,0.005015,252.317671,1.000020,8,-1.000000,""
81,w0,python3action_pyaes_4000,0.000000,1,-1.000000,1,COMPLETED_SUCCESSFULLY,3461.603151,0.000010,3461.603161,3461.603151,3461.603161,346160316.100201,8,-1.000000,""
115_updated,w0,python3action_floatoperation_100000000_yeti,3461.608151,1,2000.000000,1,COMPLETED_SUCCESSFULLY,3461.613166,127.551409,3589.164575,0.005015,127.556424,1.000039,8,-1.000000,""
115,w0,python3action_floatoperation_100000000,0.000000,1,-1.000000,1,COMPLETED_SUCCESSFULLY,3589.164590,0.000010,3589.164600,3589.164590,3589.164600,358916460.017707,8,-1.000000,""
63_updated,w0,python3action_linpack_6000_gemini,3126.752408,1,2000.000000,1,COMPLETED_SUCCESSFULLY,3126.757453,520.958482,3647.715935,0.005045,520.963527,1.000010,6,-1.000000,""
63,w0,python3action_linpack_6000,0.000000,1,-1.000000,1,COMPLETED_SUCCESSFULLY,3647.715950,0.000010,3647.715960,3647.715950,3647.715960,364771596.000201,6,-1.000000,""
69_updated,w0,python3action_linpack_5000_gemini,3647.720950,1,2000.000000,1,COMPLETED_SUCCESSFULLY,3647.725965,91.213647,3738.939612,0.005015,91.218662,1.000055,6,-1.000000,""
69,w0,python3action_linpack_5000,0.000000,1,-1.000000,1,COMPLETED_SUCCESSFULLY,3738.939627,0.000010,3738.939637,3738.939627,3738.939637,373893963.724673,6,-1.000000,""
64_updated,w0,python3action_linpack_6000_troll,3181.453424,1,2000.000000,1,COMPLETED_SUCCESSFULLY,3181.458439,620.708201,3802.166640,0.005015,620.713216,1.000008,7,-1.000000,""
64,w0,python3action_linpack_6000,0.000000,1,-1.000000,1,COMPLETED_SUCCESSFULLY,3802.166655,0.000010,3802.166665,3802.166655,3802.166665,380216666.504930,7,-1.000000,""
120_updated,w0,python3action_pyaes_4000_yeti,3589.169590,1,2000.000000,1,COMPLETED_SUCCESSFULLY,3589.174605,252.312656,3841.487261,0.005015,252.317671,1.000020,8,-1.000000,""
120,w0,python3action_pyaes_4000,0.000000,1,-1.000000,1,COMPLETED_SUCCESSFULLY,3841.487276,0.000010,3841.487286,3841.487276,3841.487286,384148728.600201,8,-1.000000,""
7_updated,w0,python3action_imageprocessing_SampleImage_40mb_troll,3802.171655,1,2000.000000,1,COMPLETED_SUCCESSFULLY,3802.176670,78.306013,3880.482683,0.005015,78.311028,1.000064,7,-1.000000,""
7,w0,python3action_imageprocessing_SampleImage_40mb,0.000000,1,-1.000000,1,COMPLETED_SUCCESSFULLY,3880.482698,0.000010,3880.482708,3880.482698,3880.482708,388048270.800201,7,-1.000000,""
75_updated,w0,python3action_linpack_5000_troll,3880.487698,1,2000.000000,1,COMPLETED_SUCCESSFULLY,3880.492713,72.976261,3953.468974,0.005015,72.981276,1.000069,7,-1.000000,""
75,w0,python3action_linpack_5000,0.000000,1,-1.000000,1,COMPLETED_SUCCESSFULLY,3953.468989,0.000010,3953.468999,3953.468989,3953.468999,395346899.942149,7,-1.000000,""
74_updated,w0,python3action_floatoperation_200000000_gemini,3738.944627,1,2000.000000,1,COMPLETED_SUCCESSFULLY,3738.949642,348.325941,4087.275583,0.005015,348.330956,1.000014,6,-1.000000,""
74,w0,python3action_floatoperation_200000000,0.000000,1,-1.000000,1,COMPLETED_SUCCESSFULLY,4087.275598,0.000010,4087.275608,4087.275598,4087.275608,408727560.848793,6,-1.000000,""
8_updated,w0,python3action_pyaes_3000_gemini,4087.280598,1,2000.000000,1,COMPLETED_SUCCESSFULLY,4087.285613,202.016803,4289.302416,0.005015,202.021818,1.000025,6,-1.000000,""
8,w0,python3action_pyaes_3000,0.000000,1,-1.000000,1,COMPLETED_SUCCESSFULLY,4289.302431,0.000010,4289.302441,4289.302431,4289.302441,428930244.100201,6,-1.000000,""
126_updated,w0,python3action_facedetection_SampleVideo_30mb_yeti,3841.492276,1,2000.000000,1,COMPLETED_SUCCESSFULLY,3841.497291,620.218727,4461.716018,0.005015,620.223742,1.000008,8,-1.000000,""
126,w0,python3action_facedetection_SampleVideo_30mb,0.000000,1,-1.000000,1,COMPLETED_SUCCESSFULLY,4461.716033,0.000010,4461.716043,4461.716033,4461.716043,446171604.310801,8,-1.000000,""
85_updated,w0,python3action_pyaes_3000_gemini,4289.307431,1,2000.000000,1,COMPLETED_SUCCESSFULLY,4289.312446,202.016803,4491.329249,0.005015,202.021818,1.000025,6,-1.000000,""
85,w0,python3action_pyaes_3000,0.000000,1,-1.000000,1,COMPLETED_SUCCESSFULLY,4491.329264,0.000010,4491.329274,4491.329264,4491.329274,449132927.400201,6,-1.000000,""
80_updated,w0,python3action_linpack_6000_troll,3953.473989,1,2000.000000,1,COMPLETED_SUCCESSFULLY,3953.479004,620.708201,4574.187205,0.005015,620.713216,1.000008,7,-1.000000,""
80,w0,python3action_linpack_6000,0.000000,1,-1.000000,1,COMPLETED_SUCCESSFULLY,4574.187220,0.000010,4574.187230,4574.187220,4574.187230,457418723.004929,7,-1.000000,""
131_updated,w0,python3action_chameleon_3000_yeti,4461.721033,1,2000.000000,1,COMPLETED_SUCCESSFULLY,4461.726048,222.417770,4684.143818,0.005015,222.422785,1.000023,8,-1.000000,""
131,w0,python3action_chameleon_3000,0.000000,1,-1.000000,1,COMPLETED_SUCCESSFULLY,4684.143833,0.000010,4684.143843,4684.143833,4684.143843,468414384.300201,8,-1.000000,""
114_updated,w0,python3action_videoprocessing_SampleVideo_30mb_troll,4574.192220,1,2000.000000,1,COMPLETED_SUCCESSFULLY,4574.197235,200.069750,4774.266985,0.005015,200.074765,1.000025,7,-1.000000,""
114,w0,python3action_videoprocessing_SampleVideo_30mb,0.000000,1,-1.000000,1,COMPLETED_SUCCESSFULLY,4774.267000,0.000010,4774.267010,4774.267000,4774.267010,477426701.040698,7,-1.000000,""
137_updated,w0,python3action_floatoperation_100000000_yeti,4684.148833,1,2000.000000,1,COMPLETED_SUCCESSFULLY,4684.153848,127.551409,4811.705257,0.005015,127.556424,1.000039,8,-1.000000,""
137,w0,python3action_floatoperation_100000000,0.000000,1,-1.000000,1,COMPLETED_SUCCESSFULLY,4811.705272,0.000010,4811.705282,4811.705272,4811.705282,481170528.217707,8,-1.000000,""
119_updated,w0,python3action_floatoperation_200000000_gemini,4491.334264,1,2000.000000,1,COMPLETED_SUCCESSFULLY,4491.339279,348.325941,4839.665220,0.005015,348.330956,1.000014,6,-1.000000,""
119,w0,python3action_floatoperation_200000000,0.000000,1,-1.000000,1,COMPLETED_SUCCESSFULLY,4839.665235,0.000010,4839.665245,4839.665235,4839.665245,483966524.548792,6,-1.000000,""
188_updated,w0,python3action_chameleon_2000_yeti,4811.710272,1,2000.000000,1,COMPLETED_SUCCESSFULLY,4811.715287,79.321057,4891.036344,0.005015,79.326072,1.000063,8,-1.000000,""
188,w0,python3action_chameleon_2000,0.000000,1,-1.000000,1,COMPLETED_SUCCESSFULLY,4891.036359,0.000010,4891.036369,4891.036359,4891.036369,489103636.900592,8,-1.000000,""
12_updated,w0,python3action_videoprocessing_SampleVideo_30mb_troll,4774.272000,1,2000.000000,1,COMPLETED_SUCCESSFULLY,4774.277015,200.069750,4974.346765,0.005015,200.074765,1.000025,7,-1.000000,""
12,w0,python3action_videoprocessing_SampleVideo_30mb,0.000000,1,-1.000000,1,COMPLETED_SUCCESSFULLY,4974.346780,0.000010,4974.346790,4974.346780,4974.346790,497434679.040698,7,-1.000000,""
124_updated,w0,python3action_pyaes_3000_gemini,4839.670235,1,2000.000000,1,COMPLETED_SUCCESSFULLY,4839.675250,202.016803,5041.692053,0.005015,202.021818,1.000025,6,-1.000000,""
124,w0,python3action_pyaes_3000,0.000000,1,-1.000000,1,COMPLETED_SUCCESSFULLY,5041.692068,0.000010,5041.692078,5041.692068,5041.692078,504169207.800201,6,-1.000000,""
189_updated,w0,python3action_pyaes_4000_yeti,4891.041359,1,2000.000000,1,COMPLETED_SUCCESSFULLY,4891.046374,252.312656,5143.359030,0.005015,252.317671,1.000020,8,-1.000000,""
189,w0,python3action_pyaes_4000,0.000000,1,-1.000000,1,COMPLETED_SUCCESSFULLY,5143.359045,0.000010,5143.359055,5143.359045,5143.359055,514335905.500201,8,-1.000000,""
150_updated,w0,python3action_chameleon_3000_yeti,5143.364045,1,2000.000000,1,COMPLETED_SUCCESSFULLY,5143.369060,222.417770,5365.786830,0.005015,222.422785,1.000023,8,-1.000000,""
150,w0,python3action_chameleon_3000,0.000000,1,-1.000000,1,COMPLETED_SUCCESSFULLY,5365.786845,0.000010,5365.786855,5365.786845,5365.786855,536578685.500201,8,-1.000000,""
13_updated,w0,python3action_pyaes_4000_gemini,5041.697068,1,2000.000000,1,COMPLETED_SUCCESSFULLY,5041.702083,365.007620,5406.709703,0.005015,365.012635,1.000014,6,-1.000000,""
13,w0,python3action_pyaes_4000,0.000000,1,-1.000000,1,COMPLETED_SUCCESSFULLY,5406.709718,0.000010,5406.709728,5406.709718,5406.709728,540670972.800201,6,-1.000000,""
156_updated,w0,python3action_floatoperation_100000000_yeti,5365.791845,1,2000.000000,1,COMPLETED_SUCCESSFULLY,5365.796860,127.551409,5493.348269,0.005015,127.556424,1.000039,8,-1.000000,""
156,w0,python3action_floatoperation_100000000,0.000000,1,-1.000000,1,COMPLETED_SUCCESSFULLY,5493.348284,0.000010,5493.348294,5493.348284,5493.348294,549334829.417707,8,-1.000000,""
161_updated,w0,python3action_chameleon_2000_yeti,5493.353284,1,2000.000000,1,COMPLETED_SUCCESSFULLY,5493.358299,79.321057,5572.679356,0.005015,79.326072,1.000063,8,-1.000000,""
161,w0,python3action_chameleon_2000,0.000000,1,-1.000000,1,COMPLETED_SUCCESSFULLY,5572.679371,0.000010,5572.679381,5572.679371,5572.679381,557267938.100592,8,-1.000000,""
135_updated,w0,python3action_pyaes_3000_gemini,5406.714718,1,2000.000000,1,COMPLETED_SUCCESSFULLY,5406.719733,202.016803,5608.736536,0.005015,202.021818,1.000025,6,-1.000000,""
135,w0,python3action_pyaes_3000,0.000000,1,-1.000000,1,COMPLETED_SUCCESSFULLY,5608.736551,0.000010,5608.736561,5608.736551,5608.736561,560873656.100201,6,-1.000000,""
125_updated,w0,python3action_facedetection_SampleVideo_50mb_troll,4974.351780,1,2000.000000,1,COMPLETED_SUCCESSFULLY,4974.356795,713.363454,5687.720249,0.005015,713.368469,1.000007,7,-1.000000,""
125,w0,python3action_facedetection_SampleVideo_50mb,0.000000,1,-1.000000,1,COMPLETED_SUCCESSFULLY,5687.720264,0.000010,5687.720274,5687.720264,5687.720274,568772027.430968,7,-1.000000,""
140_updated,w0,python3action_modeltraining_reviews50mb_gemini,5608.741551,1,2000.000000,1,COMPLETED_SUCCESSFULLY,5608.746566,105.905778,5714.652344,0.005015,105.910793,1.000047,6,-1.000000,""
140,w0,python3action_modeltraining_reviews50mb,0.000000,1,-1.000000,1,COMPLETED_SUCCESSFULLY,5714.652359,0.000010,5714.652369,5714.652359,5714.652369,571465236.934622,6,-1.000000,""
113_updated,w0,python3action_chameleon_3000_yeti,5572.684371,1,2000.000000,1,COMPLETED_SUCCESSFULLY,5572.689386,222.417770,5795.107156,0.005015,222.422785,1.000023,8,-1.000000,""
113,w0,python3action_chameleon_3000,0.000000,1,-1.000000,1,COMPLETED_SUCCESSFULLY,5795.107171,0.000010,5795.107181,5795.107171,5795.107181,579510718.100201,8,-1.000000,""
145_updated,w0,python3action_chameleon_2000_gemini,5714.657359,1,2000.000000,1,COMPLETED_SUCCESSFULLY,5714.662374,85.704098,5800.366472,0.005015,85.709113,1.000059,6,-1.000000,""
145,w0,python3action_chameleon_2000,0.000000,1,-1.000000,1,COMPLETED_SUCCESSFULLY,5800.366487,0.000010,5800.366497,5800.366487,5800.366497,580036649.708441,6,-1.000000,""
1_updated,w0,python3action_chameleon_2000_yeti,5795.112171,1,2000.000000,1,COMPLETED_SUCCESSFULLY,5795.117186,79.321057,5874.438243,0.005015,79.326072,1.000063,8,-1.000000,""
1,w0,python3action_chameleon_2000,0.000000,1,-1.000000,1,COMPLETED_SUCCESSFULLY,5874.438258,0.000010,5874.438268,5874.438258,5874.438268,587443826.800592,8,-1.000000,""
python3action_video_processing_job102_73,w0,python3action_video_processing_reduced_2.8,5874.443258,1,2000.000000,1,COMPLETED_SUCCESSFULLY,5874.448273,0.000000,5874.448273,0.005015,0.005015,102112093.981481,8,-1.000000,""
0_updated,w0,python3action_modeltraining_reviews100mb_gemini,5800.371487,1,2000.000000,1,COMPLETED_SUCCESSFULLY,5800.376502,189.773360,5990.149862,0.005015,189.778375,1.000026,6,-1.000000,""
0,w0,python3action_modeltraining_reviews100mb,0.000000,1,-1.000000,1,COMPLETED_SUCCESSFULLY,5990.149877,0.000010,5990.149887,5990.149877,5990.149887,599014988.703918,6,-1.000000,""
154_updated,w0,python3action_modeltraining_reviews50mb_gemini,5990.154877,1,2000.000000,1,COMPLETED_SUCCESSFULLY,5990.159892,105.905778,6096.065670,0.005015,105.910793,1.000047,6,-1.000000,""
154,w0,python3action_modeltraining_reviews50mb,0.000000,1,-1.000000,1,COMPLETED_SUCCESSFULLY,6096.065685,0.000010,6096.065695,6096.065685,6096.065695,609606569.534622,6,-1.000000,""
python3action_facedetection_job16_74,w0,python3action_facedetection_reduced_2.74,6096.070685,1,2000.000000,1,COMPLETED_SUCCESSFULLY,6096.075700,0.000000,6096.075700,0.005015,0.005015,102112093.981481,6,-1.000000,""
102_updated,w0,python3action_videoprocessing_SampleVideo_30mb_yeti,5874.443258,1,2000.000000,1,COMPLETED_SUCCESSFULLY,5874.448303,493.464514,6367.912817,0.005045,493.469559,1.000010,8,-1.000000,""
102,w0,python3action_videoprocessing_SampleVideo_30mb,0.000000,1,-1.000000,1,COMPLETED_SUCCESSFULLY,6367.912832,0.000010,6367.912842,6367.912832,6367.912842,636791284.224630,8,-1.000000,""
130_updated,w0,python3action_videoprocessing_SampleVideo_50mb_troll,5687.725264,1,2000.000000,1,COMPLETED_SUCCESSFULLY,5687.730279,704.015923,6391.746202,0.005015,704.020938,1.000007,7,-1.000000,""
130,w0,python3action_videoprocessing_SampleVideo_50mb,0.000000,1,-1.000000,1,COMPLETED_SUCCESSFULLY,6391.746217,0.000010,6391.746227,6391.746217,6391.746227,639174622.741533,7,-1.000000,""
16_updated,w0,python3action_facedetection_SampleVideo_30mb_gemini,6096.070685,1,2000.000000,1,COMPLETED_SUCCESSFULLY,6096.075730,375.261515,6471.337245,0.005045,375.266560,1.000013,6,-1.000000,""
16,w0,python3action_facedetection_SampleVideo_30mb,0.000000,1,-1.000000,1,COMPLETED_SUCCESSFULLY,6471.337260,0.000010,6471.337270,6471.337260,6471.337270,647133727.017435,6,-1.000000,""
165_updated,w0,python3action_pyaes_4000_gemini,6471.342260,1,2000.000000,1,COMPLETED_SUCCESSFULLY,6471.347275,365.007620,6836.354895,0.005015,365.012635,1.000014,6,-1.000000,""
165,w0,python3action_pyaes_4000,0.000000,1,-1.000000,1,COMPLETED_SUCCESSFULLY,6836.354910,0.000010,6836.354920,6836.354910,6836.354920,683635492.000201,6,-1.000000,""
104_updated,w0,python3action_facedetection_SampleVideo_30mb_yeti,6367.917832,1,2000.000000,1,COMPLETED_SUCCESSFULLY,6367.922847,620.218727,6988.141574,0.005015,620.223742,1.000008,8,-1.000000,""
104,w0,python3action_facedetection_SampleVideo_30mb,0.000000,1,-1.000000,1,COMPLETED_SUCCESSFULLY,6988.141589,0.000010,6988.141599,6988.141589,6988.141599,698814159.910800,8,-1.000000,""
136_updated,w0,python3action_linpack_6000_troll,6391.751217,1,2000.000000,1,COMPLETED_SUCCESSFULLY,6391.756232,620.708201,7012.464433,0.005015,620.713216,1.000008,7,-1.000000,""
136,w0,python3action_linpack_6000,0.000000,1,-1.000000,1,COMPLETED_SUCCESSFULLY,7012.464448,0.000010,7012.464458,7012.464448,7012.464458,701246445.804929,7,-1.000000,""
18_updated,w0,python3action_imageprocessing_SampleImage_60mb_yeti,6988.146589,1,2000.000000,1,COMPLETED_SUCCESSFULLY,6988.151604,170.201436,7158.353040,0.005015,170.206451,1.000029,8,-1.000000,""
18,w0,python3action_imageprocessing_SampleImage_60mb,0.000000,1,-1.000000,1,COMPLETED_SUCCESSFULLY,7158.353055,0.000010,7158.353065,7158.353055,7158.353065,715835306.504172,8,-1.000000,""
183_updated,w0,python3action_pyaes_3000_yeti,7158.358055,1,2000.000000,1,COMPLETED_SUCCESSFULLY,7158.363070,142.698139,7301.061209,0.005015,142.703154,1.000035,8,-1.000000,""
183,w0,python3action_pyaes_3000,0.000000,1,-1.000000,1,COMPLETED_SUCCESSFULLY,7301.061224,0.000010,7301.061234,7301.061224,7301.061234,730106123.401637,8,-1.000000,""
186_updated,w0,python3action_modeltraining_reviews100mb_yeti,7301.066224,1,2000.000000,1,COMPLETED_SUCCESSFULLY,7301.071239,129.145802,7430.217041,0.005015,129.150817,1.000039,8,-1.000000,""
186,w0,python3action_modeltraining_reviews100mb,0.000000,1,-1.000000,1,COMPLETED_SUCCESSFULLY,7430.217056,0.000010,7430.217066,7430.217056,7430.217066,743021706.600201,8,-1.000000,""
108_updated,w0,python3action_videoprocessing_SampleVideo_50mb_gemini,6836.359910,1,2000.000000,1,COMPLETED_SUCCESSFULLY,6836.364925,760.623895,7596.988820,0.005015,760.628910,1.000007,6,-1.000000,""
108,w0,python3action_videoprocessing_SampleVideo_50mb,0.000000,1,-1.000000,1,COMPLETED_SUCCESSFULLY,7596.988835,0.000010,7596.988845,7596.988835,7596.988845,759698884.500201,6,-1.000000,""
141_updated,w0,python3action_linpack_6000_troll,7012.469448,1,2000.000000,1,COMPLETED_SUCCESSFULLY,7012.474463,620.708201,7633.182664,0.005015,620.713216,1.000008,7,-1.000000,""
141,w0,python3action_linpack_6000,0.000000,1,-1.000000,1,COMPLETED_SUCCESSFULLY,7633.182679,0.000010,7633.182689,7633.182679,7633.182689,763318268.904929,7,-1.000000,""
146_updated,w0,python3action_modeltraining_reviews100mb_troll,7633.187679,1,2000.000000,1,COMPLETED_SUCCESSFULLY,7633.192694,143.902652,7777.095346,0.005015,143.907667,1.000035,7,-1.000000,""
146,w0,python3action_modeltraining_reviews100mb,0.000000,1,-1.000000,1,COMPLETED_SUCCESSFULLY,7777.095361,0.000010,7777.095371,7777.095361,7777.095371,777709537.127774,7,-1.000000,""
15_updated,w0,python3action_chameleon_2000_troll,7777.100361,1,2000.000000,1,COMPLETED_SUCCESSFULLY,7777.105376,97.165047,7874.270423,0.005015,97.170062,1.000052,7,-1.000000,""
15,w0,python3action_chameleon_2000,0.000000,1,-1.000000,1,COMPLETED_SUCCESSFULLY,7874.270438,0.000010,7874.270448,7874.270438,7874.270448,787427044.800201,7,-1.000000,""
python3action_floatoperation_job155_75,w0,python3action_floatoperation,7874.275438,1,2000.000000,1,COMPLETED_SUCCESSFULLY,7874.280453,2.439945,7876.720398,0.005015,2.444960,1.002055,7,-1.000000,""
101_updated,w0,python3action_facedetection_SampleVideo_30mb_gemini,7596.993835,1,2000.000000,1,COMPLETED_SUCCESSFULLY,7596.998850,375.261515,7972.260365,0.005015,375.266530,1.000013,6,-1.000000,""
101,w0,python3action_facedetection_SampleVideo_30mb,0.000000,1,-1.000000,1,COMPLETED_SUCCESSFULLY,7972.260380,0.000010,7972.260390,7972.260380,7972.260390,797226039.017033,6,-1.000000,""
155_updated,w0,python3action_floatoperation_100000000_troll,7874.275438,1,2000.000000,1,COMPLETED_SUCCESSFULLY,7876.720413,125.863576,8002.583990,2.444975,128.308552,1.019426,7,-1.000000,""
155,w0,python3action_floatoperation_100000000,0.000000,1,-1.000000,1,COMPLETED_SUCCESSFULLY,8002.584005,0.000010,8002.584015,8002.584005,8002.584015,800258401.500201,7,-1.000000,""
174_updated,w0,python3action_videoprocessing_SampleVideo_30mb_gemini,7972.265380,1,2000.000000,1,COMPLETED_SUCCESSFULLY,7972.270395,283.435696,8255.706091,0.005015,283.440711,1.000018,6,-1.000000,""
174,w0,python3action_videoprocessing_SampleVideo_30mb,0.000000,1,-1.000000,1,COMPLETED_SUCCESSFULLY,8255.706106,0.000010,8255.706116,8255.706106,8255.706116,825570611.600201,6,-1.000000,""
160_updated,w0,python3action_facedetection_SampleVideo_30mb_troll,8002.589005,1,2000.000000,1,COMPLETED_SUCCESSFULLY,8002.594020,300.924584,8303.518604,0.005015,300.929599,1.000017,7,-1.000000,""
160,w0,python3action_facedetection_SampleVideo_30mb,0.000000,1,-1.000000,1,COMPLETED_SUCCESSFULLY,8303.518619,0.000010,8303.518629,8303.518619,8303.518629,830351862.900201,7,-1.000000,""
166_updated,w0,python3action_videoprocessing_SampleVideo_30mb_troll,8303.523619,1,2000.000000,1,COMPLETED_SUCCESSFULLY,8303.528634,200.069750,8503.598384,0.005015,200.074765,1.000025,7,-1.000000,""
166,w0,python3action_videoprocessing_SampleVideo_30mb,0.000000,1,-1.000000,1,COMPLETED_SUCCESSFULLY,8503.598399,0.000010,8503.598409,8503.598399,8503.598409,850359840.940699,7,-1.000000,""
179_updated,w0,python3action_facedetection_SampleVideo_30mb_gemini,8255.711106,1,2000.000000,1,COMPLETED_SUCCESSFULLY,8255.716121,375.261515,8630.977636,0.005015,375.266530,1.000013,6,-1.000000,""
179,w0,python3action_facedetection_SampleVideo_30mb,0.000000,1,-1.000000,1,COMPLETED_SUCCESSFULLY,8630.977651,0.000010,8630.977661,8630.977651,8630.977661,863097766.117033,6,-1.000000,""
169_updated,w0,python3action_facedetection_SampleVideo_30mb_troll,8503.603399,1,2000.000000,1,COMPLETED_SUCCESSFULLY,8503.608414,300.924584,8804.532998,0.005015,300.929599,1.000017,7,-1.000000,""
169,w0,python3action_facedetection_SampleVideo_30mb,0.000000,1,-1.000000,1,COMPLETED_SUCCESSFULLY,8804.533013,0.000010,8804.533023,8804.533013,8804.533023,880453302.300201,7,-1.000000,""
171_updated,w0,python3action_imageprocessing_SampleImage_40mb_troll,8804.538013,1,2000.000000,1,COMPLETED_SUCCESSFULLY,8804.543028,78.306013,8882.849041,0.005015,78.311028,1.000064,7,-1.000000,""
171,w0,python3action_imageprocessing_SampleImage_40mb,0.000000,1,-1.000000,1,COMPLETED_SUCCESSFULLY,8882.849056,0.000010,8882.849066,8882.849056,8882.849066,888284906.600201,7,-1.000000,""
181_updated,w0,python3action_pyaes_4000_gemini,8630.982651,1,2000.000000,1,COMPLETED_SUCCESSFULLY,8630.987666,365.007620,8995.995286,0.005015,365.012635,1.000014,6,-1.000000,""
181,w0,python3action_pyaes_4000,0.000000,1,-1.000000,1,COMPLETED_SUCCESSFULLY,8995.995301,0.000010,8995.995311,8995.995301,8995.995311,899599531.100201,6,-1.000000,""
175_updated,w0,python3action_floatoperation_100000000_troll,8882.854056,1,2000.000000,1,COMPLETED_SUCCESSFULLY,8882.859071,125.863576,9008.722647,0.005015,125.868591,1.000040,7,-1.000000,""
175,w0,python3action_floatoperation_100000000,0.000000,1,-1.000000,1,COMPLETED_SUCCESSFULLY,9008.722662,0.000010,9008.722672,9008.722662,9008.722672,900872267.242173,7,-1.000000,""
185_updated,w0,python3action_imageprocessing_SampleImage_40mb_gemini,8996.000301,1,2000.000000,1,COMPLETED_SUCCESSFULLY,8996.005316,83.255410,9079.260726,0.005015,83.260425,1.000060,6,-1.000000,""
185,w0,python3action_imageprocessing_SampleImage_40mb,0.000000,1,-1.000000,1,COMPLETED_SUCCESSFULLY,9079.260741,0.000010,9079.260751,9079.260741,9079.260751,907926075.100201,6,-1.000000,""
105_updated,w0,python3action_floatoperation_100000000_troll,9008.727662,1,2000.000000,1,COMPLETED_SUCCESSFULLY,9008.732677,125.863576,9134.596253,0.005015,125.868591,1.000040,7,-1.000000,""
105,w0,python3action_floatoperation_100000000,0.000000,1,-1.000000,1,COMPLETED_SUCCESSFULLY,9134.596268,0.000010,9134.596278,9134.596268,9134.596278,913459627.842174,7,-1.000000,""
182_updated,w0,python3action_modeltraining_reviews100mb_troll,9134.601268,1,2000.000000,1,COMPLETED_SUCCESSFULLY,9134.606283,143.902652,9278.508935,0.005015,143.907667,1.000035,7,-1.000000,""
182,w0,python3action_modeltraining_reviews100mb,0.000000,1,-1.000000,1,COMPLETED_SUCCESSFULLY,9278.508950,0.000010,9278.508960,9278.508950,9278.508960,927850896.027774,7,-1.000000,""
110_updated,w0,python3action_chameleon_3000_troll,9278.513950,1,2000.000000,1,COMPLETED_SUCCESSFULLY,9278.518965,231.228154,9509.747119,0.005015,231.233169,1.000022,7,-1.000000,""
110,w0,python3action_chameleon_3000,0.000000,1,-1.000000,1,COMPLETED_SUCCESSFULLY,9509.747134,0.000010,9509.747144,9509.747134,9509.747144,950974714.415827,7,-1.000000,""
