job_id,workload_name,profile,submission_time,requested_number_of_resources,requested_time,success,final_state,starting_time,execution_time,finish_time,waiting_time,turnaround_time,stretch,allocated_resources,consumed_energy,metadata
python3action_chameleon_job126_4,w0,python3action_chameleon,0.997085,1,2000.000000,1,COMPLETED_SUCCESSFULLY,1.002160,0.867914,1.870074,0.005075,0.872989,1.005847,4,-1.000000,""
python3action_pyaes_job131_5,w0,python3action_pyaes,0.997085,1,2000.000000,1,COMPLETED_SUCCESSFULLY,1.002175,0.892694,1.894869,0.005090,0.897784,1.005702,5,-1.000000,""
python3action_chameleon_job116_6,w0,python3action_chameleon,0.997085,1,2000.000000,1,COMPLETED_SUCCESSFULLY,1.002190,2.134958,3.137148,0.005105,2.140063,1.002391,6,-1.000000,""
python3action_chameleon_job117_7,w0,python3action_chameleon,0.997085,1,2000.000000,1,COMPLETED_SUCCESSFULLY,1.002205,2.134958,3.137163,0.005120,2.140078,1.002398,7,-1.000000,""
python3action_floatoperation_job124_10,w0,python3action_floatoperation,0.997085,1,2000.000000,1,COMPLETED_SUCCESSFULLY,1.002250,2.439945,3.442195,0.005165,2.445110,1.002117,10,-1.000000,""
python3action_modeltraining_job114_0,w0,python3action_modeltraining,0.997085,1,2000.000000,1,COMPLETED_SUCCESSFULLY,1.002100,3.471546,4.473646,0.005015,3.476561,1.001445,0,-1.000000,""
python3action_video_processing_job12_1,w0,python3action_video_processing,0.997085,1,2000.000000,1,COMPLETED_SUCCESSFULLY,1.002115,3.471546,4.473661,0.005030,3.476576,1.001449,1,-1.000000,""
python3action_pyaes_job13_11,w0,python3action_pyaes,0.997085,1,2000.000000,1,COMPLETED_SUCCESSFULLY,1.002265,5.040826,6.043091,0.005180,5.046006,1.001028,11,-1.000000,""
python3action_image_processing_job120_3,w0,python3action_image_processing,0.997085,1,2000.000000,1,COMPLETED_SUCCESSFULLY,1.002145,9.964414,10.966559,0.005060,9.969474,1.000508,3,-1.000000,""
126_updated,w0,python3action_chameleon_2000_taurus,0.997085,1,2000.000000,1,COMPLETED_SUCCESSFULLY,1.870089,11.053752,12.923841,0.873004,11.926756,1.078978,4,-1.000000,""
126,w0,python3action_chameleon_2000,0.000000,1,-1.000000,1,COMPLETED_SUCCESSFULLY,12.923856,0.000010,12.923866,12.923856,12.923866,1292386.600201,4,-1.000000,""
131_updated,w0,python3action_pyaes_3000_taurus,0.997085,1,2000.000000,1,COMPLETED_SUCCESSFULLY,1.894884,18.736434,20.631318,0.897799,19.634233,1.047917,5,-1.000000,""
131,w0,python3action_pyaes_3000,0.000000,1,-1.000000,1,COMPLETED_SUCCESSFULLY,20.631333,0.000010,20.631343,20.631333,20.631343,2063134.313321,5,-1.000000,""
python3action_floatoperation_job142_15,w0,python3action_floatoperation,20.631348,1,2000.000000,1,COMPLETED_SUCCESSFULLY,20.636363,1.020219,21.656582,0.005015,1.025234,1.004916,5,-1.000000,""
120_updated,w0,python3action_imageprocessing_SampleImage_60mb_taurus,0.997085,1,2000.000000,1,COMPLETED_SUCCESSFULLY,10.966574,14.044634,25.011208,9.969489,24.014123,1.709843,3,-1.000000,""
120,w0,python3action_imageprocessing_SampleImage_60mb,0.000000,1,-1.000000,1,COMPLETED_SUCCESSFULLY,25.011223,0.000010,25.011233,25.011223,25.011233,2501123.316982,3,-1.000000,""
python3action_modeltraining_job137_14,w0,python3action_modeltraining,12.923871,1,2000.000000,1,COMPLETED_SUCCESSFULLY,12.928886,12.398880,25.327766,0.005015,12.403895,1.000404,4,-1.000000,""
python3action_video_processing_job148_16,w0,python3action_video_processing_reduced_0.91,25.011238,1,2000.000000,1,COMPLETED_SUCCESSFULLY,25.016253,0.854093,25.870346,0.005015,0.859108,1.005872,3,-1.000000,""
python3action_video_processing_job118_8,w0,python3action_video_processing,0.997085,1,2000.000000,1,COMPLETED_SUCCESSFULLY,1.002220,30.499683,31.501903,0.005135,30.504818,1.000168,8,-1.000000,""
python3action_modeltraining_job119_9,w0,python3action_modeltraining,0.997085,1,2000.000000,1,COMPLETED_SUCCESSFULLY,1.002235,30.499683,31.501918,0.005150,30.504833,1.000169,9,-1.000000,""
142_updated,w0,python3action_floatoperation_100000000_taurus,20.631348,1,2000.000000,1,COMPLETED_SUCCESSFULLY,21.656597,14.875804,36.532402,1.025249,15.901054,1.068921,5,-1.000000,""
142,w0,python3action_floatoperation_100000000,0.000000,1,-1.000000,1,COMPLETED_SUCCESSFULLY,36.532417,0.000010,36.532427,36.532417,36.532427,3653242.700201,5,-1.000000,""
python3action_linpack_job152_17,w0,python3action_linpack_reduced_0.85,36.532432,1,2000.000000,1,COMPLETED_SUCCESSFULLY,36.537447,0.153033,36.690480,0.005015,0.158048,1.032771,5,-1.000000,""
137_updated,w0,python3action_modeltraining_reviews100mb_taurus,12.923871,1,2000.000000,1,COMPLETED_SUCCESSFULLY,25.327781,15.185997,40.513778,12.403910,27.589907,1.816799,4,-1.000000,""
137,w0,python3action_modeltraining_reviews100mb,0.000000,1,-1.000000,1,COMPLETED_SUCCESSFULLY,40.513793,0.000010,40.513803,40.513793,40.513803,4051380.319274,4,-1.000000,""
python3action_linpack_job158_18,w0,python3action_linpack_reduced_0.85,40.513808,1,2000.000000,1,COMPLETED_SUCCESSFULLY,40.518823,0.148785,40.667608,0.005015,0.153800,1.033706,4,-1.000000,""
152_updated,w0,python3action_linpack_5000_taurus,36.532432,1,2000.000000,1,COMPLETED_SUCCESSFULLY,36.690495,6.818087,43.508582,0.158063,6.976150,1.023183,5,-1.000000,""
152,w0,python3action_linpack_5000,0.000000,1,-1.000000,1,COMPLETED_SUCCESSFULLY,43.508597,0.000010,43.508607,43.508597,43.508607,4350860.713103,5,-1.000000,""
148_updated,w0,python3action_videoprocessing_SampleVideo_50mb_taurus,25.011238,1,2000.000000,1,COMPLETED_SUCCESSFULLY,25.870361,21.343685,47.214046,0.859123,22.202808,1.040252,3,-1.000000,""
148,w0,python3action_videoprocessing_SampleVideo_50mb,0.000000,1,-1.000000,1,COMPLETED_SUCCESSFULLY,47.214061,0.000010,47.214071,47.214061,47.214071,4721407.100201,3,-1.000000,""
114_updated,w0,python3action_modeltraining_reviews100mb_neowise,0.997085,1,2000.000000,1,COMPLETED_SUCCESSFULLY,4.473661,43.399999,47.873660,3.476576,46.876575,1.080105,0,-1.000000,""
114,w0,python3action_modeltraining_reviews100mb,0.000000,1,-1.000000,1,COMPLETED_SUCCESSFULLY,47.873675,0.000010,47.873685,47.873675,47.873685,4787368.500201,0,-1.000000,""
python3action_pyaes_job10_19,w0,python3action_pyaes,47.214076,1,2000.000000,1,COMPLETED_SUCCESSFULLY,47.219091,0.697503,47.916594,0.005015,0.702518,1.007190,3,-1.000000,""
python3action_chameleon_job125_20,w0,python3action_chameleon,47.873690,1,2000.000000,1,COMPLETED_SUCCESSFULLY,47.878705,0.243006,48.121711,0.005015,0.248021,1.020637,0,-1.000000,""
10_updated,w0,python3action_pyaes_3000_taurus,47.214076,1,2000.000000,1,COMPLETED_SUCCESSFULLY,47.916609,14.639623,62.556232,0.702533,15.342156,1.047988,3,-1.000000,""
10,w0,python3action_pyaes_3000,0.000000,1,-1.000000,1,COMPLETED_SUCCESSFULLY,62.556247,0.000010,62.556257,62.556247,62.556257,6255625.739826,3,-1.000000,""
158_updated,w0,python3action_linpack_6000_taurus,40.513808,1,2000.000000,1,COMPLETED_SUCCESSFULLY,40.667623,27.135085,67.802708,0.153815,27.288900,1.005668,4,-1.000000,""
158,w0,python3action_linpack_6000,0.000000,1,-1.000000,1,COMPLETED_SUCCESSFULLY,67.802723,0.000010,67.802733,67.802723,67.802733,6780273.300201,4,-1.000000,""
python3action_image_processing_job103_21,w0,python3action_image_processing_reduced_0.86,67.802738,1,2000.000000,1,COMPLETED_SUCCESSFULLY,67.807753,1.675524,69.483277,0.005015,1.680539,1.002993,4,-1.000000,""
124_updated,w0,python3action_floatoperation_100000000_nova,0.997085,1,2000.000000,1,COMPLETED_SUCCESSFULLY,3.442210,66.200020,69.642230,2.445125,68.645145,1.036935,10,-1.000000,""
124,w0,python3action_floatoperation_100000000,0.000000,1,-1.000000,1,COMPLETED_SUCCESSFULLY,69.642245,0.000010,69.642255,69.642245,69.642255,6964225.500201,10,-1.000000,""
125_updated,w0,python3action_chameleon_2000_neowise,47.873690,1,2000.000000,1,COMPLETED_SUCCESSFULLY,48.121726,24.200002,72.321728,0.248036,24.448038,1.010249,0,-1.000000,""
125,w0,python3action_chameleon_2000,0.000000,1,-1.000000,1,COMPLETED_SUCCESSFULLY,72.321743,0.000010,72.321753,72.321743,72.321753,7232175.322787,0,-1.000000,""
python3action_video_processing_job115_2,w0,python3action_video_processing,0.997085,1,2000.000000,1,COMPLETED_SUCCESSFULLY,1.002130,72.012455,73.014585,0.005045,72.017500,1.000070,2,-1.000000,""
python3action_image_processing_job135_12,w0,python3action_image_processing,0.997085,1,2000.000000,1,COMPLETED_SUCCESSFULLY,1.002280,72.012455,73.014735,0.005195,72.017650,1.000072,12,-1.000000,""
python3action_video_processing_job140_13,w0,python3action_video_processing,0.997085,1,2000.000000,1,COMPLETED_SUCCESSFULLY,1.002295,72.012455,73.014750,0.005210,72.017665,1.000072,13,-1.000000,""
103_updated,w0,python3action_imageprocessing_SampleImage_40mb_taurus,67.802738,1,2000.000000,1,COMPLETED_SUCCESSFULLY,69.483292,5.612974,75.096267,1.680554,7.293529,1.299405,4,-1.000000,""
103,w0,python3action_imageprocessing_SampleImage_40mb,0.000000,1,-1.000000,1,COMPLETED_SUCCESSFULLY,75.096282,0.000010,75.096292,75.096282,75.096292,7509629.200201,4,-1.000000,""
python3action_floatoperation_job177_23,w0,python3action_floatoperation,75.096297,1,2000.000000,1,COMPLETED_SUCCESSFULLY,75.101312,0.991898,76.093210,0.005015,0.996913,1.005056,4,-1.000000,""
163_updated,w0,python3action_pyaes_4000_taurus,43.508612,1,2000.000000,1,COMPLETED_SUCCESSFULLY,43.513627,32.868452,76.382079,0.005015,32.873467,1.000153,5,-1.000000,""
163,w0,python3action_pyaes_4000,0.000000,1,-1.000000,1,COMPLETED_SUCCESSFULLY,76.382094,0.000010,76.382104,76.382094,76.382104,7638210.400201,5,-1.000000,""
100_updated,w0,python3action_videoprocessing_SampleVideo_30mb_taurus,62.556262,1,2000.000000,1,COMPLETED_SUCCESSFULLY,62.561277,18.237262,80.798539,0.005015,18.242277,1.000275,3,-1.000000,""
100,w0,python3action_videoprocessing_SampleVideo_30mb,0.000000,1,-1.000000,1,COMPLETED_SUCCESSFULLY,80.798554,0.000010,80.798564,80.798554,80.798564,8079856.400201,3,-1.000000,""
python3action_facedetection_job184_24,w0,python3action_facedetection_reduced_1.83,80.798569,1,2000.000000,1,COMPLETED_SUCCESSFULLY,80.803584,0.000000,80.803584,0.005015,0.005015,314247012.000890,3,-1.000000,""
180_updated,w0,python3action_linpack_5000_taurus,76.382109,1,2000.000000,1,COMPLETED_SUCCESSFULLY,76.387124,6.818087,83.205211,0.005015,6.823102,1.000736,5,-1.000000,""
180,w0,python3action_linpack_5000,0.000000,1,-1.000000,1,COMPLETED_SUCCESSFULLY,83.205226,0.000010,83.205236,83.205226,83.205236,8320523.613103,5,-1.000000,""
python3action_chameleon_job111_25,w0,python3action_chameleon_reduced_1.7,83.205241,1,2000.000000,1,COMPLETED_SUCCESSFULLY,83.210256,0.000000,83.210256,0.005015,0.005015,245580650.515658,5,-1.000000,""
177_updated,w0,python3action_floatoperation_100000000_taurus,75.096297,1,2000.000000,1,COMPLETED_SUCCESSFULLY,76.093225,14.462858,90.556084,0.996928,15.459787,1.068930,4,-1.000000,""
177,w0,python3action_floatoperation_100000000,0.000000,1,-1.000000,1,COMPLETED_SUCCESSFULLY,90.556099,0.000010,90.556109,90.556099,90.556109,9055610.900201,4,-1.000000,""
111_updated,w0,python3action_chameleon_2000_taurus,83.205241,1,2000.000000,1,COMPLETED_SUCCESSFULLY,83.210286,11.369361,94.579647,0.005045,11.374406,1.000444,5,-1.000000,""
111,w0,python3action_chameleon_2000,0.000000,1,-1.000000,1,COMPLETED_SUCCESSFULLY,94.579662,0.000010,94.579672,94.579662,94.579672,9457967.200201,5,-1.000000,""
130_updated,w0,python3action_chameleon_2000_neowise,72.321758,1,2000.000000,1,COMPLETED_SUCCESSFULLY,72.326773,24.200002,96.526775,0.005015,24.205017,1.000207,0,-1.000000,""
130,w0,python3action_chameleon_2000,0.000000,1,-1.000000,1,COMPLETED_SUCCESSFULLY,96.526790,0.000010,96.526800,96.526790,96.526800,9652680.022787,0,-1.000000,""
python3action_pyaes_job136_26,w0,python3action_pyaes_reduced_0.85,96.526805,1,2000.000000,1,COMPLETED_SUCCESSFULLY,96.531820,0.036451,96.568271,0.005015,0.041466,1.137582,0,-1.000000,""
12_updated,w0,python3action_videoprocessing_SampleVideo_30mb_neowise,0.997085,1,2000.000000,1,COMPLETED_SUCCESSFULLY,4.473691,92.799998,97.273689,3.476606,96.276604,1.037463,1,-1.000000,""
12,w0,python3action_videoprocessing_SampleVideo_30mb,0.000000,1,-1.000000,1,COMPLETED_SUCCESSFULLY,97.273704,0.000010,97.273714,97.273704,97.273714,9727371.400201,1,-1.000000,""
python3action_pyaes_job141_27,w0,python3action_pyaes,97.273719,1,2000.000000,1,COMPLETED_SUCCESSFULLY,97.278734,0.243006,97.521740,0.005015,0.248021,1.020637,1,-1.000000,""
184_updated,w0,python3action_facedetection_SampleVideo_50mb_taurus,80.798569,1,2000.000000,1,COMPLETED_SUCCESSFULLY,80.803614,18.624703,99.428317,0.005045,18.629748,1.000271,3,-1.000000,""
184,w0,python3action_facedetection_SampleVideo_50mb,0.000000,1,-1.000000,1,COMPLETED_SUCCESSFULLY,99.428332,0.000010,99.428342,99.428332,99.428342,9942834.200201,3,-1.000000,""
python3action_facedetection_job146_22,w0,python3action_facedetection,69.642260,1,2000.000000,1,COMPLETED_SUCCESSFULLY,69.647275,30.499683,100.146958,0.005015,30.504698,1.000164,10,-1.000000,""
190_updated,w0,python3action_modeltraining_reviews100mb_taurus,90.556114,1,2000.000000,1,COMPLETED_SUCCESSFULLY,90.561129,15.185997,105.747126,0.005015,15.191012,1.000330,4,-1.000000,""
190,w0,python3action_modeltraining_reviews100mb,0.000000,1,-1.000000,1,COMPLETED_SUCCESSFULLY,105.747141,0.000010,105.747151,105.747141,105.747151,10574715.110495,4,-1.000000,""
python3action_video_processing_job2_28,w0,python3action_video_processing_reduced_1.89,105.747156,1,2000.000000,1,COMPLETED_SUCCESSFULLY,105.752171,0.000000,105.752171,0.005015,0.005015,252612308.340014,4,-1.000000,""
193_updated,w0,python3action_chameleon_2000_taurus,94.579677,1,2000.000000,1,COMPLETED_SUCCESSFULLY,94.584692,11.369361,105.954053,0.005015,11.374376,1.000441,5,-1.000000,""
193,w0,python3action_chameleon_2000,0.000000,1,-1.000000,1,COMPLETED_SUCCESSFULLY,105.954068,0.000010,105.954078,105.954068,105.954078,10595407.800201,5,-1.000000,""
119_updated,w0,python3action_modeltraining_reviews100mb_nova,0.997085,1,2000.000000,1,COMPLETED_SUCCESSFULLY,31.501948,79.600010,111.101958,30.504863,110.104873,1.383227,9,-1.000000,""
119,w0,python3action_modeltraining_reviews100mb,0.000000,1,-1.000000,1,COMPLETED_SUCCESSFULLY,111.101973,0.000010,111.101983,111.101973,111.101983,11110198.300201,9,-1.000000,""
python3action_video_processing_job150_29,w0,python3action_video_processing_reduced_0.97,111.101988,1,2000.000000,1,COMPLETED_SUCCESSFULLY,111.107003,0.000000,111.107003,0.005015,0.005015,3426207703.466020,9,-1.000000,""
22_updated,w0,python3action_pyaes_3000_taurus,105.954083,1,2000.000000,1,COMPLETED_SUCCESSFULLY,105.959098,18.736434,124.695532,0.005015,18.741449,1.000268,5,-1.000000,""
22,w0,python3action_pyaes_3000,0.000000,1,-1.000000,1,COMPLETED_SUCCESSFULLY,124.695547,0.000010,124.695557,124.695547,124.695557,12469555.700201,5,-1.000000,""
91_updated,w0,python3action_pyaes_4000_taurus,99.428347,1,2000.000000,1,COMPLETED_SUCCESSFULLY,99.433362,25.681609,125.114971,0.005015,25.686624,1.000195,3,-1.000000,""
91,w0,python3action_pyaes_4000,0.000000,1,-1.000000,1,COMPLETED_SUCCESSFULLY,125.114986,0.000010,125.114996,125.114986,125.114996,12511499.600201,3,-1.000000,""
2_updated,w0,python3action_videoprocessing_SampleVideo_30mb_taurus,105.747156,1,2000.000000,1,COMPLETED_SUCCESSFULLY,105.752201,22.692917,128.445118,0.005045,22.697962,1.000222,4,-1.000000,""
2,w0,python3action_videoprocessing_SampleVideo_30mb,0.000000,1,-1.000000,1,COMPLETED_SUCCESSFULLY,128.445133,0.000010,128.445143,128.445133,128.445143,12844514.314629,4,-1.000000,""
36_updated,w0,python3action_modeltraining_reviews100mb_taurus,128.445148,1,2000.000000,1,COMPLETED_SUCCESSFULLY,128.450163,15.185997,143.636160,0.005015,15.191012,1.000330,4,-1.000000,""
36,w0,python3action_modeltraining_reviews100mb,0.000000,1,-1.000000,1,COMPLETED_SUCCESSFULLY,143.636175,0.000010,143.636185,143.636175,143.636185,14363618.510495,4,-1.000000,""
30_updated,w0,python3action_facedetection_SampleVideo_50mb_taurus,125.115001,1,2000.000000,1,COMPLETED_SUCCESSFULLY,125.120016,18.624703,143.744719,0.005015,18.629718,1.000269,3,-1.000000,""
30,w0,python3action_facedetection_SampleVideo_50mb,0.000000,1,-1.000000,1,COMPLETED_SUCCESSFULLY,143.744734,0.000010,143.744744,143.744734,143.744744,14374474.400201,3,-1.000000,""
python3action_linpack_job47_30,w0,python3action_linpack_reduced_0.85,143.744749,1,2000.000000,1,COMPLETED_SUCCESSFULLY,143.749764,0.119572,143.869336,0.005015,0.124587,1.041941,3,-1.000000,""
41_updated,w0,python3action_chameleon_2000_taurus,143.636190,1,2000.000000,1,COMPLETED_SUCCESSFULLY,143.641205,11.053752,154.694957,0.005015,11.058767,1.000454,4,-1.000000,""
41,w0,python3action_chameleon_2000,0.000000,1,-1.000000,1,COMPLETED_SUCCESSFULLY,154.694972,0.000010,154.694982,154.694972,154.694982,15469498.200201,4,-1.000000,""
python3action_facedetection_job52_31,w0,python3action_facedetection_reduced_2.74,154.694987,1,2000.000000,1,COMPLETED_SUCCESSFULLY,154.700002,0.000000,154.700002,0.005015,0.005015,252431612.839771,4,-1.000000,""
135_updated,w0,python3action_imageprocessing_SampleImage_40mb_nova,0.997085,1,2000.000000,1,COMPLETED_SUCCESSFULLY,73.014750,84.999193,158.013943,72.017665,157.016858,1.847275,12,-1.000000,""
135,w0,python3action_imageprocessing_SampleImage_40mb,0.000000,1,-1.000000,1,COMPLETED_SUCCESSFULLY,158.013958,0.000010,158.013968,158.013958,158.013968,15801396.805226,12,-1.000000,""
25_updated,w0,python3action_chameleon_3000_taurus,124.695562,1,2000.000000,1,COMPLETED_SUCCESSFULLY,124.700577,38.074975,162.775552,0.005015,38.079990,1.000132,5,-1.000000,""
25,w0,python3action_chameleon_3000,0.000000,1,-1.000000,1,COMPLETED_SUCCESSFULLY,162.775567,0.000010,162.775577,162.775567,162.775577,16277557.700201,5,-1.000000,""
python3action_floatoperation_job156_32,w0,python3action_floatoperation,158.013973,1,2000.000000,1,COMPLETED_SUCCESSFULLY,158.018988,5.760927,163.779915,0.005015,5.765942,1.000871,12,-1.000000,""
47_updated,w0,python3action_linpack_6000_taurus,143.744749,1,2000.000000,1,COMPLETED_SUCCESSFULLY,143.869351,21.807229,165.676580,0.124602,21.931831,1.005714,3,-1.000000,""
47,w0,python3action_linpack_6000,0.000000,1,-1.000000,1,COMPLETED_SUCCESSFULLY,165.676595,0.000010,165.676605,165.676595,165.676605,16567660.500201,3,-1.000000,""
136_updated,w0,python3action_pyaes_3000_neowise,96.526805,1,2000.000000,1,COMPLETED_SUCCESSFULLY,96.568286,72.500000,169.068286,0.041481,72.541481,1.000572,0,-1.000000,""
136,w0,python3action_pyaes_3000,0.000000,1,-1.000000,1,COMPLETED_SUCCESSFULLY,169.068301,0.000010,169.068311,169.068301,169.068311,16906831.100402,0,-1.000000,""
python3action_floatoperation_job147_34,w0,python3action_floatoperation,169.068316,1,2000.000000,1,COMPLETED_SUCCESSFULLY,169.073331,0.277720,169.351051,0.005015,0.282735,1.018058,0,-1.000000,""
141_updated,w0,python3action_pyaes_3000_neowise,97.273719,1,2000.000000,1,COMPLETED_SUCCESSFULLY,97.521755,72.500000,170.021755,0.248036,72.748036,1.003421,1,-1.000000,""
141,w0,python3action_pyaes_3000,0.000000,1,-1.000000,1,COMPLETED_SUCCESSFULLY,170.021770,0.000010,170.021780,170.021770,170.021780,17002178.000402,1,-1.000000,""
python3action_facedetection_job58_33,w0,python3action_facedetection,162.775582,1,2000.000000,1,COMPLETED_SUCCESSFULLY,162.780597,12.752895,175.533492,0.005015,12.757910,1.000393,5,-1.000000,""
52_updated,w0,python3action_facedetection_SampleVideo_50mb_taurus,154.694987,1,2000.000000,1,COMPLETED_SUCCESSFULLY,154.700032,23.175016,177.875048,0.005045,23.180061,1.000218,4,-1.000000,""
52,w0,python3action_facedetection_SampleVideo_50mb,0.000000,1,-1.000000,1,COMPLETED_SUCCESSFULLY,177.875063,0.000010,177.875073,177.875063,177.875073,17787507.338976,4,-1.000000,""
63_updated,w0,python3action_pyaes_3000_taurus,165.676610,1,2000.000000,1,COMPLETED_SUCCESSFULLY,165.681625,14.639623,180.321248,0.005015,14.644638,1.000343,3,-1.000000,""
63,w0,python3action_pyaes_3000,0.000000,1,-1.000000,1,COMPLETED_SUCCESSFULLY,180.321263,0.000010,180.321273,180.321263,180.321273,18032127.339825,3,-1.000000,""
python3action_chameleon_job74_35,w0,python3action_chameleon_reduced_1.7,180.321278,1,2000.000000,1,COMPLETED_SUCCESSFULLY,180.326293,0.000000,180.326293,0.005015,0.005015,314527089.549020,3,-1.000000,""
74_updated,w0,python3action_chameleon_2000_taurus,180.321278,1,2000.000000,1,COMPLETED_SUCCESSFULLY,180.326323,8.883396,189.209719,0.005045,8.888441,1.000568,3,-1.000000,""
74,w0,python3action_chameleon_2000,0.000000,1,-1.000000,1,COMPLETED_SUCCESSFULLY,189.209734,0.000010,189.209744,189.209734,189.209744,18920974.400201,3,-1.000000,""
13_updated,w0,python3action_pyaes_3000_nova,0.997085,1,2000.000000,1,COMPLETED_SUCCESSFULLY,6.043106,184.637181,190.680287,5.046021,189.683202,1.027329,11,-1.000000,""
13,w0,python3action_pyaes_3000,0.000000,1,-1.000000,1,COMPLETED_SUCCESSFULLY,190.680302,0.000010,190.680312,190.680302,190.680312,19068031.241331,11,-1.000000,""
69_updated,w0,python3action_linpack_6000_taurus,177.875078,1,2000.000000,1,COMPLETED_SUCCESSFULLY,177.880093,27.135085,205.015178,0.005015,27.140100,1.000185,4,-1.000000,""
69,w0,python3action_linpack_6000,0.000000,1,-1.000000,1,COMPLETED_SUCCESSFULLY,205.015193,0.000010,205.015203,205.015193,205.015203,20501520.300201,4,-1.000000,""
python3action_pyaes_job85_37,w0,python3action_pyaes_reduced_1.7,205.015208,1,2000.000000,1,COMPLETED_SUCCESSFULLY,205.020223,0.000000,205.020223,0.005015,0.005015,252431612.839771,4,-1.000000,""
58_updated,w0,python3action_facedetection_SampleVideo_30mb_taurus,162.775582,1,2000.000000,1,COMPLETED_SUCCESSFULLY,175.533507,30.849580,206.383087,12.757925,43.607505,1.413553,5,-1.000000,""
58,w0,python3action_facedetection_SampleVideo_30mb,0.000000,1,-1.000000,1,COMPLETED_SUCCESSFULLY,206.383102,0.000010,206.383112,206.383102,206.383112,20638311.234454,5,-1.000000,""
116_updated,w0,python3action_chameleon_3000_gemini,0.997085,1,2000.000000,1,COMPLETED_SUCCESSFULLY,3.137163,205.077663,208.214827,2.140078,207.217742,1.010435,6,-1.000000,""
116,w0,python3action_chameleon_3000,0.000000,1,-1.000000,1,COMPLETED_SUCCESSFULLY,208.214842,0.000010,208.214852,208.214842,208.214852,20821485.200201,6,-1.000000,""
8_updated,w0,python3action_facedetection_SampleVideo_30mb_taurus,189.209749,1,2000.000000,1,COMPLETED_SUCCESSFULLY,189.214764,24.104173,213.318937,0.005015,24.109188,1.000208,3,-1.000000,""
8,w0,python3action_facedetection_SampleVideo_30mb,0.000000,1,-1.000000,1,COMPLETED_SUCCESSFULLY,213.318952,0.000010,213.318962,213.318952,213.318962,21331896.200201,3,-1.000000,""
115_updated,w0,python3action_videoprocessing_SampleVideo_50mb_taurus,0.997085,1,2000.000000,1,COMPLETED_SUCCESSFULLY,73.014600,154.250029,227.264629,72.017515,226.267544,1.466888,2,-1.000000,""
115,w0,python3action_videoprocessing_SampleVideo_50mb,0.000000,1,-1.000000,1,COMPLETED_SUCCESSFULLY,227.264644,0.000010,227.264654,227.264644,227.264654,22726465.415258,2,-1.000000,""
117_updated,w0,python3action_chameleon_3000_troll,0.997085,1,2000.000000,1,COMPLETED_SUCCESSFULLY,3.137193,231.228154,234.365347,2.140108,233.368262,1.009255,7,-1.000000,""
117,w0,python3action_chameleon_3000,0.000000,1,-1.000000,1,COMPLETED_SUCCESSFULLY,234.365362,0.000010,234.365372,234.365362,234.365372,23436537.241402,7,-1.000000,""
python3action_pyaes_job122_39,w0,python3action_pyaes_reduced_0.85,234.370362,1,2000.000000,1,COMPLETED_SUCCESSFULLY,234.375377,0.320244,234.695621,0.005015,0.325259,1.015660,7,-1.000000,""
85_updated,w0,python3action_pyaes_4000_taurus,205.015208,1,2000.000000,1,COMPLETED_SUCCESSFULLY,205.020253,31.956037,236.976290,0.005045,31.961082,1.000158,4,-1.000000,""
85,w0,python3action_pyaes_4000,0.000000,1,-1.000000,1,COMPLETED_SUCCESSFULLY,236.976305,0.000010,236.976315,236.976305,236.976315,23697631.541793,4,-1.000000,""
python3action_facedetection_job121_38,w0,python3action_facedetection,208.219842,1,2000.000000,1,COMPLETED_SUCCESSFULLY,208.224857,30.499683,238.724540,0.005015,30.504698,1.000164,6,-1.000000,""
150_updated,w0,python3action_videoprocessing_SampleVideo_50mb_nova,111.101988,1,2000.000000,1,COMPLETED_SUCCESSFULLY,111.107033,139.600010,250.707043,0.005045,139.605055,1.000036,9,-1.000000,""
150,w0,python3action_videoprocessing_SampleVideo_50mb,0.000000,1,-1.000000,1,COMPLETED_SUCCESSFULLY,250.707058,0.000010,250.707068,250.707058,250.707068,25070706.800201,9,-1.000000,""
python3action_linpack_job113_40,w0,python3action_linpack,250.712058,1,2000.000000,1,COMPLETED_SUCCESSFULLY,250.717073,2.439945,253.157018,0.005015,2.444960,1.002055,9,-1.000000,""
146_updated,w0,python3action_facedetection_SampleVideo_30mb_nova,69.642260,1,2000.000000,1,COMPLETED_SUCCESSFULLY,100.146973,160.399990,260.546963,30.504713,190.904703,1.190179,10,-1.000000,""
146,w0,python3action_facedetection_SampleVideo_30mb,0.000000,1,-1.000000,1,COMPLETED_SUCCESSFULLY,260.546978,0.000010,260.546988,260.546978,260.546988,26054698.823505,10,-1.000000,""
python3action_pyaes_job1_41,w0,python3action_pyaes,260.551978,1,2000.000000,1,COMPLETED_SUCCESSFULLY,260.556993,2.134958,262.691951,0.005015,2.139973,1.002349,10,-1.000000,""
python3action_modeltraining_job161_36,w0,python3action_modeltraining,190.680317,1,2000.000000,1,COMPLETED_SUCCESSFULLY,190.685332,72.012455,262.697787,0.005015,72.017470,1.000070,11,-1.000000,""
113_updated,w0,python3action_linpack_5000_nova,250.712058,1,2000.000000,1,COMPLETED_SUCCESSFULLY,253.157033,34.600010,287.757043,2.444975,37.044985,1.070664,9,-1.000000,""
113,w0,python3action_linpack_5000,0.000000,1,-1.000000,1,COMPLETED_SUCCESSFULLY,287.757058,0.000010,287.757068,287.757058,287.757068,28775706.806879,9,-1.000000,""
151_updated,w0,python3action_pyaes_4000_neowise,170.021785,1,2000.000000,1,COMPLETED_SUCCESSFULLY,170.026800,128.200002,298.226802,0.005015,128.205017,1.000039,1,-1.000000,""
151,w0,python3action_pyaes_4000,0.000000,1,-1.000000,1,COMPLETED_SUCCESSFULLY,298.226817,0.000010,298.226827,298.226817,298.226827,29822682.722787,1,-1.000000,""
python3action_linpack_job157_42,w0,python3action_linpack_reduced_0.85,298.231817,1,2000.000000,1,COMPLETED_SUCCESSFULLY,298.236832,0.041658,298.278490,0.005015,0.046673,1.120385,1,-1.000000,""
147_updated,w0,python3action_floatoperation_200000000_neowise,169.068316,1,2000.000000,1,COMPLETED_SUCCESSFULLY,169.351066,129.200002,298.551069,0.282750,129.482753,1.002188,0,-1.000000,""
147,w0,python3action_floatoperation_200000000,0.000000,1,-1.000000,1,COMPLETED_SUCCESSFULLY,298.551084,0.000010,298.551094,298.551084,298.551094,29855109.400201,0,-1.000000,""
157_updated,w0,python3action_linpack_5000_neowise,298.231817,1,2000.000000,1,COMPLETED_SUCCESSFULLY,298.278505,20.750000,319.028505,0.046688,20.796688,1.002250,1,-1.000000,""
157,w0,python3action_linpack_5000,0.000000,1,-1.000000,1,COMPLETED_SUCCESSFULLY,319.028520,0.000010,319.028530,319.028520,319.028530,31902853.005526,1,-1.000000,""
156_updated,w0,python3action_floatoperation_100000000_nova,158.013973,1,2000.000000,1,COMPLETED_SUCCESSFULLY,163.779930,156.304117,320.084047,5.765957,162.070074,1.036889,12,-1.000000,""
156,w0,python3action_floatoperation_100000000,0.000000,1,-1.000000,1,COMPLETED_SUCCESSFULLY,320.084062,0.000010,320.084072,320.084062,320.084072,32008407.240690,12,-1.000000,""
102_updated,w0,python3action_linpack_5000_nova,287.762058,1,2000.000000,1,COMPLETED_SUCCESSFULLY,287.767073,34.600010,322.367083,0.005015,34.605025,1.000145,9,-1.000000,""
102,w0,python3action_linpack_5000,0.000000,1,-1.000000,1,COMPLETED_SUCCESSFULLY,322.367098,0.000010,322.367108,322.367098,322.367108,32236710.800201,9,-1.000000,""
python3action_floatoperation_job18_44,w0,python3action_floatoperation,322.372098,1,2000.000000,1,COMPLETED_SUCCESSFULLY,322.377113,2.439945,324.817058,0.005015,2.444960,1.002055,9,-1.000000,""
python3action_linpack_job104_43,w0,python3action_linpack,320.089062,1,2000.000000,1,COMPLETED_SUCCESSFULLY,320.094077,5.760927,325.855004,0.005015,5.765942,1.000871,12,-1.000000,""
161_updated,w0,python3action_modeltraining_reviews50mb_nova,190.680317,1,2000.000000,1,COMPLETED_SUCCESSFULLY,262.697802,100.110137,362.807940,72.017485,172.127623,1.719383,11,-1.000000,""
161,w0,python3action_modeltraining_reviews50mb,0.000000,1,-1.000000,1,COMPLETED_SUCCESSFULLY,362.807955,0.000010,362.807965,362.807955,362.807965,36280796.500201,11,-1.000000,""
18_updated,w0,python3action_floatoperation_100000000_nova,322.372098,1,2000.000000,1,COMPLETED_SUCCESSFULLY,324.817073,66.200020,391.017093,2.444975,68.644995,1.036933,9,-1.000000,""
18,w0,python3action_floatoperation_100000000,0.000000,1,-1.000000,1,COMPLETED_SUCCESSFULLY,391.017108,0.000010,391.017118,391.017108,391.017118,39101711.800201,9,-1.000000,""
python3action_image_processing_job186_45,w0,python3action_image_processing_reduced_1.73,391.022108,1,2000.000000,1,COMPLETED_SUCCESSFULLY,391.027123,0.000000,391.027123,0.005015,0.005015,102706460.067520,9,-1.000000,""
1_updated,w0,python3action_pyaes_4000_nova,260.551978,1,2000.000000,1,COMPLETED_SUCCESSFULLY,262.691966,139.600010,402.291976,2.139988,141.739998,1.015329,10,-1.000000,""
1,w0,python3action_pyaes_4000,0.000000,1,-1.000000,1,COMPLETED_SUCCESSFULLY,402.291991,0.000010,402.292001,402.291991,402.292001,40229200.101267,10,-1.000000,""
140_updated,w0,python3action_videoprocessing_SampleVideo_50mb_nova,0.997085,1,2000.000000,1,COMPLETED_SUCCESSFULLY,73.014780,329.608004,402.622784,72.017695,401.625699,1.218495,13,-1.000000,""
140,w0,python3action_videoprocessing_SampleVideo_50mb,0.000000,1,-1.000000,1,COMPLETED_SUCCESSFULLY,402.622799,0.000010,402.622809,402.622799,402.622809,40262280.903540,13,-1.000000,""
python3action_image_processing_job19_46,w0,python3action_image_processing_reduced_0.86,402.296991,1,2000.000000,1,COMPLETED_SUCCESSFULLY,402.302006,4.121579,406.423585,0.005015,4.126594,1.001217,10,-1.000000,""
python3action_chameleon_job192_47,w0,python3action_chameleon,402.627799,1,2000.000000,1,COMPLETED_SUCCESSFULLY,402.632814,5.040826,407.673640,0.005015,5.045841,1.000995,13,-1.000000,""
167_updated,w0,python3action_videoprocessing_SampleVideo_30mb_neowise,319.033520,1,2000.000000,1,COMPLETED_SUCCESSFULLY,319.038535,92.799998,411.838533,0.005015,92.805013,1.000054,1,-1.000000,""
167,w0,python3action_videoprocessing_SampleVideo_30mb,0.000000,1,-1.000000,1,COMPLETED_SUCCESSFULLY,411.838548,0.000010,411.838558,411.838548,411.838558,41183855.800201,1,-1.000000,""
python3action_modeltraining_job17_48,w0,python3action_modeltraining_reduced_1.0,411.843548,1,2000.000000,1,COMPLETED_SUCCESSFULLY,411.848563,0.000000,411.848563,0.005015,0.005015,900253555.479592,1,-1.000000,""
162_updated,w0,python3action_floatoperation_200000000_neowise,298.556084,1,2000.000000,1,COMPLETED_SUCCESSFULLY,298.561099,129.200002,427.761101,0.005015,129.205017,1.000039,0,-1.000000,""
162,w0,python3action_floatoperation_200000000,0.000000,1,-1.000000,1,COMPLETED_SUCCESSFULLY,427.761116,0.000010,427.761126,427.761116,427.761126,42776112.622787,0,-1.000000,""
19_updated,w0,python3action_imageprocessing_SampleImage_40mb_nova,402.296991,1,2000.000000,1,COMPLETED_SUCCESSFULLY,406.423600,36.000000,442.423600,4.126609,40.126609,1.114628,10,-1.000000,""
19,w0,python3action_imageprocessing_SampleImage_40mb,0.000000,1,-1.000000,1,COMPLETED_SUCCESSFULLY,442.423615,0.000010,442.423625,442.423615,442.423625,44242362.500402,10,-1.000000,""
python3action_linpack_job195_49,w0,python3action_linpack_reduced_0.85,442.428615,1,2000.000000,1,COMPLETED_SUCCESSFULLY,442.433630,0.365992,442.799622,0.005015,0.371007,1.013702,10,-1.000000,""
17_updated,w0,python3action_modeltraining_reviews100mb_neowise,411.843548,1,2000.000000,1,COMPLETED_SUCCESSFULLY,411.848593,43.399999,455.248592,0.005045,43.405044,1.000116,1,-1.000000,""
17,w0,python3action_modeltraining_reviews100mb,0.000000,1,-1.000000,1,COMPLETED_SUCCESSFULLY,455.248607,0.000010,455.248617,455.248607,455.248617,45524861.700201,1,-1.000000,""
python3action_facedetection_job176_50,w0,python3action_facedetection_reduced_1.83,455.253607,1,2000.000000,1,COMPLETED_SUCCESSFULLY,455.258622,0.000000,455.258622,0.005015,0.005015,900253555.479592,1,-1.000000,""
122_updated,w0,python3action_pyaes_4000_troll,234.370362,1,2000.000000,1,COMPLETED_SUCCESSFULLY,234.695636,251.727104,486.422740,0.325274,252.052378,1.001292,7,-1.000000,""
122,w0,python3action_pyaes_4000,0.000000,1,-1.000000,1,COMPLETED_SUCCESSFULLY,486.422755,0.000010,486.422765,486.422755,486.422765,48642276.500201,7,-1.000000,""
186_updated,w0,python3action_imageprocessing_SampleImage_60mb_nova,391.022108,1,2000.000000,1,COMPLETED_SUCCESSFULLY,391.027153,103.750012,494.777165,0.005045,103.755057,1.000049,9,-1.000000,""
186,w0,python3action_imageprocessing_SampleImage_60mb,0.000000,1,-1.000000,1,COMPLETED_SUCCESSFULLY,494.777180,0.000010,494.777190,494.777180,494.777190,49477719.021924,9,-1.000000,""
python3action_pyaes_job199_52,w0,python3action_pyaes_reduced_0.85,494.782180,1,2000.000000,1,COMPLETED_SUCCESSFULLY,494.787195,0.320244,495.107439,0.005015,0.325259,1.015660,9,-1.000000,""
172_updated,w0,python3action_pyaes_3000_neowise,427.766116,1,2000.000000,1,COMPLETED_SUCCESSFULLY,427.771131,72.500000,500.271131,0.005015,72.505015,1.000069,0,-1.000000,""
172,w0,python3action_pyaes_3000,0.000000,1,-1.000000,1,COMPLETED_SUCCESSFULLY,500.271146,0.000010,500.271156,500.271146,500.271156,50027115.600402,0,-1.000000,""
python3action_modeltraining_job128_51,w0,python3action_modeltraining,486.427755,1,2000.000000,1,COMPLETED_SUCCESSFULLY,486.432770,30.499683,516.932453,0.005015,30.504698,1.000164,7,-1.000000,""
106_updated,w0,python3action_chameleon_2000_neowise,500.276146,1,2000.000000,1,COMPLETED_SUCCESSFULLY,500.281161,24.200002,524.481163,0.005015,24.205017,1.000207,0,-1.000000,""
106,w0,python3action_chameleon_2000,0.000000,1,-1.000000,1,COMPLETED_SUCCESSFULLY,524.481178,0.000010,524.481188,524.481178,524.481188,52448118.822787,0,-1.000000,""
199_updated,w0,python3action_pyaes_3000_nova,494.782180,1,2000.000000,1,COMPLETED_SUCCESSFULLY,495.107454,78.200020,573.307474,0.325274,78.525294,1.004160,9,-1.000000,""
199,w0,python3action_pyaes_3000,0.000000,1,-1.000000,1,COMPLETED_SUCCESSFULLY,573.307489,0.000010,573.307499,573.307489,573.307499,57330749.900201,9,-1.000000,""
192_updated,w0,python3action_chameleon_2000_nova,402.627799,1,2000.000000,1,COMPLETED_SUCCESSFULLY,407.673655,166.692884,574.366539,5.045856,171.738740,1.030270,13,-1.000000,""
192,w0,python3action_chameleon_2000,0.000000,1,-1.000000,1,COMPLETED_SUCCESSFULLY,574.366554,0.000010,574.366564,574.366554,574.366564,57436656.433109,13,-1.000000,""
python3action_pyaes_job24_53,w0,python3action_pyaes_reduced_0.85,574.371554,1,2000.000000,1,COMPLETED_SUCCESSFULLY,574.376569,0.756124,575.132693,0.005015,0.761139,1.006633,13,-1.000000,""
176_updated,w0,python3action_facedetection_SampleVideo_30mb_neowise,455.253607,1,2000.000000,1,COMPLETED_SUCCESSFULLY,455.258652,162.200002,617.458654,0.005045,162.205047,1.000031,1,-1.000000,""
176,w0,python3action_facedetection_SampleVideo_30mb,0.000000,1,-1.000000,1,COMPLETED_SUCCESSFULLY,617.458669,0.000010,617.458679,617.458669,617.458679,61745867.923189,1,-1.000000,""
109_updated,w0,python3action_pyaes_4000_neowise,524.486178,1,2000.000000,1,COMPLETED_SUCCESSFULLY,524.491193,128.200002,652.691195,0.005015,128.205017,1.000039,0,-1.000000,""
109,w0,python3action_pyaes_4000,0.000000,1,-1.000000,1,COMPLETED_SUCCESSFULLY,652.691210,0.000010,652.691220,652.691210,652.691220,65269122.022787,0,-1.000000,""
128_updated,w0,python3action_modeltraining_reviews100mb_troll,486.427755,1,2000.000000,1,COMPLETED_SUCCESSFULLY,516.932468,143.902652,660.835120,30.504713,174.407365,1.211982,7,-1.000000,""
128,w0,python3action_modeltraining_reviews100mb,0.000000,1,-1.000000,1,COMPLETED_SUCCESSFULLY,660.835135,0.000010,660.835145,660.835135,660.835145,66083514.527774,7,-1.000000,""
python3action_linpack_job133_54,w0,python3action_linpack_reduced_1.7,660.840135,1,2000.000000,1,COMPLETED_SUCCESSFULLY,660.845150,0.000000,660.845150,0.005015,0.005015,102587033.951163,7,-1.000000,""
183_updated,w0,python3action_pyaes_4000_nova,362.812955,1,2000.000000,1,COMPLETED_SUCCESSFULLY,362.817970,329.608004,692.425974,0.005015,329.613019,1.000015,11,-1.000000,""
183,w0,python3action_pyaes_4000,0.000000,1,-1.000000,1,COMPLETED_SUCCESSFULLY,692.425989,0.000010,692.425999,692.425989,692.425999,69242599.900201,11,-1.000000,""
python3action_video_processing_job29_55,w0,python3action_video_processing_reduced_0.97,692.430989,1,2000.000000,1,COMPLETED_SUCCESSFULLY,692.436004,0.000000,692.436004,0.005015,0.005015,1470414139.966667,11,-1.000000,""
21_updated,w0,python3action_videoprocessing_SampleVideo_50mb_nova,573.312489,1,2000.000000,1,COMPLETED_SUCCESSFULLY,573.317504,139.600010,712.917514,0.005015,139.605025,1.000036,9,-1.000000,""
21,w0,python3action_videoprocessing_SampleVideo_50mb,0.000000,1,-1.000000,1,COMPLETED_SUCCESSFULLY,712.917529,0.000010,712.917539,712.917529,712.917539,71291753.900201,9,-1.000000,""
118_updated,w0,python3action_videoprocessing_SampleVideo_50mb_yeti,0.997085,1,2000.000000,1,COMPLETED_SUCCESSFULLY,31.501918,686.386021,717.887938,30.504833,716.890853,1.044443,8,-1.000000,""
118,w0,python3action_videoprocessing_SampleVideo_50mb,0.000000,1,-1.000000,1,COMPLETED_SUCCESSFULLY,717.887953,0.000010,717.887963,717.887953,717.887963,71788796.314527,8,-1.000000,""
195_updated,w0,python3action_linpack_6000_nova,442.428615,1,2000.000000,1,COMPLETED_SUCCESSFULLY,442.799637,276.000000,718.799637,0.371022,276.371022,1.001344,10,-1.000000,""
195,w0,python3action_linpack_6000,0.000000,1,-1.000000,1,COMPLETED_SUCCESSFULLY,718.799652,0.000010,718.799662,718.799652,718.799662,71879966.200401,10,-1.000000,""
python3action_linpack_job123_56,w0,python3action_linpack,717.892953,1,2000.000000,1,COMPLETED_SUCCESSFULLY,717.897968,2.439945,720.337913,0.005015,2.444960,1.002055,8,-1.000000,""
4_updated,w0,python3action_imageprocessing_SampleImage_40mb_nova,718.804652,1,2000.000000,1,COMPLETED_SUCCESSFULLY,718.809667,36.000000,754.809667,0.005015,36.005015,1.000139,10,-1.000000,""
4,w0,python3action_imageprocessing_SampleImage_40mb,0.000000,1,-1.000000,1,COMPLETED_SUCCESSFULLY,754.809682,0.000010,754.809692,754.809682,754.809692,75480969.200402,10,-1.000000,""
python3action_modeltraining_job45_57,w0,python3action_modeltraining_reduced_1.88,754.814682,1,2000.000000,1,COMPLETED_SUCCESSFULLY,754.819697,0.000000,754.819697,0.005015,0.005015,102587033.951163,10,-1.000000,""
24_updated,w0,python3action_pyaes_3000_nova,574.371554,1,2000.000000,1,COMPLETED_SUCCESSFULLY,575.132708,184.637181,759.769889,0.761154,185.398335,1.004122,13,-1.000000,""
24,w0,python3action_pyaes_3000,0.000000,1,-1.000000,1,COMPLETED_SUCCESSFULLY,759.769904,0.000010,759.769914,759.769904,759.769914,75976991.441331,13,-1.000000,""
88_updated,w0,python3action_pyaes_4000_neowise,652.696210,1,2000.000000,1,COMPLETED_SUCCESSFULLY,652.701225,128.200002,780.901227,0.005015,128.205017,1.000039,0,-1.000000,""
88,w0,python3action_pyaes_4000,0.000000,1,-1.000000,1,COMPLETED_SUCCESSFULLY,780.901242,0.000010,780.901252,780.901242,780.901252,78090125.222787,0,-1.000000,""
python3action_video_processing_job90_58,w0,python3action_video_processing_reduced_0.97,780.906242,1,2000.000000,1,COMPLETED_SUCCESSFULLY,780.911257,0.000000,780.911257,0.005015,0.005015,44112424170.000000,0,-1.000000,""
123_updated,w0,python3action_linpack_5000_yeti,717.892953,1,2000.000000,1,COMPLETED_SUCCESSFULLY,720.337928,76.929468,797.267396,2.444975,79.374443,1.031782,8,-1.000000,""
123,w0,python3action_linpack_5000,0.000000,1,-1.000000,1,COMPLETED_SUCCESSFULLY,797.267411,0.000010,797.267421,797.267411,797.267421,79726742.137974,8,-1.000000,""
187_updated,w0,python3action_facedetection_SampleVideo_50mb_neowise,617.463669,1,2000.000000,1,COMPLETED_SUCCESSFULLY,617.468684,196.399999,813.868683,0.005015,196.405014,1.000026,1,-1.000000,""
187,w0,python3action_facedetection_SampleVideo_50mb,0.000000,1,-1.000000,1,COMPLETED_SUCCESSFULLY,813.868698,0.000010,813.868708,813.868698,813.868708,81386870.800201,1,-1.000000,""
45_updated,w0,python3action_modeltraining_reviews100mb_nova,754.814682,1,2000.000000,1,COMPLETED_SUCCESSFULLY,754.819727,79.600010,834.419737,0.005045,79.605055,1.000063,10,-1.000000,""
45,w0,python3action_modeltraining_reviews100mb,0.000000,1,-1.000000,1,COMPLETED_SUCCESSFULLY,834.419752,0.000010,834.419762,834.419752,834.419762,83441976.200201,10,-1.000000,""
python3action_chameleon_job56_59,w0,python3action_chameleon_reduced_1.7,834.424752,1,2000.000000,1,COMPLETED_SUCCESSFULLY,834.429767,0.000000,834.429767,0.005015,0.005015,102587033.951163,10,-1.000000,""
34_updated,w0,python3action_pyaes_4000_nova,712.922529,1,2000.000000,1,COMPLETED_SUCCESSFULLY,712.927544,139.600010,852.527554,0.005015,139.605025,1.000036,9,-1.000000,""
34,w0,python3action_pyaes_4000,0.000000,1,-1.000000,1,COMPLETED_SUCCESSFULLY,852.527569,0.000010,852.527579,852.527569,852.527579,85252757.900201,9,-1.000000,""
python3action_chameleon_job61_60,w0,python3action_chameleon_reduced_1.7,852.532569,1,2000.000000,1,COMPLETED_SUCCESSFULLY,852.537584,0.000000,852.537584,0.005015,0.005015,102587033.951163,9,-1.000000,""
61_updated,w0,python3action_chameleon_2000_nova,852.532569,1,2000.000000,1,COMPLETED_SUCCESSFULLY,852.537614,70.600010,923.137624,0.005045,70.605055,1.000071,9,-1.000000,""
61,w0,python3action_chameleon_2000,0.000000,1,-1.000000,1,COMPLETED_SUCCESSFULLY,923.137639,0.000010,923.137649,923.137639,923.137649,92313764.900201,9,-1.000000,""
29_updated,w0,python3action_videoprocessing_SampleVideo_30mb_nova,692.430989,1,2000.000000,1,COMPLETED_SUCCESSFULLY,692.436034,252.164226,944.600260,0.005045,252.169271,1.000020,11,-1.000000,""
29,w0,python3action_videoprocessing_SampleVideo_30mb,0.000000,1,-1.000000,1,COMPLETED_SUCCESSFULLY,944.600275,0.000010,944.600285,944.600275,944.600285,94460028.500201,11,-1.000000,""
python3action_chameleon_job72_61,w0,python3action_chameleon_reduced_0.85,944.605275,1,2000.000000,1,COMPLETED_SUCCESSFULLY,944.610290,0.000000,944.610290,0.005015,0.005015,290213317.901316,11,-1.000000,""
90_updated,w0,python3action_videoprocessing_SampleVideo_50mb_neowise,780.906242,1,2000.000000,1,COMPLETED_SUCCESSFULLY,780.911287,164.799998,945.711285,0.005045,164.805043,1.000031,0,-1.000000,""
90,w0,python3action_videoprocessing_SampleVideo_50mb,0.000000,1,-1.000000,1,COMPLETED_SUCCESSFULLY,945.711300,0.000010,945.711310,945.711300,945.711310,94571131.000201,0,-1.000000,""
python3action_image_processing_job93_62,w0,python3action_image_processing_reduced_1.73,945.716300,1,2000.000000,1,COMPLETED_SUCCESSFULLY,945.721315,0.000000,945.721315,0.005015,0.005015,900253555.469388,0,-1.000000,""
104_updated,w0,python3action_linpack_6000_nova,320.089062,1,2000.000000,1,COMPLETED_SUCCESSFULLY,325.855019,651.660477,977.515497,5.765957,657.426435,1.008848,12,-1.000000,""
104,w0,python3action_linpack_6000,0.000000,1,-1.000000,1,COMPLETED_SUCCESSFULLY,977.515512,0.000010,977.515522,977.515512,977.515522,97751552.200201,12,-1.000000,""
python3action_modeltraining_job78_63,w0,python3action_modeltraining_reduced_0.94,977.520512,1,2000.000000,1,COMPLETED_SUCCESSFULLY,977.525527,0.000000,977.525527,0.005015,0.005015,723154495.573771,12,-1.000000,""
196_updated,w0,python3action_videoprocessing_SampleVideo_50mb_neowise,813.873698,1,2000.000000,1,COMPLETED_SUCCESSFULLY,813.878713,164.799998,978.678711,0.005015,164.805013,1.000030,1,-1.000000,""
196,w0,python3action_videoprocessing_SampleVideo_50mb,0.000000,1,-1.000000,1,COMPLETED_SUCCESSFULLY,978.678726,0.000010,978.678736,978.678726,978.678736,97867873.600201,1,-1.000000,""
93_updated,w0,python3action_imageprocessing_SampleImage_60mb_neowise,945.716300,1,2000.000000,1,COMPLETED_SUCCESSFULLY,945.721345,37.500000,983.221345,0.005045,37.505045,1.000135,0,-1.000000,""
93,w0,python3action_imageprocessing_SampleImage_60mb,0.000000,1,-1.000000,1,COMPLETED_SUCCESSFULLY,983.221360,0.000010,983.221370,983.221360,983.221370,98322137.000803,0,-1.000000,""
121_updated,w0,python3action_facedetection_SampleVideo_50mb_gemini,208.219842,1,2000.000000,1,COMPLETED_SUCCESSFULLY,238.724555,763.378645,1002.103200,30.504713,793.883358,1.039960,6,-1.000000,""
121,w0,python3action_facedetection_SampleVideo_50mb,0.000000,1,-1.000000,1,COMPLETED_SUCCESSFULLY,1002.103215,0.000010,1002.103225,1002.103215,1002.103225,100210322.504871,6,-1.000000,""
python3action_modeltraining_job127_64,w0,python3action_modeltraining_reduced_0.94,1002.108215,1,2000.000000,1,COMPLETED_SUCCESSFULLY,1002.113230,0.000000,1002.113230,0.005015,0.005015,1696631699.807692,6,-1.000000,""
50_updated,w0,python3action_videoprocessing_SampleVideo_30mb_nova,759.774904,1,2000.000000,1,COMPLETED_SUCCESSFULLY,759.779919,252.164226,1011.944145,0.005015,252.169241,1.000020,13,-1.000000,""
50,w0,python3action_videoprocessing_SampleVideo_30mb,0.000000,1,-1.000000,1,COMPLETED_SUCCESSFULLY,1011.944160,0.000010,1011.944170,1011.944160,1011.944170,101194417.000201,13,-1.000000,""
python3action_modeltraining_job83_65,w0,python3action_modeltraining_reduced_1.0,1011.949160,1,2000.000000,1,COMPLETED_SUCCESSFULLY,1011.954175,0.000000,1011.954175,0.005015,0.005015,43503377.892505,13,-1.000000,""
99_updated,w0,python3action_chameleon_3000_neowise,983.226360,1,2000.000000,1,COMPLETED_SUCCESSFULLY,983.231375,55.799998,1039.031373,0.005015,55.805013,1.000090,0,-1.000000,""
99,w0,python3action_chameleon_3000,0.000000,1,-1.000000,1,COMPLETED_SUCCESSFULLY,1039.031388,0.000010,1039.031398,1039.031388,1039.031398,103903139.800201,0,-1.000000,""
96_updated,w0,python3action_pyaes_3000_neowise,978.683726,1,2000.000000,1,COMPLETED_SUCCESSFULLY,978.688741,72.500000,1051.188741,0.005015,72.505015,1.000069,1,-1.000000,""
96,w0,python3action_pyaes_3000,0.000000,1,-1.000000,1,COMPLETED_SUCCESSFULLY,1051.188756,0.000010,1051.188766,1051.188756,1051.188766,105118876.600402,1,-1.000000,""
python3action_floatoperation_job35_66,w0,python3action_floatoperation,1051.193756,1,2000.000000,1,COMPLETED_SUCCESSFULLY,1051.198771,0.277720,1051.476491,0.005015,0.282735,1.018058,1,-1.000000,""
78_updated,w0,python3action_modeltraining_reviews50mb_nova,977.520512,1,2000.000000,1,COMPLETED_SUCCESSFULLY,977.525557,100.110137,1077.635694,0.005045,100.115182,1.000050,12,-1.000000,""
78,w0,python3action_modeltraining_reviews50mb,0.000000,1,-1.000000,1,COMPLETED_SUCCESSFULLY,1077.635709,0.000010,1077.635719,1077.635709,1077.635719,107763571.924710,12,-1.000000,""
127_updated,w0,python3action_modeltraining_reviews50mb_gemini,1002.108215,1,2000.000000,1,COMPLETED_SUCCESSFULLY,1002.113260,105.905778,1108.019038,0.005045,105.910823,1.000048,6,-1.000000,""
127,w0,python3action_modeltraining_reviews50mb,0.000000,1,-1.000000,1,COMPLETED_SUCCESSFULLY,1108.019053,0.000010,1108.019063,1108.019053,1108.019063,110801906.335024,6,-1.000000,""
python3action_image_processing_job132_67,w0,python3action_image_processing_reduced_1.73,1108.024053,1,2000.000000,1,COMPLETED_SUCCESSFULLY,1108.029068,0.000000,1108.029068,0.005015,0.005015,102587033.953488,6,-1.000000,""
72_updated,w0,python3action_chameleon_2000_nova,944.605275,1,2000.000000,1,COMPLETED_SUCCESSFULLY,944.610320,166.692884,1111.303204,0.005045,166.697929,1.000030,11,-1.000000,""
72,w0,python3action_chameleon_2000,0.000000,1,-1.000000,1,COMPLETED_SUCCESSFULLY,1111.303219,0.000010,1111.303229,1111.303219,1111.303229,111130322.933510,11,-1.000000,""
3_updated,w0,python3action_pyaes_4000_neowise,1039.036388,1,2000.000000,1,COMPLETED_SUCCESSFULLY,1039.041403,128.200002,1167.241405,0.005015,128.205017,1.000039,0,-1.000000,""
3,w0,python3action_pyaes_4000,0.000000,1,-1.000000,1,COMPLETED_SUCCESSFULLY,1167.241420,0.000010,1167.241430,1167.241420,1167.241430,116724143.022787,0,-1.000000,""
python3action_facedetection_job40_68,w0,python3action_facedetection_reduced_2.74,1167.246420,1,2000.000000,1,COMPLETED_SUCCESSFULLY,1167.251435,0.000000,1167.251435,0.005015,0.005015,919008837.875000,0,-1.000000,""
35_updated,w0,python3action_floatoperation_200000000_neowise,1051.193756,1,2000.000000,1,COMPLETED_SUCCESSFULLY,1051.476506,129.200002,1180.676509,0.282750,129.482753,1.002188,1,-1.000000,""
35,w0,python3action_floatoperation_200000000,0.000000,1,-1.000000,1,COMPLETED_SUCCESSFULLY,1180.676524,0.000010,1180.676534,1180.676524,1180.676534,118067653.400201,1,-1.000000,""
python3action_chameleon_job46_69,w0,python3action_chameleon_reduced_1.7,1180.681524,1,2000.000000,1,COMPLETED_SUCCESSFULLY,1180.686539,0.000000,1180.686539,0.005015,0.005015,919008837.875000,1,-1.000000,""
132_updated,w0,python3action_imageprocessing_SampleImage_40mb_gemini,1108.024053,1,2000.000000,1,COMPLETED_SUCCESSFULLY,1108.029098,83.255410,1191.284508,0.005045,83.260455,1.000061,6,-1.000000,""
132,w0,python3action_imageprocessing_SampleImage_40mb,0.000000,1,-1.000000,1,COMPLETED_SUCCESSFULLY,1191.284523,0.000010,1191.284533,1191.284523,1191.284533,119128453.300201,6,-1.000000,""
python3action_linpack_job138_70,w0,python3action_linpack_reduced_0.85,1191.289523,1,2000.000000,1,COMPLETED_SUCCESSFULLY,1191.294538,0.365992,1191.660530,0.005015,0.371007,1.013702,6,-1.000000,""
83_updated,w0,python3action_modeltraining_reviews100mb_nova,1011.949160,1,2000.000000,1,COMPLETED_SUCCESSFULLY,1011.954205,187.942683,1199.896888,0.005045,187.947728,1.000027,13,-1.000000,""
83,w0,python3action_modeltraining_reviews100mb,0.000000,1,-1.000000,1,COMPLETED_SUCCESSFULLY,1199.896903,0.000010,1199.896913,1199.896903,1199.896913,119989691.300201,13,-1.000000,""
46_updated,w0,python3action_chameleon_2000_neowise,1180.681524,1,2000.000000,1,COMPLETED_SUCCESSFULLY,1180.686569,24.200002,1204.886571,0.005045,24.205047,1.000208,1,-1.000000,""
46,w0,python3action_chameleon_2000,0.000000,1,-1.000000,1,COMPLETED_SUCCESSFULLY,1204.886586,0.000010,1204.886596,1204.886586,1204.886596,120488659.623188,1,-1.000000,""
51_updated,w0,python3action_modeltraining_reviews50mb_neowise,1204.891586,1,2000.000000,1,COMPLETED_SUCCESSFULLY,1204.896601,22.799998,1227.696599,0.005015,22.805013,1.000220,1,-1.000000,""
51,w0,python3action_modeltraining_reviews50mb,0.000000,1,-1.000000,1,COMPLETED_SUCCESSFULLY,1227.696614,0.000010,1227.696624,1227.696614,1227.696624,122769662.400201,1,-1.000000,""
python3action_image_processing_job57_71,w0,python3action_image_processing_reduced_2.59,1227.701614,1,2000.000000,1,COMPLETED_SUCCESSFULLY,1227.706629,0.000000,1227.706629,0.005015,0.005015,919008837.875000,1,-1.000000,""
57_updated,w0,python3action_imageprocessing_SampleImage_40mb_neowise,1227.701614,1,2000.000000,1,COMPLETED_SUCCESSFULLY,1227.706659,20.909089,1248.615748,0.005045,20.914134,1.000241,1,-1.000000,""
57,w0,python3action_imageprocessing_SampleImage_40mb,0.000000,1,-1.000000,1,COMPLETED_SUCCESSFULLY,1248.615763,0.000010,1248.615773,1248.615763,1248.615773,124861577.300201,1,-1.000000,""
133_updated,w0,python3action_linpack_6000_troll,660.840135,1,2000.000000,1,COMPLETED_SUCCESSFULLY,660.845180,620.708201,1281.553381,0.005045,620.713246,1.000008,7,-1.000000,""
133,w0,python3action_linpack_6000,0.000000,1,-1.000000,1,COMPLETED_SUCCESSFULLY,1281.553396,0.000010,1281.553406,1281.553396,1281.553406,128155340.605331,7,-1.000000,""
62_updated,w0,python3action_pyaes_3000_neowise,1248.620763,1,2000.000000,1,COMPLETED_SUCCESSFULLY,1248.625778,72.500000,1321.125778,0.005015,72.505015,1.000069,1,-1.000000,""
62,w0,python3action_pyaes_3000,0.000000,1,-1.000000,1,COMPLETED_SUCCESSFULLY,1321.125793,0.000010,1321.125803,1321.125793,1321.125803,132112580.300402,1,-1.000000,""
139_updated,w0,python3action_linpack_5000_troll,1281.558396,1,2000.000000,1,COMPLETED_SUCCESSFULLY,1281.563411,72.976261,1354.539672,0.005015,72.981276,1.000069,7,-1.000000,""
139,w0,python3action_linpack_5000,0.000000,1,-1.000000,1,COMPLETED_SUCCESSFULLY,1354.539687,0.000010,1354.539697,1354.539687,1354.539697,135453969.742149,7,-1.000000,""
python3action_floatoperation_job144_72,w0,python3action_floatoperation,1354.544687,1,2000.000000,1,COMPLETED_SUCCESSFULLY,1354.549702,2.439945,1356.989647,0.005015,2.444960,1.002055,7,-1.000000,""
40_updated,w0,python3action_facedetection_SampleVideo_50mb_neowise,1167.246420,1,2000.000000,1,COMPLETED_SUCCESSFULLY,1167.251465,196.399999,1363.651464,0.005045,196.405044,1.000026,0,-1.000000,""
40,w0,python3action_facedetection_SampleVideo_50mb,0.000000,1,-1.000000,1,COMPLETED_SUCCESSFULLY,1363.651479,0.000010,1363.651489,1363.651479,1363.651489,136365148.900201,0,-1.000000,""
68_updated,w0,python3action_modeltraining_reviews100mb_neowise,1321.130793,1,2000.000000,1,COMPLETED_SUCCESSFULLY,1321.135808,43.399999,1364.535807,0.005015,43.405014,1.000116,1,-1.000000,""
68,w0,python3action_modeltraining_reviews100mb,0.000000,1,-1.000000,1,COMPLETED_SUCCESSFULLY,1364.535822,0.000010,1364.535832,1364.535822,1364.535832,136453583.200201,1,-1.000000,""
73_updated,w0,python3action_imageprocessing_SampleImage_40mb_neowise,1363.656479,1,2000.000000,1,COMPLETED_SUCCESSFULLY,1363.661494,20.909089,1384.570583,0.005015,20.914104,1.000240,0,-1.000000,""
73,w0,python3action_imageprocessing_SampleImage_40mb,0.000000,1,-1.000000,1,COMPLETED_SUCCESSFULLY,1384.570598,0.000010,1384.570608,1384.570598,1384.570608,138457060.800201,0,-1.000000,""
79_updated,w0,python3action_linpack_6000_neowise,1364.540822,1,2000.000000,1,COMPLETED_SUCCESSFULLY,1364.545837,108.600001,1473.145838,0.005015,108.605016,1.000046,1,-1.000000,""
79,w0,python3action_linpack_6000,0.000000,1,-1.000000,1,COMPLETED_SUCCESSFULLY,1473.145853,0.000010,1473.145863,1473.145853,1473.145863,147314586.311594,1,-1.000000,""
129_updated,w0,python3action_videoprocessing_SampleVideo_50mb_yeti,797.272411,1,2000.000000,1,COMPLETED_SUCCESSFULLY,797.277426,686.386021,1483.663447,0.005015,686.391036,1.000007,8,-1.000000,""
129,w0,python3action_videoprocessing_SampleVideo_50mb,0.000000,1,-1.000000,1,COMPLETED_SUCCESSFULLY,1483.663462,0.000010,1483.663472,1483.663462,1483.663472,148366347.200201,8,-1.000000,""
python3action_chameleon_job134_73,w0,python3action_chameleon_reduced_0.85,1483.668462,1,2000.000000,1,COMPLETED_SUCCESSFULLY,1483.673477,0.000000,1483.673477,0.005015,0.005015,689256628.656250,8,-1.000000,""
56_updated,w0,python3action_chameleon_3000_nova,834.424752,1,2000.000000,1,COMPLETED_SUCCESSFULLY,834.429797,662.200020,1496.629817,0.005045,662.205065,1.000008,10,-1.000000,""
56,w0,python3action_chameleon_3000,0.000000,1,-1.000000,1,COMPLETED_SUCCESSFULLY,1496.629832,0.000010,1496.629842,1496.629832,1496.629842,149662984.200201,10,-1.000000,""
84_updated,w0,python3action_facedetection_SampleVideo_50mb_neowise,1384.575598,1,2000.000000,1,COMPLETED_SUCCESSFULLY,1384.580613,196.399999,1580.980612,0.005015,196.405014,1.000026,0,-1.000000,""
84,w0,python3action_facedetection_SampleVideo_50mb,0.000000,1,-1.000000,1,COMPLETED_SUCCESSFULLY,1580.980627,0.000010,1580.980637,1580.980627,1580.980637,158098063.700201,0,-1.000000,""
67_updated,w0,python3action_chameleon_3000_nova,923.142639,1,2000.000000,1,COMPLETED_SUCCESSFULLY,923.147654,662.200020,1585.347674,0.005015,662.205035,1.000008,9,-1.000000,""
67,w0,python3action_chameleon_3000,0.000000,1,-1.000000,1,COMPLETED_SUCCESSFULLY,1585.347689,0.000010,1585.347699,1585.347689,1585.347699,158534769.900201,9,-1.000000,""
144_updated,w0,python3action_floatoperation_200000000_troll,1354.544687,1,2000.000000,1,COMPLETED_SUCCESSFULLY,1356.989662,256.236897,1613.226560,2.444975,258.681873,1.009542,7,-1.000000,""
144,w0,python3action_floatoperation_200000000,0.000000,1,-1.000000,1,COMPLETED_SUCCESSFULLY,1613.226575,0.000010,1613.226585,1613.226575,1613.226585,161322658.500201,7,-1.000000,""
0_updated,w0,python3action_modeltraining_reviews50mb_troll,1613.231575,1,2000.000000,1,COMPLETED_SUCCESSFULLY,1613.236590,69.696429,1682.933019,0.005015,69.701444,1.000072,7,-1.000000,""
0,w0,python3action_modeltraining_reviews50mb,0.000000,1,-1.000000,1,COMPLETED_SUCCESSFULLY,1682.933034,0.000010,1682.933044,1682.933034,1682.933044,168293304.444767,7,-1.000000,""
134_updated,w0,python3action_chameleon_3000_yeti,1483.668462,1,2000.000000,1,COMPLETED_SUCCESSFULLY,1483.673507,222.417770,1706.091277,0.005045,222.422815,1.000023,8,-1.000000,""
134,w0,python3action_chameleon_3000,0.000000,1,-1.000000,1,COMPLETED_SUCCESSFULLY,1706.091292,0.000010,1706.091302,1706.091292,1706.091302,170609130.200201,8,-1.000000,""
python3action_facedetection_job14_74,w0,python3action_facedetection_reduced_0.91,1706.096292,1,2000.000000,1,COMPLETED_SUCCESSFULLY,1706.101307,0.000000,1706.101307,0.005015,0.005015,1160853268.631579,8,-1.000000,""
138_updated,w0,python3action_linpack_6000_gemini,1191.289523,1,2000.000000,1,COMPLETED_SUCCESSFULLY,1191.660545,520.958482,1712.619027,0.371022,521.329504,1.000712,6,-1.000000,""
138,w0,python3action_linpack_6000,0.000000,1,-1.000000,1,COMPLETED_SUCCESSFULLY,1712.619042,0.000010,1712.619052,1712.619042,1712.619052,171261905.200201,6,-1.000000,""
154_updated,w0,python3action_chameleon_3000_troll,1682.938034,1,2000.000000,1,COMPLETED_SUCCESSFULLY,1682.943049,231.228154,1914.171203,0.005015,231.233169,1.000022,7,-1.000000,""
154,w0,python3action_chameleon_3000,0.000000,1,-1.000000,1,COMPLETED_SUCCESSFULLY,1914.171218,0.000010,1914.171228,1914.171218,1914.171228,191417122.815827,7,-1.000000,""
python3action_facedetection_job16_75,w0,python3action_facedetection_reduced_0.91,1914.176218,1,2000.000000,1,COMPLETED_SUCCESSFULLY,1914.181233,0.000000,1914.181233,0.005015,0.005015,1160853268.578947,7,-1.000000,""
143_updated,w0,python3action_facedetection_SampleVideo_30mb_gemini,1712.624042,1,2000.000000,1,COMPLETED_SUCCESSFULLY,1712.629057,375.261515,2087.890572,0.005015,375.266530,1.000013,6,-1.000000,""
143,w0,python3action_facedetection_SampleVideo_30mb,0.000000,1,-1.000000,1,COMPLETED_SUCCESSFULLY,2087.890587,0.000010,2087.890597,2087.890587,2087.890597,208789059.717033,6,-1.000000,""
149_updated,w0,python3action_chameleon_2000_gemini,2087.895587,1,2000.000000,1,COMPLETED_SUCCESSFULLY,2087.900602,85.704098,2173.604700,0.005015,85.709113,1.000059,6,-1.000000,""
149,w0,python3action_chameleon_2000,0.000000,1,-1.000000,1,COMPLETED_SUCCESSFULLY,2173.604715,0.000010,2173.604725,2173.604715,2173.604725,217360472.508442,6,-1.000000,""
16_updated,w0,python3action_facedetection_SampleVideo_30mb_troll,1914.176218,1,2000.000000,1,COMPLETED_SUCCESSFULLY,1914.181263,300.924584,2215.105847,0.005045,300.929629,1.000017,7,-1.000000,""
16,w0,python3action_facedetection_SampleVideo_30mb,0.000000,1,-1.000000,1,COMPLETED_SUCCESSFULLY,2215.105862,0.000010,2215.105872,2215.105862,2215.105872,221510587.200201,7,-1.000000,""
python3action_image_processing_job165_76,w0,python3action_image_processing_reduced_1.73,2215.110862,1,2000.000000,1,COMPLETED_SUCCESSFULLY,2215.115877,0.000000,2215.115877,0.005015,0.005015,103066412.616822,7,-1.000000,""
153_updated,w0,python3action_chameleon_2000_gemini,2173.609715,1,2000.000000,1,COMPLETED_SUCCESSFULLY,2173.614730,85.704098,2259.318828,0.005015,85.709113,1.000059,6,-1.000000,""
153,w0,python3action_chameleon_2000,0.000000,1,-1.000000,1,COMPLETED_SUCCESSFULLY,2259.318843,0.000010,2259.318853,2259.318843,2259.318853,225931885.308442,6,-1.000000,""
python3action_floatoperation_job159_77,w0,python3action_floatoperation,2259.323843,1,2000.000000,1,COMPLETED_SUCCESSFULLY,2259.328858,2.439945,2261.768803,0.005015,2.444960,1.002055,6,-1.000000,""
14_updated,w0,python3action_facedetection_SampleVideo_30mb_yeti,1706.096292,1,2000.000000,1,COMPLETED_SUCCESSFULLY,1706.101337,620.218727,2326.320064,0.005045,620.223772,1.000008,8,-1.000000,""
14,w0,python3action_facedetection_SampleVideo_30mb,0.000000,1,-1.000000,1,COMPLETED_SUCCESSFULLY,2326.320079,0.000010,2326.320089,2326.320079,2326.320089,232632008.911203,8,-1.000000,""
165_updated,w0,python3action_imageprocessing_SampleImage_60mb_troll,2215.110862,1,2000.000000,1,COMPLETED_SUCCESSFULLY,2215.115907,152.512187,2367.628094,0.005045,152.517232,1.000033,7,-1.000000,""
165,w0,python3action_imageprocessing_SampleImage_60mb,0.000000,1,-1.000000,1,COMPLETED_SUCCESSFULLY,2367.628109,0.000010,2367.628119,2367.628109,2367.628119,236762811.900201,7,-1.000000,""
159_updated,w0,python3action_floatoperation_200000000_gemini,2259.323843,1,2000.000000,1,COMPLETED_SUCCESSFULLY,2261.768818,348.325941,2610.094760,2.444975,350.770917,1.007019,6,-1.000000,""
159,w0,python3action_floatoperation_200000000,0.000000,1,-1.000000,1,COMPLETED_SUCCESSFULLY,2610.094775,0.000010,2610.094785,2610.094775,2610.094785,261009478.500201,6,-1.000000,""
python3action_video_processing_job164_78,w0,python3action_video_processing_reduced_2.8,2610.099775,1,2000.000000,1,COMPLETED_SUCCESSFULLY,2610.104790,0.000000,2610.104790,0.005015,0.005015,103066412.607477,6,-1.000000,""
108_updated,w0,python3action_facedetection_SampleVideo_30mb_troll,2367.633109,1,2000.000000,1,COMPLETED_SUCCESSFULLY,2367.638124,300.924584,2668.562708,0.005015,300.929599,1.000017,7,-1.000000,""
108,w0,python3action_facedetection_SampleVideo_30mb,0.000000,1,-1.000000,1,COMPLETED_SUCCESSFULLY,2668.562723,0.000010,2668.562733,2668.562723,2668.562733,266856273.300201,7,-1.000000,""
101_updated,w0,python3action_modeltraining_reviews100mb_troll,2668.567723,1,2000.000000,1,COMPLETED_SUCCESSFULLY,2668.572738,143.902652,2812.475390,0.005015,143.907667,1.000035,7,-1.000000,""
101,w0,python3action_modeltraining_reviews100mb,0.000000,1,-1.000000,1,COMPLETED_SUCCESSFULLY,2812.475405,0.000010,2812.475415,2812.475405,2812.475415,281247541.527774,7,-1.000000,""
145_updated,w0,python3action_linpack_6000_yeti,2326.325079,1,2000.000000,1,COMPLETED_SUCCESSFULLY,2326.330094,511.002833,2837.332927,0.005015,511.007848,1.000010,8,-1.000000,""
145,w0,python3action_linpack_6000,0.000000,1,-1.000000,1,COMPLETED_SUCCESSFULLY,2837.332942,0.000010,2837.332952,2837.332942,2837.332952,283733295.200358,8,-1.000000,""
164_updated,w0,python3action_videoprocessing_SampleVideo_30mb_gemini,2610.099775,1,2000.000000,1,COMPLETED_SUCCESSFULLY,2610.104820,283.435696,2893.540516,0.005045,283.440741,1.000018,6,-1.000000,""
164,w0,python3action_videoprocessing_SampleVideo_30mb,0.000000,1,-1.000000,1,COMPLETED_SUCCESSFULLY,2893.540531,0.000010,2893.540541,2893.540531,2893.540541,289354054.100201,6,-1.000000,""
174_updated,w0,python3action_pyaes_3000_troll,2812.480405,1,2000.000000,1,COMPLETED_SUCCESSFULLY,2812.485420,140.622820,2953.108240,0.005015,140.627835,1.000036,7,-1.000000,""
174,w0,python3action_pyaes_3000,0.000000,1,-1.000000,1,COMPLETED_SUCCESSFULLY,2953.108255,0.000010,2953.108265,2953.108255,2953.108265,295310826.530393,7,-1.000000,""
168_updated,w0,python3action_chameleon_2000_gemini,2893.545531,1,2000.000000,1,COMPLETED_SUCCESSFULLY,2893.550546,85.704098,2979.254644,0.005015,85.709113,1.000059,6,-1.000000,""
168,w0,python3action_chameleon_2000,0.000000,1,-1.000000,1,COMPLETED_SUCCESSFULLY,2979.254659,0.000010,2979.254669,2979.254659,2979.254669,297925466.908442,6,-1.000000,""
15_updated,w0,python3action_facedetection_SampleVideo_30mb_yeti,2837.337942,1,2000.000000,1,COMPLETED_SUCCESSFULLY,2837.342957,620.218727,3457.561684,0.005015,620.223742,1.000008,8,-1.000000,""
15,w0,python3action_facedetection_SampleVideo_30mb,0.000000,1,-1.000000,1,COMPLETED_SUCCESSFULLY,3457.561699,0.000010,3457.561709,3457.561699,3457.561709,345756170.910801,8,-1.000000,""
179_updated,w0,python3action_facedetection_SampleVideo_50mb_troll,2953.113255,1,2000.000000,1,COMPLETED_SUCCESSFULLY,2953.118270,713.363454,3666.481724,0.005015,713.368469,1.000007,7,-1.000000,""
179,w0,python3action_facedetection_SampleVideo_50mb,0.000000,1,-1.000000,1,COMPLETED_SUCCESSFULLY,3666.481739,0.000010,3666.481749,3666.481739,3666.481749,366648174.930969,7,-1.000000,""
170_updated,w0,python3action_videoprocessing_SampleVideo_50mb_gemini,2979.259659,1,2000.000000,1,COMPLETED_SUCCESSFULLY,2979.264674,760.623895,3739.888569,0.005015,760.628910,1.000007,6,-1.000000,""
170,w0,python3action_videoprocessing_SampleVideo_50mb,0.000000,1,-1.000000,1,COMPLETED_SUCCESSFULLY,3739.888584,0.000010,3739.888594,3739.888584,3739.888594,373988859.400201,6,-1.000000,""
181_updated,w0,python3action_floatoperation_100000000_troll,3666.486739,1,2000.000000,1,COMPLETED_SUCCESSFULLY,3666.491754,125.863576,3792.355330,0.005015,125.868591,1.000040,7,-1.000000,""
181,w0,python3action_floatoperation_100000000,0.000000,1,-1.000000,1,COMPLETED_SUCCESSFULLY,3792.355345,0.000010,3792.355355,3792.355345,3792.355355,379235535.542174,7,-1.000000,""
185_updated,w0,python3action_linpack_5000_troll,3792.360345,1,2000.000000,1,COMPLETED_SUCCESSFULLY,3792.365360,72.976261,3865.341621,0.005015,72.981276,1.000069,7,-1.000000,""
185,w0,python3action_linpack_5000,0.000000,1,-1.000000,1,COMPLETED_SUCCESSFULLY,3865.341636,0.000010,3865.341646,3865.341636,3865.341646,386534164.642149,7,-1.000000,""
112_updated,w0,python3action_imageprocessing_SampleImage_60mb_troll,3865.346636,1,2000.000000,1,COMPLETED_SUCCESSFULLY,3865.351651,152.512187,4017.863838,0.005015,152.517202,1.000033,7,-1.000000,""
112,w0,python3action_imageprocessing_SampleImage_60mb,0.000000,1,-1.000000,1,COMPLETED_SUCCESSFULLY,4017.863853,0.000010,4017.863863,4017.863853,4017.863863,401786386.300201,7,-1.000000,""
155_updated,w0,python3action_facedetection_SampleVideo_30mb_yeti,3457.566699,1,2000.000000,1,COMPLETED_SUCCESSFULLY,3457.571714,620.218727,4077.790441,0.005015,620.223742,1.000008,8,-1.000000,""
155,w0,python3action_facedetection_SampleVideo_30mb,0.000000,1,-1.000000,1,COMPLETED_SUCCESSFULLY,4077.790456,0.000010,4077.790466,4077.790456,4077.790466,407779046.610801,8,-1.000000,""
python3action_floatoperation_job160_79,w0,python3action_floatoperation,4077.795456,1,2000.000000,1,COMPLETED_SUCCESSFULLY,4077.800471,2.439945,4080.240416,0.005015,2.444960,1.002055,8,-1.000000,""
191_updated,w0,python3action_modeltraining_reviews50mb_troll,4017.868853,1,2000.000000,1,COMPLETED_SUCCESSFULLY,4017.873868,69.696429,4087.570297,0.005015,69.701444,1.000072,7,-1.000000,""
191,w0,python3action_modeltraining_reviews50mb,0.000000,1,-1.000000,1,COMPLETED_SUCCESSFULLY,4087.570312,0.000010,4087.570322,4087.570312,4087.570322,408757032.244768,7,-1.000000,""
173_updated,w0,python3action_floatoperation_200000000_gemini,3739.893584,1,2000.000000,1,COMPLETED_SUCCESSFULLY,3739.898599,348.325941,4088.224540,0.005015,348.330956,1.000014,6,-1.000000,""
173,w0,python3action_floatoperation_200000000,0.000000,1,-1.000000,1,COMPLETED_SUCCESSFULLY,4088.224555,0.000010,4088.224565,4088.224555,4088.224565,408822456.548793,6,-1.000000,""
160_updated,w0,python3action_floatoperation_200000000_yeti,4077.795456,1,2000.000000,1,COMPLETED_SUCCESSFULLY,4080.240431,253.508426,4333.748857,2.444975,255.953401,1.009645,8,-1.000000,""
160,w0,python3action_floatoperation_200000000,0.000000,1,-1.000000,1,COMPLETED_SUCCESSFULLY,4333.748872,0.000010,4333.748882,4333.748872,4333.748882,433374888.203128,8,-1.000000,""
194_updated,w0,python3action_facedetection_SampleVideo_30mb_troll,4087.575312,1,2000.000000,1,COMPLETED_SUCCESSFULLY,4087.580327,300.924584,4388.504911,0.005015,300.929599,1.000017,7,-1.000000,""
194,w0,python3action_facedetection_SampleVideo_30mb,0.000000,1,-1.000000,1,COMPLETED_SUCCESSFULLY,4388.504926,0.000010,4388.504936,4388.504926,4388.504936,438850493.600201,7,-1.000000,""
166_updated,w0,python3action_floatoperation_200000000_yeti,4333.753872,1,2000.000000,1,COMPLETED_SUCCESSFULLY,4333.758887,253.508426,4587.267313,0.005015,253.513441,1.000020,8,-1.000000,""
166,w0,python3action_floatoperation_200000000,0.000000,1,-1.000000,1,COMPLETED_SUCCESSFULLY,4587.267328,0.000010,4587.267338,4587.267328,4587.267338,458726733.800201,8,-1.000000,""
python3action_image_processing_job169_80,w0,python3action_image_processing_reduced_1.73,4587.272328,1,2000.000000,1,COMPLETED_SUCCESSFULLY,4587.277343,0.000000,4587.277343,0.005015,0.005015,102112093.981481,8,-1.000000,""
178_updated,w0,python3action_linpack_6000_gemini,4088.229555,1,2000.000000,1,COMPLETED_SUCCESSFULLY,4088.234570,520.958482,4609.193052,0.005015,520.963497,1.000010,6,-1.000000,""
178,w0,python3action_linpack_6000,0.000000,1,-1.000000,1,COMPLETED_SUCCESSFULLY,4609.193067,0.000010,4609.193077,4609.193067,4609.193077,460919307.700201,6,-1.000000,""
198_updated,w0,python3action_facedetection_SampleVideo_30mb_troll,4388.509926,1,2000.000000,1,COMPLETED_SUCCESSFULLY,4388.514941,300.924584,4689.439525,0.005015,300.929599,1.000017,7,-1.000000,""
198,w0,python3action_facedetection_SampleVideo_30mb,0.000000,1,-1.000000,1,COMPLETED_SUCCESSFULLY,4689.439540,0.000010,4689.439550,4689.439540,4689.439550,468943955.000201,7,-1.000000,""
107_updated,w0,python3action_chameleon_2000_gemini,4609.198067,1,2000.000000,1,COMPLETED_SUCCESSFULLY,4609.203082,85.704098,4694.907180,0.005015,85.709113,1.000059,6,-1.000000,""
107,w0,python3action_chameleon_2000,0.000000,1,-1.000000,1,COMPLETED_SUCCESSFULLY,4694.907195,0.000010,4694.907205,4694.907195,4694.907205,469490720.508441,6,-1.000000,""
169_updated,w0,python3action_imageprocessing_SampleImage_60mb_yeti,4587.272328,1,2000.000000,1,COMPLETED_SUCCESSFULLY,4587.277373,170.201436,4757.478809,0.005045,170.206481,1.000030,8,-1.000000,""
169,w0,python3action_imageprocessing_SampleImage_60mb,0.000000,1,-1.000000,1,COMPLETED_SUCCESSFULLY,4757.478824,0.000010,4757.478834,4757.478824,4757.478834,475747883.404574,8,-1.000000,""
11_updated,w0,python3action_imageprocessing_SampleImage_40mb_gemini,4694.912195,1,2000.000000,1,COMPLETED_SUCCESSFULLY,4694.917210,83.255410,4778.172620,0.005015,83.260425,1.000060,6,-1.000000,""
11,w0,python3action_imageprocessing_SampleImage_40mb,0.000000,1,-1.000000,1,COMPLETED_SUCCESSFULLY,4778.172635,0.000010,4778.172645,4778.172635,4778.172645,477817264.500201,6,-1.000000,""
188_updated,w0,python3action_linpack_5000_gemini,4778.177635,1,2000.000000,1,COMPLETED_SUCCESSFULLY,4778.182650,91.213647,4869.396297,0.005015,91.218662,1.000055,6,-1.000000,""
188,w0,python3action_linpack_5000,0.000000,1,-1.000000,1,COMPLETED_SUCCESSFULLY,4869.396312,0.000010,4869.396322,4869.396312,4869.396322,486939632.224673,6,-1.000000,""
20_updated,w0,python3action_pyaes_4000_troll,4689.444540,1,2000.000000,1,COMPLETED_SUCCESSFULLY,4689.449555,251.727104,4941.176659,0.005015,251.732119,1.000020,7,-1.000000,""
20,w0,python3action_pyaes_4000,0.000000,1,-1.000000,1,COMPLETED_SUCCESSFULLY,4941.176674,0.000010,4941.176684,4941.176674,4941.176684,494117668.400201,7,-1.000000,""
86_updated,w0,python3action_imageprocessing_SampleImage_40mb_gemini,4869.401312,1,2000.000000,1,COMPLETED_SUCCESSFULLY,4869.406327,83.255410,4952.661737,0.005015,83.260425,1.000060,6,-1.000000,""
86,w0,python3action_imageprocessing_SampleImage_40mb,0.000000,1,-1.000000,1,COMPLETED_SUCCESSFULLY,4952.661752,0.000010,4952.661762,4952.661752,4952.661762,495266176.200201,6,-1.000000,""
23_updated,w0,python3action_floatoperation_100000000_troll,4941.181674,1,2000.000000,1,COMPLETED_SUCCESSFULLY,4941.186689,125.863576,5067.050265,0.005015,125.868591,1.000040,7,-1.000000,""
23,w0,python3action_floatoperation_100000000,0.000000,1,-1.000000,1,COMPLETED_SUCCESSFULLY,5067.050280,0.000010,5067.050290,5067.050280,5067.050290,506705029.042174,7,-1.000000,""
python3action_video_processing_job27_81,w0,python3action_video_processing_reduced_2.8,5067.055280,1,2000.000000,1,COMPLETED_SUCCESSFULLY,5067.060295,0.000000,5067.060295,0.005015,0.005015,102112093.981481,7,-1.000000,""
27_updated,w0,python3action_videoprocessing_SampleVideo_30mb_troll,5067.055280,1,2000.000000,1,COMPLETED_SUCCESSFULLY,5067.060325,200.069750,5267.130075,0.005045,200.074795,1.000025,7,-1.000000,""
27,w0,python3action_videoprocessing_SampleVideo_30mb,0.000000,1,-1.000000,1,COMPLETED_SUCCESSFULLY,5267.130090,0.000010,5267.130100,5267.130090,5267.130100,526713010.041100,7,-1.000000,""
32_updated,w0,python3action_imageprocessing_SampleImage_60mb_troll,5267.135090,1,2000.000000,1,COMPLETED_SUCCESSFULLY,5267.140105,152.512187,5419.652292,0.005015,152.517202,1.000033,7,-1.000000,""
32,w0,python3action_imageprocessing_SampleImage_60mb,0.000000,1,-1.000000,1,COMPLETED_SUCCESSFULLY,5419.652307,0.000010,5419.652317,5419.652307,5419.652317,541965231.700201,7,-1.000000,""
171_updated,w0,python3action_videoprocessing_SampleVideo_50mb_yeti,4757.483824,1,2000.000000,1,COMPLETED_SUCCESSFULLY,4757.488839,686.386021,5443.874860,0.005015,686.391036,1.000007,8,-1.000000,""
171,w0,python3action_videoprocessing_SampleVideo_50mb,0.000000,1,-1.000000,1,COMPLETED_SUCCESSFULLY,5443.874875,0.000010,5443.874885,5443.874875,5443.874885,544387488.500201,8,-1.000000,""
38_updated,w0,python3action_modeltraining_reviews50mb_troll,5419.657307,1,2000.000000,1,COMPLETED_SUCCESSFULLY,5419.662322,69.696429,5489.358751,0.005015,69.701444,1.000072,7,-1.000000,""
38,w0,python3action_modeltraining_reviews50mb,0.000000,1,-1.000000,1,COMPLETED_SUCCESSFULLY,5489.358766,0.000010,5489.358776,5489.358766,5489.358776,548935877.644767,7,-1.000000,""
175_updated,w0,python3action_imageprocessing_SampleImage_40mb_yeti,5443.879875,1,2000.000000,1,COMPLETED_SUCCESSFULLY,5443.884890,86.495824,5530.380714,0.005015,86.500839,1.000058,8,-1.000000,""
175,w0,python3action_imageprocessing_SampleImage_40mb,0.000000,1,-1.000000,1,COMPLETED_SUCCESSFULLY,5530.380729,0.000010,5530.380739,5530.380729,5530.380739,553038073.900201,8,-1.000000,""
105_updated,w0,python3action_linpack_5000_yeti,5530.385729,1,2000.000000,1,COMPLETED_SUCCESSFULLY,5530.390744,76.929468,5607.320212,0.005015,76.934483,1.000065,8,-1.000000,""
105,w0,python3action_linpack_5000,0.000000,1,-1.000000,1,COMPLETED_SUCCESSFULLY,5607.320227,0.000010,5607.320237,5607.320227,5607.320237,560732023.708393,8,-1.000000,""
python3action_pyaes_job182_82,w0,python3action_pyaes_reduced_1.7,5607.325227,1,2000.000000,1,COMPLETED_SUCCESSFULLY,5607.330242,0.000000,5607.330242,0.005015,0.005015,102112093.981481,8,-1.000000,""
43_updated,w0,python3action_pyaes_3000_troll,5489.363766,1,2000.000000,1,COMPLETED_SUCCESSFULLY,5489.368781,140.622820,5629.991601,0.005015,140.627835,1.000036,7,-1.000000,""
43,w0,python3action_pyaes_3000,0.000000,1,-1.000000,1,COMPLETED_SUCCESSFULLY,5629.991616,0.000010,5629.991626,5629.991616,5629.991626,562999162.630392,7,-1.000000,""
49_updated,w0,python3action_modeltraining_reviews50mb_troll,5629.996616,1,2000.000000,1,COMPLETED_SUCCESSFULLY,5630.001631,69.696429,5699.698060,0.005015,69.701444,1.000072,7,-1.000000,""
49,w0,python3action_modeltraining_reviews50mb,0.000000,1,-1.000000,1,COMPLETED_SUCCESSFULLY,5699.698075,0.000010,5699.698085,5699.698075,5699.698085,569969808.544767,7,-1.000000,""
89_updated,w0,python3action_videoprocessing_SampleVideo_50mb_gemini,4952.666752,1,2000.000000,1,COMPLETED_SUCCESSFULLY,4952.671767,760.623895,5713.295662,0.005015,760.628910,1.000007,6,-1.000000,""
89,w0,python3action_videoprocessing_SampleVideo_50mb,0.000000,1,-1.000000,1,COMPLETED_SUCCESSFULLY,5713.295677,0.000010,5713.295687,5713.295677,5713.295687,571329568.700201,6,-1.000000,""
python3action_pyaes_job197_83,w0,python3action_pyaes_reduced_1.7,5713.300677,1,2000.000000,1,COMPLETED_SUCCESSFULLY,5713.305692,0.000000,5713.305692,0.005015,0.005015,102112093.981481,6,-1.000000,""
182_updated,w0,python3action_pyaes_3000_yeti,5607.325227,1,2000.000000,1,COMPLETED_SUCCESSFULLY,5607.330272,142.698139,5750.028411,0.005045,142.703184,1.000035,8,-1.000000,""
182,w0,python3action_pyaes_3000,0.000000,1,-1.000000,1,COMPLETED_SUCCESSFULLY,5750.028426,0.000010,5750.028436,5750.028426,5750.028436,575002843.602039,8,-1.000000,""
54_updated,w0,python3action_floatoperation_100000000_troll,5699.703075,1,2000.000000,1,COMPLETED_SUCCESSFULLY,5699.708090,125.863576,5825.571666,0.005015,125.868591,1.000040,7,-1.000000,""
54,w0,python3action_floatoperation_100000000,0.000000,1,-1.000000,1,COMPLETED_SUCCESSFULLY,5825.571681,0.000010,5825.571691,5825.571681,5825.571691,582557169.142174,7,-1.000000,""
110_updated,w0,python3action_imageprocessing_SampleImage_60mb_yeti,5750.033426,1,2000.000000,1,COMPLETED_SUCCESSFULLY,5750.038441,170.201436,5920.239877,0.005015,170.206451,1.000029,8,-1.000000,""
110,w0,python3action_imageprocessing_SampleImage_60mb,0.000000,1,-1.000000,1,COMPLETED_SUCCESSFULLY,5920.239892,0.000010,5920.239902,5920.239892,5920.239902,592023990.204172,8,-1.000000,""
189_updated,w0,python3action_linpack_5000_yeti,5920.244892,1,2000.000000,1,COMPLETED_SUCCESSFULLY,5920.249907,76.929468,5997.179375,0.005015,76.934483,1.000065,8,-1.000000,""
189,w0,python3action_linpack_5000,0.000000,1,-1.000000,1,COMPLETED_SUCCESSFULLY,5997.179390,0.000010,5997.179400,5997.179390,5997.179400,599717940.008393,8,-1.000000,""
197_updated,w0,python3action_pyaes_4000_gemini,5713.300677,1,2000.000000,1,COMPLETED_SUCCESSFULLY,5713.305722,365.007620,6078.313342,0.005045,365.012665,1.000014,6,-1.000000,""
197,w0,python3action_pyaes_4000,0.000000,1,-1.000000,1,COMPLETED_SUCCESSFULLY,6078.313357,0.000010,6078.313367,6078.313357,6078.313367,607831336.700201,6,-1.000000,""
6_updated,w0,python3action_facedetection_SampleVideo_30mb_troll,5825.576681,1,2000.000000,1,COMPLETED_SUCCESSFULLY,5825.581696,300.924584,6126.506280,0.005015,300.929599,1.000017,7,-1.000000,""
6,w0,python3action_facedetection_SampleVideo_30mb,0.000000,1,-1.000000,1,COMPLETED_SUCCESSFULLY,6126.506295,0.000010,6126.506305,6126.506295,6126.506305,612650630.500201,7,-1.000000,""
87_updated,w0,python3action_floatoperation_200000000_yeti,5997.184390,1,2000.000000,1,COMPLETED_SUCCESSFULLY,5997.189405,253.508426,6250.697831,0.005015,253.513441,1.000020,8,-1.000000,""
87,w0,python3action_floatoperation_200000000,0.000000,1,-1.000000,1,COMPLETED_SUCCESSFULLY,6250.697846,0.000010,6250.697856,6250.697846,6250.697856,625069785.600201,8,-1.000000,""
65_updated,w0,python3action_pyaes_4000_troll,6126.511295,1,2000.000000,1,COMPLETED_SUCCESSFULLY,6126.516310,251.727104,6378.243414,0.005015,251.732119,1.000020,7,-1.000000,""
65,w0,python3action_pyaes_4000,0.000000,1,-1.000000,1,COMPLETED_SUCCESSFULLY,6378.243429,0.000010,6378.243439,6378.243429,6378.243439,637824343.900201,7,-1.000000,""
9_updated,w0,python3action_floatoperation_100000000_yeti,6250.702846,1,2000.000000,1,COMPLETED_SUCCESSFULLY,6250.707861,127.551409,6378.259270,0.005015,127.556424,1.000039,8,-1.000000,""
9,w0,python3action_floatoperation_100000000,0.000000,1,-1.000000,1,COMPLETED_SUCCESSFULLY,6378.259285,0.000010,6378.259295,6378.259285,6378.259295,637825929.517707,8,-1.000000,""
92_updated,w0,python3action_linpack_5000_yeti,6378.264285,1,2000.000000,1,COMPLETED_SUCCESSFULLY,6378.269300,76.929468,6455.198768,0.005015,76.934483,1.000065,8,-1.000000,""
92,w0,python3action_linpack_5000,0.000000,1,-1.000000,1,COMPLETED_SUCCESSFULLY,6455.198783,0.000010,6455.198793,6455.198783,6455.198793,645519879.308393,8,-1.000000,""
70_updated,w0,python3action_chameleon_2000_troll,6378.248429,1,2000.000000,1,COMPLETED_SUCCESSFULLY,6378.253444,97.165047,6475.418491,0.005015,97.170062,1.000052,7,-1.000000,""
70,w0,python3action_chameleon_2000,0.000000,1,-1.000000,1,COMPLETED_SUCCESSFULLY,6475.418506,0.000010,6475.418516,6475.418506,6475.418516,647541851.600201,7,-1.000000,""
94_updated,w0,python3action_linpack_6000_gemini,6078.318357,1,2000.000000,1,COMPLETED_SUCCESSFULLY,6078.323372,520.958482,6599.281854,0.005015,520.963497,1.000010,6,-1.000000,""
94,w0,python3action_linpack_6000,0.000000,1,-1.000000,1,COMPLETED_SUCCESSFULLY,6599.281869,0.000010,6599.281879,6599.281869,6599.281879,659928187.900201,6,-1.000000,""
76_updated,w0,python3action_videoprocessing_SampleVideo_30mb_troll,6475.423506,1,2000.000000,1,COMPLETED_SUCCESSFULLY,6475.428521,200.069750,6675.498271,0.005015,200.074765,1.000025,7,-1.000000,""
76,w0,python3action_videoprocessing_SampleVideo_30mb,0.000000,1,-1.000000,1,COMPLETED_SUCCESSFULLY,6675.498286,0.000010,6675.498296,6675.498286,6675.498296,667549829.640698,7,-1.000000,""
81_updated,w0,python3action_floatoperation_100000000_troll,6675.503286,1,2000.000000,1,COMPLETED_SUCCESSFULLY,6675.508301,125.863576,6801.371877,0.005015,125.868591,1.000040,7,-1.000000,""
81,w0,python3action_floatoperation_100000000,0.000000,1,-1.000000,1,COMPLETED_SUCCESSFULLY,6801.371892,0.000010,6801.371902,6801.371892,6801.371902,680137190.242174,7,-1.000000,""
97_updated,w0,python3action_videoprocessing_SampleVideo_30mb_gemini,6599.286869,1,2000.000000,1,COMPLETED_SUCCESSFULLY,6599.291884,283.435696,6882.727580,0.005015,283.440711,1.000018,6,-1.000000,""
97,w0,python3action_videoprocessing_SampleVideo_30mb,0.000000,1,-1.000000,1,COMPLETED_SUCCESSFULLY,6882.727595,0.000010,6882.727605,6882.727595,6882.727605,688272760.500201,6,-1.000000,""
95_updated,w0,python3action_facedetection_SampleVideo_30mb_yeti,6455.203783,1,2000.000000,1,COMPLETED_SUCCESSFULLY,6455.208798,620.218727,7075.427525,0.005015,620.223742,1.000008,8,-1.000000,""
95,w0,python3action_facedetection_SampleVideo_30mb,0.000000,1,-1.000000,1,COMPLETED_SUCCESSFULLY,7075.427540,0.000010,7075.427550,7075.427540,7075.427550,707542755.010800,8,-1.000000,""
26_updated,w0,python3action_pyaes_3000_gemini,6882.732595,1,2000.000000,1,COMPLETED_SUCCESSFULLY,6882.737610,202.016803,7084.754413,0.005015,202.021818,1.000025,6,-1.000000,""
26,w0,python3action_pyaes_3000,0.000000,1,-1.000000,1,COMPLETED_SUCCESSFULLY,7084.754428,0.000010,7084.754438,7084.754428,7084.754438,708475443.800201,6,-1.000000,""
31_updated,w0,python3action_modeltraining_reviews50mb_gemini,7084.759428,1,2000.000000,1,COMPLETED_SUCCESSFULLY,7084.764443,105.905778,7190.670221,0.005015,105.910793,1.000047,6,-1.000000,""
31,w0,python3action_modeltraining_reviews50mb,0.000000,1,-1.000000,1,COMPLETED_SUCCESSFULLY,7190.670236,0.000010,7190.670246,7190.670236,7190.670246,719067024.634622,6,-1.000000,""
98_updated,w0,python3action_imageprocessing_SampleImage_60mb_yeti,7075.432540,1,2000.000000,1,COMPLETED_SUCCESSFULLY,7075.437555,170.201436,7245.638991,0.005015,170.206451,1.000029,8,-1.000000,""
98,w0,python3action_imageprocessing_SampleImage_60mb,0.000000,1,-1.000000,1,COMPLETED_SUCCESSFULLY,7245.639006,0.000010,7245.639016,7245.639006,7245.639016,724563901.604172,8,-1.000000,""
python3action_modeltraining_job28_84,w0,python3action_modeltraining_reduced_2.88,7245.644006,1,2000.000000,1,COMPLETED_SUCCESSFULLY,7245.649021,0.000000,7245.649021,0.005015,0.005015,102112093.981481,8,-1.000000,""
28_updated,w0,python3action_modeltraining_reviews50mb_yeti,7245.644006,1,2000.000000,1,COMPLETED_SUCCESSFULLY,7245.649051,53.412153,7299.061204,0.005045,53.417198,1.000094,8,-1.000000,""
28,w0,python3action_modeltraining_reviews50mb,0.000000,1,-1.000000,1,COMPLETED_SUCCESSFULLY,7299.061219,0.000010,7299.061229,7299.061219,7299.061229,729906122.900201,8,-1.000000,""
33_updated,w0,python3action_modeltraining_reviews100mb_yeti,7299.066219,1,2000.000000,1,COMPLETED_SUCCESSFULLY,7299.071234,129.145802,7428.217036,0.005015,129.150817,1.000039,8,-1.000000,""
33,w0,python3action_modeltraining_reviews100mb,0.000000,1,-1.000000,1,COMPLETED_SUCCESSFULLY,7428.217051,0.000010,7428.217061,7428.217051,7428.217061,742821706.100201,8,-1.000000,""
39_updated,w0,python3action_chameleon_2000_yeti,7428.222051,1,2000.000000,1,COMPLETED_SUCCESSFULLY,7428.227066,79.321057,7507.548123,0.005015,79.326072,1.000063,8,-1.000000,""
39,w0,python3action_chameleon_2000,0.000000,1,-1.000000,1,COMPLETED_SUCCESSFULLY,7507.548138,0.000010,7507.548148,7507.548138,7507.548148,750754814.800592,8,-1.000000,""
44_updated,w0,python3action_modeltraining_reviews100mb_yeti,7507.553138,1,2000.000000,1,COMPLETED_SUCCESSFULLY,7507.558153,129.145802,7636.703955,0.005015,129.150817,1.000039,8,-1.000000,""
44,w0,python3action_modeltraining_reviews100mb,0.000000,1,-1.000000,1,COMPLETED_SUCCESSFULLY,7636.703970,0.000010,7636.703980,7636.703970,7636.703980,763670398.000201,8,-1.000000,""
37_updated,w0,python3action_facedetection_SampleVideo_50mb_gemini,7190.675236,1,2000.000000,1,COMPLETED_SUCCESSFULLY,7190.680251,763.378645,7954.058896,0.005015,763.383660,1.000007,6,-1.000000,""
37,w0,python3action_facedetection_SampleVideo_50mb,0.000000,1,-1.000000,1,COMPLETED_SUCCESSFULLY,7954.058911,0.000010,7954.058921,7954.058911,7954.058921,795405892.104870,6,-1.000000,""
5_updated,w0,python3action_videoprocessing_SampleVideo_50mb_yeti,7636.708970,1,2000.000000,1,COMPLETED_SUCCESSFULLY,7636.713985,686.386021,8323.100006,0.005015,686.391036,1.000007,8,-1.000000,""
5,w0,python3action_videoprocessing_SampleVideo_50mb,0.000000,1,-1.000000,1,COMPLETED_SUCCESSFULLY,8323.100021,0.000010,8323.100031,8323.100021,8323.100031,832310003.100201,8,-1.000000,""
42_updated,w0,python3action_facedetection_SampleVideo_30mb_gemini,7954.063911,1,2000.000000,1,COMPLETED_SUCCESSFULLY,7954.068926,375.261515,8329.330441,0.005015,375.266530,1.000013,6,-1.000000,""
42,w0,python3action_facedetection_SampleVideo_30mb,0.000000,1,-1.000000,1,COMPLETED_SUCCESSFULLY,8329.330456,0.000010,8329.330466,8329.330456,8329.330466,832933046.617033,6,-1.000000,""
48_updated,w0,python3action_chameleon_2000_gemini,8329.335456,1,2000.000000,1,COMPLETED_SUCCESSFULLY,8329.340471,85.704098,8415.044569,0.005015,85.709113,1.000059,6,-1.000000,""
48,w0,python3action_chameleon_2000,0.000000,1,-1.000000,1,COMPLETED_SUCCESSFULLY,8415.044584,0.000010,8415.044594,8415.044584,8415.044594,841504459.408441,6,-1.000000,""
53_updated,w0,python3action_pyaes_4000_gemini,8415.049584,1,2000.000000,1,COMPLETED_SUCCESSFULLY,8415.054599,365.007620,8780.062219,0.005015,365.012635,1.000014,6,-1.000000,""
53,w0,python3action_pyaes_4000,0.000000,1,-1.000000,1,COMPLETED_SUCCESSFULLY,8780.062234,0.000010,8780.062244,8780.062234,8780.062244,878006224.400201,6,-1.000000,""
55_updated,w0,python3action_videoprocessing_SampleVideo_50mb_yeti,8323.105021,1,2000.000000,1,COMPLETED_SUCCESSFULLY,8323.110036,686.386021,9009.496057,0.005015,686.391036,1.000007,8,-1.000000,""
55,w0,python3action_videoprocessing_SampleVideo_50mb,0.000000,1,-1.000000,1,COMPLETED_SUCCESSFULLY,9009.496072,0.000010,9009.496082,9009.496072,9009.496082,900949608.200201,8,-1.000000,""
60_updated,w0,python3action_modeltraining_reviews50mb_yeti,9009.501072,1,2000.000000,1,COMPLETED_SUCCESSFULLY,9009.506087,53.412153,9062.918240,0.005015,53.417168,1.000094,8,-1.000000,""
60,w0,python3action_modeltraining_reviews50mb,0.000000,1,-1.000000,1,COMPLETED_SUCCESSFULLY,9062.918255,0.000010,9062.918265,9062.918255,9062.918265,906291826.500201,8,-1.000000,""
66_updated,w0,python3action_imageprocessing_SampleImage_60mb_yeti,9062.923255,1,2000.000000,1,COMPLETED_SUCCESSFULLY,9062.928270,170.201436,9233.129706,0.005015,170.206451,1.000029,8,-1.000000,""
66,w0,python3action_imageprocessing_SampleImage_60mb,0.000000,1,-1.000000,1,COMPLETED_SUCCESSFULLY,9233.129721,0.000010,9233.129731,9233.129721,9233.129731,923312973.104172,8,-1.000000,""
59_updated,w0,python3action_linpack_6000_gemini,8780.067234,1,2000.000000,1,COMPLETED_SUCCESSFULLY,8780.072249,520.958482,9301.030731,0.005015,520.963497,1.000010,6,-1.000000,""
59,w0,python3action_linpack_6000,0.000000,1,-1.000000,1,COMPLETED_SUCCESSFULLY,9301.030746,0.000010,9301.030756,9301.030746,9301.030756,930103075.600201,6,-1.000000,""
71_updated,w0,python3action_linpack_5000_yeti,9233.134721,1,2000.000000,1,COMPLETED_SUCCESSFULLY,9233.139736,76.929468,9310.069204,0.005015,76.934483,1.000065,8,-1.000000,""
71,w0,python3action_linpack_5000,0.000000,1,-1.000000,1,COMPLETED_SUCCESSFULLY,9310.069219,0.000010,9310.069229,9310.069219,9310.069229,931006922.908392,8,-1.000000,""
64_updated,w0,python3action_pyaes_4000_gemini,9301.035746,1,2000.000000,1,COMPLETED_SUCCESSFULLY,9301.040761,365.007620,9666.048381,0.005015,365.012635,1.000014,6,-1.000000,""
64,w0,python3action_pyaes_4000,0.000000,1,-1.000000,1,COMPLETED_SUCCESSFULLY,9666.048396,0.000010,9666.048406,9666.048396,9666.048406,966604840.600201,6,-1.000000,""
7_updated,w0,python3action_linpack_5000_gemini,9666.053396,1,2000.000000,1,COMPLETED_SUCCESSFULLY,9666.058411,91.213647,9757.272058,0.005015,91.218662,1.000055,6,-1.000000,""
7,w0,python3action_linpack_5000,0.000000,1,-1.000000,1,COMPLETED_SUCCESSFULLY,9757.272073,0.000010,9757.272083,9757.272073,9757.272083,975727208.324673,6,-1.000000,""
77_updated,w0,python3action_linpack_6000_yeti,9310.074219,1,2000.000000,1,COMPLETED_SUCCESSFULLY,9310.079234,511.002833,9821.082067,0.005015,511.007848,1.000010,8,-1.000000,""
77,w0,python3action_linpack_6000,0.000000,1,-1.000000,1,COMPLETED_SUCCESSFULLY,9821.082082,0.000010,9821.082092,9821.082082,9821.082092,982108209.200357,8,-1.000000,""
75_updated,w0,python3action_chameleon_2000_gemini,9757.277073,1,2000.000000,1,COMPLETED_SUCCESSFULLY,9757.282088,85.704098,9842.986186,0.005015,85.709113,1.000059,6,-1.000000,""
75,w0,python3action_chameleon_2000,0.000000,1,-1.000000,1,COMPLETED_SUCCESSFULLY,9842.986201,0.000010,9842.986211,9842.986201,9842.986211,984298621.108441,6,-1.000000,""
82_updated,w0,python3action_floatoperation_100000000_yeti,9821.087082,1,2000.000000,1,COMPLETED_SUCCESSFULLY,9821.092097,127.551409,9948.643506,0.005015,127.556424,1.000039,8,-1.000000,""
82,w0,python3action_floatoperation_100000000,0.000000,1,-1.000000,1,COMPLETED_SUCCESSFULLY,9948.643521,0.000010,9948.643531,9948.643521,9948.643531,994864353.117707,8,-1.000000,""
80_updated,w0,python3action_modeltraining_reviews50mb_gemini,9842.991201,1,2000.000000,1,COMPLETED_SUCCESSFULLY,9842.996216,105.905778,9948.901994,0.005015,105.910793,1.000047,6,-1.000000,""
80,w0,python3action_modeltraining_reviews50mb,0.000000,1,-1.000000,1,COMPLETED_SUCCESSFULLY,9948.902009,0.000010,9948.902019,9948.902009,9948.902019,994890201.934622,6,-1.000000,""
