job_id,workload_name,profile,submission_time,requested_number_of_resources,requested_time,success,final_state,starting_time,execution_time,finish_time,waiting_time,turnaround_time,stretch,allocated_resources,consumed_energy,metadata
python3action_chameleon_job192_24,w0,python3action_chameleon,0.997085,1,2000.000000,1,COMPLETED_SUCCESSFULLY,1.002460,0.243006,1.245466,0.005375,0.248381,1.022119,24,-1.000000,""
python3action_floatoperation_job195_1,w0,python3action_floatoperation,0.997085,1,2000.000000,1,COMPLETED_SUCCESSFULLY,1.002115,0.277720,1.279835,0.005030,0.282750,1.018112,1,-1.000000,""
python3action_linpack_job5_23,w0,python3action_linpack,0.997085,1,2000.000000,1,COMPLETED_SUCCESSFULLY,1.002445,0.277720,1.280165,0.005360,0.283080,1.019300,23,-1.000000,""
python3action_floatoperation_job39_21,w0,python3action_floatoperation,0.997085,1,2000.000000,1,COMPLETED_SUCCESSFULLY,1.002415,1.020219,2.022634,0.005330,1.025549,1.005224,21,-1.000000,""
python3action_pyaes_job194_28,w0,python3action_pyaes,0.997085,1,2000.000000,1,COMPLETED_SUCCESSFULLY,1.002520,2.134958,3.137478,0.005435,2.140393,1.002546,28,-1.000000,""
python3action_pyaes_job2_29,w0,python3action_pyaes,0.997085,1,2000.000000,1,COMPLETED_SUCCESSFULLY,1.002535,2.134958,3.137493,0.005450,2.140408,1.002553,29,-1.000000,""
python3action_floatoperation_job20_2,w0,python3action_floatoperation,0.997085,1,2000.000000,1,COMPLETED_SUCCESSFULLY,1.002130,2.439945,3.442075,0.005045,2.444990,1.002068,2,-1.000000,""
python3action_linpack_job196_6,w0,python3action_linpack,0.997085,1,2000.000000,1,COMPLETED_SUCCESSFULLY,1.002190,2.439945,3.442135,0.005105,2.445050,1.002092,6,-1.000000,""
python3action_floatoperation_job193_26,w0,python3action_floatoperation,0.997085,1,2000.000000,1,COMPLETED_SUCCESSFULLY,1.002490,2.439945,3.442435,0.005405,2.445350,1.002215,26,-1.000000,""
python3action_floatoperation_job199_27,w0,python3action_floatoperation,0.997085,1,2000.000000,1,COMPLETED_SUCCESSFULLY,1.002505,2.439945,3.442450,0.005420,2.445365,1.002221,27,-1.000000,""
python3action_image_processing_job19_0,w0,python3action_image_processing,0.997085,1,2000.000000,1,COMPLETED_SUCCESSFULLY,1.002100,3.471546,4.473646,0.005015,3.476561,1.001445,0,-1.000000,""
python3action_video_processing_job49_12,w0,python3action_video_processing,0.997085,1,2000.000000,1,COMPLETED_SUCCESSFULLY,1.002280,3.471546,4.473826,0.005195,3.476741,1.001496,12,-1.000000,""
python3action_chameleon_job43_11,w0,python3action_chameleon,0.997085,1,2000.000000,1,COMPLETED_SUCCESSFULLY,1.002265,5.040826,6.043091,0.005180,5.046006,1.001028,11,-1.000000,""
python3action_chameleon_job54_13,w0,python3action_chameleon,0.997085,1,2000.000000,1,COMPLETED_SUCCESSFULLY,1.002295,5.040826,6.043121,0.005210,5.046036,1.001034,13,-1.000000,""
5_updated,w0,python3action_linpack_6000_orion,0.997085,1,2000.000000,1,COMPLETED_SUCCESSFULLY,1.280180,5.110003,6.390183,0.283095,5.393098,1.055400,23,-1.000000,""
5,w0,python3action_linpack_6000,0.000000,1,-1.000000,1,COMPLETED_SUCCESSFULLY,6.390198,0.000010,6.390208,6.390198,6.390208,639020.827146,23,-1.000000,""
python3action_linpack_job38_10,w0,python3action_linpack,0.997085,1,2000.000000,1,COMPLETED_SUCCESSFULLY,1.002250,5.760927,6.763177,0.005165,5.766092,1.000897,10,-1.000000,""
python3action_linpack_job65_15,w0,python3action_linpack,0.997085,1,2000.000000,1,COMPLETED_SUCCESSFULLY,1.002325,5.760927,6.763252,0.005240,5.766167,1.000910,15,-1.000000,""
python3action_linpack_job191_16,w0,python3action_linpack,0.997085,1,2000.000000,1,COMPLETED_SUCCESSFULLY,1.002340,5.760927,6.763267,0.005255,5.766182,1.000912,16,-1.000000,""
python3action_image_processing_job55_30,w0,python3action_image_processing,6.390213,1,2000.000000,1,COMPLETED_SUCCESSFULLY,6.395228,3.471546,9.866774,0.005015,3.476561,1.001445,23,-1.000000,""
python3action_facedetection_job197_17,w0,python3action_facedetection,0.997085,1,2000.000000,1,COMPLETED_SUCCESSFULLY,1.002355,9.964414,10.966769,0.005270,9.969684,1.000529,17,-1.000000,""
python3action_facedetection_job22_18,w0,python3action_facedetection,0.997085,1,2000.000000,1,COMPLETED_SUCCESSFULLY,1.002370,9.964414,10.966784,0.005285,9.969699,1.000530,18,-1.000000,""
55_updated,w0,python3action_imageprocessing_SampleImage_40mb_orion,6.390213,1,2000.000000,1,COMPLETED_SUCCESSFULLY,9.866789,1.542642,11.409431,3.476576,5.019218,3.253650,23,-1.000000,""
55,w0,python3action_imageprocessing_SampleImage_40mb,0.000000,1,-1.000000,1,COMPLETED_SUCCESSFULLY,11.409446,0.000010,11.409456,11.409446,11.409456,1140945.638621,23,-1.000000,""
python3action_floatoperation_job60_31,w0,python3action_floatoperation,11.409461,1,2000.000000,1,COMPLETED_SUCCESSFULLY,11.414476,0.277720,11.692196,0.005015,0.282735,1.018058,23,-1.000000,""
python3action_facedetection_job28_19,w0,python3action_facedetection,0.997085,1,2000.000000,1,COMPLETED_SUCCESSFULLY,1.002385,12.398880,13.401265,0.005300,12.404180,1.000427,19,-1.000000,""
python3action_facedetection_job33_20,w0,python3action_facedetection,0.997085,1,2000.000000,1,COMPLETED_SUCCESSFULLY,1.002400,12.398880,13.401280,0.005315,12.404195,1.000429,20,-1.000000,""
python3action_modeltraining_job44_22,w0,python3action_modeltraining,0.997085,1,2000.000000,1,COMPLETED_SUCCESSFULLY,1.002430,12.752895,13.755325,0.005345,12.758240,1.000419,22,-1.000000,""
49_updated,w0,python3action_videoprocessing_SampleVideo_30mb_nova,0.997085,1,2000.000000,1,COMPLETED_SUCCESSFULLY,4.473841,12.156226,16.630067,3.476756,15.632982,1.286006,12,-1.000000,""
49,w0,python3action_videoprocessing_SampleVideo_30mb,0.000000,1,-1.000000,1,COMPLETED_SUCCESSFULLY,16.630082,0.000010,16.630092,16.630082,16.630092,1663009.200201,12,-1.000000,""
python3action_image_processing_job70_32,w0,python3action_image_processing_reduced_0.86,16.630097,1,2000.000000,1,COMPLETED_SUCCESSFULLY,16.635112,0.469128,17.104240,0.005015,0.474143,1.010690,12,-1.000000,""
60_updated,w0,python3action_floatoperation_200000000_orion,11.409461,1,2000.000000,1,COMPLETED_SUCCESSFULLY,11.692211,8.018525,19.710736,0.282750,8.301275,1.035262,23,-1.000000,""
60,w0,python3action_floatoperation_200000000,0.000000,1,-1.000000,1,COMPLETED_SUCCESSFULLY,19.710751,0.000010,19.710761,19.710751,19.710761,1971076.103015,23,-1.000000,""
python3action_pyaes_job66_33,w0,python3action_pyaes_reduced_0.85,19.710766,1,2000.000000,1,COMPLETED_SUCCESSFULLY,19.715781,0.036451,19.752232,0.005015,0.041466,1.137582,23,-1.000000,""
192_updated,w0,python3action_chameleon_3000_gemini,0.997085,1,2000.000000,1,COMPLETED_SUCCESSFULLY,1.245481,23.342423,24.587904,0.248396,23.590819,1.010641,24,-1.000000,""
192,w0,python3action_chameleon_3000,0.000000,1,-1.000000,1,COMPLETED_SUCCESSFULLY,24.587919,0.000010,24.587929,24.587919,24.587929,2458792.936905,24,-1.000000,""
python3action_floatoperation_job23_34,w0,python3action_floatoperation,24.587934,1,2000.000000,1,COMPLETED_SUCCESSFULLY,24.592949,0.277720,24.870669,0.005015,0.282735,1.018058,24,-1.000000,""
19_updated,w0,python3action_imageprocessing_SampleImage_40mb_neowise,0.997085,1,2000.000000,1,COMPLETED_SUCCESSFULLY,4.473661,20.909089,25.382750,3.476576,24.385665,1.166271,0,-1.000000,""
19,w0,python3action_imageprocessing_SampleImage_40mb,0.000000,1,-1.000000,1,COMPLETED_SUCCESSFULLY,25.382765,0.000010,25.382775,25.382765,25.382775,2538277.500201,0,-1.000000,""
python3action_modeltraining_job37_35,w0,python3action_modeltraining_reduced_0.94,25.382780,1,2000.000000,1,COMPLETED_SUCCESSFULLY,25.387795,0.204209,25.592004,0.005015,0.209224,1.024558,0,-1.000000,""
66_updated,w0,python3action_pyaes_4000_orion,19.710766,1,2000.000000,1,COMPLETED_SUCCESSFULLY,19.752247,8.976249,28.728496,0.041481,9.017730,1.004621,23,-1.000000,""
66,w0,python3action_pyaes_4000,0.000000,1,-1.000000,1,COMPLETED_SUCCESSFULLY,28.728511,0.000010,28.728521,28.728511,28.728521,2872852.125347,23,-1.000000,""
70_updated,w0,python3action_imageprocessing_SampleImage_60mb_nova,16.630097,1,2000.000000,1,COMPLETED_SUCCESSFULLY,17.104255,11.809071,28.913326,0.474158,12.283229,1.040152,12,-1.000000,""
70,w0,python3action_imageprocessing_SampleImage_60mb,0.000000,1,-1.000000,1,COMPLETED_SUCCESSFULLY,28.913341,0.000010,28.913351,28.913341,28.913351,2891335.110060,12,-1.000000,""
44_updated,w0,python3action_modeltraining_reviews100mb_orion,0.997085,1,2000.000000,1,COMPLETED_SUCCESSFULLY,13.755340,15.229990,28.985330,12.758255,27.988245,1.837706,22,-1.000000,""
44,w0,python3action_modeltraining_reviews100mb,0.000000,1,-1.000000,1,COMPLETED_SUCCESSFULLY,28.985345,0.000010,28.985355,28.985345,28.985355,2898535.508584,22,-1.000000,""
python3action_facedetection_job71_36,w0,python3action_facedetection_reduced_0.91,28.728526,1,2000.000000,1,COMPLETED_SUCCESSFULLY,28.733541,0.297561,29.031102,0.005015,0.302576,1.016854,23,-1.000000,""
python3action_pyaes_job76_37,w0,python3action_pyaes,28.913356,1,2000.000000,1,COMPLETED_SUCCESSFULLY,28.918371,0.243006,29.161377,0.005015,0.248021,1.020637,12,-1.000000,""
197_updated,w0,python3action_facedetection_SampleVideo_50mb_orion,0.997085,1,2000.000000,1,COMPLETED_SUCCESSFULLY,10.966784,18.347961,29.314745,9.969699,28.317660,1.543368,17,-1.000000,""
197,w0,python3action_facedetection_SampleVideo_50mb,0.000000,1,-1.000000,1,COMPLETED_SUCCESSFULLY,29.314760,0.000010,29.314770,29.314760,29.314770,2931477.037130,17,-1.000000,""
python3action_image_processing_job82_39,w0,python3action_image_processing_reduced_0.86,29.314775,1,2000.000000,1,COMPLETED_SUCCESSFULLY,29.319790,1.346542,30.666332,0.005015,1.351557,1.003724,17,-1.000000,""
python3action_image_processing_job77_38,w0,python3action_image_processing_reduced_0.86,28.985360,1,2000.000000,1,COMPLETED_SUCCESSFULLY,28.990375,1.723364,30.713739,0.005015,1.728379,1.002910,22,-1.000000,""
39_updated,w0,python3action_floatoperation_200000000_orion,0.997085,1,2000.000000,1,COMPLETED_SUCCESSFULLY,2.022649,29.456447,31.479096,1.025564,30.482011,1.034816,21,-1.000000,""
39,w0,python3action_floatoperation_200000000,0.000000,1,-1.000000,1,COMPLETED_SUCCESSFULLY,31.479111,0.000010,31.479121,31.479111,31.479121,3147912.110215,21,-1.000000,""
python3action_image_processing_job26_3,w0,python3action_image_processing,0.997085,1,2000.000000,1,COMPLETED_SUCCESSFULLY,1.002145,30.499683,31.501828,0.005060,30.504743,1.000166,3,-1.000000,""
python3action_image_processing_job31_4,w0,python3action_image_processing,0.997085,1,2000.000000,1,COMPLETED_SUCCESSFULLY,1.002160,30.499683,31.501843,0.005075,30.504758,1.000166,4,-1.000000,""
python3action_facedetection_job190_5,w0,python3action_facedetection,0.997085,1,2000.000000,1,COMPLETED_SUCCESSFULLY,1.002175,30.499683,31.501858,0.005090,30.504773,1.000167,5,-1.000000,""
python3action_modeltraining_job21_7,w0,python3action_modeltraining,0.997085,1,2000.000000,1,COMPLETED_SUCCESSFULLY,1.002205,30.499683,31.501888,0.005120,30.504803,1.000168,7,-1.000000,""
python3action_modeltraining_job198_25,w0,python3action_modeltraining,0.997085,1,2000.000000,1,COMPLETED_SUCCESSFULLY,1.002475,30.499683,31.502158,0.005390,30.505073,1.000177,25,-1.000000,""
71_updated,w0,python3action_facedetection_SampleVideo_50mb_orion,28.728526,1,2000.000000,1,COMPLETED_SUCCESSFULLY,29.031117,6.392327,35.423444,0.302591,6.694918,1.047337,23,-1.000000,""
71,w0,python3action_facedetection_SampleVideo_50mb,0.000000,1,-1.000000,1,COMPLETED_SUCCESSFULLY,35.423459,0.000010,35.423469,35.423459,35.423469,3542346.900201,23,-1.000000,""
28_updated,w0,python3action_facedetection_SampleVideo_50mb_orion,0.997085,1,2000.000000,1,COMPLETED_SUCCESSFULLY,13.401280,22.830663,36.231943,12.404195,35.234858,1.543313,19,-1.000000,""
28,w0,python3action_facedetection_SampleVideo_50mb,0.000000,1,-1.000000,1,COMPLETED_SUCCESSFULLY,36.231958,0.000010,36.231968,36.231958,36.231968,3623196.800201,19,-1.000000,""
33_updated,w0,python3action_facedetection_SampleVideo_50mb_orion,0.997085,1,2000.000000,1,COMPLETED_SUCCESSFULLY,13.401310,22.830663,36.231973,12.404225,35.234888,1.543314,20,-1.000000,""
22_updated,w0,python3action_facedetection_SampleVideo_30mb_orion,0.997085,1,2000.000000,1,COMPLETED_SUCCESSFULLY,10.966814,25.266496,36.233310,9.969729,35.236225,1.394583,18,-1.000000,""
33,w0,python3action_facedetection_SampleVideo_50mb,0.000000,1,-1.000000,1,COMPLETED_SUCCESSFULLY,36.237003,0.000010,36.237013,36.237003,36.237013,3623701.300402,20,-1.000000,""
22,w0,python3action_facedetection_SampleVideo_30mb,0.000000,1,-1.000000,1,COMPLETED_SUCCESSFULLY,36.237033,0.000010,36.237043,36.237033,36.237043,3623704.300803,18,-1.000000,""
118_updated,w0,python3action_linpack_5000_orion,35.423474,1,2000.000000,1,COMPLETED_SUCCESSFULLY,35.428489,1.745113,37.173602,0.005015,1.750128,1.002874,23,-1.000000,""
118,w0,python3action_linpack_5000,0.000000,1,-1.000000,1,COMPLETED_SUCCESSFULLY,37.173617,0.000010,37.173627,37.173617,37.173627,3717362.708694,23,-1.000000,""
python3action_modeltraining_job13_44,w0,python3action_modeltraining_reduced_1.88,37.173632,1,2000.000000,1,COMPLETED_SUCCESSFULLY,37.178647,0.000000,37.178647,0.005015,0.005015,902555994.231458,23,-1.000000,""
python3action_linpack_job120_41,w0,python3action_linpack,36.231973,1,2000.000000,1,COMPLETED_SUCCESSFULLY,36.236988,0.991898,37.228886,0.005015,0.996913,1.005056,19,-1.000000,""
python3action_video_processing_job123_42,w0,python3action_video_processing_reduced_0.91,36.237018,1,2000.000000,1,COMPLETED_SUCCESSFULLY,36.242033,1.062761,37.304794,0.005015,1.067776,1.004719,20,-1.000000,""
python3action_image_processing_job98_43,w0,python3action_image_processing_reduced_0.86,36.242048,1,2000.000000,1,COMPLETED_SUCCESSFULLY,36.247063,1.346542,37.593605,0.005015,1.351557,1.003724,18,-1.000000,""
196_updated,w0,python3action_linpack_5000_nova,0.997085,1,2000.000000,1,COMPLETED_SUCCESSFULLY,3.442150,34.600010,38.042160,2.445065,37.045075,1.070667,6,-1.000000,""
196,w0,python3action_linpack_5000,0.000000,1,-1.000000,1,COMPLETED_SUCCESSFULLY,38.042175,0.000010,38.042185,38.042175,38.042185,3804218.508084,6,-1.000000,""
13_updated,w0,python3action_modeltraining_reviews100mb_orion,37.173632,1,2000.000000,1,COMPLETED_SUCCESSFULLY,37.178677,4.145851,41.324528,0.005045,4.150896,1.001217,23,-1.000000,""
13,w0,python3action_modeltraining_reviews100mb,0.000000,1,-1.000000,1,COMPLETED_SUCCESSFULLY,41.324543,0.000010,41.324553,41.324543,41.324553,4132455.341017,23,-1.000000,""
98_updated,w0,python3action_imageprocessing_SampleImage_40mb_orion,36.242048,1,2000.000000,1,COMPLETED_SUCCESSFULLY,37.593620,4.427862,42.021483,1.351572,5.779435,1.305243,18,-1.000000,""
98,w0,python3action_imageprocessing_SampleImage_40mb,0.000000,1,-1.000000,1,COMPLETED_SUCCESSFULLY,42.021498,0.000010,42.021508,42.021498,42.021508,4202150.800201,18,-1.000000,""
python3action_pyaes_job140_46,w0,python3action_pyaes,42.021513,1,2000.000000,1,COMPLETED_SUCCESSFULLY,42.026528,0.697503,42.724031,0.005015,0.702518,1.007190,18,-1.000000,""
82_updated,w0,python3action_imageprocessing_SampleImage_60mb_orion,29.314775,1,2000.000000,1,COMPLETED_SUCCESSFULLY,30.666347,12.176622,42.842969,1.351572,13.528194,1.110997,17,-1.000000,""
82,w0,python3action_imageprocessing_SampleImage_60mb,0.000000,1,-1.000000,1,COMPLETED_SUCCESSFULLY,42.842984,0.000010,42.842994,42.842984,42.842994,4284299.414998,17,-1.000000,""
120_updated,w0,python3action_linpack_5000_orion,36.231973,1,2000.000000,1,COMPLETED_SUCCESSFULLY,37.228901,6.232799,43.461701,0.996928,7.229728,1.159949,19,-1.000000,""
120,w0,python3action_linpack_5000,0.000000,1,-1.000000,1,COMPLETED_SUCCESSFULLY,43.461716,0.000010,43.461726,43.461716,43.461726,4346172.600201,19,-1.000000,""
python3action_chameleon_job150_47,w0,python3action_chameleon_reduced_0.85,43.461731,1,2000.000000,1,COMPLETED_SUCCESSFULLY,43.466746,0.130187,43.596933,0.005015,0.135202,1.038522,19,-1.000000,""
python3action_facedetection_job115_40,w0,python3action_facedetection,31.479126,1,2000.000000,1,COMPLETED_SUCCESSFULLY,31.484141,12.752895,44.237036,0.005015,12.757910,1.000393,21,-1.000000,""
23_updated,w0,python3action_floatoperation_100000000_gemini,24.587934,1,2000.000000,1,COMPLETED_SUCCESSFULLY,24.870684,19.858480,44.729164,0.282750,20.141230,1.014238,24,-1.000000,""
23,w0,python3action_floatoperation_100000000,0.000000,1,-1.000000,1,COMPLETED_SUCCESSFULLY,44.729179,0.000010,44.729189,44.729179,44.729189,4472918.900201,24,-1.000000,""
python3action_pyaes_job29_48,w0,python3action_pyaes_reduced_0.85,44.729194,1,2000.000000,1,COMPLETED_SUCCESSFULLY,44.734209,0.036451,44.770660,0.005015,0.041466,1.137582,24,-1.000000,""
76_updated,w0,python3action_pyaes_4000_nova,28.913356,1,2000.000000,1,COMPLETED_SUCCESSFULLY,29.161392,15.889602,45.050994,0.248036,16.137638,1.015610,12,-1.000000,""
76,w0,python3action_pyaes_4000,0.000000,1,-1.000000,1,COMPLETED_SUCCESSFULLY,45.051009,0.000010,45.051019,45.051009,45.051019,4505101.937909,12,-1.000000,""
77_updated,w0,python3action_imageprocessing_SampleImage_60mb_orion,28.985360,1,2000.000000,1,COMPLETED_SUCCESSFULLY,30.713754,15.584176,46.297930,1.728394,17.312570,1.110907,22,-1.000000,""
77,w0,python3action_imageprocessing_SampleImage_60mb,0.000000,1,-1.000000,1,COMPLETED_SUCCESSFULLY,46.297945,0.000010,46.297955,46.297945,46.297955,4629795.500727,22,-1.000000,""
python3action_chameleon_job156_49,w0,python3action_chameleon,46.297960,1,2000.000000,1,COMPLETED_SUCCESSFULLY,46.302975,0.892694,47.195669,0.005015,0.897709,1.005618,22,-1.000000,""
135_updated,w0,python3action_pyaes_4000_orion,41.324558,1,2000.000000,1,COMPLETED_SUCCESSFULLY,41.329573,8.976249,50.305822,0.005015,8.981264,1.000559,23,-1.000000,""
135,w0,python3action_pyaes_4000,0.000000,1,-1.000000,1,COMPLETED_SUCCESSFULLY,50.305837,0.000010,50.305847,50.305837,50.305847,5030584.725347,23,-1.000000,""
86_updated,w0,python3action_videoprocessing_SampleVideo_30mb_nova,45.051024,1,2000.000000,1,COMPLETED_SUCCESSFULLY,45.056039,12.156226,57.212265,0.005015,12.161241,1.000413,12,-1.000000,""
86,w0,python3action_videoprocessing_SampleVideo_30mb,0.000000,1,-1.000000,1,COMPLETED_SUCCESSFULLY,57.212280,0.000010,57.212290,57.212280,57.212290,5721229.000201,12,-1.000000,""
python3action_linpack_job89_50,w0,python3action_linpack_reduced_0.85,57.212295,1,2000.000000,1,COMPLETED_SUCCESSFULLY,57.217310,0.041658,57.258968,0.005015,0.046673,1.120385,12,-1.000000,""
160_updated,w0,python3action_pyaes_4000_orion,50.305852,1,2000.000000,1,COMPLETED_SUCCESSFULLY,50.310867,8.976249,59.287116,0.005015,8.981264,1.000559,23,-1.000000,""
160,w0,python3action_pyaes_4000,0.000000,1,-1.000000,1,COMPLETED_SUCCESSFULLY,59.287131,0.000010,59.287141,59.287131,59.287141,5928714.125347,23,-1.000000,""
python3action_video_processing_job166_51,w0,python3action_video_processing_reduced_2.8,59.287146,1,2000.000000,1,COMPLETED_SUCCESSFULLY,59.292161,0.000000,59.292161,0.005015,0.005015,902555994.231458,23,-1.000000,""
123_updated,w0,python3action_videoprocessing_SampleVideo_30mb_orion,36.237018,1,2000.000000,1,COMPLETED_SUCCESSFULLY,37.304809,22.382995,59.687804,1.067791,23.450786,1.047705,20,-1.000000,""
123,w0,python3action_videoprocessing_SampleVideo_30mb,0.000000,1,-1.000000,1,COMPLETED_SUCCESSFULLY,59.687819,0.000010,59.687829,59.687819,59.687829,5968782.900201,20,-1.000000,""
146_updated,w0,python3action_facedetection_SampleVideo_50mb_orion,42.842999,1,2000.000000,1,COMPLETED_SUCCESSFULLY,42.848014,18.347961,61.195975,0.005015,18.352976,1.000273,17,-1.000000,""
146,w0,python3action_facedetection_SampleVideo_50mb,0.000000,1,-1.000000,1,COMPLETED_SUCCESSFULLY,61.195990,0.000010,61.196000,61.195990,61.196000,6119600.038597,17,-1.000000,""
89_updated,w0,python3action_linpack_5000_nova,57.212295,1,2000.000000,1,COMPLETED_SUCCESSFULLY,57.258983,3.938255,61.197238,0.046688,3.984943,1.011855,12,-1.000000,""
89,w0,python3action_linpack_5000,0.000000,1,-1.000000,1,COMPLETED_SUCCESSFULLY,61.201050,0.000010,61.201060,61.201050,61.201060,6120106.000602,12,-1.000000,""
python3action_chameleon_job91_53,w0,python3action_chameleon_reduced_1.7,61.201065,1,2000.000000,1,COMPLETED_SUCCESSFULLY,61.206080,0.000000,61.206080,0.005015,0.005015,902555994.231458,12,-1.000000,""
python3action_floatoperation_job101_52,w0,python3action_floatoperation,61.196005,1,2000.000000,1,COMPLETED_SUCCESSFULLY,61.201020,0.797144,61.998164,0.005015,0.802159,1.006291,17,-1.000000,""
166_updated,w0,python3action_videoprocessing_SampleVideo_30mb_orion,59.287146,1,2000.000000,1,COMPLETED_SUCCESSFULLY,59.292191,6.266985,65.559176,0.005045,6.272030,1.000805,23,-1.000000,""
166,w0,python3action_videoprocessing_SampleVideo_30mb,0.000000,1,-1.000000,1,COMPLETED_SUCCESSFULLY,65.559191,0.000010,65.559201,65.559191,65.559201,6555920.100201,23,-1.000000,""
python3action_chameleon_job174_54,w0,python3action_chameleon_reduced_1.7,65.559206,1,2000.000000,1,COMPLETED_SUCCESSFULLY,65.564221,0.000000,65.564221,0.005015,0.005015,902555994.232737,23,-1.000000,""
195_updated,w0,python3action_floatoperation_100000000_neowise,0.997085,1,2000.000000,1,COMPLETED_SUCCESSFULLY,1.279850,64.600001,65.879851,0.282765,64.882766,1.004377,1,-1.000000,""
195,w0,python3action_floatoperation_100000000,0.000000,1,-1.000000,1,COMPLETED_SUCCESSFULLY,65.879866,0.000010,65.879876,65.879866,65.879876,6587987.644820,1,-1.000000,""
python3action_pyaes_job42_55,w0,python3action_pyaes,65.879881,1,2000.000000,1,COMPLETED_SUCCESSFULLY,65.884896,0.243006,66.127902,0.005015,0.248021,1.020637,1,-1.000000,""
115_updated,w0,python3action_facedetection_SampleVideo_50mb_orion,31.479126,1,2000.000000,1,COMPLETED_SUCCESSFULLY,44.237051,23.482528,67.719579,12.757925,36.240453,1.543294,21,-1.000000,""
115,w0,python3action_facedetection_SampleVideo_50mb,0.000000,1,-1.000000,1,COMPLETED_SUCCESSFULLY,67.719594,0.000010,67.719604,67.719594,67.719604,6771960.400201,21,-1.000000,""
140_updated,w0,python3action_pyaes_4000_orion,42.021513,1,2000.000000,1,COMPLETED_SUCCESSFULLY,42.724046,25.764621,68.488667,0.702533,26.467154,1.027267,18,-1.000000,""
140,w0,python3action_pyaes_4000,0.000000,1,-1.000000,1,COMPLETED_SUCCESSFULLY,68.488682,0.000010,68.488692,68.488682,68.488692,6848869.240352,18,-1.000000,""
python3action_modeltraining_job81_45,w0,python3action_modeltraining,38.042190,1,2000.000000,1,COMPLETED_SUCCESSFULLY,38.047205,30.499683,68.546888,0.005015,30.504698,1.000164,6,-1.000000,""
python3action_chameleon_job181_57,w0,python3action_chameleon_reduced_0.85,68.488697,1,2000.000000,1,COMPLETED_SUCCESSFULLY,68.493712,0.104625,68.598337,0.005015,0.109640,1.047933,18,-1.000000,""
python3action_chameleon_job179_56,w0,python3action_chameleon,67.719609,1,2000.000000,1,COMPLETED_SUCCESSFULLY,67.724624,0.892694,68.617318,0.005015,0.897709,1.005618,21,-1.000000,""
37_updated,w0,python3action_modeltraining_reviews100mb_neowise,25.382780,1,2000.000000,1,COMPLETED_SUCCESSFULLY,25.592019,43.399999,68.992018,0.209239,43.609238,1.004821,0,-1.000000,""
37,w0,python3action_modeltraining_reviews100mb,0.000000,1,-1.000000,1,COMPLETED_SUCCESSFULLY,68.992033,0.000010,68.992043,68.992033,68.992043,6899204.300201,0,-1.000000,""
python3action_video_processing_job27_8,w0,python3action_video_processing,0.997085,1,2000.000000,1,COMPLETED_SUCCESSFULLY,1.002220,72.012455,73.014675,0.005135,72.017590,1.000071,8,-1.000000,""
python3action_image_processing_job32_9,w0,python3action_image_processing,0.997085,1,2000.000000,1,COMPLETED_SUCCESSFULLY,1.002235,72.012455,73.014690,0.005150,72.017605,1.000072,9,-1.000000,""
python3action_facedetection_job6_14,w0,python3action_facedetection,0.997085,1,2000.000000,1,COMPLETED_SUCCESSFULLY,1.002310,72.012455,73.014765,0.005225,72.017680,1.000073,14,-1.000000,""
101_updated,w0,python3action_floatoperation_100000000_orion,61.196005,1,2000.000000,1,COMPLETED_SUCCESSFULLY,61.998179,11.300279,73.298458,0.802174,12.102453,1.070987,17,-1.000000,""
101,w0,python3action_floatoperation_100000000,0.000000,1,-1.000000,1,COMPLETED_SUCCESSFULLY,73.298473,0.000010,73.298483,73.298473,73.298483,7329848.326676,17,-1.000000,""
python3action_chameleon_job185_58,w0,python3action_chameleon,73.298488,1,2000.000000,1,COMPLETED_SUCCESSFULLY,73.303503,0.697503,74.001006,0.005015,0.702518,1.007190,17,-1.000000,""
174_updated,w0,python3action_chameleon_3000_orion,65.559206,1,2000.000000,1,COMPLETED_SUCCESSFULLY,65.564251,9.149799,74.714050,0.005045,9.154844,1.000551,23,-1.000000,""
174,w0,python3action_chameleon_3000,0.000000,1,-1.000000,1,COMPLETED_SUCCESSFULLY,74.714065,0.000010,74.714075,74.714065,74.714075,7471407.500201,23,-1.000000,""
150_updated,w0,python3action_chameleon_3000_orion,43.461731,1,2000.000000,1,COMPLETED_SUCCESSFULLY,43.596948,32.679176,76.276124,0.135217,32.814393,1.004138,19,-1.000000,""
150,w0,python3action_chameleon_3000,0.000000,1,-1.000000,1,COMPLETED_SUCCESSFULLY,76.276139,0.000010,76.276149,76.276139,76.276149,7627614.940230,19,-1.000000,""
181_updated,w0,python3action_chameleon_2000_orion,68.488697,1,2000.000000,1,COMPLETED_SUCCESSFULLY,68.598352,8.578983,77.177336,0.109655,8.688639,1.012782,18,-1.000000,""
181,w0,python3action_chameleon_2000,0.000000,1,-1.000000,1,COMPLETED_SUCCESSFULLY,77.177351,0.000010,77.177361,77.177351,77.177361,7717736.100201,18,-1.000000,""
179_updated,w0,python3action_chameleon_2000_orion,67.719609,1,2000.000000,1,COMPLETED_SUCCESSFULLY,68.617333,10.979760,79.597094,0.897724,11.877485,1.081762,21,-1.000000,""
179,w0,python3action_chameleon_2000,0.000000,1,-1.000000,1,COMPLETED_SUCCESSFULLY,79.597109,0.000010,79.597119,79.597109,79.597119,7959711.900201,21,-1.000000,""
156_updated,w0,python3action_chameleon_3000_orion,46.297960,1,2000.000000,1,COMPLETED_SUCCESSFULLY,47.195684,33.612238,80.807922,0.897724,34.509962,1.026708,22,-1.000000,""
156,w0,python3action_chameleon_3000,0.000000,1,-1.000000,1,COMPLETED_SUCCESSFULLY,80.807937,0.000010,80.807947,80.807937,80.807947,8080794.730184,22,-1.000000,""
29_updated,w0,python3action_pyaes_4000_gemini,44.729194,1,2000.000000,1,COMPLETED_SUCCESSFULLY,44.770675,41.546028,86.316703,0.041481,41.587509,1.000998,24,-1.000000,""
29,w0,python3action_pyaes_4000,0.000000,1,-1.000000,1,COMPLETED_SUCCESSFULLY,86.316718,0.000010,86.316728,86.316718,86.316728,8631672.820247,24,-1.000000,""
38_updated,w0,python3action_linpack_5000_nova,0.997085,1,2000.000000,1,COMPLETED_SUCCESSFULLY,6.763192,81.693692,88.456884,5.766107,87.459799,1.070582,10,-1.000000,""
38,w0,python3action_linpack_5000,0.000000,1,-1.000000,1,COMPLETED_SUCCESSFULLY,88.456899,0.000010,88.456909,88.456899,88.456909,8845690.900201,10,-1.000000,""
python3action_image_processing_job34_59,w0,python3action_image_processing,86.321718,1,2000.000000,1,COMPLETED_SUCCESSFULLY,86.326733,3.471546,89.798279,0.005015,3.476561,1.001445,24,-1.000000,""
169_updated,w0,python3action_facedetection_SampleVideo_30mb_orion,59.687834,1,2000.000000,1,COMPLETED_SUCCESSFULLY,59.692849,31.439507,91.132356,0.005015,31.444522,1.000160,20,-1.000000,""
169,w0,python3action_facedetection_SampleVideo_30mb,0.000000,1,-1.000000,1,COMPLETED_SUCCESSFULLY,91.132371,0.000010,91.132381,91.132371,91.132381,9113238.100201,20,-1.000000,""
185_updated,w0,python3action_chameleon_3000_orion,73.298488,1,2000.000000,1,COMPLETED_SUCCESSFULLY,74.001021,26.262762,100.263783,0.702533,26.965295,1.026750,17,-1.000000,""
185,w0,python3action_chameleon_3000,0.000000,1,-1.000000,1,COMPLETED_SUCCESSFULLY,100.263798,0.000010,100.263808,100.263798,100.263808,10026380.831152,17,-1.000000,""
34_updated,w0,python3action_imageprocessing_SampleImage_60mb_gemini,86.321718,1,2000.000000,1,COMPLETED_SUCCESSFULLY,89.798294,18.534581,108.332875,3.476576,22.011157,1.187572,24,-1.000000,""
34,w0,python3action_imageprocessing_SampleImage_60mb,0.000000,1,-1.000000,1,COMPLETED_SUCCESSFULLY,108.332890,0.000010,108.332900,108.332890,108.332900,10833290.000201,24,-1.000000,""
81_updated,w0,python3action_modeltraining_reviews50mb_nova,38.042190,1,2000.000000,1,COMPLETED_SUCCESSFULLY,68.546903,42.399990,110.946893,30.504713,72.904703,1.719451,6,-1.000000,""
81,w0,python3action_modeltraining_reviews50mb,0.000000,1,-1.000000,1,COMPLETED_SUCCESSFULLY,110.946908,0.000010,110.946918,110.946908,110.946918,11094691.823505,6,-1.000000,""
21_updated,w0,python3action_modeltraining_reviews100mb_nova,0.997085,1,2000.000000,1,COMPLETED_SUCCESSFULLY,31.501918,79.600010,111.101928,30.504833,110.104843,1.383226,7,-1.000000,""
21,w0,python3action_modeltraining_reviews100mb,0.000000,1,-1.000000,1,COMPLETED_SUCCESSFULLY,111.101943,0.000010,111.101953,111.101943,111.101953,11110195.300201,7,-1.000000,""
48_updated,w0,python3action_modeltraining_reviews100mb_neowise,68.992048,1,2000.000000,1,COMPLETED_SUCCESSFULLY,68.997063,43.399999,112.397062,0.005015,43.405014,1.000116,0,-1.000000,""
48,w0,python3action_modeltraining_reviews100mb,0.000000,1,-1.000000,1,COMPLETED_SUCCESSFULLY,112.397077,0.000010,112.397087,112.397077,112.397087,11239708.700201,0,-1.000000,""
python3action_video_processing_job53_63,w0,python3action_video_processing_reduced_1.89,112.402077,1,2000.000000,1,COMPLETED_SUCCESSFULLY,112.407092,0.000000,112.407092,0.005015,0.005015,902555994.232737,0,-1.000000,""
191_updated,w0,python3action_linpack_6000_orion,0.997085,1,2000.000000,1,COMPLETED_SUCCESSFULLY,6.763297,106.000000,112.763297,5.766212,111.766212,1.054398,16,-1.000000,""
191,w0,python3action_linpack_6000,0.000000,1,-1.000000,1,COMPLETED_SUCCESSFULLY,112.763312,0.000010,112.763322,112.763312,112.763322,11276332.226885,16,-1.000000,""
python3action_floatoperation_job97_61,w0,python3action_floatoperation,110.951908,1,2000.000000,1,COMPLETED_SUCCESSFULLY,110.956923,2.439945,113.396868,0.005015,2.444960,1.002055,6,-1.000000,""
python3action_image_processing_job129_62,w0,python3action_image_processing_reduced_0.86,111.106943,1,2000.000000,1,COMPLETED_SUCCESSFULLY,111.111958,4.121579,115.233537,0.005015,4.126594,1.001217,7,-1.000000,""
193_updated,w0,python3action_floatoperation_100000000_troll,0.997085,1,2000.000000,1,COMPLETED_SUCCESSFULLY,3.442450,125.863576,129.306027,2.445365,128.308942,1.019429,26,-1.000000,""
193,w0,python3action_floatoperation_100000000,0.000000,1,-1.000000,1,COMPLETED_SUCCESSFULLY,129.306042,0.000010,129.306052,129.306042,129.306052,12930605.200201,26,-1.000000,""
199_updated,w0,python3action_floatoperation_100000000_troll,0.997085,1,2000.000000,1,COMPLETED_SUCCESSFULLY,3.442480,125.863576,129.306057,2.445395,128.308972,1.019429,27,-1.000000,""
199,w0,python3action_floatoperation_100000000,0.000000,1,-1.000000,1,COMPLETED_SUCCESSFULLY,129.316072,0.000010,129.316082,129.316072,129.316082,12931608.200402,27,-1.000000,""
python3action_linpack_job24_64,w0,python3action_linpack,129.311042,1,2000.000000,1,COMPLETED_SUCCESSFULLY,129.316057,2.439945,131.756002,0.005015,2.444960,1.002055,26,-1.000000,""
91_updated,w0,python3action_chameleon_3000_nova,61.201065,1,2000.000000,1,COMPLETED_SUCCESSFULLY,61.206110,75.373168,136.579278,0.005045,75.378213,1.000067,12,-1.000000,""
91,w0,python3action_chameleon_3000,0.000000,1,-1.000000,1,COMPLETED_SUCCESSFULLY,136.579293,0.000010,136.579303,136.579293,136.579303,13657930.310908,12,-1.000000,""
198_updated,w0,python3action_modeltraining_reviews50mb_gemini,0.997085,1,2000.000000,1,COMPLETED_SUCCESSFULLY,31.502173,105.905778,137.407951,30.505088,136.410866,1.288040,25,-1.000000,""
198,w0,python3action_modeltraining_reviews50mb,0.000000,1,-1.000000,1,COMPLETED_SUCCESSFULLY,137.407966,0.000010,137.407976,137.407966,137.407976,13740797.634622,25,-1.000000,""
python3action_chameleon_job45_65,w0,python3action_chameleon,137.412966,1,2000.000000,1,COMPLETED_SUCCESSFULLY,137.417981,2.134958,139.552939,0.005015,2.139973,1.002349,25,-1.000000,""
134_updated,w0,python3action_linpack_5000_nova,136.584293,1,2000.000000,1,COMPLETED_SUCCESSFULLY,136.589308,3.938255,140.527563,0.005015,3.943270,1.001273,12,-1.000000,""
134,w0,python3action_linpack_5000,0.000000,1,-1.000000,1,COMPLETED_SUCCESSFULLY,140.527578,0.000010,140.527588,140.527578,140.527588,14052758.800201,12,-1.000000,""
194_updated,w0,python3action_pyaes_3000_yeti,0.997085,1,2000.000000,1,COMPLETED_SUCCESSFULLY,3.137493,142.698139,145.835632,2.140408,144.838547,1.015000,28,-1.000000,""
194,w0,python3action_pyaes_3000,0.000000,1,-1.000000,1,COMPLETED_SUCCESSFULLY,145.835647,0.000010,145.835657,145.835647,145.835657,14583565.731229,28,-1.000000,""
python3action_linpack_job25_66,w0,python3action_linpack_reduced_0.85,145.840647,1,2000.000000,1,COMPLETED_SUCCESSFULLY,145.845662,0.365992,146.211654,0.005015,0.371007,1.013702,28,-1.000000,""
4_updated,w0,python3action_pyaes_4000_gemini,108.337890,1,2000.000000,1,COMPLETED_SUCCESSFULLY,108.342905,41.546028,149.888933,0.005015,41.551043,1.000121,24,-1.000000,""
4,w0,python3action_pyaes_4000,0.000000,1,-1.000000,1,COMPLETED_SUCCESSFULLY,149.888948,0.000010,149.888958,149.888948,149.888958,14988895.820247,24,-1.000000,""
129_updated,w0,python3action_imageprocessing_SampleImage_40mb_nova,111.106943,1,2000.000000,1,COMPLETED_SUCCESSFULLY,115.233552,36.000000,151.233552,4.126609,40.126609,1.114628,7,-1.000000,""
129,w0,python3action_imageprocessing_SampleImage_40mb,0.000000,1,-1.000000,1,COMPLETED_SUCCESSFULLY,151.233567,0.000010,151.233577,151.233567,151.233577,15123357.700402,7,-1.000000,""
python3action_facedetection_job145_67,w0,python3action_facedetection_reduced_1.83,151.238567,1,2000.000000,1,COMPLETED_SUCCESSFULLY,151.243582,0.000000,151.243582,0.005015,0.005015,102646712.271670,7,-1.000000,""
14_updated,w0,python3action_imageprocessing_SampleImage_60mb_nova,140.532578,1,2000.000000,1,COMPLETED_SUCCESSFULLY,140.537593,11.809071,152.346664,0.005015,11.814086,1.000425,12,-1.000000,""
14,w0,python3action_imageprocessing_SampleImage_60mb,0.000000,1,-1.000000,1,COMPLETED_SUCCESSFULLY,152.346679,0.000010,152.346689,152.346679,152.346689,15234668.910060,12,-1.000000,""
python3action_floatoperation_job15_68,w0,python3action_floatoperation,152.351679,1,2000.000000,1,COMPLETED_SUCCESSFULLY,152.356694,0.277720,152.634414,0.005015,0.282735,1.018058,12,-1.000000,""
python3action_image_processing_job94_60,w0,python3action_image_processing,88.461899,1,2000.000000,1,COMPLETED_SUCCESSFULLY,88.466914,72.012455,160.479369,0.005015,72.017470,1.000070,10,-1.000000,""
15_updated,w0,python3action_floatoperation_200000000_nova,152.351679,1,2000.000000,1,COMPLETED_SUCCESSFULLY,152.634429,15.411546,168.045976,0.282750,15.694297,1.018347,12,-1.000000,""
15,w0,python3action_floatoperation_200000000,0.000000,1,-1.000000,1,COMPLETED_SUCCESSFULLY,168.045991,0.000010,168.046001,168.045991,168.046001,16804600.100201,12,-1.000000,""
155_updated,w0,python3action_videoprocessing_SampleVideo_30mb_nova,168.050991,1,2000.000000,1,COMPLETED_SUCCESSFULLY,168.056006,12.156226,180.212232,0.005015,12.161241,1.000413,12,-1.000000,""
155,w0,python3action_videoprocessing_SampleVideo_30mb,0.000000,1,-1.000000,1,COMPLETED_SUCCESSFULLY,180.212247,0.000010,180.212257,180.212247,180.212257,18021225.700201,12,-1.000000,""
16_updated,w0,python3action_floatoperation_100000000_nova,180.217247,1,2000.000000,1,COMPLETED_SUCCESSFULLY,180.222262,7.535042,187.757304,0.005015,7.540057,1.000666,12,-1.000000,""
16,w0,python3action_floatoperation_100000000,0.000000,1,-1.000000,1,COMPLETED_SUCCESSFULLY,187.757319,0.000010,187.757329,187.757319,187.757329,18775732.936842,12,-1.000000,""
50_updated,w0,python3action_floatoperation_200000000_gemini,149.893948,1,2000.000000,1,COMPLETED_SUCCESSFULLY,149.898963,39.647280,189.546243,0.005015,39.652295,1.000126,24,-1.000000,""
50,w0,python3action_floatoperation_200000000,0.000000,1,-1.000000,1,COMPLETED_SUCCESSFULLY,189.546258,0.000010,189.546268,189.546258,189.546268,18954626.823174,24,-1.000000,""
python3action_facedetection_job56_69,w0,python3action_facedetection_reduced_0.91,189.551258,1,2000.000000,1,COMPLETED_SUCCESSFULLY,189.556273,0.297561,189.853834,0.005015,0.302576,1.016854,24,-1.000000,""
42_updated,w0,python3action_pyaes_4000_neowise,65.879881,1,2000.000000,1,COMPLETED_SUCCESSFULLY,66.127917,128.200002,194.327919,0.248036,128.448038,1.001935,1,-1.000000,""
42,w0,python3action_pyaes_4000,0.000000,1,-1.000000,1,COMPLETED_SUCCESSFULLY,194.327934,0.000010,194.327944,194.327934,194.327944,19432794.422787,1,-1.000000,""
165_updated,w0,python3action_chameleon_2000_nova,187.762319,1,2000.000000,1,COMPLETED_SUCCESSFULLY,187.767334,8.035860,195.803194,0.005015,8.040875,1.000624,12,-1.000000,""
165,w0,python3action_chameleon_2000,0.000000,1,-1.000000,1,COMPLETED_SUCCESSFULLY,195.803209,0.000010,195.803219,195.803209,195.803219,19580321.900201,12,-1.000000,""
python3action_facedetection_job59_70,w0,python3action_facedetection,194.332934,1,2000.000000,1,COMPLETED_SUCCESSFULLY,194.337949,3.471546,197.809495,0.005015,3.476561,1.001445,1,-1.000000,""
24_updated,w0,python3action_linpack_5000_troll,129.311042,1,2000.000000,1,COMPLETED_SUCCESSFULLY,131.756017,72.976261,204.732279,2.444975,75.421237,1.033504,26,-1.000000,""
24,w0,python3action_linpack_5000,0.000000,1,-1.000000,1,COMPLETED_SUCCESSFULLY,204.732294,0.000010,204.732304,204.732294,204.732304,20473230.400201,26,-1.000000,""
python3action_chameleon_job35_71,w0,python3action_chameleon_reduced_0.85,204.737294,1,2000.000000,1,COMPLETED_SUCCESSFULLY,204.742309,0.320244,205.062553,0.005015,0.325259,1.015660,26,-1.000000,""
53_updated,w0,python3action_videoprocessing_SampleVideo_30mb_neowise,112.402077,1,2000.000000,1,COMPLETED_SUCCESSFULLY,112.407122,92.799998,205.207120,0.005045,92.805043,1.000054,0,-1.000000,""
53,w0,python3action_videoprocessing_SampleVideo_30mb,0.000000,1,-1.000000,1,COMPLETED_SUCCESSFULLY,205.207135,0.000010,205.207145,205.207135,205.207145,20520714.500201,0,-1.000000,""
python3action_chameleon_job64_72,w0,python3action_chameleon,205.212135,1,2000.000000,1,COMPLETED_SUCCESSFULLY,205.217150,0.243006,205.460156,0.005015,0.248021,1.020637,0,-1.000000,""
25_updated,w0,python3action_linpack_5000_yeti,145.840647,1,2000.000000,1,COMPLETED_SUCCESSFULLY,146.211669,76.929468,223.141137,0.371022,77.300490,1.004823,28,-1.000000,""
25,w0,python3action_linpack_5000,0.000000,1,-1.000000,1,COMPLETED_SUCCESSFULLY,223.141152,0.000010,223.141162,223.141152,223.141162,22314116.208392,28,-1.000000,""
45_updated,w0,python3action_chameleon_2000_gemini,137.412966,1,2000.000000,1,COMPLETED_SUCCESSFULLY,139.552954,85.704098,225.257052,2.139988,87.844086,1.024969,25,-1.000000,""
45,w0,python3action_chameleon_2000,0.000000,1,-1.000000,1,COMPLETED_SUCCESSFULLY,225.257067,0.000010,225.257077,225.257067,225.257077,22525707.732410,25,-1.000000,""
64_updated,w0,python3action_chameleon_2000_neowise,205.212135,1,2000.000000,1,COMPLETED_SUCCESSFULLY,205.460171,24.200002,229.660173,0.248036,24.448038,1.010249,0,-1.000000,""
64,w0,python3action_chameleon_2000,0.000000,1,-1.000000,1,COMPLETED_SUCCESSFULLY,229.660188,0.000010,229.660198,229.660188,229.660198,22966019.822787,0,-1.000000,""
94_updated,w0,python3action_imageprocessing_SampleImage_40mb_nova,88.461899,1,2000.000000,1,COMPLETED_SUCCESSFULLY,160.479384,84.999193,245.478577,72.017485,157.016678,1.847273,10,-1.000000,""
94,w0,python3action_imageprocessing_SampleImage_40mb,0.000000,1,-1.000000,1,COMPLETED_SUCCESSFULLY,245.478592,0.000010,245.478602,245.478592,245.478602,24547860.202817,10,-1.000000,""
97_updated,w0,python3action_floatoperation_200000000_nova,110.951908,1,2000.000000,1,COMPLETED_SUCCESSFULLY,113.396883,135.399990,248.796874,2.444975,137.844966,1.018057,6,-1.000000,""
97,w0,python3action_floatoperation_200000000,0.000000,1,-1.000000,1,COMPLETED_SUCCESSFULLY,248.796889,0.000010,248.796899,248.796889,248.796899,24879689.900201,6,-1.000000,""
2_updated,w0,python3action_pyaes_4000_yeti,0.997085,1,2000.000000,1,COMPLETED_SUCCESSFULLY,3.137523,252.312656,255.450179,2.140438,254.453094,1.008483,29,-1.000000,""
2,w0,python3action_pyaes_4000,0.000000,1,-1.000000,1,COMPLETED_SUCCESSFULLY,255.450194,0.000010,255.450204,255.450194,255.450204,25545020.400201,29,-1.000000,""
190_updated,w0,python3action_facedetection_SampleVideo_50mb_nova,0.997085,1,2000.000000,1,COMPLETED_SUCCESSFULLY,31.501888,230.799980,262.301868,30.504803,261.304783,1.132170,5,-1.000000,""
190,w0,python3action_facedetection_SampleVideo_50mb,0.000000,1,-1.000000,1,COMPLETED_SUCCESSFULLY,262.301883,0.000010,262.301893,262.301883,262.301893,26230189.300201,5,-1.000000,""
python3action_chameleon_job178_74,w0,python3action_chameleon,262.306883,1,2000.000000,1,COMPLETED_SUCCESSFULLY,262.311898,2.134958,264.446856,0.005015,2.139973,1.002349,5,-1.000000,""
108_updated,w0,python3action_chameleon_3000_nova,195.808209,1,2000.000000,1,COMPLETED_SUCCESSFULLY,195.813224,75.373168,271.186392,0.005015,75.378183,1.000067,12,-1.000000,""
108,w0,python3action_chameleon_3000,0.000000,1,-1.000000,1,COMPLETED_SUCCESSFULLY,271.186407,0.000010,271.186417,271.186407,271.186417,27118641.710507,12,-1.000000,""
56_updated,w0,python3action_facedetection_SampleVideo_50mb_gemini,189.551258,1,2000.000000,1,COMPLETED_SUCCESSFULLY,189.853849,86.889558,276.743407,0.302591,87.192149,1.003482,24,-1.000000,""
56,w0,python3action_facedetection_SampleVideo_50mb,0.000000,1,-1.000000,1,COMPLETED_SUCCESSFULLY,276.743422,0.000010,276.743432,276.743422,276.743432,27674343.200201,24,-1.000000,""
107_updated,w0,python3action_videoprocessing_SampleVideo_30mb_nova,271.191407,1,2000.000000,1,COMPLETED_SUCCESSFULLY,271.196422,12.156226,283.352648,0.005015,12.161241,1.000413,12,-1.000000,""
107,w0,python3action_videoprocessing_SampleVideo_30mb,0.000000,1,-1.000000,1,COMPLETED_SUCCESSFULLY,283.352663,0.000010,283.352673,283.352663,283.352673,28335267.300201,12,-1.000000,""
7_updated,w0,python3action_chameleon_3000_neowise,229.665188,1,2000.000000,1,COMPLETED_SUCCESSFULLY,229.670203,55.799998,285.470201,0.005015,55.805013,1.000090,0,-1.000000,""
7,w0,python3action_chameleon_3000,0.000000,1,-1.000000,1,COMPLETED_SUCCESSFULLY,285.470216,0.000010,285.470226,285.470216,285.470226,28547022.600201,0,-1.000000,""
python3action_modeltraining_job36_73,w0,python3action_modeltraining,255.455194,1,2000.000000,1,COMPLETED_SUCCESSFULLY,255.460209,30.499683,285.959892,0.005015,30.504698,1.000164,29,-1.000000,""
11_updated,w0,python3action_imageprocessing_SampleImage_60mb_nova,283.357663,1,2000.000000,1,COMPLETED_SUCCESSFULLY,283.362678,11.809071,295.171749,0.005015,11.814086,1.000425,12,-1.000000,""
11,w0,python3action_imageprocessing_SampleImage_60mb,0.000000,1,-1.000000,1,COMPLETED_SUCCESSFULLY,295.171764,0.000010,295.171774,295.171764,295.171774,29517177.410060,12,-1.000000,""
python3action_facedetection_job112_75,w0,python3action_facedetection_reduced_1.83,295.176764,1,2000.000000,1,COMPLETED_SUCCESSFULLY,295.181779,0.000000,295.181779,0.005015,0.005015,900253555.479592,12,-1.000000,""
67_updated,w0,python3action_chameleon_3000_gemini,276.748422,1,2000.000000,1,COMPLETED_SUCCESSFULLY,276.753437,23.342423,300.095860,0.005015,23.347438,1.000215,24,-1.000000,""
67,w0,python3action_chameleon_3000,0.000000,1,-1.000000,1,COMPLETED_SUCCESSFULLY,300.095875,0.000010,300.095885,300.095875,300.095885,30009588.533668,24,-1.000000,""
75_updated,w0,python3action_chameleon_2000_neowise,285.475216,1,2000.000000,1,COMPLETED_SUCCESSFULLY,285.480231,24.200002,309.680233,0.005015,24.205017,1.000207,0,-1.000000,""
75,w0,python3action_chameleon_2000,0.000000,1,-1.000000,1,COMPLETED_SUCCESSFULLY,309.680248,0.000010,309.680258,309.680248,309.680258,30968025.822787,0,-1.000000,""
python3action_facedetection_job80_76,w0,python3action_facedetection_reduced_2.74,309.685248,1,2000.000000,1,COMPLETED_SUCCESSFULLY,309.690263,0.000000,309.690263,0.005015,0.005015,900253555.479592,0,-1.000000,""
61_updated,w0,python3action_chameleon_2000_gemini,225.262067,1,2000.000000,1,COMPLETED_SUCCESSFULLY,225.267082,85.704098,310.971180,0.005015,85.709113,1.000059,25,-1.000000,""
61,w0,python3action_chameleon_2000,0.000000,1,-1.000000,1,COMPLETED_SUCCESSFULLY,310.971195,0.000010,310.971205,310.971195,310.971205,31097120.508442,25,-1.000000,""
python3action_floatoperation_job78_77,w0,python3action_floatoperation,310.976195,1,2000.000000,1,COMPLETED_SUCCESSFULLY,310.981210,2.439945,313.421155,0.005015,2.444960,1.002055,25,-1.000000,""
112_updated,w0,python3action_facedetection_SampleVideo_30mb_nova,295.176764,1,2000.000000,1,COMPLETED_SUCCESSFULLY,295.181809,18.257105,313.438914,0.005045,18.262150,1.000276,12,-1.000000,""
112,w0,python3action_facedetection_SampleVideo_30mb,0.000000,1,-1.000000,1,COMPLETED_SUCCESSFULLY,313.438929,0.000010,313.438939,313.438929,313.438939,31343893.921852,12,-1.000000,""
32_updated,w0,python3action_imageprocessing_SampleImage_60mb_nova,0.997085,1,2000.000000,1,COMPLETED_SUCCESSFULLY,73.014720,244.962980,317.977700,72.017635,316.980615,1.293994,9,-1.000000,""
32,w0,python3action_imageprocessing_SampleImage_60mb,0.000000,1,-1.000000,1,COMPLETED_SUCCESSFULLY,317.977715,0.000010,317.977725,317.977715,317.977725,31797772.538535,9,-1.000000,""
72_updated,w0,python3action_floatoperation_100000000_gemini,300.100875,1,2000.000000,1,COMPLETED_SUCCESSFULLY,300.105890,19.858480,319.964370,0.005015,19.863495,1.000253,24,-1.000000,""
72,w0,python3action_floatoperation_100000000,0.000000,1,-1.000000,1,COMPLETED_SUCCESSFULLY,319.964385,0.000010,319.964395,319.964385,319.964395,31996439.500201,24,-1.000000,""
python3action_modeltraining_job83_78,w0,python3action_modeltraining_reduced_1.88,319.969385,1,2000.000000,1,COMPLETED_SUCCESSFULLY,319.974400,0.000000,319.974400,0.005015,0.005015,900253555.479592,24,-1.000000,""
173_updated,w0,python3action_modeltraining_reviews100mb_nova,248.801889,1,2000.000000,1,COMPLETED_SUCCESSFULLY,248.806904,79.600010,328.406914,0.005015,79.605025,1.000063,6,-1.000000,""
173,w0,python3action_modeltraining_reviews100mb,0.000000,1,-1.000000,1,COMPLETED_SUCCESSFULLY,328.406929,0.000010,328.406939,328.406929,328.406939,32840693.900201,6,-1.000000,""
83_updated,w0,python3action_modeltraining_reviews50mb_gemini,319.969385,1,2000.000000,1,COMPLETED_SUCCESSFULLY,319.974430,12.054445,332.028875,0.005045,12.059490,1.000419,24,-1.000000,""
83,w0,python3action_modeltraining_reviews50mb,0.000000,1,-1.000000,1,COMPLETED_SUCCESSFULLY,332.028890,0.000010,332.028900,332.028890,332.028900,33202890.049027,24,-1.000000,""
python3action_video_processing_job87_79,w0,python3action_video_processing_reduced_2.8,332.033890,1,2000.000000,1,COMPLETED_SUCCESSFULLY,332.038905,0.000000,332.038905,0.005015,0.005015,900253555.479592,24,-1.000000,""
178_updated,w0,python3action_chameleon_2000_nova,262.306883,1,2000.000000,1,COMPLETED_SUCCESSFULLY,264.446871,70.600010,335.046881,2.139988,72.739998,1.030311,5,-1.000000,""
178,w0,python3action_chameleon_2000,0.000000,1,-1.000000,1,COMPLETED_SUCCESSFULLY,335.046896,0.000010,335.046906,335.046896,335.046906,33504690.601267,5,-1.000000,""
36_updated,w0,python3action_modeltraining_reviews50mb_yeti,255.455194,1,2000.000000,1,COMPLETED_SUCCESSFULLY,285.959907,53.412153,339.372060,30.504713,83.916866,1.571119,29,-1.000000,""
36,w0,python3action_modeltraining_reviews50mb,0.000000,1,-1.000000,1,COMPLETED_SUCCESSFULLY,339.372075,0.000010,339.372085,339.372075,339.372085,33937208.500201,29,-1.000000,""
59_updated,w0,python3action_facedetection_SampleVideo_30mb_neowise,194.332934,1,2000.000000,1,COMPLETED_SUCCESSFULLY,197.809510,162.200002,360.009512,3.476576,165.676578,1.021434,1,-1.000000,""
59,w0,python3action_facedetection_SampleVideo_30mb,0.000000,1,-1.000000,1,COMPLETED_SUCCESSFULLY,360.009527,0.000010,360.009537,360.009527,360.009537,36000953.722787,1,-1.000000,""
python3action_linpack_job114_80,w0,python3action_linpack_reduced_0.85,360.014527,1,2000.000000,1,COMPLETED_SUCCESSFULLY,360.019542,0.041658,360.061200,0.005015,0.046673,1.120385,1,-1.000000,""
26_updated,w0,python3action_imageprocessing_SampleImage_60mb_neowise,0.997085,1,2000.000000,1,COMPLETED_SUCCESSFULLY,31.501843,329.460753,360.962596,30.504758,359.965511,1.092590,3,-1.000000,""
26,w0,python3action_imageprocessing_SampleImage_60mb,0.000000,1,-1.000000,1,COMPLETED_SUCCESSFULLY,360.962611,0.000010,360.962621,360.962611,360.962621,36096262.100201,3,-1.000000,""
31_updated,w0,python3action_imageprocessing_SampleImage_60mb_neowise,0.997085,1,2000.000000,1,COMPLETED_SUCCESSFULLY,31.501873,329.460753,360.962626,30.504788,359.965541,1.092590,4,-1.000000,""
31,w0,python3action_imageprocessing_SampleImage_60mb,0.000000,1,-1.000000,1,COMPLETED_SUCCESSFULLY,360.972641,0.000010,360.972651,360.972641,360.972651,36097265.100402,4,-1.000000,""
python3action_floatoperation_job117_81,w0,python3action_floatoperation,360.967611,1,2000.000000,1,COMPLETED_SUCCESSFULLY,360.972626,2.439945,363.412571,0.005015,2.444960,1.002055,3,-1.000000,""
python3action_facedetection_job12_82,w0,python3action_facedetection_reduced_0.91,360.977626,1,2000.000000,1,COMPLETED_SUCCESSFULLY,360.982641,2.614259,363.596900,0.005015,2.619274,1.001918,4,-1.000000,""
87_updated,w0,python3action_videoprocessing_SampleVideo_30mb_gemini,332.033890,1,2000.000000,1,COMPLETED_SUCCESSFULLY,332.038935,32.261319,364.300254,0.005045,32.266364,1.000156,24,-1.000000,""
87,w0,python3action_videoprocessing_SampleVideo_30mb,0.000000,1,-1.000000,1,COMPLETED_SUCCESSFULLY,364.300269,0.000010,364.300279,364.300269,364.300279,36430027.942005,24,-1.000000,""
145_updated,w0,python3action_facedetection_SampleVideo_50mb_nova,151.238567,1,2000.000000,1,COMPLETED_SUCCESSFULLY,151.243612,230.799980,382.043592,0.005045,230.805025,1.000022,7,-1.000000,""
145,w0,python3action_facedetection_SampleVideo_50mb,0.000000,1,-1.000000,1,COMPLETED_SUCCESSFULLY,382.043607,0.000010,382.043617,382.043607,382.043617,38204361.747011,7,-1.000000,""
3_updated,w0,python3action_floatoperation_200000000_troll,129.321057,1,2000.000000,1,COMPLETED_SUCCESSFULLY,129.326072,256.236897,385.562969,0.005015,256.241912,1.000020,27,-1.000000,""
3,w0,python3action_floatoperation_200000000,0.000000,1,-1.000000,1,COMPLETED_SUCCESSFULLY,385.562984,0.000010,385.562994,385.562984,385.562994,38556299.438105,27,-1.000000,""
9_updated,w0,python3action_chameleon_3000_gemini,364.305269,1,2000.000000,1,COMPLETED_SUCCESSFULLY,364.310284,23.342423,387.652707,0.005015,23.347438,1.000215,24,-1.000000,""
9,w0,python3action_chameleon_3000,0.000000,1,-1.000000,1,COMPLETED_SUCCESSFULLY,387.652722,0.000010,387.652732,387.652722,387.652732,38765273.233668,24,-1.000000,""
python3action_linpack_job40_83,w0,python3action_linpack,385.567984,1,2000.000000,1,COMPLETED_SUCCESSFULLY,385.572999,2.439945,388.012944,0.005015,2.444960,1.002055,27,-1.000000,""
27_updated,w0,python3action_videoprocessing_SampleVideo_50mb_nova,0.997085,1,2000.000000,1,COMPLETED_SUCCESSFULLY,73.014690,329.608004,402.622694,72.017605,401.625609,1.218495,8,-1.000000,""
27,w0,python3action_videoprocessing_SampleVideo_50mb,0.000000,1,-1.000000,1,COMPLETED_SUCCESSFULLY,402.622709,0.000010,402.622719,402.622709,402.622719,40262271.902336,8,-1.000000,""
92_updated,w0,python3action_facedetection_SampleVideo_30mb_gemini,387.657722,1,2000.000000,1,COMPLETED_SUCCESSFULLY,387.662737,42.713151,430.375888,0.005015,42.718166,1.000117,24,-1.000000,""
92,w0,python3action_facedetection_SampleVideo_30mb,0.000000,1,-1.000000,1,COMPLETED_SUCCESSFULLY,430.375903,0.000010,430.375913,430.375903,430.375913,43037591.300201,24,-1.000000,""
35_updated,w0,python3action_chameleon_3000_troll,204.737294,1,2000.000000,1,COMPLETED_SUCCESSFULLY,205.062568,231.228154,436.290722,0.325274,231.553428,1.001407,26,-1.000000,""
35,w0,python3action_chameleon_3000,0.000000,1,-1.000000,1,COMPLETED_SUCCESSFULLY,436.290737,0.000010,436.290747,436.290737,436.290747,43629074.715827,26,-1.000000,""
95_updated,w0,python3action_chameleon_2000_gemini,430.380903,1,2000.000000,1,COMPLETED_SUCCESSFULLY,430.385918,9.755043,440.140961,0.005015,9.760058,1.000514,24,-1.000000,""
95,w0,python3action_chameleon_2000,0.000000,1,-1.000000,1,COMPLETED_SUCCESSFULLY,440.140976,0.000010,440.140986,440.140976,440.140986,44014098.600201,24,-1.000000,""
6_updated,w0,python3action_facedetection_SampleVideo_30mb_nova,0.997085,1,2000.000000,1,COMPLETED_SUCCESSFULLY,73.014780,378.718602,451.733383,72.017695,450.736298,1.190161,14,-1.000000,""
6,w0,python3action_facedetection_SampleVideo_30mb,0.000000,1,-1.000000,1,COMPLETED_SUCCESSFULLY,451.733398,0.000010,451.733408,451.733398,451.733408,45173340.800201,14,-1.000000,""
python3action_video_processing_job46_84,w0,python3action_video_processing,436.295737,1,2000.000000,1,COMPLETED_SUCCESSFULLY,436.300752,30.499683,466.800435,0.005015,30.504698,1.000164,26,-1.000000,""
114_updated,w0,python3action_linpack_6000_neowise,360.014527,1,2000.000000,1,COMPLETED_SUCCESSFULLY,360.061215,108.600001,468.661216,0.046688,108.646689,1.000430,1,-1.000000,""
114,w0,python3action_linpack_6000,0.000000,1,-1.000000,1,COMPLETED_SUCCESSFULLY,468.661231,0.000010,468.661241,468.661231,468.661241,46866124.116719,1,-1.000000,""
python3action_modeltraining_job122_85,w0,python3action_modeltraining_reduced_0.94,468.666231,1,2000.000000,1,COMPLETED_SUCCESSFULLY,468.671246,0.204209,468.875455,0.005015,0.209224,1.024558,1,-1.000000,""
30_updated,w0,python3action_pyaes_4000_yeti,223.146152,1,2000.000000,1,COMPLETED_SUCCESSFULLY,223.151167,252.312656,475.463823,0.005015,252.317671,1.000020,28,-1.000000,""
30,w0,python3action_pyaes_4000,0.000000,1,-1.000000,1,COMPLETED_SUCCESSFULLY,475.463838,0.000010,475.463848,475.463838,475.463848,47546384.800201,28,-1.000000,""
python3action_floatoperation_job47_86,w0,python3action_floatoperation,475.468838,1,2000.000000,1,COMPLETED_SUCCESSFULLY,475.473853,2.439945,477.913798,0.005015,2.444960,1.002055,28,-1.000000,""
126_updated,w0,python3action_facedetection_SampleVideo_30mb_gemini,440.145976,1,2000.000000,1,COMPLETED_SUCCESSFULLY,440.150991,42.713151,482.864142,0.005015,42.718166,1.000117,24,-1.000000,""
126,w0,python3action_facedetection_SampleVideo_30mb,0.000000,1,-1.000000,1,COMPLETED_SUCCESSFULLY,482.864157,0.000010,482.864167,482.864157,482.864167,48286416.700201,24,-1.000000,""
80_updated,w0,python3action_facedetection_SampleVideo_50mb_neowise,309.685248,1,2000.000000,1,COMPLETED_SUCCESSFULLY,309.690293,196.399999,506.090292,0.005045,196.405044,1.000026,0,-1.000000,""
80,w0,python3action_facedetection_SampleVideo_50mb,0.000000,1,-1.000000,1,COMPLETED_SUCCESSFULLY,506.090307,0.000010,506.090317,506.090307,506.090317,50609031.700201,0,-1.000000,""
122_updated,w0,python3action_modeltraining_reviews100mb_neowise,468.666231,1,2000.000000,1,COMPLETED_SUCCESSFULLY,468.875470,43.399999,512.275469,0.209239,43.609238,1.004821,1,-1.000000,""
122,w0,python3action_modeltraining_reviews100mb,0.000000,1,-1.000000,1,COMPLETED_SUCCESSFULLY,512.275484,0.000010,512.275494,512.275484,512.275494,51227549.400201,1,-1.000000,""
130_updated,w0,python3action_videoprocessing_SampleVideo_50mb_gemini,482.869157,1,2000.000000,1,COMPLETED_SUCCESSFULLY,482.874172,86.576006,569.450178,0.005015,86.581021,1.000058,24,-1.000000,""
130,w0,python3action_videoprocessing_SampleVideo_50mb,0.000000,1,-1.000000,1,COMPLETED_SUCCESSFULLY,569.450193,0.000010,569.450203,569.450193,569.450203,56945020.300201,24,-1.000000,""
20_updated,w0,python3action_floatoperation_100000000_neowise,0.997085,1,2000.000000,1,COMPLETED_SUCCESSFULLY,3.442090,567.551067,570.993158,2.445005,569.996073,1.004308,2,-1.000000,""
20,w0,python3action_floatoperation_100000000,0.000000,1,-1.000000,1,COMPLETED_SUCCESSFULLY,570.993173,0.000010,570.993183,570.993173,570.993183,57099318.300201,2,-1.000000,""
128_updated,w0,python3action_pyaes_3000_neowise,512.280484,1,2000.000000,1,COMPLETED_SUCCESSFULLY,512.285499,72.500000,584.785499,0.005015,72.505015,1.000069,1,-1.000000,""
128,w0,python3action_pyaes_3000,0.000000,1,-1.000000,1,COMPLETED_SUCCESSFULLY,584.785514,0.000010,584.785524,584.785514,584.785524,58478552.400402,1,-1.000000,""
python3action_chameleon_job139_88,w0,python3action_chameleon_reduced_1.7,584.790514,1,2000.000000,1,COMPLETED_SUCCESSFULLY,584.795529,0.000000,584.795529,0.005015,0.005015,900253555.469388,1,-1.000000,""
41_updated,w0,python3action_pyaes_4000_yeti,339.377075,1,2000.000000,1,COMPLETED_SUCCESSFULLY,339.382090,252.312656,591.694746,0.005015,252.317671,1.000020,29,-1.000000,""
41,w0,python3action_pyaes_4000,0.000000,1,-1.000000,1,COMPLETED_SUCCESSFULLY,591.694761,0.000010,591.694771,591.694761,591.694771,59169477.100201,29,-1.000000,""
python3action_video_processing_job52_89,w0,python3action_video_processing_reduced_0.97,591.699761,1,2000.000000,1,COMPLETED_SUCCESSFULLY,591.704776,0.000000,591.704776,0.005015,0.005015,3393263398.615385,29,-1.000000,""
136_updated,w0,python3action_chameleon_3000_gemini,569.455193,1,2000.000000,1,COMPLETED_SUCCESSFULLY,569.460208,23.342423,592.802631,0.005015,23.347438,1.000215,24,-1.000000,""
136,w0,python3action_chameleon_3000,0.000000,1,-1.000000,1,COMPLETED_SUCCESSFULLY,592.802646,0.000010,592.802656,592.802646,592.802656,59280265.633668,24,-1.000000,""
python3action_video_processing_job133_87,w0,python3action_video_processing,570.998173,1,2000.000000,1,COMPLETED_SUCCESSFULLY,571.003188,30.499683,601.502871,0.005015,30.504698,1.000164,2,-1.000000,""
47_updated,w0,python3action_floatoperation_100000000_yeti,475.468838,1,2000.000000,1,COMPLETED_SUCCESSFULLY,477.913813,127.551409,605.465222,2.444975,129.996384,1.019169,28,-1.000000,""
47,w0,python3action_floatoperation_100000000,0.000000,1,-1.000000,1,COMPLETED_SUCCESSFULLY,605.465237,0.000010,605.465247,605.465237,605.465247,60546524.747288,28,-1.000000,""
python3action_chameleon_job58_90,w0,python3action_chameleon_reduced_1.7,605.470237,1,2000.000000,1,COMPLETED_SUCCESSFULLY,605.475252,0.000000,605.475252,0.005015,0.005015,102587033.951163,28,-1.000000,""
139_updated,w0,python3action_chameleon_2000_neowise,584.790514,1,2000.000000,1,COMPLETED_SUCCESSFULLY,584.795559,24.200002,608.995561,0.005045,24.205047,1.000208,1,-1.000000,""
139,w0,python3action_chameleon_2000,0.000000,1,-1.000000,1,COMPLETED_SUCCESSFULLY,608.995576,0.000010,608.995586,608.995576,608.995586,60899558.623188,1,-1.000000,""
141_updated,w0,python3action_pyaes_3000_gemini,592.807646,1,2000.000000,1,COMPLETED_SUCCESSFULLY,592.812661,22.994029,615.806690,0.005015,22.999044,1.000218,24,-1.000000,""
141,w0,python3action_pyaes_3000,0.000000,1,-1.000000,1,COMPLETED_SUCCESSFULLY,615.806705,0.000010,615.806715,615.806705,615.806715,61580671.500201,24,-1.000000,""
144_updated,w0,python3action_modeltraining_reviews100mb_neowise,609.000576,1,2000.000000,1,COMPLETED_SUCCESSFULLY,609.005591,43.399999,652.405590,0.005015,43.405014,1.000116,1,-1.000000,""
144,w0,python3action_modeltraining_reviews100mb,0.000000,1,-1.000000,1,COMPLETED_SUCCESSFULLY,652.405605,0.000010,652.405615,652.405605,652.405615,65240561.500201,1,-1.000000,""
147_updated,w0,python3action_floatoperation_200000000_gemini,615.811705,1,2000.000000,1,COMPLETED_SUCCESSFULLY,615.816720,39.647280,655.464000,0.005015,39.652295,1.000126,24,-1.000000,""
147,w0,python3action_floatoperation_200000000,0.000000,1,-1.000000,1,COMPLETED_SUCCESSFULLY,655.464015,0.000010,655.464025,655.464015,655.464025,65546402.523174,24,-1.000000,""
65_updated,w0,python3action_linpack_6000_nova,0.997085,1,2000.000000,1,COMPLETED_SUCCESSFULLY,6.763267,651.660477,658.423745,5.766182,657.426660,1.008848,15,-1.000000,""
65,w0,python3action_linpack_6000,0.000000,1,-1.000000,1,COMPLETED_SUCCESSFULLY,658.423760,0.000010,658.423770,658.423760,658.423770,65842377.000201,15,-1.000000,""
78_updated,w0,python3action_floatoperation_200000000_gemini,310.976195,1,2000.000000,1,COMPLETED_SUCCESSFULLY,313.421170,348.325941,661.747112,2.444975,350.770917,1.007019,25,-1.000000,""
78,w0,python3action_floatoperation_200000000,0.000000,1,-1.000000,1,COMPLETED_SUCCESSFULLY,661.747127,0.000010,661.747137,661.747127,661.747137,66174713.700201,25,-1.000000,""
python3action_linpack_job10_91,w0,python3action_linpack_reduced_0.85,661.752127,1,2000.000000,1,COMPLETED_SUCCESSFULLY,661.757142,0.365992,662.123134,0.005015,0.371007,1.013702,25,-1.000000,""
125_updated,w0,python3action_facedetection_SampleVideo_30mb_neowise,506.095307,1,2000.000000,1,COMPLETED_SUCCESSFULLY,506.100322,162.200002,668.300324,0.005015,162.205017,1.000031,0,-1.000000,""
125,w0,python3action_facedetection_SampleVideo_30mb,0.000000,1,-1.000000,1,COMPLETED_SUCCESSFULLY,668.300339,0.000010,668.300349,668.300339,668.300349,66830034.922787,0,-1.000000,""
154_updated,w0,python3action_modeltraining_reviews50mb_neowise,668.305339,1,2000.000000,1,COMPLETED_SUCCESSFULLY,668.310354,22.799998,691.110352,0.005015,22.805013,1.000220,0,-1.000000,""
154,w0,python3action_modeltraining_reviews50mb,0.000000,1,-1.000000,1,COMPLETED_SUCCESSFULLY,691.110367,0.000010,691.110377,691.110367,691.110377,69111037.700201,0,-1.000000,""
python3action_pyaes_job159_92,w0,python3action_pyaes_reduced_0.85,691.115367,1,2000.000000,1,COMPLETED_SUCCESSFULLY,691.120382,0.036451,691.156833,0.005015,0.041466,1.137582,0,-1.000000,""
151_updated,w0,python3action_pyaes_4000_gemini,655.469015,1,2000.000000,1,COMPLETED_SUCCESSFULLY,655.474030,41.546028,697.020058,0.005015,41.551043,1.000121,24,-1.000000,""
151,w0,python3action_pyaes_4000,0.000000,1,-1.000000,1,COMPLETED_SUCCESSFULLY,697.020073,0.000010,697.020083,697.020073,697.020083,69702008.320247,24,-1.000000,""
10_updated,w0,python3action_linpack_5000_gemini,661.752127,1,2000.000000,1,COMPLETED_SUCCESSFULLY,662.123149,91.213647,753.336796,0.371022,91.584669,1.004068,25,-1.000000,""
10,w0,python3action_linpack_5000,0.000000,1,-1.000000,1,COMPLETED_SUCCESSFULLY,753.336811,0.000010,753.336821,753.336811,753.336821,75333682.124673,25,-1.000000,""
159_updated,w0,python3action_pyaes_3000_neowise,691.115367,1,2000.000000,1,COMPLETED_SUCCESSFULLY,691.156848,72.500000,763.656848,0.041481,72.541481,1.000572,0,-1.000000,""
159,w0,python3action_pyaes_3000,0.000000,1,-1.000000,1,COMPLETED_SUCCESSFULLY,763.656863,0.000010,763.656873,763.656863,763.656873,76365687.300402,0,-1.000000,""
0_updated,w0,python3action_floatoperation_200000000_neowise,652.410605,1,2000.000000,1,COMPLETED_SUCCESSFULLY,652.415620,129.200002,781.615622,0.005015,129.205017,1.000039,1,-1.000000,""
0,w0,python3action_floatoperation_200000000,0.000000,1,-1.000000,1,COMPLETED_SUCCESSFULLY,781.615637,0.000010,781.615647,781.615637,781.615647,78161564.722787,1,-1.000000,""
161_updated,w0,python3action_facedetection_SampleVideo_50mb_gemini,697.025073,1,2000.000000,1,COMPLETED_SUCCESSFULLY,697.030088,86.889558,783.919646,0.005015,86.894573,1.000058,24,-1.000000,""
161,w0,python3action_facedetection_SampleVideo_50mb,0.000000,1,-1.000000,1,COMPLETED_SUCCESSFULLY,783.919661,0.000010,783.919671,783.919661,783.919671,78391967.100201,24,-1.000000,""
58_updated,w0,python3action_chameleon_3000_yeti,605.470237,1,2000.000000,1,COMPLETED_SUCCESSFULLY,605.475282,222.417770,827.893052,0.005045,222.422815,1.000023,28,-1.000000,""
58,w0,python3action_chameleon_3000,0.000000,1,-1.000000,1,COMPLETED_SUCCESSFULLY,827.893067,0.000010,827.893077,827.893067,827.893077,82789307.700201,28,-1.000000,""
168_updated,w0,python3action_chameleon_3000_neowise,781.620637,1,2000.000000,1,COMPLETED_SUCCESSFULLY,781.625652,55.799998,837.425650,0.005015,55.805013,1.000090,1,-1.000000,""
168,w0,python3action_chameleon_3000,0.000000,1,-1.000000,1,COMPLETED_SUCCESSFULLY,837.425665,0.000010,837.425675,837.425665,837.425675,83742567.500201,1,-1.000000,""
188_updated,w0,python3action_linpack_5000_gemini,753.341811,1,2000.000000,1,COMPLETED_SUCCESSFULLY,753.346826,91.213647,844.560473,0.005015,91.218662,1.000055,25,-1.000000,""
188,w0,python3action_linpack_5000,0.000000,1,-1.000000,1,COMPLETED_SUCCESSFULLY,844.560488,0.000010,844.560498,844.560488,844.560498,84456049.824673,25,-1.000000,""
1_updated,w0,python3action_videoprocessing_SampleVideo_50mb_gemini,783.924661,1,2000.000000,1,COMPLETED_SUCCESSFULLY,783.929676,86.576006,870.505682,0.005015,86.581021,1.000058,24,-1.000000,""
1,w0,python3action_videoprocessing_SampleVideo_50mb,0.000000,1,-1.000000,1,COMPLETED_SUCCESSFULLY,870.505697,0.000010,870.505707,870.505697,870.505707,87050570.700201,24,-1.000000,""
189_updated,w0,python3action_linpack_6000_nova,245.483592,1,2000.000000,1,COMPLETED_SUCCESSFULLY,245.488607,651.660477,897.149084,0.005015,651.665492,1.000008,10,-1.000000,""
189,w0,python3action_linpack_6000,0.000000,1,-1.000000,1,COMPLETED_SUCCESSFULLY,897.149099,0.000010,897.149109,897.149099,897.149109,89714910.945760,10,-1.000000,""
175_updated,w0,python3action_facedetection_SampleVideo_30mb_gemini,870.510697,1,2000.000000,1,COMPLETED_SUCCESSFULLY,870.515712,42.713151,913.228863,0.005015,42.718166,1.000117,24,-1.000000,""
175,w0,python3action_facedetection_SampleVideo_30mb,0.000000,1,-1.000000,1,COMPLETED_SUCCESSFULLY,913.228878,0.000010,913.228888,913.228878,913.228888,91322888.800201,24,-1.000000,""
164_updated,w0,python3action_videoprocessing_SampleVideo_50mb_neowise,763.661863,1,2000.000000,1,COMPLETED_SUCCESSFULLY,763.666878,164.799998,928.466876,0.005015,164.805013,1.000030,0,-1.000000,""
164,w0,python3action_videoprocessing_SampleVideo_50mb,0.000000,1,-1.000000,1,COMPLETED_SUCCESSFULLY,928.466891,0.000010,928.466901,928.466891,928.466901,92846690.100201,0,-1.000000,""
170_updated,w0,python3action_linpack_6000_neowise,837.430665,1,2000.000000,1,COMPLETED_SUCCESSFULLY,837.435680,108.600001,946.035681,0.005015,108.605016,1.000046,1,-1.000000,""
170,w0,python3action_linpack_6000,0.000000,1,-1.000000,1,COMPLETED_SUCCESSFULLY,946.035696,0.000010,946.035706,946.035696,946.035706,94603570.611594,1,-1.000000,""
python3action_image_processing_job177_93,w0,python3action_image_processing_reduced_1.73,946.040696,1,2000.000000,1,COMPLETED_SUCCESSFULLY,946.045711,0.000000,946.045711,0.005015,0.005015,900253555.469388,1,-1.000000,""
171_updated,w0,python3action_modeltraining_reviews50mb_gemini,844.565488,1,2000.000000,1,COMPLETED_SUCCESSFULLY,844.570503,105.905778,950.476281,0.005015,105.910793,1.000047,25,-1.000000,""
171,w0,python3action_modeltraining_reviews50mb,0.000000,1,-1.000000,1,COMPLETED_SUCCESSFULLY,950.476296,0.000010,950.476306,950.476296,950.476306,95047630.634622,25,-1.000000,""
103_updated,w0,python3action_chameleon_2000_neowise,928.471891,1,2000.000000,1,COMPLETED_SUCCESSFULLY,928.476906,24.200002,952.676908,0.005015,24.205017,1.000207,0,-1.000000,""
103,w0,python3action_chameleon_2000,0.000000,1,-1.000000,1,COMPLETED_SUCCESSFULLY,952.676923,0.000010,952.676933,952.676923,952.676933,95267693.322787,0,-1.000000,""
python3action_floatoperation_job180_94,w0,python3action_floatoperation,952.681923,1,2000.000000,1,COMPLETED_SUCCESSFULLY,952.686938,0.277720,952.964658,0.005015,0.282735,1.018058,0,-1.000000,""
105_updated,w0,python3action_pyaes_4000_gemini,913.233878,1,2000.000000,1,COMPLETED_SUCCESSFULLY,913.238893,41.546028,954.784921,0.005015,41.551043,1.000121,24,-1.000000,""
105,w0,python3action_pyaes_4000,0.000000,1,-1.000000,1,COMPLETED_SUCCESSFULLY,954.784936,0.000010,954.784946,954.784936,954.784946,95478494.620247,24,-1.000000,""
63_updated,w0,python3action_floatoperation_100000000_yeti,827.898067,1,2000.000000,1,COMPLETED_SUCCESSFULLY,827.903082,127.551409,955.454491,0.005015,127.556424,1.000039,28,-1.000000,""
63,w0,python3action_floatoperation_100000000,0.000000,1,-1.000000,1,COMPLETED_SUCCESSFULLY,955.454506,0.000010,955.454516,955.454506,955.454516,95545451.617707,28,-1.000000,""
177_updated,w0,python3action_imageprocessing_SampleImage_40mb_neowise,946.040696,1,2000.000000,1,COMPLETED_SUCCESSFULLY,946.045741,20.909089,966.954830,0.005045,20.914134,1.000241,1,-1.000000,""
177,w0,python3action_imageprocessing_SampleImage_40mb,0.000000,1,-1.000000,1,COMPLETED_SUCCESSFULLY,966.954845,0.000010,966.954855,966.954845,966.954855,96695485.500201,1,-1.000000,""
184_updated,w0,python3action_imageprocessing_SampleImage_40mb_neowise,966.959845,1,2000.000000,1,COMPLETED_SUCCESSFULLY,966.964860,20.909089,987.873949,0.005015,20.914104,1.000240,1,-1.000000,""
184,w0,python3action_imageprocessing_SampleImage_40mb,0.000000,1,-1.000000,1,COMPLETED_SUCCESSFULLY,987.873964,0.000010,987.873974,987.873964,987.873974,98787397.400201,1,-1.000000,""
40_updated,w0,python3action_linpack_6000_troll,385.567984,1,2000.000000,1,COMPLETED_SUCCESSFULLY,388.012959,620.708201,1008.721160,2.444975,623.153176,1.003939,27,-1.000000,""
40,w0,python3action_linpack_6000,0.000000,1,-1.000000,1,COMPLETED_SUCCESSFULLY,1008.721175,0.000010,1008.721185,1008.721175,1008.721185,100872118.534510,27,-1.000000,""
111_updated,w0,python3action_modeltraining_reviews100mb_neowise,987.878964,1,2000.000000,1,COMPLETED_SUCCESSFULLY,987.883979,43.399999,1031.283978,0.005015,43.405014,1.000116,1,-1.000000,""
111,w0,python3action_modeltraining_reviews100mb,0.000000,1,-1.000000,1,COMPLETED_SUCCESSFULLY,1031.283993,0.000010,1031.284003,1031.283993,1031.284003,103128400.300201,1,-1.000000,""
182_updated,w0,python3action_chameleon_2000_gemini,950.481296,1,2000.000000,1,COMPLETED_SUCCESSFULLY,950.486311,85.704098,1036.190409,0.005015,85.709113,1.000059,25,-1.000000,""
182,w0,python3action_chameleon_2000,0.000000,1,-1.000000,1,COMPLETED_SUCCESSFULLY,1036.190424,0.000010,1036.190434,1036.190424,1036.190434,103619043.408441,25,-1.000000,""
110_updated,w0,python3action_videoprocessing_SampleVideo_50mb_gemini,954.789936,1,2000.000000,1,COMPLETED_SUCCESSFULLY,954.794951,86.576006,1041.370957,0.005015,86.581021,1.000058,24,-1.000000,""
110,w0,python3action_videoprocessing_SampleVideo_50mb,0.000000,1,-1.000000,1,COMPLETED_SUCCESSFULLY,1041.370972,0.000010,1041.370982,1041.370972,1041.370982,104137098.200201,24,-1.000000,""
51_updated,w0,python3action_linpack_5000_troll,1008.726175,1,2000.000000,1,COMPLETED_SUCCESSFULLY,1008.731190,72.976261,1081.707451,0.005015,72.981276,1.000069,27,-1.000000,""
51,w0,python3action_linpack_5000,0.000000,1,-1.000000,1,COMPLETED_SUCCESSFULLY,1081.707466,0.000010,1081.707476,1081.707466,1081.707476,108170747.642149,27,-1.000000,""
180_updated,w0,python3action_floatoperation_200000000_neowise,952.681923,1,2000.000000,1,COMPLETED_SUCCESSFULLY,952.964673,129.200002,1082.164676,0.282750,129.482753,1.002188,0,-1.000000,""
180,w0,python3action_floatoperation_200000000,0.000000,1,-1.000000,1,COMPLETED_SUCCESSFULLY,1082.164691,0.000010,1082.164701,1082.164691,1082.164701,108216470.100201,0,-1.000000,""
52_updated,w0,python3action_videoprocessing_SampleVideo_30mb_yeti,591.699761,1,2000.000000,1,COMPLETED_SUCCESSFULLY,591.704806,493.464514,1085.169320,0.005045,493.469559,1.000010,29,-1.000000,""
52,w0,python3action_videoprocessing_SampleVideo_30mb,0.000000,1,-1.000000,1,COMPLETED_SUCCESSFULLY,1085.169335,0.000010,1085.169345,1085.169335,1085.169345,108516934.524629,29,-1.000000,""
python3action_chameleon_job74_96,w0,python3action_chameleon_reduced_0.85,1085.174335,1,2000.000000,1,COMPLETED_SUCCESSFULLY,1085.179350,0.320244,1085.499594,0.005015,0.325259,1.015660,29,-1.000000,""
python3action_modeltraining_job57_95,w0,python3action_modeltraining,1081.712466,1,2000.000000,1,COMPLETED_SUCCESSFULLY,1081.717481,30.499683,1112.217164,0.005015,30.504698,1.000164,27,-1.000000,""
74_updated,w0,python3action_chameleon_2000_yeti,1085.174335,1,2000.000000,1,COMPLETED_SUCCESSFULLY,1085.499609,79.321057,1164.820666,0.325274,79.646331,1.004101,29,-1.000000,""
74,w0,python3action_chameleon_2000,0.000000,1,-1.000000,1,COMPLETED_SUCCESSFULLY,1164.820681,0.000010,1164.820691,1164.820681,1164.820691,116482069.100592,29,-1.000000,""
46_updated,w0,python3action_videoprocessing_SampleVideo_50mb_troll,436.295737,1,2000.000000,1,COMPLETED_SUCCESSFULLY,466.800450,704.015923,1170.816373,30.504713,734.520636,1.043330,26,-1.000000,""
46,w0,python3action_videoprocessing_SampleVideo_50mb,0.000000,1,-1.000000,1,COMPLETED_SUCCESSFULLY,1170.816388,0.000010,1170.816398,1170.816388,1170.816398,117081639.841533,26,-1.000000,""
69_updated,w0,python3action_pyaes_4000_yeti,955.459506,1,2000.000000,1,COMPLETED_SUCCESSFULLY,955.464521,252.312656,1207.777177,0.005015,252.317671,1.000020,28,-1.000000,""
69,w0,python3action_pyaes_4000,0.000000,1,-1.000000,1,COMPLETED_SUCCESSFULLY,1207.777192,0.000010,1207.777202,1207.777192,1207.777202,120777720.200201,28,-1.000000,""
62_updated,w0,python3action_linpack_5000_troll,1170.821388,1,2000.000000,1,COMPLETED_SUCCESSFULLY,1170.826403,72.976261,1243.802664,0.005015,72.981276,1.000069,26,-1.000000,""
62,w0,python3action_linpack_5000,0.000000,1,-1.000000,1,COMPLETED_SUCCESSFULLY,1243.802679,0.000010,1243.802689,1243.802679,1243.802689,124380268.942149,26,-1.000000,""
57_updated,w0,python3action_modeltraining_reviews100mb_troll,1081.712466,1,2000.000000,1,COMPLETED_SUCCESSFULLY,1112.217179,143.902652,1256.119831,30.504713,174.407365,1.211982,27,-1.000000,""
57,w0,python3action_modeltraining_reviews100mb,0.000000,1,-1.000000,1,COMPLETED_SUCCESSFULLY,1256.119846,0.000010,1256.119856,1256.119846,1256.119856,125611985.627774,27,-1.000000,""
8_updated,w0,python3action_pyaes_3000_yeti,1164.825681,1,2000.000000,1,COMPLETED_SUCCESSFULLY,1164.830696,142.698139,1307.528835,0.005015,142.703154,1.000035,29,-1.000000,""
8,w0,python3action_pyaes_3000,0.000000,1,-1.000000,1,COMPLETED_SUCCESSFULLY,1307.528850,0.000010,1307.528860,1307.528850,1307.528860,130752886.001637,29,-1.000000,""
85_updated,w0,python3action_pyaes_3000_yeti,1207.782192,1,2000.000000,1,COMPLETED_SUCCESSFULLY,1207.787207,142.698139,1350.485346,0.005015,142.703154,1.000035,28,-1.000000,""
85,w0,python3action_pyaes_3000,0.000000,1,-1.000000,1,COMPLETED_SUCCESSFULLY,1350.485361,0.000010,1350.485371,1350.485361,1350.485371,135048537.101637,28,-1.000000,""
python3action_image_processing_job90_97,w0,python3action_image_processing,1350.490361,1,2000.000000,1,COMPLETED_SUCCESSFULLY,1350.495376,30.499683,1380.995059,0.005015,30.504698,1.000164,28,-1.000000,""
73_updated,w0,python3action_modeltraining_reviews100mb_troll,1256.124846,1,2000.000000,1,COMPLETED_SUCCESSFULLY,1256.129861,143.902652,1400.032513,0.005015,143.907667,1.000035,27,-1.000000,""
73,w0,python3action_modeltraining_reviews100mb,0.000000,1,-1.000000,1,COMPLETED_SUCCESSFULLY,1400.032528,0.000010,1400.032538,1400.032528,1400.032538,140003253.827774,27,-1.000000,""
python3action_pyaes_job79_98,w0,python3action_pyaes_reduced_0.85,1400.037528,1,2000.000000,1,COMPLETED_SUCCESSFULLY,1400.042543,0.320244,1400.362787,0.005015,0.325259,1.015660,27,-1.000000,""
68_updated,w0,python3action_videoprocessing_SampleVideo_30mb_troll,1243.807679,1,2000.000000,1,COMPLETED_SUCCESSFULLY,1243.812694,200.069750,1443.882444,0.005015,200.074765,1.000025,26,-1.000000,""
68,w0,python3action_videoprocessing_SampleVideo_30mb,0.000000,1,-1.000000,1,COMPLETED_SUCCESSFULLY,1443.882459,0.000010,1443.882469,1443.882459,1443.882469,144388246.940699,26,-1.000000,""
117_updated,w0,python3action_floatoperation_200000000_neowise,360.967611,1,2000.000000,1,COMPLETED_SUCCESSFULLY,363.412586,1135.102135,1498.514721,2.444975,1137.547110,1.002154,3,-1.000000,""
117,w0,python3action_floatoperation_200000000,0.000000,1,-1.000000,1,COMPLETED_SUCCESSFULLY,1498.514736,0.000010,1498.514746,1498.514736,1498.514746,149851474.600201,3,-1.000000,""
90_updated,w0,python3action_imageprocessing_SampleImage_60mb_yeti,1350.490361,1,2000.000000,1,COMPLETED_SUCCESSFULLY,1380.995074,170.201436,1551.196510,30.504713,200.706149,1.179227,28,-1.000000,""
90,w0,python3action_imageprocessing_SampleImage_60mb,0.000000,1,-1.000000,1,COMPLETED_SUCCESSFULLY,1551.196525,0.000010,1551.196535,1551.196525,1551.196535,155119653.504172,28,-1.000000,""
43_updated,w0,python3action_chameleon_3000_nova,0.997085,1,2000.000000,1,COMPLETED_SUCCESSFULLY,6.043106,1563.512974,1569.556080,5.046021,1568.558995,1.003227,11,-1.000000,""
43,w0,python3action_chameleon_3000,0.000000,1,-1.000000,1,COMPLETED_SUCCESSFULLY,1569.556095,0.000010,1569.556105,1569.556095,1569.556105,156955610.528610,11,-1.000000,""
54_updated,w0,python3action_chameleon_3000_nova,0.997085,1,2000.000000,1,COMPLETED_SUCCESSFULLY,6.043136,1563.512974,1569.556110,5.046051,1568.559025,1.003227,13,-1.000000,""
54,w0,python3action_chameleon_3000,0.000000,1,-1.000000,1,COMPLETED_SUCCESSFULLY,1569.566110,0.000010,1569.566120,1569.566110,1569.566120,156956612.000201,13,-1.000000,""
79_updated,w0,python3action_pyaes_4000_troll,1400.037528,1,2000.000000,1,COMPLETED_SUCCESSFULLY,1400.362802,251.727104,1652.089906,0.325274,252.052378,1.001292,27,-1.000000,""
79,w0,python3action_pyaes_4000,0.000000,1,-1.000000,1,COMPLETED_SUCCESSFULLY,1652.089921,0.000010,1652.089931,1652.089921,1652.089931,165208993.100201,27,-1.000000,""
python3action_video_processing_job116_99,w0,python3action_video_processing_reduced_0.97,1652.094921,1,2000.000000,1,COMPLETED_SUCCESSFULLY,1652.099936,0.000000,1652.099936,0.005015,0.005015,3676035348.500000,27,-1.000000,""
93_updated,w0,python3action_pyaes_3000_yeti,1551.201525,1,2000.000000,1,COMPLETED_SUCCESSFULLY,1551.206540,142.698139,1693.904679,0.005015,142.703154,1.000035,28,-1.000000,""
93,w0,python3action_pyaes_3000,0.000000,1,-1.000000,1,COMPLETED_SUCCESSFULLY,1693.904694,0.000010,1693.904704,1693.904694,1693.904704,169390470.401637,28,-1.000000,""
python3action_video_processing_job96_100,w0,python3action_video_processing_reduced_0.91,1693.909694,1,2000.000000,1,COMPLETED_SUCCESSFULLY,1693.914709,2.614259,1696.528968,0.005015,2.619274,1.001918,28,-1.000000,""
12_updated,w0,python3action_facedetection_SampleVideo_30mb_neowise,360.977626,1,2000.000000,1,COMPLETED_SUCCESSFULLY,363.596915,1425.027597,1788.624512,2.619289,1427.646886,1.001838,4,-1.000000,""
12,w0,python3action_facedetection_SampleVideo_30mb,0.000000,1,-1.000000,1,COMPLETED_SUCCESSFULLY,1788.624527,0.000010,1788.624537,1788.624527,1788.624537,178862453.732731,4,-1.000000,""
88_updated,w0,python3action_videoprocessing_SampleVideo_30mb_yeti,1307.533850,1,2000.000000,1,COMPLETED_SUCCESSFULLY,1307.538865,493.464514,1801.003379,0.005015,493.469529,1.000010,29,-1.000000,""
88,w0,python3action_videoprocessing_SampleVideo_30mb,0.000000,1,-1.000000,1,COMPLETED_SUCCESSFULLY,1801.003394,0.000010,1801.003404,1801.003394,1801.003404,180100340.424228,29,-1.000000,""
python3action_image_processing_job127_101,w0,python3action_image_processing_reduced_1.73,1801.008394,1,2000.000000,1,COMPLETED_SUCCESSFULLY,1801.013409,0.000000,1801.013409,0.005015,0.005015,102587033.953488,29,-1.000000,""
116_updated,w0,python3action_videoprocessing_SampleVideo_30mb_troll,1652.094921,1,2000.000000,1,COMPLETED_SUCCESSFULLY,1652.099966,200.069750,1852.169716,0.005045,200.074795,1.000025,27,-1.000000,""
116,w0,python3action_videoprocessing_SampleVideo_30mb,0.000000,1,-1.000000,1,COMPLETED_SUCCESSFULLY,1852.169731,0.000010,1852.169741,1852.169731,1852.169741,185216974.141100,27,-1.000000,""
127_updated,w0,python3action_imageprocessing_SampleImage_40mb_yeti,1801.008394,1,2000.000000,1,COMPLETED_SUCCESSFULLY,1801.013439,86.495824,1887.509263,0.005045,86.500869,1.000058,29,-1.000000,""
127,w0,python3action_imageprocessing_SampleImage_40mb,0.000000,1,-1.000000,1,COMPLETED_SUCCESSFULLY,1887.509278,0.000010,1887.509288,1887.509278,1887.509288,188750928.800201,29,-1.000000,""
python3action_linpack_job132_102,w0,python3action_linpack_reduced_1.7,1887.514278,1,2000.000000,1,COMPLETED_SUCCESSFULLY,1887.519293,0.000000,1887.519293,0.005015,0.005015,102587033.948837,29,-1.000000,""
133_updated,w0,python3action_videoprocessing_SampleVideo_50mb_neowise,570.998173,1,2000.000000,1,COMPLETED_SUCCESSFULLY,601.502886,1447.870170,2049.373056,30.504713,1478.374883,1.021069,2,-1.000000,""
133,w0,python3action_videoprocessing_SampleVideo_50mb,0.000000,1,-1.000000,1,COMPLETED_SUCCESSFULLY,2049.373071,0.000010,2049.373081,2049.373071,2049.373081,204937308.147243,2,-1.000000,""
84_updated,w0,python3action_videoprocessing_SampleVideo_50mb_troll,1443.887459,1,2000.000000,1,COMPLETED_SUCCESSFULLY,1443.892474,704.015923,2147.908397,0.005015,704.020938,1.000007,26,-1.000000,""
84,w0,python3action_videoprocessing_SampleVideo_50mb,0.000000,1,-1.000000,1,COMPLETED_SUCCESSFULLY,2147.908412,0.000010,2147.908422,2147.908412,2147.908422,214790842.241534,26,-1.000000,""
96_updated,w0,python3action_videoprocessing_SampleVideo_30mb_yeti,1693.909694,1,2000.000000,1,COMPLETED_SUCCESSFULLY,1696.528983,493.464514,2189.993497,2.619289,496.083803,1.005308,28,-1.000000,""
96,w0,python3action_videoprocessing_SampleVideo_30mb,0.000000,1,-1.000000,1,COMPLETED_SUCCESSFULLY,2189.993512,0.000010,2189.993522,2189.993512,2189.993522,218999352.224228,28,-1.000000,""
132_updated,w0,python3action_linpack_6000_yeti,1887.514278,1,2000.000000,1,COMPLETED_SUCCESSFULLY,1887.519323,511.002833,2398.522156,0.005045,511.007878,1.000010,29,-1.000000,""
132,w0,python3action_linpack_6000,0.000000,1,-1.000000,1,COMPLETED_SUCCESSFULLY,2398.522171,0.000010,2398.522181,2398.522171,2398.522181,239852218.100759,29,-1.000000,""
138_updated,w0,python3action_pyaes_4000_yeti,2189.998512,1,2000.000000,1,COMPLETED_SUCCESSFULLY,2190.003527,252.312656,2442.316183,0.005015,252.317671,1.000020,28,-1.000000,""
138,w0,python3action_pyaes_4000,0.000000,1,-1.000000,1,COMPLETED_SUCCESSFULLY,2442.316198,0.000010,2442.316208,2442.316198,2442.316208,244231620.800201,28,-1.000000,""
python3action_modeltraining_job149_103,w0,python3action_modeltraining_reduced_1.94,2442.321198,1,2000.000000,1,COMPLETED_SUCCESSFULLY,2442.326213,0.000000,2442.326213,0.005015,0.005015,103066412.616822,28,-1.000000,""
149_updated,w0,python3action_modeltraining_reviews50mb_yeti,2442.321198,1,2000.000000,1,COMPLETED_SUCCESSFULLY,2442.326243,53.412153,2495.738396,0.005045,53.417198,1.000094,28,-1.000000,""
149,w0,python3action_modeltraining_reviews50mb,0.000000,1,-1.000000,1,COMPLETED_SUCCESSFULLY,2495.738411,0.000010,2495.738421,2495.738411,2495.738421,249573842.100201,28,-1.000000,""
119_updated,w0,python3action_videoprocessing_SampleVideo_50mb_troll,1852.174731,1,2000.000000,1,COMPLETED_SUCCESSFULLY,1852.179746,704.015923,2556.195669,0.005015,704.020938,1.000007,27,-1.000000,""
119,w0,python3action_videoprocessing_SampleVideo_50mb,0.000000,1,-1.000000,1,COMPLETED_SUCCESSFULLY,2556.195684,0.000010,2556.195694,2556.195684,2556.195694,255619569.441534,27,-1.000000,""
124_updated,w0,python3action_videoprocessing_SampleVideo_30mb_troll,2556.200684,1,2000.000000,1,COMPLETED_SUCCESSFULLY,2556.205699,200.069750,2756.275449,0.005015,200.074765,1.000025,27,-1.000000,""
124,w0,python3action_videoprocessing_SampleVideo_30mb,0.000000,1,-1.000000,1,COMPLETED_SUCCESSFULLY,2756.275464,0.000010,2756.275474,2756.275464,2756.275474,275627547.440699,27,-1.000000,""
121_updated,w0,python3action_linpack_6000_troll,2147.913412,1,2000.000000,1,COMPLETED_SUCCESSFULLY,2147.918427,620.708201,2768.626628,0.005015,620.713216,1.000008,26,-1.000000,""
121,w0,python3action_linpack_6000,0.000000,1,-1.000000,1,COMPLETED_SUCCESSFULLY,2768.626643,0.000010,2768.626653,2768.626643,2768.626653,276862665.304930,26,-1.000000,""
python3action_pyaes_job131_104,w0,python3action_pyaes_reduced_1.7,2768.631643,1,2000.000000,1,COMPLETED_SUCCESSFULLY,2768.636658,0.000000,2768.636658,0.005015,0.005015,103066412.616822,26,-1.000000,""
143_updated,w0,python3action_videoprocessing_SampleVideo_30mb_yeti,2398.527171,1,2000.000000,1,COMPLETED_SUCCESSFULLY,2398.532186,493.464514,2891.996700,0.005015,493.469529,1.000010,29,-1.000000,""
143,w0,python3action_videoprocessing_SampleVideo_30mb,0.000000,1,-1.000000,1,COMPLETED_SUCCESSFULLY,2891.996715,0.000010,2891.996725,2891.996715,2891.996725,289199672.524229,29,-1.000000,""
158_updated,w0,python3action_linpack_5000_yeti,2892.001715,1,2000.000000,1,COMPLETED_SUCCESSFULLY,2892.006730,76.929468,2968.936198,0.005015,76.934483,1.000065,29,-1.000000,""
158,w0,python3action_linpack_5000,0.000000,1,-1.000000,1,COMPLETED_SUCCESSFULLY,2968.936213,0.000010,2968.936223,2968.936213,2968.936223,296893622.308393,29,-1.000000,""
153_updated,w0,python3action_linpack_6000_yeti,2495.743411,1,2000.000000,1,COMPLETED_SUCCESSFULLY,2495.748426,511.002833,3006.751259,0.005015,511.007848,1.000010,28,-1.000000,""
153,w0,python3action_linpack_6000,0.000000,1,-1.000000,1,COMPLETED_SUCCESSFULLY,3006.751274,0.000010,3006.751284,3006.751274,3006.751284,300675128.400358,28,-1.000000,""
131_updated,w0,python3action_pyaes_4000_troll,2768.631643,1,2000.000000,1,COMPLETED_SUCCESSFULLY,2768.636688,251.727104,3020.363792,0.005045,251.732149,1.000020,26,-1.000000,""
131,w0,python3action_pyaes_4000,0.000000,1,-1.000000,1,COMPLETED_SUCCESSFULLY,3020.363807,0.000010,3020.363817,3020.363807,3020.363817,302036381.700201,26,-1.000000,""
python3action_image_processing_job137_105,w0,python3action_image_processing_reduced_0.86,3020.368807,1,2000.000000,1,COMPLETED_SUCCESSFULLY,3020.373822,4.121579,3024.495401,0.005015,4.126594,1.001217,26,-1.000000,""
163_updated,w0,python3action_modeltraining_reviews100mb_yeti,2968.941213,1,2000.000000,1,COMPLETED_SUCCESSFULLY,2968.946228,129.145802,3098.092030,0.005015,129.150817,1.000039,29,-1.000000,""
163,w0,python3action_modeltraining_reviews100mb,0.000000,1,-1.000000,1,COMPLETED_SUCCESSFULLY,3098.092045,0.000010,3098.092055,3098.092045,3098.092055,309809205.500201,29,-1.000000,""
python3action_floatoperation_job100_106,w0,python3action_floatoperation,3098.097045,1,2000.000000,1,COMPLETED_SUCCESSFULLY,3098.102060,2.439945,3100.542005,0.005015,2.444960,1.002055,29,-1.000000,""
137_updated,w0,python3action_imageprocessing_SampleImage_40mb_troll,3020.368807,1,2000.000000,1,COMPLETED_SUCCESSFULLY,3024.495416,78.306013,3102.801429,4.126609,82.432622,1.052698,26,-1.000000,""
137,w0,python3action_imageprocessing_SampleImage_40mb,0.000000,1,-1.000000,1,COMPLETED_SUCCESSFULLY,3102.801444,0.000010,3102.801454,3102.801444,3102.801454,310280145.400201,26,-1.000000,""
167_updated,w0,python3action_pyaes_3000_yeti,3006.756274,1,2000.000000,1,COMPLETED_SUCCESSFULLY,3006.761289,142.698139,3149.459428,0.005015,142.703154,1.000035,28,-1.000000,""
167,w0,python3action_pyaes_3000,0.000000,1,-1.000000,1,COMPLETED_SUCCESSFULLY,3149.459443,0.000010,3149.459453,3149.459443,3149.459453,314945945.301638,28,-1.000000,""
172_updated,w0,python3action_modeltraining_reviews100mb_yeti,3149.464443,1,2000.000000,1,COMPLETED_SUCCESSFULLY,3149.469458,129.145802,3278.615260,0.005015,129.150817,1.000039,28,-1.000000,""
172,w0,python3action_modeltraining_reviews100mb,0.000000,1,-1.000000,1,COMPLETED_SUCCESSFULLY,3278.615275,0.000010,3278.615285,3278.615275,3278.615285,327861528.500201,28,-1.000000,""
142_updated,w0,python3action_videoprocessing_SampleVideo_30mb_troll,3102.806444,1,2000.000000,1,COMPLETED_SUCCESSFULLY,3102.811459,200.069750,3302.881209,0.005015,200.074765,1.000025,26,-1.000000,""
142,w0,python3action_videoprocessing_SampleVideo_30mb,0.000000,1,-1.000000,1,COMPLETED_SUCCESSFULLY,3302.881224,0.000010,3302.881234,3302.881224,3302.881234,330288123.440699,26,-1.000000,""
100_updated,w0,python3action_floatoperation_200000000_yeti,3098.097045,1,2000.000000,1,COMPLETED_SUCCESSFULLY,3100.542020,253.508426,3354.050446,2.444975,255.953401,1.009645,29,-1.000000,""
100,w0,python3action_floatoperation_200000000,0.000000,1,-1.000000,1,COMPLETED_SUCCESSFULLY,3354.050461,0.000010,3354.050471,3354.050461,3354.050471,335405047.103128,29,-1.000000,""
99_updated,w0,python3action_linpack_6000_troll,2756.280464,1,2000.000000,1,COMPLETED_SUCCESSFULLY,2756.285479,620.708201,3376.993680,0.005015,620.713216,1.000008,27,-1.000000,""
99,w0,python3action_linpack_6000,0.000000,1,-1.000000,1,COMPLETED_SUCCESSFULLY,3376.993695,0.000010,3376.993705,3376.993695,3376.993705,337699370.504931,27,-1.000000,""
152_updated,w0,python3action_modeltraining_reviews50mb_troll,3376.998695,1,2000.000000,1,COMPLETED_SUCCESSFULLY,3377.003710,69.696429,3446.700139,0.005015,69.701444,1.000072,27,-1.000000,""
152,w0,python3action_modeltraining_reviews50mb,0.000000,1,-1.000000,1,COMPLETED_SUCCESSFULLY,3446.700154,0.000010,3446.700164,3446.700154,3446.700164,344670016.444767,27,-1.000000,""
106_updated,w0,python3action_modeltraining_reviews100mb_yeti,3354.055461,1,2000.000000,1,COMPLETED_SUCCESSFULLY,3354.060476,129.145802,3483.206278,0.005015,129.150817,1.000039,29,-1.000000,""
106,w0,python3action_modeltraining_reviews100mb,0.000000,1,-1.000000,1,COMPLETED_SUCCESSFULLY,3483.206293,0.000010,3483.206303,3483.206293,3483.206303,348320630.300201,29,-1.000000,""
148_updated,w0,python3action_floatoperation_200000000_troll,3302.886224,1,2000.000000,1,COMPLETED_SUCCESSFULLY,3302.891239,256.236897,3559.128136,0.005015,256.241912,1.000020,26,-1.000000,""
148,w0,python3action_floatoperation_200000000,0.000000,1,-1.000000,1,COMPLETED_SUCCESSFULLY,3559.128151,0.000010,3559.128161,3559.128151,3559.128161,355912816.138105,26,-1.000000,""
109_updated,w0,python3action_imageprocessing_SampleImage_40mb_yeti,3483.211293,1,2000.000000,1,COMPLETED_SUCCESSFULLY,3483.216308,86.495824,3569.712132,0.005015,86.500839,1.000058,29,-1.000000,""
109,w0,python3action_imageprocessing_SampleImage_40mb,0.000000,1,-1.000000,1,COMPLETED_SUCCESSFULLY,3569.712147,0.000010,3569.712157,3569.712147,3569.712157,356971215.700201,29,-1.000000,""
157_updated,w0,python3action_floatoperation_100000000_troll,3446.705154,1,2000.000000,1,COMPLETED_SUCCESSFULLY,3446.710169,125.863576,3572.573745,0.005015,125.868591,1.000040,27,-1.000000,""
157,w0,python3action_floatoperation_100000000,0.000000,1,-1.000000,1,COMPLETED_SUCCESSFULLY,3572.573760,0.000010,3572.573770,3572.573760,3572.573770,357257377.042174,27,-1.000000,""
python3action_chameleon_job113_107,w0,python3action_chameleon_reduced_1.7,3572.578760,1,2000.000000,1,COMPLETED_SUCCESSFULLY,3572.583775,0.000000,3572.583775,0.005015,0.005015,103066412.616822,27,-1.000000,""
176_updated,w0,python3action_linpack_6000_yeti,3278.620275,1,2000.000000,1,COMPLETED_SUCCESSFULLY,3278.625290,511.002833,3789.628123,0.005015,511.007848,1.000010,28,-1.000000,""
176,w0,python3action_linpack_6000,0.000000,1,-1.000000,1,COMPLETED_SUCCESSFULLY,3789.628138,0.000010,3789.628148,3789.628138,3789.628148,378962814.800358,28,-1.000000,""
162_updated,w0,python3action_chameleon_3000_troll,3559.133151,1,2000.000000,1,COMPLETED_SUCCESSFULLY,3559.138166,231.228154,3790.366320,0.005015,231.233169,1.000022,26,-1.000000,""
162,w0,python3action_chameleon_3000,0.000000,1,-1.000000,1,COMPLETED_SUCCESSFULLY,3790.366335,0.000010,3790.366345,3790.366335,3790.366345,379036634.515827,26,-1.000000,""
113_updated,w0,python3action_chameleon_3000_troll,3572.578760,1,2000.000000,1,COMPLETED_SUCCESSFULLY,3572.583805,231.228154,3803.811959,0.005045,231.233199,1.000022,27,-1.000000,""
113,w0,python3action_chameleon_3000,0.000000,1,-1.000000,1,COMPLETED_SUCCESSFULLY,3803.811974,0.000010,3803.811984,3803.811974,3803.811984,380381198.416229,27,-1.000000,""
python3action_facedetection_job102_108,w0,python3action_facedetection_reduced_1.83,3803.816974,1,2000.000000,1,COMPLETED_SUCCESSFULLY,3803.821989,0.000000,3803.821989,0.005015,0.005015,103066412.616822,27,-1.000000,""
17_updated,w0,python3action_floatoperation_100000000_troll,3790.371335,1,2000.000000,1,COMPLETED_SUCCESSFULLY,3790.376350,125.863576,3916.239926,0.005015,125.868591,1.000040,26,-1.000000,""
17,w0,python3action_floatoperation_100000000,0.000000,1,-1.000000,1,COMPLETED_SUCCESSFULLY,3916.239941,0.000010,3916.239951,3916.239941,3916.239951,391623995.142174,26,-1.000000,""
187_updated,w0,python3action_videoprocessing_SampleVideo_30mb_yeti,3569.717147,1,2000.000000,1,COMPLETED_SUCCESSFULLY,3569.722162,493.464514,4063.186676,0.005015,493.469529,1.000010,29,-1.000000,""
187,w0,python3action_videoprocessing_SampleVideo_30mb,0.000000,1,-1.000000,1,COMPLETED_SUCCESSFULLY,4063.186691,0.000010,4063.186701,4063.186691,4063.186701,406318670.124229,29,-1.000000,""
102_updated,w0,python3action_facedetection_SampleVideo_30mb_troll,3803.816974,1,2000.000000,1,COMPLETED_SUCCESSFULLY,3803.822019,300.924584,4104.746603,0.005045,300.929629,1.000017,27,-1.000000,""
102,w0,python3action_facedetection_SampleVideo_30mb,0.000000,1,-1.000000,1,COMPLETED_SUCCESSFULLY,4104.746618,0.000010,4104.746628,4104.746618,4104.746628,410474662.800201,27,-1.000000,""
18_updated,w0,python3action_modeltraining_reviews100mb_troll,4104.751618,1,2000.000000,1,COMPLETED_SUCCESSFULLY,4104.756633,143.902652,4248.659285,0.005015,143.907667,1.000035,27,-1.000000,""
18,w0,python3action_modeltraining_reviews100mb,0.000000,1,-1.000000,1,COMPLETED_SUCCESSFULLY,4248.659300,0.000010,4248.659310,4248.659300,4248.659310,424865931.027774,27,-1.000000,""
183_updated,w0,python3action_pyaes_4000_troll,4248.664300,1,2000.000000,1,COMPLETED_SUCCESSFULLY,4248.669315,251.727104,4500.396419,0.005015,251.732119,1.000020,27,-1.000000,""
183,w0,python3action_pyaes_4000,0.000000,1,-1.000000,1,COMPLETED_SUCCESSFULLY,4500.396434,0.000010,4500.396444,4500.396434,4500.396444,450039644.400201,27,-1.000000,""
104_updated,w0,python3action_linpack_6000_troll,3916.244941,1,2000.000000,1,COMPLETED_SUCCESSFULLY,3916.249956,620.708201,4536.958157,0.005015,620.713216,1.000008,26,-1.000000,""
104,w0,python3action_linpack_6000,0.000000,1,-1.000000,1,COMPLETED_SUCCESSFULLY,4536.958172,0.000010,4536.958182,4536.958172,4536.958182,453695818.204929,26,-1.000000,""
186_updated,w0,python3action_chameleon_2000_troll,4500.401434,1,2000.000000,1,COMPLETED_SUCCESSFULLY,4500.406449,97.165047,4597.571496,0.005015,97.170062,1.000052,27,-1.000000,""
186,w0,python3action_chameleon_2000,0.000000,1,-1.000000,1,COMPLETED_SUCCESSFULLY,4597.571511,0.000010,4597.571521,4597.571511,4597.571521,459757152.100201,27,-1.000000,""
