job_id,workload_name,profile,submission_time,requested_number_of_resources,requested_time,success,final_state,starting_time,execution_time,finish_time,waiting_time,turnaround_time,stretch,allocated_resources,consumed_energy,metadata
python3action_chameleon_job195_1,w0,python3action_chameleon,0.997085,1,2000.000000,1,COMPLETED_SUCCESSFULLY,1.002115,0.243006,1.245121,0.005030,0.248036,1.020699,1,-1.000000,""
python3action_floatoperation_job19_0,w0,python3action_floatoperation,0.997085,1,2000.000000,1,COMPLETED_SUCCESSFULLY,1.002100,0.277720,1.279820,0.005015,0.282735,1.018058,0,-1.000000,""
python3action_floatoperation_job196_3,w0,python3action_floatoperation,0.997085,1,2000.000000,1,COMPLETED_SUCCESSFULLY,1.002145,0.797144,1.799289,0.005060,0.802204,1.006348,3,-1.000000,""
python3action_linpack_job21_4,w0,python3action_linpack,0.997085,1,2000.000000,1,COMPLETED_SUCCESSFULLY,1.002160,0.991898,1.994059,0.005075,0.996974,1.005116,4,-1.000000,""
python3action_linpack_job27_5,w0,python3action_linpack,0.997085,1,2000.000000,1,COMPLETED_SUCCESSFULLY,1.002175,1.020219,2.022394,0.005090,1.025309,1.004989,5,-1.000000,""
python3action_pyaes_job191_6,w0,python3action_pyaes,0.997085,1,2000.000000,1,COMPLETED_SUCCESSFULLY,1.002190,2.134958,3.137148,0.005105,2.140063,1.002391,6,-1.000000,""
python3action_floatoperation_job193_8,w0,python3action_floatoperation,0.997085,1,2000.000000,1,COMPLETED_SUCCESSFULLY,1.002220,2.439945,3.442165,0.005135,2.445080,1.002105,8,-1.000000,""
python3action_chameleon_job25_11,w0,python3action_chameleon,0.997085,1,2000.000000,1,COMPLETED_SUCCESSFULLY,1.002265,5.040826,6.043091,0.005180,5.046006,1.001028,11,-1.000000,""
python3action_pyaes_job30_12,w0,python3action_pyaes,0.997085,1,2000.000000,1,COMPLETED_SUCCESSFULLY,1.002280,5.040826,6.043106,0.005195,5.046021,1.001031,12,-1.000000,""
python3action_linpack_job190_2,w0,python3action_linpack,0.997085,1,2000.000000,1,COMPLETED_SUCCESSFULLY,1.002130,5.760927,6.763057,0.005045,5.765972,1.000876,2,-1.000000,""
27_updated,w0,python3action_linpack_5000_taurus,0.997085,1,2000.000000,1,COMPLETED_SUCCESSFULLY,2.022409,6.818087,8.840496,1.025324,7.843411,1.150383,5,-1.000000,""
27,w0,python3action_linpack_5000,0.000000,1,-1.000000,1,COMPLETED_SUCCESSFULLY,8.840511,0.000010,8.840521,8.840511,8.840521,884052.149238,5,-1.000000,""
196_updated,w0,python3action_floatoperation_200000000_taurus,0.997085,1,2000.000000,1,COMPLETED_SUCCESSFULLY,1.799304,22.803495,24.602799,0.802219,23.605714,1.035180,3,-1.000000,""
196,w0,python3action_floatoperation_200000000,0.000000,1,-1.000000,1,COMPLETED_SUCCESSFULLY,24.602814,0.000010,24.602824,24.602814,24.602824,2460282.400201,3,-1.000000,""
21_updated,w0,python3action_linpack_6000_taurus,0.997085,1,2000.000000,1,COMPLETED_SUCCESSFULLY,1.994074,27.135085,29.129159,0.996989,28.132074,1.036742,4,-1.000000,""
21,w0,python3action_linpack_6000,0.000000,1,-1.000000,1,COMPLETED_SUCCESSFULLY,29.129174,0.000010,29.129184,29.129174,29.129184,2912918.400201,4,-1.000000,""
python3action_image_processing_job192_7,w0,python3action_image_processing,0.997085,1,2000.000000,1,COMPLETED_SUCCESSFULLY,1.002205,30.499683,31.501888,0.005120,30.504803,1.000168,7,-1.000000,""
python3action_facedetection_job194_9,w0,python3action_facedetection,0.997085,1,2000.000000,1,COMPLETED_SUCCESSFULLY,1.002235,30.499683,31.501918,0.005150,30.504833,1.000169,9,-1.000000,""
python3action_video_processing_job2_10,w0,python3action_video_processing,0.997085,1,2000.000000,1,COMPLETED_SUCCESSFULLY,1.002250,30.499683,31.501933,0.005165,30.504848,1.000169,10,-1.000000,""
python3action_video_processing_job38_14,w0,python3action_video_processing,24.602829,1,2000.000000,1,COMPLETED_SUCCESSFULLY,24.607844,9.964414,34.572258,0.005015,9.969429,1.000503,3,-1.000000,""
32_updated,w0,python3action_linpack_6000_taurus,8.840526,1,2000.000000,1,COMPLETED_SUCCESSFULLY,8.845541,27.909850,36.755391,0.005015,27.914865,1.000180,5,-1.000000,""
32,w0,python3action_linpack_6000,0.000000,1,-1.000000,1,COMPLETED_SUCCESSFULLY,36.755406,0.000010,36.755416,36.755406,36.755416,3675541.629914,5,-1.000000,""
python3action_facedetection_job189_15,w0,python3action_facedetection,36.755421,1,2000.000000,1,COMPLETED_SUCCESSFULLY,36.760436,12.752895,49.513331,0.005015,12.757910,1.000393,5,-1.000000,""
38_updated,w0,python3action_videoprocessing_SampleVideo_50mb_taurus,24.602829,1,2000.000000,1,COMPLETED_SUCCESSFULLY,34.572273,21.343685,55.915958,9.969444,31.313129,1.467091,3,-1.000000,""
38,w0,python3action_videoprocessing_SampleVideo_50mb,0.000000,1,-1.000000,1,COMPLETED_SUCCESSFULLY,55.915973,0.000010,55.915983,55.915973,55.915983,5591598.300201,3,-1.000000,""
188_updated,w0,python3action_linpack_6000_taurus,29.129189,1,2000.000000,1,COMPLETED_SUCCESSFULLY,29.134204,27.135085,56.269289,0.005015,27.140100,1.000185,4,-1.000000,""
188,w0,python3action_linpack_6000,0.000000,1,-1.000000,1,COMPLETED_SUCCESSFULLY,56.269304,0.000010,56.269314,56.269304,56.269314,5626931.400201,4,-1.000000,""
python3action_pyaes_job58_16,w0,python3action_pyaes_reduced_0.85,56.269319,1,2000.000000,1,COMPLETED_SUCCESSFULLY,56.274334,0.130187,56.404521,0.005015,0.135202,1.038522,4,-1.000000,""
195_updated,w0,python3action_chameleon_3000_neowise,0.997085,1,2000.000000,1,COMPLETED_SUCCESSFULLY,1.245136,55.799998,57.045134,0.248051,56.048049,1.004445,1,-1.000000,""
195,w0,python3action_chameleon_3000,0.000000,1,-1.000000,1,COMPLETED_SUCCESSFULLY,57.045149,0.000010,57.045159,57.045149,57.045159,5704515.900201,1,-1.000000,""
python3action_pyaes_job20_17,w0,python3action_pyaes_reduced_0.85,57.045164,1,2000.000000,1,COMPLETED_SUCCESSFULLY,57.050179,0.036451,57.086630,0.005015,0.041466,1.137582,1,-1.000000,""
19_updated,w0,python3action_floatoperation_100000000_neowise,0.997085,1,2000.000000,1,COMPLETED_SUCCESSFULLY,1.279835,64.600001,65.879836,0.282750,64.882751,1.004377,0,-1.000000,""
19,w0,python3action_floatoperation_100000000,0.000000,1,-1.000000,1,COMPLETED_SUCCESSFULLY,65.879851,0.000010,65.879861,65.879851,65.879861,6587986.144619,0,-1.000000,""
python3action_linpack_job26_18,w0,python3action_linpack,65.879866,1,2000.000000,1,COMPLETED_SUCCESSFULLY,65.884881,0.277720,66.162601,0.005015,0.282735,1.018058,0,-1.000000,""
python3action_modeltraining_job36_13,w0,python3action_modeltraining,0.997085,1,2000.000000,1,COMPLETED_SUCCESSFULLY,1.002295,72.012455,73.014750,0.005210,72.017665,1.000072,13,-1.000000,""
58_updated,w0,python3action_pyaes_3000_taurus,56.269319,1,2000.000000,1,COMPLETED_SUCCESSFULLY,56.404536,18.216318,74.620854,0.135217,18.351535,1.007423,4,-1.000000,""
58,w0,python3action_pyaes_3000,0.000000,1,-1.000000,1,COMPLETED_SUCCESSFULLY,74.620869,0.000010,74.620879,74.620869,74.620879,7462087.923825,4,-1.000000,""
python3action_floatoperation_job63_19,w0,python3action_floatoperation,74.620884,1,2000.000000,1,COMPLETED_SUCCESSFULLY,74.625899,0.991898,75.617797,0.005015,0.996913,1.005056,4,-1.000000,""
52_updated,w0,python3action_videoprocessing_SampleVideo_50mb_taurus,55.915988,1,2000.000000,1,COMPLETED_SUCCESSFULLY,55.921003,21.343685,77.264688,0.005015,21.348700,1.000235,3,-1.000000,""
52,w0,python3action_videoprocessing_SampleVideo_50mb,0.000000,1,-1.000000,1,COMPLETED_SUCCESSFULLY,77.264703,0.000010,77.264713,77.264703,77.264713,7726471.300201,3,-1.000000,""
python3action_image_processing_job69_20,w0,python3action_image_processing_reduced_0.86,77.264718,1,2000.000000,1,COMPLETED_SUCCESSFULLY,77.269733,1.346542,78.616275,0.005015,1.351557,1.003724,3,-1.000000,""
189_updated,w0,python3action_facedetection_SampleVideo_30mb_taurus,36.755421,1,2000.000000,1,COMPLETED_SUCCESSFULLY,49.513346,30.849580,80.362926,12.757925,43.607505,1.413553,5,-1.000000,""
189,w0,python3action_facedetection_SampleVideo_30mb,0.000000,1,-1.000000,1,COMPLETED_SUCCESSFULLY,80.362941,0.000010,80.362951,80.362941,80.362951,8036295.134455,5,-1.000000,""
python3action_image_processing_job74_21,w0,python3action_image_processing_reduced_0.86,80.362956,1,2000.000000,1,COMPLETED_SUCCESSFULLY,80.367971,1.723364,82.091335,0.005015,1.728379,1.002910,5,-1.000000,""
26_updated,w0,python3action_linpack_5000_neowise,65.879866,1,2000.000000,1,COMPLETED_SUCCESSFULLY,66.162616,20.750000,86.912616,0.282750,21.032750,1.013627,0,-1.000000,""
26,w0,python3action_linpack_5000,0.000000,1,-1.000000,1,COMPLETED_SUCCESSFULLY,86.912631,0.000010,86.912641,86.912631,86.912641,8691264.133427,0,-1.000000,""
python3action_pyaes_job31_22,w0,python3action_pyaes_reduced_0.85,86.912646,1,2000.000000,1,COMPLETED_SUCCESSFULLY,86.917661,0.036451,86.954112,0.005015,0.041466,1.137582,0,-1.000000,""
69_updated,w0,python3action_imageprocessing_SampleImage_60mb_taurus,77.264718,1,2000.000000,1,COMPLETED_SUCCESSFULLY,78.616290,14.044634,92.660925,1.351572,15.396207,1.096234,3,-1.000000,""
69,w0,python3action_imageprocessing_SampleImage_60mb,0.000000,1,-1.000000,1,COMPLETED_SUCCESSFULLY,92.660940,0.000010,92.660950,92.660940,92.660950,9266095.000201,3,-1.000000,""
74_updated,w0,python3action_imageprocessing_SampleImage_60mb_taurus,80.362956,1,2000.000000,1,COMPLETED_SUCCESSFULLY,82.091350,17.974940,100.066290,1.728394,19.703334,1.096156,5,-1.000000,""
74,w0,python3action_imageprocessing_SampleImage_60mb,0.000000,1,-1.000000,1,COMPLETED_SUCCESSFULLY,100.066305,0.000010,100.066315,100.066305,100.066315,10006631.546206,5,-1.000000,""
python3action_floatoperation_job85_23,w0,python3action_floatoperation,100.066320,1,2000.000000,1,COMPLETED_SUCCESSFULLY,100.071335,1.020219,101.091554,0.005015,1.025234,1.004916,5,-1.000000,""
63_updated,w0,python3action_floatoperation_200000000_taurus,74.620884,1,2000.000000,1,COMPLETED_SUCCESSFULLY,75.617812,28.374754,103.992567,0.996928,29.371683,1.035134,4,-1.000000,""
63,w0,python3action_floatoperation_200000000,0.000000,1,-1.000000,1,COMPLETED_SUCCESSFULLY,103.992582,0.000010,103.992592,103.992582,103.992592,10399259.200201,4,-1.000000,""
8_updated,w0,python3action_videoprocessing_SampleVideo_50mb_taurus,92.660955,1,2000.000000,1,COMPLETED_SUCCESSFULLY,92.665970,21.343685,114.009655,0.005015,21.348700,1.000235,3,-1.000000,""
8,w0,python3action_videoprocessing_SampleVideo_50mb,0.000000,1,-1.000000,1,COMPLETED_SUCCESSFULLY,114.009670,0.000010,114.009680,114.009670,114.009680,11400968.000201,3,-1.000000,""
python3action_modeltraining_job90_25,w0,python3action_modeltraining_reduced_1.94,114.009685,1,2000.000000,1,COMPLETED_SUCCESSFULLY,114.014700,0.000000,114.014700,0.005015,0.005015,314247012.000890,3,-1.000000,""
python3action_modeltraining_job88_24,w0,python3action_modeltraining,103.992597,1,2000.000000,1,COMPLETED_SUCCESSFULLY,103.997612,12.398880,116.396492,0.005015,12.403895,1.000404,4,-1.000000,""
90_updated,w0,python3action_modeltraining_reviews100mb_taurus,114.009685,1,2000.000000,1,COMPLETED_SUCCESSFULLY,114.014730,12.204293,126.219023,0.005045,12.209338,1.000413,3,-1.000000,""
90,w0,python3action_modeltraining_reviews100mb,0.000000,1,-1.000000,1,COMPLETED_SUCCESSFULLY,126.219038,0.000010,126.219048,126.219038,126.219048,12621904.800201,3,-1.000000,""
python3action_facedetection_job93_26,w0,python3action_facedetection_reduced_2.74,126.219053,1,2000.000000,1,COMPLETED_SUCCESSFULLY,126.224068,0.000000,126.224068,0.005015,0.005015,314247012.000890,3,-1.000000,""
20_updated,w0,python3action_pyaes_3000_neowise,57.045164,1,2000.000000,1,COMPLETED_SUCCESSFULLY,57.086645,72.500000,129.586645,0.041481,72.541481,1.000572,1,-1.000000,""
20,w0,python3action_pyaes_3000,0.000000,1,-1.000000,1,COMPLETED_SUCCESSFULLY,129.586660,0.000010,129.586670,129.586660,129.586670,12958667.000402,1,-1.000000,""
python3action_linpack_job37_27,w0,python3action_linpack_reduced_1.7,129.586675,1,2000.000000,1,COMPLETED_SUCCESSFULLY,129.591690,0.000000,129.591690,0.005015,0.005015,900253555.469388,1,-1.000000,""
85_updated,w0,python3action_floatoperation_200000000_taurus,100.066320,1,2000.000000,1,COMPLETED_SUCCESSFULLY,101.091569,29.184915,130.276484,1.025249,30.210164,1.035129,5,-1.000000,""
85,w0,python3action_floatoperation_200000000,0.000000,1,-1.000000,1,COMPLETED_SUCCESSFULLY,130.276499,0.000010,130.276509,130.276499,130.276509,13027650.949533,5,-1.000000,""
python3action_chameleon_job96_28,w0,python3action_chameleon_reduced_0.85,130.276514,1,2000.000000,1,COMPLETED_SUCCESSFULLY,130.281529,0.133904,130.415433,0.005015,0.138919,1.037452,5,-1.000000,""
88_updated,w0,python3action_modeltraining_reviews100mb_taurus,103.992597,1,2000.000000,1,COMPLETED_SUCCESSFULLY,116.396507,15.185997,131.582504,12.403910,27.589907,1.816799,4,-1.000000,""
88,w0,python3action_modeltraining_reviews100mb,0.000000,1,-1.000000,1,COMPLETED_SUCCESSFULLY,131.582519,0.000010,131.582529,131.582519,131.582529,13158252.919274,4,-1.000000,""
127_updated,w0,python3action_linpack_5000_taurus,131.582534,1,2000.000000,1,COMPLETED_SUCCESSFULLY,131.587549,6.628820,138.216369,0.005015,6.633835,1.000757,4,-1.000000,""
127,w0,python3action_linpack_5000,0.000000,1,-1.000000,1,COMPLETED_SUCCESSFULLY,138.216384,0.000010,138.216394,138.216384,138.216394,13821639.400201,4,-1.000000,""
python3action_image_processing_job132_29,w0,python3action_image_processing_reduced_0.86,138.216399,1,2000.000000,1,COMPLETED_SUCCESSFULLY,138.221414,1.675524,139.896938,0.005015,1.680539,1.002993,4,-1.000000,""
93_updated,w0,python3action_facedetection_SampleVideo_50mb_taurus,126.219053,1,2000.000000,1,COMPLETED_SUCCESSFULLY,126.224098,18.624703,144.848801,0.005045,18.629748,1.000271,3,-1.000000,""
93,w0,python3action_facedetection_SampleVideo_50mb,0.000000,1,-1.000000,1,COMPLETED_SUCCESSFULLY,144.848816,0.000010,144.848826,144.848816,144.848826,14484882.600201,3,-1.000000,""
132_updated,w0,python3action_imageprocessing_SampleImage_40mb_taurus,138.216399,1,2000.000000,1,COMPLETED_SUCCESSFULLY,139.896953,5.612974,145.509928,1.680554,7.293529,1.299405,4,-1.000000,""
132,w0,python3action_imageprocessing_SampleImage_40mb,0.000000,1,-1.000000,1,COMPLETED_SUCCESSFULLY,145.509943,0.000010,145.509953,145.509943,145.509953,14550995.300201,4,-1.000000,""
python3action_facedetection_job143_30,w0,python3action_facedetection_reduced_1.83,145.509958,1,2000.000000,1,COMPLETED_SUCCESSFULLY,145.514973,0.000000,145.514973,0.005015,0.005015,252431612.839771,4,-1.000000,""
190_updated,w0,python3action_linpack_6000_taurus,0.997085,1,2000.000000,1,COMPLETED_SUCCESSFULLY,6.763072,157.600046,164.363118,5.765987,163.366033,1.036586,2,-1.000000,""
190,w0,python3action_linpack_6000,0.000000,1,-1.000000,1,COMPLETED_SUCCESSFULLY,164.363133,0.000010,164.363143,164.363133,164.363143,16436314.336951,2,-1.000000,""
python3action_chameleon_job149_31,w0,python3action_chameleon_reduced_0.85,164.363148,1,2000.000000,1,COMPLETED_SUCCESSFULLY,164.368163,0.756124,165.124287,0.005015,0.761139,1.006633,2,-1.000000,""
96_updated,w0,python3action_chameleon_3000_taurus,130.276514,1,2000.000000,1,COMPLETED_SUCCESSFULLY,130.415448,38.074975,168.490423,0.138934,38.213909,1.003649,5,-1.000000,""
96,w0,python3action_chameleon_3000,0.000000,1,-1.000000,1,COMPLETED_SUCCESSFULLY,168.490438,0.000010,168.490448,168.490438,168.490448,16849044.815967,5,-1.000000,""
python3action_video_processing_job153_32,w0,python3action_video_processing_reduced_1.83,168.490453,1,2000.000000,1,COMPLETED_SUCCESSFULLY,168.495468,0.000000,168.495468,0.005015,0.005015,245409871.203060,5,-1.000000,""
143_updated,w0,python3action_facedetection_SampleVideo_50mb_taurus,145.509958,1,2000.000000,1,COMPLETED_SUCCESSFULLY,145.515003,23.175016,168.690019,0.005045,23.180061,1.000218,4,-1.000000,""
143,w0,python3action_facedetection_SampleVideo_50mb,0.000000,1,-1.000000,1,COMPLETED_SUCCESSFULLY,168.690034,0.000010,168.690044,168.690034,168.690044,16869004.438976,4,-1.000000,""
138_updated,w0,python3action_facedetection_SampleVideo_30mb_taurus,144.848831,1,2000.000000,1,COMPLETED_SUCCESSFULLY,144.853846,24.104173,168.958019,0.005015,24.109188,1.000208,3,-1.000000,""
138,w0,python3action_facedetection_SampleVideo_30mb,0.000000,1,-1.000000,1,COMPLETED_SUCCESSFULLY,168.958034,0.000010,168.958044,168.958034,168.958044,16895804.400201,3,-1.000000,""
2_updated,w0,python3action_videoprocessing_SampleVideo_50mb_nova,0.997085,1,2000.000000,1,COMPLETED_SUCCESSFULLY,31.501963,139.600010,171.101973,30.504878,170.104888,1.218516,10,-1.000000,""
2,w0,python3action_videoprocessing_SampleVideo_50mb,0.000000,1,-1.000000,1,COMPLETED_SUCCESSFULLY,171.101988,0.000010,171.101998,171.101988,171.101998,17110199.800201,10,-1.000000,""
python3action_facedetection_job41_33,w0,python3action_facedetection_reduced_0.91,171.102003,1,2000.000000,1,COMPLETED_SUCCESSFULLY,171.107018,0.000000,171.107018,0.005015,0.005015,1138385140.845161,10,-1.000000,""
36_updated,w0,python3action_modeltraining_reviews50mb_nova,0.997085,1,2000.000000,1,COMPLETED_SUCCESSFULLY,73.014765,100.110137,173.124903,72.017680,172.127818,1.719384,13,-1.000000,""
36,w0,python3action_modeltraining_reviews50mb,0.000000,1,-1.000000,1,COMPLETED_SUCCESSFULLY,173.124918,0.000010,173.124928,173.124918,173.124928,17312492.800201,13,-1.000000,""
python3action_image_processing_job46_34,w0,python3action_image_processing_reduced_0.86,173.124933,1,2000.000000,1,COMPLETED_SUCCESSFULLY,173.129948,9.731413,182.861361,0.005015,9.736428,1.000515,13,-1.000000,""
164_updated,w0,python3action_imageprocessing_SampleImage_60mb_taurus,168.958049,1,2000.000000,1,COMPLETED_SUCCESSFULLY,168.963064,14.044634,183.007698,0.005015,14.049649,1.000357,3,-1.000000,""
164,w0,python3action_imageprocessing_SampleImage_60mb,0.000000,1,-1.000000,1,COMPLETED_SUCCESSFULLY,183.007713,0.000010,183.007723,183.007713,183.007723,18300772.316982,3,-1.000000,""
192_updated,w0,python3action_imageprocessing_SampleImage_60mb_troll,0.997085,1,2000.000000,1,COMPLETED_SUCCESSFULLY,31.501903,152.512187,184.014090,30.504818,183.017005,1.200016,7,-1.000000,""
192,w0,python3action_imageprocessing_SampleImage_60mb,0.000000,1,-1.000000,1,COMPLETED_SUCCESSFULLY,184.014105,0.000010,184.014115,184.014105,184.014115,18401411.500201,7,-1.000000,""
python3action_chameleon_job198_35,w0,python3action_chameleon,184.014120,1,2000.000000,1,COMPLETED_SUCCESSFULLY,184.019135,2.134958,186.154093,0.005015,2.139973,1.002349,7,-1.000000,""
168_updated,w0,python3action_modeltraining_reviews50mb_taurus,183.007728,1,2000.000000,1,COMPLETED_SUCCESSFULLY,183.012743,6.365052,189.377795,0.005015,6.370067,1.000788,3,-1.000000,""
168,w0,python3action_modeltraining_reviews50mb,0.000000,1,-1.000000,1,COMPLETED_SUCCESSFULLY,189.377810,0.000010,189.377820,189.377810,189.377820,18937782.026604,3,-1.000000,""
python3action_chameleon_job170_36,w0,python3action_chameleon,189.377825,1,2000.000000,1,COMPLETED_SUCCESSFULLY,189.382840,0.697503,190.080343,0.005015,0.702518,1.007190,3,-1.000000,""
194_updated,w0,python3action_facedetection_SampleVideo_30mb_nova,0.997085,1,2000.000000,1,COMPLETED_SUCCESSFULLY,31.501933,160.399990,191.901923,30.504848,190.904838,1.190180,9,-1.000000,""
194,w0,python3action_facedetection_SampleVideo_30mb,0.000000,1,-1.000000,1,COMPLETED_SUCCESSFULLY,191.901938,0.000010,191.901948,191.901938,191.901948,19190194.800201,9,-1.000000,""
python3action_video_processing_job50_37,w0,python3action_video_processing_reduced_0.91,191.901953,1,2000.000000,1,COMPLETED_SUCCESSFULLY,191.906968,0.000000,191.906968,0.005015,0.005015,1138385140.845161,9,-1.000000,""
153_updated,w0,python3action_videoprocessing_SampleVideo_50mb_taurus,168.490453,1,2000.000000,1,COMPLETED_SUCCESSFULLY,168.495498,27.316586,195.812084,0.005045,27.321631,1.000185,5,-1.000000,""
153,w0,python3action_videoprocessing_SampleVideo_50mb,0.000000,1,-1.000000,1,COMPLETED_SUCCESSFULLY,195.812099,0.000010,195.812109,195.812099,195.812109,19581210.900201,5,-1.000000,""
python3action_pyaes_job173_38,w0,python3action_pyaes_reduced_1.7,195.812114,1,2000.000000,1,COMPLETED_SUCCESSFULLY,195.817129,0.000000,195.817129,0.005015,0.005015,245409871.203060,5,-1.000000,""
159_updated,w0,python3action_floatoperation_200000000_taurus,168.690049,1,2000.000000,1,COMPLETED_SUCCESSFULLY,168.695064,28.374754,197.069818,0.005015,28.379769,1.000177,4,-1.000000,""
159,w0,python3action_floatoperation_200000000,0.000000,1,-1.000000,1,COMPLETED_SUCCESSFULLY,197.069833,0.000010,197.069843,197.069833,197.069843,19706984.327816,4,-1.000000,""
178_updated,w0,python3action_imageprocessing_SampleImage_40mb_taurus,197.069848,1,2000.000000,1,COMPLETED_SUCCESSFULLY,197.074863,5.612974,202.687837,0.005015,5.617989,1.000893,4,-1.000000,""
178,w0,python3action_imageprocessing_SampleImage_40mb,0.000000,1,-1.000000,1,COMPLETED_SUCCESSFULLY,202.687852,0.000010,202.687862,202.687852,202.687862,20268786.232939,4,-1.000000,""
31_updated,w0,python3action_pyaes_4000_neowise,86.912646,1,2000.000000,1,COMPLETED_SUCCESSFULLY,86.954127,128.200002,215.154129,0.041481,128.241483,1.000324,0,-1.000000,""
31,w0,python3action_pyaes_4000,0.000000,1,-1.000000,1,COMPLETED_SUCCESSFULLY,215.154144,0.000010,215.154154,215.154144,215.154154,21515415.422787,0,-1.000000,""
170_updated,w0,python3action_chameleon_3000_taurus,189.377825,1,2000.000000,1,COMPLETED_SUCCESSFULLY,190.080358,29.749701,219.830059,0.702533,30.452234,1.023615,3,-1.000000,""
170,w0,python3action_chameleon_3000,0.000000,1,-1.000000,1,COMPLETED_SUCCESSFULLY,219.830074,0.000010,219.830084,219.830074,219.830084,21983008.400201,3,-1.000000,""
python3action_linpack_job11_39,w0,python3action_linpack_reduced_0.85,219.830089,1,2000.000000,1,COMPLETED_SUCCESSFULLY,219.835104,0.000000,219.835104,0.005015,0.005015,2100591628.107143,3,-1.000000,""
107_updated,w0,python3action_pyaes_3000_taurus,202.687867,1,2000.000000,1,COMPLETED_SUCCESSFULLY,202.692882,18.216318,220.909200,0.005015,18.221333,1.000275,4,-1.000000,""
107,w0,python3action_pyaes_3000,0.000000,1,-1.000000,1,COMPLETED_SUCCESSFULLY,220.909215,0.000010,220.909225,220.909215,220.909225,22090922.518674,4,-1.000000,""
173_updated,w0,python3action_pyaes_4000_taurus,195.812114,1,2000.000000,1,COMPLETED_SUCCESSFULLY,195.817159,32.868452,228.685611,0.005045,32.873497,1.000153,5,-1.000000,""
173,w0,python3action_pyaes_4000,0.000000,1,-1.000000,1,COMPLETED_SUCCESSFULLY,228.685626,0.000010,228.685636,228.685626,228.685636,22868563.600201,5,-1.000000,""
149_updated,w0,python3action_chameleon_2000_taurus,164.363148,1,2000.000000,1,COMPLETED_SUCCESSFULLY,165.124302,64.199977,229.324279,0.761154,64.961131,1.011856,2,-1.000000,""
149,w0,python3action_chameleon_2000,0.000000,1,-1.000000,1,COMPLETED_SUCCESSFULLY,229.324294,0.000010,229.324304,229.324294,229.324304,22932430.400201,2,-1.000000,""
37_updated,w0,python3action_linpack_6000_neowise,129.586675,1,2000.000000,1,COMPLETED_SUCCESSFULLY,129.591720,108.600001,238.191721,0.005045,108.605046,1.000046,1,-1.000000,""
37,w0,python3action_linpack_6000,0.000000,1,-1.000000,1,COMPLETED_SUCCESSFULLY,238.191736,0.000010,238.191746,238.191736,238.191746,23819174.611996,1,-1.000000,""
112_updated,w0,python3action_pyaes_3000_taurus,220.909230,1,2000.000000,1,COMPLETED_SUCCESSFULLY,220.914245,18.216318,239.130563,0.005015,18.221333,1.000275,4,-1.000000,""
112,w0,python3action_pyaes_3000,0.000000,1,-1.000000,1,COMPLETED_SUCCESSFULLY,239.130578,0.000010,239.130588,239.130578,239.130588,23913058.818674,4,-1.000000,""
11_updated,w0,python3action_linpack_6000_taurus,219.830089,1,2000.000000,1,COMPLETED_SUCCESSFULLY,219.835134,21.807229,241.642363,0.005045,21.812274,1.000231,3,-1.000000,""
11,w0,python3action_linpack_6000,0.000000,1,-1.000000,1,COMPLETED_SUCCESSFULLY,241.642378,0.000010,241.642388,241.642378,241.642388,24164238.800201,3,-1.000000,""
python3action_modeltraining_job47_40,w0,python3action_modeltraining,238.196736,1,2000.000000,1,COMPLETED_SUCCESSFULLY,238.201751,3.471546,241.673297,0.005015,3.476561,1.001445,1,-1.000000,""
193_updated,w0,python3action_floatoperation_200000000_yeti,0.997085,1,2000.000000,1,COMPLETED_SUCCESSFULLY,3.442180,253.508426,256.950606,2.445095,255.953521,1.009645,8,-1.000000,""
193,w0,python3action_floatoperation_200000000,0.000000,1,-1.000000,1,COMPLETED_SUCCESSFULLY,256.950621,0.000010,256.950631,256.950621,256.950631,25695063.104734,8,-1.000000,""
47_updated,w0,python3action_modeltraining_reviews50mb_neowise,238.196736,1,2000.000000,1,COMPLETED_SUCCESSFULLY,241.673312,22.799998,264.473310,3.476576,26.276574,1.152481,1,-1.000000,""
47,w0,python3action_modeltraining_reviews50mb,0.000000,1,-1.000000,1,COMPLETED_SUCCESSFULLY,264.473325,0.000010,264.473335,264.473325,264.473335,26447333.500201,1,-1.000000,""
python3action_image_processing_job51_42,w0,python3action_image_processing_reduced_0.86,264.478325,1,2000.000000,1,COMPLETED_SUCCESSFULLY,264.483340,0.469128,264.952468,0.005015,0.474143,1.010690,1,-1.000000,""
46_updated,w0,python3action_imageprocessing_SampleImage_40mb_nova,173.124933,1,2000.000000,1,COMPLETED_SUCCESSFULLY,182.861376,84.999193,267.860569,9.736443,94.735636,1.114547,13,-1.000000,""
46,w0,python3action_imageprocessing_SampleImage_40mb,0.000000,1,-1.000000,1,COMPLETED_SUCCESSFULLY,267.860584,0.000010,267.860594,267.860584,267.860594,26786059.400201,13,-1.000000,""
python3action_chameleon_job56_43,w0,python3action_chameleon,267.865584,1,2000.000000,1,COMPLETED_SUCCESSFULLY,267.870599,5.040826,272.911425,0.005015,5.045841,1.000995,13,-1.000000,""
42_updated,w0,python3action_floatoperation_100000000_neowise,215.154159,1,2000.000000,1,COMPLETED_SUCCESSFULLY,215.159174,64.600001,279.759175,0.005015,64.605016,1.000078,0,-1.000000,""
42,w0,python3action_floatoperation_100000000,0.000000,1,-1.000000,1,COMPLETED_SUCCESSFULLY,279.759190,0.000010,279.759200,279.759190,279.759200,27975920.011594,0,-1.000000,""
python3action_facedetection_job57_44,w0,python3action_facedetection,279.764190,1,2000.000000,1,COMPLETED_SUCCESSFULLY,279.769205,3.471546,283.240751,0.005015,3.476561,1.001445,0,-1.000000,""
51_updated,w0,python3action_imageprocessing_SampleImage_40mb_neowise,264.478325,1,2000.000000,1,COMPLETED_SUCCESSFULLY,264.952483,20.909089,285.861572,0.474158,21.383247,1.022677,1,-1.000000,""
51,w0,python3action_imageprocessing_SampleImage_40mb,0.000000,1,-1.000000,1,COMPLETED_SUCCESSFULLY,285.861587,0.000010,285.861597,285.861587,285.861597,28586159.700201,1,-1.000000,""
python3action_video_processing_job199_41,w0,python3action_video_processing,256.955621,1,2000.000000,1,COMPLETED_SUCCESSFULLY,256.960636,30.499683,287.460319,0.005015,30.504698,1.000164,8,-1.000000,""
62_updated,w0,python3action_linpack_5000_neowise,285.866587,1,2000.000000,1,COMPLETED_SUCCESSFULLY,285.871602,20.750000,306.621602,0.005015,20.755015,1.000242,1,-1.000000,""
62,w0,python3action_linpack_5000,0.000000,1,-1.000000,1,COMPLETED_SUCCESSFULLY,306.621617,0.000010,306.621627,306.621617,306.621627,30662162.700402,1,-1.000000,""
python3action_floatoperation_job68_45,w0,python3action_floatoperation,306.626617,1,2000.000000,1,COMPLETED_SUCCESSFULLY,306.631632,0.277720,306.909352,0.005015,0.282735,1.018058,1,-1.000000,""
50_updated,w0,python3action_videoprocessing_SampleVideo_50mb_nova,191.901953,1,2000.000000,1,COMPLETED_SUCCESSFULLY,191.906998,139.600010,331.507008,0.005045,139.605055,1.000036,9,-1.000000,""
50,w0,python3action_videoprocessing_SampleVideo_50mb,0.000000,1,-1.000000,1,COMPLETED_SUCCESSFULLY,331.507023,0.000010,331.507033,331.507023,331.507033,33150703.300201,9,-1.000000,""
41_updated,w0,python3action_facedetection_SampleVideo_30mb_nova,171.102003,1,2000.000000,1,COMPLETED_SUCCESSFULLY,171.107048,160.399990,331.507038,0.005045,160.405035,1.000031,10,-1.000000,""
41,w0,python3action_facedetection_SampleVideo_30mb,0.000000,1,-1.000000,1,COMPLETED_SUCCESSFULLY,331.517053,0.000010,331.517063,331.517053,331.517063,33151706.300402,10,-1.000000,""
python3action_chameleon_job67_47,w0,python3action_chameleon,331.522038,1,2000.000000,1,COMPLETED_SUCCESSFULLY,331.527053,2.134958,333.662011,0.005015,2.139973,1.002349,10,-1.000000,""
python3action_floatoperation_job61_46,w0,python3action_floatoperation,331.512023,1,2000.000000,1,COMPLETED_SUCCESSFULLY,331.517038,2.439945,333.956983,0.005015,2.444960,1.002055,9,-1.000000,""
30_updated,w0,python3action_pyaes_4000_nova,0.997085,1,2000.000000,1,COMPLETED_SUCCESSFULLY,6.043136,329.608004,335.651140,5.046051,334.654055,1.015309,12,-1.000000,""
30,w0,python3action_pyaes_4000,0.000000,1,-1.000000,1,COMPLETED_SUCCESSFULLY,335.651155,0.000010,335.651165,335.651155,335.651165,33565116.500201,12,-1.000000,""
191_updated,w0,python3action_pyaes_4000_gemini,0.997085,1,2000.000000,1,COMPLETED_SUCCESSFULLY,3.137163,365.007620,368.144783,2.140078,367.147698,1.005863,6,-1.000000,""
191,w0,python3action_pyaes_4000,0.000000,1,-1.000000,1,COMPLETED_SUCCESSFULLY,368.144798,0.000010,368.144808,368.144798,368.144808,36814480.804767,6,-1.000000,""
68_updated,w0,python3action_floatoperation_100000000_neowise,306.626617,1,2000.000000,1,COMPLETED_SUCCESSFULLY,306.909367,64.600001,371.509368,0.282750,64.882751,1.004377,1,-1.000000,""
68,w0,python3action_floatoperation_100000000,0.000000,1,-1.000000,1,COMPLETED_SUCCESSFULLY,371.509383,0.000010,371.509393,371.509383,371.509393,37150939.344619,1,-1.000000,""
73_updated,w0,python3action_linpack_5000_neowise,371.514383,1,2000.000000,1,COMPLETED_SUCCESSFULLY,371.519398,20.750000,392.269398,0.005015,20.755015,1.000242,1,-1.000000,""
73,w0,python3action_linpack_5000,0.000000,1,-1.000000,1,COMPLETED_SUCCESSFULLY,392.269413,0.000010,392.269423,392.269413,392.269423,39226942.300402,1,-1.000000,""
python3action_facedetection_job197_49,w0,python3action_facedetection,368.149798,1,2000.000000,1,COMPLETED_SUCCESSFULLY,368.154813,30.499683,398.654496,0.005015,30.504698,1.000164,6,-1.000000,""
61_updated,w0,python3action_floatoperation_100000000_nova,331.512023,1,2000.000000,1,COMPLETED_SUCCESSFULLY,333.956998,66.200020,400.157018,2.444975,68.644995,1.036933,9,-1.000000,""
61,w0,python3action_floatoperation_100000000,0.000000,1,-1.000000,1,COMPLETED_SUCCESSFULLY,400.157033,0.000010,400.157043,400.157033,400.157043,40015704.300201,9,-1.000000,""
python3action_pyaes_job78_50,w0,python3action_pyaes,400.162033,1,2000.000000,1,COMPLETED_SUCCESSFULLY,400.167048,2.134958,402.302006,0.005015,2.139973,1.002349,9,-1.000000,""
python3action_modeltraining_job72_48,w0,python3action_modeltraining,335.656155,1,2000.000000,1,COMPLETED_SUCCESSFULLY,335.661170,72.012455,407.673625,0.005015,72.017470,1.000070,12,-1.000000,""
79_updated,w0,python3action_modeltraining_reviews50mb_neowise,392.274413,1,2000.000000,1,COMPLETED_SUCCESSFULLY,392.279428,22.799998,415.079426,0.005015,22.805013,1.000220,1,-1.000000,""
79,w0,python3action_modeltraining_reviews50mb,0.000000,1,-1.000000,1,COMPLETED_SUCCESSFULLY,415.079441,0.000010,415.079451,415.079441,415.079451,41507945.100201,1,-1.000000,""
198_updated,w0,python3action_chameleon_3000_troll,184.014120,1,2000.000000,1,COMPLETED_SUCCESSFULLY,186.154108,231.228154,417.382262,2.139988,233.368142,1.009255,7,-1.000000,""
198,w0,python3action_chameleon_3000,0.000000,1,-1.000000,1,COMPLETED_SUCCESSFULLY,417.382277,0.000010,417.382287,417.382277,417.382287,41738228.739796,7,-1.000000,""
python3action_linpack_job23_51,w0,python3action_linpack_reduced_0.85,417.387277,1,2000.000000,1,COMPLETED_SUCCESSFULLY,417.392292,0.000000,417.392292,0.005015,0.005015,683913554.015504,7,-1.000000,""
57_updated,w0,python3action_facedetection_SampleVideo_50mb_neowise,279.764190,1,2000.000000,1,COMPLETED_SUCCESSFULLY,283.240766,196.399999,479.640765,3.476576,199.876575,1.017702,0,-1.000000,""
57,w0,python3action_facedetection_SampleVideo_50mb,0.000000,1,-1.000000,1,COMPLETED_SUCCESSFULLY,479.640780,0.000010,479.640790,479.640780,479.640790,47964079.000201,0,-1.000000,""
23_updated,w0,python3action_linpack_5000_troll,417.387277,1,2000.000000,1,COMPLETED_SUCCESSFULLY,417.392322,72.976261,490.368583,0.005045,72.981306,1.000069,7,-1.000000,""
23,w0,python3action_linpack_5000,0.000000,1,-1.000000,1,COMPLETED_SUCCESSFULLY,490.368598,0.000010,490.368608,490.368598,490.368608,49036860.842551,7,-1.000000,""
78_updated,w0,python3action_pyaes_4000_nova,400.162033,1,2000.000000,1,COMPLETED_SUCCESSFULLY,402.302021,139.600010,541.902031,2.139988,141.739998,1.015329,9,-1.000000,""
78,w0,python3action_pyaes_4000,0.000000,1,-1.000000,1,COMPLETED_SUCCESSFULLY,541.902046,0.000010,541.902056,541.902046,541.902056,54190205.601267,9,-1.000000,""
84_updated,w0,python3action_pyaes_4000_neowise,415.084441,1,2000.000000,1,COMPLETED_SUCCESSFULLY,415.089456,128.200002,543.289458,0.005015,128.205017,1.000039,1,-1.000000,""
84,w0,python3action_pyaes_4000,0.000000,1,-1.000000,1,COMPLETED_SUCCESSFULLY,543.289473,0.000010,543.289483,543.289473,543.289483,54328948.322787,1,-1.000000,""
python3action_video_processing_job119_52,w0,python3action_video_processing_reduced_1.89,543.294473,1,2000.000000,1,COMPLETED_SUCCESSFULLY,543.299488,0.000000,543.299488,0.005015,0.005015,900253555.469388,1,-1.000000,""
116_updated,w0,python3action_linpack_6000_neowise,479.645780,1,2000.000000,1,COMPLETED_SUCCESSFULLY,479.650795,108.600001,588.250796,0.005015,108.605016,1.000046,0,-1.000000,""
116,w0,python3action_linpack_6000,0.000000,1,-1.000000,1,COMPLETED_SUCCESSFULLY,588.250811,0.000010,588.250821,588.250811,588.250821,58825082.111594,0,-1.000000,""
python3action_chameleon_job121_53,w0,python3action_chameleon_reduced_1.7,588.255811,1,2000.000000,1,COMPLETED_SUCCESSFULLY,588.260826,0.000000,588.260826,0.005015,0.005015,900253555.469388,0,-1.000000,""
72_updated,w0,python3action_modeltraining_reviews100mb_nova,335.656155,1,2000.000000,1,COMPLETED_SUCCESSFULLY,407.673640,187.942683,595.616323,72.017485,259.960168,1.383189,12,-1.000000,""
72,w0,python3action_modeltraining_reviews100mb,0.000000,1,-1.000000,1,COMPLETED_SUCCESSFULLY,595.616338,0.000010,595.616348,595.616338,595.616348,59561634.800201,12,-1.000000,""
python3action_linpack_job87_54,w0,python3action_linpack_reduced_0.85,595.621338,1,2000.000000,1,COMPLETED_SUCCESSFULLY,595.626353,0.000000,595.626353,0.005015,0.005015,290213317.901316,12,-1.000000,""
121_updated,w0,python3action_chameleon_2000_neowise,588.255811,1,2000.000000,1,COMPLETED_SUCCESSFULLY,588.260856,24.200002,612.460858,0.005045,24.205047,1.000208,0,-1.000000,""
121,w0,python3action_chameleon_2000,0.000000,1,-1.000000,1,COMPLETED_SUCCESSFULLY,612.460873,0.000010,612.460883,612.460873,612.460883,61246088.323188,0,-1.000000,""
python3action_modeltraining_job124_55,w0,python3action_modeltraining_reduced_0.94,612.465873,1,2000.000000,1,COMPLETED_SUCCESSFULLY,612.470888,0.000000,612.470888,0.005015,0.005015,14704141390.666666,0,-1.000000,""
124_updated,w0,python3action_modeltraining_reviews50mb_neowise,612.465873,1,2000.000000,1,COMPLETED_SUCCESSFULLY,612.470918,22.799998,635.270916,0.005045,22.805043,1.000221,0,-1.000000,""
124,w0,python3action_modeltraining_reviews50mb,0.000000,1,-1.000000,1,COMPLETED_SUCCESSFULLY,635.270931,0.000010,635.270941,635.270931,635.270941,63527094.100201,0,-1.000000,""
83_updated,w0,python3action_floatoperation_200000000_nova,541.907046,1,2000.000000,1,COMPLETED_SUCCESSFULLY,541.912061,135.399990,677.312051,0.005015,135.405005,1.000037,9,-1.000000,""
83,w0,python3action_floatoperation_200000000,0.000000,1,-1.000000,1,COMPLETED_SUCCESSFULLY,677.312066,0.000010,677.312076,677.312066,677.312076,67731207.623505,9,-1.000000,""
119_updated,w0,python3action_videoprocessing_SampleVideo_50mb_neowise,543.294473,1,2000.000000,1,COMPLETED_SUCCESSFULLY,543.299518,164.799998,708.099516,0.005045,164.805043,1.000031,1,-1.000000,""
119,w0,python3action_videoprocessing_SampleVideo_50mb,0.000000,1,-1.000000,1,COMPLETED_SUCCESSFULLY,708.099531,0.000010,708.099541,708.099531,708.099541,70809954.100201,1,-1.000000,""
99_updated,w0,python3action_linpack_6000_neowise,635.275931,1,2000.000000,1,COMPLETED_SUCCESSFULLY,635.280946,108.600001,743.880947,0.005015,108.605016,1.000046,0,-1.000000,""
99,w0,python3action_linpack_6000,0.000000,1,-1.000000,1,COMPLETED_SUCCESSFULLY,743.880962,0.000010,743.880972,743.880962,743.880972,74388097.211594,0,-1.000000,""
197_updated,w0,python3action_facedetection_SampleVideo_30mb_gemini,368.149798,1,2000.000000,1,COMPLETED_SUCCESSFULLY,398.654511,375.261515,773.916026,30.504713,405.766228,1.081289,6,-1.000000,""
197,w0,python3action_facedetection_SampleVideo_30mb,0.000000,1,-1.000000,1,COMPLETED_SUCCESSFULLY,773.916041,0.000010,773.916051,773.916041,773.916051,77391605.117033,6,-1.000000,""
137_updated,w0,python3action_floatoperation_100000000_neowise,743.885962,1,2000.000000,1,COMPLETED_SUCCESSFULLY,743.890977,64.600001,808.490978,0.005015,64.605016,1.000078,0,-1.000000,""
137,w0,python3action_floatoperation_100000000,0.000000,1,-1.000000,1,COMPLETED_SUCCESSFULLY,808.490993,0.000010,808.491003,808.490993,808.491003,80849100.311594,0,-1.000000,""
131_updated,w0,python3action_floatoperation_200000000_neowise,708.104531,1,2000.000000,1,COMPLETED_SUCCESSFULLY,708.109546,129.200002,837.309548,0.005015,129.205017,1.000039,1,-1.000000,""
131,w0,python3action_floatoperation_200000000,0.000000,1,-1.000000,1,COMPLETED_SUCCESSFULLY,837.309563,0.000010,837.309573,837.309563,837.309573,83730957.322787,1,-1.000000,""
9_updated,w0,python3action_facedetection_SampleVideo_30mb_nova,677.317066,1,2000.000000,1,COMPLETED_SUCCESSFULLY,677.322081,160.399990,837.722071,0.005015,160.405005,1.000031,9,-1.000000,""
9,w0,python3action_facedetection_SampleVideo_30mb,0.000000,1,-1.000000,1,COMPLETED_SUCCESSFULLY,837.722086,0.000010,837.722096,837.722086,837.722096,83772209.623505,9,-1.000000,""
python3action_linpack_job92_56,w0,python3action_linpack_reduced_0.85,837.727086,1,2000.000000,1,COMPLETED_SUCCESSFULLY,837.732101,0.000000,837.732101,0.005015,0.005015,689256628.640625,9,-1.000000,""
148_updated,w0,python3action_videoprocessing_SampleVideo_30mb_neowise,837.314563,1,2000.000000,1,COMPLETED_SUCCESSFULLY,837.319578,92.799998,930.119576,0.005015,92.805013,1.000054,1,-1.000000,""
148,w0,python3action_videoprocessing_SampleVideo_30mb,0.000000,1,-1.000000,1,COMPLETED_SUCCESSFULLY,930.119591,0.000010,930.119601,930.119591,930.119601,93011960.100201,1,-1.000000,""
python3action_facedetection_job152_57,w0,python3action_facedetection_reduced_2.74,930.124591,1,2000.000000,1,COMPLETED_SUCCESSFULLY,930.129606,0.000000,930.129606,0.005015,0.005015,900253555.469388,1,-1.000000,""
142_updated,w0,python3action_pyaes_4000_neowise,808.495993,1,2000.000000,1,COMPLETED_SUCCESSFULLY,808.501008,128.200002,936.701010,0.005015,128.205017,1.000039,0,-1.000000,""
142,w0,python3action_pyaes_4000,0.000000,1,-1.000000,1,COMPLETED_SUCCESSFULLY,936.701025,0.000010,936.701035,936.701025,936.701035,93670103.522787,0,-1.000000,""
199_updated,w0,python3action_videoprocessing_SampleVideo_50mb_yeti,256.955621,1,2000.000000,1,COMPLETED_SUCCESSFULLY,287.460334,686.386021,973.846355,30.504713,716.890734,1.044443,8,-1.000000,""
199,w0,python3action_videoprocessing_SampleVideo_50mb,0.000000,1,-1.000000,1,COMPLETED_SUCCESSFULLY,973.846370,0.000010,973.846380,973.846370,973.846380,97384638.000201,8,-1.000000,""
python3action_facedetection_job24_58,w0,python3action_facedetection_reduced_0.91,973.851370,1,2000.000000,1,COMPLETED_SUCCESSFULLY,973.856385,0.000000,973.856385,0.005015,0.005015,1131087800.205128,8,-1.000000,""
67_updated,w0,python3action_chameleon_3000_nova,331.522038,1,2000.000000,1,COMPLETED_SUCCESSFULLY,333.662026,662.200020,995.862046,2.139988,664.340008,1.003232,10,-1.000000,""
67,w0,python3action_chameleon_3000,0.000000,1,-1.000000,1,COMPLETED_SUCCESSFULLY,995.862061,0.000010,995.862071,995.862061,995.862071,99586207.100201,10,-1.000000,""
python3action_linpack_job95_59,w0,python3action_linpack_reduced_0.85,995.867061,1,2000.000000,1,COMPLETED_SUCCESSFULLY,995.872076,0.000000,995.872076,0.005015,0.005015,689256628.640625,10,-1.000000,""
158_updated,w0,python3action_floatoperation_100000000_neowise,936.706025,1,2000.000000,1,COMPLETED_SUCCESSFULLY,936.711040,64.600001,1001.311041,0.005015,64.605016,1.000078,0,-1.000000,""
158,w0,python3action_floatoperation_100000000,0.000000,1,-1.000000,1,COMPLETED_SUCCESSFULLY,1001.311056,0.000010,1001.311066,1001.311056,1001.311066,100131106.611594,0,-1.000000,""
95_updated,w0,python3action_linpack_5000_nova,995.867061,1,2000.000000,1,COMPLETED_SUCCESSFULLY,995.872106,34.600010,1030.472116,0.005045,34.605055,1.000146,10,-1.000000,""
95,w0,python3action_linpack_5000,0.000000,1,-1.000000,1,COMPLETED_SUCCESSFULLY,1030.472131,0.000010,1030.472141,1030.472131,1030.472141,103047214.100201,10,-1.000000,""
python3action_floatoperation_job126_60,w0,python3action_floatoperation,1030.477131,1,2000.000000,1,COMPLETED_SUCCESSFULLY,1030.482146,2.439945,1032.922091,0.005015,2.444960,1.002055,10,-1.000000,""
29_updated,w0,python3action_linpack_6000_troll,490.373598,1,2000.000000,1,COMPLETED_SUCCESSFULLY,490.378613,620.708201,1111.086814,0.005015,620.713216,1.000008,7,-1.000000,""
29,w0,python3action_linpack_6000,0.000000,1,-1.000000,1,COMPLETED_SUCCESSFULLY,1111.086829,0.000010,1111.086839,1111.086829,1111.086839,111108683.904929,7,-1.000000,""
python3action_floatoperation_job34_61,w0,python3action_floatoperation,1111.091829,1,2000.000000,1,COMPLETED_SUCCESSFULLY,1111.096844,2.439945,1113.536789,0.005015,2.444960,1.002055,7,-1.000000,""
92_updated,w0,python3action_linpack_6000_nova,837.727086,1,2000.000000,1,COMPLETED_SUCCESSFULLY,837.732131,276.000000,1113.732131,0.005045,276.005045,1.000018,9,-1.000000,""
92,w0,python3action_linpack_6000,0.000000,1,-1.000000,1,COMPLETED_SUCCESSFULLY,1113.732146,0.000010,1113.732156,1113.732146,1113.732156,111373215.600803,9,-1.000000,""
python3action_modeltraining_job130_62,w0,python3action_modeltraining_reduced_1.94,1113.737146,1,2000.000000,1,COMPLETED_SUCCESSFULLY,1113.742161,0.000000,1113.742161,0.005015,0.005015,102587033.953488,9,-1.000000,""
152_updated,w0,python3action_facedetection_SampleVideo_50mb_neowise,930.124591,1,2000.000000,1,COMPLETED_SUCCESSFULLY,930.129636,196.399999,1126.529635,0.005045,196.405044,1.000026,1,-1.000000,""
152,w0,python3action_facedetection_SampleVideo_50mb,0.000000,1,-1.000000,1,COMPLETED_SUCCESSFULLY,1126.529650,0.000010,1126.529660,1126.529650,1126.529660,112652966.000201,1,-1.000000,""
22_updated,w0,python3action_pyaes_4000_gemini,773.921041,1,2000.000000,1,COMPLETED_SUCCESSFULLY,773.926056,365.007620,1138.933676,0.005015,365.012635,1.000014,6,-1.000000,""
22,w0,python3action_pyaes_4000,0.000000,1,-1.000000,1,COMPLETED_SUCCESSFULLY,1138.933691,0.000010,1138.933701,1138.933691,1138.933701,113893370.100201,6,-1.000000,""
python3action_modeltraining_job28_63,w0,python3action_modeltraining_reduced_0.94,1138.938691,1,2000.000000,1,COMPLETED_SUCCESSFULLY,1138.943706,0.000000,1138.943706,0.005015,0.005015,1696631699.846154,6,-1.000000,""
163_updated,w0,python3action_facedetection_SampleVideo_30mb_neowise,1001.316056,1,2000.000000,1,COMPLETED_SUCCESSFULLY,1001.321071,162.200002,1163.521073,0.005015,162.205017,1.000031,0,-1.000000,""
163,w0,python3action_facedetection_SampleVideo_30mb,0.000000,1,-1.000000,1,COMPLETED_SUCCESSFULLY,1163.521088,0.000010,1163.521098,1163.521088,1163.521098,116352109.822787,0,-1.000000,""
10_updated,w0,python3action_imageprocessing_SampleImage_60mb_neowise,1126.534650,1,2000.000000,1,COMPLETED_SUCCESSFULLY,1126.539665,37.500000,1164.039665,0.005015,37.505015,1.000134,1,-1.000000,""
10,w0,python3action_imageprocessing_SampleImage_60mb,0.000000,1,-1.000000,1,COMPLETED_SUCCESSFULLY,1164.039680,0.000010,1164.039690,1164.039680,1164.039690,116403969.000402,1,-1.000000,""
126_updated,w0,python3action_floatoperation_200000000_nova,1030.477131,1,2000.000000,1,COMPLETED_SUCCESSFULLY,1032.922106,135.399990,1168.322097,2.444975,137.844966,1.018057,10,-1.000000,""
126,w0,python3action_floatoperation_200000000,0.000000,1,-1.000000,1,COMPLETED_SUCCESSFULLY,1168.322112,0.000010,1168.322122,1168.322112,1168.322122,116832212.200201,10,-1.000000,""
python3action_image_processing_job136_64,w0,python3action_image_processing_reduced_1.73,1168.327112,1,2000.000000,1,COMPLETED_SUCCESSFULLY,1168.332127,0.000000,1168.332127,0.005015,0.005015,102587033.953488,10,-1.000000,""
130_updated,w0,python3action_modeltraining_reviews100mb_nova,1113.737146,1,2000.000000,1,COMPLETED_SUCCESSFULLY,1113.742191,79.600010,1193.342201,0.005045,79.605055,1.000063,9,-1.000000,""
130,w0,python3action_modeltraining_reviews100mb,0.000000,1,-1.000000,1,COMPLETED_SUCCESSFULLY,1193.342216,0.000010,1193.342226,1193.342216,1193.342226,119334222.600201,9,-1.000000,""
103_updated,w0,python3action_floatoperation_100000000_neowise,1164.044680,1,2000.000000,1,COMPLETED_SUCCESSFULLY,1164.049695,64.600001,1228.649696,0.005015,64.605016,1.000078,1,-1.000000,""
103,w0,python3action_floatoperation_100000000,0.000000,1,-1.000000,1,COMPLETED_SUCCESSFULLY,1228.649711,0.000010,1228.649721,1228.649711,1228.649721,122864972.111594,1,-1.000000,""
34_updated,w0,python3action_floatoperation_100000000_troll,1111.091829,1,2000.000000,1,COMPLETED_SUCCESSFULLY,1113.536804,125.863576,1239.400381,2.444975,128.308552,1.019426,7,-1.000000,""
34,w0,python3action_floatoperation_100000000,0.000000,1,-1.000000,1,COMPLETED_SUCCESSFULLY,1239.400396,0.000010,1239.400406,1239.400396,1239.400406,123940040.600201,7,-1.000000,""
28_updated,w0,python3action_modeltraining_reviews50mb_gemini,1138.938691,1,2000.000000,1,COMPLETED_SUCCESSFULLY,1138.943736,105.905778,1244.849514,0.005045,105.910823,1.000048,6,-1.000000,""
28,w0,python3action_modeltraining_reviews50mb,0.000000,1,-1.000000,1,COMPLETED_SUCCESSFULLY,1244.849529,0.000010,1244.849539,1244.849529,1244.849539,124484953.935024,6,-1.000000,""
python3action_chameleon_job33_65,w0,python3action_chameleon_reduced_0.85,1244.854529,1,2000.000000,1,COMPLETED_SUCCESSFULLY,1244.859544,0.320244,1245.179788,0.005015,0.325259,1.015660,6,-1.000000,""
87_updated,w0,python3action_linpack_6000_nova,595.621338,1,2000.000000,1,COMPLETED_SUCCESSFULLY,595.626383,651.660477,1247.286860,0.005045,651.665522,1.000008,12,-1.000000,""
87,w0,python3action_linpack_6000,0.000000,1,-1.000000,1,COMPLETED_SUCCESSFULLY,1247.286875,0.000010,1247.286885,1247.286875,1247.286885,124728688.546161,12,-1.000000,""
python3action_floatoperation_job147_66,w0,python3action_floatoperation,1247.291875,1,2000.000000,1,COMPLETED_SUCCESSFULLY,1247.296890,5.760927,1253.057817,0.005015,5.765942,1.000871,12,-1.000000,""
141_updated,w0,python3action_floatoperation_100000000_nova,1193.347216,1,2000.000000,1,COMPLETED_SUCCESSFULLY,1193.352231,66.200020,1259.552251,0.005015,66.205035,1.000076,9,-1.000000,""
141,w0,python3action_floatoperation_100000000,0.000000,1,-1.000000,1,COMPLETED_SUCCESSFULLY,1259.552266,0.000010,1259.552276,1259.552266,1259.552276,125955227.600201,9,-1.000000,""
python3action_image_processing_job151_67,w0,python3action_image_processing_reduced_2.59,1259.557266,1,2000.000000,1,COMPLETED_SUCCESSFULLY,1259.562281,0.000000,1259.562281,0.005015,0.005015,102587033.948837,9,-1.000000,""
136_updated,w0,python3action_imageprocessing_SampleImage_60mb_nova,1168.327112,1,2000.000000,1,COMPLETED_SUCCESSFULLY,1168.332157,103.750012,1272.082169,0.005045,103.755057,1.000049,10,-1.000000,""
136,w0,python3action_imageprocessing_SampleImage_60mb,0.000000,1,-1.000000,1,COMPLETED_SUCCESSFULLY,1272.082184,0.000010,1272.082194,1272.082184,1272.082194,127208219.421924,10,-1.000000,""
100_updated,w0,python3action_linpack_6000_neowise,1163.526088,1,2000.000000,1,COMPLETED_SUCCESSFULLY,1163.531103,108.600001,1272.131104,0.005015,108.605016,1.000046,0,-1.000000,""
100,w0,python3action_linpack_6000,0.000000,1,-1.000000,1,COMPLETED_SUCCESSFULLY,1272.131119,0.000010,1272.131129,1272.131119,1272.131129,127213112.911594,0,-1.000000,""
151_updated,w0,python3action_imageprocessing_SampleImage_40mb_nova,1259.557266,1,2000.000000,1,COMPLETED_SUCCESSFULLY,1259.562311,36.000000,1295.562311,0.005045,36.005045,1.000140,9,-1.000000,""
151,w0,python3action_imageprocessing_SampleImage_40mb,0.000000,1,-1.000000,1,COMPLETED_SUCCESSFULLY,1295.562326,0.000010,1295.562336,1295.562326,1295.562336,129556233.600803,9,-1.000000,""
33_updated,w0,python3action_chameleon_2000_gemini,1244.854529,1,2000.000000,1,COMPLETED_SUCCESSFULLY,1245.179803,85.704098,1330.883901,0.325274,86.029372,1.003795,6,-1.000000,""
33,w0,python3action_chameleon_2000,0.000000,1,-1.000000,1,COMPLETED_SUCCESSFULLY,1330.883916,0.000010,1330.883926,1330.883916,1330.883926,133088392.608441,6,-1.000000,""
python3action_image_processing_job39_68,w0,python3action_image_processing_reduced_1.73,1330.888916,1,2000.000000,1,COMPLETED_SUCCESSFULLY,1330.893931,0.000000,1330.893931,0.005015,0.005015,102587033.953488,6,-1.000000,""
180_updated,w0,python3action_pyaes_3000_neowise,1272.136119,1,2000.000000,1,COMPLETED_SUCCESSFULLY,1272.141134,72.500000,1344.641134,0.005015,72.505015,1.000069,0,-1.000000,""
180,w0,python3action_pyaes_3000,0.000000,1,-1.000000,1,COMPLETED_SUCCESSFULLY,1344.641149,0.000010,1344.641159,1344.641149,1344.641159,134464115.900402,0,-1.000000,""
184_updated,w0,python3action_linpack_5000_neowise,1344.646149,1,2000.000000,1,COMPLETED_SUCCESSFULLY,1344.651164,20.750000,1365.401164,0.005015,20.755015,1.000242,0,-1.000000,""
184,w0,python3action_linpack_5000,0.000000,1,-1.000000,1,COMPLETED_SUCCESSFULLY,1365.401179,0.000010,1365.401189,1365.401179,1365.401189,136540118.900402,0,-1.000000,""
python3action_video_processing_job111_69,w0,python3action_video_processing_reduced_1.89,1365.406179,1,2000.000000,1,COMPLETED_SUCCESSFULLY,1365.411194,0.000000,1365.411194,0.005015,0.005015,919008837.875000,0,-1.000000,""
157_updated,w0,python3action_imageprocessing_SampleImage_60mb_nova,1272.087184,1,2000.000000,1,COMPLETED_SUCCESSFULLY,1272.092199,103.750012,1375.842211,0.005015,103.755027,1.000048,10,-1.000000,""
157,w0,python3action_imageprocessing_SampleImage_60mb,0.000000,1,-1.000000,1,COMPLETED_SUCCESSFULLY,1375.842226,0.000010,1375.842236,1375.842226,1375.842236,137584223.621522,10,-1.000000,""
python3action_pyaes_job167_70,w0,python3action_pyaes_reduced_1.7,1375.847226,1,2000.000000,1,COMPLETED_SUCCESSFULLY,1375.852241,0.000000,1375.852241,0.005015,0.005015,102587033.953488,10,-1.000000,""
4_updated,w0,python3action_imageprocessing_SampleImage_60mb_troll,1239.405396,1,2000.000000,1,COMPLETED_SUCCESSFULLY,1239.410411,152.512187,1391.922598,0.005015,152.517202,1.000033,7,-1.000000,""
4,w0,python3action_imageprocessing_SampleImage_60mb,0.000000,1,-1.000000,1,COMPLETED_SUCCESSFULLY,1391.922613,0.000010,1391.922623,1391.922613,1391.922623,139192262.300201,7,-1.000000,""
python3action_facedetection_job44_71,w0,python3action_facedetection_reduced_0.91,1391.927613,1,2000.000000,1,COMPLETED_SUCCESSFULLY,1391.932628,0.000000,1391.932628,0.005015,0.005015,1160853268.631579,7,-1.000000,""
177_updated,w0,python3action_videoprocessing_SampleVideo_50mb_neowise,1228.654711,1,2000.000000,1,COMPLETED_SUCCESSFULLY,1228.659726,164.799998,1393.459724,0.005015,164.805013,1.000030,1,-1.000000,""
177,w0,python3action_videoprocessing_SampleVideo_50mb,0.000000,1,-1.000000,1,COMPLETED_SUCCESSFULLY,1393.459739,0.000010,1393.459749,1393.459739,1393.459749,139345974.900201,1,-1.000000,""
39_updated,w0,python3action_imageprocessing_SampleImage_40mb_gemini,1330.888916,1,2000.000000,1,COMPLETED_SUCCESSFULLY,1330.893961,83.255410,1414.149371,0.005045,83.260455,1.000061,6,-1.000000,""
39,w0,python3action_imageprocessing_SampleImage_40mb,0.000000,1,-1.000000,1,COMPLETED_SUCCESSFULLY,1414.149386,0.000010,1414.149396,1414.149386,1414.149396,141414939.600201,6,-1.000000,""
162_updated,w0,python3action_videoprocessing_SampleVideo_50mb_nova,1295.567326,1,2000.000000,1,COMPLETED_SUCCESSFULLY,1295.572341,139.600010,1435.172351,0.005015,139.605025,1.000036,9,-1.000000,""
162,w0,python3action_videoprocessing_SampleVideo_50mb,0.000000,1,-1.000000,1,COMPLETED_SUCCESSFULLY,1435.172366,0.000010,1435.172376,1435.172366,1435.172376,143517237.600201,9,-1.000000,""
167_updated,w0,python3action_pyaes_3000_nova,1375.847226,1,2000.000000,1,COMPLETED_SUCCESSFULLY,1375.852271,78.200020,1454.052291,0.005045,78.205065,1.000065,10,-1.000000,""
167,w0,python3action_pyaes_3000,0.000000,1,-1.000000,1,COMPLETED_SUCCESSFULLY,1454.052306,0.000010,1454.052316,1454.052306,1454.052316,145405231.600201,10,-1.000000,""
111_updated,w0,python3action_videoprocessing_SampleVideo_30mb_neowise,1365.406179,1,2000.000000,1,COMPLETED_SUCCESSFULLY,1365.411224,92.799998,1458.211222,0.005045,92.805043,1.000054,0,-1.000000,""
111,w0,python3action_videoprocessing_SampleVideo_30mb,0.000000,1,-1.000000,1,COMPLETED_SUCCESSFULLY,1458.211237,0.000010,1458.211247,1458.211237,1458.211247,145821124.700201,0,-1.000000,""
17_updated,w0,python3action_linpack_5000_nova,1435.177366,1,2000.000000,1,COMPLETED_SUCCESSFULLY,1435.182381,34.600010,1469.782391,0.005015,34.605025,1.000145,9,-1.000000,""
17,w0,python3action_linpack_5000,0.000000,1,-1.000000,1,COMPLETED_SUCCESSFULLY,1469.782406,0.000010,1469.782416,1469.782406,1469.782416,146978241.600201,9,-1.000000,""
176_updated,w0,python3action_modeltraining_reviews100mb_nova,1469.787406,1,2000.000000,1,COMPLETED_SUCCESSFULLY,1469.792421,79.600010,1549.392431,0.005015,79.605025,1.000063,9,-1.000000,""
176,w0,python3action_modeltraining_reviews100mb,0.000000,1,-1.000000,1,COMPLETED_SUCCESSFULLY,1549.392446,0.000010,1549.392456,1549.392446,1549.392456,154939245.600201,9,-1.000000,""
python3action_chameleon_job106_72,w0,python3action_chameleon_reduced_1.7,1549.397446,1,2000.000000,1,COMPLETED_SUCCESSFULLY,1549.402461,0.000000,1549.402461,0.005015,0.005015,102587033.953488,9,-1.000000,""
25_updated,w0,python3action_chameleon_3000_nova,0.997085,1,2000.000000,1,COMPLETED_SUCCESSFULLY,6.043106,1563.512974,1569.556080,5.046021,1568.558995,1.003227,11,-1.000000,""
25,w0,python3action_chameleon_3000,0.000000,1,-1.000000,1,COMPLETED_SUCCESSFULLY,1569.556095,0.000010,1569.556105,1569.556095,1569.556105,156955610.505318,11,-1.000000,""
147_updated,w0,python3action_floatoperation_200000000_nova,1247.291875,1,2000.000000,1,COMPLETED_SUCCESSFULLY,1253.057832,319.691385,1572.749217,5.765957,325.457342,1.018036,12,-1.000000,""
147,w0,python3action_floatoperation_200000000,0.000000,1,-1.000000,1,COMPLETED_SUCCESSFULLY,1572.749232,0.000010,1572.749242,1572.749232,1572.749242,157274924.231141,12,-1.000000,""
python3action_floatoperation_job109_73,w0,python3action_floatoperation,1569.561095,1,2000.000000,1,COMPLETED_SUCCESSFULLY,1569.566110,5.760927,1575.327037,0.005015,5.765942,1.000871,11,-1.000000,""
43_updated,w0,python3action_imageprocessing_SampleImage_60mb_gemini,1414.154386,1,2000.000000,1,COMPLETED_SUCCESSFULLY,1414.159401,162.837786,1576.997187,0.005015,162.842801,1.000031,6,-1.000000,""
43,w0,python3action_imageprocessing_SampleImage_60mb,0.000000,1,-1.000000,1,COMPLETED_SUCCESSFULLY,1576.997202,0.000010,1576.997212,1576.997202,1576.997212,157699721.235677,6,-1.000000,""
python3action_video_processing_job48_74,w0,python3action_video_processing_reduced_2.8,1577.002202,1,2000.000000,1,COMPLETED_SUCCESSFULLY,1577.007217,0.000000,1577.007217,0.005015,0.005015,102587033.953488,6,-1.000000,""
172_updated,w0,python3action_videoprocessing_SampleVideo_50mb_nova,1454.057306,1,2000.000000,1,COMPLETED_SUCCESSFULLY,1454.062321,139.600010,1593.662331,0.005015,139.605025,1.000036,10,-1.000000,""
172,w0,python3action_videoprocessing_SampleVideo_50mb,0.000000,1,-1.000000,1,COMPLETED_SUCCESSFULLY,1593.662346,0.000010,1593.662356,1593.662346,1593.662356,159366235.600201,10,-1.000000,""
24_updated,w0,python3action_facedetection_SampleVideo_50mb_yeti,973.851370,1,2000.000000,1,COMPLETED_SUCCESSFULLY,973.856415,707.910321,1681.766736,0.005045,707.915366,1.000007,8,-1.000000,""
24,w0,python3action_facedetection_SampleVideo_50mb,0.000000,1,-1.000000,1,COMPLETED_SUCCESSFULLY,1681.766751,0.000010,1681.766761,1681.766751,1681.766761,168176676.100201,8,-1.000000,""
109_updated,w0,python3action_floatoperation_100000000_nova,1569.561095,1,2000.000000,1,COMPLETED_SUCCESSFULLY,1575.327052,156.304117,1731.631169,5.765957,162.070074,1.036889,11,-1.000000,""
109,w0,python3action_floatoperation_100000000,0.000000,1,-1.000000,1,COMPLETED_SUCCESSFULLY,1731.631184,0.000010,1731.631194,1731.631184,1731.631194,173163119.440690,11,-1.000000,""
187_updated,w0,python3action_modeltraining_reviews100mb_nova,1572.754232,1,2000.000000,1,COMPLETED_SUCCESSFULLY,1572.759247,187.942683,1760.701930,0.005015,187.947698,1.000027,12,-1.000000,""
187,w0,python3action_modeltraining_reviews100mb,0.000000,1,-1.000000,1,COMPLETED_SUCCESSFULLY,1760.701945,0.000010,1760.701955,1760.701945,1760.701955,176070195.500201,12,-1.000000,""
56_updated,w0,python3action_chameleon_3000_nova,267.865584,1,2000.000000,1,COMPLETED_SUCCESSFULLY,272.911440,1563.512974,1836.424414,5.045856,1568.558830,1.003227,13,-1.000000,""
56,w0,python3action_chameleon_3000,0.000000,1,-1.000000,1,COMPLETED_SUCCESSFULLY,1836.424429,0.000010,1836.424439,1836.424429,1836.424439,183642443.928610,13,-1.000000,""
44_updated,w0,python3action_facedetection_SampleVideo_50mb_troll,1391.927613,1,2000.000000,1,COMPLETED_SUCCESSFULLY,1391.932658,713.363454,2105.296112,0.005045,713.368499,1.000007,7,-1.000000,""
44,w0,python3action_facedetection_SampleVideo_50mb,0.000000,1,-1.000000,1,COMPLETED_SUCCESSFULLY,2105.296127,0.000010,2105.296137,2105.296127,2105.296137,210529613.731370,7,-1.000000,""
python3action_pyaes_job49_75,w0,python3action_pyaes_reduced_1.7,2105.301127,1,2000.000000,1,COMPLETED_SUCCESSFULLY,2105.306142,0.000000,2105.306142,0.005015,0.005015,103066412.616822,7,-1.000000,""
106_updated,w0,python3action_chameleon_3000_nova,1549.397446,1,2000.000000,1,COMPLETED_SUCCESSFULLY,1549.402491,662.200020,2211.602511,0.005045,662.205065,1.000008,9,-1.000000,""
106,w0,python3action_chameleon_3000,0.000000,1,-1.000000,1,COMPLETED_SUCCESSFULLY,2211.602526,0.000010,2211.602536,2211.602526,2211.602536,221160253.600201,9,-1.000000,""
49_updated,w0,python3action_pyaes_3000_troll,2105.301127,1,2000.000000,1,COMPLETED_SUCCESSFULLY,2105.306172,140.622820,2245.928992,0.005045,140.627865,1.000036,7,-1.000000,""
49,w0,python3action_pyaes_3000,0.000000,1,-1.000000,1,COMPLETED_SUCCESSFULLY,2245.929007,0.000010,2245.929017,2245.929007,2245.929017,224592901.730794,7,-1.000000,""
48_updated,w0,python3action_videoprocessing_SampleVideo_50mb_gemini,1577.002202,1,2000.000000,1,COMPLETED_SUCCESSFULLY,1577.007247,760.623895,2337.631142,0.005045,760.628940,1.000007,6,-1.000000,""
48,w0,python3action_videoprocessing_SampleVideo_50mb,0.000000,1,-1.000000,1,COMPLETED_SUCCESSFULLY,2337.631157,0.000010,2337.631167,2337.631157,2337.631167,233763116.700201,6,-1.000000,""
54_updated,w0,python3action_floatoperation_100000000_troll,2245.934007,1,2000.000000,1,COMPLETED_SUCCESSFULLY,2245.939022,125.863576,2371.802598,0.005015,125.868591,1.000040,7,-1.000000,""
54,w0,python3action_floatoperation_100000000,0.000000,1,-1.000000,1,COMPLETED_SUCCESSFULLY,2371.802613,0.000010,2371.802623,2371.802613,2371.802623,237180262.342174,7,-1.000000,""
3_updated,w0,python3action_facedetection_SampleVideo_50mb_yeti,1681.771751,1,2000.000000,1,COMPLETED_SUCCESSFULLY,1681.776766,707.910321,2389.687087,0.005015,707.915336,1.000007,8,-1.000000,""
3,w0,python3action_facedetection_SampleVideo_50mb,0.000000,1,-1.000000,1,COMPLETED_SUCCESSFULLY,2389.687102,0.000010,2389.687112,2389.687102,2389.687112,238968711.200201,8,-1.000000,""
python3action_pyaes_job35_76,w0,python3action_pyaes,2389.692102,1,2000.000000,1,COMPLETED_SUCCESSFULLY,2389.697117,2.134958,2391.832075,0.005015,2.139973,1.002349,8,-1.000000,""
53_updated,w0,python3action_modeltraining_reviews50mb_gemini,2337.636157,1,2000.000000,1,COMPLETED_SUCCESSFULLY,2337.641172,105.905778,2443.546950,0.005015,105.910793,1.000047,6,-1.000000,""
53,w0,python3action_modeltraining_reviews50mb,0.000000,1,-1.000000,1,COMPLETED_SUCCESSFULLY,2443.546965,0.000010,2443.546975,2443.546965,2443.546975,244354697.534623,6,-1.000000,""
59_updated,w0,python3action_modeltraining_reviews100mb_gemini,2443.551965,1,2000.000000,1,COMPLETED_SUCCESSFULLY,2443.556980,189.773360,2633.330340,0.005015,189.778375,1.000026,6,-1.000000,""
59,w0,python3action_modeltraining_reviews100mb,0.000000,1,-1.000000,1,COMPLETED_SUCCESSFULLY,2633.330355,0.000010,2633.330365,2633.330355,2633.330365,263333036.503919,6,-1.000000,""
python3action_floatoperation_job64_77,w0,python3action_floatoperation,2633.335355,1,2000.000000,1,COMPLETED_SUCCESSFULLY,2633.340370,2.439945,2635.780315,0.005015,2.444960,1.002055,6,-1.000000,""
35_updated,w0,python3action_pyaes_4000_yeti,2389.692102,1,2000.000000,1,COMPLETED_SUCCESSFULLY,2391.832090,252.312656,2644.144746,2.139988,254.452644,1.008481,8,-1.000000,""
35,w0,python3action_pyaes_4000,0.000000,1,-1.000000,1,COMPLETED_SUCCESSFULLY,2644.144761,0.000010,2644.144771,2644.144761,2644.144771,264414477.100201,8,-1.000000,""
python3action_image_processing_job40_78,w0,python3action_image_processing_reduced_1.73,2644.149761,1,2000.000000,1,COMPLETED_SUCCESSFULLY,2644.154776,0.000000,2644.154776,0.005015,0.005015,103066412.607477,8,-1.000000,""
40_updated,w0,python3action_imageprocessing_SampleImage_40mb_yeti,2644.149761,1,2000.000000,1,COMPLETED_SUCCESSFULLY,2644.154806,86.495824,2730.650630,0.005045,86.500869,1.000058,8,-1.000000,""
40,w0,python3action_imageprocessing_SampleImage_40mb,0.000000,1,-1.000000,1,COMPLETED_SUCCESSFULLY,2730.650645,0.000010,2730.650655,2730.650645,2730.650655,273065065.500201,8,-1.000000,""
64_updated,w0,python3action_floatoperation_200000000_gemini,2633.335355,1,2000.000000,1,COMPLETED_SUCCESSFULLY,2635.780330,348.325941,2984.106272,2.444975,350.770917,1.007019,6,-1.000000,""
64,w0,python3action_floatoperation_200000000,0.000000,1,-1.000000,1,COMPLETED_SUCCESSFULLY,2984.106287,0.000010,2984.106297,2984.106287,2984.106297,298410629.700201,6,-1.000000,""
6_updated,w0,python3action_facedetection_SampleVideo_50mb_troll,2371.807613,1,2000.000000,1,COMPLETED_SUCCESSFULLY,2371.812628,713.363454,3085.176082,0.005015,713.368469,1.000007,7,-1.000000,""
6,w0,python3action_facedetection_SampleVideo_50mb,0.000000,1,-1.000000,1,COMPLETED_SUCCESSFULLY,3085.176097,0.000010,3085.176107,3085.176097,3085.176107,308517610.730970,7,-1.000000,""
65_updated,w0,python3action_chameleon_2000_troll,3085.181097,1,2000.000000,1,COMPLETED_SUCCESSFULLY,3085.186112,97.165047,3182.351159,0.005015,97.170062,1.000052,7,-1.000000,""
65,w0,python3action_chameleon_2000,0.000000,1,-1.000000,1,COMPLETED_SUCCESSFULLY,3182.351174,0.000010,3182.351184,3182.351174,3182.351184,318235118.400201,7,-1.000000,""
45_updated,w0,python3action_videoprocessing_SampleVideo_30mb_yeti,2730.655645,1,2000.000000,1,COMPLETED_SUCCESSFULLY,2730.660660,493.464514,3224.125174,0.005015,493.469529,1.000010,8,-1.000000,""
45,w0,python3action_videoprocessing_SampleVideo_30mb,0.000000,1,-1.000000,1,COMPLETED_SUCCESSFULLY,3224.125189,0.000010,3224.125199,3224.125189,3224.125199,322412519.924228,8,-1.000000,""
7_updated,w0,python3action_facedetection_SampleVideo_30mb_gemini,2984.111287,1,2000.000000,1,COMPLETED_SUCCESSFULLY,2984.116302,375.261515,3359.377817,0.005015,375.266530,1.000013,6,-1.000000,""
7,w0,python3action_facedetection_SampleVideo_30mb,0.000000,1,-1.000000,1,COMPLETED_SUCCESSFULLY,3359.377832,0.000010,3359.377842,3359.377832,3359.377842,335937784.217034,6,-1.000000,""
75_updated,w0,python3action_pyaes_3000_gemini,3359.382832,1,2000.000000,1,COMPLETED_SUCCESSFULLY,3359.387847,202.016803,3561.404650,0.005015,202.021818,1.000025,6,-1.000000,""
75,w0,python3action_pyaes_3000,0.000000,1,-1.000000,1,COMPLETED_SUCCESSFULLY,3561.404665,0.000010,3561.404675,3561.404665,3561.404675,356140467.500201,6,-1.000000,""
python3action_linpack_job80_79,w0,python3action_linpack_reduced_1.7,3561.409665,1,2000.000000,1,COMPLETED_SUCCESSFULLY,3561.414680,0.000000,3561.414680,0.005015,0.005015,103066412.607477,6,-1.000000,""
80_updated,w0,python3action_linpack_5000_gemini,3561.409665,1,2000.000000,1,COMPLETED_SUCCESSFULLY,3561.414710,91.213647,3652.628357,0.005045,91.218692,1.000055,6,-1.000000,""
80,w0,python3action_linpack_5000,0.000000,1,-1.000000,1,COMPLETED_SUCCESSFULLY,3652.628372,0.000010,3652.628382,3652.628372,3652.628382,365262838.225074,6,-1.000000,""
5_updated,w0,python3action_videoprocessing_SampleVideo_30mb_yeti,3224.130189,1,2000.000000,1,COMPLETED_SUCCESSFULLY,3224.135204,493.464514,3717.599718,0.005015,493.469529,1.000010,8,-1.000000,""
5,w0,python3action_videoprocessing_SampleVideo_30mb,0.000000,1,-1.000000,1,COMPLETED_SUCCESSFULLY,3717.599733,0.000010,3717.599743,3717.599733,3717.599743,371759974.324228,8,-1.000000,""
114_updated,w0,python3action_modeltraining_reviews100mb_gemini,3652.633372,1,2000.000000,1,COMPLETED_SUCCESSFULLY,3652.638387,189.773360,3842.411747,0.005015,189.778375,1.000026,6,-1.000000,""
114,w0,python3action_modeltraining_reviews100mb,0.000000,1,-1.000000,1,COMPLETED_SUCCESSFULLY,3842.411762,0.000010,3842.411772,3842.411762,3842.411772,384241177.203919,6,-1.000000,""
70_updated,w0,python3action_facedetection_SampleVideo_50mb_troll,3182.356174,1,2000.000000,1,COMPLETED_SUCCESSFULLY,3182.361189,713.363454,3895.724643,0.005015,713.368469,1.000007,7,-1.000000,""
70,w0,python3action_facedetection_SampleVideo_50mb,0.000000,1,-1.000000,1,COMPLETED_SUCCESSFULLY,3895.724658,0.000010,3895.724668,3895.724658,3895.724668,389572466.830969,7,-1.000000,""
117_updated,w0,python3action_facedetection_SampleVideo_30mb_gemini,3842.416762,1,2000.000000,1,COMPLETED_SUCCESSFULLY,3842.421777,375.261515,4217.683292,0.005015,375.266530,1.000013,6,-1.000000,""
117,w0,python3action_facedetection_SampleVideo_30mb,0.000000,1,-1.000000,1,COMPLETED_SUCCESSFULLY,4217.683307,0.000010,4217.683317,4217.683307,4217.683317,421768331.717033,6,-1.000000,""
55_updated,w0,python3action_facedetection_SampleVideo_30mb_yeti,3717.604733,1,2000.000000,1,COMPLETED_SUCCESSFULLY,3717.609748,620.218727,4337.828475,0.005015,620.223742,1.000008,8,-1.000000,""
55,w0,python3action_facedetection_SampleVideo_30mb,0.000000,1,-1.000000,1,COMPLETED_SUCCESSFULLY,4337.828490,0.000010,4337.828500,4337.828490,4337.828500,433782850.010801,8,-1.000000,""
12_updated,w0,python3action_floatoperation_200000000_gemini,4217.688307,1,2000.000000,1,COMPLETED_SUCCESSFULLY,4217.693322,348.325941,4566.019263,0.005015,348.330956,1.000014,6,-1.000000,""
12,w0,python3action_floatoperation_200000000,0.000000,1,-1.000000,1,COMPLETED_SUCCESSFULLY,4566.019278,0.000010,4566.019288,4566.019278,4566.019288,456601928.848792,6,-1.000000,""
76_updated,w0,python3action_facedetection_SampleVideo_50mb_troll,3895.729658,1,2000.000000,1,COMPLETED_SUCCESSFULLY,3895.734673,713.363454,4609.098127,0.005015,713.368469,1.000007,7,-1.000000,""
76,w0,python3action_facedetection_SampleVideo_50mb,0.000000,1,-1.000000,1,COMPLETED_SUCCESSFULLY,4609.098142,0.000010,4609.098152,4609.098142,4609.098152,460909815.230968,7,-1.000000,""
python3action_video_processing_job81_80,w0,python3action_video_processing_reduced_1.83,4609.103142,1,2000.000000,1,COMPLETED_SUCCESSFULLY,4609.108157,0.000000,4609.108157,0.005015,0.005015,102112093.981481,7,-1.000000,""
122_updated,w0,python3action_imageprocessing_SampleImage_60mb_gemini,4566.024278,1,2000.000000,1,COMPLETED_SUCCESSFULLY,4566.029293,162.837786,4728.867079,0.005015,162.842801,1.000031,6,-1.000000,""
122,w0,python3action_imageprocessing_SampleImage_60mb,0.000000,1,-1.000000,1,COMPLETED_SUCCESSFULLY,4728.867094,0.000010,4728.867104,4728.867094,4728.867104,472886710.435677,6,-1.000000,""
125_updated,w0,python3action_imageprocessing_SampleImage_40mb_gemini,4728.872094,1,2000.000000,1,COMPLETED_SUCCESSFULLY,4728.877109,83.255410,4812.132519,0.005015,83.260425,1.000060,6,-1.000000,""
125,w0,python3action_imageprocessing_SampleImage_40mb,0.000000,1,-1.000000,1,COMPLETED_SUCCESSFULLY,4812.132534,0.000010,4812.132544,4812.132534,4812.132544,481213254.400201,6,-1.000000,""
60_updated,w0,python3action_videoprocessing_SampleVideo_50mb_yeti,4337.833490,1,2000.000000,1,COMPLETED_SUCCESSFULLY,4337.838505,686.386021,5024.224526,0.005015,686.391036,1.000007,8,-1.000000,""
60,w0,python3action_videoprocessing_SampleVideo_50mb,0.000000,1,-1.000000,1,COMPLETED_SUCCESSFULLY,5024.224541,0.000010,5024.224551,5024.224541,5024.224551,502422455.100201,8,-1.000000,""
81_updated,w0,python3action_videoprocessing_SampleVideo_50mb_troll,4609.103142,1,2000.000000,1,COMPLETED_SUCCESSFULLY,4609.108187,704.015923,5313.124110,0.005045,704.020968,1.000007,7,-1.000000,""
81,w0,python3action_videoprocessing_SampleVideo_50mb,0.000000,1,-1.000000,1,COMPLETED_SUCCESSFULLY,5313.124125,0.000010,5313.124135,5313.124125,5313.124135,531312413.541935,7,-1.000000,""
python3action_modeltraining_job86_81,w0,python3action_modeltraining_reduced_2.88,5313.129125,1,2000.000000,1,COMPLETED_SUCCESSFULLY,5313.134140,0.000000,5313.134140,0.005015,0.005015,102112093.981481,7,-1.000000,""
86_updated,w0,python3action_modeltraining_reviews50mb_troll,5313.129125,1,2000.000000,1,COMPLETED_SUCCESSFULLY,5313.134170,69.696429,5382.830599,0.005045,69.701474,1.000072,7,-1.000000,""
86,w0,python3action_modeltraining_reviews50mb,0.000000,1,-1.000000,1,COMPLETED_SUCCESSFULLY,5382.830614,0.000010,5382.830624,5382.830614,5382.830624,538283062.445169,7,-1.000000,""
89_updated,w0,python3action_imageprocessing_SampleImage_40mb_troll,5382.835614,1,2000.000000,1,COMPLETED_SUCCESSFULLY,5382.840629,78.306013,5461.146642,0.005015,78.311028,1.000064,7,-1.000000,""
89,w0,python3action_imageprocessing_SampleImage_40mb,0.000000,1,-1.000000,1,COMPLETED_SUCCESSFULLY,5461.146657,0.000010,5461.146667,5461.146657,5461.146667,546114666.700201,7,-1.000000,""
128_updated,w0,python3action_videoprocessing_SampleVideo_50mb_gemini,4812.137534,1,2000.000000,1,COMPLETED_SUCCESSFULLY,4812.142549,760.623895,5572.766444,0.005015,760.628910,1.000007,6,-1.000000,""
128,w0,python3action_videoprocessing_SampleVideo_50mb,0.000000,1,-1.000000,1,COMPLETED_SUCCESSFULLY,5572.766459,0.000010,5572.766469,5572.766459,5572.766469,557276646.900201,6,-1.000000,""
91_updated,w0,python3action_pyaes_4000_troll,5461.151657,1,2000.000000,1,COMPLETED_SUCCESSFULLY,5461.156672,251.727104,5712.883776,0.005015,251.732119,1.000020,7,-1.000000,""
91,w0,python3action_pyaes_4000,0.000000,1,-1.000000,1,COMPLETED_SUCCESSFULLY,5712.883791,0.000010,5712.883801,5712.883791,5712.883801,571288380.100201,7,-1.000000,""
66_updated,w0,python3action_facedetection_SampleVideo_50mb_yeti,5024.229541,1,2000.000000,1,COMPLETED_SUCCESSFULLY,5024.234556,707.910321,5732.144877,0.005015,707.915336,1.000007,8,-1.000000,""
66,w0,python3action_facedetection_SampleVideo_50mb,0.000000,1,-1.000000,1,COMPLETED_SUCCESSFULLY,5732.144892,0.000010,5732.144902,5732.144892,5732.144902,573214490.200201,8,-1.000000,""
133_updated,w0,python3action_floatoperation_100000000_gemini,5572.771459,1,2000.000000,1,COMPLETED_SUCCESSFULLY,5572.776474,174.469057,5747.245531,0.005015,174.474072,1.000029,6,-1.000000,""
133,w0,python3action_floatoperation_100000000,0.000000,1,-1.000000,1,COMPLETED_SUCCESSFULLY,5747.245546,0.000010,5747.245556,5747.245546,5747.245556,574724555.600201,6,-1.000000,""
94_updated,w0,python3action_modeltraining_reviews50mb_troll,5712.888791,1,2000.000000,1,COMPLETED_SUCCESSFULLY,5712.893806,69.696429,5782.590235,0.005015,69.701444,1.000072,7,-1.000000,""
94,w0,python3action_modeltraining_reviews50mb,0.000000,1,-1.000000,1,COMPLETED_SUCCESSFULLY,5782.590250,0.000010,5782.590260,5782.590250,5782.590260,578259026.044767,7,-1.000000,""
97_updated,w0,python3action_pyaes_3000_troll,5782.595250,1,2000.000000,1,COMPLETED_SUCCESSFULLY,5782.600265,140.622820,5923.223085,0.005015,140.627835,1.000036,7,-1.000000,""
97,w0,python3action_pyaes_3000,0.000000,1,-1.000000,1,COMPLETED_SUCCESSFULLY,5923.223100,0.000010,5923.223110,5923.223100,5923.223110,592322311.030392,7,-1.000000,""
139_updated,w0,python3action_pyaes_3000_gemini,5747.250546,1,2000.000000,1,COMPLETED_SUCCESSFULLY,5747.255561,202.016803,5949.272364,0.005015,202.021818,1.000025,6,-1.000000,""
139,w0,python3action_pyaes_3000,0.000000,1,-1.000000,1,COMPLETED_SUCCESSFULLY,5949.272379,0.000010,5949.272389,5949.272379,5949.272389,594927238.900201,6,-1.000000,""
144_updated,w0,python3action_chameleon_3000_gemini,5949.277379,1,2000.000000,1,COMPLETED_SUCCESSFULLY,5949.282394,205.077663,6154.360057,0.005015,205.082678,1.000024,6,-1.000000,""
144,w0,python3action_chameleon_3000,0.000000,1,-1.000000,1,COMPLETED_SUCCESSFULLY,6154.360072,0.000010,6154.360082,6154.360072,6154.360082,615436008.226783,6,-1.000000,""
129_updated,w0,python3action_facedetection_SampleVideo_30mb_troll,5923.228100,1,2000.000000,1,COMPLETED_SUCCESSFULLY,5923.233115,300.924584,6224.157699,0.005015,300.929599,1.000017,7,-1.000000,""
129,w0,python3action_facedetection_SampleVideo_30mb,0.000000,1,-1.000000,1,COMPLETED_SUCCESSFULLY,6224.157714,0.000010,6224.157724,6224.157714,6224.157724,622415772.400201,7,-1.000000,""
71_updated,w0,python3action_facedetection_SampleVideo_30mb_yeti,5732.149892,1,2000.000000,1,COMPLETED_SUCCESSFULLY,5732.154907,620.218727,6352.373634,0.005015,620.223742,1.000008,8,-1.000000,""
71,w0,python3action_facedetection_SampleVideo_30mb,0.000000,1,-1.000000,1,COMPLETED_SUCCESSFULLY,6352.373649,0.000010,6352.373659,6352.373649,6352.373659,635237365.910800,8,-1.000000,""
0_updated,w0,python3action_chameleon_3000_gemini,6154.365072,1,2000.000000,1,COMPLETED_SUCCESSFULLY,6154.370087,205.077663,6359.447750,0.005015,205.082678,1.000024,6,-1.000000,""
0,w0,python3action_chameleon_3000,0.000000,1,-1.000000,1,COMPLETED_SUCCESSFULLY,6359.447765,0.000010,6359.447775,6359.447765,6359.447775,635944777.526782,6,-1.000000,""
134_updated,w0,python3action_imageprocessing_SampleImage_60mb_troll,6224.162714,1,2000.000000,1,COMPLETED_SUCCESSFULLY,6224.167729,152.512187,6376.679916,0.005015,152.517202,1.000033,7,-1.000000,""
134,w0,python3action_imageprocessing_SampleImage_60mb,0.000000,1,-1.000000,1,COMPLETED_SUCCESSFULLY,6376.679931,0.000010,6376.679941,6376.679931,6376.679941,637667994.100201,7,-1.000000,""
14_updated,w0,python3action_modeltraining_reviews100mb_troll,6376.684931,1,2000.000000,1,COMPLETED_SUCCESSFULLY,6376.689946,143.902652,6520.592598,0.005015,143.907667,1.000035,7,-1.000000,""
14,w0,python3action_modeltraining_reviews100mb,0.000000,1,-1.000000,1,COMPLETED_SUCCESSFULLY,6520.592613,0.000010,6520.592623,6520.592613,6520.592623,652059262.327774,7,-1.000000,""
154_updated,w0,python3action_chameleon_3000_gemini,6359.452765,1,2000.000000,1,COMPLETED_SUCCESSFULLY,6359.457780,205.077663,6564.535443,0.005015,205.082678,1.000024,6,-1.000000,""
154,w0,python3action_chameleon_3000,0.000000,1,-1.000000,1,COMPLETED_SUCCESSFULLY,6564.535458,0.000010,6564.535468,6564.535458,6564.535468,656453546.826782,6,-1.000000,""
16_updated,w0,python3action_videoprocessing_SampleVideo_30mb_gemini,6564.540458,1,2000.000000,1,COMPLETED_SUCCESSFULLY,6564.545473,283.435696,6847.981169,0.005015,283.440711,1.000018,6,-1.000000,""
16,w0,python3action_videoprocessing_SampleVideo_30mb,0.000000,1,-1.000000,1,COMPLETED_SUCCESSFULLY,6847.981184,0.000010,6847.981194,6847.981184,6847.981194,684798119.400201,6,-1.000000,""
165_updated,w0,python3action_imageprocessing_SampleImage_40mb_gemini,6847.986184,1,2000.000000,1,COMPLETED_SUCCESSFULLY,6847.991199,83.255410,6931.246609,0.005015,83.260425,1.000060,6,-1.000000,""
165,w0,python3action_imageprocessing_SampleImage_40mb,0.000000,1,-1.000000,1,COMPLETED_SUCCESSFULLY,6931.246624,0.000010,6931.246634,6931.246624,6931.246634,693124663.400201,6,-1.000000,""
77_updated,w0,python3action_videoprocessing_SampleVideo_50mb_yeti,6352.378649,1,2000.000000,1,COMPLETED_SUCCESSFULLY,6352.383664,686.386021,7038.769685,0.005015,686.391036,1.000007,8,-1.000000,""
77,w0,python3action_videoprocessing_SampleVideo_50mb,0.000000,1,-1.000000,1,COMPLETED_SUCCESSFULLY,7038.769700,0.000010,7038.769710,7038.769700,7038.769710,703876971.000201,8,-1.000000,""
python3action_modeltraining_job82_82,w0,python3action_modeltraining_reduced_2.88,7038.774700,1,2000.000000,1,COMPLETED_SUCCESSFULLY,7038.779715,0.000000,7038.779715,0.005015,0.005015,102112093.981481,8,-1.000000,""
108_updated,w0,python3action_modeltraining_reviews100mb_gemini,6931.251624,1,2000.000000,1,COMPLETED_SUCCESSFULLY,6931.256639,189.773360,7121.029999,0.005015,189.778375,1.000026,6,-1.000000,""
108,w0,python3action_modeltraining_reviews100mb,0.000000,1,-1.000000,1,COMPLETED_SUCCESSFULLY,7121.030014,0.000010,7121.030024,7121.030014,7121.030024,712103002.403918,6,-1.000000,""
145_updated,w0,python3action_linpack_6000_troll,6520.597613,1,2000.000000,1,COMPLETED_SUCCESSFULLY,6520.602628,620.708201,7141.310829,0.005015,620.713216,1.000008,7,-1.000000,""
145,w0,python3action_linpack_6000,0.000000,1,-1.000000,1,COMPLETED_SUCCESSFULLY,7141.310844,0.000010,7141.310854,7141.310844,7141.310854,714131085.404929,7,-1.000000,""
82_updated,w0,python3action_modeltraining_reviews100mb_yeti,7038.774700,1,2000.000000,1,COMPLETED_SUCCESSFULLY,7038.779745,129.145802,7167.925547,0.005045,129.150847,1.000039,8,-1.000000,""
82,w0,python3action_modeltraining_reviews100mb,0.000000,1,-1.000000,1,COMPLETED_SUCCESSFULLY,7167.925562,0.000010,7167.925572,7167.925562,7167.925572,716792557.200201,8,-1.000000,""
python3action_chameleon_job115_83,w0,python3action_chameleon_reduced_0.85,7167.930562,1,2000.000000,1,COMPLETED_SUCCESSFULLY,7167.935577,0.320244,7168.255821,0.005015,0.325259,1.015660,8,-1.000000,""
115_updated,w0,python3action_chameleon_2000_yeti,7167.930562,1,2000.000000,1,COMPLETED_SUCCESSFULLY,7168.255836,79.321057,7247.576893,0.325274,79.646331,1.004101,8,-1.000000,""
115,w0,python3action_chameleon_2000,0.000000,1,-1.000000,1,COMPLETED_SUCCESSFULLY,7247.576908,0.000010,7247.576918,7247.576908,7247.576918,724757691.800592,8,-1.000000,""
101_updated,w0,python3action_imageprocessing_SampleImage_60mb_gemini,7121.035014,1,2000.000000,1,COMPLETED_SUCCESSFULLY,7121.040029,162.837786,7283.877815,0.005015,162.842801,1.000031,6,-1.000000,""
101,w0,python3action_imageprocessing_SampleImage_60mb,0.000000,1,-1.000000,1,COMPLETED_SUCCESSFULLY,7283.877830,0.000010,7283.877840,7283.877830,7283.877840,728387784.035677,6,-1.000000,""
15_updated,w0,python3action_imageprocessing_SampleImage_60mb_troll,7141.315844,1,2000.000000,1,COMPLETED_SUCCESSFULLY,7141.320859,152.512187,7293.833046,0.005015,152.517202,1.000033,7,-1.000000,""
15,w0,python3action_imageprocessing_SampleImage_60mb,0.000000,1,-1.000000,1,COMPLETED_SUCCESSFULLY,7293.833061,0.000010,7293.833071,7293.833061,7293.833071,729383307.100201,7,-1.000000,""
118_updated,w0,python3action_modeltraining_reviews50mb_yeti,7247.581908,1,2000.000000,1,COMPLETED_SUCCESSFULLY,7247.586923,53.412153,7300.999076,0.005015,53.417168,1.000094,8,-1.000000,""
118,w0,python3action_modeltraining_reviews50mb,0.000000,1,-1.000000,1,COMPLETED_SUCCESSFULLY,7300.999091,0.000010,7300.999101,7300.999091,7300.999101,730099910.100201,8,-1.000000,""
python3action_linpack_job120_84,w0,python3action_linpack_reduced_1.7,7301.004091,1,2000.000000,1,COMPLETED_SUCCESSFULLY,7301.009106,0.000000,7301.009106,0.005015,0.005015,102112093.981481,8,-1.000000,""
155_updated,w0,python3action_modeltraining_reviews50mb_troll,7293.838061,1,2000.000000,1,COMPLETED_SUCCESSFULLY,7293.843076,69.696429,7363.539505,0.005015,69.701444,1.000072,7,-1.000000,""
155,w0,python3action_modeltraining_reviews50mb,0.000000,1,-1.000000,1,COMPLETED_SUCCESSFULLY,7363.539520,0.000010,7363.539530,7363.539520,7363.539530,736353953.044767,7,-1.000000,""
174_updated,w0,python3action_imageprocessing_SampleImage_40mb_gemini,7283.882830,1,2000.000000,1,COMPLETED_SUCCESSFULLY,7283.887845,83.255410,7367.143255,0.005015,83.260425,1.000060,6,-1.000000,""
174,w0,python3action_imageprocessing_SampleImage_40mb,0.000000,1,-1.000000,1,COMPLETED_SUCCESSFULLY,7367.143270,0.000010,7367.143280,7367.143270,7367.143280,736714328.000201,6,-1.000000,""
120_updated,w0,python3action_linpack_5000_yeti,7301.004091,1,2000.000000,1,COMPLETED_SUCCESSFULLY,7301.009136,76.929468,7377.938604,0.005045,76.934513,1.000066,8,-1.000000,""
120,w0,python3action_linpack_5000,0.000000,1,-1.000000,1,COMPLETED_SUCCESSFULLY,7377.938619,0.000010,7377.938629,7377.938619,7377.938629,737793862.908794,8,-1.000000,""
160_updated,w0,python3action_pyaes_4000_troll,7363.544520,1,2000.000000,1,COMPLETED_SUCCESSFULLY,7363.549535,251.727104,7615.276639,0.005015,251.732119,1.000020,7,-1.000000,""
160,w0,python3action_pyaes_4000,0.000000,1,-1.000000,1,COMPLETED_SUCCESSFULLY,7615.276654,0.000010,7615.276664,7615.276654,7615.276664,761527666.400201,7,-1.000000,""
166_updated,w0,python3action_chameleon_2000_troll,7615.281654,1,2000.000000,1,COMPLETED_SUCCESSFULLY,7615.286669,97.165047,7712.451716,0.005015,97.170062,1.000052,7,-1.000000,""
166,w0,python3action_chameleon_2000,0.000000,1,-1.000000,1,COMPLETED_SUCCESSFULLY,7712.451731,0.000010,7712.451741,7712.451731,7712.451741,771245174.100201,7,-1.000000,""
179_updated,w0,python3action_floatoperation_200000000_gemini,7367.148270,1,2000.000000,1,COMPLETED_SUCCESSFULLY,7367.153285,348.325941,7715.479226,0.005015,348.330956,1.000014,6,-1.000000,""
179,w0,python3action_floatoperation_200000000,0.000000,1,-1.000000,1,COMPLETED_SUCCESSFULLY,7715.479241,0.000010,7715.479251,7715.479241,7715.479251,771547925.148792,6,-1.000000,""
169_updated,w0,python3action_facedetection_SampleVideo_30mb_troll,7712.456731,1,2000.000000,1,COMPLETED_SUCCESSFULLY,7712.461746,300.924584,8013.386330,0.005015,300.929599,1.000017,7,-1.000000,""
169,w0,python3action_facedetection_SampleVideo_30mb,0.000000,1,-1.000000,1,COMPLETED_SUCCESSFULLY,8013.386345,0.000010,8013.386355,8013.386345,8013.386355,801338635.500201,7,-1.000000,""
123_updated,w0,python3action_videoprocessing_SampleVideo_50mb_yeti,7377.943619,1,2000.000000,1,COMPLETED_SUCCESSFULLY,7377.948634,686.386021,8064.334655,0.005015,686.391036,1.000007,8,-1.000000,""
123,w0,python3action_videoprocessing_SampleVideo_50mb,0.000000,1,-1.000000,1,COMPLETED_SUCCESSFULLY,8064.334670,0.000010,8064.334680,8064.334670,8064.334680,806433468.000201,8,-1.000000,""
98_updated,w0,python3action_floatoperation_200000000_yeti,8064.339670,1,2000.000000,1,COMPLETED_SUCCESSFULLY,8064.344685,253.508426,8317.853111,0.005015,253.513441,1.000020,8,-1.000000,""
98,w0,python3action_floatoperation_200000000,0.000000,1,-1.000000,1,COMPLETED_SUCCESSFULLY,8317.853126,0.000010,8317.853136,8317.853126,8317.853136,831785313.600201,8,-1.000000,""
13_updated,w0,python3action_pyaes_3000_yeti,8317.858126,1,2000.000000,1,COMPLETED_SUCCESSFULLY,8317.863141,142.698139,8460.561280,0.005015,142.703154,1.000035,8,-1.000000,""
13,w0,python3action_pyaes_3000,0.000000,1,-1.000000,1,COMPLETED_SUCCESSFULLY,8460.561295,0.000010,8460.561305,8460.561295,8460.561305,846056130.501637,8,-1.000000,""
181_updated,w0,python3action_facedetection_SampleVideo_50mb_gemini,7715.484241,1,2000.000000,1,COMPLETED_SUCCESSFULLY,7715.489256,763.378645,8478.867901,0.005015,763.383660,1.000007,6,-1.000000,""
181,w0,python3action_facedetection_SampleVideo_50mb,0.000000,1,-1.000000,1,COMPLETED_SUCCESSFULLY,8478.867916,0.000010,8478.867926,8478.867916,8478.867926,847886792.604870,6,-1.000000,""
185_updated,w0,python3action_modeltraining_reviews50mb_gemini,8478.872916,1,2000.000000,1,COMPLETED_SUCCESSFULLY,8478.877931,105.905778,8584.783709,0.005015,105.910793,1.000047,6,-1.000000,""
185,w0,python3action_modeltraining_reviews50mb,0.000000,1,-1.000000,1,COMPLETED_SUCCESSFULLY,8584.783724,0.000010,8584.783734,8584.783724,8584.783734,858478373.434622,6,-1.000000,""
135_updated,w0,python3action_modeltraining_reviews100mb_yeti,8460.566295,1,2000.000000,1,COMPLETED_SUCCESSFULLY,8460.571310,129.145802,8589.717112,0.005015,129.150817,1.000039,8,-1.000000,""
135,w0,python3action_modeltraining_reviews100mb,0.000000,1,-1.000000,1,COMPLETED_SUCCESSFULLY,8589.717127,0.000010,8589.717137,8589.717127,8589.717137,858971713.700201,8,-1.000000,""
140_updated,w0,python3action_chameleon_2000_yeti,8589.722127,1,2000.000000,1,COMPLETED_SUCCESSFULLY,8589.727142,79.321057,8669.048199,0.005015,79.326072,1.000063,8,-1.000000,""
140,w0,python3action_chameleon_2000,0.000000,1,-1.000000,1,COMPLETED_SUCCESSFULLY,8669.048214,0.000010,8669.048224,8669.048214,8669.048224,866904822.400592,8,-1.000000,""
171_updated,w0,python3action_videoprocessing_SampleVideo_50mb_troll,8013.391345,1,2000.000000,1,COMPLETED_SUCCESSFULLY,8013.396360,704.015923,8717.412283,0.005015,704.020938,1.000007,7,-1.000000,""
171,w0,python3action_videoprocessing_SampleVideo_50mb,0.000000,1,-1.000000,1,COMPLETED_SUCCESSFULLY,8717.412298,0.000010,8717.412308,8717.412298,8717.412308,871741230.841533,7,-1.000000,""
175_updated,w0,python3action_imageprocessing_SampleImage_40mb_troll,8717.417298,1,2000.000000,1,COMPLETED_SUCCESSFULLY,8717.422313,78.306013,8795.728326,0.005015,78.311028,1.000064,7,-1.000000,""
175,w0,python3action_imageprocessing_SampleImage_40mb,0.000000,1,-1.000000,1,COMPLETED_SUCCESSFULLY,8795.728341,0.000010,8795.728351,8795.728341,8795.728351,879572835.100201,7,-1.000000,""
146_updated,w0,python3action_floatoperation_100000000_yeti,8669.053214,1,2000.000000,1,COMPLETED_SUCCESSFULLY,8669.058229,127.551409,8796.609638,0.005015,127.556424,1.000039,8,-1.000000,""
146,w0,python3action_floatoperation_100000000,0.000000,1,-1.000000,1,COMPLETED_SUCCESSFULLY,8796.609653,0.000010,8796.609663,8796.609653,8796.609663,879660966.317707,8,-1.000000,""
105_updated,w0,python3action_modeltraining_reviews100mb_troll,8795.733341,1,2000.000000,1,COMPLETED_SUCCESSFULLY,8795.738356,143.902652,8939.641008,0.005015,143.907667,1.000035,7,-1.000000,""
105,w0,python3action_modeltraining_reviews100mb,0.000000,1,-1.000000,1,COMPLETED_SUCCESSFULLY,8939.641023,0.000010,8939.641033,8939.641023,8939.641033,893964103.327774,7,-1.000000,""
182_updated,w0,python3action_modeltraining_reviews100mb_troll,8939.646023,1,2000.000000,1,COMPLETED_SUCCESSFULLY,8939.651038,143.902652,9083.553690,0.005015,143.907667,1.000035,7,-1.000000,""
182,w0,python3action_modeltraining_reviews100mb,0.000000,1,-1.000000,1,COMPLETED_SUCCESSFULLY,9083.553705,0.000010,9083.553715,9083.553705,9083.553715,908355371.527774,7,-1.000000,""
110_updated,w0,python3action_videoprocessing_SampleVideo_30mb_troll,9083.558705,1,2000.000000,1,COMPLETED_SUCCESSFULLY,9083.563720,200.069750,9283.633470,0.005015,200.074765,1.000025,7,-1.000000,""
110,w0,python3action_videoprocessing_SampleVideo_30mb,0.000000,1,-1.000000,1,COMPLETED_SUCCESSFULLY,9283.633485,0.000010,9283.633495,9283.633485,9283.633495,928363349.540699,7,-1.000000,""
150_updated,w0,python3action_facedetection_SampleVideo_50mb_yeti,8796.614653,1,2000.000000,1,COMPLETED_SUCCESSFULLY,8796.619668,707.910321,9504.529989,0.005015,707.915336,1.000007,8,-1.000000,""
150,w0,python3action_facedetection_SampleVideo_50mb,0.000000,1,-1.000000,1,COMPLETED_SUCCESSFULLY,9504.530004,0.000010,9504.530014,9504.530004,9504.530014,950453001.400201,8,-1.000000,""
156_updated,w0,python3action_modeltraining_reviews100mb_yeti,9504.535004,1,2000.000000,1,COMPLETED_SUCCESSFULLY,9504.540019,129.145802,9633.685821,0.005015,129.150817,1.000039,8,-1.000000,""
156,w0,python3action_modeltraining_reviews100mb,0.000000,1,-1.000000,1,COMPLETED_SUCCESSFULLY,9633.685836,0.000010,9633.685846,9633.685836,9633.685846,963368584.600201,8,-1.000000,""
161_updated,w0,python3action_linpack_6000_yeti,9633.690836,1,2000.000000,1,COMPLETED_SUCCESSFULLY,9633.695851,511.002833,10144.698684,0.005015,511.007848,1.000010,8,-1.000000,""
161,w0,python3action_linpack_6000,0.000000,1,-1.000000,1,COMPLETED_SUCCESSFULLY,10144.698699,0.000010,10144.698709,10144.698699,10144.698709,1014469870.900358,8,-1.000000,""
113_updated,w0,python3action_videoprocessing_SampleVideo_30mb_yeti,10144.703699,1,2000.000000,1,COMPLETED_SUCCESSFULLY,10144.708714,493.464514,10638.173228,0.005015,493.469529,1.000010,8,-1.000000,""
113,w0,python3action_videoprocessing_SampleVideo_30mb,0.000000,1,-1.000000,1,COMPLETED_SUCCESSFULLY,10638.173243,0.000010,10638.173253,10638.173243,10638.173253,1063817325.324228,8,-1.000000,""
1_updated,w0,python3action_linpack_6000_yeti,10638.178243,1,2000.000000,1,COMPLETED_SUCCESSFULLY,10638.183258,511.002833,11149.186091,0.005015,511.007848,1.000010,8,-1.000000,""
1,w0,python3action_linpack_6000,0.000000,1,-1.000000,1,COMPLETED_SUCCESSFULLY,11149.186106,0.000010,11149.186116,11149.186106,11149.186116,1114918611.600358,8,-1.000000,""
102_updated,w0,python3action_videoprocessing_SampleVideo_50mb_yeti,11149.191106,1,2000.000000,1,COMPLETED_SUCCESSFULLY,11149.196121,686.386021,11835.582142,0.005015,686.391036,1.000007,8,-1.000000,""
102,w0,python3action_videoprocessing_SampleVideo_50mb,0.000000,1,-1.000000,1,COMPLETED_SUCCESSFULLY,11835.582157,0.000010,11835.582167,11835.582157,11835.582167,1183558216.700201,8,-1.000000,""
104_updated,w0,python3action_modeltraining_reviews100mb_yeti,11835.587157,1,2000.000000,1,COMPLETED_SUCCESSFULLY,11835.592172,129.145802,11964.737974,0.005015,129.150817,1.000039,8,-1.000000,""
104,w0,python3action_modeltraining_reviews100mb,0.000000,1,-1.000000,1,COMPLETED_SUCCESSFULLY,11964.737989,0.000010,11964.737999,11964.737989,11964.737999,1196473799.900201,8,-1.000000,""
18_updated,w0,python3action_floatoperation_200000000_yeti,11964.742989,1,2000.000000,1,COMPLETED_SUCCESSFULLY,11964.748004,253.508426,12218.256430,0.005015,253.513441,1.000020,8,-1.000000,""
18,w0,python3action_floatoperation_200000000,0.000000,1,-1.000000,1,COMPLETED_SUCCESSFULLY,12218.256445,0.000010,12218.256455,12218.256445,12218.256455,1221825645.500201,8,-1.000000,""
183_updated,w0,python3action_facedetection_SampleVideo_50mb_yeti,12218.261445,1,2000.000000,1,COMPLETED_SUCCESSFULLY,12218.266460,707.910321,12926.176781,0.005015,707.915336,1.000007,8,-1.000000,""
183,w0,python3action_facedetection_SampleVideo_50mb,0.000000,1,-1.000000,1,COMPLETED_SUCCESSFULLY,12926.176796,0.000010,12926.176806,12926.176796,12926.176806,1292617680.600201,8,-1.000000,""
186_updated,w0,python3action_videoprocessing_SampleVideo_50mb_yeti,12926.181796,1,2000.000000,1,COMPLETED_SUCCESSFULLY,12926.186811,686.386021,13612.572832,0.005015,686.391036,1.000007,8,-1.000000,""
186,w0,python3action_videoprocessing_SampleVideo_50mb,0.000000,1,-1.000000,1,COMPLETED_SUCCESSFULLY,13612.572847,0.000010,13612.572857,13612.572847,13612.572857,1361257285.700201,8,-1.000000,""
