job_id,workload_name,profile,submission_time,requested_number_of_resources,requested_time,success,final_state,starting_time,execution_time,finish_time,waiting_time,turnaround_time,stretch,allocated_resources,consumed_energy,metadata
python3action_chameleon_job64_14,w0,python3action_chameleon,0.997085,1,2000.000000,1,COMPLETED_SUCCESSFULLY,1.002310,0.867914,1.870224,0.005225,0.873139,1.006020,19,-1.000000,""
python3action_chameleon_job179_15,w0,python3action_chameleon,0.997085,1,2000.000000,1,COMPLETED_SUCCESSFULLY,1.002325,0.867914,1.870239,0.005240,0.873154,1.006038,20,-1.000000,""
python3action_chameleon_job9_16,w0,python3action_chameleon,0.997085,1,2000.000000,1,COMPLETED_SUCCESSFULLY,1.002340,0.892694,1.895035,0.005255,0.897950,1.005887,21,-1.000000,""
python3action_chameleon_job168_17,w0,python3action_chameleon,0.997085,1,2000.000000,1,COMPLETED_SUCCESSFULLY,1.002355,0.892694,1.895050,0.005270,0.897965,1.005904,22,-1.000000,""
python3action_linpack_job10_0,w0,python3action_linpack,0.997085,1,2000.000000,1,COMPLETED_SUCCESSFULLY,1.002100,2.439945,3.442045,0.005015,2.444960,1.002055,2,-1.000000,""
python3action_linpack_job24_1,w0,python3action_linpack,0.997085,1,2000.000000,1,COMPLETED_SUCCESSFULLY,1.002115,2.439945,3.442060,0.005030,2.444975,1.002062,3,-1.000000,""
python3action_linpack_job25_2,w0,python3action_linpack,0.997085,1,2000.000000,1,COMPLETED_SUCCESSFULLY,1.002130,2.439945,3.442075,0.005045,2.444990,1.002068,4,-1.000000,""
python3action_linpack_job38_3,w0,python3action_linpack,0.997085,1,2000.000000,1,COMPLETED_SUCCESSFULLY,1.002145,2.439945,3.442090,0.005060,2.445005,1.002074,5,-1.000000,""
python3action_linpack_job51_4,w0,python3action_linpack,0.997085,1,2000.000000,1,COMPLETED_SUCCESSFULLY,1.002160,2.439945,3.442105,0.005075,2.445020,1.002080,6,-1.000000,""
python3action_linpack_job62_5,w0,python3action_linpack,0.997085,1,2000.000000,1,COMPLETED_SUCCESSFULLY,1.002175,2.439945,3.442120,0.005090,2.445035,1.002086,7,-1.000000,""
python3action_linpack_job89_18,w0,python3action_linpack,0.997085,1,2000.000000,1,COMPLETED_SUCCESSFULLY,1.002370,2.439945,3.442315,0.005285,2.445230,1.002166,25,-1.000000,""
python3action_linpack_job118_19,w0,python3action_linpack,0.997085,1,2000.000000,1,COMPLETED_SUCCESSFULLY,1.002385,2.439945,3.442330,0.005300,2.445245,1.002172,26,-1.000000,""
python3action_linpack_job120_20,w0,python3action_linpack,0.997085,1,2000.000000,1,COMPLETED_SUCCESSFULLY,1.002400,2.439945,3.442345,0.005315,2.445260,1.002178,27,-1.000000,""
python3action_linpack_job134_21,w0,python3action_linpack,0.997085,1,2000.000000,1,COMPLETED_SUCCESSFULLY,1.002415,2.439945,3.442360,0.005330,2.445275,1.002184,28,-1.000000,""
python3action_linpack_job158_22,w0,python3action_linpack,0.997085,1,2000.000000,1,COMPLETED_SUCCESSFULLY,1.002430,2.439945,3.442375,0.005345,2.445290,1.002191,29,-1.000000,""
10_updated,w0,python3action_linpack_5000_nova,0.997085,1,2000.000000,1,COMPLETED_SUCCESSFULLY,3.442060,34.600010,38.042070,2.444975,37.044985,1.070664,2,-1.000000,""
10,w0,python3action_linpack_5000,0.000000,1,-1.000000,1,COMPLETED_SUCCESSFULLY,38.042085,0.000010,38.042095,38.042085,38.042095,3804209.506879,2,-1.000000,""
24_updated,w0,python3action_linpack_5000_nova,0.997085,1,2000.000000,1,COMPLETED_SUCCESSFULLY,3.442090,34.600010,38.042100,2.445005,37.045015,1.070665,3,-1.000000,""
25_updated,w0,python3action_linpack_5000_nova,0.997085,1,2000.000000,1,COMPLETED_SUCCESSFULLY,3.442120,34.600010,38.042130,2.445035,37.045045,1.070666,4,-1.000000,""
24,w0,python3action_linpack_5000,0.000000,1,-1.000000,1,COMPLETED_SUCCESSFULLY,38.042130,0.000010,38.042140,38.042130,38.042140,3804214.007481,3,-1.000000,""
38_updated,w0,python3action_linpack_5000_nova,0.997085,1,2000.000000,1,COMPLETED_SUCCESSFULLY,3.442135,34.600010,38.042145,2.445050,37.045060,1.070666,5,-1.000000,""
25,w0,python3action_linpack_5000,0.000000,1,-1.000000,1,COMPLETED_SUCCESSFULLY,38.042160,0.000010,38.042170,38.042160,38.042170,3804217.007883,4,-1.000000,""
51_updated,w0,python3action_linpack_5000_nova,0.997085,1,2000.000000,1,COMPLETED_SUCCESSFULLY,3.442165,34.600010,38.042175,2.445080,37.045090,1.070667,6,-1.000000,""
62_updated,w0,python3action_linpack_5000_nova,0.997085,1,2000.000000,1,COMPLETED_SUCCESSFULLY,3.442180,34.600010,38.042190,2.445095,37.045105,1.070667,7,-1.000000,""
38,w0,python3action_linpack_5000,0.000000,1,-1.000000,1,COMPLETED_SUCCESSFULLY,38.042190,0.000010,38.042200,38.042190,38.042200,3804220.008285,5,-1.000000,""
51,w0,python3action_linpack_5000,0.000000,1,-1.000000,1,COMPLETED_SUCCESSFULLY,38.042235,0.000010,38.042245,38.042235,38.042245,3804224.508887,6,-1.000000,""
62,w0,python3action_linpack_5000,0.000000,1,-1.000000,1,COMPLETED_SUCCESSFULLY,38.042250,0.000010,38.042260,38.042250,38.042260,3804226.009088,7,-1.000000,""
89_updated,w0,python3action_linpack_5000_nova,0.997085,1,2000.000000,1,COMPLETED_SUCCESSFULLY,3.442330,34.600010,38.042340,2.445245,37.045255,1.070672,25,-1.000000,""
89,w0,python3action_linpack_5000,0.000000,1,-1.000000,1,COMPLETED_SUCCESSFULLY,38.042355,0.000010,38.042365,38.042355,38.042365,3804236.510493,25,-1.000000,""
118_updated,w0,python3action_linpack_5000_nova,0.997085,1,2000.000000,1,COMPLETED_SUCCESSFULLY,3.442360,34.600010,38.042370,2.445275,37.045285,1.070673,26,-1.000000,""
120_updated,w0,python3action_linpack_5000_nova,0.997085,1,2000.000000,1,COMPLETED_SUCCESSFULLY,3.442390,34.600010,38.042400,2.445305,37.045315,1.070674,27,-1.000000,""
118,w0,python3action_linpack_5000,0.000000,1,-1.000000,1,COMPLETED_SUCCESSFULLY,38.042400,0.000010,38.042410,38.042400,38.042410,3804241.011096,26,-1.000000,""
134_updated,w0,python3action_linpack_5000_nova,0.997085,1,2000.000000,1,COMPLETED_SUCCESSFULLY,3.442405,34.600010,38.042415,2.445320,37.045330,1.070674,28,-1.000000,""
120,w0,python3action_linpack_5000,0.000000,1,-1.000000,1,COMPLETED_SUCCESSFULLY,38.042430,0.000010,38.042440,38.042430,38.042440,3804244.011497,27,-1.000000,""
158_updated,w0,python3action_linpack_5000_nova,0.997085,1,2000.000000,1,COMPLETED_SUCCESSFULLY,3.442435,34.600010,38.042445,2.445350,37.045360,1.070675,29,-1.000000,""
134,w0,python3action_linpack_5000,0.000000,1,-1.000000,1,COMPLETED_SUCCESSFULLY,38.042460,0.000010,38.042470,38.042460,38.042470,3804247.011899,28,-1.000000,""
158,w0,python3action_linpack_5000,0.000000,1,-1.000000,1,COMPLETED_SUCCESSFULLY,38.042505,0.000010,38.042515,38.042505,38.042515,3804251.512501,29,-1.000000,""
python3action_floatoperation_job16_23,w0,python3action_floatoperation,0.997085,1,2000.000000,1,COMPLETED_SUCCESSFULLY,38.042550,2.439945,40.482495,37.045465,39.485410,16.182908,29,-1.000000,""
64_updated,w0,python3action_chameleon_2000_troll,0.997085,1,2000.000000,1,COMPLETED_SUCCESSFULLY,1.870239,39.500010,41.370249,0.873154,40.373164,1.022105,19,-1.000000,""
64,w0,python3action_chameleon_2000,0.000000,1,-1.000000,1,COMPLETED_SUCCESSFULLY,41.370264,0.000010,41.370274,41.370264,41.370274,4137027.400201,19,-1.000000,""
179_updated,w0,python3action_chameleon_2000_troll,0.997085,1,2000.000000,1,COMPLETED_SUCCESSFULLY,1.870269,39.500010,41.370279,0.873184,40.373194,1.022106,20,-1.000000,""
179,w0,python3action_chameleon_2000,0.000000,1,-1.000000,1,COMPLETED_SUCCESSFULLY,41.370309,0.000010,41.370319,41.370309,41.370319,4137031.900402,20,-1.000000,""
python3action_image_processing_job11_15,w0,python3action_image_processing,0.997085,1,2000.000000,1,COMPLETED_SUCCESSFULLY,41.370294,12.398880,53.769174,40.373209,52.772089,4.256198,19,-1.000000,""
python3action_image_processing_job14_16,w0,python3action_image_processing,0.997085,1,2000.000000,1,COMPLETED_SUCCESSFULLY,41.370339,12.398880,53.769219,40.373254,52.772134,4.256202,20,-1.000000,""
python3action_modeltraining_job36_3,w0,python3action_modeltraining,0.997085,1,2000.000000,1,COMPLETED_SUCCESSFULLY,38.042220,30.499683,68.541903,37.045135,67.544818,2.214607,4,-1.000000,""
python3action_modeltraining_job81_4,w0,python3action_modeltraining,0.997085,1,2000.000000,1,COMPLETED_SUCCESSFULLY,38.042265,30.499683,68.541948,37.045180,67.544863,2.214609,5,-1.000000,""
python3action_modeltraining_job83_5,w0,python3action_modeltraining,0.997085,1,2000.000000,1,COMPLETED_SUCCESSFULLY,38.042295,30.499683,68.541978,37.045210,67.544893,2.214610,6,-1.000000,""
python3action_modeltraining_job149_6,w0,python3action_modeltraining,0.997085,1,2000.000000,1,COMPLETED_SUCCESSFULLY,38.042310,30.499683,68.541993,37.045225,67.544908,2.214610,7,-1.000000,""
python3action_modeltraining_job152_19,w0,python3action_modeltraining,0.997085,1,2000.000000,1,COMPLETED_SUCCESSFULLY,38.042385,30.499683,68.542068,37.045300,67.544983,2.214613,25,-1.000000,""
python3action_modeltraining_job154_20,w0,python3action_modeltraining,0.997085,1,2000.000000,1,COMPLETED_SUCCESSFULLY,38.042445,30.499683,68.542128,37.045360,67.545043,2.214615,26,-1.000000,""
python3action_modeltraining_job171_21,w0,python3action_modeltraining,0.997085,1,2000.000000,1,COMPLETED_SUCCESSFULLY,38.042490,30.499683,68.542173,37.045405,67.545088,2.214616,27,-1.000000,""
python3action_modeltraining_job198_22,w0,python3action_modeltraining,0.997085,1,2000.000000,1,COMPLETED_SUCCESSFULLY,38.042520,30.499683,68.542203,37.045435,67.545118,2.214617,28,-1.000000,""
188_updated,w0,python3action_linpack_5000_nova,0.997085,1,2000.000000,1,COMPLETED_SUCCESSFULLY,38.042115,34.600010,72.642125,37.045030,71.645040,2.070665,2,-1.000000,""
188,w0,python3action_linpack_5000,0.000000,1,-1.000000,1,COMPLETED_SUCCESSFULLY,72.642140,0.000010,72.642150,72.642140,72.642150,7264215.000201,2,-1.000000,""
196_updated,w0,python3action_linpack_5000_nova,0.997085,1,2000.000000,1,COMPLETED_SUCCESSFULLY,38.042175,34.600010,72.642185,37.045090,71.645100,2.070667,3,-1.000000,""
196,w0,python3action_linpack_5000,0.000000,1,-1.000000,1,COMPLETED_SUCCESSFULLY,72.642200,0.000010,72.642210,72.642200,72.642210,7264221.000201,3,-1.000000,""
python3action_image_processing_job26_6,w0,python3action_image_processing,0.997085,1,2000.000000,1,COMPLETED_SUCCESSFULLY,1.002190,72.012455,73.014645,0.005105,72.017560,1.000071,8,-1.000000,""
python3action_image_processing_job31_7,w0,python3action_image_processing,0.997085,1,2000.000000,1,COMPLETED_SUCCESSFULLY,1.002205,72.012455,73.014660,0.005120,72.017575,1.000071,9,-1.000000,""
python3action_image_processing_job19_8,w0,python3action_image_processing,0.997085,1,2000.000000,1,COMPLETED_SUCCESSFULLY,1.002220,72.012455,73.014675,0.005135,72.017590,1.000071,10,-1.000000,""
python3action_image_processing_job55_9,w0,python3action_image_processing,0.997085,1,2000.000000,1,COMPLETED_SUCCESSFULLY,1.002235,72.012455,73.014690,0.005150,72.017605,1.000072,11,-1.000000,""
python3action_image_processing_job94_10,w0,python3action_image_processing,0.997085,1,2000.000000,1,COMPLETED_SUCCESSFULLY,1.002250,72.012455,73.014705,0.005165,72.017620,1.000072,13,-1.000000,""
python3action_image_processing_job98_11,w0,python3action_image_processing,0.997085,1,2000.000000,1,COMPLETED_SUCCESSFULLY,1.002265,72.012455,73.014720,0.005180,72.017635,1.000072,14,-1.000000,""
python3action_image_processing_job109_12,w0,python3action_image_processing,0.997085,1,2000.000000,1,COMPLETED_SUCCESSFULLY,1.002280,72.012455,73.014735,0.005195,72.017650,1.000072,15,-1.000000,""
python3action_image_processing_job127_13,w0,python3action_image_processing,0.997085,1,2000.000000,1,COMPLETED_SUCCESSFULLY,1.002295,72.012455,73.014750,0.005210,72.017665,1.000072,16,-1.000000,""
python3action_floatoperation_job17_1,w0,python3action_floatoperation,0.997085,1,2000.000000,1,COMPLETED_SUCCESSFULLY,72.642170,2.439945,75.082115,71.645085,74.085030,30.363398,2,-1.000000,""
python3action_floatoperation_job20_2,w0,python3action_floatoperation,0.997085,1,2000.000000,1,COMPLETED_SUCCESSFULLY,72.642230,2.439945,75.082175,71.645145,74.085090,30.363423,3,-1.000000,""
9_updated,w0,python3action_chameleon_3000_yeti,0.997085,1,2000.000000,1,COMPLETED_SUCCESSFULLY,1.895050,93.000000,94.895050,0.897965,93.897965,1.009656,21,-1.000000,""
9,w0,python3action_chameleon_3000,0.000000,1,-1.000000,1,COMPLETED_SUCCESSFULLY,94.895065,0.000010,94.895075,94.895065,94.895075,9489507.500201,21,-1.000000,""
168_updated,w0,python3action_chameleon_3000_yeti,0.997085,1,2000.000000,1,COMPLETED_SUCCESSFULLY,1.895080,93.000000,94.895080,0.897995,93.897995,1.009656,22,-1.000000,""
168,w0,python3action_chameleon_3000,0.000000,1,-1.000000,1,COMPLETED_SUCCESSFULLY,94.895110,0.000010,94.895120,94.895110,94.895120,9489512.000803,22,-1.000000,""
19_updated,w0,python3action_imageprocessing_SampleImage_40mb_taurus,0.997085,1,2000.000000,1,COMPLETED_SUCCESSFULLY,73.014705,32.600046,105.614751,72.017620,104.617666,3.209126,10,-1.000000,""
19,w0,python3action_imageprocessing_SampleImage_40mb,0.000000,1,-1.000000,1,COMPLETED_SUCCESSFULLY,105.614766,0.000010,105.614776,105.614766,105.614776,10561477.646568,10,-1.000000,""
55_updated,w0,python3action_imageprocessing_SampleImage_40mb_taurus,0.997085,1,2000.000000,1,COMPLETED_SUCCESSFULLY,73.014735,32.600046,105.614781,72.017650,104.617696,3.209127,11,-1.000000,""
94_updated,w0,python3action_imageprocessing_SampleImage_40mb_taurus,0.997085,1,2000.000000,1,COMPLETED_SUCCESSFULLY,73.014750,32.600046,105.614796,72.017665,104.617711,3.209128,13,-1.000000,""
98_updated,w0,python3action_imageprocessing_SampleImage_40mb_taurus,0.997085,1,2000.000000,1,COMPLETED_SUCCESSFULLY,73.014765,32.600046,105.614811,72.017680,104.617726,3.209128,14,-1.000000,""
55,w0,python3action_imageprocessing_SampleImage_40mb,0.000000,1,-1.000000,1,COMPLETED_SUCCESSFULLY,105.614811,0.000010,105.614821,105.614811,105.614821,10561482.147171,11,-1.000000,""
109_updated,w0,python3action_imageprocessing_SampleImage_40mb_taurus,0.997085,1,2000.000000,1,COMPLETED_SUCCESSFULLY,73.014795,32.600046,105.614841,72.017710,104.617756,3.209129,15,-1.000000,""
94,w0,python3action_imageprocessing_SampleImage_40mb,0.000000,1,-1.000000,1,COMPLETED_SUCCESSFULLY,105.614841,0.000010,105.614851,105.614841,105.614851,10561485.147572,13,-1.000000,""
127_updated,w0,python3action_imageprocessing_SampleImage_40mb_taurus,0.997085,1,2000.000000,1,COMPLETED_SUCCESSFULLY,73.014810,32.600046,105.614856,72.017725,104.617771,3.209130,16,-1.000000,""
98,w0,python3action_imageprocessing_SampleImage_40mb,0.000000,1,-1.000000,1,COMPLETED_SUCCESSFULLY,105.614856,0.000010,105.614866,105.614856,105.614866,10561486.647773,14,-1.000000,""
109,w0,python3action_imageprocessing_SampleImage_40mb,0.000000,1,-1.000000,1,COMPLETED_SUCCESSFULLY,105.614901,0.000010,105.614911,105.614901,105.614911,10561491.148376,15,-1.000000,""
127,w0,python3action_imageprocessing_SampleImage_40mb,0.000000,1,-1.000000,1,COMPLETED_SUCCESSFULLY,105.614931,0.000010,105.614941,105.614931,105.614941,10561494.148777,16,-1.000000,""
16_updated,w0,python3action_floatoperation_100000000_nova,0.997085,1,2000.000000,1,COMPLETED_SUCCESSFULLY,40.482510,66.200020,106.682530,39.485425,105.685445,1.596456,29,-1.000000,""
16,w0,python3action_floatoperation_100000000,0.000000,1,-1.000000,1,COMPLETED_SUCCESSFULLY,106.682545,0.000010,106.682555,106.682545,106.682555,10668255.500201,29,-1.000000,""
python3action_chameleon_job45_13,w0,python3action_chameleon,0.997085,1,2000.000000,1,COMPLETED_SUCCESSFULLY,105.614976,5.040826,110.655802,104.617891,109.658717,21.754118,15,-1.000000,""
python3action_chameleon_job61_14,w0,python3action_chameleon,0.997085,1,2000.000000,1,COMPLETED_SUCCESSFULLY,105.614991,5.040826,110.655817,104.617906,109.658732,21.754121,16,-1.000000,""
36_updated,w0,python3action_modeltraining_reviews50mb_nova,0.997085,1,2000.000000,1,COMPLETED_SUCCESSFULLY,68.541918,42.399990,110.941908,67.544833,109.944823,2.593039,4,-1.000000,""
36,w0,python3action_modeltraining_reviews50mb,0.000000,1,-1.000000,1,COMPLETED_SUCCESSFULLY,110.941923,0.000010,110.941933,110.941923,110.941933,11094193.323505,4,-1.000000,""
81_updated,w0,python3action_modeltraining_reviews50mb_nova,0.997085,1,2000.000000,1,COMPLETED_SUCCESSFULLY,68.541963,42.399990,110.941953,67.544878,109.944868,2.593040,5,-1.000000,""
83_updated,w0,python3action_modeltraining_reviews50mb_nova,0.997085,1,2000.000000,1,COMPLETED_SUCCESSFULLY,68.541993,42.399990,110.941983,67.544908,109.944898,2.593041,6,-1.000000,""
81,w0,python3action_modeltraining_reviews50mb,0.000000,1,-1.000000,1,COMPLETED_SUCCESSFULLY,110.941983,0.000010,110.941993,110.941983,110.941993,11094199.284263,5,-1.000000,""
83,w0,python3action_modeltraining_reviews50mb,0.000000,1,-1.000000,1,COMPLETED_SUCCESSFULLY,110.942013,0.000010,110.942023,110.942013,110.942023,11094202.300201,6,-1.000000,""
149_updated,w0,python3action_modeltraining_reviews50mb_nova,0.997085,1,2000.000000,1,COMPLETED_SUCCESSFULLY,68.542023,42.399990,110.942013,67.544938,109.944928,2.593041,7,-1.000000,""
149,w0,python3action_modeltraining_reviews50mb,0.000000,1,-1.000000,1,COMPLETED_SUCCESSFULLY,110.942073,0.000010,110.942083,110.942073,110.942083,11094208.301004,7,-1.000000,""
152_updated,w0,python3action_modeltraining_reviews50mb_nova,0.997085,1,2000.000000,1,COMPLETED_SUCCESSFULLY,68.542083,42.399990,110.942073,67.544998,109.944988,2.593043,25,-1.000000,""
152,w0,python3action_modeltraining_reviews50mb,0.000000,1,-1.000000,1,COMPLETED_SUCCESSFULLY,110.942118,0.000010,110.942128,110.942118,110.942128,11094212.801606,25,-1.000000,""
154_updated,w0,python3action_modeltraining_reviews50mb_nova,0.997085,1,2000.000000,1,COMPLETED_SUCCESSFULLY,68.542143,42.399990,110.942133,67.545058,109.945048,2.593044,26,-1.000000,""
154,w0,python3action_modeltraining_reviews50mb,0.000000,1,-1.000000,1,COMPLETED_SUCCESSFULLY,110.942178,0.000010,110.942188,110.942178,110.942188,11094218.802410,26,-1.000000,""
171_updated,w0,python3action_modeltraining_reviews50mb_nova,0.997085,1,2000.000000,1,COMPLETED_SUCCESSFULLY,68.542188,42.399990,110.942178,67.545103,109.945093,2.593045,27,-1.000000,""
198_updated,w0,python3action_modeltraining_reviews50mb_nova,0.997085,1,2000.000000,1,COMPLETED_SUCCESSFULLY,68.542218,42.399990,110.942208,67.545133,109.945123,2.593046,28,-1.000000,""
171,w0,python3action_modeltraining_reviews50mb,0.000000,1,-1.000000,1,COMPLETED_SUCCESSFULLY,110.942223,0.000010,110.942233,110.942223,110.942233,11094223.303012,27,-1.000000,""
198,w0,python3action_modeltraining_reviews50mb,0.000000,1,-1.000000,1,COMPLETED_SUCCESSFULLY,110.942253,0.000010,110.942263,110.942253,110.942263,11094226.303414,28,-1.000000,""
python3action_floatoperation_job23_3,w0,python3action_floatoperation,0.997085,1,2000.000000,1,COMPLETED_SUCCESSFULLY,110.941953,2.439945,113.381899,109.944868,112.384814,46.060383,4,-1.000000,""
python3action_floatoperation_job47_4,w0,python3action_floatoperation,0.997085,1,2000.000000,1,COMPLETED_SUCCESSFULLY,110.942028,2.439945,113.381973,109.944943,112.384888,46.060413,5,-1.000000,""
python3action_floatoperation_job63_5,w0,python3action_floatoperation,0.997085,1,2000.000000,1,COMPLETED_SUCCESSFULLY,110.942058,2.439945,113.382003,109.944973,112.384918,46.060425,6,-1.000000,""
python3action_floatoperation_job72_6,w0,python3action_floatoperation,0.997085,1,2000.000000,1,COMPLETED_SUCCESSFULLY,110.942103,2.439945,113.382048,109.945018,112.384963,46.060444,7,-1.000000,""
python3action_floatoperation_job101_19,w0,python3action_floatoperation,0.997085,1,2000.000000,1,COMPLETED_SUCCESSFULLY,110.942148,2.439945,113.382093,109.945063,112.385008,46.060462,25,-1.000000,""
python3action_floatoperation_job157_20,w0,python3action_floatoperation,0.997085,1,2000.000000,1,COMPLETED_SUCCESSFULLY,110.942208,2.439945,113.382153,109.945123,112.385068,46.060487,26,-1.000000,""
python3action_floatoperation_job193_21,w0,python3action_floatoperation,0.997085,1,2000.000000,1,COMPLETED_SUCCESSFULLY,110.942268,2.439945,113.382213,109.945183,112.385128,46.060512,27,-1.000000,""
python3action_floatoperation_job195_22,w0,python3action_floatoperation,0.997085,1,2000.000000,1,COMPLETED_SUCCESSFULLY,110.942298,2.439945,113.382243,109.945213,112.385158,46.060524,28,-1.000000,""
11_updated,w0,python3action_imageprocessing_SampleImage_60mb_troll,0.997085,1,2000.000000,1,COMPLETED_SUCCESSFULLY,53.769189,62.000000,115.769189,52.772104,114.772104,1.851163,19,-1.000000,""
11,w0,python3action_imageprocessing_SampleImage_60mb,0.000000,1,-1.000000,1,COMPLETED_SUCCESSFULLY,115.769204,0.000010,115.769214,115.769204,115.769214,11576921.409181,19,-1.000000,""
14_updated,w0,python3action_imageprocessing_SampleImage_60mb_troll,0.997085,1,2000.000000,1,COMPLETED_SUCCESSFULLY,53.769234,62.000000,115.769234,52.772149,114.772149,1.851164,20,-1.000000,""
14,w0,python3action_imageprocessing_SampleImage_60mb,0.000000,1,-1.000000,1,COMPLETED_SUCCESSFULLY,115.769264,0.000010,115.769274,115.769264,115.769274,11576927.409984,20,-1.000000,""
129_updated,w0,python3action_imageprocessing_SampleImage_40mb_taurus,0.997085,1,2000.000000,1,COMPLETED_SUCCESSFULLY,105.614796,32.600046,138.214843,104.617711,137.217758,4.209128,10,-1.000000,""
129,w0,python3action_imageprocessing_SampleImage_40mb,0.000000,1,-1.000000,1,COMPLETED_SUCCESSFULLY,138.214858,0.000010,138.214868,138.214858,138.214868,13821486.800201,10,-1.000000,""
137_updated,w0,python3action_imageprocessing_SampleImage_40mb_taurus,0.997085,1,2000.000000,1,COMPLETED_SUCCESSFULLY,105.614871,32.600046,138.214918,104.617786,137.217833,4.209130,11,-1.000000,""
137,w0,python3action_imageprocessing_SampleImage_40mb,0.000000,1,-1.000000,1,COMPLETED_SUCCESSFULLY,138.214933,0.000010,138.214943,138.214933,138.214943,13821494.300201,11,-1.000000,""
177_updated,w0,python3action_imageprocessing_SampleImage_40mb_taurus,0.997085,1,2000.000000,1,COMPLETED_SUCCESSFULLY,105.614916,32.600046,138.214963,104.617831,137.217878,4.209131,13,-1.000000,""
184_updated,w0,python3action_imageprocessing_SampleImage_40mb_taurus,0.997085,1,2000.000000,1,COMPLETED_SUCCESSFULLY,105.614946,32.600046,138.214993,104.617861,137.217908,4.209132,14,-1.000000,""
177,w0,python3action_imageprocessing_SampleImage_40mb,0.000000,1,-1.000000,1,COMPLETED_SUCCESSFULLY,138.214993,0.000010,138.215003,138.214993,138.215003,13821500.262257,13,-1.000000,""
184,w0,python3action_imageprocessing_SampleImage_40mb,0.000000,1,-1.000000,1,COMPLETED_SUCCESSFULLY,138.215023,0.000010,138.215033,138.215023,138.215033,13821503.300201,14,-1.000000,""
17_updated,w0,python3action_floatoperation_100000000_nova,0.997085,1,2000.000000,1,COMPLETED_SUCCESSFULLY,75.082130,66.200020,141.282150,74.085045,140.285065,2.119109,2,-1.000000,""
17,w0,python3action_floatoperation_100000000,0.000000,1,-1.000000,1,COMPLETED_SUCCESSFULLY,141.282165,0.000010,141.282175,141.282165,141.282175,14128217.500201,2,-1.000000,""
20_updated,w0,python3action_floatoperation_100000000_nova,0.997085,1,2000.000000,1,COMPLETED_SUCCESSFULLY,75.082190,66.200020,141.282210,74.085105,140.285125,2.119110,3,-1.000000,""
20,w0,python3action_floatoperation_100000000,0.000000,1,-1.000000,1,COMPLETED_SUCCESSFULLY,141.282225,0.000010,141.282235,141.282225,141.282235,14128223.500201,3,-1.000000,""
python3action_pyaes_job8_1,w0,python3action_pyaes_reduced_0.85,0.997085,1,2000.000000,1,COMPLETED_SUCCESSFULLY,141.282195,0.320244,141.602439,140.285110,140.605354,439.057312,2,-1.000000,""
python3action_pyaes_job85_2,w0,python3action_pyaes_reduced_0.85,0.997085,1,2000.000000,1,COMPLETED_SUCCESSFULLY,141.282255,0.320244,141.602499,140.285170,140.605414,439.057499,3,-1.000000,""
python3action_chameleon_job74_9,w0,python3action_chameleon,0.997085,1,2000.000000,1,COMPLETED_SUCCESSFULLY,138.214888,5.040826,143.255714,137.217803,142.258629,28.221295,10,-1.000000,""
python3action_chameleon_job75_10,w0,python3action_chameleon,0.997085,1,2000.000000,1,COMPLETED_SUCCESSFULLY,138.214963,5.040826,143.255788,137.217878,142.258703,28.221309,11,-1.000000,""
python3action_chameleon_job95_11,w0,python3action_chameleon,0.997085,1,2000.000000,1,COMPLETED_SUCCESSFULLY,138.215038,5.040826,143.255864,137.217953,142.258779,28.221324,13,-1.000000,""
python3action_chameleon_job103_12,w0,python3action_chameleon,0.997085,1,2000.000000,1,COMPLETED_SUCCESSFULLY,138.215068,5.040826,143.255894,137.217983,142.258809,28.221330,14,-1.000000,""
26_updated,w0,python3action_imageprocessing_SampleImage_60mb_orion,0.997085,1,2000.000000,1,COMPLETED_SUCCESSFULLY,73.014660,88.000000,161.014660,72.017575,160.017575,1.818382,8,-1.000000,""
26,w0,python3action_imageprocessing_SampleImage_60mb,0.000000,1,-1.000000,1,COMPLETED_SUCCESSFULLY,161.014675,0.000010,161.014685,161.014675,161.014685,16101468.532888,8,-1.000000,""
31_updated,w0,python3action_imageprocessing_SampleImage_60mb_orion,0.997085,1,2000.000000,1,COMPLETED_SUCCESSFULLY,73.014690,88.000000,161.014690,72.017605,160.017605,1.818382,9,-1.000000,""
31,w0,python3action_imageprocessing_SampleImage_60mb,0.000000,1,-1.000000,1,COMPLETED_SUCCESSFULLY,161.014720,0.000010,161.014730,161.014720,161.014730,16101473.033490,9,-1.000000,""
199_updated,w0,python3action_floatoperation_100000000_nova,0.997085,1,2000.000000,1,COMPLETED_SUCCESSFULLY,106.682575,66.200020,172.882595,105.685490,171.885510,2.596457,29,-1.000000,""
199,w0,python3action_floatoperation_100000000,0.000000,1,-1.000000,1,COMPLETED_SUCCESSFULLY,172.882610,0.000010,172.882620,172.882610,172.882620,17288262.000201,29,-1.000000,""
45_updated,w0,python3action_chameleon_2000_taurus,0.997085,1,2000.000000,1,COMPLETED_SUCCESSFULLY,110.655817,64.199977,174.855794,109.658732,173.858709,2.708081,15,-1.000000,""
45,w0,python3action_chameleon_2000,0.000000,1,-1.000000,1,COMPLETED_SUCCESSFULLY,174.855809,0.000010,174.855819,174.855809,174.855819,17485581.917340,15,-1.000000,""
61_updated,w0,python3action_chameleon_2000_taurus,0.997085,1,2000.000000,1,COMPLETED_SUCCESSFULLY,110.655847,64.199977,174.855824,109.658762,173.858739,2.708081,16,-1.000000,""
61,w0,python3action_chameleon_2000,0.000000,1,-1.000000,1,COMPLETED_SUCCESSFULLY,174.855854,0.000010,174.855864,174.855854,174.855864,17485586.417942,16,-1.000000,""
32_updated,w0,python3action_imageprocessing_SampleImage_60mb_troll,0.997085,1,2000.000000,1,COMPLETED_SUCCESSFULLY,115.769234,62.000000,177.769234,114.772149,176.772149,2.851164,19,-1.000000,""
32,w0,python3action_imageprocessing_SampleImage_60mb,0.000000,1,-1.000000,1,COMPLETED_SUCCESSFULLY,177.769249,0.000010,177.769259,177.769249,177.769259,17776925.909783,19,-1.000000,""
70_updated,w0,python3action_imageprocessing_SampleImage_60mb_troll,0.997085,1,2000.000000,1,COMPLETED_SUCCESSFULLY,115.769294,62.000000,177.769294,114.772209,176.772209,2.851165,20,-1.000000,""
70,w0,python3action_imageprocessing_SampleImage_60mb,0.000000,1,-1.000000,1,COMPLETED_SUCCESSFULLY,177.769309,0.000010,177.769319,177.769309,177.769319,17776931.910586,20,-1.000000,""
23_updated,w0,python3action_floatoperation_100000000_nova,0.997085,1,2000.000000,1,COMPLETED_SUCCESSFULLY,113.381914,66.200020,179.581934,112.384829,178.584849,2.697656,4,-1.000000,""
23,w0,python3action_floatoperation_100000000,0.000000,1,-1.000000,1,COMPLETED_SUCCESSFULLY,179.581949,0.000010,179.581959,179.581949,179.581959,17958195.900201,4,-1.000000,""
47_updated,w0,python3action_floatoperation_100000000_nova,0.997085,1,2000.000000,1,COMPLETED_SUCCESSFULLY,113.381988,66.200020,179.582008,112.384903,178.584923,2.697657,5,-1.000000,""
47,w0,python3action_floatoperation_100000000,0.000000,1,-1.000000,1,COMPLETED_SUCCESSFULLY,179.582023,0.000010,179.582033,179.582023,179.582033,17958203.300201,5,-1.000000,""
63_updated,w0,python3action_floatoperation_100000000_nova,0.997085,1,2000.000000,1,COMPLETED_SUCCESSFULLY,113.382018,66.200020,179.582038,112.384933,178.584953,2.697657,6,-1.000000,""
63,w0,python3action_floatoperation_100000000,0.000000,1,-1.000000,1,COMPLETED_SUCCESSFULLY,179.582068,0.000010,179.582078,179.582068,179.582078,17958207.800402,6,-1.000000,""
72_updated,w0,python3action_floatoperation_100000000_nova,0.997085,1,2000.000000,1,COMPLETED_SUCCESSFULLY,113.382063,66.200020,179.582083,112.384978,178.584998,2.697658,7,-1.000000,""
72,w0,python3action_floatoperation_100000000,0.000000,1,-1.000000,1,COMPLETED_SUCCESSFULLY,179.582113,0.000010,179.582123,179.582113,179.582123,17958212.300402,7,-1.000000,""
101_updated,w0,python3action_floatoperation_100000000_nova,0.997085,1,2000.000000,1,COMPLETED_SUCCESSFULLY,113.382108,66.200020,179.582128,112.385023,178.585043,2.697658,25,-1.000000,""
101,w0,python3action_floatoperation_100000000,0.000000,1,-1.000000,1,COMPLETED_SUCCESSFULLY,179.582158,0.000010,179.582168,179.582158,179.582168,17958216.800402,25,-1.000000,""
157_updated,w0,python3action_floatoperation_100000000_nova,0.997085,1,2000.000000,1,COMPLETED_SUCCESSFULLY,113.382168,66.200020,179.582188,112.385083,178.585103,2.697659,26,-1.000000,""
157,w0,python3action_floatoperation_100000000,0.000000,1,-1.000000,1,COMPLETED_SUCCESSFULLY,179.582218,0.000010,179.582228,179.582218,179.582228,17958222.800201,26,-1.000000,""
193_updated,w0,python3action_floatoperation_100000000_nova,0.997085,1,2000.000000,1,COMPLETED_SUCCESSFULLY,113.382228,66.200020,179.582248,112.385143,178.585163,2.697660,27,-1.000000,""
195_updated,w0,python3action_floatoperation_100000000_nova,0.997085,1,2000.000000,1,COMPLETED_SUCCESSFULLY,113.382258,66.200020,179.582278,112.385173,178.585193,2.697661,28,-1.000000,""
193,w0,python3action_floatoperation_100000000,0.000000,1,-1.000000,1,COMPLETED_SUCCESSFULLY,179.582278,0.000010,179.582288,179.582278,179.582288,17958228.787591,27,-1.000000,""
195,w0,python3action_floatoperation_100000000,0.000000,1,-1.000000,1,COMPLETED_SUCCESSFULLY,179.582308,0.000010,179.582318,179.582308,179.582318,17958231.800201,28,-1.000000,""
python3action_video_processing_job49_22,w0,python3action_video_processing_reduced_0.97,0.997085,1,2000.000000,1,COMPLETED_SUCCESSFULLY,179.582353,0.000000,179.582353,178.585268,178.585268,3655270808132.695801,28,-1.000000,""
python3action_pyaes_job93_3,w0,python3action_pyaes_reduced_0.85,0.997085,1,2000.000000,1,COMPLETED_SUCCESSFULLY,179.581979,0.320244,179.902223,178.584894,178.905138,558.653044,4,-1.000000,""
python3action_pyaes_job128_4,w0,python3action_pyaes_reduced_0.85,0.997085,1,2000.000000,1,COMPLETED_SUCCESSFULLY,179.582053,0.320244,179.902297,178.584968,178.905212,558.653275,5,-1.000000,""
python3action_pyaes_job141_5,w0,python3action_pyaes_reduced_0.85,0.997085,1,2000.000000,1,COMPLETED_SUCCESSFULLY,179.582098,0.320244,179.902342,178.585013,178.905257,558.653416,6,-1.000000,""
python3action_pyaes_job159_6,w0,python3action_pyaes_reduced_0.85,0.997085,1,2000.000000,1,COMPLETED_SUCCESSFULLY,179.582143,0.320244,179.902387,178.585058,178.905302,558.653556,7,-1.000000,""
python3action_pyaes_job167_19,w0,python3action_pyaes_reduced_0.85,0.997085,1,2000.000000,1,COMPLETED_SUCCESSFULLY,179.582188,0.320244,179.902432,178.585103,178.905347,558.653696,25,-1.000000,""
python3action_pyaes_job194_20,w0,python3action_pyaes_reduced_0.85,0.997085,1,2000.000000,1,COMPLETED_SUCCESSFULLY,179.582248,0.320244,179.902492,178.585163,178.905407,558.653884,26,-1.000000,""
174_updated,w0,python3action_chameleon_3000_yeti,0.997085,1,2000.000000,1,COMPLETED_SUCCESSFULLY,94.895095,93.000000,187.895095,93.898010,186.898010,2.009656,21,-1.000000,""
174,w0,python3action_chameleon_3000,0.000000,1,-1.000000,1,COMPLETED_SUCCESSFULLY,187.895110,0.000010,187.895120,187.895110,187.895120,18789512.000803,21,-1.000000,""
python3action_video_processing_job52_23,w0,python3action_video_processing,0.997085,1,2000.000000,1,COMPLETED_SUCCESSFULLY,172.882640,30.499683,203.382323,171.885555,202.385238,6.635651,29,-1.000000,""
74_updated,w0,python3action_chameleon_2000_taurus,0.997085,1,2000.000000,1,COMPLETED_SUCCESSFULLY,143.255729,64.199977,207.455706,142.258644,206.458621,3.215868,10,-1.000000,""
74,w0,python3action_chameleon_2000,0.000000,1,-1.000000,1,COMPLETED_SUCCESSFULLY,207.455721,0.000010,207.455731,207.455721,207.455731,20745573.100201,10,-1.000000,""
75_updated,w0,python3action_chameleon_2000_taurus,0.997085,1,2000.000000,1,COMPLETED_SUCCESSFULLY,143.255803,64.199977,207.455780,142.258718,206.458695,3.215869,11,-1.000000,""
75,w0,python3action_chameleon_2000,0.000000,1,-1.000000,1,COMPLETED_SUCCESSFULLY,207.455795,0.000010,207.455805,207.455795,207.455805,20745580.529815,11,-1.000000,""
95_updated,w0,python3action_chameleon_2000_taurus,0.997085,1,2000.000000,1,COMPLETED_SUCCESSFULLY,143.255879,64.199977,207.455856,142.258794,206.458771,3.215870,13,-1.000000,""
95,w0,python3action_chameleon_2000,0.000000,1,-1.000000,1,COMPLETED_SUCCESSFULLY,207.455871,0.000010,207.455881,207.455871,207.455881,20745588.100201,13,-1.000000,""
103_updated,w0,python3action_chameleon_2000_taurus,0.997085,1,2000.000000,1,COMPLETED_SUCCESSFULLY,143.255909,64.199977,207.455886,142.258824,206.458801,3.215870,14,-1.000000,""
103,w0,python3action_chameleon_2000,0.000000,1,-1.000000,1,COMPLETED_SUCCESSFULLY,207.455916,0.000010,207.455926,207.455916,207.455926,20745592.600402,14,-1.000000,""
8_updated,w0,python3action_pyaes_3000_nova,0.997085,1,2000.000000,1,COMPLETED_SUCCESSFULLY,141.602454,78.200020,219.802474,140.605369,218.805389,2.798022,2,-1.000000,""
8,w0,python3action_pyaes_3000,0.000000,1,-1.000000,1,COMPLETED_SUCCESSFULLY,219.802489,0.000010,219.802499,219.802489,219.802499,21980249.900201,2,-1.000000,""
85_updated,w0,python3action_pyaes_3000_nova,0.997085,1,2000.000000,1,COMPLETED_SUCCESSFULLY,141.602514,78.200020,219.802534,140.605429,218.805449,2.798023,3,-1.000000,""
85,w0,python3action_pyaes_3000,0.000000,1,-1.000000,1,COMPLETED_SUCCESSFULLY,219.802549,0.000010,219.802559,219.802549,219.802559,21980255.900201,3,-1.000000,""
139_updated,w0,python3action_chameleon_2000_taurus,0.997085,1,2000.000000,1,COMPLETED_SUCCESSFULLY,174.855839,64.199977,239.055816,173.858754,238.058731,3.708081,15,-1.000000,""
139,w0,python3action_chameleon_2000,0.000000,1,-1.000000,1,COMPLETED_SUCCESSFULLY,239.055831,0.000010,239.055841,239.055831,239.055841,23905584.111403,15,-1.000000,""
165_updated,w0,python3action_chameleon_2000_taurus,0.997085,1,2000.000000,1,COMPLETED_SUCCESSFULLY,174.855884,64.199977,239.055861,173.858799,238.058776,3.708082,16,-1.000000,""
165,w0,python3action_chameleon_2000,0.000000,1,-1.000000,1,COMPLETED_SUCCESSFULLY,239.055891,0.000010,239.055901,239.055891,239.055901,23905590.112206,16,-1.000000,""
77_updated,w0,python3action_imageprocessing_SampleImage_60mb_troll,0.997085,1,2000.000000,1,COMPLETED_SUCCESSFULLY,177.769279,62.000000,239.769279,176.772194,238.772194,3.851164,19,-1.000000,""
77,w0,python3action_imageprocessing_SampleImage_60mb,0.000000,1,-1.000000,1,COMPLETED_SUCCESSFULLY,239.769294,0.000010,239.769304,239.769294,239.769304,23976930.410385,19,-1.000000,""
82_updated,w0,python3action_imageprocessing_SampleImage_60mb_troll,0.997085,1,2000.000000,1,COMPLETED_SUCCESSFULLY,177.769339,62.000000,239.769339,176.772254,238.772254,3.851165,20,-1.000000,""
82,w0,python3action_imageprocessing_SampleImage_60mb,0.000000,1,-1.000000,1,COMPLETED_SUCCESSFULLY,239.769354,0.000010,239.769364,239.769354,239.769364,23976936.411188,20,-1.000000,""
python3action_modeltraining_job13_13,w0,python3action_modeltraining_reduced_0.94,0.997085,1,2000.000000,1,COMPLETED_SUCCESSFULLY,239.055861,4.236027,243.291888,238.058776,242.294803,57.198600,15,-1.000000,""
python3action_modeltraining_job18_14,w0,python3action_modeltraining_reduced_0.94,0.997085,1,2000.000000,1,COMPLETED_SUCCESSFULLY,239.055921,4.236027,243.291948,238.058836,242.294863,57.198614,16,-1.000000,""
34_updated,w0,python3action_imageprocessing_SampleImage_60mb_orion,0.997085,1,2000.000000,1,COMPLETED_SUCCESSFULLY,161.014705,88.000000,249.014705,160.017620,248.017620,2.818382,8,-1.000000,""
34,w0,python3action_imageprocessing_SampleImage_60mb,0.000000,1,-1.000000,1,COMPLETED_SUCCESSFULLY,249.014720,0.000010,249.014730,249.014720,249.014730,24901473.033490,8,-1.000000,""
90_updated,w0,python3action_imageprocessing_SampleImage_60mb_orion,0.997085,1,2000.000000,1,COMPLETED_SUCCESSFULLY,161.014750,88.000000,249.014750,160.017665,248.017665,2.818383,9,-1.000000,""
90,w0,python3action_imageprocessing_SampleImage_60mb,0.000000,1,-1.000000,1,COMPLETED_SUCCESSFULLY,249.014780,0.000010,249.014790,249.014780,249.014790,24901479.034293,9,-1.000000,""
python3action_video_processing_job53_1,w0,python3action_video_processing,0.997085,1,2000.000000,1,COMPLETED_SUCCESSFULLY,219.802519,30.499683,250.302202,218.805434,249.305117,8.174023,2,-1.000000,""
python3action_video_processing_job68_2,w0,python3action_video_processing,0.997085,1,2000.000000,1,COMPLETED_SUCCESSFULLY,219.802579,30.499683,250.302262,218.805494,249.305177,8.174025,3,-1.000000,""
python3action_linpack_job5_7,w0,python3action_linpack,0.997085,1,2000.000000,1,COMPLETED_SUCCESSFULLY,249.014750,5.760927,254.775678,248.017665,253.778593,44.051692,8,-1.000000,""
python3action_linpack_job40_8,w0,python3action_linpack,0.997085,1,2000.000000,1,COMPLETED_SUCCESSFULLY,249.014810,5.760927,254.775738,248.017725,253.778653,44.051703,9,-1.000000,""
93_updated,w0,python3action_pyaes_3000_nova,0.997085,1,2000.000000,1,COMPLETED_SUCCESSFULLY,179.902238,78.200020,258.102258,178.905153,257.105173,3.287789,4,-1.000000,""
93,w0,python3action_pyaes_3000,0.000000,1,-1.000000,1,COMPLETED_SUCCESSFULLY,258.102273,0.000010,258.102283,258.102273,258.102283,25810228.300201,4,-1.000000,""
python3action_video_processing_job86_3,w0,python3action_video_processing_reduced_0.97,0.997085,1,2000.000000,1,COMPLETED_SUCCESSFULLY,258.102303,0.000000,258.102303,257.105218,257.105218,5265474770841.643555,4,-1.000000,""
128_updated,w0,python3action_pyaes_3000_nova,0.997085,1,2000.000000,1,COMPLETED_SUCCESSFULLY,179.902312,78.200020,258.102332,178.905227,257.105247,3.287790,5,-1.000000,""
128,w0,python3action_pyaes_3000,0.000000,1,-1.000000,1,COMPLETED_SUCCESSFULLY,258.102362,0.000010,258.102372,258.102362,258.102372,25810237.200201,5,-1.000000,""
141_updated,w0,python3action_pyaes_3000_nova,0.997085,1,2000.000000,1,COMPLETED_SUCCESSFULLY,179.902357,78.200020,258.102377,178.905272,257.105292,3.287791,6,-1.000000,""
python3action_video_processing_job87_4,w0,python3action_video_processing_reduced_0.97,0.997085,1,2000.000000,1,COMPLETED_SUCCESSFULLY,258.102392,0.000000,258.102392,257.105307,257.105307,5265476593465.513672,5,-1.000000,""
141,w0,python3action_pyaes_3000,0.000000,1,-1.000000,1,COMPLETED_SUCCESSFULLY,258.102407,0.000010,258.102417,258.102407,258.102417,25810241.700402,6,-1.000000,""
159_updated,w0,python3action_pyaes_3000_nova,0.997085,1,2000.000000,1,COMPLETED_SUCCESSFULLY,179.902402,78.200020,258.102422,178.905317,257.105337,3.287791,7,-1.000000,""
python3action_video_processing_job88_5,w0,python3action_video_processing_reduced_0.97,0.997085,1,2000.000000,1,COMPLETED_SUCCESSFULLY,258.102452,0.000000,258.102452,257.105367,257.105367,5265477822297.282227,6,-1.000000,""
167_updated,w0,python3action_pyaes_3000_nova,0.997085,1,2000.000000,1,COMPLETED_SUCCESSFULLY,179.902447,78.200020,258.102467,178.905362,257.105382,3.287792,25,-1.000000,""
159,w0,python3action_pyaes_3000,0.000000,1,-1.000000,1,COMPLETED_SUCCESSFULLY,258.102467,0.000010,258.102477,258.102467,258.102477,25810247.654194,7,-1.000000,""
167,w0,python3action_pyaes_3000,0.000000,1,-1.000000,1,COMPLETED_SUCCESSFULLY,258.102512,0.000010,258.102522,258.102512,258.102522,25810252.200402,25,-1.000000,""
194_updated,w0,python3action_pyaes_3000_nova,0.997085,1,2000.000000,1,COMPLETED_SUCCESSFULLY,179.902507,78.200020,258.102527,178.905422,257.105442,3.287793,26,-1.000000,""
python3action_video_processing_job96_6,w0,python3action_video_processing_reduced_0.97,0.997085,1,2000.000000,1,COMPLETED_SUCCESSFULLY,258.102527,0.000000,258.102527,257.105442,257.105442,5265479348822.408203,7,-1.000000,""
python3action_video_processing_job107_19,w0,python3action_video_processing_reduced_0.97,0.997085,1,2000.000000,1,COMPLETED_SUCCESSFULLY,258.102557,0.000000,258.102557,257.105472,257.105472,5265479972639.784180,25,-1.000000,""
194,w0,python3action_pyaes_3000,0.000000,1,-1.000000,1,COMPLETED_SUCCESSFULLY,258.102572,0.000010,258.102582,258.102572,258.102582,25810258.200402,26,-1.000000,""
python3action_video_processing_job116_20,w0,python3action_video_processing_reduced_0.97,0.997085,1,2000.000000,1,COMPLETED_SUCCESSFULLY,258.102632,0.000000,258.102632,257.105547,257.105547,5265481508833.711914,26,-1.000000,""
21_updated,w0,python3action_modeltraining_reviews100mb_nova,0.997085,1,2000.000000,1,COMPLETED_SUCCESSFULLY,179.582323,79.600010,259.182333,178.585238,258.185248,3.243533,27,-1.000000,""
21,w0,python3action_modeltraining_reviews100mb,0.000000,1,-1.000000,1,COMPLETED_SUCCESSFULLY,259.182348,0.000010,259.182358,259.182348,259.182358,25918235.800201,27,-1.000000,""
python3action_video_processing_job123_21,w0,python3action_video_processing_reduced_0.97,0.997085,1,2000.000000,1,COMPLETED_SUCCESSFULLY,259.182378,0.000000,259.182378,258.185293,258.185293,5287594538410.820312,27,-1.000000,""
178_updated,w0,python3action_chameleon_2000_taurus,0.997085,1,2000.000000,1,COMPLETED_SUCCESSFULLY,207.455751,64.199977,271.655728,206.458666,270.658643,4.215868,10,-1.000000,""
178,w0,python3action_chameleon_2000,0.000000,1,-1.000000,1,COMPLETED_SUCCESSFULLY,271.655743,0.000010,271.655753,271.655743,271.655753,27165575.300201,10,-1.000000,""
181_updated,w0,python3action_chameleon_2000_taurus,0.997085,1,2000.000000,1,COMPLETED_SUCCESSFULLY,207.455825,64.199977,271.655802,206.458740,270.658717,4.215869,11,-1.000000,""
181,w0,python3action_chameleon_2000,0.000000,1,-1.000000,1,COMPLETED_SUCCESSFULLY,271.655817,0.000010,271.655827,271.655817,271.655827,27165582.723879,11,-1.000000,""
182_updated,w0,python3action_chameleon_2000_taurus,0.997085,1,2000.000000,1,COMPLETED_SUCCESSFULLY,207.455901,64.199977,271.655878,206.458816,270.658793,4.215871,13,-1.000000,""
182,w0,python3action_chameleon_2000,0.000000,1,-1.000000,1,COMPLETED_SUCCESSFULLY,271.655893,0.000010,271.655903,271.655893,271.655903,27165590.300201,13,-1.000000,""
186_updated,w0,python3action_chameleon_2000_taurus,0.997085,1,2000.000000,1,COMPLETED_SUCCESSFULLY,207.455946,64.199977,271.655923,206.458861,270.658838,4.215871,14,-1.000000,""
186,w0,python3action_chameleon_2000,0.000000,1,-1.000000,1,COMPLETED_SUCCESSFULLY,271.655953,0.000010,271.655963,271.655953,271.655963,27165596.300201,14,-1.000000,""
python3action_modeltraining_job37_9,w0,python3action_modeltraining_reduced_0.94,0.997085,1,2000.000000,1,COMPLETED_SUCCESSFULLY,271.655773,4.236027,275.891800,270.658688,274.894715,64.894470,10,-1.000000,""
python3action_modeltraining_job44_10,w0,python3action_modeltraining_reduced_0.94,0.997085,1,2000.000000,1,COMPLETED_SUCCESSFULLY,271.655847,4.236027,275.891874,270.658762,274.894789,64.894488,11,-1.000000,""
python3action_modeltraining_job48_11,w0,python3action_modeltraining_reduced_0.94,0.997085,1,2000.000000,1,COMPLETED_SUCCESSFULLY,271.655923,4.236027,275.891950,270.658838,274.894865,64.894506,13,-1.000000,""
python3action_modeltraining_job57_12,w0,python3action_modeltraining_reduced_0.94,0.997085,1,2000.000000,1,COMPLETED_SUCCESSFULLY,271.655983,4.236027,275.892010,270.658898,274.894925,64.894520,14,-1.000000,""
49_updated,w0,python3action_videoprocessing_SampleVideo_30mb_nova,0.997085,1,2000.000000,1,COMPLETED_SUCCESSFULLY,179.582383,106.799980,286.382363,178.585298,285.385278,2.672147,28,-1.000000,""
49,w0,python3action_videoprocessing_SampleVideo_30mb,0.000000,1,-1.000000,1,COMPLETED_SUCCESSFULLY,286.382378,0.000010,286.382388,286.382378,286.382388,28638238.847613,28,-1.000000,""
52_updated,w0,python3action_videoprocessing_SampleVideo_30mb_nova,0.997085,1,2000.000000,1,COMPLETED_SUCCESSFULLY,203.382338,106.799980,310.182318,202.385253,309.185233,2.894993,29,-1.000000,""
52,w0,python3action_videoprocessing_SampleVideo_30mb,0.000000,1,-1.000000,1,COMPLETED_SUCCESSFULLY,310.182333,0.000010,310.182343,310.182333,310.182343,31018234.346609,29,-1.000000,""
13_updated,w0,python3action_modeltraining_reviews100mb_taurus,0.997085,1,2000.000000,1,COMPLETED_SUCCESSFULLY,243.291903,88.199977,331.491880,242.294818,330.494795,3.747107,15,-1.000000,""
13,w0,python3action_modeltraining_reviews100mb,0.000000,1,-1.000000,1,COMPLETED_SUCCESSFULLY,331.491895,0.000010,331.491905,331.491895,331.491905,33149190.500201,15,-1.000000,""
18_updated,w0,python3action_modeltraining_reviews100mb_taurus,0.997085,1,2000.000000,1,COMPLETED_SUCCESSFULLY,243.291963,88.199977,331.491940,242.294878,330.494855,3.747108,16,-1.000000,""
18,w0,python3action_modeltraining_reviews100mb,0.000000,1,-1.000000,1,COMPLETED_SUCCESSFULLY,331.491955,0.000010,331.491965,331.491955,331.491965,33149196.500201,16,-1.000000,""
7_updated,w0,python3action_chameleon_3000_troll,0.997085,1,2000.000000,1,COMPLETED_SUCCESSFULLY,239.769324,94.000000,333.769324,238.772239,332.772239,3.540130,19,-1.000000,""
7,w0,python3action_chameleon_3000,0.000000,1,-1.000000,1,COMPLETED_SUCCESSFULLY,333.769339,0.000010,333.769349,333.769339,333.769349,33376934.910988,19,-1.000000,""
35_updated,w0,python3action_chameleon_3000_troll,0.997085,1,2000.000000,1,COMPLETED_SUCCESSFULLY,239.769384,94.000000,333.769384,238.772299,332.772299,3.540131,20,-1.000000,""
35,w0,python3action_chameleon_3000,0.000000,1,-1.000000,1,COMPLETED_SUCCESSFULLY,333.769399,0.000010,333.769409,333.769399,333.769409,33376940.911791,20,-1.000000,""
53_updated,w0,python3action_videoprocessing_SampleVideo_30mb_nova,0.997085,1,2000.000000,1,COMPLETED_SUCCESSFULLY,250.302217,106.799980,357.102197,249.305132,356.105112,3.334318,2,-1.000000,""
53,w0,python3action_videoprocessing_SampleVideo_30mb,0.000000,1,-1.000000,1,COMPLETED_SUCCESSFULLY,357.102212,0.000010,357.102222,357.102212,357.102222,35710222.246609,2,-1.000000,""
68_updated,w0,python3action_videoprocessing_SampleVideo_30mb_nova,0.997085,1,2000.000000,1,COMPLETED_SUCCESSFULLY,250.302277,106.799980,357.102257,249.305192,356.105172,3.334319,3,-1.000000,""
68,w0,python3action_videoprocessing_SampleVideo_30mb,0.000000,1,-1.000000,1,COMPLETED_SUCCESSFULLY,357.102272,0.000010,357.102282,357.102272,357.102282,35710228.246810,3,-1.000000,""
5_updated,w0,python3action_linpack_6000_orion,0.997085,1,2000.000000,1,COMPLETED_SUCCESSFULLY,254.775693,106.000000,360.775693,253.778608,359.778608,3.394138,8,-1.000000,""
5,w0,python3action_linpack_6000,0.000000,1,-1.000000,1,COMPLETED_SUCCESSFULLY,360.775708,0.000010,360.775718,360.775708,360.775718,36077571.800402,8,-1.000000,""
40_updated,w0,python3action_linpack_6000_orion,0.997085,1,2000.000000,1,COMPLETED_SUCCESSFULLY,254.775753,106.000000,360.775753,253.778668,359.778668,3.394138,9,-1.000000,""
40,w0,python3action_linpack_6000,0.000000,1,-1.000000,1,COMPLETED_SUCCESSFULLY,360.775768,0.000010,360.775778,360.775768,360.775778,36077577.800603,9,-1.000000,""
37_updated,w0,python3action_modeltraining_reviews100mb_taurus,0.997085,1,2000.000000,1,COMPLETED_SUCCESSFULLY,275.891815,88.199977,364.091792,274.894730,363.094707,4.116721,10,-1.000000,""
37,w0,python3action_modeltraining_reviews100mb,0.000000,1,-1.000000,1,COMPLETED_SUCCESSFULLY,364.091807,0.000010,364.091817,364.091807,364.091817,36409181.700201,10,-1.000000,""
44_updated,w0,python3action_modeltraining_reviews100mb_taurus,0.997085,1,2000.000000,1,COMPLETED_SUCCESSFULLY,275.891889,88.199977,364.091866,274.894804,363.094781,4.116722,11,-1.000000,""
44,w0,python3action_modeltraining_reviews100mb,0.000000,1,-1.000000,1,COMPLETED_SUCCESSFULLY,364.091881,0.000010,364.091891,364.091881,364.091891,36409189.100201,11,-1.000000,""
48_updated,w0,python3action_modeltraining_reviews100mb_taurus,0.997085,1,2000.000000,1,COMPLETED_SUCCESSFULLY,275.891965,88.199977,364.091942,274.894880,363.094857,4.116723,13,-1.000000,""
48,w0,python3action_modeltraining_reviews100mb,0.000000,1,-1.000000,1,COMPLETED_SUCCESSFULLY,364.091957,0.000010,364.091967,364.091957,364.091967,36409196.700201,13,-1.000000,""
57_updated,w0,python3action_modeltraining_reviews100mb_taurus,0.997085,1,2000.000000,1,COMPLETED_SUCCESSFULLY,275.892025,88.199977,364.092002,274.894940,363.094917,4.116723,14,-1.000000,""
57,w0,python3action_modeltraining_reviews100mb,0.000000,1,-1.000000,1,COMPLETED_SUCCESSFULLY,364.092017,0.000010,364.092027,364.092017,364.092027,36409202.700201,14,-1.000000,""
86_updated,w0,python3action_videoprocessing_SampleVideo_30mb_nova,0.997085,1,2000.000000,1,COMPLETED_SUCCESSFULLY,258.102332,106.799980,364.902312,257.105247,363.905227,3.407353,4,-1.000000,""
86,w0,python3action_videoprocessing_SampleVideo_30mb,0.000000,1,-1.000000,1,COMPLETED_SUCCESSFULLY,364.902327,0.000010,364.902337,364.902327,364.902337,36490233.700603,4,-1.000000,""
87_updated,w0,python3action_videoprocessing_SampleVideo_30mb_nova,0.997085,1,2000.000000,1,COMPLETED_SUCCESSFULLY,258.102437,106.799980,364.902417,257.105352,363.905332,3.407354,5,-1.000000,""
87,w0,python3action_videoprocessing_SampleVideo_30mb,0.000000,1,-1.000000,1,COMPLETED_SUCCESSFULLY,364.902432,0.000010,364.902442,364.902432,364.902442,36490244.246609,5,-1.000000,""
88_updated,w0,python3action_videoprocessing_SampleVideo_30mb_nova,0.997085,1,2000.000000,1,COMPLETED_SUCCESSFULLY,258.102497,106.799980,364.902477,257.105412,363.905392,3.407354,6,-1.000000,""
88,w0,python3action_videoprocessing_SampleVideo_30mb,0.000000,1,-1.000000,1,COMPLETED_SUCCESSFULLY,364.902492,0.000010,364.902502,364.902492,364.902502,36490250.246810,6,-1.000000,""
96_updated,w0,python3action_videoprocessing_SampleVideo_30mb_nova,0.997085,1,2000.000000,1,COMPLETED_SUCCESSFULLY,258.102587,106.799980,364.902567,257.105502,363.905482,3.407355,7,-1.000000,""
96,w0,python3action_videoprocessing_SampleVideo_30mb,0.000000,1,-1.000000,1,COMPLETED_SUCCESSFULLY,364.902582,0.000010,364.902592,364.902582,364.902592,36490259.247011,7,-1.000000,""
107_updated,w0,python3action_videoprocessing_SampleVideo_30mb_nova,0.997085,1,2000.000000,1,COMPLETED_SUCCESSFULLY,258.102617,106.799980,364.902597,257.105532,363.905512,3.407356,25,-1.000000,""
107,w0,python3action_videoprocessing_SampleVideo_30mb,0.000000,1,-1.000000,1,COMPLETED_SUCCESSFULLY,364.902627,0.000010,364.902637,364.902627,364.902637,36490263.747613,25,-1.000000,""
116_updated,w0,python3action_videoprocessing_SampleVideo_30mb_nova,0.997085,1,2000.000000,1,COMPLETED_SUCCESSFULLY,258.102662,106.799980,364.902642,257.105577,363.905557,3.407356,26,-1.000000,""
116,w0,python3action_videoprocessing_SampleVideo_30mb,0.000000,1,-1.000000,1,COMPLETED_SUCCESSFULLY,364.902672,0.000010,364.902682,364.902672,364.902682,36490268.248216,26,-1.000000,""
123_updated,w0,python3action_videoprocessing_SampleVideo_30mb_nova,0.997085,1,2000.000000,1,COMPLETED_SUCCESSFULLY,259.182408,106.799980,365.982388,258.185323,364.985303,3.417466,27,-1.000000,""
123,w0,python3action_videoprocessing_SampleVideo_30mb,0.000000,1,-1.000000,1,COMPLETED_SUCCESSFULLY,365.982403,0.000010,365.982413,365.982403,365.982413,36598241.347412,27,-1.000000,""
124_updated,w0,python3action_videoprocessing_SampleVideo_30mb_nova,0.997085,1,2000.000000,1,COMPLETED_SUCCESSFULLY,286.382408,106.799980,393.182389,285.385323,392.185304,3.672148,28,-1.000000,""
124,w0,python3action_videoprocessing_SampleVideo_30mb,0.000000,1,-1.000000,1,COMPLETED_SUCCESSFULLY,393.182404,0.000010,393.182414,393.182404,393.182414,39318241.400201,28,-1.000000,""
142_updated,w0,python3action_videoprocessing_SampleVideo_30mb_nova,0.997085,1,2000.000000,1,COMPLETED_SUCCESSFULLY,310.182363,106.799980,416.982344,309.185278,415.985259,3.894994,29,-1.000000,""
142,w0,python3action_videoprocessing_SampleVideo_30mb,0.000000,1,-1.000000,1,COMPLETED_SUCCESSFULLY,416.982359,0.000010,416.982369,416.982359,416.982369,41698236.900201,29,-1.000000,""
73_updated,w0,python3action_modeltraining_reviews100mb_taurus,0.997085,1,2000.000000,1,COMPLETED_SUCCESSFULLY,331.491925,88.199977,419.691902,330.494840,418.694817,4.747108,15,-1.000000,""
73,w0,python3action_modeltraining_reviews100mb,0.000000,1,-1.000000,1,COMPLETED_SUCCESSFULLY,419.691917,0.000010,419.691927,419.691917,419.691927,41969192.700201,15,-1.000000,""
106_updated,w0,python3action_modeltraining_reviews100mb_taurus,0.997085,1,2000.000000,1,COMPLETED_SUCCESSFULLY,331.491985,88.199977,419.691962,330.494900,418.694877,4.747109,16,-1.000000,""
106,w0,python3action_modeltraining_reviews100mb,0.000000,1,-1.000000,1,COMPLETED_SUCCESSFULLY,419.691977,0.000010,419.691987,419.691977,419.691987,41969198.700201,16,-1.000000,""
43_updated,w0,python3action_chameleon_3000_troll,0.997085,1,2000.000000,1,COMPLETED_SUCCESSFULLY,333.769369,94.000000,427.769369,332.772284,426.772284,4.540131,19,-1.000000,""
43,w0,python3action_chameleon_3000,0.000000,1,-1.000000,1,COMPLETED_SUCCESSFULLY,427.769384,0.000010,427.769394,427.769384,427.769394,42776939.411590,19,-1.000000,""
54_updated,w0,python3action_chameleon_3000_troll,0.997085,1,2000.000000,1,COMPLETED_SUCCESSFULLY,333.769429,94.000000,427.769429,332.772344,426.772344,4.540131,20,-1.000000,""
54,w0,python3action_chameleon_3000,0.000000,1,-1.000000,1,COMPLETED_SUCCESSFULLY,427.769444,0.000010,427.769454,427.769444,427.769454,42776945.412394,20,-1.000000,""
111_updated,w0,python3action_modeltraining_reviews100mb_taurus,0.997085,1,2000.000000,1,COMPLETED_SUCCESSFULLY,364.091837,88.199977,452.291814,363.094752,451.294729,5.116722,10,-1.000000,""
111,w0,python3action_modeltraining_reviews100mb,0.000000,1,-1.000000,1,COMPLETED_SUCCESSFULLY,452.291829,0.000010,452.291839,452.291829,452.291839,45229183.900201,10,-1.000000,""
python3action_facedetection_job28_9,w0,python3action_facedetection_reduced_1.83,0.997085,1,2000.000000,1,COMPLETED_SUCCESSFULLY,452.291859,0.000000,452.291859,451.294774,451.294774,3912893851744.051270,10,-1.000000,""
122_updated,w0,python3action_modeltraining_reviews100mb_taurus,0.997085,1,2000.000000,1,COMPLETED_SUCCESSFULLY,364.091911,88.199977,452.291888,363.094826,451.294803,5.116722,11,-1.000000,""
122,w0,python3action_modeltraining_reviews100mb,0.000000,1,-1.000000,1,COMPLETED_SUCCESSFULLY,452.291918,0.000010,452.291928,452.291918,452.291928,45229192.800201,11,-1.000000,""
python3action_facedetection_job33_10,w0,python3action_facedetection_reduced_1.83,0.997085,1,2000.000000,1,COMPLETED_SUCCESSFULLY,452.291948,0.000000,452.291948,451.294863,451.294863,3912894623407.214844,11,-1.000000,""
144_updated,w0,python3action_modeltraining_reviews100mb_taurus,0.997085,1,2000.000000,1,COMPLETED_SUCCESSFULLY,364.091987,88.199977,452.291964,363.094902,451.294879,5.116723,13,-1.000000,""
144,w0,python3action_modeltraining_reviews100mb,0.000000,1,-1.000000,1,COMPLETED_SUCCESSFULLY,452.292008,0.000010,452.292018,452.292008,452.292018,45229201.801406,13,-1.000000,""
163_updated,w0,python3action_modeltraining_reviews100mb_taurus,0.997085,1,2000.000000,1,COMPLETED_SUCCESSFULLY,364.092047,88.199977,452.292024,363.094962,451.294939,5.116724,14,-1.000000,""
python3action_facedetection_job56_11,w0,python3action_facedetection_reduced_1.83,0.997085,1,2000.000000,1,COMPLETED_SUCCESSFULLY,452.292038,0.000000,452.292038,451.294953,451.294953,3912895403845.214844,13,-1.000000,""
163,w0,python3action_modeltraining_reviews100mb,0.000000,1,-1.000000,1,COMPLETED_SUCCESSFULLY,452.292068,0.000010,452.292078,452.292068,452.292078,45229207.802209,14,-1.000000,""
python3action_facedetection_job71_12,w0,python3action_facedetection_reduced_1.83,0.997085,1,2000.000000,1,COMPLETED_SUCCESSFULLY,452.292113,0.000000,452.292113,451.295028,451.295028,3912896054210.214844,14,-1.000000,""
143_updated,w0,python3action_videoprocessing_SampleVideo_30mb_nova,0.997085,1,2000.000000,1,COMPLETED_SUCCESSFULLY,357.102242,106.799980,463.902223,356.105157,462.905138,4.334319,2,-1.000000,""
143,w0,python3action_videoprocessing_SampleVideo_30mb,0.000000,1,-1.000000,1,COMPLETED_SUCCESSFULLY,463.902238,0.000010,463.902248,463.902238,463.902248,46390224.800201,2,-1.000000,""
155_updated,w0,python3action_videoprocessing_SampleVideo_30mb_nova,0.997085,1,2000.000000,1,COMPLETED_SUCCESSFULLY,357.102302,106.799980,463.902283,356.105217,462.905198,4.334319,3,-1.000000,""
155,w0,python3action_videoprocessing_SampleVideo_30mb,0.000000,1,-1.000000,1,COMPLETED_SUCCESSFULLY,463.902298,0.000010,463.902308,463.902298,463.902308,46390230.800201,3,-1.000000,""
65_updated,w0,python3action_linpack_6000_orion,0.997085,1,2000.000000,1,COMPLETED_SUCCESSFULLY,360.775738,106.000000,466.775738,359.778653,465.778653,4.394138,8,-1.000000,""
65,w0,python3action_linpack_6000,0.000000,1,-1.000000,1,COMPLETED_SUCCESSFULLY,466.775753,0.000010,466.775763,466.775753,466.775763,46677576.301005,8,-1.000000,""
99_updated,w0,python3action_linpack_6000_orion,0.997085,1,2000.000000,1,COMPLETED_SUCCESSFULLY,360.775798,106.000000,466.775798,359.778713,465.778713,4.394139,9,-1.000000,""
99,w0,python3action_linpack_6000,0.000000,1,-1.000000,1,COMPLETED_SUCCESSFULLY,466.775813,0.000010,466.775823,466.775813,466.775823,46677582.301406,9,-1.000000,""
166_updated,w0,python3action_videoprocessing_SampleVideo_30mb_nova,0.997085,1,2000.000000,1,COMPLETED_SUCCESSFULLY,364.902357,106.799980,471.702337,363.905272,470.705252,4.407353,4,-1.000000,""
166,w0,python3action_videoprocessing_SampleVideo_30mb,0.000000,1,-1.000000,1,COMPLETED_SUCCESSFULLY,471.702352,0.000010,471.702362,471.702352,471.702362,47170236.247412,4,-1.000000,""
187_updated,w0,python3action_videoprocessing_SampleVideo_30mb_nova,0.997085,1,2000.000000,1,COMPLETED_SUCCESSFULLY,364.902462,106.799980,471.702443,363.905377,470.705358,4.407354,5,-1.000000,""
187,w0,python3action_videoprocessing_SampleVideo_30mb,0.000000,1,-1.000000,1,COMPLETED_SUCCESSFULLY,471.702458,0.000010,471.702468,471.702458,471.702468,47170246.800201,5,-1.000000,""
0_updated,w0,python3action_floatoperation_200000000_nova,0.997085,1,2000.000000,1,COMPLETED_SUCCESSFULLY,364.902522,135.399990,500.302513,363.905437,499.305428,3.687633,6,-1.000000,""
0,w0,python3action_floatoperation_200000000,0.000000,1,-1.000000,1,COMPLETED_SUCCESSFULLY,500.302528,0.000010,500.302538,500.302528,500.302538,50030253.800201,6,-1.000000,""
3_updated,w0,python3action_floatoperation_200000000_nova,0.997085,1,2000.000000,1,COMPLETED_SUCCESSFULLY,364.902612,135.399990,500.302603,363.905527,499.305518,3.687633,7,-1.000000,""
3,w0,python3action_floatoperation_200000000,0.000000,1,-1.000000,1,COMPLETED_SUCCESSFULLY,500.302618,0.000010,500.302628,500.302618,500.302628,50030262.800201,7,-1.000000,""
15_updated,w0,python3action_floatoperation_200000000_nova,0.997085,1,2000.000000,1,COMPLETED_SUCCESSFULLY,364.902657,135.399990,500.302648,363.905572,499.305563,3.687634,25,-1.000000,""
15,w0,python3action_floatoperation_200000000,0.000000,1,-1.000000,1,COMPLETED_SUCCESSFULLY,500.302678,0.000010,500.302688,500.302678,500.302688,50030268.800201,25,-1.000000,""
39_updated,w0,python3action_floatoperation_200000000_nova,0.997085,1,2000.000000,1,COMPLETED_SUCCESSFULLY,364.902702,135.399990,500.302693,363.905617,499.305608,3.687634,26,-1.000000,""
39,w0,python3action_floatoperation_200000000,0.000000,1,-1.000000,1,COMPLETED_SUCCESSFULLY,500.302723,0.000010,500.302733,500.302723,500.302733,50030273.300402,26,-1.000000,""
50_updated,w0,python3action_floatoperation_200000000_nova,0.997085,1,2000.000000,1,COMPLETED_SUCCESSFULLY,365.982433,135.399990,501.382424,364.985348,500.385339,3.695608,27,-1.000000,""
50,w0,python3action_floatoperation_200000000,0.000000,1,-1.000000,1,COMPLETED_SUCCESSFULLY,501.382439,0.000010,501.382449,501.382439,501.382449,50138244.900201,27,-1.000000,""
python3action_pyaes_job29_21,w0,python3action_pyaes_reduced_0.85,0.997085,1,2000.000000,1,COMPLETED_SUCCESSFULLY,501.382469,0.320244,501.702713,500.385384,500.705628,1563.514199,27,-1.000000,""
172_updated,w0,python3action_modeltraining_reviews100mb_taurus,0.997085,1,2000.000000,1,COMPLETED_SUCCESSFULLY,419.691947,88.199977,507.891924,418.694862,506.894839,5.747109,15,-1.000000,""
172,w0,python3action_modeltraining_reviews100mb,0.000000,1,-1.000000,1,COMPLETED_SUCCESSFULLY,507.891939,0.000010,507.891949,507.891939,507.891949,50789194.900201,15,-1.000000,""
python3action_facedetection_job80_13,w0,python3action_facedetection_reduced_1.83,0.997085,1,2000.000000,1,COMPLETED_SUCCESSFULLY,507.891969,0.000000,507.891969,506.894884,506.894884,4394967523114.182129,15,-1.000000,""
173_updated,w0,python3action_modeltraining_reviews100mb_taurus,0.997085,1,2000.000000,1,COMPLETED_SUCCESSFULLY,419.692007,88.199977,507.891984,418.694922,506.894899,5.747109,16,-1.000000,""
173,w0,python3action_modeltraining_reviews100mb,0.000000,1,-1.000000,1,COMPLETED_SUCCESSFULLY,507.892014,0.000010,507.892024,507.892014,507.892024,50789202.400402,16,-1.000000,""
python3action_facedetection_job115_14,w0,python3action_facedetection_reduced_1.83,0.997085,1,2000.000000,1,COMPLETED_SUCCESSFULLY,507.892044,0.000000,507.892044,506.894959,506.894959,4394968173409.539062,16,-1.000000,""
58_updated,w0,python3action_chameleon_3000_troll,0.997085,1,2000.000000,1,COMPLETED_SUCCESSFULLY,427.769414,94.000000,521.769414,426.772329,520.772329,5.540131,19,-1.000000,""
58,w0,python3action_chameleon_3000,0.000000,1,-1.000000,1,COMPLETED_SUCCESSFULLY,521.769429,0.000010,521.769439,521.769429,521.769439,52176943.912193,19,-1.000000,""
67_updated,w0,python3action_chameleon_3000_troll,0.997085,1,2000.000000,1,COMPLETED_SUCCESSFULLY,427.769474,94.000000,521.769474,426.772389,520.772389,5.540132,20,-1.000000,""
67,w0,python3action_chameleon_3000,0.000000,1,-1.000000,1,COMPLETED_SUCCESSFULLY,521.769489,0.000010,521.769499,521.769489,521.769499,52176949.912996,20,-1.000000,""
60_updated,w0,python3action_floatoperation_200000000_nova,0.997085,1,2000.000000,1,COMPLETED_SUCCESSFULLY,393.182434,135.399990,528.582424,392.185349,527.585339,3.896495,28,-1.000000,""
60,w0,python3action_floatoperation_200000000,0.000000,1,-1.000000,1,COMPLETED_SUCCESSFULLY,528.582439,0.000010,528.582449,528.582439,528.582449,52858244.923907,28,-1.000000,""
python3action_pyaes_job30_22,w0,python3action_pyaes_reduced_0.85,0.997085,1,2000.000000,1,COMPLETED_SUCCESSFULLY,528.582469,0.320244,528.902713,527.585384,527.905628,1648.449506,28,-1.000000,""
78_updated,w0,python3action_floatoperation_200000000_nova,0.997085,1,2000.000000,1,COMPLETED_SUCCESSFULLY,416.982389,135.399990,552.382379,415.985304,551.385294,4.072270,29,-1.000000,""
78,w0,python3action_floatoperation_200000000,0.000000,1,-1.000000,1,COMPLETED_SUCCESSFULLY,552.382394,0.000010,552.382404,552.382394,552.382404,55238240.423907,29,-1.000000,""
python3action_pyaes_job41_23,w0,python3action_pyaes_reduced_0.85,0.997085,1,2000.000000,1,COMPLETED_SUCCESSFULLY,552.382424,0.320244,552.702668,551.385339,551.705583,1722.767760,29,-1.000000,""
104_updated,w0,python3action_linpack_6000_orion,0.997085,1,2000.000000,1,COMPLETED_SUCCESSFULLY,466.775783,106.000000,572.775783,465.778698,571.778698,5.394139,8,-1.000000,""
104,w0,python3action_linpack_6000,0.000000,1,-1.000000,1,COMPLETED_SUCCESSFULLY,572.775798,0.000010,572.775808,572.775798,572.775808,57277580.801607,8,-1.000000,""
114_updated,w0,python3action_linpack_6000_orion,0.997085,1,2000.000000,1,COMPLETED_SUCCESSFULLY,466.775843,106.000000,572.775843,465.778758,571.778758,5.394139,9,-1.000000,""
114,w0,python3action_linpack_6000,0.000000,1,-1.000000,1,COMPLETED_SUCCESSFULLY,572.775858,0.000010,572.775868,572.775858,572.775868,57277586.802210,9,-1.000000,""
28_updated,w0,python3action_facedetection_SampleVideo_50mb_taurus,0.997085,1,2000.000000,1,COMPLETED_SUCCESSFULLY,452.291888,134.600046,586.891934,451.294803,585.894849,4.352858,10,-1.000000,""
28,w0,python3action_facedetection_SampleVideo_50mb,0.000000,1,-1.000000,1,COMPLETED_SUCCESSFULLY,586.891949,0.000010,586.891959,586.891949,586.891959,58689195.907543,10,-1.000000,""
33_updated,w0,python3action_facedetection_SampleVideo_50mb_taurus,0.997085,1,2000.000000,1,COMPLETED_SUCCESSFULLY,452.291978,134.600046,586.892024,451.294893,585.894939,4.352858,11,-1.000000,""
33,w0,python3action_facedetection_SampleVideo_50mb,0.000000,1,-1.000000,1,COMPLETED_SUCCESSFULLY,586.892039,0.000010,586.892049,586.892039,586.892049,58689204.914283,11,-1.000000,""
56_updated,w0,python3action_facedetection_SampleVideo_50mb_taurus,0.997085,1,2000.000000,1,COMPLETED_SUCCESSFULLY,452.292083,134.600046,586.892129,451.294998,585.895044,4.352859,13,-1.000000,""
56,w0,python3action_facedetection_SampleVideo_50mb,0.000000,1,-1.000000,1,COMPLETED_SUCCESSFULLY,586.892144,0.000010,586.892154,586.892144,586.892154,58689215.415689,13,-1.000000,""
71_updated,w0,python3action_facedetection_SampleVideo_50mb_taurus,0.997085,1,2000.000000,1,COMPLETED_SUCCESSFULLY,452.292143,134.600046,586.892189,451.295058,585.895104,4.352860,14,-1.000000,""
71,w0,python3action_facedetection_SampleVideo_50mb,0.000000,1,-1.000000,1,COMPLETED_SUCCESSFULLY,586.892204,0.000010,586.892214,586.892204,586.892214,58689221.416492,14,-1.000000,""
97_updated,w0,python3action_floatoperation_200000000_nova,0.997085,1,2000.000000,1,COMPLETED_SUCCESSFULLY,463.902268,135.399990,599.302258,462.905183,598.305173,4.418798,2,-1.000000,""
97,w0,python3action_floatoperation_200000000,0.000000,1,-1.000000,1,COMPLETED_SUCCESSFULLY,599.302273,0.000010,599.302283,599.302273,599.302283,59930228.323907,2,-1.000000,""
100_updated,w0,python3action_floatoperation_200000000_nova,0.997085,1,2000.000000,1,COMPLETED_SUCCESSFULLY,463.902328,135.399990,599.302318,462.905243,598.305233,4.418798,3,-1.000000,""
100,w0,python3action_floatoperation_200000000,0.000000,1,-1.000000,1,COMPLETED_SUCCESSFULLY,599.302333,0.000010,599.302343,599.302333,599.302343,59930234.324108,3,-1.000000,""
117_updated,w0,python3action_floatoperation_200000000_nova,0.997085,1,2000.000000,1,COMPLETED_SUCCESSFULLY,471.702382,135.399990,607.102373,470.705297,606.105288,4.476406,4,-1.000000,""
117,w0,python3action_floatoperation_200000000,0.000000,1,-1.000000,1,COMPLETED_SUCCESSFULLY,607.102388,0.000010,607.102398,607.102388,607.102398,60710239.800201,4,-1.000000,""
147_updated,w0,python3action_floatoperation_200000000_nova,0.997085,1,2000.000000,1,COMPLETED_SUCCESSFULLY,471.702488,135.399990,607.102478,470.705403,606.105393,4.476406,5,-1.000000,""
147,w0,python3action_floatoperation_200000000,0.000000,1,-1.000000,1,COMPLETED_SUCCESSFULLY,607.102493,0.000010,607.102503,607.102493,607.102503,60710250.323907,5,-1.000000,""
91_updated,w0,python3action_chameleon_3000_troll,0.997085,1,2000.000000,1,COMPLETED_SUCCESSFULLY,521.769459,94.000000,615.769459,520.772374,614.772374,6.540132,19,-1.000000,""
91,w0,python3action_chameleon_3000,0.000000,1,-1.000000,1,COMPLETED_SUCCESSFULLY,615.769474,0.000010,615.769484,615.769474,615.769484,61576948.412796,19,-1.000000,""
108_updated,w0,python3action_chameleon_3000_troll,0.997085,1,2000.000000,1,COMPLETED_SUCCESSFULLY,521.769519,94.000000,615.769519,520.772434,614.772434,6.540132,20,-1.000000,""
108,w0,python3action_chameleon_3000,0.000000,1,-1.000000,1,COMPLETED_SUCCESSFULLY,615.769534,0.000010,615.769544,615.769534,615.769544,61576954.413599,20,-1.000000,""
148_updated,w0,python3action_floatoperation_200000000_nova,0.997085,1,2000.000000,1,COMPLETED_SUCCESSFULLY,500.302558,135.399990,635.702548,499.305473,634.705463,4.687633,6,-1.000000,""
148,w0,python3action_floatoperation_200000000,0.000000,1,-1.000000,1,COMPLETED_SUCCESSFULLY,635.702563,0.000010,635.702573,635.702563,635.702573,63570257.323907,6,-1.000000,""
180_updated,w0,python3action_floatoperation_200000000_nova,0.997085,1,2000.000000,1,COMPLETED_SUCCESSFULLY,500.302648,135.399990,635.702638,499.305563,634.705553,4.687634,7,-1.000000,""
180,w0,python3action_floatoperation_200000000,0.000000,1,-1.000000,1,COMPLETED_SUCCESSFULLY,635.702653,0.000010,635.702663,635.702653,635.702663,63570266.300201,7,-1.000000,""
2_updated,w0,python3action_pyaes_4000_nova,0.997085,1,2000.000000,1,COMPLETED_SUCCESSFULLY,500.302708,139.600010,639.902718,499.305623,638.905633,4.576688,25,-1.000000,""
2,w0,python3action_pyaes_4000,0.000000,1,-1.000000,1,COMPLETED_SUCCESSFULLY,639.902733,0.000010,639.902743,639.902733,639.902743,63990274.300201,25,-1.000000,""
4_updated,w0,python3action_pyaes_4000_nova,0.997085,1,2000.000000,1,COMPLETED_SUCCESSFULLY,500.302753,139.600010,639.902763,499.305668,638.905678,4.576688,26,-1.000000,""
4,w0,python3action_pyaes_4000,0.000000,1,-1.000000,1,COMPLETED_SUCCESSFULLY,639.902793,0.000010,639.902803,639.902793,639.902803,63990280.300201,26,-1.000000,""
29_updated,w0,python3action_pyaes_4000_nova,0.997085,1,2000.000000,1,COMPLETED_SUCCESSFULLY,501.702728,139.600010,641.302738,500.705643,640.305653,4.586716,27,-1.000000,""
29,w0,python3action_pyaes_4000,0.000000,1,-1.000000,1,COMPLETED_SUCCESSFULLY,641.302753,0.000010,641.302763,641.302753,641.302763,64130276.300201,27,-1.000000,""
80_updated,w0,python3action_facedetection_SampleVideo_50mb_taurus,0.997085,1,2000.000000,1,COMPLETED_SUCCESSFULLY,507.891999,134.600046,642.492045,506.894914,641.494960,4.765934,15,-1.000000,""
80,w0,python3action_facedetection_SampleVideo_50mb,0.000000,1,-1.000000,1,COMPLETED_SUCCESSFULLY,642.492060,0.000010,642.492070,642.492060,642.492070,64249207.013480,15,-1.000000,""
115_updated,w0,python3action_facedetection_SampleVideo_50mb_taurus,0.997085,1,2000.000000,1,COMPLETED_SUCCESSFULLY,507.892074,134.600046,642.492120,506.894989,641.495035,4.765935,16,-1.000000,""
115,w0,python3action_facedetection_SampleVideo_50mb,0.000000,1,-1.000000,1,COMPLETED_SUCCESSFULLY,642.492135,0.000010,642.492145,642.492135,642.492145,64249214.514484,16,-1.000000,""
python3action_video_processing_job1_14,w0,python3action_video_processing_reduced_2.8,0.997085,1,2000.000000,1,COMPLETED_SUCCESSFULLY,642.492165,0.000000,642.492165,641.495080,641.495080,5564743982523.755859,16,-1.000000,""
30_updated,w0,python3action_pyaes_4000_nova,0.997085,1,2000.000000,1,COMPLETED_SUCCESSFULLY,528.902728,139.600010,668.502738,527.905643,667.505653,4.781559,28,-1.000000,""
30,w0,python3action_pyaes_4000,0.000000,1,-1.000000,1,COMPLETED_SUCCESSFULLY,668.502753,0.000010,668.502763,668.502753,668.502763,66850276.300201,28,-1.000000,""
121_updated,w0,python3action_linpack_6000_orion,0.997085,1,2000.000000,1,COMPLETED_SUCCESSFULLY,572.775828,106.000000,678.775828,571.778743,677.778743,6.394139,8,-1.000000,""
121,w0,python3action_linpack_6000,0.000000,1,-1.000000,1,COMPLETED_SUCCESSFULLY,678.775843,0.000010,678.775853,678.775843,678.775853,67877585.302209,8,-1.000000,""
132_updated,w0,python3action_linpack_6000_orion,0.997085,1,2000.000000,1,COMPLETED_SUCCESSFULLY,572.775888,106.000000,678.775888,571.778803,677.778803,6.394140,9,-1.000000,""
132,w0,python3action_linpack_6000,0.000000,1,-1.000000,1,COMPLETED_SUCCESSFULLY,678.775903,0.000010,678.775913,678.775903,678.775913,67877591.303013,9,-1.000000,""
41_updated,w0,python3action_pyaes_4000_nova,0.997085,1,2000.000000,1,COMPLETED_SUCCESSFULLY,552.702683,139.600010,692.302693,551.705598,691.305608,4.952046,29,-1.000000,""
41,w0,python3action_pyaes_4000,0.000000,1,-1.000000,1,COMPLETED_SUCCESSFULLY,692.302708,0.000010,692.302718,692.302708,692.302718,69230271.800201,29,-1.000000,""
113_updated,w0,python3action_chameleon_3000_troll,0.997085,1,2000.000000,1,COMPLETED_SUCCESSFULLY,615.769504,94.000000,709.769504,614.772419,708.772419,7.540132,19,-1.000000,""
113,w0,python3action_chameleon_3000,0.000000,1,-1.000000,1,COMPLETED_SUCCESSFULLY,709.769519,0.000010,709.769529,709.769519,709.769529,70976952.913398,19,-1.000000,""
136_updated,w0,python3action_chameleon_3000_troll,0.997085,1,2000.000000,1,COMPLETED_SUCCESSFULLY,615.769564,94.000000,709.769564,614.772479,708.772479,7.540133,20,-1.000000,""
136,w0,python3action_chameleon_3000,0.000000,1,-1.000000,1,COMPLETED_SUCCESSFULLY,709.769579,0.000010,709.769589,709.769579,709.769589,70976958.914201,20,-1.000000,""
145_updated,w0,python3action_facedetection_SampleVideo_50mb_taurus,0.997085,1,2000.000000,1,COMPLETED_SUCCESSFULLY,586.891979,134.600046,721.492025,585.894894,720.494940,5.352858,10,-1.000000,""
145,w0,python3action_facedetection_SampleVideo_50mb,0.000000,1,-1.000000,1,COMPLETED_SUCCESSFULLY,721.492040,0.000010,721.492050,721.492040,721.492050,72149205.021224,10,-1.000000,""
python3action_video_processing_job27_9,w0,python3action_video_processing_reduced_2.8,0.997085,1,2000.000000,1,COMPLETED_SUCCESSFULLY,721.492070,0.000000,721.492070,720.494985,720.494985,6250040347137.629883,10,-1.000000,""
146_updated,w0,python3action_facedetection_SampleVideo_50mb_taurus,0.997085,1,2000.000000,1,COMPLETED_SUCCESSFULLY,586.892069,134.600046,721.492115,585.894984,720.495030,5.352859,11,-1.000000,""
146,w0,python3action_facedetection_SampleVideo_50mb,0.000000,1,-1.000000,1,COMPLETED_SUCCESSFULLY,721.492130,0.000010,721.492140,721.492130,721.492140,72149214.027963,11,-1.000000,""
python3action_video_processing_job46_10,w0,python3action_video_processing_reduced_2.8,0.997085,1,2000.000000,1,COMPLETED_SUCCESSFULLY,721.492160,0.000000,721.492160,720.495075,720.495075,6250041128440.582031,11,-1.000000,""
161_updated,w0,python3action_facedetection_SampleVideo_50mb_taurus,0.997085,1,2000.000000,1,COMPLETED_SUCCESSFULLY,586.892174,134.600046,721.492220,585.895089,720.495135,5.352859,13,-1.000000,""
161,w0,python3action_facedetection_SampleVideo_50mb,0.000000,1,-1.000000,1,COMPLETED_SUCCESSFULLY,721.492235,0.000010,721.492245,721.492235,721.492245,72149224.529369,13,-1.000000,""
python3action_video_processing_job84_11,w0,python3action_video_processing_reduced_2.8,0.997085,1,2000.000000,1,COMPLETED_SUCCESSFULLY,721.492265,0.000000,721.492265,720.495180,720.495180,6250042039400.548828,13,-1.000000,""
190_updated,w0,python3action_facedetection_SampleVideo_50mb_taurus,0.997085,1,2000.000000,1,COMPLETED_SUCCESSFULLY,586.892234,134.600046,721.492280,585.895149,720.495195,5.352860,14,-1.000000,""
190,w0,python3action_facedetection_SampleVideo_50mb,0.000000,1,-1.000000,1,COMPLETED_SUCCESSFULLY,721.492310,0.000010,721.492320,721.492310,721.492320,72149232.030373,14,-1.000000,""
python3action_video_processing_job110_12,w0,python3action_video_processing_reduced_2.8,0.997085,1,2000.000000,1,COMPLETED_SUCCESSFULLY,721.492340,0.000000,721.492340,720.495255,720.495255,6250042690086.239258,14,-1.000000,""
42_updated,w0,python3action_pyaes_4000_nova,0.997085,1,2000.000000,1,COMPLETED_SUCCESSFULLY,599.302303,139.600010,738.902313,598.305218,737.905228,5.285854,2,-1.000000,""
42,w0,python3action_pyaes_4000,0.000000,1,-1.000000,1,COMPLETED_SUCCESSFULLY,738.902328,0.000010,738.902338,738.902328,738.902338,73890233.801406,2,-1.000000,""
66_updated,w0,python3action_pyaes_4000_nova,0.997085,1,2000.000000,1,COMPLETED_SUCCESSFULLY,599.302363,139.600010,738.902373,598.305278,737.905288,5.285854,3,-1.000000,""
66,w0,python3action_pyaes_4000,0.000000,1,-1.000000,1,COMPLETED_SUCCESSFULLY,738.902388,0.000010,738.902398,738.902388,738.902398,73890239.801807,3,-1.000000,""
69_updated,w0,python3action_pyaes_4000_nova,0.997085,1,2000.000000,1,COMPLETED_SUCCESSFULLY,607.102418,139.600010,746.702428,606.105333,745.705343,5.341728,4,-1.000000,""
69,w0,python3action_pyaes_4000,0.000000,1,-1.000000,1,COMPLETED_SUCCESSFULLY,746.702443,0.000010,746.702453,746.702443,746.702453,74670245.300201,4,-1.000000,""
python3action_facedetection_job6_3,w0,python3action_facedetection_reduced_1.83,0.997085,1,2000.000000,1,COMPLETED_SUCCESSFULLY,746.702473,0.000000,746.702473,745.705388,745.705388,15254172000146.808594,4,-1.000000,""
76_updated,w0,python3action_pyaes_4000_nova,0.997085,1,2000.000000,1,COMPLETED_SUCCESSFULLY,607.102523,139.600010,746.702533,606.105438,745.705448,5.341729,5,-1.000000,""
76,w0,python3action_pyaes_4000,0.000000,1,-1.000000,1,COMPLETED_SUCCESSFULLY,746.702548,0.000010,746.702558,746.702548,746.702558,74670255.801406,5,-1.000000,""
python3action_facedetection_job12_4,w0,python3action_facedetection_reduced_1.83,0.997085,1,2000.000000,1,COMPLETED_SUCCESSFULLY,746.702578,0.000000,746.702578,745.705493,745.705493,15254174148276.421875,5,-1.000000,""
79_updated,w0,python3action_pyaes_4000_nova,0.997085,1,2000.000000,1,COMPLETED_SUCCESSFULLY,635.702593,139.600010,775.302603,634.705508,774.305518,5.546601,6,-1.000000,""
79,w0,python3action_pyaes_4000,0.000000,1,-1.000000,1,COMPLETED_SUCCESSFULLY,775.302618,0.000010,775.302628,775.302618,775.302628,77530262.801405,6,-1.000000,""
python3action_facedetection_job22_5,w0,python3action_facedetection_reduced_1.83,0.997085,1,2000.000000,1,COMPLETED_SUCCESSFULLY,775.302648,0.000000,775.302648,774.305563,774.305563,15839218046326.792969,6,-1.000000,""
105_updated,w0,python3action_pyaes_4000_nova,0.997085,1,2000.000000,1,COMPLETED_SUCCESSFULLY,635.702683,139.600010,775.302693,634.705598,774.305608,5.546601,7,-1.000000,""
105,w0,python3action_pyaes_4000,0.000000,1,-1.000000,1,COMPLETED_SUCCESSFULLY,775.302708,0.000010,775.302718,775.302708,775.302718,77530271.800201,7,-1.000000,""
python3action_facedetection_job59_6,w0,python3action_facedetection_reduced_1.83,0.997085,1,2000.000000,1,COMPLETED_SUCCESSFULLY,775.302738,0.000000,775.302738,774.305653,774.305653,15839219887123.085938,7,-1.000000,""
197_updated,w0,python3action_facedetection_SampleVideo_50mb_taurus,0.997085,1,2000.000000,1,COMPLETED_SUCCESSFULLY,642.492090,134.600046,777.092136,641.495005,776.095051,5.765935,15,-1.000000,""
197,w0,python3action_facedetection_SampleVideo_50mb,0.000000,1,-1.000000,1,COMPLETED_SUCCESSFULLY,777.092151,0.000010,777.092161,777.092151,777.092161,77709216.127160,15,-1.000000,""
python3action_video_processing_job119_13,w0,python3action_video_processing_reduced_2.8,0.997085,1,2000.000000,1,COMPLETED_SUCCESSFULLY,777.092181,0.000000,777.092181,776.095096,776.095096,6732351736608.281250,15,-1.000000,""
131_updated,w0,python3action_pyaes_4000_nova,0.997085,1,2000.000000,1,COMPLETED_SUCCESSFULLY,639.902763,139.600010,779.502773,638.905678,778.505688,5.576688,25,-1.000000,""
131,w0,python3action_pyaes_4000,0.000000,1,-1.000000,1,COMPLETED_SUCCESSFULLY,779.502788,0.000010,779.502798,779.502788,779.502798,77950279.800201,25,-1.000000,""
python3action_facedetection_job92_19,w0,python3action_facedetection_reduced_1.83,0.997085,1,2000.000000,1,COMPLETED_SUCCESSFULLY,779.502818,0.000000,779.502818,778.505733,778.505733,15925136850799.169922,25,-1.000000,""
135_updated,w0,python3action_pyaes_4000_nova,0.997085,1,2000.000000,1,COMPLETED_SUCCESSFULLY,639.902823,139.600010,779.502833,638.905738,778.505748,5.576688,26,-1.000000,""
135,w0,python3action_pyaes_4000,0.000000,1,-1.000000,1,COMPLETED_SUCCESSFULLY,779.502863,0.000010,779.502873,779.502863,779.502873,77950287.300402,26,-1.000000,""
python3action_facedetection_job102_20,w0,python3action_facedetection_reduced_1.83,0.997085,1,2000.000000,1,COMPLETED_SUCCESSFULLY,779.502893,0.000000,779.502893,778.505808,778.505808,15925138385042.515625,26,-1.000000,""
138_updated,w0,python3action_pyaes_4000_nova,0.997085,1,2000.000000,1,COMPLETED_SUCCESSFULLY,641.302783,139.600010,780.902793,640.305698,779.905708,5.586717,27,-1.000000,""
138,w0,python3action_pyaes_4000,0.000000,1,-1.000000,1,COMPLETED_SUCCESSFULLY,780.902808,0.000010,780.902818,780.902808,780.902818,78090281.800201,27,-1.000000,""
python3action_facedetection_job112_21,w0,python3action_facedetection_reduced_1.83,0.997085,1,2000.000000,1,COMPLETED_SUCCESSFULLY,780.902838,0.000000,780.902838,779.905753,779.905753,15953775702317.660156,27,-1.000000,""
153_updated,w0,python3action_linpack_6000_orion,0.997085,1,2000.000000,1,COMPLETED_SUCCESSFULLY,678.775873,106.000000,784.775873,677.778788,783.778788,7.394140,8,-1.000000,""
153,w0,python3action_linpack_6000,0.000000,1,-1.000000,1,COMPLETED_SUCCESSFULLY,784.775888,0.000010,784.775898,784.775888,784.775898,78477589.802812,8,-1.000000,""
170_updated,w0,python3action_linpack_6000_orion,0.997085,1,2000.000000,1,COMPLETED_SUCCESSFULLY,678.775933,106.000000,784.775933,677.778848,783.778848,7.394140,9,-1.000000,""
170,w0,python3action_linpack_6000,0.000000,1,-1.000000,1,COMPLETED_SUCCESSFULLY,784.775948,0.000010,784.775958,784.775948,784.775958,78477595.803615,9,-1.000000,""
1_updated,w0,python3action_videoprocessing_SampleVideo_50mb_taurus,0.997085,1,2000.000000,1,COMPLETED_SUCCESSFULLY,642.492195,154.250029,796.742224,641.495110,795.745139,5.158801,16,-1.000000,""
1,w0,python3action_videoprocessing_SampleVideo_50mb,0.000000,1,-1.000000,1,COMPLETED_SUCCESSFULLY,796.742239,0.000010,796.742249,796.742239,796.742249,79674224.900201,16,-1.000000,""
150_updated,w0,python3action_chameleon_3000_troll,0.997085,1,2000.000000,1,COMPLETED_SUCCESSFULLY,709.769549,94.000000,803.769549,708.772464,802.772464,8.540133,19,-1.000000,""
150,w0,python3action_chameleon_3000,0.000000,1,-1.000000,1,COMPLETED_SUCCESSFULLY,803.769564,0.000010,803.769574,803.769564,803.769574,80376957.414000,19,-1.000000,""
156_updated,w0,python3action_chameleon_3000_troll,0.997085,1,2000.000000,1,COMPLETED_SUCCESSFULLY,709.769609,94.000000,803.769609,708.772524,802.772524,8.540133,20,-1.000000,""
156,w0,python3action_chameleon_3000,0.000000,1,-1.000000,1,COMPLETED_SUCCESSFULLY,803.769624,0.000010,803.769634,803.769624,803.769634,80376963.414803,20,-1.000000,""
140_updated,w0,python3action_pyaes_4000_nova,0.997085,1,2000.000000,1,COMPLETED_SUCCESSFULLY,668.502783,139.600010,808.102793,667.505698,807.105708,5.781559,28,-1.000000,""
140,w0,python3action_pyaes_4000,0.000000,1,-1.000000,1,COMPLETED_SUCCESSFULLY,808.102808,0.000010,808.102818,808.102808,808.102818,80810281.800201,28,-1.000000,""
python3action_facedetection_job125_22,w0,python3action_facedetection_reduced_1.83,0.997085,1,2000.000000,1,COMPLETED_SUCCESSFULLY,808.102838,0.000000,808.102838,807.105753,807.105753,16510179726048.027344,28,-1.000000,""
151_updated,w0,python3action_pyaes_4000_nova,0.997085,1,2000.000000,1,COMPLETED_SUCCESSFULLY,692.302738,139.600010,831.902748,691.305653,830.905663,5.952046,29,-1.000000,""
151,w0,python3action_pyaes_4000,0.000000,1,-1.000000,1,COMPLETED_SUCCESSFULLY,831.902763,0.000010,831.902773,831.902763,831.902773,83190277.300201,29,-1.000000,""
python3action_facedetection_job126_23,w0,python3action_facedetection_reduced_0.91,0.997085,1,2000.000000,1,COMPLETED_SUCCESSFULLY,831.902793,0.000000,831.902793,830.905708,830.905708,16997032326290.734375,29,-1.000000,""
27_updated,w0,python3action_videoprocessing_SampleVideo_50mb_taurus,0.997085,1,2000.000000,1,COMPLETED_SUCCESSFULLY,721.492100,154.250029,875.742129,720.495015,874.745044,5.670955,10,-1.000000,""
27,w0,python3action_videoprocessing_SampleVideo_50mb,0.000000,1,-1.000000,1,COMPLETED_SUCCESSFULLY,875.742144,0.000010,875.742154,875.742144,875.742154,87574215.405401,10,-1.000000,""
46_updated,w0,python3action_videoprocessing_SampleVideo_50mb_taurus,0.997085,1,2000.000000,1,COMPLETED_SUCCESSFULLY,721.492190,154.250029,875.742219,720.495105,874.745134,5.670956,11,-1.000000,""
46,w0,python3action_videoprocessing_SampleVideo_50mb,0.000000,1,-1.000000,1,COMPLETED_SUCCESSFULLY,875.742234,0.000010,875.742244,875.742234,875.742244,87574224.412141,11,-1.000000,""
84_updated,w0,python3action_videoprocessing_SampleVideo_50mb_taurus,0.997085,1,2000.000000,1,COMPLETED_SUCCESSFULLY,721.492295,154.250029,875.742324,720.495210,874.745239,5.670957,13,-1.000000,""
84,w0,python3action_videoprocessing_SampleVideo_50mb,0.000000,1,-1.000000,1,COMPLETED_SUCCESSFULLY,875.742339,0.000010,875.742349,875.742339,875.742349,87574234.913547,13,-1.000000,""
110_updated,w0,python3action_videoprocessing_SampleVideo_50mb_taurus,0.997085,1,2000.000000,1,COMPLETED_SUCCESSFULLY,721.492370,154.250029,875.742399,720.495285,874.745314,5.670957,14,-1.000000,""
110,w0,python3action_videoprocessing_SampleVideo_50mb,0.000000,1,-1.000000,1,COMPLETED_SUCCESSFULLY,875.742414,0.000010,875.742424,875.742414,875.742424,87574242.414551,14,-1.000000,""
160_updated,w0,python3action_pyaes_4000_nova,0.997085,1,2000.000000,1,COMPLETED_SUCCESSFULLY,738.902358,139.600010,878.502368,737.905273,877.505283,6.285854,2,-1.000000,""
160,w0,python3action_pyaes_4000,0.000000,1,-1.000000,1,COMPLETED_SUCCESSFULLY,878.502383,0.000010,878.502393,878.502383,878.502393,87850239.300201,2,-1.000000,""
python3action_facedetection_job169_1,w0,python3action_facedetection_reduced_0.91,0.997085,1,2000.000000,1,COMPLETED_SUCCESSFULLY,878.502413,0.000000,878.502413,877.505328,877.505328,17950275564243.164062,2,-1.000000,""
183_updated,w0,python3action_pyaes_4000_nova,0.997085,1,2000.000000,1,COMPLETED_SUCCESSFULLY,738.902418,139.600010,878.502428,737.905333,877.505343,6.285854,3,-1.000000,""
183,w0,python3action_pyaes_4000,0.000000,1,-1.000000,1,COMPLETED_SUCCESSFULLY,878.502458,0.000010,878.502468,878.502458,878.502468,87850246.800402,3,-1.000000,""
python3action_facedetection_job175_2,w0,python3action_facedetection_reduced_0.91,0.997085,1,2000.000000,1,COMPLETED_SUCCESSFULLY,878.502488,0.000000,878.502488,877.505403,877.505403,17950277098486.511719,3,-1.000000,""
176_updated,w0,python3action_linpack_6000_orion,0.997085,1,2000.000000,1,COMPLETED_SUCCESSFULLY,784.775918,106.000000,890.775918,783.778833,889.778833,8.394140,8,-1.000000,""
176,w0,python3action_linpack_6000,0.000000,1,-1.000000,1,COMPLETED_SUCCESSFULLY,890.775933,0.000010,890.775943,890.775933,890.775943,89077594.303414,8,-1.000000,""
189_updated,w0,python3action_linpack_6000_orion,0.997085,1,2000.000000,1,COMPLETED_SUCCESSFULLY,784.775978,106.000000,890.775978,783.778893,889.778893,8.394141,9,-1.000000,""
189,w0,python3action_linpack_6000,0.000000,1,-1.000000,1,COMPLETED_SUCCESSFULLY,890.775993,0.000010,890.776003,890.775993,890.776003,89077600.304217,9,-1.000000,""
162_updated,w0,python3action_chameleon_3000_troll,0.997085,1,2000.000000,1,COMPLETED_SUCCESSFULLY,803.769594,94.000000,897.769594,802.772509,896.772509,9.540133,19,-1.000000,""
162,w0,python3action_chameleon_3000,0.000000,1,-1.000000,1,COMPLETED_SUCCESSFULLY,897.769609,0.000010,897.769619,897.769609,897.769619,89776961.914603,19,-1.000000,""
185_updated,w0,python3action_chameleon_3000_troll,0.997085,1,2000.000000,1,COMPLETED_SUCCESSFULLY,803.769654,94.000000,897.769654,802.772569,896.772569,9.540134,20,-1.000000,""
185,w0,python3action_chameleon_3000,0.000000,1,-1.000000,1,COMPLETED_SUCCESSFULLY,897.769669,0.000010,897.769679,897.769669,897.769679,89776967.915406,20,-1.000000,""
6_updated,w0,python3action_facedetection_SampleVideo_30mb_nova,0.997085,1,2000.000000,1,COMPLETED_SUCCESSFULLY,746.702503,160.399990,907.102493,745.705418,906.105408,5.649037,4,-1.000000,""
6,w0,python3action_facedetection_SampleVideo_30mb,0.000000,1,-1.000000,1,COMPLETED_SUCCESSFULLY,907.102508,0.000010,907.102518,907.102508,907.102518,90710251.824308,4,-1.000000,""
12_updated,w0,python3action_facedetection_SampleVideo_30mb_nova,0.997085,1,2000.000000,1,COMPLETED_SUCCESSFULLY,746.702608,160.399990,907.102598,745.705523,906.105513,5.649037,5,-1.000000,""
12,w0,python3action_facedetection_SampleVideo_30mb,0.000000,1,-1.000000,1,COMPLETED_SUCCESSFULLY,907.102613,0.000010,907.102623,907.102613,907.102623,90710262.325513,5,-1.000000,""
119_updated,w0,python3action_videoprocessing_SampleVideo_50mb_taurus,0.997085,1,2000.000000,1,COMPLETED_SUCCESSFULLY,777.092211,154.250029,931.342240,776.095126,930.345155,6.031410,15,-1.000000,""
119,w0,python3action_videoprocessing_SampleVideo_50mb,0.000000,1,-1.000000,1,COMPLETED_SUCCESSFULLY,931.342255,0.000010,931.342265,931.342255,931.342265,93134226.511338,15,-1.000000,""
22_updated,w0,python3action_facedetection_SampleVideo_30mb_nova,0.997085,1,2000.000000,1,COMPLETED_SUCCESSFULLY,775.302678,160.399990,935.702668,774.305593,934.705583,5.827342,6,-1.000000,""
22,w0,python3action_facedetection_SampleVideo_30mb,0.000000,1,-1.000000,1,COMPLETED_SUCCESSFULLY,935.702683,0.000010,935.702693,935.702683,935.702693,93570269.325513,6,-1.000000,""
59_updated,w0,python3action_facedetection_SampleVideo_30mb_nova,0.997085,1,2000.000000,1,COMPLETED_SUCCESSFULLY,775.302768,160.399990,935.702758,774.305683,934.705673,5.827342,7,-1.000000,""
59,w0,python3action_facedetection_SampleVideo_30mb,0.000000,1,-1.000000,1,COMPLETED_SUCCESSFULLY,935.702773,0.000010,935.702783,935.702773,935.702783,93570278.324308,7,-1.000000,""
92_updated,w0,python3action_facedetection_SampleVideo_30mb_nova,0.997085,1,2000.000000,1,COMPLETED_SUCCESSFULLY,779.502848,160.399990,939.902838,778.505763,938.905753,5.853527,25,-1.000000,""
92,w0,python3action_facedetection_SampleVideo_30mb,0.000000,1,-1.000000,1,COMPLETED_SUCCESSFULLY,939.902853,0.000010,939.902863,939.902853,939.902863,93990286.323505,25,-1.000000,""
102_updated,w0,python3action_facedetection_SampleVideo_30mb_nova,0.997085,1,2000.000000,1,COMPLETED_SUCCESSFULLY,779.502923,160.399990,939.902913,778.505838,938.905828,5.853528,26,-1.000000,""
102,w0,python3action_facedetection_SampleVideo_30mb,0.000000,1,-1.000000,1,COMPLETED_SUCCESSFULLY,939.902928,0.000010,939.902938,939.902928,939.902938,93990293.824509,26,-1.000000,""
112_updated,w0,python3action_facedetection_SampleVideo_30mb_nova,0.997085,1,2000.000000,1,COMPLETED_SUCCESSFULLY,780.902868,160.399990,941.302858,779.905783,940.305773,5.862256,27,-1.000000,""
112,w0,python3action_facedetection_SampleVideo_30mb,0.000000,1,-1.000000,1,COMPLETED_SUCCESSFULLY,941.302873,0.000010,941.302883,941.302873,941.302883,94130288.324308,27,-1.000000,""
130_updated,w0,python3action_videoprocessing_SampleVideo_50mb_taurus,0.997085,1,2000.000000,1,COMPLETED_SUCCESSFULLY,796.742269,154.250029,950.992298,795.745184,949.995213,6.158801,16,-1.000000,""
130,w0,python3action_videoprocessing_SampleVideo_50mb,0.000000,1,-1.000000,1,COMPLETED_SUCCESSFULLY,950.992313,0.000010,950.992323,950.992313,950.992323,95099232.300201,16,-1.000000,""
125_updated,w0,python3action_facedetection_SampleVideo_30mb_nova,0.997085,1,2000.000000,1,COMPLETED_SUCCESSFULLY,808.102868,160.399990,968.502858,807.105783,967.505773,6.031832,28,-1.000000,""
125,w0,python3action_facedetection_SampleVideo_30mb,0.000000,1,-1.000000,1,COMPLETED_SUCCESSFULLY,968.502873,0.000010,968.502883,968.502873,968.502883,96850288.324308,28,-1.000000,""
192_updated,w0,python3action_chameleon_3000_troll,0.997085,1,2000.000000,1,COMPLETED_SUCCESSFULLY,897.769639,94.000000,991.769639,896.772554,990.772554,10.540134,19,-1.000000,""
192,w0,python3action_chameleon_3000,0.000000,1,-1.000000,1,COMPLETED_SUCCESSFULLY,991.769654,0.000010,991.769664,991.769654,991.769664,99176966.415205,19,-1.000000,""
126_updated,w0,python3action_facedetection_SampleVideo_30mb_nova,0.997085,1,2000.000000,1,COMPLETED_SUCCESSFULLY,831.902823,160.399990,992.302813,830.905738,991.305728,6.180211,29,-1.000000,""
126,w0,python3action_facedetection_SampleVideo_30mb,0.000000,1,-1.000000,1,COMPLETED_SUCCESSFULLY,992.302828,0.000010,992.302838,992.302828,992.302838,99230283.824308,29,-1.000000,""
191_updated,w0,python3action_linpack_6000_orion,0.997085,1,2000.000000,1,COMPLETED_SUCCESSFULLY,890.775963,106.000000,996.775963,889.778878,995.778878,9.394140,8,-1.000000,""
191,w0,python3action_linpack_6000,0.000000,1,-1.000000,1,COMPLETED_SUCCESSFULLY,996.775978,0.000010,996.775988,996.775978,996.775988,99677598.804016,8,-1.000000,""
133_updated,w0,python3action_videoprocessing_SampleVideo_50mb_taurus,0.997085,1,2000.000000,1,COMPLETED_SUCCESSFULLY,875.742174,154.250029,1029.992203,874.745089,1028.995118,6.670956,10,-1.000000,""
133,w0,python3action_videoprocessing_SampleVideo_50mb,0.000000,1,-1.000000,1,COMPLETED_SUCCESSFULLY,1029.992218,0.000010,1029.992228,1029.992218,1029.992228,102999222.800201,10,-1.000000,""
164_updated,w0,python3action_videoprocessing_SampleVideo_50mb_taurus,0.997085,1,2000.000000,1,COMPLETED_SUCCESSFULLY,875.742264,154.250029,1029.992293,874.745179,1028.995208,6.670956,11,-1.000000,""
164,w0,python3action_videoprocessing_SampleVideo_50mb,0.000000,1,-1.000000,1,COMPLETED_SUCCESSFULLY,1029.992308,0.000010,1029.992318,1029.992308,1029.992318,102999231.800201,11,-1.000000,""
169_updated,w0,python3action_facedetection_SampleVideo_30mb_nova,0.997085,1,2000.000000,1,COMPLETED_SUCCESSFULLY,878.502443,160.399990,1038.902433,877.505358,1037.905348,6.470732,2,-1.000000,""
169,w0,python3action_facedetection_SampleVideo_30mb,0.000000,1,-1.000000,1,COMPLETED_SUCCESSFULLY,1038.902448,0.000010,1038.902458,1038.902448,1038.902458,103890245.823505,2,-1.000000,""
175_updated,w0,python3action_facedetection_SampleVideo_30mb_nova,0.997085,1,2000.000000,1,COMPLETED_SUCCESSFULLY,878.502518,160.399990,1038.902508,877.505433,1037.905423,6.470732,3,-1.000000,""
175,w0,python3action_facedetection_SampleVideo_30mb,0.000000,1,-1.000000,1,COMPLETED_SUCCESSFULLY,1038.902523,0.000010,1038.902533,1038.902523,1038.902533,103890253.324509,3,-1.000000,""
