job_id,workload_name,profile,submission_time,requested_number_of_resources,requested_time,success,final_state,starting_time,execution_time,finish_time,waiting_time,turnaround_time,stretch,allocated_resources,consumed_energy,metadata
python3action_linpack_job1_0,w0,python3action_linpack,0.997085,1,2000.000000,1,COMPLETED_SUCCESSFULLY,1.002100,2.439945,3.442045,0.005015,2.444960,1.002055,2,-1.000000,""
python3action_linpack_job12_1,w0,python3action_linpack,0.997085,1,2000.000000,1,COMPLETED_SUCCESSFULLY,1.002115,2.439945,3.442060,0.005030,2.444975,1.002062,3,-1.000000,""
python3action_linpack_job23_2,w0,python3action_linpack,0.997085,1,2000.000000,1,COMPLETED_SUCCESSFULLY,1.002130,2.439945,3.442075,0.005045,2.444990,1.002068,4,-1.000000,""
python3action_linpack_job36_3,w0,python3action_linpack,0.997085,1,2000.000000,1,COMPLETED_SUCCESSFULLY,1.002145,2.439945,3.442090,0.005060,2.445005,1.002074,5,-1.000000,""
python3action_linpack_job51_4,w0,python3action_linpack,0.997085,1,2000.000000,1,COMPLETED_SUCCESSFULLY,1.002160,2.439945,3.442105,0.005075,2.445020,1.002080,6,-1.000000,""
python3action_linpack_job104_5,w0,python3action_linpack,0.997085,1,2000.000000,1,COMPLETED_SUCCESSFULLY,1.002175,2.439945,3.442120,0.005090,2.445035,1.002086,7,-1.000000,""
python3action_linpack_job132_16,w0,python3action_linpack,0.997085,1,2000.000000,1,COMPLETED_SUCCESSFULLY,1.002340,2.439945,3.442285,0.005255,2.445200,1.002154,25,-1.000000,""
python3action_linpack_job141_17,w0,python3action_linpack,0.997085,1,2000.000000,1,COMPLETED_SUCCESSFULLY,1.002355,2.439945,3.442300,0.005270,2.445215,1.002160,26,-1.000000,""
python3action_linpack_job146_18,w0,python3action_linpack,0.997085,1,2000.000000,1,COMPLETED_SUCCESSFULLY,1.002370,2.439945,3.442315,0.005285,2.445230,1.002166,27,-1.000000,""
python3action_linpack_job148_19,w0,python3action_linpack,0.997085,1,2000.000000,1,COMPLETED_SUCCESSFULLY,1.002385,2.439945,3.442330,0.005300,2.445245,1.002172,28,-1.000000,""
python3action_linpack_job188_20,w0,python3action_linpack,0.997085,1,2000.000000,1,COMPLETED_SUCCESSFULLY,1.002400,2.439945,3.442345,0.005315,2.445260,1.002178,29,-1.000000,""
python3action_linpack_job14_6,w0,python3action_linpack,0.997085,1,2000.000000,1,COMPLETED_SUCCESSFULLY,1.002190,5.760927,6.763117,0.005105,5.766032,1.000886,8,-1.000000,""
python3action_linpack_job72_7,w0,python3action_linpack,0.997085,1,2000.000000,1,COMPLETED_SUCCESSFULLY,1.002205,5.760927,6.763132,0.005120,5.766047,1.000889,9,-1.000000,""
python3action_image_processing_job24_14,w0,python3action_image_processing,0.997085,1,2000.000000,1,COMPLETED_SUCCESSFULLY,1.002310,12.398880,13.401190,0.005225,12.404105,1.000421,19,-1.000000,""
python3action_image_processing_job59_15,w0,python3action_image_processing,0.997085,1,2000.000000,1,COMPLETED_SUCCESSFULLY,1.002325,12.398880,13.401205,0.005240,12.404120,1.000423,20,-1.000000,""
1_updated,w0,python3action_linpack_5000_nova,0.997085,1,2000.000000,1,COMPLETED_SUCCESSFULLY,3.442060,34.600010,38.042070,2.444975,37.044985,1.070664,2,-1.000000,""
1,w0,python3action_linpack_5000,0.000000,1,-1.000000,1,COMPLETED_SUCCESSFULLY,38.042085,0.000010,38.042095,38.042085,38.042095,3804209.506879,2,-1.000000,""
12_updated,w0,python3action_linpack_5000_nova,0.997085,1,2000.000000,1,COMPLETED_SUCCESSFULLY,3.442090,34.600010,38.042100,2.445005,37.045015,1.070665,3,-1.000000,""
23_updated,w0,python3action_linpack_5000_nova,0.997085,1,2000.000000,1,COMPLETED_SUCCESSFULLY,3.442120,34.600010,38.042130,2.445035,37.045045,1.070666,4,-1.000000,""
12,w0,python3action_linpack_5000,0.000000,1,-1.000000,1,COMPLETED_SUCCESSFULLY,38.042130,0.000010,38.042140,38.042130,38.042140,3804214.007481,3,-1.000000,""
36_updated,w0,python3action_linpack_5000_nova,0.997085,1,2000.000000,1,COMPLETED_SUCCESSFULLY,3.442135,34.600010,38.042145,2.445050,37.045060,1.070666,5,-1.000000,""
23,w0,python3action_linpack_5000,0.000000,1,-1.000000,1,COMPLETED_SUCCESSFULLY,38.042160,0.000010,38.042170,38.042160,38.042170,3804217.007883,4,-1.000000,""
51_updated,w0,python3action_linpack_5000_nova,0.997085,1,2000.000000,1,COMPLETED_SUCCESSFULLY,3.442165,34.600010,38.042175,2.445080,37.045090,1.070667,6,-1.000000,""
104_updated,w0,python3action_linpack_5000_nova,0.997085,1,2000.000000,1,COMPLETED_SUCCESSFULLY,3.442180,34.600010,38.042190,2.445095,37.045105,1.070667,7,-1.000000,""
36,w0,python3action_linpack_5000,0.000000,1,-1.000000,1,COMPLETED_SUCCESSFULLY,38.042190,0.000010,38.042200,38.042190,38.042200,3804220.008285,5,-1.000000,""
51,w0,python3action_linpack_5000,0.000000,1,-1.000000,1,COMPLETED_SUCCESSFULLY,38.042235,0.000010,38.042245,38.042235,38.042245,3804224.508887,6,-1.000000,""
104,w0,python3action_linpack_5000,0.000000,1,-1.000000,1,COMPLETED_SUCCESSFULLY,38.042250,0.000010,38.042260,38.042250,38.042260,3804226.009088,7,-1.000000,""
132_updated,w0,python3action_linpack_5000_nova,0.997085,1,2000.000000,1,COMPLETED_SUCCESSFULLY,3.442300,34.600010,38.042310,2.445215,37.045225,1.070671,25,-1.000000,""
141_updated,w0,python3action_linpack_5000_nova,0.997085,1,2000.000000,1,COMPLETED_SUCCESSFULLY,3.442330,34.600010,38.042340,2.445245,37.045255,1.070672,26,-1.000000,""
132,w0,python3action_linpack_5000,0.000000,1,-1.000000,1,COMPLETED_SUCCESSFULLY,38.042340,0.000010,38.042350,38.042340,38.042350,3804235.010293,25,-1.000000,""
146_updated,w0,python3action_linpack_5000_nova,0.997085,1,2000.000000,1,COMPLETED_SUCCESSFULLY,3.442360,34.600010,38.042370,2.445275,37.045285,1.070673,27,-1.000000,""
141,w0,python3action_linpack_5000,0.000000,1,-1.000000,1,COMPLETED_SUCCESSFULLY,38.042370,0.000010,38.042380,38.042370,38.042380,3804238.010694,26,-1.000000,""
148_updated,w0,python3action_linpack_5000_nova,0.997085,1,2000.000000,1,COMPLETED_SUCCESSFULLY,3.442375,34.600010,38.042385,2.445290,37.045300,1.070673,28,-1.000000,""
188_updated,w0,python3action_linpack_5000_nova,0.997085,1,2000.000000,1,COMPLETED_SUCCESSFULLY,3.442405,34.600010,38.042415,2.445320,37.045330,1.070674,29,-1.000000,""
146,w0,python3action_linpack_5000,0.000000,1,-1.000000,1,COMPLETED_SUCCESSFULLY,38.042415,0.000010,38.042425,38.042415,38.042425,3804242.511297,27,-1.000000,""
148,w0,python3action_linpack_5000,0.000000,1,-1.000000,1,COMPLETED_SUCCESSFULLY,38.042445,0.000010,38.042455,38.042445,38.042455,3804245.511698,28,-1.000000,""
188,w0,python3action_linpack_5000,0.000000,1,-1.000000,1,COMPLETED_SUCCESSFULLY,38.042475,0.000010,38.042485,38.042475,38.042485,3804248.512100,29,-1.000000,""
python3action_modeltraining_job11_3,w0,python3action_modeltraining,0.997085,1,2000.000000,1,COMPLETED_SUCCESSFULLY,38.042220,30.499683,68.541903,37.045135,67.544818,2.214607,4,-1.000000,""
python3action_modeltraining_job15_4,w0,python3action_modeltraining,0.997085,1,2000.000000,1,COMPLETED_SUCCESSFULLY,38.042265,30.499683,68.541948,37.045180,67.544863,2.214609,5,-1.000000,""
python3action_modeltraining_job22_5,w0,python3action_modeltraining,0.997085,1,2000.000000,1,COMPLETED_SUCCESSFULLY,38.042295,30.499683,68.541978,37.045210,67.544893,2.214610,6,-1.000000,""
python3action_modeltraining_job37_6,w0,python3action_modeltraining,0.997085,1,2000.000000,1,COMPLETED_SUCCESSFULLY,38.042310,30.499683,68.541993,37.045225,67.544908,2.214610,7,-1.000000,""
python3action_modeltraining_job41_17,w0,python3action_modeltraining,0.997085,1,2000.000000,1,COMPLETED_SUCCESSFULLY,38.042385,30.499683,68.542068,37.045300,67.544983,2.214613,25,-1.000000,""
python3action_modeltraining_job76_18,w0,python3action_modeltraining,0.997085,1,2000.000000,1,COMPLETED_SUCCESSFULLY,38.042430,30.499683,68.542113,37.045345,67.545028,2.214614,26,-1.000000,""
python3action_modeltraining_job81_19,w0,python3action_modeltraining,0.997085,1,2000.000000,1,COMPLETED_SUCCESSFULLY,38.042490,30.499683,68.542173,37.045405,67.545088,2.214616,27,-1.000000,""
python3action_modeltraining_job108_20,w0,python3action_modeltraining,0.997085,1,2000.000000,1,COMPLETED_SUCCESSFULLY,38.042505,30.499683,68.542188,37.045420,67.545103,2.214617,28,-1.000000,""
python3action_modeltraining_job162_21,w0,python3action_modeltraining,0.997085,1,2000.000000,1,COMPLETED_SUCCESSFULLY,38.042535,30.499683,68.542218,37.045450,67.545133,2.214618,29,-1.000000,""
195_updated,w0,python3action_linpack_5000_nova,0.997085,1,2000.000000,1,COMPLETED_SUCCESSFULLY,38.042115,34.600010,72.642125,37.045030,71.645040,2.070665,2,-1.000000,""
195,w0,python3action_linpack_5000,0.000000,1,-1.000000,1,COMPLETED_SUCCESSFULLY,72.642140,0.000010,72.642150,72.642140,72.642150,7264215.000201,2,-1.000000,""
197_updated,w0,python3action_linpack_5000_nova,0.997085,1,2000.000000,1,COMPLETED_SUCCESSFULLY,38.042175,34.600010,72.642185,37.045090,71.645100,2.070667,3,-1.000000,""
197,w0,python3action_linpack_5000,0.000000,1,-1.000000,1,COMPLETED_SUCCESSFULLY,72.642200,0.000010,72.642210,72.642200,72.642210,7264221.000201,3,-1.000000,""
python3action_image_processing_job2_8,w0,python3action_image_processing,0.997085,1,2000.000000,1,COMPLETED_SUCCESSFULLY,1.002220,72.012455,73.014675,0.005135,72.017590,1.000071,10,-1.000000,""
python3action_image_processing_job32_9,w0,python3action_image_processing,0.997085,1,2000.000000,1,COMPLETED_SUCCESSFULLY,1.002235,72.012455,73.014690,0.005150,72.017605,1.000072,11,-1.000000,""
python3action_image_processing_job55_10,w0,python3action_image_processing,0.997085,1,2000.000000,1,COMPLETED_SUCCESSFULLY,1.002250,72.012455,73.014705,0.005165,72.017620,1.000072,13,-1.000000,""
python3action_image_processing_job78_11,w0,python3action_image_processing,0.997085,1,2000.000000,1,COMPLETED_SUCCESSFULLY,1.002265,72.012455,73.014720,0.005180,72.017635,1.000072,14,-1.000000,""
python3action_image_processing_job97_12,w0,python3action_image_processing,0.997085,1,2000.000000,1,COMPLETED_SUCCESSFULLY,1.002280,72.012455,73.014735,0.005195,72.017650,1.000072,15,-1.000000,""
python3action_image_processing_job99_13,w0,python3action_image_processing,0.997085,1,2000.000000,1,COMPLETED_SUCCESSFULLY,1.002295,72.012455,73.014750,0.005210,72.017665,1.000072,16,-1.000000,""
24_updated,w0,python3action_imageprocessing_SampleImage_60mb_troll,0.997085,1,2000.000000,1,COMPLETED_SUCCESSFULLY,13.401205,62.000000,75.401205,12.404120,74.404120,1.200066,19,-1.000000,""
24,w0,python3action_imageprocessing_SampleImage_60mb,0.000000,1,-1.000000,1,COMPLETED_SUCCESSFULLY,75.401220,0.000010,75.401230,75.401220,75.401230,7540123.011992,19,-1.000000,""
59_updated,w0,python3action_imageprocessing_SampleImage_60mb_troll,0.997085,1,2000.000000,1,COMPLETED_SUCCESSFULLY,13.401235,62.000000,75.401235,12.404150,74.404150,1.200067,20,-1.000000,""
59,w0,python3action_imageprocessing_SampleImage_60mb,0.000000,1,-1.000000,1,COMPLETED_SUCCESSFULLY,75.401265,0.000010,75.401275,75.401265,75.401275,7540127.512594,20,-1.000000,""
python3action_modeltraining_job165_1,w0,python3action_modeltraining,0.997085,1,2000.000000,1,COMPLETED_SUCCESSFULLY,72.642170,30.499683,103.141853,71.645085,102.144768,3.349044,2,-1.000000,""
python3action_modeltraining_job168_2,w0,python3action_modeltraining,0.997085,1,2000.000000,1,COMPLETED_SUCCESSFULLY,72.642230,30.499683,103.141913,71.645145,102.144828,3.349046,3,-1.000000,""
2_updated,w0,python3action_imageprocessing_SampleImage_40mb_taurus,0.997085,1,2000.000000,1,COMPLETED_SUCCESSFULLY,73.014690,32.600046,105.614736,72.017605,104.617651,3.209126,10,-1.000000,""
2,w0,python3action_imageprocessing_SampleImage_40mb,0.000000,1,-1.000000,1,COMPLETED_SUCCESSFULLY,105.614751,0.000010,105.614761,105.614751,105.614761,10561476.146368,10,-1.000000,""
32_updated,w0,python3action_imageprocessing_SampleImage_40mb_taurus,0.997085,1,2000.000000,1,COMPLETED_SUCCESSFULLY,73.014720,32.600046,105.614766,72.017635,104.617681,3.209127,11,-1.000000,""
55_updated,w0,python3action_imageprocessing_SampleImage_40mb_taurus,0.997085,1,2000.000000,1,COMPLETED_SUCCESSFULLY,73.014735,32.600046,105.614781,72.017650,104.617696,3.209127,13,-1.000000,""
32,w0,python3action_imageprocessing_SampleImage_40mb,0.000000,1,-1.000000,1,COMPLETED_SUCCESSFULLY,105.614796,0.000010,105.614806,105.614796,105.614806,10561480.646970,11,-1.000000,""
78_updated,w0,python3action_imageprocessing_SampleImage_40mb_taurus,0.997085,1,2000.000000,1,COMPLETED_SUCCESSFULLY,73.014765,32.600046,105.614811,72.017680,104.617726,3.209128,14,-1.000000,""
97_updated,w0,python3action_imageprocessing_SampleImage_40mb_taurus,0.997085,1,2000.000000,1,COMPLETED_SUCCESSFULLY,73.014780,32.600046,105.614826,72.017695,104.617741,3.209129,15,-1.000000,""
55,w0,python3action_imageprocessing_SampleImage_40mb,0.000000,1,-1.000000,1,COMPLETED_SUCCESSFULLY,105.614826,0.000010,105.614836,105.614826,105.614836,10561483.647372,13,-1.000000,""
99_updated,w0,python3action_imageprocessing_SampleImage_40mb_taurus,0.997085,1,2000.000000,1,COMPLETED_SUCCESSFULLY,73.014795,32.600046,105.614841,72.017710,104.617756,3.209129,16,-1.000000,""
78,w0,python3action_imageprocessing_SampleImage_40mb,0.000000,1,-1.000000,1,COMPLETED_SUCCESSFULLY,105.614856,0.000010,105.614866,105.614856,105.614866,10561486.647773,14,-1.000000,""
97,w0,python3action_imageprocessing_SampleImage_40mb,0.000000,1,-1.000000,1,COMPLETED_SUCCESSFULLY,105.614886,0.000010,105.614896,105.614886,105.614896,10561489.648175,15,-1.000000,""
99,w0,python3action_imageprocessing_SampleImage_40mb,0.000000,1,-1.000000,1,COMPLETED_SUCCESSFULLY,105.614916,0.000010,105.614926,105.614916,105.614926,10561492.648576,16,-1.000000,""
11_updated,w0,python3action_modeltraining_reviews50mb_nova,0.997085,1,2000.000000,1,COMPLETED_SUCCESSFULLY,68.541918,42.399990,110.941908,67.544833,109.944823,2.593039,4,-1.000000,""
11,w0,python3action_modeltraining_reviews50mb,0.000000,1,-1.000000,1,COMPLETED_SUCCESSFULLY,110.941923,0.000010,110.941933,110.941923,110.941933,11094193.323505,4,-1.000000,""
15_updated,w0,python3action_modeltraining_reviews50mb_nova,0.997085,1,2000.000000,1,COMPLETED_SUCCESSFULLY,68.541963,42.399990,110.941953,67.544878,109.944868,2.593040,5,-1.000000,""
22_updated,w0,python3action_modeltraining_reviews50mb_nova,0.997085,1,2000.000000,1,COMPLETED_SUCCESSFULLY,68.541993,42.399990,110.941983,67.544908,109.944898,2.593041,6,-1.000000,""
15,w0,python3action_modeltraining_reviews50mb,0.000000,1,-1.000000,1,COMPLETED_SUCCESSFULLY,110.941983,0.000010,110.941993,110.941983,110.941993,11094199.284263,5,-1.000000,""
22,w0,python3action_modeltraining_reviews50mb,0.000000,1,-1.000000,1,COMPLETED_SUCCESSFULLY,110.942013,0.000010,110.942023,110.942013,110.942023,11094202.300201,6,-1.000000,""
37_updated,w0,python3action_modeltraining_reviews50mb_nova,0.997085,1,2000.000000,1,COMPLETED_SUCCESSFULLY,68.542023,42.399990,110.942013,67.544938,109.944928,2.593041,7,-1.000000,""
37,w0,python3action_modeltraining_reviews50mb,0.000000,1,-1.000000,1,COMPLETED_SUCCESSFULLY,110.942073,0.000010,110.942083,110.942073,110.942083,11094208.301004,7,-1.000000,""
41_updated,w0,python3action_modeltraining_reviews50mb_nova,0.997085,1,2000.000000,1,COMPLETED_SUCCESSFULLY,68.542083,42.399990,110.942073,67.544998,109.944988,2.593043,25,-1.000000,""
41,w0,python3action_modeltraining_reviews50mb,0.000000,1,-1.000000,1,COMPLETED_SUCCESSFULLY,110.942118,0.000010,110.942128,110.942118,110.942128,11094212.801606,25,-1.000000,""
76_updated,w0,python3action_modeltraining_reviews50mb_nova,0.997085,1,2000.000000,1,COMPLETED_SUCCESSFULLY,68.542128,42.399990,110.942118,67.545043,109.945033,2.593044,26,-1.000000,""
76,w0,python3action_modeltraining_reviews50mb,0.000000,1,-1.000000,1,COMPLETED_SUCCESSFULLY,110.942163,0.000010,110.942173,110.942163,110.942173,11094217.302209,26,-1.000000,""
81_updated,w0,python3action_modeltraining_reviews50mb_nova,0.997085,1,2000.000000,1,COMPLETED_SUCCESSFULLY,68.542188,42.399990,110.942178,67.545103,109.945093,2.593045,27,-1.000000,""
108_updated,w0,python3action_modeltraining_reviews50mb_nova,0.997085,1,2000.000000,1,COMPLETED_SUCCESSFULLY,68.542218,42.399990,110.942208,67.545133,109.945123,2.593046,28,-1.000000,""
81,w0,python3action_modeltraining_reviews50mb,0.000000,1,-1.000000,1,COMPLETED_SUCCESSFULLY,110.942208,0.000010,110.942218,110.942208,110.942218,11094221.787275,27,-1.000000,""
108,w0,python3action_modeltraining_reviews50mb,0.000000,1,-1.000000,1,COMPLETED_SUCCESSFULLY,110.942238,0.000010,110.942248,110.942238,110.942248,11094224.800201,28,-1.000000,""
162_updated,w0,python3action_modeltraining_reviews50mb_nova,0.997085,1,2000.000000,1,COMPLETED_SUCCESSFULLY,68.542248,42.399990,110.942238,67.545163,109.945153,2.593047,29,-1.000000,""
162,w0,python3action_modeltraining_reviews50mb,0.000000,1,-1.000000,1,COMPLETED_SUCCESSFULLY,110.942298,0.000010,110.942308,110.942298,110.942308,11094230.801004,29,-1.000000,""
14_updated,w0,python3action_linpack_6000_orion,0.997085,1,2000.000000,1,COMPLETED_SUCCESSFULLY,6.763132,106.000000,112.763132,5.766047,111.766047,1.054397,8,-1.000000,""
14,w0,python3action_linpack_6000,0.000000,1,-1.000000,1,COMPLETED_SUCCESSFULLY,112.763147,0.000010,112.763157,112.763147,112.763157,11276315.724677,8,-1.000000,""
72_updated,w0,python3action_linpack_6000_orion,0.997085,1,2000.000000,1,COMPLETED_SUCCESSFULLY,6.763162,106.000000,112.763162,5.766077,111.766077,1.054397,9,-1.000000,""
72,w0,python3action_linpack_6000,0.000000,1,-1.000000,1,COMPLETED_SUCCESSFULLY,112.763192,0.000010,112.763202,112.763192,112.763202,11276320.225279,9,-1.000000,""
python3action_floatoperation_job25_4,w0,python3action_floatoperation,0.997085,1,2000.000000,1,COMPLETED_SUCCESSFULLY,110.942028,2.439945,113.381973,109.944943,112.384888,46.060413,5,-1.000000,""
python3action_floatoperation_job33_5,w0,python3action_floatoperation,0.997085,1,2000.000000,1,COMPLETED_SUCCESSFULLY,110.942058,2.439945,113.382003,109.944973,112.384918,46.060425,6,-1.000000,""
python3action_floatoperation_job38_6,w0,python3action_floatoperation,0.997085,1,2000.000000,1,COMPLETED_SUCCESSFULLY,110.942103,2.439945,113.382048,109.945018,112.384963,46.060444,7,-1.000000,""
python3action_floatoperation_job39_17,w0,python3action_floatoperation,0.997085,1,2000.000000,1,COMPLETED_SUCCESSFULLY,110.942148,2.439945,113.382093,109.945063,112.385008,46.060462,25,-1.000000,""
python3action_floatoperation_job42_18,w0,python3action_floatoperation,0.997085,1,2000.000000,1,COMPLETED_SUCCESSFULLY,110.942193,2.439945,113.382138,109.945108,112.385053,46.060481,26,-1.000000,""
python3action_floatoperation_job46_19,w0,python3action_floatoperation,0.997085,1,2000.000000,1,COMPLETED_SUCCESSFULLY,110.942253,2.439945,113.382198,109.945168,112.385113,46.060505,27,-1.000000,""
python3action_floatoperation_job52_20,w0,python3action_floatoperation,0.997085,1,2000.000000,1,COMPLETED_SUCCESSFULLY,110.942283,2.439945,113.382228,109.945198,112.385143,46.060518,28,-1.000000,""
python3action_floatoperation_job57_21,w0,python3action_floatoperation,0.997085,1,2000.000000,1,COMPLETED_SUCCESSFULLY,110.942328,2.439945,113.382273,109.945243,112.385188,46.060536,29,-1.000000,""
87_updated,w0,python3action_imageprocessing_SampleImage_60mb_troll,0.997085,1,2000.000000,1,COMPLETED_SUCCESSFULLY,75.401250,62.000000,137.401250,74.404165,136.404165,2.200067,19,-1.000000,""
87,w0,python3action_imageprocessing_SampleImage_60mb,0.000000,1,-1.000000,1,COMPLETED_SUCCESSFULLY,137.401265,0.000010,137.401275,137.401265,137.401275,13740127.512594,19,-1.000000,""
177_updated,w0,python3action_imageprocessing_SampleImage_60mb_troll,0.997085,1,2000.000000,1,COMPLETED_SUCCESSFULLY,75.401295,62.000000,137.401295,74.404210,136.404210,2.200068,20,-1.000000,""
177,w0,python3action_imageprocessing_SampleImage_60mb,0.000000,1,-1.000000,1,COMPLETED_SUCCESSFULLY,137.401325,0.000010,137.401335,137.401325,137.401335,13740133.513397,20,-1.000000,""
103_updated,w0,python3action_imageprocessing_SampleImage_40mb_taurus,0.997085,1,2000.000000,1,COMPLETED_SUCCESSFULLY,105.614781,32.600046,138.214828,104.617696,137.217743,4.209127,10,-1.000000,""
103,w0,python3action_imageprocessing_SampleImage_40mb,0.000000,1,-1.000000,1,COMPLETED_SUCCESSFULLY,138.214843,0.000010,138.214853,138.214843,138.214853,13821485.300201,10,-1.000000,""
129_updated,w0,python3action_imageprocessing_SampleImage_40mb_taurus,0.997085,1,2000.000000,1,COMPLETED_SUCCESSFULLY,105.614841,32.600046,138.214888,104.617756,137.217803,4.209129,11,-1.000000,""
129,w0,python3action_imageprocessing_SampleImage_40mb,0.000000,1,-1.000000,1,COMPLETED_SUCCESSFULLY,138.214903,0.000010,138.214913,138.214903,138.214913,13821491.300201,11,-1.000000,""
139_updated,w0,python3action_imageprocessing_SampleImage_40mb_taurus,0.997085,1,2000.000000,1,COMPLETED_SUCCESSFULLY,105.614901,32.600046,138.214948,104.617816,137.217863,4.209131,13,-1.000000,""
139,w0,python3action_imageprocessing_SampleImage_40mb,0.000000,1,-1.000000,1,COMPLETED_SUCCESSFULLY,138.214963,0.000010,138.214973,138.214963,138.214973,13821497.300201,13,-1.000000,""
170_updated,w0,python3action_imageprocessing_SampleImage_40mb_taurus,0.997085,1,2000.000000,1,COMPLETED_SUCCESSFULLY,105.614931,32.600046,138.214978,104.617846,137.217893,4.209132,14,-1.000000,""
172_updated,w0,python3action_imageprocessing_SampleImage_40mb_taurus,0.997085,1,2000.000000,1,COMPLETED_SUCCESSFULLY,105.614961,32.600046,138.215008,104.617876,137.217923,4.209133,15,-1.000000,""
170,w0,python3action_imageprocessing_SampleImage_40mb,0.000000,1,-1.000000,1,COMPLETED_SUCCESSFULLY,138.215008,0.000010,138.215018,138.215008,138.215018,13821501.762458,14,-1.000000,""
187_updated,w0,python3action_imageprocessing_SampleImage_40mb_taurus,0.997085,1,2000.000000,1,COMPLETED_SUCCESSFULLY,105.614976,32.600046,138.215023,104.617891,137.217938,4.209133,16,-1.000000,""
172,w0,python3action_imageprocessing_SampleImage_40mb,0.000000,1,-1.000000,1,COMPLETED_SUCCESSFULLY,138.215038,0.000010,138.215048,138.215038,138.215048,13821504.800201,15,-1.000000,""
187,w0,python3action_imageprocessing_SampleImage_40mb,0.000000,1,-1.000000,1,COMPLETED_SUCCESSFULLY,138.215068,0.000010,138.215078,138.215068,138.215078,13821507.800602,16,-1.000000,""
python3action_chameleon_job0_15,w0,python3action_chameleon,0.997085,1,2000.000000,1,COMPLETED_SUCCESSFULLY,137.401295,0.867914,138.269209,136.404210,137.272124,158.163340,19,-1.000000,""
python3action_chameleon_job3_16,w0,python3action_chameleon,0.997085,1,2000.000000,1,COMPLETED_SUCCESSFULLY,137.401355,0.867914,138.269269,136.404270,137.272184,158.163409,20,-1.000000,""
python3action_chameleon_job4_9,w0,python3action_chameleon,0.997085,1,2000.000000,1,COMPLETED_SUCCESSFULLY,138.214873,5.040826,143.255699,137.217788,142.258614,28.221292,10,-1.000000,""
python3action_chameleon_job7_10,w0,python3action_chameleon,0.997085,1,2000.000000,1,COMPLETED_SUCCESSFULLY,138.214933,5.040826,143.255759,137.217848,142.258674,28.221304,11,-1.000000,""
python3action_chameleon_job9_11,w0,python3action_chameleon,0.997085,1,2000.000000,1,COMPLETED_SUCCESSFULLY,138.214993,5.040826,143.255819,137.217908,142.258734,28.221316,13,-1.000000,""
python3action_chameleon_job19_12,w0,python3action_chameleon,0.997085,1,2000.000000,1,COMPLETED_SUCCESSFULLY,138.215053,5.040826,143.255879,137.217968,142.258794,28.221327,14,-1.000000,""
python3action_chameleon_job20_13,w0,python3action_chameleon,0.997085,1,2000.000000,1,COMPLETED_SUCCESSFULLY,138.215098,5.040826,143.255924,137.218013,142.258839,28.221336,15,-1.000000,""
python3action_chameleon_job29_14,w0,python3action_chameleon,0.997085,1,2000.000000,1,COMPLETED_SUCCESSFULLY,138.215113,5.040826,143.255939,137.218028,142.258854,28.221339,16,-1.000000,""
165_updated,w0,python3action_modeltraining_reviews50mb_nova,0.997085,1,2000.000000,1,COMPLETED_SUCCESSFULLY,103.141868,42.399990,145.541858,102.144783,144.544773,3.409076,2,-1.000000,""
165,w0,python3action_modeltraining_reviews50mb,0.000000,1,-1.000000,1,COMPLETED_SUCCESSFULLY,145.541873,0.000010,145.541883,145.541873,145.541883,14554188.323505,2,-1.000000,""
168_updated,w0,python3action_modeltraining_reviews50mb_nova,0.997085,1,2000.000000,1,COMPLETED_SUCCESSFULLY,103.141928,42.399990,145.541918,102.144843,144.544833,3.409077,3,-1.000000,""
168,w0,python3action_modeltraining_reviews50mb,0.000000,1,-1.000000,1,COMPLETED_SUCCESSFULLY,145.541933,0.000010,145.541943,145.541933,145.541943,14554194.323706,3,-1.000000,""
python3action_floatoperation_job62_1,w0,python3action_floatoperation,0.997085,1,2000.000000,1,COMPLETED_SUCCESSFULLY,145.541903,2.439945,147.981849,144.544818,146.984764,60.241008,2,-1.000000,""
python3action_floatoperation_job68_2,w0,python3action_floatoperation,0.997085,1,2000.000000,1,COMPLETED_SUCCESSFULLY,145.541963,2.439945,147.981909,144.544878,146.984824,60.241032,3,-1.000000,""
182_updated,w0,python3action_modeltraining_reviews50mb_nova,0.997085,1,2000.000000,1,COMPLETED_SUCCESSFULLY,110.941953,42.399990,153.341943,109.944868,152.344858,3.593040,4,-1.000000,""
182,w0,python3action_modeltraining_reviews50mb,0.000000,1,-1.000000,1,COMPLETED_SUCCESSFULLY,153.341958,0.000010,153.341968,153.341958,153.341968,15334196.846810,4,-1.000000,""
python3action_floatoperation_job94_3,w0,python3action_floatoperation,0.997085,1,2000.000000,1,COMPLETED_SUCCESSFULLY,153.341988,2.439945,155.781934,152.344903,154.784849,63.437836,4,-1.000000,""
25_updated,w0,python3action_floatoperation_100000000_nova,0.997085,1,2000.000000,1,COMPLETED_SUCCESSFULLY,113.381988,66.200020,179.582008,112.384903,178.584923,2.697657,5,-1.000000,""
25,w0,python3action_floatoperation_100000000,0.000000,1,-1.000000,1,COMPLETED_SUCCESSFULLY,179.582023,0.000010,179.582033,179.582023,179.582033,17958203.300201,5,-1.000000,""
33_updated,w0,python3action_floatoperation_100000000_nova,0.997085,1,2000.000000,1,COMPLETED_SUCCESSFULLY,113.382018,66.200020,179.582038,112.384933,178.584953,2.697657,6,-1.000000,""
33,w0,python3action_floatoperation_100000000,0.000000,1,-1.000000,1,COMPLETED_SUCCESSFULLY,179.582068,0.000010,179.582078,179.582068,179.582078,17958207.800402,6,-1.000000,""
38_updated,w0,python3action_floatoperation_100000000_nova,0.997085,1,2000.000000,1,COMPLETED_SUCCESSFULLY,113.382063,66.200020,179.582083,112.384978,178.584998,2.697658,7,-1.000000,""
38,w0,python3action_floatoperation_100000000,0.000000,1,-1.000000,1,COMPLETED_SUCCESSFULLY,179.582113,0.000010,179.582123,179.582113,179.582123,17958212.300402,7,-1.000000,""
39_updated,w0,python3action_floatoperation_100000000_nova,0.997085,1,2000.000000,1,COMPLETED_SUCCESSFULLY,113.382108,66.200020,179.582128,112.385023,178.585043,2.697658,25,-1.000000,""
39,w0,python3action_floatoperation_100000000,0.000000,1,-1.000000,1,COMPLETED_SUCCESSFULLY,179.582158,0.000010,179.582168,179.582158,179.582168,17958216.800402,25,-1.000000,""
42_updated,w0,python3action_floatoperation_100000000_nova,0.997085,1,2000.000000,1,COMPLETED_SUCCESSFULLY,113.382153,66.200020,179.582173,112.385068,178.585088,2.697659,26,-1.000000,""
42,w0,python3action_floatoperation_100000000,0.000000,1,-1.000000,1,COMPLETED_SUCCESSFULLY,179.582203,0.000010,179.582213,179.582203,179.582213,17958221.300402,26,-1.000000,""
46_updated,w0,python3action_floatoperation_100000000_nova,0.997085,1,2000.000000,1,COMPLETED_SUCCESSFULLY,113.382213,66.200020,179.582233,112.385128,178.585148,2.697660,27,-1.000000,""
52_updated,w0,python3action_floatoperation_100000000_nova,0.997085,1,2000.000000,1,COMPLETED_SUCCESSFULLY,113.382243,66.200020,179.582263,112.385158,178.585178,2.697661,28,-1.000000,""
46,w0,python3action_floatoperation_100000000,0.000000,1,-1.000000,1,COMPLETED_SUCCESSFULLY,179.582263,0.000010,179.582273,179.582263,179.582273,17958227.284378,27,-1.000000,""
52,w0,python3action_floatoperation_100000000,0.000000,1,-1.000000,1,COMPLETED_SUCCESSFULLY,179.582293,0.000010,179.582303,179.582293,179.582303,17958230.300201,28,-1.000000,""
57_updated,w0,python3action_floatoperation_100000000_nova,0.997085,1,2000.000000,1,COMPLETED_SUCCESSFULLY,113.382288,66.200020,179.582308,112.385203,178.585223,2.697661,29,-1.000000,""
57,w0,python3action_floatoperation_100000000,0.000000,1,-1.000000,1,COMPLETED_SUCCESSFULLY,179.582353,0.000010,179.582363,179.582353,179.582363,17958236.300402,29,-1.000000,""
python3action_pyaes_job30_21,w0,python3action_pyaes_reduced_0.85,0.997085,1,2000.000000,1,COMPLETED_SUCCESSFULLY,179.582383,0.320244,179.902627,178.585298,178.905542,558.654306,29,-1.000000,""
4_updated,w0,python3action_chameleon_2000_taurus,0.997085,1,2000.000000,1,COMPLETED_SUCCESSFULLY,143.255714,64.199977,207.455691,142.258629,206.458606,3.215867,10,-1.000000,""
4,w0,python3action_chameleon_2000,0.000000,1,-1.000000,1,COMPLETED_SUCCESSFULLY,207.455706,0.000010,207.455716,207.455706,207.455716,20745571.600201,10,-1.000000,""
7_updated,w0,python3action_chameleon_2000_taurus,0.997085,1,2000.000000,1,COMPLETED_SUCCESSFULLY,143.255774,64.199977,207.455751,142.258689,206.458666,3.215868,11,-1.000000,""
7,w0,python3action_chameleon_2000,0.000000,1,-1.000000,1,COMPLETED_SUCCESSFULLY,207.455766,0.000010,207.455776,207.455766,207.455776,20745577.600201,11,-1.000000,""
9_updated,w0,python3action_chameleon_2000_taurus,0.997085,1,2000.000000,1,COMPLETED_SUCCESSFULLY,143.255834,64.199977,207.455811,142.258749,206.458726,3.215869,13,-1.000000,""
9,w0,python3action_chameleon_2000,0.000000,1,-1.000000,1,COMPLETED_SUCCESSFULLY,207.455826,0.000010,207.455836,207.455826,207.455836,20745583.600201,13,-1.000000,""
19_updated,w0,python3action_chameleon_2000_taurus,0.997085,1,2000.000000,1,COMPLETED_SUCCESSFULLY,143.255894,64.199977,207.455871,142.258809,206.458786,3.215870,14,-1.000000,""
19,w0,python3action_chameleon_2000,0.000000,1,-1.000000,1,COMPLETED_SUCCESSFULLY,207.455886,0.000010,207.455896,207.455886,207.455896,20745589.600201,14,-1.000000,""
20_updated,w0,python3action_chameleon_2000_taurus,0.997085,1,2000.000000,1,COMPLETED_SUCCESSFULLY,143.255939,64.199977,207.455916,142.258854,206.458831,3.215871,15,-1.000000,""
29_updated,w0,python3action_chameleon_2000_taurus,0.997085,1,2000.000000,1,COMPLETED_SUCCESSFULLY,143.255969,64.199977,207.455946,142.258884,206.458861,3.215871,16,-1.000000,""
20,w0,python3action_chameleon_2000,0.000000,1,-1.000000,1,COMPLETED_SUCCESSFULLY,207.455946,0.000010,207.455956,207.455946,207.455956,20745595.593862,15,-1.000000,""
29,w0,python3action_chameleon_2000,0.000000,1,-1.000000,1,COMPLETED_SUCCESSFULLY,207.455976,0.000010,207.455986,207.455976,207.455986,20745598.600201,16,-1.000000,""
62_updated,w0,python3action_floatoperation_100000000_nova,0.997085,1,2000.000000,1,COMPLETED_SUCCESSFULLY,147.981864,66.200020,214.181884,146.984779,213.184799,3.220313,2,-1.000000,""
62,w0,python3action_floatoperation_100000000,0.000000,1,-1.000000,1,COMPLETED_SUCCESSFULLY,214.181899,0.000010,214.181909,214.181899,214.181909,21418190.900201,2,-1.000000,""
68_updated,w0,python3action_floatoperation_100000000_nova,0.997085,1,2000.000000,1,COMPLETED_SUCCESSFULLY,147.981924,66.200020,214.181944,146.984839,213.184859,3.220314,3,-1.000000,""
68,w0,python3action_floatoperation_100000000,0.000000,1,-1.000000,1,COMPLETED_SUCCESSFULLY,214.181959,0.000010,214.181969,214.181959,214.181969,21418196.900201,3,-1.000000,""
python3action_pyaes_job34_1,w0,python3action_pyaes_reduced_0.85,0.997085,1,2000.000000,1,COMPLETED_SUCCESSFULLY,214.181929,0.320244,214.502173,213.184844,213.505088,666.695595,2,-1.000000,""
python3action_pyaes_job53_2,w0,python3action_pyaes_reduced_0.85,0.997085,1,2000.000000,1,COMPLETED_SUCCESSFULLY,214.181989,0.320244,214.502233,213.184904,213.505148,666.695782,3,-1.000000,""
100_updated,w0,python3action_linpack_6000_orion,0.997085,1,2000.000000,1,COMPLETED_SUCCESSFULLY,112.763177,106.000000,218.763177,111.766092,217.766092,2.054397,8,-1.000000,""
100,w0,python3action_linpack_6000,0.000000,1,-1.000000,1,COMPLETED_SUCCESSFULLY,218.763192,0.000010,218.763202,218.763192,218.763202,21876320.225279,8,-1.000000,""
109_updated,w0,python3action_linpack_6000_orion,0.997085,1,2000.000000,1,COMPLETED_SUCCESSFULLY,112.763222,106.000000,218.763222,111.766137,217.766137,2.054398,9,-1.000000,""
109,w0,python3action_linpack_6000,0.000000,1,-1.000000,1,COMPLETED_SUCCESSFULLY,218.763252,0.000010,218.763262,218.763252,218.763262,21876326.226082,9,-1.000000,""
94_updated,w0,python3action_floatoperation_100000000_nova,0.997085,1,2000.000000,1,COMPLETED_SUCCESSFULLY,155.781949,66.200020,221.981969,154.784864,220.984884,3.338139,4,-1.000000,""
94,w0,python3action_floatoperation_100000000,0.000000,1,-1.000000,1,COMPLETED_SUCCESSFULLY,221.981984,0.000010,221.981994,221.981984,221.981994,22198199.400201,4,-1.000000,""
python3action_pyaes_job70_3,w0,python3action_pyaes_reduced_0.85,0.997085,1,2000.000000,1,COMPLETED_SUCCESSFULLY,221.982014,0.320244,222.302258,220.984929,221.305173,691.052308,4,-1.000000,""
0_updated,w0,python3action_chameleon_3000_troll,0.997085,1,2000.000000,1,COMPLETED_SUCCESSFULLY,138.269224,94.000000,232.269224,137.272139,231.272139,2.460342,19,-1.000000,""
0,w0,python3action_chameleon_3000,0.000000,1,-1.000000,1,COMPLETED_SUCCESSFULLY,232.269239,0.000010,232.269249,232.269239,232.269249,23226924.900401,19,-1.000000,""
3_updated,w0,python3action_chameleon_3000_troll,0.997085,1,2000.000000,1,COMPLETED_SUCCESSFULLY,138.269284,94.000000,232.269284,137.272199,231.272199,2.460343,20,-1.000000,""
3,w0,python3action_chameleon_3000,0.000000,1,-1.000000,1,COMPLETED_SUCCESSFULLY,232.269299,0.000010,232.269309,232.269299,232.269309,23226930.900602,20,-1.000000,""
112_updated,w0,python3action_floatoperation_100000000_nova,0.997085,1,2000.000000,1,COMPLETED_SUCCESSFULLY,179.582053,66.200020,245.782073,178.584968,244.784988,3.697657,5,-1.000000,""
112,w0,python3action_floatoperation_100000000,0.000000,1,-1.000000,1,COMPLETED_SUCCESSFULLY,245.782088,0.000010,245.782098,245.782088,245.782098,24578209.800201,5,-1.000000,""
119_updated,w0,python3action_floatoperation_100000000_nova,0.997085,1,2000.000000,1,COMPLETED_SUCCESSFULLY,179.582098,66.200020,245.782118,178.585013,244.785033,3.697658,6,-1.000000,""
119,w0,python3action_floatoperation_100000000,0.000000,1,-1.000000,1,COMPLETED_SUCCESSFULLY,245.782148,0.000010,245.782158,245.782148,245.782158,24578215.800201,6,-1.000000,""
127_updated,w0,python3action_floatoperation_100000000_nova,0.997085,1,2000.000000,1,COMPLETED_SUCCESSFULLY,179.582143,66.200020,245.782163,178.585058,244.785078,3.697659,7,-1.000000,""
127,w0,python3action_floatoperation_100000000,0.000000,1,-1.000000,1,COMPLETED_SUCCESSFULLY,245.782193,0.000010,245.782203,245.782193,245.782203,24578220.300402,7,-1.000000,""
140_updated,w0,python3action_floatoperation_100000000_nova,0.997085,1,2000.000000,1,COMPLETED_SUCCESSFULLY,179.582188,66.200020,245.782208,178.585103,244.785123,3.697659,25,-1.000000,""
140,w0,python3action_floatoperation_100000000,0.000000,1,-1.000000,1,COMPLETED_SUCCESSFULLY,245.782238,0.000010,245.782248,245.782238,245.782248,24578224.800402,25,-1.000000,""
152_updated,w0,python3action_floatoperation_100000000_nova,0.997085,1,2000.000000,1,COMPLETED_SUCCESSFULLY,179.582233,66.200020,245.782252,178.585148,244.785167,3.697660,26,-1.000000,""
152,w0,python3action_floatoperation_100000000,0.000000,1,-1.000000,1,COMPLETED_SUCCESSFULLY,245.782282,0.000010,245.782292,245.782282,245.782292,24578229.238371,26,-1.000000,""
192_updated,w0,python3action_floatoperation_100000000_nova,0.997085,1,2000.000000,1,COMPLETED_SUCCESSFULLY,179.582308,66.200020,245.782327,178.585223,244.785242,3.697661,27,-1.000000,""
192,w0,python3action_floatoperation_100000000,0.000000,1,-1.000000,1,COMPLETED_SUCCESSFULLY,245.782342,0.000010,245.782352,245.782342,245.782352,24578235.239174,27,-1.000000,""
198_updated,w0,python3action_floatoperation_100000000_nova,0.997085,1,2000.000000,1,COMPLETED_SUCCESSFULLY,179.582338,66.200020,245.782358,178.585253,244.785273,3.697662,28,-1.000000,""
198,w0,python3action_floatoperation_100000000,0.000000,1,-1.000000,1,COMPLETED_SUCCESSFULLY,245.782402,0.000010,245.782412,245.782402,245.782412,24578241.239978,28,-1.000000,""
python3action_pyaes_job105_4,w0,python3action_pyaes_reduced_0.85,0.997085,1,2000.000000,1,COMPLETED_SUCCESSFULLY,245.782118,0.320244,246.102361,244.785033,245.105276,765.371025,5,-1.000000,""
python3action_pyaes_job110_5,w0,python3action_pyaes_reduced_0.85,0.997085,1,2000.000000,1,COMPLETED_SUCCESSFULLY,245.782178,0.320244,246.102422,244.785093,245.105337,765.371214,6,-1.000000,""
python3action_pyaes_job123_6,w0,python3action_pyaes_reduced_0.85,0.997085,1,2000.000000,1,COMPLETED_SUCCESSFULLY,245.782223,0.320244,246.102467,244.785138,245.105382,765.371355,7,-1.000000,""
python3action_pyaes_job142_17,w0,python3action_pyaes_reduced_0.85,0.997085,1,2000.000000,1,COMPLETED_SUCCESSFULLY,245.782267,0.320244,246.102511,244.785182,245.105426,765.371493,25,-1.000000,""
30_updated,w0,python3action_pyaes_3000_nova,0.997085,1,2000.000000,1,COMPLETED_SUCCESSFULLY,179.902642,78.200020,258.102662,178.905557,257.105577,3.287794,29,-1.000000,""
30,w0,python3action_pyaes_3000,0.000000,1,-1.000000,1,COMPLETED_SUCCESSFULLY,258.102677,0.000010,258.102687,258.102677,258.102687,25810268.700201,29,-1.000000,""
43_updated,w0,python3action_chameleon_2000_taurus,0.997085,1,2000.000000,1,COMPLETED_SUCCESSFULLY,207.455736,64.199977,271.655713,206.458651,270.658628,4.215868,10,-1.000000,""
43,w0,python3action_chameleon_2000,0.000000,1,-1.000000,1,COMPLETED_SUCCESSFULLY,271.655728,0.000010,271.655738,271.655728,271.655738,27165573.800201,10,-1.000000,""
44_updated,w0,python3action_chameleon_2000_taurus,0.997085,1,2000.000000,1,COMPLETED_SUCCESSFULLY,207.455796,64.199977,271.655773,206.458711,270.658688,4.215869,11,-1.000000,""
44,w0,python3action_chameleon_2000,0.000000,1,-1.000000,1,COMPLETED_SUCCESSFULLY,271.655788,0.000010,271.655798,271.655788,271.655798,27165579.800201,11,-1.000000,""
75_updated,w0,python3action_chameleon_2000_taurus,0.997085,1,2000.000000,1,COMPLETED_SUCCESSFULLY,207.455856,64.199977,271.655833,206.458771,270.658748,4.215870,13,-1.000000,""
75,w0,python3action_chameleon_2000,0.000000,1,-1.000000,1,COMPLETED_SUCCESSFULLY,271.655848,0.000010,271.655858,271.655848,271.655858,27165585.800201,13,-1.000000,""
79_updated,w0,python3action_chameleon_2000_taurus,0.997085,1,2000.000000,1,COMPLETED_SUCCESSFULLY,207.455916,64.199977,271.655893,206.458831,270.658808,4.215871,14,-1.000000,""
79,w0,python3action_chameleon_2000,0.000000,1,-1.000000,1,COMPLETED_SUCCESSFULLY,271.655908,0.000010,271.655918,271.655908,271.655918,27165591.800201,14,-1.000000,""
80_updated,w0,python3action_chameleon_2000_taurus,0.997085,1,2000.000000,1,COMPLETED_SUCCESSFULLY,207.455991,64.199977,271.655968,206.458906,270.658883,4.215872,15,-1.000000,""
80,w0,python3action_chameleon_2000,0.000000,1,-1.000000,1,COMPLETED_SUCCESSFULLY,271.655983,0.000010,271.655993,271.655983,271.655993,27165599.300201,15,-1.000000,""
84_updated,w0,python3action_chameleon_2000_taurus,0.997085,1,2000.000000,1,COMPLETED_SUCCESSFULLY,207.456021,64.199977,271.655998,206.458936,270.658913,4.215872,16,-1.000000,""
84,w0,python3action_chameleon_2000,0.000000,1,-1.000000,1,COMPLETED_SUCCESSFULLY,271.656028,0.000010,271.656038,271.656028,271.656038,27165603.800402,16,-1.000000,""
34_updated,w0,python3action_pyaes_3000_nova,0.997085,1,2000.000000,1,COMPLETED_SUCCESSFULLY,214.502188,78.200020,292.702208,213.505103,291.705123,3.730244,2,-1.000000,""
34,w0,python3action_pyaes_3000,0.000000,1,-1.000000,1,COMPLETED_SUCCESSFULLY,292.702223,0.000010,292.702233,292.702223,292.702233,29270223.300201,2,-1.000000,""
53_updated,w0,python3action_pyaes_3000_nova,0.997085,1,2000.000000,1,COMPLETED_SUCCESSFULLY,214.502248,78.200020,292.702268,213.505163,291.705183,3.730244,3,-1.000000,""
53,w0,python3action_pyaes_3000,0.000000,1,-1.000000,1,COMPLETED_SUCCESSFULLY,292.702283,0.000010,292.702293,292.702283,292.702293,29270229.300201,3,-1.000000,""
70_updated,w0,python3action_pyaes_3000_nova,0.997085,1,2000.000000,1,COMPLETED_SUCCESSFULLY,222.302273,78.200020,300.502293,221.305188,299.505208,3.829989,4,-1.000000,""
70,w0,python3action_pyaes_3000,0.000000,1,-1.000000,1,COMPLETED_SUCCESSFULLY,300.502308,0.000010,300.502318,300.502308,300.502318,30050231.800201,4,-1.000000,""
105_updated,w0,python3action_pyaes_3000_nova,0.997085,1,2000.000000,1,COMPLETED_SUCCESSFULLY,246.102376,78.200020,324.302396,245.105291,323.305311,4.134338,5,-1.000000,""
105,w0,python3action_pyaes_3000,0.000000,1,-1.000000,1,COMPLETED_SUCCESSFULLY,324.302411,0.000010,324.302421,324.302411,324.302421,32430242.100201,5,-1.000000,""
110_updated,w0,python3action_pyaes_3000_nova,0.997085,1,2000.000000,1,COMPLETED_SUCCESSFULLY,246.102437,78.200020,324.302457,245.105352,323.305372,4.134339,6,-1.000000,""
110,w0,python3action_pyaes_3000,0.000000,1,-1.000000,1,COMPLETED_SUCCESSFULLY,324.302472,0.000010,324.302482,324.302472,324.302482,32430248.200201,6,-1.000000,""
123_updated,w0,python3action_pyaes_3000_nova,0.997085,1,2000.000000,1,COMPLETED_SUCCESSFULLY,246.102482,78.200020,324.302502,245.105397,323.305417,4.134339,7,-1.000000,""
123,w0,python3action_pyaes_3000,0.000000,1,-1.000000,1,COMPLETED_SUCCESSFULLY,324.302532,0.000010,324.302542,324.302532,324.302542,32430254.200201,7,-1.000000,""
142_updated,w0,python3action_pyaes_3000_nova,0.997085,1,2000.000000,1,COMPLETED_SUCCESSFULLY,246.102526,78.200020,324.302546,245.105441,323.305461,4.134340,25,-1.000000,""
142,w0,python3action_pyaes_3000,0.000000,1,-1.000000,1,COMPLETED_SUCCESSFULLY,324.302576,0.000010,324.302586,324.302576,324.302586,32430258.600402,25,-1.000000,""
python3action_video_processing_job5_17,w0,python3action_video_processing_reduced_0.97,0.997085,1,2000.000000,1,COMPLETED_SUCCESSFULLY,324.302606,0.000000,324.302606,323.305521,323.305521,6621246652806.761719,25,-1.000000,""
116_updated,w0,python3action_linpack_6000_orion,0.997085,1,2000.000000,1,COMPLETED_SUCCESSFULLY,218.763222,106.000000,324.763222,217.766137,323.766137,3.054398,8,-1.000000,""
116,w0,python3action_linpack_6000,0.000000,1,-1.000000,1,COMPLETED_SUCCESSFULLY,324.763237,0.000010,324.763247,324.763237,324.763247,32476324.725881,8,-1.000000,""
120_updated,w0,python3action_linpack_6000_orion,0.997085,1,2000.000000,1,COMPLETED_SUCCESSFULLY,218.763282,106.000000,324.763282,217.766197,323.766197,3.054398,9,-1.000000,""
120,w0,python3action_linpack_6000,0.000000,1,-1.000000,1,COMPLETED_SUCCESSFULLY,324.763297,0.000010,324.763307,324.763297,324.763307,32476330.726685,9,-1.000000,""
8_updated,w0,python3action_modeltraining_reviews100mb_nova,0.997085,1,2000.000000,1,COMPLETED_SUCCESSFULLY,245.782312,79.600010,325.382322,244.785227,324.385237,4.075191,26,-1.000000,""
8,w0,python3action_modeltraining_reviews100mb,0.000000,1,-1.000000,1,COMPLETED_SUCCESSFULLY,325.382337,0.000010,325.382347,325.382337,325.382347,32538234.715870,26,-1.000000,""
python3action_video_processing_job10_18,w0,python3action_video_processing_reduced_0.97,0.997085,1,2000.000000,1,COMPLETED_SUCCESSFULLY,325.382367,0.000000,325.382367,324.385282,324.385282,6643359992872.827148,26,-1.000000,""
27_updated,w0,python3action_modeltraining_reviews100mb_nova,0.997085,1,2000.000000,1,COMPLETED_SUCCESSFULLY,245.782372,79.600010,325.382382,244.785287,324.385297,4.075192,27,-1.000000,""
27,w0,python3action_modeltraining_reviews100mb,0.000000,1,-1.000000,1,COMPLETED_SUCCESSFULLY,325.382412,0.000010,325.382422,325.382412,325.382422,32538242.216874,27,-1.000000,""
60_updated,w0,python3action_modeltraining_reviews100mb_nova,0.997085,1,2000.000000,1,COMPLETED_SUCCESSFULLY,245.782432,79.600010,325.382442,244.785347,324.385357,4.075192,28,-1.000000,""
python3action_video_processing_job17_19,w0,python3action_video_processing_reduced_0.97,0.997085,1,2000.000000,1,COMPLETED_SUCCESSFULLY,325.382442,0.000000,325.382442,324.385357,324.385357,6643361529066.754883,27,-1.000000,""
60,w0,python3action_modeltraining_reviews100mb,0.000000,1,-1.000000,1,COMPLETED_SUCCESSFULLY,325.382472,0.000010,325.382482,325.382472,325.382482,32538248.217677,28,-1.000000,""
python3action_video_processing_job31_20,w0,python3action_video_processing_reduced_0.97,0.997085,1,2000.000000,1,COMPLETED_SUCCESSFULLY,325.382517,0.000000,325.382517,324.385432,324.385432,6643363065260.682617,28,-1.000000,""
56_updated,w0,python3action_chameleon_3000_troll,0.997085,1,2000.000000,1,COMPLETED_SUCCESSFULLY,232.269269,94.000000,326.269269,231.272184,325.272184,3.460342,19,-1.000000,""
56,w0,python3action_chameleon_3000,0.000000,1,-1.000000,1,COMPLETED_SUCCESSFULLY,326.269284,0.000010,326.269294,326.269284,326.269294,32626929.401004,19,-1.000000,""
93_updated,w0,python3action_chameleon_3000_troll,0.997085,1,2000.000000,1,COMPLETED_SUCCESSFULLY,232.269329,94.000000,326.269329,231.272244,325.272244,3.460343,20,-1.000000,""
93,w0,python3action_chameleon_3000,0.000000,1,-1.000000,1,COMPLETED_SUCCESSFULLY,326.269344,0.000010,326.269354,326.269344,326.269354,32626935.401406,20,-1.000000,""
101_updated,w0,python3action_chameleon_2000_taurus,0.997085,1,2000.000000,1,COMPLETED_SUCCESSFULLY,271.655758,64.199977,335.855735,270.658673,334.858650,5.215869,10,-1.000000,""
101,w0,python3action_chameleon_2000,0.000000,1,-1.000000,1,COMPLETED_SUCCESSFULLY,335.855750,0.000010,335.855760,335.855750,335.855760,33585576.000201,10,-1.000000,""
136_updated,w0,python3action_chameleon_2000_taurus,0.997085,1,2000.000000,1,COMPLETED_SUCCESSFULLY,271.655818,64.199977,335.855795,270.658733,334.858710,5.215870,11,-1.000000,""
136,w0,python3action_chameleon_2000,0.000000,1,-1.000000,1,COMPLETED_SUCCESSFULLY,335.855810,0.000010,335.855820,335.855810,335.855820,33585582.000201,11,-1.000000,""
147_updated,w0,python3action_chameleon_2000_taurus,0.997085,1,2000.000000,1,COMPLETED_SUCCESSFULLY,271.655878,64.199977,335.855855,270.658793,334.858770,5.215871,13,-1.000000,""
147,w0,python3action_chameleon_2000,0.000000,1,-1.000000,1,COMPLETED_SUCCESSFULLY,335.855870,0.000010,335.855880,335.855870,335.855880,33585588.000201,13,-1.000000,""
149_updated,w0,python3action_chameleon_2000_taurus,0.997085,1,2000.000000,1,COMPLETED_SUCCESSFULLY,271.655938,64.199977,335.855915,270.658853,334.858830,5.215871,14,-1.000000,""
149,w0,python3action_chameleon_2000,0.000000,1,-1.000000,1,COMPLETED_SUCCESSFULLY,335.855930,0.000010,335.855940,335.855930,335.855940,33585594.000201,14,-1.000000,""
164_updated,w0,python3action_chameleon_2000_taurus,0.997085,1,2000.000000,1,COMPLETED_SUCCESSFULLY,271.656013,64.199977,335.855990,270.658928,334.858905,5.215873,15,-1.000000,""
164,w0,python3action_chameleon_2000,0.000000,1,-1.000000,1,COMPLETED_SUCCESSFULLY,335.856005,0.000010,335.856015,335.856005,335.856015,33585601.500201,15,-1.000000,""
171_updated,w0,python3action_chameleon_2000_taurus,0.997085,1,2000.000000,1,COMPLETED_SUCCESSFULLY,271.656058,64.199977,335.856035,270.658973,334.858950,5.215873,16,-1.000000,""
171,w0,python3action_chameleon_2000,0.000000,1,-1.000000,1,COMPLETED_SUCCESSFULLY,335.856065,0.000010,335.856075,335.856065,335.856075,33585607.500201,16,-1.000000,""
71_updated,w0,python3action_modeltraining_reviews100mb_nova,0.997085,1,2000.000000,1,COMPLETED_SUCCESSFULLY,258.102707,79.600010,337.702717,257.105622,336.705632,4.229970,29,-1.000000,""
71,w0,python3action_modeltraining_reviews100mb,0.000000,1,-1.000000,1,COMPLETED_SUCCESSFULLY,337.702732,0.000010,337.702742,337.702732,337.702742,33770274.200201,29,-1.000000,""
python3action_video_processing_job50_21,w0,python3action_video_processing_reduced_0.97,0.997085,1,2000.000000,1,COMPLETED_SUCCESSFULLY,337.702762,0.000000,337.702762,336.705677,336.705677,6895679757976.577148,29,-1.000000,""
python3action_modeltraining_job126_11,w0,python3action_modeltraining_reduced_0.94,0.997085,1,2000.000000,1,COMPLETED_SUCCESSFULLY,335.855900,4.236027,340.091927,334.858815,339.094842,80.050212,13,-1.000000,""
113_updated,w0,python3action_modeltraining_reviews100mb_nova,0.997085,1,2000.000000,1,COMPLETED_SUCCESSFULLY,292.702253,79.600010,372.302263,291.705168,371.305178,4.664637,2,-1.000000,""
113,w0,python3action_modeltraining_reviews100mb,0.000000,1,-1.000000,1,COMPLETED_SUCCESSFULLY,372.302278,0.000010,372.302288,372.302278,372.302288,37230228.800201,2,-1.000000,""
python3action_video_processing_job77_1,w0,python3action_video_processing_reduced_0.97,0.997085,1,2000.000000,1,COMPLETED_SUCCESSFULLY,372.302308,0.000000,372.302308,371.305223,371.305223,7604273064477.541992,2,-1.000000,""
155_updated,w0,python3action_modeltraining_reviews100mb_nova,0.997085,1,2000.000000,1,COMPLETED_SUCCESSFULLY,292.702313,79.600010,372.302323,291.705228,371.305238,4.664638,3,-1.000000,""
155,w0,python3action_modeltraining_reviews100mb,0.000000,1,-1.000000,1,COMPLETED_SUCCESSFULLY,372.302353,0.000010,372.302363,372.302353,372.302363,37230236.300402,3,-1.000000,""
python3action_video_processing_job92_2,w0,python3action_video_processing_reduced_0.97,0.997085,1,2000.000000,1,COMPLETED_SUCCESSFULLY,372.302383,0.000000,372.302383,371.305298,371.305298,7604274600506.971680,3,-1.000000,""
163_updated,w0,python3action_modeltraining_reviews100mb_nova,0.997085,1,2000.000000,1,COMPLETED_SUCCESSFULLY,300.502338,79.600010,380.102348,299.505253,379.105263,4.762628,4,-1.000000,""
163,w0,python3action_modeltraining_reviews100mb,0.000000,1,-1.000000,1,COMPLETED_SUCCESSFULLY,380.102363,0.000010,380.102373,380.102363,380.102373,38010237.300201,4,-1.000000,""
python3action_video_processing_job144_3,w0,python3action_video_processing_reduced_0.97,0.997085,1,2000.000000,1,COMPLETED_SUCCESSFULLY,380.102393,0.000000,380.102393,379.105308,379.105308,7764017588903.919922,4,-1.000000,""
175_updated,w0,python3action_chameleon_2000_taurus,0.997085,1,2000.000000,1,COMPLETED_SUCCESSFULLY,335.855780,64.199977,400.055757,334.858695,399.058672,6.215869,10,-1.000000,""
175,w0,python3action_chameleon_2000,0.000000,1,-1.000000,1,COMPLETED_SUCCESSFULLY,400.055772,0.000010,400.055782,400.055772,400.055782,40005578.200201,10,-1.000000,""
189_updated,w0,python3action_chameleon_2000_taurus,0.997085,1,2000.000000,1,COMPLETED_SUCCESSFULLY,335.855840,64.199977,400.055817,334.858755,399.058732,6.215870,11,-1.000000,""
189,w0,python3action_chameleon_2000,0.000000,1,-1.000000,1,COMPLETED_SUCCESSFULLY,400.055832,0.000010,400.055842,400.055832,400.055842,40005584.200201,11,-1.000000,""
169_updated,w0,python3action_modeltraining_reviews100mb_nova,0.997085,1,2000.000000,1,COMPLETED_SUCCESSFULLY,324.302441,79.600010,403.902451,323.305356,402.905366,5.061625,5,-1.000000,""
169,w0,python3action_modeltraining_reviews100mb,0.000000,1,-1.000000,1,COMPLETED_SUCCESSFULLY,403.902466,0.000010,403.902476,403.902466,403.902476,40390247.600201,5,-1.000000,""
python3action_video_processing_job156_4,w0,python3action_video_processing_reduced_0.97,0.997085,1,2000.000000,1,COMPLETED_SUCCESSFULLY,403.902496,0.000000,403.902496,402.905411,402.905411,8251439986869.301758,5,-1.000000,""
178_updated,w0,python3action_modeltraining_reviews100mb_nova,0.997085,1,2000.000000,1,COMPLETED_SUCCESSFULLY,324.302502,79.600010,403.902511,323.305417,402.905426,5.061625,6,-1.000000,""
178,w0,python3action_modeltraining_reviews100mb,0.000000,1,-1.000000,1,COMPLETED_SUCCESSFULLY,403.902556,0.000010,403.902566,403.902556,403.902566,40390256.601406,6,-1.000000,""
181_updated,w0,python3action_modeltraining_reviews100mb_nova,0.997085,1,2000.000000,1,COMPLETED_SUCCESSFULLY,324.302561,79.600010,403.902571,323.305476,402.905486,5.061626,7,-1.000000,""
181,w0,python3action_modeltraining_reviews100mb,0.000000,1,-1.000000,1,COMPLETED_SUCCESSFULLY,403.902601,0.000010,403.902611,403.902601,403.902611,40390261.100402,7,-1.000000,""
95_updated,w0,python3action_chameleon_3000_troll,0.997085,1,2000.000000,1,COMPLETED_SUCCESSFULLY,326.269314,94.000000,420.269314,325.272229,419.272229,4.460343,19,-1.000000,""
95,w0,python3action_chameleon_3000,0.000000,1,-1.000000,1,COMPLETED_SUCCESSFULLY,420.269329,0.000010,420.269339,420.269329,420.269339,42026933.901607,19,-1.000000,""
98_updated,w0,python3action_chameleon_3000_troll,0.997085,1,2000.000000,1,COMPLETED_SUCCESSFULLY,326.269374,94.000000,420.269374,325.272289,419.272289,4.460344,20,-1.000000,""
98,w0,python3action_chameleon_3000,0.000000,1,-1.000000,1,COMPLETED_SUCCESSFULLY,420.269389,0.000010,420.269399,420.269389,420.269399,42026939.902209,20,-1.000000,""
126_updated,w0,python3action_modeltraining_reviews100mb_taurus,0.997085,1,2000.000000,1,COMPLETED_SUCCESSFULLY,340.091942,88.199977,428.291919,339.094857,427.294834,4.844614,13,-1.000000,""
126,w0,python3action_modeltraining_reviews100mb,0.000000,1,-1.000000,1,COMPLETED_SUCCESSFULLY,428.291934,0.000010,428.291944,428.291934,428.291944,42829194.400201,13,-1.000000,""
134_updated,w0,python3action_linpack_6000_orion,0.997085,1,2000.000000,1,COMPLETED_SUCCESSFULLY,324.763267,106.000000,430.763267,323.766182,429.766182,4.054398,8,-1.000000,""
134,w0,python3action_linpack_6000,0.000000,1,-1.000000,1,COMPLETED_SUCCESSFULLY,430.763282,0.000010,430.763292,430.763282,430.763292,43076329.226484,8,-1.000000,""
137_updated,w0,python3action_linpack_6000_orion,0.997085,1,2000.000000,1,COMPLETED_SUCCESSFULLY,324.763327,106.000000,430.763327,323.766242,429.766242,4.054399,9,-1.000000,""
137,w0,python3action_linpack_6000,0.000000,1,-1.000000,1,COMPLETED_SUCCESSFULLY,430.763342,0.000010,430.763352,430.763342,430.763352,43076335.227287,9,-1.000000,""
5_updated,w0,python3action_videoprocessing_SampleVideo_30mb_nova,0.997085,1,2000.000000,1,COMPLETED_SUCCESSFULLY,324.302636,106.799980,431.102616,323.305551,430.105531,4.027206,25,-1.000000,""
5,w0,python3action_videoprocessing_SampleVideo_30mb,0.000000,1,-1.000000,1,COMPLETED_SUCCESSFULLY,431.102631,0.000010,431.102641,431.102631,431.102641,43110264.147613,25,-1.000000,""
10_updated,w0,python3action_videoprocessing_SampleVideo_30mb_nova,0.997085,1,2000.000000,1,COMPLETED_SUCCESSFULLY,325.382397,106.799980,432.182378,324.385312,431.185293,4.037316,26,-1.000000,""
10,w0,python3action_videoprocessing_SampleVideo_30mb,0.000000,1,-1.000000,1,COMPLETED_SUCCESSFULLY,432.182393,0.000010,432.182403,432.182393,432.182403,43218240.300201,26,-1.000000,""
17_updated,w0,python3action_videoprocessing_SampleVideo_30mb_nova,0.997085,1,2000.000000,1,COMPLETED_SUCCESSFULLY,325.382487,106.799980,432.182468,324.385402,431.185383,4.037317,27,-1.000000,""
17,w0,python3action_videoprocessing_SampleVideo_30mb,0.000000,1,-1.000000,1,COMPLETED_SUCCESSFULLY,432.182483,0.000010,432.182493,432.182483,432.182493,43218249.300201,27,-1.000000,""
31_updated,w0,python3action_videoprocessing_SampleVideo_30mb_nova,0.997085,1,2000.000000,1,COMPLETED_SUCCESSFULLY,325.382547,106.799980,432.182528,324.385462,431.185443,4.037318,28,-1.000000,""
31,w0,python3action_videoprocessing_SampleVideo_30mb,0.000000,1,-1.000000,1,COMPLETED_SUCCESSFULLY,432.182543,0.000010,432.182553,432.182543,432.182553,43218255.300201,28,-1.000000,""
6_updated,w0,python3action_imageprocessing_SampleImage_60mb_taurus,0.997085,1,2000.000000,1,COMPLETED_SUCCESSFULLY,335.855960,101.500058,437.356018,334.858875,436.358933,4.299100,14,-1.000000,""
6,w0,python3action_imageprocessing_SampleImage_60mb,0.000000,1,-1.000000,1,COMPLETED_SUCCESSFULLY,437.356033,0.000010,437.356043,437.356033,437.356043,43735604.300201,14,-1.000000,""
python3action_facedetection_job65_12,w0,python3action_facedetection_reduced_0.91,0.997085,1,2000.000000,1,COMPLETED_SUCCESSFULLY,437.356063,0.000000,437.356063,436.358978,436.358978,41948132913843.664062,14,-1.000000,""
40_updated,w0,python3action_imageprocessing_SampleImage_60mb_taurus,0.997085,1,2000.000000,1,COMPLETED_SUCCESSFULLY,335.856035,101.500058,437.356093,334.858950,436.359008,4.299101,15,-1.000000,""
40,w0,python3action_imageprocessing_SampleImage_60mb,0.000000,1,-1.000000,1,COMPLETED_SUCCESSFULLY,437.356123,0.000010,437.356133,437.356123,437.356133,43735613.300201,15,-1.000000,""
45_updated,w0,python3action_imageprocessing_SampleImage_60mb_taurus,0.997085,1,2000.000000,1,COMPLETED_SUCCESSFULLY,335.856095,101.500058,437.356153,334.859010,436.359068,4.299102,16,-1.000000,""
python3action_facedetection_job83_13,w0,python3action_facedetection_reduced_0.91,0.997085,1,2000.000000,1,COMPLETED_SUCCESSFULLY,437.356153,0.000000,437.356153,436.359068,436.359068,41948141533581.007812,15,-1.000000,""
45,w0,python3action_imageprocessing_SampleImage_60mb,0.000000,1,-1.000000,1,COMPLETED_SUCCESSFULLY,437.356183,0.000010,437.356193,437.356183,437.356193,43735619.300201,16,-1.000000,""
python3action_facedetection_job85_14,w0,python3action_facedetection_reduced_0.91,0.997085,1,2000.000000,1,COMPLETED_SUCCESSFULLY,437.356228,0.000000,437.356228,436.359143,436.359143,41948148775843.796875,16,-1.000000,""
50_updated,w0,python3action_videoprocessing_SampleVideo_30mb_nova,0.997085,1,2000.000000,1,COMPLETED_SUCCESSFULLY,337.702792,106.799980,444.502772,336.705707,443.505687,4.152676,29,-1.000000,""
50,w0,python3action_videoprocessing_SampleVideo_30mb,0.000000,1,-1.000000,1,COMPLETED_SUCCESSFULLY,444.502787,0.000010,444.502797,444.502787,444.502797,44450279.747412,29,-1.000000,""
77_updated,w0,python3action_videoprocessing_SampleVideo_30mb_nova,0.997085,1,2000.000000,1,COMPLETED_SUCCESSFULLY,372.302338,106.799980,479.102318,371.305253,478.105233,4.476642,2,-1.000000,""
77,w0,python3action_videoprocessing_SampleVideo_30mb,0.000000,1,-1.000000,1,COMPLETED_SUCCESSFULLY,479.102333,0.000010,479.102343,479.102333,479.102343,47910234.346609,2,-1.000000,""
92_updated,w0,python3action_videoprocessing_SampleVideo_30mb_nova,0.997085,1,2000.000000,1,COMPLETED_SUCCESSFULLY,372.302413,106.799980,479.102393,371.305328,478.105308,4.476642,3,-1.000000,""
92,w0,python3action_videoprocessing_SampleVideo_30mb,0.000000,1,-1.000000,1,COMPLETED_SUCCESSFULLY,479.102408,0.000010,479.102418,479.102408,479.102418,47910241.847613,3,-1.000000,""
144_updated,w0,python3action_videoprocessing_SampleVideo_30mb_nova,0.997085,1,2000.000000,1,COMPLETED_SUCCESSFULLY,380.102423,106.799980,486.902403,379.105338,485.905318,4.549676,4,-1.000000,""
144,w0,python3action_videoprocessing_SampleVideo_30mb,0.000000,1,-1.000000,1,COMPLETED_SUCCESSFULLY,486.902418,0.000010,486.902428,486.902418,486.902428,48690242.847412,4,-1.000000,""
66_updated,w0,python3action_imageprocessing_SampleImage_60mb_taurus,0.997085,1,2000.000000,1,COMPLETED_SUCCESSFULLY,400.055802,101.500058,501.555860,399.058717,500.558775,4.931611,10,-1.000000,""
66,w0,python3action_imageprocessing_SampleImage_60mb,0.000000,1,-1.000000,1,COMPLETED_SUCCESSFULLY,501.555875,0.000010,501.555885,501.555875,501.555885,50155588.500201,10,-1.000000,""
python3action_facedetection_job131_9,w0,python3action_facedetection_reduced_0.91,0.997085,1,2000.000000,1,COMPLETED_SUCCESSFULLY,501.555905,0.000000,501.555905,500.558820,500.558820,48119802665133.890625,10,-1.000000,""
157_updated,w0,python3action_imageprocessing_SampleImage_60mb_taurus,0.997085,1,2000.000000,1,COMPLETED_SUCCESSFULLY,400.055862,101.500058,501.555920,399.058777,500.558835,4.931611,11,-1.000000,""
157,w0,python3action_imageprocessing_SampleImage_60mb,0.000000,1,-1.000000,1,COMPLETED_SUCCESSFULLY,501.555950,0.000010,501.555960,501.555950,501.555960,50155596.000402,11,-1.000000,""
python3action_facedetection_job133_10,w0,python3action_facedetection_reduced_0.91,0.997085,1,2000.000000,1,COMPLETED_SUCCESSFULLY,501.555980,0.000000,501.555980,500.558895,500.558895,48119809875239.250000,11,-1.000000,""
156_updated,w0,python3action_videoprocessing_SampleVideo_30mb_nova,0.997085,1,2000.000000,1,COMPLETED_SUCCESSFULLY,403.902526,106.799980,510.702506,402.905441,509.705421,4.772524,5,-1.000000,""
156,w0,python3action_videoprocessing_SampleVideo_30mb,0.000000,1,-1.000000,1,COMPLETED_SUCCESSFULLY,510.702521,0.000010,510.702531,510.702521,510.702531,51070253.147412,5,-1.000000,""
102_updated,w0,python3action_chameleon_3000_troll,0.997085,1,2000.000000,1,COMPLETED_SUCCESSFULLY,420.269359,94.000000,514.269359,419.272274,513.272274,5.460343,19,-1.000000,""
102,w0,python3action_chameleon_3000,0.000000,1,-1.000000,1,COMPLETED_SUCCESSFULLY,514.269374,0.000010,514.269384,514.269374,514.269384,51426938.402209,19,-1.000000,""
125_updated,w0,python3action_chameleon_3000_troll,0.997085,1,2000.000000,1,COMPLETED_SUCCESSFULLY,420.269419,94.000000,514.269419,419.272334,513.272334,5.460344,20,-1.000000,""
125,w0,python3action_chameleon_3000,0.000000,1,-1.000000,1,COMPLETED_SUCCESSFULLY,514.269434,0.000010,514.269444,514.269434,514.269444,51426944.403013,20,-1.000000,""
176_updated,w0,python3action_imageprocessing_SampleImage_60mb_taurus,0.997085,1,2000.000000,1,COMPLETED_SUCCESSFULLY,428.291964,101.500058,529.792022,427.294879,528.794937,5.209799,13,-1.000000,""
176,w0,python3action_imageprocessing_SampleImage_60mb,0.000000,1,-1.000000,1,COMPLETED_SUCCESSFULLY,529.792037,0.000010,529.792047,529.792037,529.792047,52979204.700201,13,-1.000000,""
python3action_facedetection_job135_11,w0,python3action_facedetection_reduced_1.83,0.997085,1,2000.000000,1,COMPLETED_SUCCESSFULLY,529.792067,0.000000,529.792067,528.794982,528.794982,51113514850570.148438,13,-1.000000,""
138_updated,w0,python3action_linpack_6000_orion,0.997085,1,2000.000000,1,COMPLETED_SUCCESSFULLY,430.763312,106.000000,536.763312,429.766227,535.766227,5.054398,8,-1.000000,""
138,w0,python3action_linpack_6000,0.000000,1,-1.000000,1,COMPLETED_SUCCESSFULLY,536.763327,0.000010,536.763337,536.763327,536.763337,53676333.727087,8,-1.000000,""
153_updated,w0,python3action_linpack_6000_orion,0.997085,1,2000.000000,1,COMPLETED_SUCCESSFULLY,430.763372,106.000000,536.763372,429.766287,535.766287,5.054399,9,-1.000000,""
153,w0,python3action_linpack_6000,0.000000,1,-1.000000,1,COMPLETED_SUCCESSFULLY,536.763387,0.000010,536.763397,536.763387,536.763397,53676339.727890,9,-1.000000,""
21_updated,w0,python3action_floatoperation_200000000_nova,0.997085,1,2000.000000,1,COMPLETED_SUCCESSFULLY,403.902586,135.399990,539.302576,402.905501,538.305491,3.975669,6,-1.000000,""
21,w0,python3action_floatoperation_200000000,0.000000,1,-1.000000,1,COMPLETED_SUCCESSFULLY,539.302591,0.000010,539.302601,539.302591,539.302601,53930260.123506,6,-1.000000,""
28_updated,w0,python3action_floatoperation_200000000_nova,0.997085,1,2000.000000,1,COMPLETED_SUCCESSFULLY,403.902631,135.399990,539.302621,402.905546,538.305536,3.975669,7,-1.000000,""
28,w0,python3action_floatoperation_200000000,0.000000,1,-1.000000,1,COMPLETED_SUCCESSFULLY,539.302651,0.000010,539.302661,539.302651,539.302661,53930266.124309,7,-1.000000,""
48_updated,w0,python3action_floatoperation_200000000_nova,0.997085,1,2000.000000,1,COMPLETED_SUCCESSFULLY,431.102661,135.399990,566.502652,430.105576,565.505567,4.176555,25,-1.000000,""
48,w0,python3action_floatoperation_200000000,0.000000,1,-1.000000,1,COMPLETED_SUCCESSFULLY,566.502667,0.000010,566.502677,566.502667,566.502677,56650267.700201,25,-1.000000,""
61_updated,w0,python3action_floatoperation_200000000_nova,0.997085,1,2000.000000,1,COMPLETED_SUCCESSFULLY,432.182423,135.399990,567.582413,431.185338,566.585328,4.184530,26,-1.000000,""
61,w0,python3action_floatoperation_200000000,0.000000,1,-1.000000,1,COMPLETED_SUCCESSFULLY,567.582428,0.000010,567.582438,567.582428,567.582438,56758243.823907,26,-1.000000,""
63_updated,w0,python3action_floatoperation_200000000_nova,0.997085,1,2000.000000,1,COMPLETED_SUCCESSFULLY,432.182513,135.399990,567.582503,431.185428,566.585418,4.184531,27,-1.000000,""
63,w0,python3action_floatoperation_200000000,0.000000,1,-1.000000,1,COMPLETED_SUCCESSFULLY,567.582518,0.000010,567.582528,567.582518,567.582528,56758252.823907,27,-1.000000,""
64_updated,w0,python3action_floatoperation_200000000_nova,0.997085,1,2000.000000,1,COMPLETED_SUCCESSFULLY,432.182573,135.399990,567.582563,431.185488,566.585478,4.184531,28,-1.000000,""
64,w0,python3action_floatoperation_200000000,0.000000,1,-1.000000,1,COMPLETED_SUCCESSFULLY,567.582578,0.000010,567.582588,567.582578,567.582588,56758258.824108,28,-1.000000,""
python3action_pyaes_job13_20,w0,python3action_pyaes_reduced_0.85,0.997085,1,2000.000000,1,COMPLETED_SUCCESSFULLY,567.582608,0.320244,567.902852,566.585523,566.905767,1770.232182,28,-1.000000,""
65_updated,w0,python3action_facedetection_SampleVideo_50mb_taurus,0.997085,1,2000.000000,1,COMPLETED_SUCCESSFULLY,437.356093,134.600046,571.956139,436.359008,570.959054,4.241893,14,-1.000000,""
65,w0,python3action_facedetection_SampleVideo_50mb,0.000000,1,-1.000000,1,COMPLETED_SUCCESSFULLY,571.956154,0.000010,571.956164,571.956154,571.956164,57195616.400201,14,-1.000000,""
python3action_video_processing_job16_12,w0,python3action_video_processing_reduced_1.83,0.997085,1,2000.000000,1,COMPLETED_SUCCESSFULLY,571.956184,0.000000,571.956184,570.959099,570.959099,4952869178238.726562,14,-1.000000,""
83_updated,w0,python3action_facedetection_SampleVideo_50mb_taurus,0.997085,1,2000.000000,1,COMPLETED_SUCCESSFULLY,437.356198,134.600046,571.956244,436.359113,570.959159,4.241894,15,-1.000000,""
83,w0,python3action_facedetection_SampleVideo_50mb,0.000000,1,-1.000000,1,COMPLETED_SUCCESSFULLY,571.956259,0.000010,571.956269,571.956259,571.956269,57195626.913681,15,-1.000000,""
python3action_video_processing_job18_13,w0,python3action_video_processing_reduced_1.83,0.997085,1,2000.000000,1,COMPLETED_SUCCESSFULLY,571.956289,0.000000,571.956289,570.959204,570.959204,4952870090246.079102,15,-1.000000,""
85_updated,w0,python3action_facedetection_SampleVideo_50mb_taurus,0.997085,1,2000.000000,1,COMPLETED_SUCCESSFULLY,437.356258,134.600046,571.956304,436.359173,570.959219,4.241895,16,-1.000000,""
85,w0,python3action_facedetection_SampleVideo_50mb,0.000000,1,-1.000000,1,COMPLETED_SUCCESSFULLY,571.956334,0.000010,571.956344,571.956334,571.956344,57195634.414685,16,-1.000000,""
python3action_video_processing_job49_14,w0,python3action_video_processing_reduced_1.83,0.997085,1,2000.000000,1,COMPLETED_SUCCESSFULLY,571.956364,0.000000,571.956364,570.959279,570.959279,4952870740931.768555,16,-1.000000,""
73_updated,w0,python3action_floatoperation_200000000_nova,0.997085,1,2000.000000,1,COMPLETED_SUCCESSFULLY,444.502817,135.399990,579.902808,443.505732,578.905723,4.275523,29,-1.000000,""
73,w0,python3action_floatoperation_200000000,0.000000,1,-1.000000,1,COMPLETED_SUCCESSFULLY,579.902823,0.000010,579.902833,579.902823,579.902833,57990283.300201,29,-1.000000,""
158_updated,w0,python3action_chameleon_3000_troll,0.997085,1,2000.000000,1,COMPLETED_SUCCESSFULLY,514.269404,94.000000,608.269404,513.272319,607.272319,6.460344,19,-1.000000,""
158,w0,python3action_chameleon_3000,0.000000,1,-1.000000,1,COMPLETED_SUCCESSFULLY,608.269419,0.000010,608.269429,608.269419,608.269429,60826942.902812,19,-1.000000,""
173_updated,w0,python3action_chameleon_3000_troll,0.997085,1,2000.000000,1,COMPLETED_SUCCESSFULLY,514.269464,94.000000,608.269464,513.272379,607.272379,6.460344,20,-1.000000,""
173,w0,python3action_chameleon_3000,0.000000,1,-1.000000,1,COMPLETED_SUCCESSFULLY,608.269479,0.000010,608.269489,608.269479,608.269489,60826948.903615,20,-1.000000,""
89_updated,w0,python3action_floatoperation_200000000_nova,0.997085,1,2000.000000,1,COMPLETED_SUCCESSFULLY,479.102363,135.399990,614.502354,478.105278,613.505269,4.531058,2,-1.000000,""
89,w0,python3action_floatoperation_200000000,0.000000,1,-1.000000,1,COMPLETED_SUCCESSFULLY,614.502369,0.000010,614.502379,614.502369,614.502379,61450237.900201,2,-1.000000,""
107_updated,w0,python3action_floatoperation_200000000_nova,0.997085,1,2000.000000,1,COMPLETED_SUCCESSFULLY,479.102438,135.399990,614.502429,478.105353,613.505344,4.531059,3,-1.000000,""
107,w0,python3action_floatoperation_200000000,0.000000,1,-1.000000,1,COMPLETED_SUCCESSFULLY,614.502444,0.000010,614.502454,614.502444,614.502454,61450245.400201,3,-1.000000,""
122_updated,w0,python3action_floatoperation_200000000_nova,0.997085,1,2000.000000,1,COMPLETED_SUCCESSFULLY,486.902448,135.399990,622.302439,485.905363,621.305354,4.588666,4,-1.000000,""
122,w0,python3action_floatoperation_200000000,0.000000,1,-1.000000,1,COMPLETED_SUCCESSFULLY,622.302454,0.000010,622.302464,622.302454,622.302464,62230246.400201,4,-1.000000,""
131_updated,w0,python3action_facedetection_SampleVideo_50mb_taurus,0.997085,1,2000.000000,1,COMPLETED_SUCCESSFULLY,501.555935,134.600046,636.155981,500.558850,635.158896,4.718861,10,-1.000000,""
131,w0,python3action_facedetection_SampleVideo_50mb,0.000000,1,-1.000000,1,COMPLETED_SUCCESSFULLY,636.155996,0.000010,636.156006,636.155996,636.156006,63615600.613480,10,-1.000000,""
python3action_video_processing_job82_9,w0,python3action_video_processing_reduced_1.83,0.997085,1,2000.000000,1,COMPLETED_SUCCESSFULLY,636.156026,0.000000,636.156026,635.158941,635.158941,5509780207243.721680,10,-1.000000,""
133_updated,w0,python3action_facedetection_SampleVideo_50mb_taurus,0.997085,1,2000.000000,1,COMPLETED_SUCCESSFULLY,501.556010,134.600046,636.156056,500.558925,635.158971,4.718861,11,-1.000000,""
133,w0,python3action_facedetection_SampleVideo_50mb,0.000000,1,-1.000000,1,COMPLETED_SUCCESSFULLY,636.156086,0.000010,636.156096,636.156086,636.156096,63615609.614684,11,-1.000000,""
python3action_video_processing_job86_10,w0,python3action_video_processing_reduced_1.83,0.997085,1,2000.000000,1,COMPLETED_SUCCESSFULLY,636.156116,0.000000,636.156116,635.159031,635.159031,5509780988066.549805,11,-1.000000,""
154_updated,w0,python3action_linpack_6000_orion,0.997085,1,2000.000000,1,COMPLETED_SUCCESSFULLY,536.763357,106.000000,642.763357,535.766272,641.766272,6.054399,8,-1.000000,""
154,w0,python3action_linpack_6000,0.000000,1,-1.000000,1,COMPLETED_SUCCESSFULLY,642.763372,0.000010,642.763382,642.763372,642.763382,64276338.227689,8,-1.000000,""
160_updated,w0,python3action_linpack_6000_orion,0.997085,1,2000.000000,1,COMPLETED_SUCCESSFULLY,536.763417,106.000000,642.763417,535.766332,641.766332,6.054399,9,-1.000000,""
160,w0,python3action_linpack_6000,0.000000,1,-1.000000,1,COMPLETED_SUCCESSFULLY,642.763432,0.000010,642.763442,642.763432,642.763442,64276344.228492,9,-1.000000,""
128_updated,w0,python3action_floatoperation_200000000_nova,0.997085,1,2000.000000,1,COMPLETED_SUCCESSFULLY,510.702551,135.399990,646.102542,509.705466,645.105457,4.764442,5,-1.000000,""
128,w0,python3action_floatoperation_200000000,0.000000,1,-1.000000,1,COMPLETED_SUCCESSFULLY,646.102557,0.000010,646.102567,646.102557,646.102567,64610256.700201,5,-1.000000,""
135_updated,w0,python3action_facedetection_SampleVideo_50mb_taurus,0.997085,1,2000.000000,1,COMPLETED_SUCCESSFULLY,529.792097,134.600046,664.392143,528.795012,663.395058,4.928639,13,-1.000000,""
135,w0,python3action_facedetection_SampleVideo_50mb,0.000000,1,-1.000000,1,COMPLETED_SUCCESSFULLY,664.392158,0.000010,664.392168,664.392158,664.392168,66439216.814283,13,-1.000000,""
python3action_video_processing_job88_11,w0,python3action_video_processing_reduced_2.8,0.997085,1,2000.000000,1,COMPLETED_SUCCESSFULLY,664.392188,0.000000,664.392188,663.395103,663.395103,5754718972147.843750,13,-1.000000,""
130_updated,w0,python3action_floatoperation_200000000_nova,0.997085,1,2000.000000,1,COMPLETED_SUCCESSFULLY,539.302621,135.399990,674.702611,538.305536,673.705526,4.975669,6,-1.000000,""
130,w0,python3action_floatoperation_200000000,0.000000,1,-1.000000,1,COMPLETED_SUCCESSFULLY,674.702626,0.000010,674.702636,674.702626,674.702636,67470263.647211,6,-1.000000,""
143_updated,w0,python3action_floatoperation_200000000_nova,0.997085,1,2000.000000,1,COMPLETED_SUCCESSFULLY,539.302681,135.399990,674.702671,538.305596,673.705586,4.975669,7,-1.000000,""
143,w0,python3action_floatoperation_200000000,0.000000,1,-1.000000,1,COMPLETED_SUCCESSFULLY,674.702686,0.000010,674.702696,674.702686,674.702696,67470269.648015,7,-1.000000,""
167_updated,w0,python3action_floatoperation_200000000_nova,0.997085,1,2000.000000,1,COMPLETED_SUCCESSFULLY,566.502697,135.399990,701.902687,565.505612,700.905602,5.176556,25,-1.000000,""
167,w0,python3action_floatoperation_200000000,0.000000,1,-1.000000,1,COMPLETED_SUCCESSFULLY,701.902702,0.000010,701.902712,701.902702,701.902712,70190271.223907,25,-1.000000,""
186_updated,w0,python3action_chameleon_3000_troll,0.997085,1,2000.000000,1,COMPLETED_SUCCESSFULLY,608.269449,94.000000,702.269449,607.272364,701.272364,7.460344,19,-1.000000,""
186,w0,python3action_chameleon_3000,0.000000,1,-1.000000,1,COMPLETED_SUCCESSFULLY,702.269464,0.000010,702.269474,702.269464,702.269474,70226947.403414,19,-1.000000,""
199_updated,w0,python3action_chameleon_3000_troll,0.997085,1,2000.000000,1,COMPLETED_SUCCESSFULLY,608.269509,94.000000,702.269509,607.272424,701.272424,7.460345,20,-1.000000,""
199,w0,python3action_chameleon_3000,0.000000,1,-1.000000,1,COMPLETED_SUCCESSFULLY,702.269524,0.000010,702.269534,702.269524,702.269534,70226953.404217,20,-1.000000,""
183_updated,w0,python3action_floatoperation_200000000_nova,0.997085,1,2000.000000,1,COMPLETED_SUCCESSFULLY,567.582458,135.399990,702.982448,566.585373,701.985363,5.184530,26,-1.000000,""
183,w0,python3action_floatoperation_200000000,0.000000,1,-1.000000,1,COMPLETED_SUCCESSFULLY,702.982463,0.000010,702.982473,702.982463,702.982473,70298247.347613,26,-1.000000,""
185_updated,w0,python3action_floatoperation_200000000_nova,0.997085,1,2000.000000,1,COMPLETED_SUCCESSFULLY,567.582548,135.399990,702.982538,566.585463,701.985453,5.184531,27,-1.000000,""
185,w0,python3action_floatoperation_200000000,0.000000,1,-1.000000,1,COMPLETED_SUCCESSFULLY,702.982553,0.000010,702.982563,702.982553,702.982563,70298256.347613,27,-1.000000,""
python3action_facedetection_job35_19,w0,python3action_facedetection_reduced_1.83,0.997085,1,2000.000000,1,COMPLETED_SUCCESSFULLY,702.982583,0.000000,702.982583,701.985498,701.985498,158326403714677.937500,27,-1.000000,""
python3action_pyaes_job190_18,w0,python3action_pyaes_reduced_0.85,0.997085,1,2000.000000,1,COMPLETED_SUCCESSFULLY,702.982493,0.320244,703.302737,701.985408,702.305652,2193.034786,26,-1.000000,""
13_updated,w0,python3action_pyaes_4000_nova,0.997085,1,2000.000000,1,COMPLETED_SUCCESSFULLY,567.902867,139.600010,707.502877,566.905782,706.505792,5.060929,28,-1.000000,""
13,w0,python3action_pyaes_4000,0.000000,1,-1.000000,1,COMPLETED_SUCCESSFULLY,707.502892,0.000010,707.502902,707.502892,707.502902,70750290.200201,28,-1.000000,""
python3action_facedetection_job47_20,w0,python3action_facedetection_reduced_1.83,0.997085,1,2000.000000,1,COMPLETED_SUCCESSFULLY,707.502922,0.000000,707.502922,706.505837,706.505837,159345924693280.750000,28,-1.000000,""
26_updated,w0,python3action_pyaes_4000_nova,0.997085,1,2000.000000,1,COMPLETED_SUCCESSFULLY,579.902853,139.600010,719.502863,578.905768,718.505778,5.146889,29,-1.000000,""
26,w0,python3action_pyaes_4000,0.000000,1,-1.000000,1,COMPLETED_SUCCESSFULLY,719.502878,0.000010,719.502888,719.502878,719.502888,71950288.800201,29,-1.000000,""
python3action_facedetection_job54_21,w0,python3action_facedetection_reduced_1.83,0.997085,1,2000.000000,1,COMPLETED_SUCCESSFULLY,719.502908,0.000000,719.502908,718.505823,718.505823,162052411696388.312500,29,-1.000000,""
16_updated,w0,python3action_videoprocessing_SampleVideo_50mb_taurus,0.997085,1,2000.000000,1,COMPLETED_SUCCESSFULLY,571.956214,154.250029,726.206243,570.959129,725.209158,4.701517,14,-1.000000,""
16,w0,python3action_videoprocessing_SampleVideo_50mb,0.000000,1,-1.000000,1,COMPLETED_SUCCESSFULLY,726.206258,0.000010,726.206268,726.206258,726.206268,72620626.800201,14,-1.000000,""
18_updated,w0,python3action_videoprocessing_SampleVideo_50mb_taurus,0.997085,1,2000.000000,1,COMPLETED_SUCCESSFULLY,571.956319,154.250029,726.206348,570.959234,725.209263,4.701518,15,-1.000000,""
18,w0,python3action_videoprocessing_SampleVideo_50mb,0.000000,1,-1.000000,1,COMPLETED_SUCCESSFULLY,726.206363,0.000010,726.206373,726.206363,726.206373,72620637.300201,15,-1.000000,""
49_updated,w0,python3action_videoprocessing_SampleVideo_50mb_taurus,0.997085,1,2000.000000,1,COMPLETED_SUCCESSFULLY,571.956394,154.250029,726.206423,570.959309,725.209338,4.701518,16,-1.000000,""
49,w0,python3action_videoprocessing_SampleVideo_50mb,0.000000,1,-1.000000,1,COMPLETED_SUCCESSFULLY,726.206438,0.000010,726.206448,726.206438,726.206448,72620644.800201,16,-1.000000,""
194_updated,w0,python3action_linpack_6000_orion,0.997085,1,2000.000000,1,COMPLETED_SUCCESSFULLY,642.763402,106.000000,748.763402,641.766317,747.766317,7.054399,8,-1.000000,""
194,w0,python3action_linpack_6000,0.000000,1,-1.000000,1,COMPLETED_SUCCESSFULLY,748.763417,0.000010,748.763427,748.763417,748.763427,74876342.728291,8,-1.000000,""
196_updated,w0,python3action_linpack_6000_orion,0.997085,1,2000.000000,1,COMPLETED_SUCCESSFULLY,642.763462,106.000000,748.763462,641.766377,747.766377,7.054400,9,-1.000000,""
196,w0,python3action_linpack_6000,0.000000,1,-1.000000,1,COMPLETED_SUCCESSFULLY,748.763477,0.000010,748.763487,748.763477,748.763487,74876348.729094,9,-1.000000,""
58_updated,w0,python3action_pyaes_4000_nova,0.997085,1,2000.000000,1,COMPLETED_SUCCESSFULLY,614.502399,139.600010,754.102409,613.505314,753.105324,5.394737,2,-1.000000,""
58,w0,python3action_pyaes_4000,0.000000,1,-1.000000,1,COMPLETED_SUCCESSFULLY,754.102424,0.000010,754.102434,754.102424,754.102434,75410243.400201,2,-1.000000,""
python3action_facedetection_job67_1,w0,python3action_facedetection_reduced_1.83,0.997085,1,2000.000000,1,COMPLETED_SUCCESSFULLY,754.102454,0.000000,754.102454,753.105369,753.105369,169856022597469.437500,2,-1.000000,""
106_updated,w0,python3action_pyaes_4000_nova,0.997085,1,2000.000000,1,COMPLETED_SUCCESSFULLY,614.502474,139.600010,754.102484,613.505389,753.105399,5.394737,3,-1.000000,""
106,w0,python3action_pyaes_4000,0.000000,1,-1.000000,1,COMPLETED_SUCCESSFULLY,754.102514,0.000010,754.102524,754.102514,754.102524,75410252.400201,3,-1.000000,""
python3action_facedetection_job69_2,w0,python3action_facedetection_reduced_1.83,0.997085,1,2000.000000,1,COMPLETED_SUCCESSFULLY,754.102544,0.000000,754.102544,753.105459,753.105459,169856042896145.625000,3,-1.000000,""
111_updated,w0,python3action_pyaes_4000_nova,0.997085,1,2000.000000,1,COMPLETED_SUCCESSFULLY,622.302484,139.600010,761.902494,621.305399,760.905409,5.450611,4,-1.000000,""
111,w0,python3action_pyaes_4000,0.000000,1,-1.000000,1,COMPLETED_SUCCESSFULLY,761.902509,0.000010,761.902519,761.902509,761.902519,76190251.900201,4,-1.000000,""
python3action_facedetection_job74_3,w0,python3action_facedetection_reduced_1.83,0.997085,1,2000.000000,1,COMPLETED_SUCCESSFULLY,761.902539,0.000000,761.902539,760.905454,760.905454,171615260372883.031250,4,-1.000000,""
117_updated,w0,python3action_pyaes_4000_nova,0.997085,1,2000.000000,1,COMPLETED_SUCCESSFULLY,646.102587,139.600010,785.702597,645.105502,784.705512,5.621099,5,-1.000000,""
117,w0,python3action_pyaes_4000,0.000000,1,-1.000000,1,COMPLETED_SUCCESSFULLY,785.702612,0.000010,785.702622,785.702612,785.702622,78570262.200201,5,-1.000000,""
python3action_facedetection_job91_4,w0,python3action_facedetection_reduced_1.83,0.997085,1,2000.000000,1,COMPLETED_SUCCESSFULLY,785.702642,0.000000,785.702642,784.705557,784.705557,176983155755604.312500,5,-1.000000,""
82_updated,w0,python3action_videoprocessing_SampleVideo_50mb_taurus,0.997085,1,2000.000000,1,COMPLETED_SUCCESSFULLY,636.156056,154.250029,790.406085,635.158971,789.409000,5.117724,10,-1.000000,""
82,w0,python3action_videoprocessing_SampleVideo_50mb,0.000000,1,-1.000000,1,COMPLETED_SUCCESSFULLY,790.406100,0.000010,790.406110,790.406100,790.406110,79040611.000201,10,-1.000000,""
86_updated,w0,python3action_videoprocessing_SampleVideo_50mb_taurus,0.997085,1,2000.000000,1,COMPLETED_SUCCESSFULLY,636.156146,154.250029,790.406175,635.159061,789.409090,5.117724,11,-1.000000,""
86,w0,python3action_videoprocessing_SampleVideo_50mb,0.000000,1,-1.000000,1,COMPLETED_SUCCESSFULLY,790.406190,0.000010,790.406200,790.406190,790.406200,79040620.000201,11,-1.000000,""
118_updated,w0,python3action_pyaes_4000_nova,0.997085,1,2000.000000,1,COMPLETED_SUCCESSFULLY,674.702656,139.600010,814.302666,673.705571,813.305581,5.825971,6,-1.000000,""
118,w0,python3action_pyaes_4000,0.000000,1,-1.000000,1,COMPLETED_SUCCESSFULLY,814.302681,0.000010,814.302691,814.302681,814.302691,81430269.124710,6,-1.000000,""
python3action_facedetection_job114_5,w0,python3action_facedetection_reduced_0.91,0.997085,1,2000.000000,1,COMPLETED_SUCCESSFULLY,814.302711,0.000000,814.302711,813.305626,813.305626,183433639589487.093750,6,-1.000000,""
124_updated,w0,python3action_pyaes_4000_nova,0.997085,1,2000.000000,1,COMPLETED_SUCCESSFULLY,674.702716,139.600010,814.302726,673.705631,813.305641,5.825971,7,-1.000000,""
124,w0,python3action_pyaes_4000,0.000000,1,-1.000000,1,COMPLETED_SUCCESSFULLY,814.302756,0.000010,814.302766,814.302756,814.302766,81430276.625714,7,-1.000000,""
python3action_facedetection_job121_6,w0,python3action_facedetection_reduced_0.91,0.997085,1,2000.000000,1,COMPLETED_SUCCESSFULLY,814.302786,0.000000,814.302786,813.305701,813.305701,183433656507315.062500,7,-1.000000,""
88_updated,w0,python3action_videoprocessing_SampleVideo_50mb_taurus,0.997085,1,2000.000000,1,COMPLETED_SUCCESSFULLY,664.392218,154.250029,818.642247,663.395133,817.645162,5.300778,13,-1.000000,""
88,w0,python3action_videoprocessing_SampleVideo_50mb,0.000000,1,-1.000000,1,COMPLETED_SUCCESSFULLY,818.642262,0.000010,818.642272,818.642262,818.642272,81864227.200201,13,-1.000000,""
159_updated,w0,python3action_pyaes_4000_nova,0.997085,1,2000.000000,1,COMPLETED_SUCCESSFULLY,701.902732,139.600010,841.502742,700.905647,840.505657,6.020814,25,-1.000000,""
159,w0,python3action_pyaes_4000,0.000000,1,-1.000000,1,COMPLETED_SUCCESSFULLY,841.502757,0.000010,841.502767,841.502757,841.502767,84150276.701405,25,-1.000000,""
python3action_facedetection_job145_17,w0,python3action_facedetection_reduced_1.83,0.997085,1,2000.000000,1,COMPLETED_SUCCESSFULLY,841.502787,0.000000,841.502787,840.505702,840.505702,189568367708903.062500,25,-1.000000,""
190_updated,w0,python3action_pyaes_4000_nova,0.997085,1,2000.000000,1,COMPLETED_SUCCESSFULLY,703.302752,139.600010,842.902762,702.305667,841.905677,6.030843,26,-1.000000,""
190,w0,python3action_pyaes_4000,0.000000,1,-1.000000,1,COMPLETED_SUCCESSFULLY,842.902777,0.000010,842.902787,842.902777,842.902787,84290278.700201,26,-1.000000,""
python3action_facedetection_job150_18,w0,python3action_facedetection_reduced_1.83,0.997085,1,2000.000000,1,COMPLETED_SUCCESSFULLY,842.902807,0.000000,842.902807,841.905722,841.905722,189884129402415.781250,26,-1.000000,""
35_updated,w0,python3action_facedetection_SampleVideo_30mb_nova,0.997085,1,2000.000000,1,COMPLETED_SUCCESSFULLY,702.982613,160.399990,863.382604,701.985528,862.385519,5.376469,27,-1.000000,""
35,w0,python3action_facedetection_SampleVideo_30mb,0.000000,1,-1.000000,1,COMPLETED_SUCCESSFULLY,863.382619,0.000010,863.382629,863.382619,863.382629,86338262.900201,27,-1.000000,""
47_updated,w0,python3action_facedetection_SampleVideo_30mb_nova,0.997085,1,2000.000000,1,COMPLETED_SUCCESSFULLY,707.502952,160.399990,867.902942,706.505867,866.905857,5.404650,28,-1.000000,""
47,w0,python3action_facedetection_SampleVideo_30mb,0.000000,1,-1.000000,1,COMPLETED_SUCCESSFULLY,867.902957,0.000010,867.902967,867.902957,867.902967,86790296.724308,28,-1.000000,""
54_updated,w0,python3action_facedetection_SampleVideo_30mb_nova,0.997085,1,2000.000000,1,COMPLETED_SUCCESSFULLY,719.502938,160.399990,879.902928,718.505853,878.905843,5.479463,29,-1.000000,""
54,w0,python3action_facedetection_SampleVideo_30mb,0.000000,1,-1.000000,1,COMPLETED_SUCCESSFULLY,879.902943,0.000010,879.902953,879.902943,879.902953,87990295.324308,29,-1.000000,""
90_updated,w0,python3action_videoprocessing_SampleVideo_50mb_taurus,0.997085,1,2000.000000,1,COMPLETED_SUCCESSFULLY,726.206288,154.250029,880.456317,725.209203,879.459232,5.701517,14,-1.000000,""
90,w0,python3action_videoprocessing_SampleVideo_50mb,0.000000,1,-1.000000,1,COMPLETED_SUCCESSFULLY,880.456332,0.000010,880.456342,880.456332,880.456342,88045634.200201,14,-1.000000,""
96_updated,w0,python3action_videoprocessing_SampleVideo_50mb_taurus,0.997085,1,2000.000000,1,COMPLETED_SUCCESSFULLY,726.206393,154.250029,880.456422,725.209308,879.459337,5.701518,15,-1.000000,""
96,w0,python3action_videoprocessing_SampleVideo_50mb,0.000000,1,-1.000000,1,COMPLETED_SUCCESSFULLY,880.456437,0.000010,880.456447,880.456437,880.456447,88045644.700201,15,-1.000000,""
115_updated,w0,python3action_videoprocessing_SampleVideo_50mb_taurus,0.997085,1,2000.000000,1,COMPLETED_SUCCESSFULLY,726.206468,154.250029,880.456497,725.209383,879.459412,5.701519,16,-1.000000,""
115,w0,python3action_videoprocessing_SampleVideo_50mb,0.000000,1,-1.000000,1,COMPLETED_SUCCESSFULLY,880.456512,0.000010,880.456522,880.456512,880.456522,88045652.200201,16,-1.000000,""
67_updated,w0,python3action_facedetection_SampleVideo_30mb_nova,0.997085,1,2000.000000,1,COMPLETED_SUCCESSFULLY,754.102484,160.399990,914.502474,753.105399,913.505389,5.695171,2,-1.000000,""
67,w0,python3action_facedetection_SampleVideo_30mb,0.000000,1,-1.000000,1,COMPLETED_SUCCESSFULLY,914.502489,0.000010,914.502499,914.502489,914.502499,91450249.901004,2,-1.000000,""
69_updated,w0,python3action_facedetection_SampleVideo_30mb_nova,0.997085,1,2000.000000,1,COMPLETED_SUCCESSFULLY,754.102574,160.399990,914.502564,753.105489,913.505479,5.695172,3,-1.000000,""
69,w0,python3action_facedetection_SampleVideo_30mb,0.000000,1,-1.000000,1,COMPLETED_SUCCESSFULLY,914.502579,0.000010,914.502589,914.502579,914.502589,91450258.924308,3,-1.000000,""
74_updated,w0,python3action_facedetection_SampleVideo_30mb_nova,0.997085,1,2000.000000,1,COMPLETED_SUCCESSFULLY,761.902569,160.399990,922.302559,760.905484,921.305474,5.743800,4,-1.000000,""
74,w0,python3action_facedetection_SampleVideo_30mb,0.000000,1,-1.000000,1,COMPLETED_SUCCESSFULLY,922.302574,0.000010,922.302584,922.302574,922.302584,92230258.424308,4,-1.000000,""
151_updated,w0,python3action_videoprocessing_SampleVideo_50mb_taurus,0.997085,1,2000.000000,1,COMPLETED_SUCCESSFULLY,790.406130,154.250029,944.656159,789.409045,943.659074,6.117724,10,-1.000000,""
151,w0,python3action_videoprocessing_SampleVideo_50mb,0.000000,1,-1.000000,1,COMPLETED_SUCCESSFULLY,944.656174,0.000010,944.656184,944.656174,944.656184,94465618.400201,10,-1.000000,""
161_updated,w0,python3action_videoprocessing_SampleVideo_50mb_taurus,0.997085,1,2000.000000,1,COMPLETED_SUCCESSFULLY,790.406220,154.250029,944.656249,789.409135,943.659164,6.117724,11,-1.000000,""
161,w0,python3action_videoprocessing_SampleVideo_50mb,0.000000,1,-1.000000,1,COMPLETED_SUCCESSFULLY,944.656264,0.000010,944.656274,944.656264,944.656274,94465627.400201,11,-1.000000,""
91_updated,w0,python3action_facedetection_SampleVideo_30mb_nova,0.997085,1,2000.000000,1,COMPLETED_SUCCESSFULLY,785.702672,160.399990,946.102662,784.705587,945.105577,5.892180,5,-1.000000,""
91,w0,python3action_facedetection_SampleVideo_30mb,0.000000,1,-1.000000,1,COMPLETED_SUCCESSFULLY,946.102677,0.000010,946.102687,946.102677,946.102687,94610268.724308,5,-1.000000,""
166_updated,w0,python3action_videoprocessing_SampleVideo_50mb_taurus,0.997085,1,2000.000000,1,COMPLETED_SUCCESSFULLY,818.642292,154.250029,972.892321,817.645207,971.895236,6.300778,13,-1.000000,""
166,w0,python3action_videoprocessing_SampleVideo_50mb,0.000000,1,-1.000000,1,COMPLETED_SUCCESSFULLY,972.892336,0.000010,972.892346,972.892336,972.892346,97289234.600201,13,-1.000000,""
114_updated,w0,python3action_facedetection_SampleVideo_30mb_nova,0.997085,1,2000.000000,1,COMPLETED_SUCCESSFULLY,814.302741,160.399990,974.702731,813.305656,973.705646,6.070484,6,-1.000000,""
114,w0,python3action_facedetection_SampleVideo_30mb,0.000000,1,-1.000000,1,COMPLETED_SUCCESSFULLY,974.702746,0.000010,974.702756,974.702746,974.702756,97470275.648818,6,-1.000000,""
121_updated,w0,python3action_facedetection_SampleVideo_30mb_nova,0.997085,1,2000.000000,1,COMPLETED_SUCCESSFULLY,814.302816,160.399990,974.702806,813.305731,973.705721,6.070485,7,-1.000000,""
121,w0,python3action_facedetection_SampleVideo_30mb,0.000000,1,-1.000000,1,COMPLETED_SUCCESSFULLY,974.702821,0.000010,974.702831,974.702821,974.702831,97470283.149822,7,-1.000000,""
145_updated,w0,python3action_facedetection_SampleVideo_30mb_nova,0.997085,1,2000.000000,1,COMPLETED_SUCCESSFULLY,841.502817,160.399990,1001.902807,840.505732,1000.905722,6.240061,25,-1.000000,""
145,w0,python3action_facedetection_SampleVideo_30mb,0.000000,1,-1.000000,1,COMPLETED_SUCCESSFULLY,1001.902822,0.000010,1001.902832,1001.902822,1001.902832,100190283.225513,25,-1.000000,""
150_updated,w0,python3action_facedetection_SampleVideo_30mb_nova,0.997085,1,2000.000000,1,COMPLETED_SUCCESSFULLY,842.902837,160.399990,1003.302827,841.905752,1002.305742,6.248789,26,-1.000000,""
150,w0,python3action_facedetection_SampleVideo_30mb,0.000000,1,-1.000000,1,COMPLETED_SUCCESSFULLY,1003.302842,0.000010,1003.302852,1003.302842,1003.302852,100330285.224308,26,-1.000000,""
174_updated,w0,python3action_facedetection_SampleVideo_30mb_nova,0.997085,1,2000.000000,1,COMPLETED_SUCCESSFULLY,863.382649,160.399990,1023.782639,862.385564,1022.785554,6.376469,27,-1.000000,""
174,w0,python3action_facedetection_SampleVideo_30mb,0.000000,1,-1.000000,1,COMPLETED_SUCCESSFULLY,1023.782654,0.000010,1023.782664,1023.782654,1023.782664,102378266.423907,27,-1.000000,""
180_updated,w0,python3action_facedetection_SampleVideo_30mb_nova,0.997085,1,2000.000000,1,COMPLETED_SUCCESSFULLY,867.902987,160.399990,1028.302977,866.905902,1027.305892,6.404651,28,-1.000000,""
180,w0,python3action_facedetection_SampleVideo_30mb,0.000000,1,-1.000000,1,COMPLETED_SUCCESSFULLY,1028.302992,0.000010,1028.303002,1028.302992,1028.303002,102830300.248014,28,-1.000000,""
179_updated,w0,python3action_videoprocessing_SampleVideo_50mb_taurus,0.997085,1,2000.000000,1,COMPLETED_SUCCESSFULLY,880.456362,154.250029,1034.706391,879.459277,1033.709306,6.701518,14,-1.000000,""
179,w0,python3action_videoprocessing_SampleVideo_50mb,0.000000,1,-1.000000,1,COMPLETED_SUCCESSFULLY,1034.706406,0.000010,1034.706416,1034.706406,1034.706416,103470641.600201,14,-1.000000,""
191_updated,w0,python3action_videoprocessing_SampleVideo_50mb_taurus,0.997085,1,2000.000000,1,COMPLETED_SUCCESSFULLY,880.456467,154.250029,1034.706496,879.459382,1033.709411,6.701518,15,-1.000000,""
191,w0,python3action_videoprocessing_SampleVideo_50mb,0.000000,1,-1.000000,1,COMPLETED_SUCCESSFULLY,1034.706511,0.000010,1034.706521,1034.706511,1034.706521,103470652.100201,15,-1.000000,""
193_updated,w0,python3action_videoprocessing_SampleVideo_50mb_taurus,0.997085,1,2000.000000,1,COMPLETED_SUCCESSFULLY,880.456542,154.250029,1034.706571,879.459457,1033.709486,6.701519,16,-1.000000,""
193,w0,python3action_videoprocessing_SampleVideo_50mb,0.000000,1,-1.000000,1,COMPLETED_SUCCESSFULLY,1034.706586,0.000010,1034.706596,1034.706586,1034.706596,103470659.600201,16,-1.000000,""
184_updated,w0,python3action_facedetection_SampleVideo_30mb_nova,0.997085,1,2000.000000,1,COMPLETED_SUCCESSFULLY,879.902973,160.399990,1040.302963,878.905888,1039.305878,6.479463,29,-1.000000,""
184,w0,python3action_facedetection_SampleVideo_30mb,0.000000,1,-1.000000,1,COMPLETED_SUCCESSFULLY,1040.302978,0.000010,1040.302988,1040.302978,1040.302988,104030298.848014,29,-1.000000,""
