job_id,workload_name,profile,submission_time,requested_number_of_resources,requested_time,success,final_state,starting_time,execution_time,finish_time,waiting_time,turnaround_time,stretch,allocated_resources,consumed_energy,metadata
python3action_pyaes_job7_3,w0,python3action_pyaes,0.997085,1,2000.000000,1,COMPLETED_SUCCESSFULLY,1.002145,0.867914,1.870059,0.005060,0.872974,1.005830,4,-1.000000,""
python3action_chameleon_job52_4,w0,python3action_chameleon,0.997085,1,2000.000000,1,COMPLETED_SUCCESSFULLY,1.002160,0.892694,1.894854,0.005075,0.897769,1.005685,5,-1.000000,""
python3action_floatoperation_job25_5,w0,python3action_floatoperation,0.997085,1,2000.000000,1,COMPLETED_SUCCESSFULLY,1.002175,2.439945,3.442120,0.005090,2.445035,1.002086,6,-1.000000,""
python3action_floatoperation_job27_6,w0,python3action_floatoperation,0.997085,1,2000.000000,1,COMPLETED_SUCCESSFULLY,1.002190,2.439945,3.442135,0.005105,2.445050,1.002092,7,-1.000000,""
python3action_floatoperation_job33_7,w0,python3action_floatoperation,0.997085,1,2000.000000,1,COMPLETED_SUCCESSFULLY,1.002205,2.439945,3.442150,0.005120,2.445065,1.002098,8,-1.000000,""
python3action_floatoperation_job59_8,w0,python3action_floatoperation,0.997085,1,2000.000000,1,COMPLETED_SUCCESSFULLY,1.002220,2.439945,3.442165,0.005135,2.445080,1.002105,9,-1.000000,""
python3action_floatoperation_job64_9,w0,python3action_floatoperation,0.997085,1,2000.000000,1,COMPLETED_SUCCESSFULLY,1.002235,2.439945,3.442180,0.005150,2.445095,1.002111,10,-1.000000,""
python3action_modeltraining_job5_0,w0,python3action_modeltraining,0.997085,1,2000.000000,1,COMPLETED_SUCCESSFULLY,1.002100,3.471546,4.473646,0.005015,3.476561,1.001445,0,-1.000000,""
python3action_modeltraining_job101_1,w0,python3action_modeltraining,0.997085,1,2000.000000,1,COMPLETED_SUCCESSFULLY,1.002115,3.471546,4.473661,0.005030,3.476576,1.001449,1,-1.000000,""
python3action_linpack_job143_10,w0,python3action_linpack,0.997085,1,2000.000000,1,COMPLETED_SUCCESSFULLY,1.002250,5.760927,6.763177,0.005165,5.766092,1.000897,11,-1.000000,""
5_updated,w0,python3action_modeltraining_reviews50mb_neowise,0.997085,1,2000.000000,1,COMPLETED_SUCCESSFULLY,4.473661,22.799998,27.273659,3.476576,26.276574,1.152481,0,-1.000000,""
5,w0,python3action_modeltraining_reviews50mb,0.000000,1,-1.000000,1,COMPLETED_SUCCESSFULLY,27.273674,0.000010,27.273684,27.273674,27.273684,2727368.400201,0,-1.000000,""
101_updated,w0,python3action_modeltraining_reviews50mb_neowise,0.997085,1,2000.000000,1,COMPLETED_SUCCESSFULLY,4.473691,22.799998,27.273689,3.476606,26.276604,1.152483,1,-1.000000,""
101,w0,python3action_modeltraining_reviews50mb,0.000000,1,-1.000000,1,COMPLETED_SUCCESSFULLY,27.273719,0.000010,27.273729,27.273719,27.273729,2727372.900402,1,-1.000000,""
143_updated,w0,python3action_linpack_5000_orion,0.997085,1,2000.000000,1,COMPLETED_SUCCESSFULLY,6.763192,36.199977,42.963169,5.766107,41.966084,1.159285,11,-1.000000,""
143,w0,python3action_linpack_5000,0.000000,1,-1.000000,1,COMPLETED_SUCCESSFULLY,42.963184,0.000010,42.963194,42.963184,42.963194,4296319.418941,11,-1.000000,""
103_updated,w0,python3action_modeltraining_reviews50mb_neowise,0.997085,1,2000.000000,1,COMPLETED_SUCCESSFULLY,27.273704,22.799998,50.073702,26.276619,49.076617,2.152483,0,-1.000000,""
103,w0,python3action_modeltraining_reviews50mb,0.000000,1,-1.000000,1,COMPLETED_SUCCESSFULLY,50.073717,0.000010,50.073727,50.073717,50.073727,5007372.700201,0,-1.000000,""
131_updated,w0,python3action_modeltraining_reviews50mb_neowise,0.997085,1,2000.000000,1,COMPLETED_SUCCESSFULLY,27.273749,22.799998,50.073747,26.276664,49.076662,2.152485,1,-1.000000,""
131,w0,python3action_modeltraining_reviews50mb,0.000000,1,-1.000000,1,COMPLETED_SUCCESSFULLY,50.073777,0.000010,50.073787,50.073777,50.073787,5007378.700201,1,-1.000000,""
7_updated,w0,python3action_pyaes_3000_troll,0.997085,1,2000.000000,1,COMPLETED_SUCCESSFULLY,1.870074,57.166677,59.036751,0.872989,58.039666,1.015271,4,-1.000000,""
7,w0,python3action_pyaes_3000,0.000000,1,-1.000000,1,COMPLETED_SUCCESSFULLY,59.036766,0.000010,59.036776,59.036766,59.036776,5903677.600201,4,-1.000000,""
25_updated,w0,python3action_floatoperation_100000000_nova,0.997085,1,2000.000000,1,COMPLETED_SUCCESSFULLY,3.442135,66.200020,69.642155,2.445050,68.645070,1.036934,6,-1.000000,""
25,w0,python3action_floatoperation_100000000,0.000000,1,-1.000000,1,COMPLETED_SUCCESSFULLY,69.642170,0.000010,69.642180,69.642170,69.642180,6964218.000201,6,-1.000000,""
27_updated,w0,python3action_floatoperation_100000000_nova,0.997085,1,2000.000000,1,COMPLETED_SUCCESSFULLY,3.442165,66.200020,69.642185,2.445080,68.645100,1.036935,7,-1.000000,""
33_updated,w0,python3action_floatoperation_100000000_nova,0.997085,1,2000.000000,1,COMPLETED_SUCCESSFULLY,3.442195,66.200020,69.642215,2.445110,68.645130,1.036935,8,-1.000000,""
27,w0,python3action_floatoperation_100000000,0.000000,1,-1.000000,1,COMPLETED_SUCCESSFULLY,69.642215,0.000010,69.642225,69.642215,69.642225,6964222.485583,7,-1.000000,""
59_updated,w0,python3action_floatoperation_100000000_nova,0.997085,1,2000.000000,1,COMPLETED_SUCCESSFULLY,3.442210,66.200020,69.642230,2.445125,68.645145,1.036935,9,-1.000000,""
33,w0,python3action_floatoperation_100000000,0.000000,1,-1.000000,1,COMPLETED_SUCCESSFULLY,69.642245,0.000010,69.642255,69.642245,69.642255,6964225.500201,8,-1.000000,""
64_updated,w0,python3action_floatoperation_100000000_nova,0.997085,1,2000.000000,1,COMPLETED_SUCCESSFULLY,3.442240,66.200020,69.642260,2.445155,68.645175,1.036936,10,-1.000000,""
59,w0,python3action_floatoperation_100000000,0.000000,1,-1.000000,1,COMPLETED_SUCCESSFULLY,69.642275,0.000010,69.642285,69.642275,69.642285,6964228.486386,9,-1.000000,""
64,w0,python3action_floatoperation_100000000,0.000000,1,-1.000000,1,COMPLETED_SUCCESSFULLY,69.642320,0.000010,69.642330,69.642320,69.642330,6964233.000402,10,-1.000000,""
150_updated,w0,python3action_modeltraining_reviews50mb_neowise,0.997085,1,2000.000000,1,COMPLETED_SUCCESSFULLY,50.073747,22.799998,72.873745,49.076662,71.876660,3.152485,0,-1.000000,""
150,w0,python3action_modeltraining_reviews50mb,0.000000,1,-1.000000,1,COMPLETED_SUCCESSFULLY,72.873760,0.000010,72.873770,72.873760,72.873770,7287377.000201,0,-1.000000,""
176_updated,w0,python3action_modeltraining_reviews50mb_neowise,0.997085,1,2000.000000,1,COMPLETED_SUCCESSFULLY,50.073807,22.799998,72.873805,49.076722,71.876720,3.152488,1,-1.000000,""
176,w0,python3action_modeltraining_reviews50mb,0.000000,1,-1.000000,1,COMPLETED_SUCCESSFULLY,72.873820,0.000010,72.873830,72.873820,72.873830,7287383.000201,1,-1.000000,""
python3action_image_processing_job0_2,w0,python3action_image_processing,0.997085,1,2000.000000,1,COMPLETED_SUCCESSFULLY,1.002130,72.012455,73.014585,0.005045,72.017500,1.000070,2,-1.000000,""
python3action_image_processing_job2_11,w0,python3action_image_processing,0.997085,1,2000.000000,1,COMPLETED_SUCCESSFULLY,1.002265,72.012455,73.014720,0.005180,72.017635,1.000072,12,-1.000000,""
python3action_image_processing_job18_12,w0,python3action_image_processing,0.997085,1,2000.000000,1,COMPLETED_SUCCESSFULLY,1.002280,72.012455,73.014735,0.005195,72.017650,1.000072,13,-1.000000,""
python3action_chameleon_job22_2,w0,python3action_chameleon,0.997085,1,2000.000000,1,COMPLETED_SUCCESSFULLY,72.873850,0.243006,73.116856,71.876765,72.119771,296.781875,1,-1.000000,""
52_updated,w0,python3action_chameleon_3000_yeti,0.997085,1,2000.000000,1,COMPLETED_SUCCESSFULLY,1.894869,93.000000,94.894869,0.897784,93.897784,1.009654,5,-1.000000,""
52,w0,python3action_chameleon_3000,0.000000,1,-1.000000,1,COMPLETED_SUCCESSFULLY,94.894884,0.000010,94.894894,94.894884,94.894894,9489489.449765,5,-1.000000,""
184_updated,w0,python3action_modeltraining_reviews50mb_neowise,0.997085,1,2000.000000,1,COMPLETED_SUCCESSFULLY,72.873790,22.799998,95.673788,71.876705,94.676703,4.152487,0,-1.000000,""
184,w0,python3action_modeltraining_reviews50mb,0.000000,1,-1.000000,1,COMPLETED_SUCCESSFULLY,95.673803,0.000010,95.673813,95.673803,95.673813,9567381.300201,0,-1.000000,""
python3action_chameleon_job57_1,w0,python3action_chameleon,0.997085,1,2000.000000,1,COMPLETED_SUCCESSFULLY,95.673833,0.243006,95.916839,94.676748,94.919754,390.606656,0,-1.000000,""
22_updated,w0,python3action_chameleon_2000_neowise,0.997085,1,2000.000000,1,COMPLETED_SUCCESSFULLY,73.116871,24.200002,97.316873,72.119786,96.319788,3.980156,1,-1.000000,""
22,w0,python3action_chameleon_2000,0.000000,1,-1.000000,1,COMPLETED_SUCCESSFULLY,97.316888,0.000010,97.316898,97.316888,97.316898,9731689.822787,1,-1.000000,""
0_updated,w0,python3action_imageprocessing_SampleImage_40mb_taurus,0.997085,1,2000.000000,1,COMPLETED_SUCCESSFULLY,73.014600,32.600046,105.614646,72.017515,104.617561,3.209123,2,-1.000000,""
0,w0,python3action_imageprocessing_SampleImage_40mb,0.000000,1,-1.000000,1,COMPLETED_SUCCESSFULLY,105.614661,0.000010,105.614671,105.614661,105.614671,10561467.145163,2,-1.000000,""
2_updated,w0,python3action_imageprocessing_SampleImage_40mb_taurus,0.997085,1,2000.000000,1,COMPLETED_SUCCESSFULLY,73.014735,32.600046,105.614781,72.017650,104.617696,3.209127,12,-1.000000,""
2,w0,python3action_imageprocessing_SampleImage_40mb,0.000000,1,-1.000000,1,COMPLETED_SUCCESSFULLY,105.614796,0.000010,105.614806,105.614796,105.614806,10561480.646970,12,-1.000000,""
18_updated,w0,python3action_imageprocessing_SampleImage_40mb_taurus,0.997085,1,2000.000000,1,COMPLETED_SUCCESSFULLY,73.014765,32.600046,105.614811,72.017680,104.617726,3.209128,13,-1.000000,""
18,w0,python3action_imageprocessing_SampleImage_40mb,0.000000,1,-1.000000,1,COMPLETED_SUCCESSFULLY,105.614841,0.000010,105.614851,105.614841,105.614851,10561485.147572,13,-1.000000,""
20_updated,w0,python3action_pyaes_3000_troll,0.997085,1,2000.000000,1,COMPLETED_SUCCESSFULLY,59.036796,57.166677,116.203473,58.039711,115.206388,2.015272,4,-1.000000,""
20,w0,python3action_pyaes_3000,0.000000,1,-1.000000,1,COMPLETED_SUCCESSFULLY,116.203488,0.000010,116.203498,116.203488,116.203498,11620349.800201,4,-1.000000,""
57_updated,w0,python3action_chameleon_2000_neowise,0.997085,1,2000.000000,1,COMPLETED_SUCCESSFULLY,95.916854,24.200002,120.116856,94.919769,119.119771,4.922304,0,-1.000000,""
57,w0,python3action_chameleon_2000,0.000000,1,-1.000000,1,COMPLETED_SUCCESSFULLY,120.116871,0.000010,120.116881,120.116871,120.116881,12011688.122787,0,-1.000000,""
58_updated,w0,python3action_chameleon_2000_neowise,0.997085,1,2000.000000,1,COMPLETED_SUCCESSFULLY,97.316918,24.200002,121.516920,96.319833,120.519835,4.980158,1,-1.000000,""
58,w0,python3action_chameleon_2000,0.000000,1,-1.000000,1,COMPLETED_SUCCESSFULLY,121.516935,0.000010,121.516945,121.516935,121.516945,12151694.545775,1,-1.000000,""
70_updated,w0,python3action_floatoperation_100000000_nova,0.997085,1,2000.000000,1,COMPLETED_SUCCESSFULLY,69.642200,66.200020,135.842220,68.645115,134.845135,2.036935,6,-1.000000,""
70,w0,python3action_floatoperation_100000000,0.000000,1,-1.000000,1,COMPLETED_SUCCESSFULLY,135.842235,0.000010,135.842245,135.842235,135.842245,13584224.500201,6,-1.000000,""
77_updated,w0,python3action_floatoperation_100000000_nova,0.997085,1,2000.000000,1,COMPLETED_SUCCESSFULLY,69.642260,66.200020,135.842279,68.645175,134.845194,2.036936,7,-1.000000,""
77,w0,python3action_floatoperation_100000000,0.000000,1,-1.000000,1,COMPLETED_SUCCESSFULLY,135.842294,0.000010,135.842304,135.842294,135.842304,13584230.440379,7,-1.000000,""
94_updated,w0,python3action_floatoperation_100000000_nova,0.997085,1,2000.000000,1,COMPLETED_SUCCESSFULLY,69.642305,66.200020,135.842325,68.645220,134.845240,2.036937,8,-1.000000,""
94,w0,python3action_floatoperation_100000000,0.000000,1,-1.000000,1,COMPLETED_SUCCESSFULLY,135.842354,0.000010,135.842364,135.842354,135.842364,13584236.441183,8,-1.000000,""
107_updated,w0,python3action_floatoperation_100000000_nova,0.997085,1,2000.000000,1,COMPLETED_SUCCESSFULLY,69.642335,66.200020,135.842355,68.645250,134.845270,2.036937,9,-1.000000,""
138_updated,w0,python3action_floatoperation_100000000_nova,0.997085,1,2000.000000,1,COMPLETED_SUCCESSFULLY,69.642365,66.200020,135.842385,68.645280,134.845300,2.036937,10,-1.000000,""
107,w0,python3action_floatoperation_100000000,0.000000,1,-1.000000,1,COMPLETED_SUCCESSFULLY,135.842399,0.000010,135.842409,135.842399,135.842409,13584240.941785,9,-1.000000,""
138,w0,python3action_floatoperation_100000000,0.000000,1,-1.000000,1,COMPLETED_SUCCESSFULLY,135.842429,0.000010,135.842439,135.842429,135.842439,13584243.942187,10,-1.000000,""
23_updated,w0,python3action_imageprocessing_SampleImage_40mb_taurus,0.997085,1,2000.000000,1,COMPLETED_SUCCESSFULLY,105.614691,32.600046,138.214738,104.617606,137.217653,4.209124,2,-1.000000,""
23,w0,python3action_imageprocessing_SampleImage_40mb,0.000000,1,-1.000000,1,COMPLETED_SUCCESSFULLY,138.214753,0.000010,138.214763,138.214753,138.214763,13821476.300201,2,-1.000000,""
26_updated,w0,python3action_imageprocessing_SampleImage_40mb_taurus,0.997085,1,2000.000000,1,COMPLETED_SUCCESSFULLY,105.614826,32.600046,138.214873,104.617741,137.217788,4.209129,12,-1.000000,""
26,w0,python3action_imageprocessing_SampleImage_40mb,0.000000,1,-1.000000,1,COMPLETED_SUCCESSFULLY,138.214888,0.000010,138.214898,138.214888,138.214898,13821489.800201,12,-1.000000,""
38_updated,w0,python3action_imageprocessing_SampleImage_40mb_taurus,0.997085,1,2000.000000,1,COMPLETED_SUCCESSFULLY,105.614871,32.600046,138.214918,104.617786,137.217833,4.209130,13,-1.000000,""
38,w0,python3action_imageprocessing_SampleImage_40mb,0.000000,1,-1.000000,1,COMPLETED_SUCCESSFULLY,138.214948,0.000010,138.214958,138.214948,138.214958,13821495.800201,13,-1.000000,""
92_updated,w0,python3action_chameleon_2000_neowise,0.997085,1,2000.000000,1,COMPLETED_SUCCESSFULLY,120.116901,24.200002,144.316903,119.119816,143.319818,5.922306,0,-1.000000,""
92,w0,python3action_chameleon_2000,0.000000,1,-1.000000,1,COMPLETED_SUCCESSFULLY,144.316918,0.000010,144.316928,144.316918,144.316928,14431692.845775,0,-1.000000,""
97_updated,w0,python3action_chameleon_2000_neowise,0.997085,1,2000.000000,1,COMPLETED_SUCCESSFULLY,121.516965,24.200002,145.716968,120.519880,144.719883,5.980160,1,-1.000000,""
97,w0,python3action_chameleon_2000,0.000000,1,-1.000000,1,COMPLETED_SUCCESSFULLY,145.716983,0.000010,145.716993,145.716983,145.716993,14571699.300201,1,-1.000000,""
24_updated,w0,python3action_linpack_6000_orion,0.997085,1,2000.000000,1,COMPLETED_SUCCESSFULLY,42.963214,106.000000,148.963214,41.966129,147.966129,1.395907,11,-1.000000,""
24,w0,python3action_linpack_6000,0.000000,1,-1.000000,1,COMPLETED_SUCCESSFULLY,148.963229,0.000010,148.963239,148.963229,148.963239,14896323.919543,11,-1.000000,""
python3action_modeltraining_job39_7,w0,python3action_modeltraining,0.997085,1,2000.000000,1,COMPLETED_SUCCESSFULLY,135.842324,30.499683,166.342007,134.845239,165.344922,5.421201,7,-1.000000,""
python3action_modeltraining_job51_8,w0,python3action_modeltraining,0.997085,1,2000.000000,1,COMPLETED_SUCCESSFULLY,135.842384,30.499683,166.342067,134.845299,165.344982,5.421203,8,-1.000000,""
python3action_modeltraining_job73_9,w0,python3action_modeltraining,0.997085,1,2000.000000,1,COMPLETED_SUCCESSFULLY,135.842444,30.499683,166.342127,134.845359,165.345042,5.421205,9,-1.000000,""
python3action_modeltraining_job87_10,w0,python3action_modeltraining,0.997085,1,2000.000000,1,COMPLETED_SUCCESSFULLY,135.842474,30.499683,166.342157,134.845389,165.345072,5.421206,10,-1.000000,""
100_updated,w0,python3action_chameleon_2000_neowise,0.997085,1,2000.000000,1,COMPLETED_SUCCESSFULLY,144.316948,24.200002,168.516951,143.319863,167.519866,6.922308,0,-1.000000,""
100,w0,python3action_chameleon_2000,0.000000,1,-1.000000,1,COMPLETED_SUCCESSFULLY,168.516966,0.000010,168.516976,168.516966,168.516976,16851697.600201,0,-1.000000,""
112_updated,w0,python3action_chameleon_2000_neowise,0.997085,1,2000.000000,1,COMPLETED_SUCCESSFULLY,145.717013,24.200002,169.917015,144.719928,168.919930,6.980162,1,-1.000000,""
112,w0,python3action_chameleon_2000,0.000000,1,-1.000000,1,COMPLETED_SUCCESSFULLY,169.917030,0.000010,169.917040,169.917030,169.917040,16991704.023188,1,-1.000000,""
46_updated,w0,python3action_imageprocessing_SampleImage_40mb_taurus,0.997085,1,2000.000000,1,COMPLETED_SUCCESSFULLY,138.214783,32.600046,170.814829,137.217698,169.817744,5.209126,2,-1.000000,""
46,w0,python3action_imageprocessing_SampleImage_40mb,0.000000,1,-1.000000,1,COMPLETED_SUCCESSFULLY,170.814844,0.000010,170.814854,170.814844,170.814854,17081485.413881,2,-1.000000,""
78_updated,w0,python3action_imageprocessing_SampleImage_40mb_taurus,0.997085,1,2000.000000,1,COMPLETED_SUCCESSFULLY,138.214918,32.600046,170.814964,137.217833,169.817879,5.209130,12,-1.000000,""
78,w0,python3action_imageprocessing_SampleImage_40mb,0.000000,1,-1.000000,1,COMPLETED_SUCCESSFULLY,170.814979,0.000010,170.814989,170.814979,170.814989,17081498.900201,12,-1.000000,""
110_updated,w0,python3action_imageprocessing_SampleImage_40mb_taurus,0.997085,1,2000.000000,1,COMPLETED_SUCCESSFULLY,138.214978,32.600046,170.815024,137.217893,169.817939,5.209132,13,-1.000000,""
110,w0,python3action_imageprocessing_SampleImage_40mb,0.000000,1,-1.000000,1,COMPLETED_SUCCESSFULLY,170.815039,0.000010,170.815049,170.815039,170.815049,17081504.913881,13,-1.000000,""
41_updated,w0,python3action_pyaes_3000_troll,0.997085,1,2000.000000,1,COMPLETED_SUCCESSFULLY,116.203518,57.166677,173.370195,115.206433,172.373110,3.015273,4,-1.000000,""
41,w0,python3action_pyaes_3000,0.000000,1,-1.000000,1,COMPLETED_SUCCESSFULLY,173.370210,0.000010,173.370220,173.370210,173.370220,17337022.000201,4,-1.000000,""
116_updated,w0,python3action_chameleon_3000_yeti,0.997085,1,2000.000000,1,COMPLETED_SUCCESSFULLY,94.894915,93.000000,187.894915,93.897830,186.897830,2.009654,5,-1.000000,""
116,w0,python3action_chameleon_3000,0.000000,1,-1.000000,1,COMPLETED_SUCCESSFULLY,187.894930,0.000010,187.894940,187.894930,187.894940,18789494.000201,5,-1.000000,""
114_updated,w0,python3action_chameleon_2000_neowise,0.997085,1,2000.000000,1,COMPLETED_SUCCESSFULLY,168.516996,24.200002,192.716998,167.519911,191.719913,7.922310,0,-1.000000,""
114,w0,python3action_chameleon_2000,0.000000,1,-1.000000,1,COMPLETED_SUCCESSFULLY,192.717013,0.000010,192.717023,192.717013,192.717023,19271702.323188,0,-1.000000,""
120_updated,w0,python3action_chameleon_2000_neowise,0.997085,1,2000.000000,1,COMPLETED_SUCCESSFULLY,169.917060,24.200002,194.117062,168.919975,193.119977,7.980164,1,-1.000000,""
120,w0,python3action_chameleon_2000,0.000000,1,-1.000000,1,COMPLETED_SUCCESSFULLY,194.117077,0.000010,194.117087,194.117077,194.117087,19411708.746176,1,-1.000000,""
196_updated,w0,python3action_floatoperation_100000000_nova,0.997085,1,2000.000000,1,COMPLETED_SUCCESSFULLY,135.842265,66.200020,202.042285,134.845180,201.045200,3.036936,6,-1.000000,""
196,w0,python3action_floatoperation_100000000,0.000000,1,-1.000000,1,COMPLETED_SUCCESSFULLY,202.042300,0.000010,202.042310,202.042300,202.042310,20204231.000201,6,-1.000000,""
141_updated,w0,python3action_imageprocessing_SampleImage_40mb_taurus,0.997085,1,2000.000000,1,COMPLETED_SUCCESSFULLY,170.814874,32.600046,203.414920,169.817789,202.417835,6.209127,2,-1.000000,""
141,w0,python3action_imageprocessing_SampleImage_40mb,0.000000,1,-1.000000,1,COMPLETED_SUCCESSFULLY,203.414935,0.000010,203.414945,203.414935,203.414945,20341494.527562,2,-1.000000,""
161_updated,w0,python3action_imageprocessing_SampleImage_40mb_taurus,0.997085,1,2000.000000,1,COMPLETED_SUCCESSFULLY,170.815009,32.600046,203.415055,169.817924,202.417970,6.209131,12,-1.000000,""
161,w0,python3action_imageprocessing_SampleImage_40mb,0.000000,1,-1.000000,1,COMPLETED_SUCCESSFULLY,203.415070,0.000010,203.415080,203.415070,203.415080,20341508.013881,12,-1.000000,""
172_updated,w0,python3action_imageprocessing_SampleImage_40mb_taurus,0.997085,1,2000.000000,1,COMPLETED_SUCCESSFULLY,170.815069,32.600046,203.415115,169.817984,202.418030,6.209133,13,-1.000000,""
172,w0,python3action_imageprocessing_SampleImage_40mb,0.000000,1,-1.000000,1,COMPLETED_SUCCESSFULLY,203.415130,0.000010,203.415140,203.415130,203.415140,20341514.027562,13,-1.000000,""
python3action_linpack_job10_12,w0,python3action_linpack,0.997085,1,2000.000000,1,COMPLETED_SUCCESSFULLY,203.415100,5.760927,209.176027,202.418015,208.178942,36.136360,12,-1.000000,""
python3action_linpack_job14_13,w0,python3action_linpack,0.997085,1,2000.000000,1,COMPLETED_SUCCESSFULLY,203.415160,5.760927,209.176088,202.418075,208.179003,36.136371,13,-1.000000,""
133_updated,w0,python3action_chameleon_2000_neowise,0.997085,1,2000.000000,1,COMPLETED_SUCCESSFULLY,192.717043,24.200002,216.917045,191.719958,215.919960,8.922312,0,-1.000000,""
133,w0,python3action_chameleon_2000,0.000000,1,-1.000000,1,COMPLETED_SUCCESSFULLY,216.917060,0.000010,216.917070,216.917060,216.917070,21691707.046176,0,-1.000000,""
python3action_image_processing_job9_1,w0,python3action_image_processing_reduced_0.86,0.997085,1,2000.000000,1,COMPLETED_SUCCESSFULLY,216.917090,0.469128,217.386218,215.920005,216.389133,461.258378,0,-1.000000,""
185_updated,w0,python3action_chameleon_2000_neowise,0.997085,1,2000.000000,1,COMPLETED_SUCCESSFULLY,194.117107,24.200002,218.317110,193.120022,217.320025,8.980165,1,-1.000000,""
185,w0,python3action_chameleon_2000,0.000000,1,-1.000000,1,COMPLETED_SUCCESSFULLY,218.317125,0.000010,218.317135,218.317125,218.317135,21831713.500201,1,-1.000000,""
python3action_image_processing_job11_2,w0,python3action_image_processing_reduced_0.86,0.997085,1,2000.000000,1,COMPLETED_SUCCESSFULLY,218.317155,0.469128,218.786283,217.320070,217.789198,464.242777,1,-1.000000,""
44_updated,w0,python3action_pyaes_3000_troll,0.997085,1,2000.000000,1,COMPLETED_SUCCESSFULLY,173.370240,57.166677,230.536917,172.373155,229.539832,4.015273,4,-1.000000,""
44,w0,python3action_pyaes_3000,0.000000,1,-1.000000,1,COMPLETED_SUCCESSFULLY,230.536932,0.000010,230.536942,230.536932,230.536942,23053694.200201,4,-1.000000,""
python3action_modeltraining_job175_6,w0,python3action_modeltraining,0.997085,1,2000.000000,1,COMPLETED_SUCCESSFULLY,202.042330,30.499683,232.542013,201.045245,231.544928,7.591716,6,-1.000000,""
191_updated,w0,python3action_imageprocessing_SampleImage_40mb_taurus,0.997085,1,2000.000000,1,COMPLETED_SUCCESSFULLY,203.414965,32.600046,236.015011,202.417880,235.017926,7.209129,2,-1.000000,""
191,w0,python3action_imageprocessing_SampleImage_40mb,0.000000,1,-1.000000,1,COMPLETED_SUCCESSFULLY,236.015026,0.000010,236.015036,236.015026,236.015036,23601503.641242,2,-1.000000,""
python3action_linpack_job45_3,w0,python3action_linpack,0.997085,1,2000.000000,1,COMPLETED_SUCCESSFULLY,236.015056,5.760927,241.775984,235.017971,240.778899,41.795164,2,-1.000000,""
39_updated,w0,python3action_modeltraining_reviews100mb_nova,0.997085,1,2000.000000,1,COMPLETED_SUCCESSFULLY,166.342022,79.600010,245.942032,165.344937,244.944947,3.077197,7,-1.000000,""
39,w0,python3action_modeltraining_reviews100mb,0.000000,1,-1.000000,1,COMPLETED_SUCCESSFULLY,245.942047,0.000010,245.942057,245.942047,245.942057,24594205.700201,7,-1.000000,""
python3action_video_processing_job36_7,w0,python3action_video_processing_reduced_0.97,0.997085,1,2000.000000,1,COMPLETED_SUCCESSFULLY,245.942077,0.000000,245.942077,244.944992,244.944992,165735302692999.656250,7,-1.000000,""
51_updated,w0,python3action_modeltraining_reviews100mb_nova,0.997085,1,2000.000000,1,COMPLETED_SUCCESSFULLY,166.342082,79.600010,245.942092,165.344997,244.945007,3.077198,8,-1.000000,""
51,w0,python3action_modeltraining_reviews100mb,0.000000,1,-1.000000,1,COMPLETED_SUCCESSFULLY,245.942122,0.000010,245.942132,245.942122,245.942132,24594213.200402,8,-1.000000,""
73_updated,w0,python3action_modeltraining_reviews100mb_nova,0.997085,1,2000.000000,1,COMPLETED_SUCCESSFULLY,166.342142,79.600010,245.942152,165.345057,244.945067,3.077199,9,-1.000000,""
python3action_video_processing_job43_8,w0,python3action_video_processing_reduced_0.97,0.997085,1,2000.000000,1,COMPLETED_SUCCESSFULLY,245.942152,0.000000,245.942152,244.945067,244.945067,165735353282006.218750,8,-1.000000,""
87_updated,w0,python3action_modeltraining_reviews100mb_nova,0.997085,1,2000.000000,1,COMPLETED_SUCCESSFULLY,166.342172,79.600010,245.942182,165.345087,244.945097,3.077199,10,-1.000000,""
73,w0,python3action_modeltraining_reviews100mb,0.000000,1,-1.000000,1,COMPLETED_SUCCESSFULLY,245.942182,0.000010,245.942192,245.942182,245.942192,24594219.177298,9,-1.000000,""
87,w0,python3action_modeltraining_reviews100mb,0.000000,1,-1.000000,1,COMPLETED_SUCCESSFULLY,245.942227,0.000010,245.942237,245.942227,245.942237,24594223.700201,10,-1.000000,""
python3action_video_processing_job53_9,w0,python3action_video_processing_reduced_0.97,0.997085,1,2000.000000,1,COMPLETED_SUCCESSFULLY,245.942242,0.000000,245.942242,244.945157,244.945157,165735414334360.125000,9,-1.000000,""
python3action_video_processing_job69_10,w0,python3action_video_processing_reduced_0.97,0.997085,1,2000.000000,1,COMPLETED_SUCCESSFULLY,245.942272,0.000000,245.942272,244.945187,244.945187,165735434635753.687500,10,-1.000000,""
10_updated,w0,python3action_linpack_5000_taurus,0.997085,1,2000.000000,1,COMPLETED_SUCCESSFULLY,209.176042,38.500058,247.676100,208.178957,246.679015,6.407238,12,-1.000000,""
10,w0,python3action_linpack_5000,0.000000,1,-1.000000,1,COMPLETED_SUCCESSFULLY,247.676115,0.000010,247.676125,247.676115,247.676125,24767612.503901,12,-1.000000,""
14_updated,w0,python3action_linpack_5000_taurus,0.997085,1,2000.000000,1,COMPLETED_SUCCESSFULLY,209.176103,38.500058,247.676161,208.179018,246.679076,6.407239,13,-1.000000,""
14,w0,python3action_linpack_5000,0.000000,1,-1.000000,1,COMPLETED_SUCCESSFULLY,247.676176,0.000010,247.676186,247.676176,247.676186,24767618.600201,13,-1.000000,""
9_updated,w0,python3action_imageprocessing_SampleImage_60mb_neowise,0.997085,1,2000.000000,1,COMPLETED_SUCCESSFULLY,217.386233,37.500000,254.886233,216.389148,253.889148,6.770377,0,-1.000000,""
9,w0,python3action_imageprocessing_SampleImage_60mb,0.000000,1,-1.000000,1,COMPLETED_SUCCESSFULLY,254.886248,0.000010,254.886258,254.886248,254.886258,25488625.828064,0,-1.000000,""
28_updated,w0,python3action_linpack_6000_orion,0.997085,1,2000.000000,1,COMPLETED_SUCCESSFULLY,148.963259,106.000000,254.963259,147.966174,253.966174,2.395907,11,-1.000000,""
28,w0,python3action_linpack_6000,0.000000,1,-1.000000,1,COMPLETED_SUCCESSFULLY,254.963274,0.000010,254.963284,254.963274,254.963284,25496328.420145,11,-1.000000,""
11_updated,w0,python3action_imageprocessing_SampleImage_60mb_neowise,0.997085,1,2000.000000,1,COMPLETED_SUCCESSFULLY,218.786298,37.500000,256.286298,217.789213,255.289213,6.807712,1,-1.000000,""
11,w0,python3action_imageprocessing_SampleImage_60mb,0.000000,1,-1.000000,1,COMPLETED_SUCCESSFULLY,256.286313,0.000010,256.286323,256.286313,256.286323,25628632.300402,1,-1.000000,""
45_updated,w0,python3action_linpack_5000_taurus,0.997085,1,2000.000000,1,COMPLETED_SUCCESSFULLY,241.775999,38.500058,280.276057,240.778914,279.278972,7.253988,2,-1.000000,""
45,w0,python3action_linpack_5000,0.000000,1,-1.000000,1,COMPLETED_SUCCESSFULLY,280.276072,0.000010,280.276082,280.276072,280.276082,28027608.200201,2,-1.000000,""
118_updated,w0,python3action_chameleon_3000_yeti,0.997085,1,2000.000000,1,COMPLETED_SUCCESSFULLY,187.894960,93.000000,280.894960,186.897875,279.897875,3.009655,5,-1.000000,""
118,w0,python3action_chameleon_3000,0.000000,1,-1.000000,1,COMPLETED_SUCCESSFULLY,280.894975,0.000010,280.894985,280.894975,280.894985,28089498.500803,5,-1.000000,""
48_updated,w0,python3action_linpack_5000_taurus,0.997085,1,2000.000000,1,COMPLETED_SUCCESSFULLY,247.676145,38.500058,286.176203,246.679060,285.179118,7.407239,12,-1.000000,""
48,w0,python3action_linpack_5000,0.000000,1,-1.000000,1,COMPLETED_SUCCESSFULLY,286.176218,0.000010,286.176228,286.176218,286.176228,28617622.800201,12,-1.000000,""
62_updated,w0,python3action_linpack_5000_taurus,0.997085,1,2000.000000,1,COMPLETED_SUCCESSFULLY,247.676206,38.500058,286.176264,246.679121,285.179179,7.407240,13,-1.000000,""
62,w0,python3action_linpack_5000,0.000000,1,-1.000000,1,COMPLETED_SUCCESSFULLY,286.176279,0.000010,286.176289,286.176279,286.176289,28617628.900201,13,-1.000000,""
74_updated,w0,python3action_pyaes_3000_troll,0.997085,1,2000.000000,1,COMPLETED_SUCCESSFULLY,230.536962,57.166677,287.703639,229.539877,286.706554,5.015274,4,-1.000000,""
74,w0,python3action_pyaes_3000,0.000000,1,-1.000000,1,COMPLETED_SUCCESSFULLY,287.703654,0.000010,287.703664,287.703654,287.703664,28770366.400201,4,-1.000000,""
16_updated,w0,python3action_imageprocessing_SampleImage_60mb_neowise,0.997085,1,2000.000000,1,COMPLETED_SUCCESSFULLY,254.886278,37.500000,292.386278,253.889193,291.389193,7.770378,0,-1.000000,""
16,w0,python3action_imageprocessing_SampleImage_60mb,0.000000,1,-1.000000,1,COMPLETED_SUCCESSFULLY,292.386293,0.000010,292.386303,292.386293,292.386303,29238630.328666,0,-1.000000,""
30_updated,w0,python3action_imageprocessing_SampleImage_60mb_neowise,0.997085,1,2000.000000,1,COMPLETED_SUCCESSFULLY,256.286343,37.500000,293.786343,255.289258,292.789258,7.807714,1,-1.000000,""
30,w0,python3action_imageprocessing_SampleImage_60mb,0.000000,1,-1.000000,1,COMPLETED_SUCCESSFULLY,293.786358,0.000010,293.786368,293.786358,293.786368,29378636.801004,1,-1.000000,""
175_updated,w0,python3action_modeltraining_reviews100mb_nova,0.997085,1,2000.000000,1,COMPLETED_SUCCESSFULLY,232.542028,79.600010,312.142038,231.544943,311.144953,3.908856,6,-1.000000,""
175,w0,python3action_modeltraining_reviews100mb,0.000000,1,-1.000000,1,COMPLETED_SUCCESSFULLY,312.142053,0.000010,312.142063,312.142053,312.142063,31214206.300201,6,-1.000000,""
python3action_video_processing_job72_6,w0,python3action_video_processing_reduced_0.97,0.997085,1,2000.000000,1,COMPLETED_SUCCESSFULLY,312.142083,0.000000,312.142083,311.144998,311.144998,210527718911978.812500,6,-1.000000,""
63_updated,w0,python3action_linpack_5000_taurus,0.997085,1,2000.000000,1,COMPLETED_SUCCESSFULLY,280.276102,38.500058,318.776160,279.279017,317.779075,8.253990,2,-1.000000,""
63,w0,python3action_linpack_5000,0.000000,1,-1.000000,1,COMPLETED_SUCCESSFULLY,318.776175,0.000010,318.776185,318.776175,318.776185,31877618.500201,2,-1.000000,""
82_updated,w0,python3action_linpack_5000_taurus,0.997085,1,2000.000000,1,COMPLETED_SUCCESSFULLY,286.176248,38.500058,324.676306,285.179163,323.679221,8.407240,12,-1.000000,""
82,w0,python3action_linpack_5000,0.000000,1,-1.000000,1,COMPLETED_SUCCESSFULLY,324.676321,0.000010,324.676331,324.676321,324.676331,32467633.100201,12,-1.000000,""
91_updated,w0,python3action_linpack_5000_taurus,0.997085,1,2000.000000,1,COMPLETED_SUCCESSFULLY,286.176309,38.500058,324.676367,285.179224,323.679282,8.407241,13,-1.000000,""
91,w0,python3action_linpack_5000,0.000000,1,-1.000000,1,COMPLETED_SUCCESSFULLY,324.676382,0.000010,324.676392,324.676382,324.676392,32467639.200201,13,-1.000000,""
83_updated,w0,python3action_imageprocessing_SampleImage_60mb_neowise,0.997085,1,2000.000000,1,COMPLETED_SUCCESSFULLY,292.386323,37.500000,329.886323,291.389238,328.889238,8.770380,0,-1.000000,""
83,w0,python3action_imageprocessing_SampleImage_60mb,0.000000,1,-1.000000,1,COMPLETED_SUCCESSFULLY,329.886338,0.000010,329.886348,329.886338,329.886348,32988634.829269,0,-1.000000,""
85_updated,w0,python3action_imageprocessing_SampleImage_60mb_neowise,0.997085,1,2000.000000,1,COMPLETED_SUCCESSFULLY,293.786388,37.500000,331.286388,292.789303,330.289303,8.807715,1,-1.000000,""
85,w0,python3action_imageprocessing_SampleImage_60mb,0.000000,1,-1.000000,1,COMPLETED_SUCCESSFULLY,331.286403,0.000010,331.286413,331.286403,331.286413,33128641.301607,1,-1.000000,""
102_updated,w0,python3action_pyaes_3000_troll,0.997085,1,2000.000000,1,COMPLETED_SUCCESSFULLY,287.703684,57.166677,344.870361,286.706599,343.873276,6.015275,4,-1.000000,""
102,w0,python3action_pyaes_3000,0.000000,1,-1.000000,1,COMPLETED_SUCCESSFULLY,344.870376,0.000010,344.870386,344.870376,344.870386,34487038.600201,4,-1.000000,""
36_updated,w0,python3action_videoprocessing_SampleVideo_30mb_nova,0.997085,1,2000.000000,1,COMPLETED_SUCCESSFULLY,245.942107,106.799980,352.742087,244.945022,351.745002,3.293493,7,-1.000000,""
36,w0,python3action_videoprocessing_SampleVideo_30mb,0.000000,1,-1.000000,1,COMPLETED_SUCCESSFULLY,352.742102,0.000010,352.742112,352.742102,352.742112,35274211.246609,7,-1.000000,""
43_updated,w0,python3action_videoprocessing_SampleVideo_30mb_nova,0.997085,1,2000.000000,1,COMPLETED_SUCCESSFULLY,245.942197,106.799980,352.742177,244.945112,351.745092,3.293494,8,-1.000000,""
43,w0,python3action_videoprocessing_SampleVideo_30mb,0.000000,1,-1.000000,1,COMPLETED_SUCCESSFULLY,352.742192,0.000010,352.742202,352.742192,352.742202,35274220.223907,8,-1.000000,""
53_updated,w0,python3action_videoprocessing_SampleVideo_30mb_nova,0.997085,1,2000.000000,1,COMPLETED_SUCCESSFULLY,245.942287,106.799980,352.742267,244.945202,351.745182,3.293495,9,-1.000000,""
53,w0,python3action_videoprocessing_SampleVideo_30mb,0.000000,1,-1.000000,1,COMPLETED_SUCCESSFULLY,352.742282,0.000010,352.742292,352.742282,352.742292,35274229.247412,9,-1.000000,""
69_updated,w0,python3action_videoprocessing_SampleVideo_30mb_nova,0.997085,1,2000.000000,1,COMPLETED_SUCCESSFULLY,245.942317,106.799980,352.742297,244.945232,351.745212,3.293495,10,-1.000000,""
69,w0,python3action_videoprocessing_SampleVideo_30mb,0.000000,1,-1.000000,1,COMPLETED_SUCCESSFULLY,352.742327,0.000010,352.742337,352.742327,352.742337,35274233.748015,10,-1.000000,""
96_updated,w0,python3action_linpack_5000_taurus,0.997085,1,2000.000000,1,COMPLETED_SUCCESSFULLY,318.776205,38.500058,357.276263,317.779120,356.279178,9.253991,2,-1.000000,""
96,w0,python3action_linpack_5000,0.000000,1,-1.000000,1,COMPLETED_SUCCESSFULLY,357.276278,0.000010,357.276288,357.276278,357.276288,35727628.800201,2,-1.000000,""
31_updated,w0,python3action_linpack_6000_orion,0.997085,1,2000.000000,1,COMPLETED_SUCCESSFULLY,254.963304,106.000000,360.963304,253.966219,359.966219,3.395908,11,-1.000000,""
31,w0,python3action_linpack_6000,0.000000,1,-1.000000,1,COMPLETED_SUCCESSFULLY,360.963319,0.000010,360.963329,360.963319,360.963329,36096332.920748,11,-1.000000,""
99_updated,w0,python3action_linpack_5000_taurus,0.997085,1,2000.000000,1,COMPLETED_SUCCESSFULLY,324.676351,38.500058,363.176409,323.679266,362.179324,9.407241,12,-1.000000,""
99,w0,python3action_linpack_5000,0.000000,1,-1.000000,1,COMPLETED_SUCCESSFULLY,363.176424,0.000010,363.176434,363.176424,363.176434,36317643.400201,12,-1.000000,""
108_updated,w0,python3action_linpack_5000_taurus,0.997085,1,2000.000000,1,COMPLETED_SUCCESSFULLY,324.676412,38.500058,363.176470,323.679327,362.179385,9.407243,13,-1.000000,""
108,w0,python3action_linpack_5000,0.000000,1,-1.000000,1,COMPLETED_SUCCESSFULLY,363.176485,0.000010,363.176495,363.176485,363.176495,36317649.500201,13,-1.000000,""
93_updated,w0,python3action_imageprocessing_SampleImage_60mb_neowise,0.997085,1,2000.000000,1,COMPLETED_SUCCESSFULLY,329.886368,37.500000,367.386368,328.889283,366.389283,9.770381,0,-1.000000,""
93,w0,python3action_imageprocessing_SampleImage_60mb,0.000000,1,-1.000000,1,COMPLETED_SUCCESSFULLY,367.386383,0.000010,367.386393,367.386383,367.386393,36738639.329871,0,-1.000000,""
104_updated,w0,python3action_imageprocessing_SampleImage_60mb_neowise,0.997085,1,2000.000000,1,COMPLETED_SUCCESSFULLY,331.286433,37.500000,368.786433,330.289348,367.789348,9.807716,1,-1.000000,""
104,w0,python3action_imageprocessing_SampleImage_60mb,0.000000,1,-1.000000,1,COMPLETED_SUCCESSFULLY,368.786448,0.000010,368.786458,368.786448,368.786458,36878645.802209,1,-1.000000,""
123_updated,w0,python3action_chameleon_3000_yeti,0.997085,1,2000.000000,1,COMPLETED_SUCCESSFULLY,280.895005,93.000000,373.895005,279.897920,372.897920,4.009655,5,-1.000000,""
123,w0,python3action_chameleon_3000,0.000000,1,-1.000000,1,COMPLETED_SUCCESSFULLY,373.895020,0.000010,373.895030,373.895020,373.895030,37389503.001406,5,-1.000000,""
111_updated,w0,python3action_linpack_5000_taurus,0.997085,1,2000.000000,1,COMPLETED_SUCCESSFULLY,357.276308,38.500058,395.776366,356.279223,394.779281,10.253992,2,-1.000000,""
111,w0,python3action_linpack_5000,0.000000,1,-1.000000,1,COMPLETED_SUCCESSFULLY,395.776381,0.000010,395.776391,395.776381,395.776391,39577639.100201,2,-1.000000,""
126_updated,w0,python3action_linpack_5000_taurus,0.997085,1,2000.000000,1,COMPLETED_SUCCESSFULLY,363.176454,38.500058,401.676512,362.179369,400.679427,10.407242,12,-1.000000,""
126,w0,python3action_linpack_5000,0.000000,1,-1.000000,1,COMPLETED_SUCCESSFULLY,401.676527,0.000010,401.676537,401.676527,401.676537,40167653.700201,12,-1.000000,""
159_updated,w0,python3action_linpack_5000_taurus,0.997085,1,2000.000000,1,COMPLETED_SUCCESSFULLY,363.176515,38.500058,401.676573,362.179430,400.679488,10.407244,13,-1.000000,""
159,w0,python3action_linpack_5000,0.000000,1,-1.000000,1,COMPLETED_SUCCESSFULLY,401.676588,0.000010,401.676598,401.676588,401.676598,40167659.800201,13,-1.000000,""
python3action_facedetection_job4_13,w0,python3action_facedetection_reduced_0.91,0.997085,1,2000.000000,1,COMPLETED_SUCCESSFULLY,401.676618,0.000000,401.676618,400.679533,400.679533,3474040852061.965820,13,-1.000000,""
137_updated,w0,python3action_pyaes_3000_troll,0.997085,1,2000.000000,1,COMPLETED_SUCCESSFULLY,344.870406,57.166677,402.037083,343.873321,401.039998,7.015276,4,-1.000000,""
137,w0,python3action_pyaes_3000,0.000000,1,-1.000000,1,COMPLETED_SUCCESSFULLY,402.037098,0.000010,402.037108,402.037098,402.037108,40203710.800201,4,-1.000000,""
130_updated,w0,python3action_imageprocessing_SampleImage_60mb_neowise,0.997085,1,2000.000000,1,COMPLETED_SUCCESSFULLY,367.386413,37.500000,404.886413,366.389328,403.889328,10.770382,0,-1.000000,""
130,w0,python3action_imageprocessing_SampleImage_60mb,0.000000,1,-1.000000,1,COMPLETED_SUCCESSFULLY,404.886428,0.000010,404.886438,404.886428,404.886438,40488643.830474,0,-1.000000,""
135_updated,w0,python3action_imageprocessing_SampleImage_60mb_neowise,0.997085,1,2000.000000,1,COMPLETED_SUCCESSFULLY,368.786478,37.500000,406.286478,367.789393,405.289393,10.807717,1,-1.000000,""
135,w0,python3action_imageprocessing_SampleImage_60mb,0.000000,1,-1.000000,1,COMPLETED_SUCCESSFULLY,406.286493,0.000010,406.286503,406.286493,406.286503,40628650.302812,1,-1.000000,""
72_updated,w0,python3action_videoprocessing_SampleVideo_30mb_nova,0.997085,1,2000.000000,1,COMPLETED_SUCCESSFULLY,312.142113,106.799980,418.942093,311.145028,417.945008,3.913343,6,-1.000000,""
72,w0,python3action_videoprocessing_SampleVideo_30mb,0.000000,1,-1.000000,1,COMPLETED_SUCCESSFULLY,418.942108,0.000010,418.942118,418.942108,418.942118,41894211.847412,6,-1.000000,""
164_updated,w0,python3action_linpack_5000_taurus,0.997085,1,2000.000000,1,COMPLETED_SUCCESSFULLY,395.776411,38.500058,434.276469,394.779326,433.279384,11.253993,2,-1.000000,""
164,w0,python3action_linpack_5000,0.000000,1,-1.000000,1,COMPLETED_SUCCESSFULLY,434.276484,0.000010,434.276494,434.276484,434.276494,43427649.400201,2,-1.000000,""
python3action_facedetection_job32_3,w0,python3action_facedetection_reduced_0.91,0.997085,1,2000.000000,1,COMPLETED_SUCCESSFULLY,434.276514,0.000000,434.276514,433.279429,433.279429,3756694097730.084473,2,-1.000000,""
179_updated,w0,python3action_linpack_5000_taurus,0.997085,1,2000.000000,1,COMPLETED_SUCCESSFULLY,401.676557,38.500058,440.176615,400.679472,439.179530,11.407243,12,-1.000000,""
179,w0,python3action_linpack_5000,0.000000,1,-1.000000,1,COMPLETED_SUCCESSFULLY,440.176630,0.000010,440.176640,440.176630,440.176640,44017664.000201,12,-1.000000,""
python3action_facedetection_job71_12,w0,python3action_facedetection_reduced_0.91,0.997085,1,2000.000000,1,COMPLETED_SUCCESSFULLY,440.176660,0.000000,440.176660,439.179575,439.179575,3807850562057.938965,12,-1.000000,""
136_updated,w0,python3action_imageprocessing_SampleImage_60mb_neowise,0.997085,1,2000.000000,1,COMPLETED_SUCCESSFULLY,404.886458,37.500000,442.386458,403.889373,441.389373,11.770383,0,-1.000000,""
136,w0,python3action_imageprocessing_SampleImage_60mb,0.000000,1,-1.000000,1,COMPLETED_SUCCESSFULLY,442.386473,0.000010,442.386483,442.386473,442.386483,44238648.331076,0,-1.000000,""
152_updated,w0,python3action_imageprocessing_SampleImage_60mb_neowise,0.997085,1,2000.000000,1,COMPLETED_SUCCESSFULLY,406.286523,37.500000,443.786523,405.289438,442.789438,11.807718,1,-1.000000,""
152,w0,python3action_imageprocessing_SampleImage_60mb,0.000000,1,-1.000000,1,COMPLETED_SUCCESSFULLY,443.786538,0.000010,443.786548,443.786538,443.786548,44378654.803414,1,-1.000000,""
139_updated,w0,python3action_pyaes_3000_troll,0.997085,1,2000.000000,1,COMPLETED_SUCCESSFULLY,402.037128,57.166677,459.203805,401.040043,458.206720,8.015277,4,-1.000000,""
139,w0,python3action_pyaes_3000,0.000000,1,-1.000000,1,COMPLETED_SUCCESSFULLY,459.203820,0.000010,459.203830,459.203820,459.203830,45920383.000201,4,-1.000000,""
86_updated,w0,python3action_videoprocessing_SampleVideo_30mb_nova,0.997085,1,2000.000000,1,COMPLETED_SUCCESSFULLY,352.742132,106.799980,459.542113,351.745047,458.545028,4.293494,7,-1.000000,""
86,w0,python3action_videoprocessing_SampleVideo_30mb,0.000000,1,-1.000000,1,COMPLETED_SUCCESSFULLY,459.542128,0.000010,459.542138,459.542128,459.542138,45954213.800201,7,-1.000000,""
89_updated,w0,python3action_videoprocessing_SampleVideo_30mb_nova,0.997085,1,2000.000000,1,COMPLETED_SUCCESSFULLY,352.742222,106.799980,459.542203,351.745137,458.545118,4.293494,8,-1.000000,""
89,w0,python3action_videoprocessing_SampleVideo_30mb,0.000000,1,-1.000000,1,COMPLETED_SUCCESSFULLY,459.542218,0.000010,459.542228,459.542218,459.542228,45954222.800201,8,-1.000000,""
90_updated,w0,python3action_videoprocessing_SampleVideo_30mb_nova,0.997085,1,2000.000000,1,COMPLETED_SUCCESSFULLY,352.742312,106.799980,459.542293,351.745227,458.545208,4.293495,9,-1.000000,""
90,w0,python3action_videoprocessing_SampleVideo_30mb,0.000000,1,-1.000000,1,COMPLETED_SUCCESSFULLY,459.542308,0.000010,459.542318,459.542308,459.542318,45954231.800201,9,-1.000000,""
95_updated,w0,python3action_videoprocessing_SampleVideo_30mb_nova,0.997085,1,2000.000000,1,COMPLETED_SUCCESSFULLY,352.742357,106.799980,459.542338,351.745272,458.545253,4.293496,10,-1.000000,""
95,w0,python3action_videoprocessing_SampleVideo_30mb,0.000000,1,-1.000000,1,COMPLETED_SUCCESSFULLY,459.542368,0.000010,459.542378,459.542368,459.542378,45954237.800201,10,-1.000000,""
128_updated,w0,python3action_chameleon_3000_yeti,0.997085,1,2000.000000,1,COMPLETED_SUCCESSFULLY,373.895050,93.000000,466.895050,372.897965,465.897965,5.009656,5,-1.000000,""
128,w0,python3action_chameleon_3000,0.000000,1,-1.000000,1,COMPLETED_SUCCESSFULLY,466.895065,0.000010,466.895075,466.895065,466.895075,46689507.502009,5,-1.000000,""
34_updated,w0,python3action_linpack_6000_orion,0.997085,1,2000.000000,1,COMPLETED_SUCCESSFULLY,360.963349,106.000000,466.963349,359.966264,465.966264,4.395908,11,-1.000000,""
34,w0,python3action_linpack_6000,0.000000,1,-1.000000,1,COMPLETED_SUCCESSFULLY,466.963364,0.000010,466.963374,466.963364,466.963374,46696337.421351,11,-1.000000,""
168_updated,w0,python3action_imageprocessing_SampleImage_60mb_neowise,0.997085,1,2000.000000,1,COMPLETED_SUCCESSFULLY,442.386503,37.500000,479.886503,441.389418,478.889418,12.770384,0,-1.000000,""
168,w0,python3action_imageprocessing_SampleImage_60mb,0.000000,1,-1.000000,1,COMPLETED_SUCCESSFULLY,479.886518,0.000010,479.886528,479.886518,479.886528,47988652.831679,0,-1.000000,""
174_updated,w0,python3action_imageprocessing_SampleImage_60mb_neowise,0.997085,1,2000.000000,1,COMPLETED_SUCCESSFULLY,443.786568,37.500000,481.286568,442.789483,480.289483,12.807720,1,-1.000000,""
174,w0,python3action_imageprocessing_SampleImage_60mb,0.000000,1,-1.000000,1,COMPLETED_SUCCESSFULLY,481.286583,0.000010,481.286593,481.286583,481.286593,48128659.304017,1,-1.000000,""
147_updated,w0,python3action_pyaes_3000_troll,0.997085,1,2000.000000,1,COMPLETED_SUCCESSFULLY,459.203850,57.166677,516.370527,458.206765,515.373442,9.015277,4,-1.000000,""
147,w0,python3action_pyaes_3000,0.000000,1,-1.000000,1,COMPLETED_SUCCESSFULLY,516.370542,0.000010,516.370552,516.370542,516.370552,51637055.200201,4,-1.000000,""
180_updated,w0,python3action_imageprocessing_SampleImage_60mb_neowise,0.997085,1,2000.000000,1,COMPLETED_SUCCESSFULLY,479.886548,37.500000,517.386548,478.889463,516.389463,13.770386,0,-1.000000,""
180,w0,python3action_imageprocessing_SampleImage_60mb,0.000000,1,-1.000000,1,COMPLETED_SUCCESSFULLY,517.386563,0.000010,517.386573,517.386563,517.386573,51738657.332281,0,-1.000000,""
190_updated,w0,python3action_imageprocessing_SampleImage_60mb_neowise,0.997085,1,2000.000000,1,COMPLETED_SUCCESSFULLY,481.286613,37.500000,518.786613,480.289528,517.789528,13.807721,1,-1.000000,""
190,w0,python3action_imageprocessing_SampleImage_60mb,0.000000,1,-1.000000,1,COMPLETED_SUCCESSFULLY,518.786628,0.000010,518.786638,518.786628,518.786638,51878663.804619,1,-1.000000,""
105_updated,w0,python3action_videoprocessing_SampleVideo_30mb_nova,0.997085,1,2000.000000,1,COMPLETED_SUCCESSFULLY,418.942138,106.799980,525.742119,417.945053,524.745034,4.913344,6,-1.000000,""
105,w0,python3action_videoprocessing_SampleVideo_30mb,0.000000,1,-1.000000,1,COMPLETED_SUCCESSFULLY,525.742134,0.000010,525.742144,525.742134,525.742144,52574214.400201,6,-1.000000,""
4_updated,w0,python3action_facedetection_SampleVideo_50mb_taurus,0.997085,1,2000.000000,1,COMPLETED_SUCCESSFULLY,401.676648,134.600046,536.276694,400.679563,535.279609,3.976816,13,-1.000000,""
4,w0,python3action_facedetection_SampleVideo_50mb,0.000000,1,-1.000000,1,COMPLETED_SUCCESSFULLY,536.276709,0.000010,536.276719,536.276709,536.276719,53627671.914283,13,-1.000000,""
134_updated,w0,python3action_chameleon_3000_yeti,0.997085,1,2000.000000,1,COMPLETED_SUCCESSFULLY,466.895095,93.000000,559.895095,465.898010,558.898010,6.009656,5,-1.000000,""
134,w0,python3action_chameleon_3000,0.000000,1,-1.000000,1,COMPLETED_SUCCESSFULLY,559.895110,0.000010,559.895120,559.895110,559.895120,55989512.002611,5,-1.000000,""
40_updated,w0,python3action_modeltraining_reviews100mb_neowise,0.997085,1,2000.000000,1,COMPLETED_SUCCESSFULLY,517.386593,43.399999,560.786592,516.389508,559.789507,12.898376,0,-1.000000,""
40,w0,python3action_modeltraining_reviews100mb,0.000000,1,-1.000000,1,COMPLETED_SUCCESSFULLY,560.786607,0.000010,560.786617,560.786607,560.786617,56078661.721691,0,-1.000000,""
50_updated,w0,python3action_modeltraining_reviews100mb_neowise,0.997085,1,2000.000000,1,COMPLETED_SUCCESSFULLY,518.786658,43.399999,562.186657,517.789573,561.189572,12.930636,1,-1.000000,""
50,w0,python3action_modeltraining_reviews100mb,0.000000,1,-1.000000,1,COMPLETED_SUCCESSFULLY,562.186672,0.000010,562.186682,562.186672,562.186682,56218668.200201,1,-1.000000,""
113_updated,w0,python3action_videoprocessing_SampleVideo_30mb_nova,0.997085,1,2000.000000,1,COMPLETED_SUCCESSFULLY,459.542158,106.799980,566.342138,458.545073,565.345053,5.293494,7,-1.000000,""
113,w0,python3action_videoprocessing_SampleVideo_30mb,0.000000,1,-1.000000,1,COMPLETED_SUCCESSFULLY,566.342153,0.000010,566.342163,566.342153,566.342163,56634216.347010,7,-1.000000,""
122_updated,w0,python3action_videoprocessing_SampleVideo_30mb_nova,0.997085,1,2000.000000,1,COMPLETED_SUCCESSFULLY,459.542248,106.799980,566.342228,458.545163,565.345143,5.293495,8,-1.000000,""
122,w0,python3action_videoprocessing_SampleVideo_30mb,0.000000,1,-1.000000,1,COMPLETED_SUCCESSFULLY,566.342243,0.000010,566.342253,566.342243,566.342253,56634225.347010,8,-1.000000,""
125_updated,w0,python3action_videoprocessing_SampleVideo_30mb_nova,0.997085,1,2000.000000,1,COMPLETED_SUCCESSFULLY,459.542338,106.799980,566.342318,458.545253,565.345233,5.293496,9,-1.000000,""
125,w0,python3action_videoprocessing_SampleVideo_30mb,0.000000,1,-1.000000,1,COMPLETED_SUCCESSFULLY,566.342333,0.000010,566.342343,566.342333,566.342343,56634234.341233,9,-1.000000,""
127_updated,w0,python3action_videoprocessing_SampleVideo_30mb_nova,0.997085,1,2000.000000,1,COMPLETED_SUCCESSFULLY,459.542398,106.799980,566.342378,458.545313,565.345293,5.293496,10,-1.000000,""
127,w0,python3action_videoprocessing_SampleVideo_30mb,0.000000,1,-1.000000,1,COMPLETED_SUCCESSFULLY,566.342393,0.000010,566.342403,566.342393,566.342403,56634240.347010,10,-1.000000,""
32_updated,w0,python3action_facedetection_SampleVideo_50mb_taurus,0.997085,1,2000.000000,1,COMPLETED_SUCCESSFULLY,434.276544,134.600046,568.876590,433.279459,567.879505,4.219014,2,-1.000000,""
32,w0,python3action_facedetection_SampleVideo_50mb,0.000000,1,-1.000000,1,COMPLETED_SUCCESSFULLY,568.876605,0.000010,568.876615,568.876605,568.876615,56887661.514283,2,-1.000000,""
49_updated,w0,python3action_linpack_6000_orion,0.997085,1,2000.000000,1,COMPLETED_SUCCESSFULLY,466.963394,106.000000,572.963394,465.966309,571.966309,5.395909,11,-1.000000,""
49,w0,python3action_linpack_6000,0.000000,1,-1.000000,1,COMPLETED_SUCCESSFULLY,572.963409,0.000010,572.963419,572.963409,572.963419,57296341.921953,11,-1.000000,""
148_updated,w0,python3action_pyaes_3000_troll,0.997085,1,2000.000000,1,COMPLETED_SUCCESSFULLY,516.370572,57.166677,573.537249,515.373487,572.540164,10.015278,4,-1.000000,""
148,w0,python3action_pyaes_3000,0.000000,1,-1.000000,1,COMPLETED_SUCCESSFULLY,573.537264,0.000010,573.537274,573.537264,573.537274,57353727.400201,4,-1.000000,""
71_updated,w0,python3action_facedetection_SampleVideo_50mb_taurus,0.997085,1,2000.000000,1,COMPLETED_SUCCESSFULLY,440.176690,134.600046,574.776736,439.179605,573.779651,4.262849,12,-1.000000,""
71,w0,python3action_facedetection_SampleVideo_50mb,0.000000,1,-1.000000,1,COMPLETED_SUCCESSFULLY,574.776751,0.000010,574.776761,574.776751,574.776761,57477676.114283,12,-1.000000,""
54_updated,w0,python3action_modeltraining_reviews100mb_neowise,0.997085,1,2000.000000,1,COMPLETED_SUCCESSFULLY,560.786637,43.399999,604.186636,559.789552,603.189551,13.898377,0,-1.000000,""
54,w0,python3action_modeltraining_reviews100mb,0.000000,1,-1.000000,1,COMPLETED_SUCCESSFULLY,604.186651,0.000010,604.186661,604.186651,604.186661,60418666.111101,0,-1.000000,""
75_updated,w0,python3action_modeltraining_reviews100mb_neowise,0.997085,1,2000.000000,1,COMPLETED_SUCCESSFULLY,562.186702,43.399999,605.586701,561.189617,604.589616,13.930637,1,-1.000000,""
75,w0,python3action_modeltraining_reviews100mb,0.000000,1,-1.000000,1,COMPLETED_SUCCESSFULLY,605.586716,0.000010,605.586726,605.586716,605.586726,60558672.600201,1,-1.000000,""
170_updated,w0,python3action_pyaes_3000_troll,0.997085,1,2000.000000,1,COMPLETED_SUCCESSFULLY,573.537294,57.166677,630.703971,572.540209,629.706886,11.015279,4,-1.000000,""
170,w0,python3action_pyaes_3000,0.000000,1,-1.000000,1,COMPLETED_SUCCESSFULLY,630.703986,0.000010,630.703996,630.703986,630.703996,63070399.600201,4,-1.000000,""
140_updated,w0,python3action_videoprocessing_SampleVideo_30mb_nova,0.997085,1,2000.000000,1,COMPLETED_SUCCESSFULLY,525.742164,106.799980,632.542144,524.745079,631.545059,5.913344,6,-1.000000,""
140,w0,python3action_videoprocessing_SampleVideo_30mb,0.000000,1,-1.000000,1,COMPLETED_SUCCESSFULLY,632.542159,0.000010,632.542169,632.542159,632.542169,63254216.947010,6,-1.000000,""
117_updated,w0,python3action_modeltraining_reviews100mb_neowise,0.997085,1,2000.000000,1,COMPLETED_SUCCESSFULLY,604.186681,43.399999,647.586680,603.189596,646.589595,14.898378,0,-1.000000,""
117,w0,python3action_modeltraining_reviews100mb,0.000000,1,-1.000000,1,COMPLETED_SUCCESSFULLY,647.586695,0.000010,647.586705,647.586695,647.586705,64758670.500510,0,-1.000000,""
121_updated,w0,python3action_modeltraining_reviews100mb_neowise,0.997085,1,2000.000000,1,COMPLETED_SUCCESSFULLY,605.586746,43.399999,648.986745,604.589661,647.989660,14.930638,1,-1.000000,""
121,w0,python3action_modeltraining_reviews100mb,0.000000,1,-1.000000,1,COMPLETED_SUCCESSFULLY,648.986760,0.000010,648.986770,648.986760,648.986770,64898677.000201,1,-1.000000,""
171_updated,w0,python3action_chameleon_3000_yeti,0.997085,1,2000.000000,1,COMPLETED_SUCCESSFULLY,559.895140,93.000000,652.895140,558.898055,651.898055,7.009657,5,-1.000000,""
171,w0,python3action_chameleon_3000,0.000000,1,-1.000000,1,COMPLETED_SUCCESSFULLY,652.895155,0.000010,652.895165,652.895155,652.895165,65289516.503213,5,-1.000000,""
80_updated,w0,python3action_facedetection_SampleVideo_50mb_taurus,0.997085,1,2000.000000,1,COMPLETED_SUCCESSFULLY,536.276739,134.600046,670.876785,535.279654,669.879700,4.976816,13,-1.000000,""
80,w0,python3action_facedetection_SampleVideo_50mb,0.000000,1,-1.000000,1,COMPLETED_SUCCESSFULLY,670.876800,0.000010,670.876810,670.876800,670.876810,67087681.027963,13,-1.000000,""
157_updated,w0,python3action_videoprocessing_SampleVideo_30mb_nova,0.997085,1,2000.000000,1,COMPLETED_SUCCESSFULLY,566.342183,106.799980,673.142164,565.345098,672.145079,6.293494,7,-1.000000,""
157,w0,python3action_videoprocessing_SampleVideo_30mb,0.000000,1,-1.000000,1,COMPLETED_SUCCESSFULLY,673.142179,0.000010,673.142189,673.142179,673.142189,67314218.900201,7,-1.000000,""
162_updated,w0,python3action_videoprocessing_SampleVideo_30mb_nova,0.997085,1,2000.000000,1,COMPLETED_SUCCESSFULLY,566.342273,106.799980,673.142254,565.345188,672.145169,6.293495,8,-1.000000,""
162,w0,python3action_videoprocessing_SampleVideo_30mb,0.000000,1,-1.000000,1,COMPLETED_SUCCESSFULLY,673.142269,0.000010,673.142279,673.142269,673.142279,67314227.900201,8,-1.000000,""
173_updated,w0,python3action_videoprocessing_SampleVideo_30mb_nova,0.997085,1,2000.000000,1,COMPLETED_SUCCESSFULLY,566.342363,106.799980,673.142344,565.345278,672.145259,6.293496,9,-1.000000,""
173,w0,python3action_videoprocessing_SampleVideo_30mb,0.000000,1,-1.000000,1,COMPLETED_SUCCESSFULLY,673.142359,0.000010,673.142369,673.142359,673.142369,67314236.900201,9,-1.000000,""
198_updated,w0,python3action_videoprocessing_SampleVideo_30mb_nova,0.997085,1,2000.000000,1,COMPLETED_SUCCESSFULLY,566.342423,106.799980,673.142404,565.345338,672.145319,6.293497,10,-1.000000,""
198,w0,python3action_videoprocessing_SampleVideo_30mb,0.000000,1,-1.000000,1,COMPLETED_SUCCESSFULLY,673.142419,0.000010,673.142429,673.142419,673.142429,67314242.900201,10,-1.000000,""
61_updated,w0,python3action_linpack_6000_orion,0.997085,1,2000.000000,1,COMPLETED_SUCCESSFULLY,572.963439,106.000000,678.963439,571.966354,677.966354,6.395909,11,-1.000000,""
61,w0,python3action_linpack_6000,0.000000,1,-1.000000,1,COMPLETED_SUCCESSFULLY,678.963454,0.000010,678.963464,678.963454,678.963464,67896346.422555,11,-1.000000,""
178_updated,w0,python3action_pyaes_3000_troll,0.997085,1,2000.000000,1,COMPLETED_SUCCESSFULLY,630.704016,57.166677,687.870693,629.706931,686.873608,12.015280,4,-1.000000,""
178,w0,python3action_pyaes_3000,0.000000,1,-1.000000,1,COMPLETED_SUCCESSFULLY,687.870708,0.000010,687.870718,687.870708,687.870718,68787071.800201,4,-1.000000,""
145_updated,w0,python3action_modeltraining_reviews100mb_neowise,0.997085,1,2000.000000,1,COMPLETED_SUCCESSFULLY,647.586725,43.399999,690.986724,646.589640,689.989639,15.898379,0,-1.000000,""
145,w0,python3action_modeltraining_reviews100mb,0.000000,1,-1.000000,1,COMPLETED_SUCCESSFULLY,690.986739,0.000010,690.986749,690.986739,690.986749,69098674.900201,0,-1.000000,""
149_updated,w0,python3action_modeltraining_reviews100mb_neowise,0.997085,1,2000.000000,1,COMPLETED_SUCCESSFULLY,648.986790,43.399999,692.386789,647.989705,691.389704,15.930639,1,-1.000000,""
149,w0,python3action_modeltraining_reviews100mb,0.000000,1,-1.000000,1,COMPLETED_SUCCESSFULLY,692.386804,0.000010,692.386814,692.386804,692.386814,69238681.400201,1,-1.000000,""
98_updated,w0,python3action_facedetection_SampleVideo_50mb_taurus,0.997085,1,2000.000000,1,COMPLETED_SUCCESSFULLY,568.876635,134.600046,703.476681,567.879550,702.479596,5.219015,2,-1.000000,""
98,w0,python3action_facedetection_SampleVideo_50mb,0.000000,1,-1.000000,1,COMPLETED_SUCCESSFULLY,703.476696,0.000010,703.476706,703.476696,703.476706,70347670.627963,2,-1.000000,""
142_updated,w0,python3action_facedetection_SampleVideo_50mb_taurus,0.997085,1,2000.000000,1,COMPLETED_SUCCESSFULLY,574.776781,134.600046,709.376827,573.779696,708.379742,5.262849,12,-1.000000,""
142,w0,python3action_facedetection_SampleVideo_50mb,0.000000,1,-1.000000,1,COMPLETED_SUCCESSFULLY,709.376842,0.000010,709.376852,709.376842,709.376852,70937685.227963,12,-1.000000,""
163_updated,w0,python3action_modeltraining_reviews100mb_neowise,0.997085,1,2000.000000,1,COMPLETED_SUCCESSFULLY,690.986769,43.399999,734.386768,689.989684,733.389683,16.898380,0,-1.000000,""
163,w0,python3action_modeltraining_reviews100mb,0.000000,1,-1.000000,1,COMPLETED_SUCCESSFULLY,734.386783,0.000010,734.386793,734.386783,734.386793,73438679.300201,0,-1.000000,""
187_updated,w0,python3action_modeltraining_reviews100mb_neowise,0.997085,1,2000.000000,1,COMPLETED_SUCCESSFULLY,692.386834,43.399999,735.786833,691.389749,734.789748,16.930640,1,-1.000000,""
187,w0,python3action_modeltraining_reviews100mb,0.000000,1,-1.000000,1,COMPLETED_SUCCESSFULLY,735.786848,0.000010,735.786858,735.786848,735.786858,73578685.800201,1,-1.000000,""
199_updated,w0,python3action_videoprocessing_SampleVideo_30mb_nova,0.997085,1,2000.000000,1,COMPLETED_SUCCESSFULLY,632.542189,106.799980,739.342170,631.545104,738.345085,6.913345,6,-1.000000,""
199,w0,python3action_videoprocessing_SampleVideo_30mb,0.000000,1,-1.000000,1,COMPLETED_SUCCESSFULLY,739.342185,0.000010,739.342195,739.342185,739.342195,73934219.500201,6,-1.000000,""
182_updated,w0,python3action_pyaes_3000_troll,0.997085,1,2000.000000,1,COMPLETED_SUCCESSFULLY,687.870738,57.166677,745.037415,686.873653,744.040330,13.015280,4,-1.000000,""
182,w0,python3action_pyaes_3000,0.000000,1,-1.000000,1,COMPLETED_SUCCESSFULLY,745.037430,0.000010,745.037440,745.037430,745.037440,74503744.000201,4,-1.000000,""
183_updated,w0,python3action_chameleon_3000_yeti,0.997085,1,2000.000000,1,COMPLETED_SUCCESSFULLY,652.895185,93.000000,745.895185,651.898100,744.898100,8.009657,5,-1.000000,""
183,w0,python3action_chameleon_3000,0.000000,1,-1.000000,1,COMPLETED_SUCCESSFULLY,745.895200,0.000010,745.895210,745.895200,745.895210,74589521.003816,5,-1.000000,""
84_updated,w0,python3action_linpack_6000_orion,0.997085,1,2000.000000,1,COMPLETED_SUCCESSFULLY,678.963484,106.000000,784.963484,677.966399,783.966399,7.395909,11,-1.000000,""
84,w0,python3action_linpack_6000,0.000000,1,-1.000000,1,COMPLETED_SUCCESSFULLY,784.963499,0.000010,784.963509,784.963499,784.963509,78496350.923158,11,-1.000000,""
160_updated,w0,python3action_facedetection_SampleVideo_50mb_taurus,0.997085,1,2000.000000,1,COMPLETED_SUCCESSFULLY,670.876830,134.600046,805.476876,669.879745,804.479791,5.976817,13,-1.000000,""
160,w0,python3action_facedetection_SampleVideo_50mb,0.000000,1,-1.000000,1,COMPLETED_SUCCESSFULLY,805.476891,0.000010,805.476901,805.476891,805.476901,80547690.141644,13,-1.000000,""
python3action_video_processing_job15_13,w0,python3action_video_processing_reduced_1.83,0.997085,1,2000.000000,1,COMPLETED_SUCCESSFULLY,805.476921,0.000000,805.476921,804.479836,804.479836,235875982521500.500000,13,-1.000000,""
1_updated,w0,python3action_floatoperation_200000000_nova,0.997085,1,2000.000000,1,COMPLETED_SUCCESSFULLY,673.142209,135.399990,808.542199,672.145124,807.545114,5.964145,7,-1.000000,""
1,w0,python3action_floatoperation_200000000,0.000000,1,-1.000000,1,COMPLETED_SUCCESSFULLY,808.542214,0.000010,808.542224,808.542214,808.542224,80854222.423907,7,-1.000000,""
3_updated,w0,python3action_floatoperation_200000000_nova,0.997085,1,2000.000000,1,COMPLETED_SUCCESSFULLY,673.142299,135.399990,808.542289,672.145214,807.545204,5.964145,8,-1.000000,""
3,w0,python3action_floatoperation_200000000,0.000000,1,-1.000000,1,COMPLETED_SUCCESSFULLY,808.542304,0.000010,808.542314,808.542304,808.542314,80854231.423907,8,-1.000000,""
35_updated,w0,python3action_floatoperation_200000000_nova,0.997085,1,2000.000000,1,COMPLETED_SUCCESSFULLY,673.142389,135.399990,808.542379,672.145304,807.545294,5.964146,9,-1.000000,""
35,w0,python3action_floatoperation_200000000,0.000000,1,-1.000000,1,COMPLETED_SUCCESSFULLY,808.542394,0.000010,808.542404,808.542394,808.542404,80854240.423907,9,-1.000000,""
66_updated,w0,python3action_floatoperation_200000000_nova,0.997085,1,2000.000000,1,COMPLETED_SUCCESSFULLY,673.142449,135.399990,808.542439,672.145364,807.545354,5.964146,10,-1.000000,""
66,w0,python3action_floatoperation_200000000,0.000000,1,-1.000000,1,COMPLETED_SUCCESSFULLY,808.542454,0.000010,808.542464,808.542454,808.542464,80854246.424107,10,-1.000000,""
169_updated,w0,python3action_facedetection_SampleVideo_50mb_taurus,0.997085,1,2000.000000,1,COMPLETED_SUCCESSFULLY,703.476726,134.600046,838.076772,702.479641,837.079687,6.219015,2,-1.000000,""
169,w0,python3action_facedetection_SampleVideo_50mb,0.000000,1,-1.000000,1,COMPLETED_SUCCESSFULLY,838.076787,0.000010,838.076797,838.076787,838.076797,83807679.741644,2,-1.000000,""
python3action_video_processing_job19_3,w0,python3action_video_processing_reduced_1.83,0.997085,1,2000.000000,1,COMPLETED_SUCCESSFULLY,838.076817,0.000000,838.076817,837.079732,837.079732,245434373112510.437500,2,-1.000000,""
197_updated,w0,python3action_chameleon_3000_yeti,0.997085,1,2000.000000,1,COMPLETED_SUCCESSFULLY,745.895230,93.000000,838.895230,744.898145,837.898145,9.009657,5,-1.000000,""
197,w0,python3action_chameleon_3000,0.000000,1,-1.000000,1,COMPLETED_SUCCESSFULLY,838.895245,0.000010,838.895255,838.895245,838.895255,83889525.504418,5,-1.000000,""
188_updated,w0,python3action_facedetection_SampleVideo_50mb_taurus,0.997085,1,2000.000000,1,COMPLETED_SUCCESSFULLY,709.376872,134.600046,843.976918,708.379787,842.979833,6.262850,12,-1.000000,""
188,w0,python3action_facedetection_SampleVideo_50mb,0.000000,1,-1.000000,1,COMPLETED_SUCCESSFULLY,843.976933,0.000010,843.976943,843.976933,843.976943,84397694.341644,12,-1.000000,""
python3action_video_processing_job29_12,w0,python3action_video_processing_reduced_1.83,0.997085,1,2000.000000,1,COMPLETED_SUCCESSFULLY,843.976963,0.000000,843.976963,842.979878,842.979878,247164314214530.625000,12,-1.000000,""
12_updated,w0,python3action_pyaes_4000_troll,0.997085,1,2000.000000,1,COMPLETED_SUCCESSFULLY,745.037460,102.333333,847.370793,744.040375,846.373708,8.270753,4,-1.000000,""
12,w0,python3action_pyaes_4000,0.000000,1,-1.000000,1,COMPLETED_SUCCESSFULLY,847.370808,0.000010,847.370818,847.370808,847.370818,84737081.834136,4,-1.000000,""
115_updated,w0,python3action_floatoperation_200000000_nova,0.997085,1,2000.000000,1,COMPLETED_SUCCESSFULLY,739.342215,135.399990,874.742205,738.345130,873.745120,6.453066,6,-1.000000,""
115,w0,python3action_floatoperation_200000000,0.000000,1,-1.000000,1,COMPLETED_SUCCESSFULLY,874.742220,0.000010,874.742230,874.742220,874.742230,87474223.023907,6,-1.000000,""
144_updated,w0,python3action_linpack_6000_orion,0.997085,1,2000.000000,1,COMPLETED_SUCCESSFULLY,784.963529,106.000000,890.963529,783.966444,889.966444,8.395910,11,-1.000000,""
144,w0,python3action_linpack_6000,0.000000,1,-1.000000,1,COMPLETED_SUCCESSFULLY,890.963544,0.000010,890.963554,890.963544,890.963554,89096355.423760,11,-1.000000,""
124_updated,w0,python3action_floatoperation_200000000_nova,0.997085,1,2000.000000,1,COMPLETED_SUCCESSFULLY,808.542244,135.399990,943.942234,807.545159,942.945149,6.964145,7,-1.000000,""
124,w0,python3action_floatoperation_200000000,0.000000,1,-1.000000,1,COMPLETED_SUCCESSFULLY,943.942249,0.000010,943.942259,943.942249,943.942259,94394225.947613,7,-1.000000,""
155_updated,w0,python3action_floatoperation_200000000_nova,0.997085,1,2000.000000,1,COMPLETED_SUCCESSFULLY,808.542334,135.399990,943.942324,807.545249,942.945239,6.964146,8,-1.000000,""
155,w0,python3action_floatoperation_200000000,0.000000,1,-1.000000,1,COMPLETED_SUCCESSFULLY,943.942339,0.000010,943.942349,943.942339,943.942349,94394234.947613,8,-1.000000,""
156_updated,w0,python3action_floatoperation_200000000_nova,0.997085,1,2000.000000,1,COMPLETED_SUCCESSFULLY,808.542424,135.399990,943.942414,807.545339,942.945329,6.964146,9,-1.000000,""
156,w0,python3action_floatoperation_200000000,0.000000,1,-1.000000,1,COMPLETED_SUCCESSFULLY,943.942429,0.000010,943.942439,943.942429,943.942439,94394243.947613,9,-1.000000,""
167_updated,w0,python3action_floatoperation_200000000_nova,0.997085,1,2000.000000,1,COMPLETED_SUCCESSFULLY,808.542484,135.399990,943.942474,807.545399,942.945389,6.964147,10,-1.000000,""
167,w0,python3action_floatoperation_200000000,0.000000,1,-1.000000,1,COMPLETED_SUCCESSFULLY,943.942489,0.000010,943.942499,943.942489,943.942499,94394249.948014,10,-1.000000,""
python3action_pyaes_job21_7,w0,python3action_pyaes,0.997085,1,2000.000000,1,COMPLETED_SUCCESSFULLY,943.942279,2.134958,946.077238,942.945194,945.080153,442.669152,7,-1.000000,""
python3action_pyaes_job60_8,w0,python3action_pyaes,0.997085,1,2000.000000,1,COMPLETED_SUCCESSFULLY,943.942369,2.134958,946.077328,942.945284,945.080243,442.669194,8,-1.000000,""
python3action_pyaes_job65_9,w0,python3action_pyaes,0.997085,1,2000.000000,1,COMPLETED_SUCCESSFULLY,943.942459,2.134958,946.077418,942.945374,945.080333,442.669236,9,-1.000000,""
python3action_pyaes_job68_10,w0,python3action_pyaes,0.997085,1,2000.000000,1,COMPLETED_SUCCESSFULLY,943.942519,2.134958,946.077478,942.945434,945.080393,442.669264,10,-1.000000,""
13_updated,w0,python3action_pyaes_4000_troll,0.997085,1,2000.000000,1,COMPLETED_SUCCESSFULLY,847.370838,102.333333,949.704172,846.373753,948.707087,9.270753,4,-1.000000,""
13,w0,python3action_pyaes_4000,0.000000,1,-1.000000,1,COMPLETED_SUCCESSFULLY,949.704187,0.000010,949.704197,949.704187,949.704197,94970419.700201,4,-1.000000,""
15_updated,w0,python3action_videoprocessing_SampleVideo_50mb_taurus,0.997085,1,2000.000000,1,COMPLETED_SUCCESSFULLY,805.476951,154.250029,959.726980,804.479866,958.729895,6.215428,13,-1.000000,""
15,w0,python3action_videoprocessing_SampleVideo_50mb,0.000000,1,-1.000000,1,COMPLETED_SUCCESSFULLY,959.726995,0.000010,959.727005,959.726995,959.727005,95972700.525821,13,-1.000000,""
19_updated,w0,python3action_videoprocessing_SampleVideo_50mb_taurus,0.997085,1,2000.000000,1,COMPLETED_SUCCESSFULLY,838.076847,154.250029,992.326876,837.079762,991.329791,6.426772,2,-1.000000,""
19,w0,python3action_videoprocessing_SampleVideo_50mb,0.000000,1,-1.000000,1,COMPLETED_SUCCESSFULLY,992.326891,0.000010,992.326901,992.326891,992.326901,99232690.125821,2,-1.000000,""
166_updated,w0,python3action_linpack_6000_orion,0.997085,1,2000.000000,1,COMPLETED_SUCCESSFULLY,890.963574,106.000000,996.963574,889.966489,995.966489,9.395910,11,-1.000000,""
166,w0,python3action_linpack_6000,0.000000,1,-1.000000,1,COMPLETED_SUCCESSFULLY,996.963589,0.000010,996.963599,996.963589,996.963599,99696359.924362,11,-1.000000,""
29_updated,w0,python3action_videoprocessing_SampleVideo_50mb_taurus,0.997085,1,2000.000000,1,COMPLETED_SUCCESSFULLY,843.976993,154.250029,998.227022,842.979908,997.229937,6.465023,12,-1.000000,""
29,w0,python3action_videoprocessing_SampleVideo_50mb,0.000000,1,-1.000000,1,COMPLETED_SUCCESSFULLY,998.227037,0.000010,998.227047,998.227037,998.227047,99822704.725821,12,-1.000000,""
192_updated,w0,python3action_floatoperation_200000000_nova,0.997085,1,2000.000000,1,COMPLETED_SUCCESSFULLY,874.742250,135.399990,1010.142240,873.745165,1009.145155,7.453067,6,-1.000000,""
192,w0,python3action_floatoperation_200000000,0.000000,1,-1.000000,1,COMPLETED_SUCCESSFULLY,1010.142255,0.000010,1010.142265,1010.142255,1010.142265,101014226.547613,6,-1.000000,""
python3action_pyaes_job88_6,w0,python3action_pyaes,0.997085,1,2000.000000,1,COMPLETED_SUCCESSFULLY,1010.142285,2.134958,1012.277244,1009.145200,1011.280159,473.676787,6,-1.000000,""
17_updated,w0,python3action_pyaes_4000_troll,0.997085,1,2000.000000,1,COMPLETED_SUCCESSFULLY,949.704217,102.333333,1052.037550,948.707132,1051.040465,10.270754,4,-1.000000,""
17,w0,python3action_pyaes_4000,0.000000,1,-1.000000,1,COMPLETED_SUCCESSFULLY,1052.037565,0.000010,1052.037575,1052.037565,1052.037575,105203757.534137,4,-1.000000,""
21_updated,w0,python3action_pyaes_4000_nova,0.997085,1,2000.000000,1,COMPLETED_SUCCESSFULLY,946.077253,139.600010,1085.677263,945.080168,1084.680178,7.769915,7,-1.000000,""
21,w0,python3action_pyaes_4000,0.000000,1,-1.000000,1,COMPLETED_SUCCESSFULLY,1085.677278,0.000010,1085.677288,1085.677278,1085.677288,108567728.800201,7,-1.000000,""
60_updated,w0,python3action_pyaes_4000_nova,0.997085,1,2000.000000,1,COMPLETED_SUCCESSFULLY,946.077343,139.600010,1085.677353,945.080258,1084.680268,7.769915,8,-1.000000,""
60,w0,python3action_pyaes_4000,0.000000,1,-1.000000,1,COMPLETED_SUCCESSFULLY,1085.677368,0.000010,1085.677378,1085.677368,1085.677378,108567737.800201,8,-1.000000,""
65_updated,w0,python3action_pyaes_4000_nova,0.997085,1,2000.000000,1,COMPLETED_SUCCESSFULLY,946.077433,139.600010,1085.677443,945.080348,1084.680358,7.769916,9,-1.000000,""
65,w0,python3action_pyaes_4000,0.000000,1,-1.000000,1,COMPLETED_SUCCESSFULLY,1085.677458,0.000010,1085.677468,1085.677458,1085.677468,108567746.800201,9,-1.000000,""
python3action_facedetection_job6_9,w0,python3action_facedetection_reduced_1.83,0.997085,1,2000.000000,1,COMPLETED_SUCCESSFULLY,1085.677488,0.000000,1085.677488,1084.680403,1084.680403,22188255172575.535156,9,-1.000000,""
68_updated,w0,python3action_pyaes_4000_nova,0.997085,1,2000.000000,1,COMPLETED_SUCCESSFULLY,946.077493,139.600010,1085.677503,945.080408,1084.680418,7.769916,10,-1.000000,""
68,w0,python3action_pyaes_4000,0.000000,1,-1.000000,1,COMPLETED_SUCCESSFULLY,1085.677533,0.000010,1085.677543,1085.677533,1085.677543,108567754.300402,10,-1.000000,""
python3action_facedetection_job8_10,w0,python3action_facedetection_reduced_1.83,0.997085,1,2000.000000,1,COMPLETED_SUCCESSFULLY,1085.677563,0.000000,1085.677563,1084.680478,1084.680478,22188256706818.878906,10,-1.000000,""
177_updated,w0,python3action_linpack_6000_orion,0.997085,1,2000.000000,1,COMPLETED_SUCCESSFULLY,996.963619,106.000000,1102.963619,995.966534,1101.966534,10.395911,11,-1.000000,""
177,w0,python3action_linpack_6000,0.000000,1,-1.000000,1,COMPLETED_SUCCESSFULLY,1102.963634,0.000010,1102.963644,1102.963634,1102.963644,110296364.424965,11,-1.000000,""
37_updated,w0,python3action_videoprocessing_SampleVideo_50mb_taurus,0.997085,1,2000.000000,1,COMPLETED_SUCCESSFULLY,959.727025,154.250029,1113.977054,958.729940,1112.979969,7.215428,13,-1.000000,""
37,w0,python3action_videoprocessing_SampleVideo_50mb,0.000000,1,-1.000000,1,COMPLETED_SUCCESSFULLY,1113.977069,0.000010,1113.977079,1113.977069,1113.977079,111397707.909598,13,-1.000000,""
47_updated,w0,python3action_videoprocessing_SampleVideo_50mb_taurus,0.997085,1,2000.000000,1,COMPLETED_SUCCESSFULLY,992.326921,154.250029,1146.576950,991.329836,1145.579865,7.426772,2,-1.000000,""
47,w0,python3action_videoprocessing_SampleVideo_50mb,0.000000,1,-1.000000,1,COMPLETED_SUCCESSFULLY,1146.576965,0.000010,1146.576975,1146.576965,1146.576975,114657697.509598,2,-1.000000,""
88_updated,w0,python3action_pyaes_4000_nova,0.997085,1,2000.000000,1,COMPLETED_SUCCESSFULLY,1012.277259,139.600010,1151.877269,1011.280174,1150.880184,8.244127,6,-1.000000,""
88,w0,python3action_pyaes_4000,0.000000,1,-1.000000,1,COMPLETED_SUCCESSFULLY,1151.877284,0.000010,1151.877294,1151.877284,1151.877294,115187729.400201,6,-1.000000,""
python3action_facedetection_job42_6,w0,python3action_facedetection_reduced_1.83,0.997085,1,2000.000000,1,COMPLETED_SUCCESSFULLY,1151.877314,0.000000,1151.877314,1150.880229,1150.880229,23542440818040.613281,6,-1.000000,""
67_updated,w0,python3action_videoprocessing_SampleVideo_50mb_taurus,0.997085,1,2000.000000,1,COMPLETED_SUCCESSFULLY,998.227067,154.250029,1152.477096,997.229982,1151.480011,7.465023,12,-1.000000,""
67,w0,python3action_videoprocessing_SampleVideo_50mb,0.000000,1,-1.000000,1,COMPLETED_SUCCESSFULLY,1152.477111,0.000010,1152.477121,1152.477111,1152.477121,115247712.109597,12,-1.000000,""
55_updated,w0,python3action_pyaes_4000_troll,0.997085,1,2000.000000,1,COMPLETED_SUCCESSFULLY,1052.037595,102.333333,1154.370929,1051.040510,1153.373844,11.270754,4,-1.000000,""
55,w0,python3action_pyaes_4000,0.000000,1,-1.000000,1,COMPLETED_SUCCESSFULLY,1154.370944,0.000010,1154.370954,1154.370944,1154.370954,115437095.400201,4,-1.000000,""
181_updated,w0,python3action_linpack_6000_orion,0.997085,1,2000.000000,1,COMPLETED_SUCCESSFULLY,1102.963664,106.000000,1208.963664,1101.966579,1207.966579,11.395911,11,-1.000000,""
181,w0,python3action_linpack_6000,0.000000,1,-1.000000,1,COMPLETED_SUCCESSFULLY,1208.963679,0.000010,1208.963689,1208.963679,1208.963689,120896368.925567,11,-1.000000,""
151_updated,w0,python3action_pyaes_4000_nova,0.997085,1,2000.000000,1,COMPLETED_SUCCESSFULLY,1085.677308,139.600010,1225.277318,1084.680223,1224.280233,8.769915,7,-1.000000,""
151,w0,python3action_pyaes_4000,0.000000,1,-1.000000,1,COMPLETED_SUCCESSFULLY,1225.277333,0.000010,1225.277343,1225.277333,1225.277343,122527734.300201,7,-1.000000,""
python3action_facedetection_job56_7,w0,python3action_facedetection_reduced_1.83,0.997085,1,2000.000000,1,COMPLETED_SUCCESSFULLY,1225.277363,0.000000,1225.277363,1224.280278,1224.280278,25043914443246.714844,7,-1.000000,""
154_updated,w0,python3action_pyaes_4000_nova,0.997085,1,2000.000000,1,COMPLETED_SUCCESSFULLY,1085.677398,139.600010,1225.277408,1084.680313,1224.280323,8.769916,8,-1.000000,""
154,w0,python3action_pyaes_4000,0.000000,1,-1.000000,1,COMPLETED_SUCCESSFULLY,1225.277423,0.000010,1225.277433,1225.277423,1225.277433,122527743.300201,8,-1.000000,""
python3action_facedetection_job76_8,w0,python3action_facedetection_reduced_1.83,0.997085,1,2000.000000,1,COMPLETED_SUCCESSFULLY,1225.277453,0.000000,1225.277453,1224.280368,1224.280368,25043916284289.441406,8,-1.000000,""
6_updated,w0,python3action_facedetection_SampleVideo_30mb_nova,0.997085,1,2000.000000,1,COMPLETED_SUCCESSFULLY,1085.677518,160.399990,1246.077508,1084.680433,1245.080423,7.762347,9,-1.000000,""
6,w0,python3action_facedetection_SampleVideo_30mb,0.000000,1,-1.000000,1,COMPLETED_SUCCESSFULLY,1246.077523,0.000010,1246.077533,1246.077523,1246.077533,124607753.323505,9,-1.000000,""
8_updated,w0,python3action_facedetection_SampleVideo_30mb_nova,0.997085,1,2000.000000,1,COMPLETED_SUCCESSFULLY,1085.677593,160.399990,1246.077583,1084.680508,1245.080498,7.762348,10,-1.000000,""
8,w0,python3action_facedetection_SampleVideo_30mb,0.000000,1,-1.000000,1,COMPLETED_SUCCESSFULLY,1246.077598,0.000010,1246.077608,1246.077598,1246.077608,124607760.824509,10,-1.000000,""
106_updated,w0,python3action_pyaes_4000_troll,0.997085,1,2000.000000,1,COMPLETED_SUCCESSFULLY,1154.370974,102.333333,1256.704307,1153.373889,1255.707222,12.270755,4,-1.000000,""
106,w0,python3action_pyaes_4000,0.000000,1,-1.000000,1,COMPLETED_SUCCESSFULLY,1256.704322,0.000010,1256.704332,1256.704322,1256.704332,125670433.234136,4,-1.000000,""
79_updated,w0,python3action_videoprocessing_SampleVideo_50mb_taurus,0.997085,1,2000.000000,1,COMPLETED_SUCCESSFULLY,1113.977099,154.250029,1268.227128,1112.980014,1267.230043,8.215428,13,-1.000000,""
79,w0,python3action_videoprocessing_SampleVideo_50mb,0.000000,1,-1.000000,1,COMPLETED_SUCCESSFULLY,1268.227143,0.000010,1268.227153,1268.227143,1268.227153,126822715.300201,13,-1.000000,""
81_updated,w0,python3action_videoprocessing_SampleVideo_50mb_taurus,0.997085,1,2000.000000,1,COMPLETED_SUCCESSFULLY,1146.576995,154.250029,1300.827024,1145.579910,1299.829939,8.426773,2,-1.000000,""
81,w0,python3action_videoprocessing_SampleVideo_50mb,0.000000,1,-1.000000,1,COMPLETED_SUCCESSFULLY,1300.827039,0.000010,1300.827049,1300.827039,1300.827049,130082704.900201,2,-1.000000,""
109_updated,w0,python3action_videoprocessing_SampleVideo_50mb_taurus,0.997085,1,2000.000000,1,COMPLETED_SUCCESSFULLY,1152.477141,154.250029,1306.727170,1151.480056,1305.730085,8.465023,12,-1.000000,""
109,w0,python3action_videoprocessing_SampleVideo_50mb,0.000000,1,-1.000000,1,COMPLETED_SUCCESSFULLY,1306.727185,0.000010,1306.727195,1306.727185,1306.727195,130672719.500201,12,-1.000000,""
42_updated,w0,python3action_facedetection_SampleVideo_30mb_nova,0.997085,1,2000.000000,1,COMPLETED_SUCCESSFULLY,1151.877344,160.399990,1312.277334,1150.880259,1311.280249,8.175064,6,-1.000000,""
42,w0,python3action_facedetection_SampleVideo_30mb,0.000000,1,-1.000000,1,COMPLETED_SUCCESSFULLY,1312.277349,0.000010,1312.277359,1312.277349,1312.277359,131227735.924308,6,-1.000000,""
186_updated,w0,python3action_linpack_6000_orion,0.997085,1,2000.000000,1,COMPLETED_SUCCESSFULLY,1208.963709,106.000000,1314.963709,1207.966624,1313.966624,12.395912,11,-1.000000,""
186,w0,python3action_linpack_6000,0.000000,1,-1.000000,1,COMPLETED_SUCCESSFULLY,1314.963724,0.000010,1314.963734,1314.963724,1314.963734,131496373.426169,11,-1.000000,""
129_updated,w0,python3action_pyaes_4000_troll,0.997085,1,2000.000000,1,COMPLETED_SUCCESSFULLY,1256.704352,102.333333,1359.037686,1255.707267,1358.040601,13.270755,4,-1.000000,""
129,w0,python3action_pyaes_4000,0.000000,1,-1.000000,1,COMPLETED_SUCCESSFULLY,1359.037701,0.000010,1359.037711,1359.037701,1359.037711,135903771.100201,4,-1.000000,""
56_updated,w0,python3action_facedetection_SampleVideo_30mb_nova,0.997085,1,2000.000000,1,COMPLETED_SUCCESSFULLY,1225.277393,160.399990,1385.677383,1224.280308,1384.680298,8.632671,7,-1.000000,""
56,w0,python3action_facedetection_SampleVideo_30mb,0.000000,1,-1.000000,1,COMPLETED_SUCCESSFULLY,1385.677398,0.000010,1385.677408,1385.677398,1385.677408,138567740.824308,7,-1.000000,""
76_updated,w0,python3action_facedetection_SampleVideo_30mb_nova,0.997085,1,2000.000000,1,COMPLETED_SUCCESSFULLY,1225.277483,160.399990,1385.677473,1224.280398,1384.680388,8.632671,8,-1.000000,""
76,w0,python3action_facedetection_SampleVideo_30mb,0.000000,1,-1.000000,1,COMPLETED_SUCCESSFULLY,1385.677488,0.000010,1385.677498,1385.677488,1385.677498,138567749.824308,8,-1.000000,""
119_updated,w0,python3action_facedetection_SampleVideo_30mb_nova,0.997085,1,2000.000000,1,COMPLETED_SUCCESSFULLY,1246.077553,160.399990,1406.477543,1245.080468,1405.480458,8.762348,9,-1.000000,""
119,w0,python3action_facedetection_SampleVideo_30mb,0.000000,1,-1.000000,1,COMPLETED_SUCCESSFULLY,1406.477558,0.000010,1406.477568,1406.477558,1406.477568,140647756.847211,9,-1.000000,""
132_updated,w0,python3action_facedetection_SampleVideo_30mb_nova,0.997085,1,2000.000000,1,COMPLETED_SUCCESSFULLY,1246.077628,160.399990,1406.477618,1245.080543,1405.480533,8.762348,10,-1.000000,""
132,w0,python3action_facedetection_SampleVideo_30mb,0.000000,1,-1.000000,1,COMPLETED_SUCCESSFULLY,1406.477633,0.000010,1406.477643,1406.477633,1406.477643,140647764.348215,10,-1.000000,""
189_updated,w0,python3action_linpack_6000_orion,0.997085,1,2000.000000,1,COMPLETED_SUCCESSFULLY,1314.963754,106.000000,1420.963754,1313.966669,1419.966669,13.395912,11,-1.000000,""
189,w0,python3action_linpack_6000,0.000000,1,-1.000000,1,COMPLETED_SUCCESSFULLY,1420.963769,0.000010,1420.963779,1420.963769,1420.963779,142096377.926772,11,-1.000000,""
146_updated,w0,python3action_videoprocessing_SampleVideo_50mb_taurus,0.997085,1,2000.000000,1,COMPLETED_SUCCESSFULLY,1268.227173,154.250029,1422.477202,1267.230088,1421.480117,9.215429,13,-1.000000,""
146,w0,python3action_videoprocessing_SampleVideo_50mb,0.000000,1,-1.000000,1,COMPLETED_SUCCESSFULLY,1422.477217,0.000010,1422.477227,1422.477217,1422.477227,142247722.700201,13,-1.000000,""
158_updated,w0,python3action_videoprocessing_SampleVideo_50mb_taurus,0.997085,1,2000.000000,1,COMPLETED_SUCCESSFULLY,1300.827069,154.250029,1455.077098,1299.829984,1454.080013,9.426773,2,-1.000000,""
158,w0,python3action_videoprocessing_SampleVideo_50mb,0.000000,1,-1.000000,1,COMPLETED_SUCCESSFULLY,1455.077113,0.000010,1455.077123,1455.077113,1455.077123,145507712.300201,2,-1.000000,""
194_updated,w0,python3action_videoprocessing_SampleVideo_50mb_taurus,0.997085,1,2000.000000,1,COMPLETED_SUCCESSFULLY,1306.727215,154.250029,1460.977244,1305.730130,1459.980159,9.465024,12,-1.000000,""
194,w0,python3action_videoprocessing_SampleVideo_50mb,0.000000,1,-1.000000,1,COMPLETED_SUCCESSFULLY,1460.977259,0.000010,1460.977269,1460.977259,1460.977269,146097726.900201,12,-1.000000,""
165_updated,w0,python3action_pyaes_4000_troll,0.997085,1,2000.000000,1,COMPLETED_SUCCESSFULLY,1359.037731,102.333333,1461.371064,1358.040646,1460.373979,14.270755,4,-1.000000,""
165,w0,python3action_pyaes_4000,0.000000,1,-1.000000,1,COMPLETED_SUCCESSFULLY,1461.371079,0.000010,1461.371089,1461.371079,1461.371089,146137108.934136,4,-1.000000,""
153_updated,w0,python3action_facedetection_SampleVideo_30mb_nova,0.997085,1,2000.000000,1,COMPLETED_SUCCESSFULLY,1312.277379,160.399990,1472.677369,1311.280294,1471.680284,9.175065,6,-1.000000,""
153,w0,python3action_facedetection_SampleVideo_30mb,0.000000,1,-1.000000,1,COMPLETED_SUCCESSFULLY,1472.677384,0.000010,1472.677394,1472.677384,1472.677394,147267739.448014,6,-1.000000,""
193_updated,w0,python3action_facedetection_SampleVideo_30mb_nova,0.997085,1,2000.000000,1,COMPLETED_SUCCESSFULLY,1385.677428,160.399990,1546.077418,1384.680343,1545.080333,9.632671,7,-1.000000,""
193,w0,python3action_facedetection_SampleVideo_30mb,0.000000,1,-1.000000,1,COMPLETED_SUCCESSFULLY,1546.077433,0.000010,1546.077443,1546.077433,1546.077443,154607744.348014,7,-1.000000,""
195_updated,w0,python3action_facedetection_SampleVideo_30mb_nova,0.997085,1,2000.000000,1,COMPLETED_SUCCESSFULLY,1385.677518,160.399990,1546.077508,1384.680433,1545.080423,9.632672,8,-1.000000,""
195,w0,python3action_facedetection_SampleVideo_30mb,0.000000,1,-1.000000,1,COMPLETED_SUCCESSFULLY,1546.077523,0.000010,1546.077533,1546.077523,1546.077533,154607753.348014,8,-1.000000,""
