job_id,workload_name,profile,submission_time,requested_number_of_resources,requested_time,success,final_state,starting_time,execution_time,finish_time,waiting_time,turnaround_time,stretch,allocated_resources,consumed_energy,metadata
python3action_linpack_job7_0,w0,python3action_linpack,0.997085,1,2000.000000,1,COMPLETED_SUCCESSFULLY,1.002100,2.439945,3.442045,0.005015,2.444960,1.002055,2,-1.000000,""
python3action_linpack_job71_1,w0,python3action_linpack,0.997085,1,2000.000000,1,COMPLETED_SUCCESSFULLY,1.002115,2.439945,3.442060,0.005030,2.444975,1.002062,3,-1.000000,""
python3action_linpack_job92_2,w0,python3action_linpack,0.997085,1,2000.000000,1,COMPLETED_SUCCESSFULLY,1.002130,2.439945,3.442075,0.005045,2.444990,1.002068,4,-1.000000,""
python3action_linpack_job102_3,w0,python3action_linpack,0.997085,1,2000.000000,1,COMPLETED_SUCCESSFULLY,1.002145,2.439945,3.442090,0.005060,2.445005,1.002074,5,-1.000000,""
python3action_linpack_job105_4,w0,python3action_linpack,0.997085,1,2000.000000,1,COMPLETED_SUCCESSFULLY,1.002160,2.439945,3.442105,0.005075,2.445020,1.002080,6,-1.000000,""
python3action_linpack_job113_5,w0,python3action_linpack,0.997085,1,2000.000000,1,COMPLETED_SUCCESSFULLY,1.002175,2.439945,3.442120,0.005090,2.445035,1.002086,7,-1.000000,""
python3action_linpack_job123_16,w0,python3action_linpack,0.997085,1,2000.000000,1,COMPLETED_SUCCESSFULLY,1.002340,2.439945,3.442285,0.005255,2.445200,1.002154,25,-1.000000,""
python3action_linpack_job139_17,w0,python3action_linpack,0.997085,1,2000.000000,1,COMPLETED_SUCCESSFULLY,1.002355,2.439945,3.442300,0.005270,2.445215,1.002160,26,-1.000000,""
python3action_linpack_job152_18,w0,python3action_linpack,0.997085,1,2000.000000,1,COMPLETED_SUCCESSFULLY,1.002370,2.439945,3.442315,0.005285,2.445230,1.002166,27,-1.000000,""
python3action_linpack_job157_19,w0,python3action_linpack,0.997085,1,2000.000000,1,COMPLETED_SUCCESSFULLY,1.002385,2.439945,3.442330,0.005300,2.445245,1.002172,28,-1.000000,""
python3action_linpack_job180_20,w0,python3action_linpack,0.997085,1,2000.000000,1,COMPLETED_SUCCESSFULLY,1.002400,2.439945,3.442345,0.005315,2.445260,1.002178,29,-1.000000,""
python3action_linpack_job47_6,w0,python3action_linpack,0.997085,1,2000.000000,1,COMPLETED_SUCCESSFULLY,1.002190,5.760927,6.763117,0.005105,5.766032,1.000886,8,-1.000000,""
python3action_linpack_job59_7,w0,python3action_linpack,0.997085,1,2000.000000,1,COMPLETED_SUCCESSFULLY,1.002205,5.760927,6.763132,0.005120,5.766047,1.000889,9,-1.000000,""
python3action_image_processing_job66_14,w0,python3action_image_processing,0.997085,1,2000.000000,1,COMPLETED_SUCCESSFULLY,1.002310,12.398880,13.401190,0.005225,12.404105,1.000421,19,-1.000000,""
python3action_image_processing_job93_15,w0,python3action_image_processing,0.997085,1,2000.000000,1,COMPLETED_SUCCESSFULLY,1.002325,12.398880,13.401205,0.005240,12.404120,1.000423,20,-1.000000,""
7_updated,w0,python3action_linpack_5000_nova,0.997085,1,2000.000000,1,COMPLETED_SUCCESSFULLY,3.442060,34.600010,38.042070,2.444975,37.044985,1.070664,2,-1.000000,""
7,w0,python3action_linpack_5000,0.000000,1,-1.000000,1,COMPLETED_SUCCESSFULLY,38.042085,0.000010,38.042095,38.042085,38.042095,3804209.506879,2,-1.000000,""
71_updated,w0,python3action_linpack_5000_nova,0.997085,1,2000.000000,1,COMPLETED_SUCCESSFULLY,3.442090,34.600010,38.042100,2.445005,37.045015,1.070665,3,-1.000000,""
92_updated,w0,python3action_linpack_5000_nova,0.997085,1,2000.000000,1,COMPLETED_SUCCESSFULLY,3.442120,34.600010,38.042130,2.445035,37.045045,1.070666,4,-1.000000,""
71,w0,python3action_linpack_5000,0.000000,1,-1.000000,1,COMPLETED_SUCCESSFULLY,38.042130,0.000010,38.042140,38.042130,38.042140,3804214.007481,3,-1.000000,""
102_updated,w0,python3action_linpack_5000_nova,0.997085,1,2000.000000,1,COMPLETED_SUCCESSFULLY,3.442135,34.600010,38.042145,2.445050,37.045060,1.070666,5,-1.000000,""
92,w0,python3action_linpack_5000,0.000000,1,-1.000000,1,COMPLETED_SUCCESSFULLY,38.042160,0.000010,38.042170,38.042160,38.042170,3804217.007883,4,-1.000000,""
105_updated,w0,python3action_linpack_5000_nova,0.997085,1,2000.000000,1,COMPLETED_SUCCESSFULLY,3.442165,34.600010,38.042175,2.445080,37.045090,1.070667,6,-1.000000,""
113_updated,w0,python3action_linpack_5000_nova,0.997085,1,2000.000000,1,COMPLETED_SUCCESSFULLY,3.442180,34.600010,38.042190,2.445095,37.045105,1.070667,7,-1.000000,""
102,w0,python3action_linpack_5000,0.000000,1,-1.000000,1,COMPLETED_SUCCESSFULLY,38.042190,0.000010,38.042200,38.042190,38.042200,3804220.008285,5,-1.000000,""
105,w0,python3action_linpack_5000,0.000000,1,-1.000000,1,COMPLETED_SUCCESSFULLY,38.042235,0.000010,38.042245,38.042235,38.042245,3804224.508887,6,-1.000000,""
113,w0,python3action_linpack_5000,0.000000,1,-1.000000,1,COMPLETED_SUCCESSFULLY,38.042250,0.000010,38.042260,38.042250,38.042260,3804226.009088,7,-1.000000,""
123_updated,w0,python3action_linpack_5000_nova,0.997085,1,2000.000000,1,COMPLETED_SUCCESSFULLY,3.442300,34.600010,38.042310,2.445215,37.045225,1.070671,25,-1.000000,""
139_updated,w0,python3action_linpack_5000_nova,0.997085,1,2000.000000,1,COMPLETED_SUCCESSFULLY,3.442330,34.600010,38.042340,2.445245,37.045255,1.070672,26,-1.000000,""
123,w0,python3action_linpack_5000,0.000000,1,-1.000000,1,COMPLETED_SUCCESSFULLY,38.042340,0.000010,38.042350,38.042340,38.042350,3804235.010293,25,-1.000000,""
152_updated,w0,python3action_linpack_5000_nova,0.997085,1,2000.000000,1,COMPLETED_SUCCESSFULLY,3.442360,34.600010,38.042370,2.445275,37.045285,1.070673,27,-1.000000,""
139,w0,python3action_linpack_5000,0.000000,1,-1.000000,1,COMPLETED_SUCCESSFULLY,38.042370,0.000010,38.042380,38.042370,38.042380,3804238.010694,26,-1.000000,""
157_updated,w0,python3action_linpack_5000_nova,0.997085,1,2000.000000,1,COMPLETED_SUCCESSFULLY,3.442375,34.600010,38.042385,2.445290,37.045300,1.070673,28,-1.000000,""
180_updated,w0,python3action_linpack_5000_nova,0.997085,1,2000.000000,1,COMPLETED_SUCCESSFULLY,3.442405,34.600010,38.042415,2.445320,37.045330,1.070674,29,-1.000000,""
152,w0,python3action_linpack_5000,0.000000,1,-1.000000,1,COMPLETED_SUCCESSFULLY,38.042415,0.000010,38.042425,38.042415,38.042425,3804242.511297,27,-1.000000,""
157,w0,python3action_linpack_5000,0.000000,1,-1.000000,1,COMPLETED_SUCCESSFULLY,38.042445,0.000010,38.042455,38.042445,38.042455,3804245.511698,28,-1.000000,""
180,w0,python3action_linpack_5000,0.000000,1,-1.000000,1,COMPLETED_SUCCESSFULLY,38.042475,0.000010,38.042485,38.042475,38.042485,3804248.512100,29,-1.000000,""
python3action_modeltraining_job0_4,w0,python3action_modeltraining,0.997085,1,2000.000000,1,COMPLETED_SUCCESSFULLY,38.042265,30.499683,68.541948,37.045180,67.544863,2.214609,5,-1.000000,""
python3action_modeltraining_job28_5,w0,python3action_modeltraining,0.997085,1,2000.000000,1,COMPLETED_SUCCESSFULLY,38.042295,30.499683,68.541978,37.045210,67.544893,2.214610,6,-1.000000,""
python3action_modeltraining_job31_6,w0,python3action_modeltraining,0.997085,1,2000.000000,1,COMPLETED_SUCCESSFULLY,38.042310,30.499683,68.541993,37.045225,67.544908,2.214610,7,-1.000000,""
python3action_modeltraining_job38_17,w0,python3action_modeltraining,0.997085,1,2000.000000,1,COMPLETED_SUCCESSFULLY,38.042385,30.499683,68.542068,37.045300,67.544983,2.214613,25,-1.000000,""
python3action_modeltraining_job49_18,w0,python3action_modeltraining,0.997085,1,2000.000000,1,COMPLETED_SUCCESSFULLY,38.042430,30.499683,68.542113,37.045345,67.545028,2.214614,26,-1.000000,""
python3action_modeltraining_job51_19,w0,python3action_modeltraining,0.997085,1,2000.000000,1,COMPLETED_SUCCESSFULLY,38.042490,30.499683,68.542173,37.045405,67.545088,2.214616,27,-1.000000,""
python3action_modeltraining_job60_20,w0,python3action_modeltraining,0.997085,1,2000.000000,1,COMPLETED_SUCCESSFULLY,38.042505,30.499683,68.542188,37.045420,67.545103,2.214617,28,-1.000000,""
python3action_modeltraining_job78_21,w0,python3action_modeltraining,0.997085,1,2000.000000,1,COMPLETED_SUCCESSFULLY,38.042535,30.499683,68.542218,37.045450,67.545133,2.214618,29,-1.000000,""
185_updated,w0,python3action_linpack_5000_nova,0.997085,1,2000.000000,1,COMPLETED_SUCCESSFULLY,38.042115,34.600010,72.642125,37.045030,71.645040,2.070665,2,-1.000000,""
185,w0,python3action_linpack_5000,0.000000,1,-1.000000,1,COMPLETED_SUCCESSFULLY,72.642140,0.000010,72.642150,72.642140,72.642150,7264215.000201,2,-1.000000,""
188_updated,w0,python3action_linpack_5000_nova,0.997085,1,2000.000000,1,COMPLETED_SUCCESSFULLY,38.042175,34.600010,72.642185,37.045090,71.645100,2.070667,3,-1.000000,""
188,w0,python3action_linpack_5000,0.000000,1,-1.000000,1,COMPLETED_SUCCESSFULLY,72.642200,0.000010,72.642210,72.642200,72.642210,7264221.000201,3,-1.000000,""
189_updated,w0,python3action_linpack_5000_nova,0.997085,1,2000.000000,1,COMPLETED_SUCCESSFULLY,38.042220,34.600010,72.642230,37.045135,71.645145,2.070668,4,-1.000000,""
189,w0,python3action_linpack_5000,0.000000,1,-1.000000,1,COMPLETED_SUCCESSFULLY,72.642260,0.000010,72.642270,72.642260,72.642270,7264227.000201,4,-1.000000,""
python3action_image_processing_job4_8,w0,python3action_image_processing,0.997085,1,2000.000000,1,COMPLETED_SUCCESSFULLY,1.002220,72.012455,73.014675,0.005135,72.017590,1.000071,10,-1.000000,""
python3action_image_processing_job11_9,w0,python3action_image_processing,0.997085,1,2000.000000,1,COMPLETED_SUCCESSFULLY,1.002235,72.012455,73.014690,0.005150,72.017605,1.000072,11,-1.000000,""
python3action_image_processing_job19_10,w0,python3action_image_processing,0.997085,1,2000.000000,1,COMPLETED_SUCCESSFULLY,1.002250,72.012455,73.014705,0.005165,72.017620,1.000072,13,-1.000000,""
python3action_image_processing_job57_11,w0,python3action_image_processing,0.997085,1,2000.000000,1,COMPLETED_SUCCESSFULLY,1.002265,72.012455,73.014720,0.005180,72.017635,1.000072,14,-1.000000,""
python3action_image_processing_job73_12,w0,python3action_image_processing,0.997085,1,2000.000000,1,COMPLETED_SUCCESSFULLY,1.002280,72.012455,73.014735,0.005195,72.017650,1.000072,15,-1.000000,""
python3action_image_processing_job86_13,w0,python3action_image_processing,0.997085,1,2000.000000,1,COMPLETED_SUCCESSFULLY,1.002295,72.012455,73.014750,0.005210,72.017665,1.000072,16,-1.000000,""
66_updated,w0,python3action_imageprocessing_SampleImage_60mb_troll,0.997085,1,2000.000000,1,COMPLETED_SUCCESSFULLY,13.401205,62.000000,75.401205,12.404120,74.404120,1.200066,19,-1.000000,""
66,w0,python3action_imageprocessing_SampleImage_60mb,0.000000,1,-1.000000,1,COMPLETED_SUCCESSFULLY,75.401220,0.000010,75.401230,75.401220,75.401230,7540123.011992,19,-1.000000,""
93_updated,w0,python3action_imageprocessing_SampleImage_60mb_troll,0.997085,1,2000.000000,1,COMPLETED_SUCCESSFULLY,13.401235,62.000000,75.401235,12.404150,74.404150,1.200067,20,-1.000000,""
93,w0,python3action_imageprocessing_SampleImage_60mb,0.000000,1,-1.000000,1,COMPLETED_SUCCESSFULLY,75.401265,0.000010,75.401275,75.401265,75.401275,7540127.512594,20,-1.000000,""
python3action_modeltraining_job80_1,w0,python3action_modeltraining,0.997085,1,2000.000000,1,COMPLETED_SUCCESSFULLY,72.642170,30.499683,103.141853,71.645085,102.144768,3.349044,2,-1.000000,""
python3action_modeltraining_job127_2,w0,python3action_modeltraining,0.997085,1,2000.000000,1,COMPLETED_SUCCESSFULLY,72.642230,30.499683,103.141912,71.645145,102.144827,3.349046,3,-1.000000,""
python3action_modeltraining_job161_3,w0,python3action_modeltraining,0.997085,1,2000.000000,1,COMPLETED_SUCCESSFULLY,72.642290,30.499683,103.141973,71.645205,102.144888,3.349048,4,-1.000000,""
4_updated,w0,python3action_imageprocessing_SampleImage_40mb_taurus,0.997085,1,2000.000000,1,COMPLETED_SUCCESSFULLY,73.014690,32.600046,105.614736,72.017605,104.617651,3.209126,10,-1.000000,""
4,w0,python3action_imageprocessing_SampleImage_40mb,0.000000,1,-1.000000,1,COMPLETED_SUCCESSFULLY,105.614751,0.000010,105.614761,105.614751,105.614761,10561476.146368,10,-1.000000,""
11_updated,w0,python3action_imageprocessing_SampleImage_40mb_taurus,0.997085,1,2000.000000,1,COMPLETED_SUCCESSFULLY,73.014720,32.600046,105.614766,72.017635,104.617681,3.209127,11,-1.000000,""
19_updated,w0,python3action_imageprocessing_SampleImage_40mb_taurus,0.997085,1,2000.000000,1,COMPLETED_SUCCESSFULLY,73.014735,32.600046,105.614781,72.017650,104.617696,3.209127,13,-1.000000,""
11,w0,python3action_imageprocessing_SampleImage_40mb,0.000000,1,-1.000000,1,COMPLETED_SUCCESSFULLY,105.614796,0.000010,105.614806,105.614796,105.614806,10561480.646970,11,-1.000000,""
57_updated,w0,python3action_imageprocessing_SampleImage_40mb_taurus,0.997085,1,2000.000000,1,COMPLETED_SUCCESSFULLY,73.014765,32.600046,105.614811,72.017680,104.617726,3.209128,14,-1.000000,""
73_updated,w0,python3action_imageprocessing_SampleImage_40mb_taurus,0.997085,1,2000.000000,1,COMPLETED_SUCCESSFULLY,73.014780,32.600046,105.614826,72.017695,104.617741,3.209129,15,-1.000000,""
19,w0,python3action_imageprocessing_SampleImage_40mb,0.000000,1,-1.000000,1,COMPLETED_SUCCESSFULLY,105.614826,0.000010,105.614836,105.614826,105.614836,10561483.647372,13,-1.000000,""
86_updated,w0,python3action_imageprocessing_SampleImage_40mb_taurus,0.997085,1,2000.000000,1,COMPLETED_SUCCESSFULLY,73.014795,32.600046,105.614841,72.017710,104.617756,3.209129,16,-1.000000,""
57,w0,python3action_imageprocessing_SampleImage_40mb,0.000000,1,-1.000000,1,COMPLETED_SUCCESSFULLY,105.614856,0.000010,105.614866,105.614856,105.614866,10561486.647773,14,-1.000000,""
73,w0,python3action_imageprocessing_SampleImage_40mb,0.000000,1,-1.000000,1,COMPLETED_SUCCESSFULLY,105.614886,0.000010,105.614896,105.614886,105.614896,10561489.648175,15,-1.000000,""
86,w0,python3action_imageprocessing_SampleImage_40mb,0.000000,1,-1.000000,1,COMPLETED_SUCCESSFULLY,105.614916,0.000010,105.614926,105.614916,105.614926,10561492.648576,16,-1.000000,""
python3action_chameleon_job39_13,w0,python3action_chameleon,0.997085,1,2000.000000,1,COMPLETED_SUCCESSFULLY,105.614961,5.040826,110.655787,104.617876,109.658702,21.754115,15,-1.000000,""
python3action_chameleon_job41_14,w0,python3action_chameleon,0.997085,1,2000.000000,1,COMPLETED_SUCCESSFULLY,105.614976,5.040826,110.655802,104.617891,109.658717,21.754118,16,-1.000000,""
0_updated,w0,python3action_modeltraining_reviews50mb_nova,0.997085,1,2000.000000,1,COMPLETED_SUCCESSFULLY,68.541963,42.399990,110.941953,67.544878,109.944868,2.593040,5,-1.000000,""
0,w0,python3action_modeltraining_reviews50mb,0.000000,1,-1.000000,1,COMPLETED_SUCCESSFULLY,110.941968,0.000010,110.941978,110.941968,110.941978,11094197.823505,5,-1.000000,""
28_updated,w0,python3action_modeltraining_reviews50mb_nova,0.997085,1,2000.000000,1,COMPLETED_SUCCESSFULLY,68.541993,42.399990,110.941983,67.544908,109.944898,2.593041,6,-1.000000,""
28,w0,python3action_modeltraining_reviews50mb,0.000000,1,-1.000000,1,COMPLETED_SUCCESSFULLY,110.942013,0.000010,110.942023,110.942013,110.942023,11094202.300402,6,-1.000000,""
31_updated,w0,python3action_modeltraining_reviews50mb_nova,0.997085,1,2000.000000,1,COMPLETED_SUCCESSFULLY,68.542023,42.399990,110.942013,67.544938,109.944928,2.593041,7,-1.000000,""
31,w0,python3action_modeltraining_reviews50mb,0.000000,1,-1.000000,1,COMPLETED_SUCCESSFULLY,110.942058,0.000010,110.942068,110.942058,110.942068,11094206.801004,7,-1.000000,""
38_updated,w0,python3action_modeltraining_reviews50mb_nova,0.997085,1,2000.000000,1,COMPLETED_SUCCESSFULLY,68.542083,42.399990,110.942073,67.544998,109.944988,2.593043,25,-1.000000,""
38,w0,python3action_modeltraining_reviews50mb,0.000000,1,-1.000000,1,COMPLETED_SUCCESSFULLY,110.942118,0.000010,110.942128,110.942118,110.942128,11094212.801807,25,-1.000000,""
49_updated,w0,python3action_modeltraining_reviews50mb_nova,0.997085,1,2000.000000,1,COMPLETED_SUCCESSFULLY,68.542128,42.399990,110.942118,67.545043,109.945033,2.593044,26,-1.000000,""
49,w0,python3action_modeltraining_reviews50mb,0.000000,1,-1.000000,1,COMPLETED_SUCCESSFULLY,110.942163,0.000010,110.942173,110.942163,110.942173,11094217.302410,26,-1.000000,""
51_updated,w0,python3action_modeltraining_reviews50mb_nova,0.997085,1,2000.000000,1,COMPLETED_SUCCESSFULLY,68.542188,42.399990,110.942178,67.545103,109.945093,2.593045,27,-1.000000,""
60_updated,w0,python3action_modeltraining_reviews50mb_nova,0.997085,1,2000.000000,1,COMPLETED_SUCCESSFULLY,68.542218,42.399990,110.942208,67.545133,109.945123,2.593046,28,-1.000000,""
51,w0,python3action_modeltraining_reviews50mb,0.000000,1,-1.000000,1,COMPLETED_SUCCESSFULLY,110.942208,0.000010,110.942218,110.942208,110.942218,11094221.787275,27,-1.000000,""
60,w0,python3action_modeltraining_reviews50mb,0.000000,1,-1.000000,1,COMPLETED_SUCCESSFULLY,110.942238,0.000010,110.942248,110.942238,110.942248,11094224.800201,28,-1.000000,""
78_updated,w0,python3action_modeltraining_reviews50mb_nova,0.997085,1,2000.000000,1,COMPLETED_SUCCESSFULLY,68.542248,42.399990,110.942238,67.545163,109.945153,2.593047,29,-1.000000,""
78,w0,python3action_modeltraining_reviews50mb,0.000000,1,-1.000000,1,COMPLETED_SUCCESSFULLY,110.942298,0.000010,110.942308,110.942298,110.942308,11094230.801004,29,-1.000000,""
47_updated,w0,python3action_linpack_6000_orion,0.997085,1,2000.000000,1,COMPLETED_SUCCESSFULLY,6.763132,106.000000,112.763132,5.766047,111.766047,1.054397,8,-1.000000,""
47,w0,python3action_linpack_6000,0.000000,1,-1.000000,1,COMPLETED_SUCCESSFULLY,112.763147,0.000010,112.763157,112.763147,112.763157,11276315.724677,8,-1.000000,""
59_updated,w0,python3action_linpack_6000_orion,0.997085,1,2000.000000,1,COMPLETED_SUCCESSFULLY,6.763162,106.000000,112.763162,5.766077,111.766077,1.054397,9,-1.000000,""
59,w0,python3action_linpack_6000,0.000000,1,-1.000000,1,COMPLETED_SUCCESSFULLY,112.763192,0.000010,112.763202,112.763192,112.763202,11276320.225279,9,-1.000000,""
python3action_floatoperation_job9_5,w0,python3action_floatoperation,0.997085,1,2000.000000,1,COMPLETED_SUCCESSFULLY,110.942043,2.439945,113.381988,109.944958,112.384903,46.060419,6,-1.000000,""
python3action_floatoperation_job18_6,w0,python3action_floatoperation,0.997085,1,2000.000000,1,COMPLETED_SUCCESSFULLY,110.942088,2.439945,113.382033,109.945003,112.384948,46.060438,7,-1.000000,""
python3action_floatoperation_job23_17,w0,python3action_floatoperation,0.997085,1,2000.000000,1,COMPLETED_SUCCESSFULLY,110.942148,2.439945,113.382093,109.945063,112.385008,46.060462,25,-1.000000,""
python3action_floatoperation_job54_18,w0,python3action_floatoperation,0.997085,1,2000.000000,1,COMPLETED_SUCCESSFULLY,110.942193,2.439945,113.382138,109.945108,112.385053,46.060481,26,-1.000000,""
python3action_floatoperation_job81_19,w0,python3action_floatoperation,0.997085,1,2000.000000,1,COMPLETED_SUCCESSFULLY,110.942253,2.439945,113.382198,109.945168,112.385113,46.060505,27,-1.000000,""
python3action_floatoperation_job82_20,w0,python3action_floatoperation,0.997085,1,2000.000000,1,COMPLETED_SUCCESSFULLY,110.942283,2.439945,113.382228,109.945198,112.385143,46.060518,28,-1.000000,""
python3action_floatoperation_job124_21,w0,python3action_floatoperation,0.997085,1,2000.000000,1,COMPLETED_SUCCESSFULLY,110.942328,2.439945,113.382273,109.945243,112.385188,46.060536,29,-1.000000,""
98_updated,w0,python3action_imageprocessing_SampleImage_60mb_troll,0.997085,1,2000.000000,1,COMPLETED_SUCCESSFULLY,75.401250,62.000000,137.401250,74.404165,136.404165,2.200067,19,-1.000000,""
98,w0,python3action_imageprocessing_SampleImage_60mb,0.000000,1,-1.000000,1,COMPLETED_SUCCESSFULLY,137.401265,0.000010,137.401275,137.401265,137.401275,13740127.512594,19,-1.000000,""
112_updated,w0,python3action_imageprocessing_SampleImage_60mb_troll,0.997085,1,2000.000000,1,COMPLETED_SUCCESSFULLY,75.401295,62.000000,137.401295,74.404210,136.404210,2.200068,20,-1.000000,""
112,w0,python3action_imageprocessing_SampleImage_60mb,0.000000,1,-1.000000,1,COMPLETED_SUCCESSFULLY,137.401325,0.000010,137.401335,137.401325,137.401335,13740133.513397,20,-1.000000,""
103_updated,w0,python3action_imageprocessing_SampleImage_40mb_taurus,0.997085,1,2000.000000,1,COMPLETED_SUCCESSFULLY,105.614781,32.600046,138.214828,104.617696,137.217743,4.209127,10,-1.000000,""
103,w0,python3action_imageprocessing_SampleImage_40mb,0.000000,1,-1.000000,1,COMPLETED_SUCCESSFULLY,138.214843,0.000010,138.214853,138.214843,138.214853,13821485.300201,10,-1.000000,""
132_updated,w0,python3action_imageprocessing_SampleImage_40mb_taurus,0.997085,1,2000.000000,1,COMPLETED_SUCCESSFULLY,105.614841,32.600046,138.214888,104.617756,137.217803,4.209129,11,-1.000000,""
132,w0,python3action_imageprocessing_SampleImage_40mb,0.000000,1,-1.000000,1,COMPLETED_SUCCESSFULLY,138.214903,0.000010,138.214913,138.214903,138.214913,13821491.300201,11,-1.000000,""
135_updated,w0,python3action_imageprocessing_SampleImage_40mb_taurus,0.997085,1,2000.000000,1,COMPLETED_SUCCESSFULLY,105.614901,32.600046,138.214948,104.617816,137.217863,4.209131,13,-1.000000,""
135,w0,python3action_imageprocessing_SampleImage_40mb,0.000000,1,-1.000000,1,COMPLETED_SUCCESSFULLY,138.214963,0.000010,138.214973,138.214963,138.214973,13821497.300201,13,-1.000000,""
175_updated,w0,python3action_imageprocessing_SampleImage_40mb_taurus,0.997085,1,2000.000000,1,COMPLETED_SUCCESSFULLY,105.614931,32.600046,138.214978,104.617846,137.217893,4.209132,14,-1.000000,""
175,w0,python3action_imageprocessing_SampleImage_40mb,0.000000,1,-1.000000,1,COMPLETED_SUCCESSFULLY,138.215008,0.000010,138.215018,138.215008,138.215018,13821501.800402,14,-1.000000,""
python3action_chameleon_job46_9,w0,python3action_chameleon,0.997085,1,2000.000000,1,COMPLETED_SUCCESSFULLY,138.214873,5.040826,143.255699,137.217788,142.258614,28.221292,10,-1.000000,""
python3action_chameleon_job48_10,w0,python3action_chameleon,0.997085,1,2000.000000,1,COMPLETED_SUCCESSFULLY,138.214933,5.040826,143.255759,137.217848,142.258674,28.221304,11,-1.000000,""
python3action_chameleon_job61_11,w0,python3action_chameleon,0.997085,1,2000.000000,1,COMPLETED_SUCCESSFULLY,138.214993,5.040826,143.255819,137.217908,142.258734,28.221316,13,-1.000000,""
python3action_chameleon_job70_12,w0,python3action_chameleon,0.997085,1,2000.000000,1,COMPLETED_SUCCESSFULLY,138.215038,5.040826,143.255864,137.217953,142.258779,28.221324,14,-1.000000,""
80_updated,w0,python3action_modeltraining_reviews50mb_nova,0.997085,1,2000.000000,1,COMPLETED_SUCCESSFULLY,103.141868,42.399990,145.541858,102.144783,144.544773,3.409076,2,-1.000000,""
80,w0,python3action_modeltraining_reviews50mb,0.000000,1,-1.000000,1,COMPLETED_SUCCESSFULLY,145.541873,0.000010,145.541883,145.541873,145.541883,14554188.323505,2,-1.000000,""
127_updated,w0,python3action_modeltraining_reviews50mb_nova,0.997085,1,2000.000000,1,COMPLETED_SUCCESSFULLY,103.141927,42.399990,145.541918,102.144842,144.544833,3.409077,3,-1.000000,""
127,w0,python3action_modeltraining_reviews50mb,0.000000,1,-1.000000,1,COMPLETED_SUCCESSFULLY,145.541933,0.000010,145.541943,145.541933,145.541943,14554194.300201,3,-1.000000,""
161_updated,w0,python3action_modeltraining_reviews50mb_nova,0.997085,1,2000.000000,1,COMPLETED_SUCCESSFULLY,103.141988,42.399990,145.541978,102.144903,144.544893,3.409078,4,-1.000000,""
161,w0,python3action_modeltraining_reviews50mb,0.000000,1,-1.000000,1,COMPLETED_SUCCESSFULLY,145.541993,0.000010,145.542003,145.541993,145.542003,14554200.323505,4,-1.000000,""
python3action_floatoperation_job142_1,w0,python3action_floatoperation,0.997085,1,2000.000000,1,COMPLETED_SUCCESSFULLY,145.541903,2.439945,147.981849,144.544818,146.984764,60.241008,2,-1.000000,""
python3action_floatoperation_job156_2,w0,python3action_floatoperation,0.997085,1,2000.000000,1,COMPLETED_SUCCESSFULLY,145.541963,2.439945,147.981908,144.544878,146.984823,60.241032,3,-1.000000,""
python3action_floatoperation_job177_3,w0,python3action_floatoperation,0.997085,1,2000.000000,1,COMPLETED_SUCCESSFULLY,145.542023,2.439945,147.981969,144.544938,146.984884,60.241057,4,-1.000000,""
191_updated,w0,python3action_modeltraining_reviews50mb_nova,0.997085,1,2000.000000,1,COMPLETED_SUCCESSFULLY,110.941998,42.399990,153.341988,109.944913,152.344903,3.593041,5,-1.000000,""
191,w0,python3action_modeltraining_reviews50mb,0.000000,1,-1.000000,1,COMPLETED_SUCCESSFULLY,153.342003,0.000010,153.342013,153.342003,153.342013,15334201.323505,5,-1.000000,""
python3action_floatoperation_job181_4,w0,python3action_floatoperation,0.997085,1,2000.000000,1,COMPLETED_SUCCESSFULLY,153.342033,2.439945,155.781979,152.344948,154.784894,63.437854,5,-1.000000,""
39_updated,w0,python3action_chameleon_2000_taurus,0.997085,1,2000.000000,1,COMPLETED_SUCCESSFULLY,110.655802,64.199977,174.855779,109.658717,173.858694,2.708080,15,-1.000000,""
39,w0,python3action_chameleon_2000,0.000000,1,-1.000000,1,COMPLETED_SUCCESSFULLY,174.855794,0.000010,174.855804,174.855794,174.855804,17485580.417139,15,-1.000000,""
41_updated,w0,python3action_chameleon_2000_taurus,0.997085,1,2000.000000,1,COMPLETED_SUCCESSFULLY,110.655832,64.199977,174.855809,109.658747,173.858724,2.708081,16,-1.000000,""
41,w0,python3action_chameleon_2000,0.000000,1,-1.000000,1,COMPLETED_SUCCESSFULLY,174.855839,0.000010,174.855849,174.855839,174.855849,17485584.917741,16,-1.000000,""
9_updated,w0,python3action_floatoperation_100000000_nova,0.997085,1,2000.000000,1,COMPLETED_SUCCESSFULLY,113.382003,66.200020,179.582023,112.384918,178.584938,2.697657,6,-1.000000,""
9,w0,python3action_floatoperation_100000000,0.000000,1,-1.000000,1,COMPLETED_SUCCESSFULLY,179.582038,0.000010,179.582048,179.582038,179.582048,17958204.800201,6,-1.000000,""
18_updated,w0,python3action_floatoperation_100000000_nova,0.997085,1,2000.000000,1,COMPLETED_SUCCESSFULLY,113.382048,66.200020,179.582068,112.384963,178.584983,2.697658,7,-1.000000,""
18,w0,python3action_floatoperation_100000000,0.000000,1,-1.000000,1,COMPLETED_SUCCESSFULLY,179.582098,0.000010,179.582108,179.582098,179.582108,17958210.800201,7,-1.000000,""
23_updated,w0,python3action_floatoperation_100000000_nova,0.997085,1,2000.000000,1,COMPLETED_SUCCESSFULLY,113.382108,66.200020,179.582128,112.385023,178.585043,2.697658,25,-1.000000,""
23,w0,python3action_floatoperation_100000000,0.000000,1,-1.000000,1,COMPLETED_SUCCESSFULLY,179.582158,0.000010,179.582168,179.582158,179.582168,17958216.800201,25,-1.000000,""
54_updated,w0,python3action_floatoperation_100000000_nova,0.997085,1,2000.000000,1,COMPLETED_SUCCESSFULLY,113.382153,66.200020,179.582173,112.385068,178.585088,2.697659,26,-1.000000,""
54,w0,python3action_floatoperation_100000000,0.000000,1,-1.000000,1,COMPLETED_SUCCESSFULLY,179.582203,0.000010,179.582213,179.582203,179.582213,17958221.300402,26,-1.000000,""
81_updated,w0,python3action_floatoperation_100000000_nova,0.997085,1,2000.000000,1,COMPLETED_SUCCESSFULLY,113.382213,66.200020,179.582233,112.385128,178.585148,2.697660,27,-1.000000,""
82_updated,w0,python3action_floatoperation_100000000_nova,0.997085,1,2000.000000,1,COMPLETED_SUCCESSFULLY,113.382243,66.200020,179.582263,112.385158,178.585178,2.697661,28,-1.000000,""
81,w0,python3action_floatoperation_100000000,0.000000,1,-1.000000,1,COMPLETED_SUCCESSFULLY,179.582263,0.000010,179.582273,179.582263,179.582273,17958227.284378,27,-1.000000,""
82,w0,python3action_floatoperation_100000000,0.000000,1,-1.000000,1,COMPLETED_SUCCESSFULLY,179.582293,0.000010,179.582303,179.582293,179.582303,17958230.300201,28,-1.000000,""
124_updated,w0,python3action_floatoperation_100000000_nova,0.997085,1,2000.000000,1,COMPLETED_SUCCESSFULLY,113.382288,66.200020,179.582308,112.385203,178.585223,2.697661,29,-1.000000,""
124,w0,python3action_floatoperation_100000000,0.000000,1,-1.000000,1,COMPLETED_SUCCESSFULLY,179.582353,0.000010,179.582363,179.582353,179.582363,17958236.300402,29,-1.000000,""
python3action_pyaes_job10_5,w0,python3action_pyaes_reduced_0.85,0.997085,1,2000.000000,1,COMPLETED_SUCCESSFULLY,179.582068,0.320244,179.902312,178.584983,178.905227,558.653321,6,-1.000000,""
python3action_pyaes_job13_6,w0,python3action_pyaes_reduced_0.85,0.997085,1,2000.000000,1,COMPLETED_SUCCESSFULLY,179.582128,0.320244,179.902372,178.585043,178.905287,558.653509,7,-1.000000,""
python3action_pyaes_job22_17,w0,python3action_pyaes_reduced_0.85,0.997085,1,2000.000000,1,COMPLETED_SUCCESSFULLY,179.582188,0.320244,179.902432,178.585103,178.905347,558.653697,25,-1.000000,""
python3action_pyaes_job24_18,w0,python3action_pyaes_reduced_0.85,0.997085,1,2000.000000,1,COMPLETED_SUCCESSFULLY,179.582233,0.320244,179.902477,178.585148,178.905392,558.653837,26,-1.000000,""
python3action_pyaes_job26_19,w0,python3action_pyaes_reduced_0.85,0.997085,1,2000.000000,1,COMPLETED_SUCCESSFULLY,179.582308,0.320244,179.902552,178.585223,178.905467,558.654071,27,-1.000000,""
python3action_pyaes_job43_20,w0,python3action_pyaes_reduced_0.85,0.997085,1,2000.000000,1,COMPLETED_SUCCESSFULLY,179.582338,0.320244,179.902582,178.585253,178.905497,558.654165,28,-1.000000,""
python3action_pyaes_job62_21,w0,python3action_pyaes_reduced_0.85,0.997085,1,2000.000000,1,COMPLETED_SUCCESSFULLY,179.582383,0.320244,179.902627,178.585298,178.905542,558.654306,29,-1.000000,""
120_updated,w0,python3action_imageprocessing_SampleImage_60mb_troll,0.997085,1,2000.000000,1,COMPLETED_SUCCESSFULLY,137.401295,62.000000,199.401295,136.404210,198.404210,3.200068,19,-1.000000,""
120,w0,python3action_imageprocessing_SampleImage_60mb,0.000000,1,-1.000000,1,COMPLETED_SUCCESSFULLY,199.401310,0.000010,199.401320,199.401310,199.401320,19940132.013196,19,-1.000000,""
165_updated,w0,python3action_imageprocessing_SampleImage_60mb_troll,0.997085,1,2000.000000,1,COMPLETED_SUCCESSFULLY,137.401355,62.000000,199.401355,136.404270,198.404270,3.200069,20,-1.000000,""
165,w0,python3action_imageprocessing_SampleImage_60mb,0.000000,1,-1.000000,1,COMPLETED_SUCCESSFULLY,199.401370,0.000010,199.401380,199.401370,199.401380,19940138.014000,20,-1.000000,""
python3action_chameleon_job25_16,w0,python3action_chameleon,0.997085,1,2000.000000,1,COMPLETED_SUCCESSFULLY,199.401400,0.867914,200.269314,198.404315,199.272229,229.599138,20,-1.000000,""
46_updated,w0,python3action_chameleon_2000_taurus,0.997085,1,2000.000000,1,COMPLETED_SUCCESSFULLY,143.255714,64.199977,207.455691,142.258629,206.458606,3.215867,10,-1.000000,""
46,w0,python3action_chameleon_2000,0.000000,1,-1.000000,1,COMPLETED_SUCCESSFULLY,207.455706,0.000010,207.455716,207.455706,207.455716,20745571.600201,10,-1.000000,""
48_updated,w0,python3action_chameleon_2000_taurus,0.997085,1,2000.000000,1,COMPLETED_SUCCESSFULLY,143.255774,64.199977,207.455751,142.258689,206.458666,3.215868,11,-1.000000,""
48,w0,python3action_chameleon_2000,0.000000,1,-1.000000,1,COMPLETED_SUCCESSFULLY,207.455766,0.000010,207.455776,207.455766,207.455776,20745577.600201,11,-1.000000,""
61_updated,w0,python3action_chameleon_2000_taurus,0.997085,1,2000.000000,1,COMPLETED_SUCCESSFULLY,143.255834,64.199977,207.455811,142.258749,206.458726,3.215869,13,-1.000000,""
61,w0,python3action_chameleon_2000,0.000000,1,-1.000000,1,COMPLETED_SUCCESSFULLY,207.455826,0.000010,207.455836,207.455826,207.455836,20745583.600201,13,-1.000000,""
70_updated,w0,python3action_chameleon_2000_taurus,0.997085,1,2000.000000,1,COMPLETED_SUCCESSFULLY,143.255879,64.199977,207.455856,142.258794,206.458771,3.215870,14,-1.000000,""
70,w0,python3action_chameleon_2000,0.000000,1,-1.000000,1,COMPLETED_SUCCESSFULLY,207.455886,0.000010,207.455896,207.455886,207.455896,20745589.600201,14,-1.000000,""
142_updated,w0,python3action_floatoperation_100000000_nova,0.997085,1,2000.000000,1,COMPLETED_SUCCESSFULLY,147.981864,66.200020,214.181884,146.984779,213.184799,3.220313,2,-1.000000,""
142,w0,python3action_floatoperation_100000000,0.000000,1,-1.000000,1,COMPLETED_SUCCESSFULLY,214.181899,0.000010,214.181909,214.181899,214.181909,21418190.900201,2,-1.000000,""
156_updated,w0,python3action_floatoperation_100000000_nova,0.997085,1,2000.000000,1,COMPLETED_SUCCESSFULLY,147.981923,66.200020,214.181943,146.984838,213.184858,3.220314,3,-1.000000,""
156,w0,python3action_floatoperation_100000000,0.000000,1,-1.000000,1,COMPLETED_SUCCESSFULLY,214.181958,0.000010,214.181968,214.181958,214.181968,21418196.800201,3,-1.000000,""
177_updated,w0,python3action_floatoperation_100000000_nova,0.997085,1,2000.000000,1,COMPLETED_SUCCESSFULLY,147.981984,66.200020,214.182004,146.984899,213.184919,3.220315,4,-1.000000,""
177,w0,python3action_floatoperation_100000000,0.000000,1,-1.000000,1,COMPLETED_SUCCESSFULLY,214.182019,0.000010,214.182029,214.182019,214.182029,21418202.900201,4,-1.000000,""
python3action_pyaes_job63_1,w0,python3action_pyaes_reduced_0.85,0.997085,1,2000.000000,1,COMPLETED_SUCCESSFULLY,214.181929,0.320244,214.502173,213.184844,213.505088,666.695595,2,-1.000000,""
python3action_pyaes_job96_2,w0,python3action_pyaes_reduced_0.85,0.997085,1,2000.000000,1,COMPLETED_SUCCESSFULLY,214.181988,0.320244,214.502232,213.184903,213.505147,666.695779,3,-1.000000,""
python3action_pyaes_job131_3,w0,python3action_pyaes_reduced_0.85,0.997085,1,2000.000000,1,COMPLETED_SUCCESSFULLY,214.182049,0.320244,214.502293,213.184964,213.505208,666.695969,4,-1.000000,""
69_updated,w0,python3action_linpack_6000_orion,0.997085,1,2000.000000,1,COMPLETED_SUCCESSFULLY,112.763177,106.000000,218.763177,111.766092,217.766092,2.054397,8,-1.000000,""
69,w0,python3action_linpack_6000,0.000000,1,-1.000000,1,COMPLETED_SUCCESSFULLY,218.763192,0.000010,218.763202,218.763192,218.763202,21876320.225279,8,-1.000000,""
77_updated,w0,python3action_linpack_6000_orion,0.997085,1,2000.000000,1,COMPLETED_SUCCESSFULLY,112.763222,106.000000,218.763222,111.766137,217.766137,2.054398,9,-1.000000,""
77,w0,python3action_linpack_6000,0.000000,1,-1.000000,1,COMPLETED_SUCCESSFULLY,218.763252,0.000010,218.763262,218.763252,218.763262,21876326.226082,9,-1.000000,""
181_updated,w0,python3action_floatoperation_100000000_nova,0.997085,1,2000.000000,1,COMPLETED_SUCCESSFULLY,155.781994,66.200020,221.982014,154.784909,220.984929,3.338140,5,-1.000000,""
181,w0,python3action_floatoperation_100000000,0.000000,1,-1.000000,1,COMPLETED_SUCCESSFULLY,221.982029,0.000010,221.982039,221.982029,221.982039,22198203.900201,5,-1.000000,""
python3action_pyaes_job136_4,w0,python3action_pyaes_reduced_0.85,0.997085,1,2000.000000,1,COMPLETED_SUCCESSFULLY,221.982059,0.320244,222.302303,220.984974,221.305218,691.052449,5,-1.000000,""
72_updated,w0,python3action_chameleon_2000_taurus,0.997085,1,2000.000000,1,COMPLETED_SUCCESSFULLY,174.855824,64.199977,239.055801,173.858739,238.058716,3.708081,15,-1.000000,""
72,w0,python3action_chameleon_2000,0.000000,1,-1.000000,1,COMPLETED_SUCCESSFULLY,239.055816,0.000010,239.055826,239.055816,239.055826,23905582.611202,15,-1.000000,""
74_updated,w0,python3action_chameleon_2000_taurus,0.997085,1,2000.000000,1,COMPLETED_SUCCESSFULLY,174.855869,64.199977,239.055846,173.858784,238.058761,3.708082,16,-1.000000,""
74,w0,python3action_chameleon_2000,0.000000,1,-1.000000,1,COMPLETED_SUCCESSFULLY,239.055876,0.000010,239.055886,239.055876,239.055886,23905588.612005,16,-1.000000,""
10_updated,w0,python3action_pyaes_3000_nova,0.997085,1,2000.000000,1,COMPLETED_SUCCESSFULLY,179.902327,78.200020,258.102347,178.905242,257.105262,3.287790,6,-1.000000,""
10,w0,python3action_pyaes_3000,0.000000,1,-1.000000,1,COMPLETED_SUCCESSFULLY,258.102362,0.000010,258.102372,258.102362,258.102372,25810237.200201,6,-1.000000,""
13_updated,w0,python3action_pyaes_3000_nova,0.997085,1,2000.000000,1,COMPLETED_SUCCESSFULLY,179.902387,78.200020,258.102407,178.905302,257.105322,3.287791,7,-1.000000,""
13,w0,python3action_pyaes_3000,0.000000,1,-1.000000,1,COMPLETED_SUCCESSFULLY,258.102422,0.000010,258.102432,258.102422,258.102432,25810243.200201,7,-1.000000,""
22_updated,w0,python3action_pyaes_3000_nova,0.997085,1,2000.000000,1,COMPLETED_SUCCESSFULLY,179.902447,78.200020,258.102467,178.905362,257.105382,3.287792,25,-1.000000,""
22,w0,python3action_pyaes_3000,0.000000,1,-1.000000,1,COMPLETED_SUCCESSFULLY,258.102482,0.000010,258.102492,258.102482,258.102492,25810249.200201,25,-1.000000,""
24_updated,w0,python3action_pyaes_3000_nova,0.997085,1,2000.000000,1,COMPLETED_SUCCESSFULLY,179.902492,78.200020,258.102512,178.905407,257.105427,3.287792,26,-1.000000,""
24,w0,python3action_pyaes_3000,0.000000,1,-1.000000,1,COMPLETED_SUCCESSFULLY,258.102542,0.000010,258.102552,258.102542,258.102552,25810255.200201,26,-1.000000,""
26_updated,w0,python3action_pyaes_3000_nova,0.997085,1,2000.000000,1,COMPLETED_SUCCESSFULLY,179.902567,78.200020,258.102587,178.905482,257.105502,3.287793,27,-1.000000,""
26,w0,python3action_pyaes_3000,0.000000,1,-1.000000,1,COMPLETED_SUCCESSFULLY,258.102602,0.000010,258.102612,258.102602,258.102612,25810261.200201,27,-1.000000,""
43_updated,w0,python3action_pyaes_3000_nova,0.997085,1,2000.000000,1,COMPLETED_SUCCESSFULLY,179.902597,78.200020,258.102617,178.905512,257.105532,3.287794,28,-1.000000,""
43,w0,python3action_pyaes_3000,0.000000,1,-1.000000,1,COMPLETED_SUCCESSFULLY,258.102647,0.000010,258.102657,258.102647,258.102657,25810265.700402,28,-1.000000,""
62_updated,w0,python3action_pyaes_3000_nova,0.997085,1,2000.000000,1,COMPLETED_SUCCESSFULLY,179.902642,78.200020,258.102662,178.905557,257.105577,3.287794,29,-1.000000,""
62,w0,python3action_pyaes_3000,0.000000,1,-1.000000,1,COMPLETED_SUCCESSFULLY,258.102692,0.000010,258.102702,258.102692,258.102702,25810270.200402,29,-1.000000,""
186_updated,w0,python3action_imageprocessing_SampleImage_60mb_troll,0.997085,1,2000.000000,1,COMPLETED_SUCCESSFULLY,199.401340,62.000000,261.401340,198.404255,260.404255,4.200069,19,-1.000000,""
186,w0,python3action_imageprocessing_SampleImage_60mb,0.000000,1,-1.000000,1,COMPLETED_SUCCESSFULLY,261.401355,0.000010,261.401365,261.401355,261.401365,26140136.513799,19,-1.000000,""
python3action_chameleon_job56_15,w0,python3action_chameleon,0.997085,1,2000.000000,1,COMPLETED_SUCCESSFULLY,261.401385,0.867914,262.269299,260.404300,261.272214,301.034797,19,-1.000000,""
75_updated,w0,python3action_chameleon_2000_taurus,0.997085,1,2000.000000,1,COMPLETED_SUCCESSFULLY,207.455736,64.199977,271.655713,206.458651,270.658628,4.215868,10,-1.000000,""
75,w0,python3action_chameleon_2000,0.000000,1,-1.000000,1,COMPLETED_SUCCESSFULLY,271.655728,0.000010,271.655738,271.655728,271.655738,27165573.800201,10,-1.000000,""
106_updated,w0,python3action_chameleon_2000_taurus,0.997085,1,2000.000000,1,COMPLETED_SUCCESSFULLY,207.455796,64.199977,271.655773,206.458711,270.658688,4.215869,11,-1.000000,""
106,w0,python3action_chameleon_2000,0.000000,1,-1.000000,1,COMPLETED_SUCCESSFULLY,271.655788,0.000010,271.655798,271.655788,271.655798,27165579.800201,11,-1.000000,""
107_updated,w0,python3action_chameleon_2000_taurus,0.997085,1,2000.000000,1,COMPLETED_SUCCESSFULLY,207.455856,64.199977,271.655833,206.458771,270.658748,4.215870,13,-1.000000,""
107,w0,python3action_chameleon_2000,0.000000,1,-1.000000,1,COMPLETED_SUCCESSFULLY,271.655848,0.000010,271.655858,271.655848,271.655858,27165585.800201,13,-1.000000,""
111_updated,w0,python3action_chameleon_2000_taurus,0.997085,1,2000.000000,1,COMPLETED_SUCCESSFULLY,207.455916,64.199977,271.655893,206.458831,270.658808,4.215871,14,-1.000000,""
111,w0,python3action_chameleon_2000,0.000000,1,-1.000000,1,COMPLETED_SUCCESSFULLY,271.655908,0.000010,271.655918,271.655908,271.655918,27165591.800201,14,-1.000000,""
63_updated,w0,python3action_pyaes_3000_nova,0.997085,1,2000.000000,1,COMPLETED_SUCCESSFULLY,214.502188,78.200020,292.702208,213.505103,291.705123,3.730244,2,-1.000000,""
63,w0,python3action_pyaes_3000,0.000000,1,-1.000000,1,COMPLETED_SUCCESSFULLY,292.702223,0.000010,292.702233,292.702223,292.702233,29270223.300201,2,-1.000000,""
96_updated,w0,python3action_pyaes_3000_nova,0.997085,1,2000.000000,1,COMPLETED_SUCCESSFULLY,214.502247,78.200020,292.702267,213.505162,291.705182,3.730244,3,-1.000000,""
96,w0,python3action_pyaes_3000,0.000000,1,-1.000000,1,COMPLETED_SUCCESSFULLY,292.702282,0.000010,292.702292,292.702282,292.702292,29270229.200201,3,-1.000000,""
131_updated,w0,python3action_pyaes_3000_nova,0.997085,1,2000.000000,1,COMPLETED_SUCCESSFULLY,214.502308,78.200020,292.702328,213.505223,291.705243,3.730245,4,-1.000000,""
131,w0,python3action_pyaes_3000,0.000000,1,-1.000000,1,COMPLETED_SUCCESSFULLY,292.702343,0.000010,292.702353,292.702343,292.702353,29270235.300201,4,-1.000000,""
25_updated,w0,python3action_chameleon_3000_troll,0.997085,1,2000.000000,1,COMPLETED_SUCCESSFULLY,200.269329,94.000000,294.269329,199.272244,293.272244,3.119917,20,-1.000000,""
25,w0,python3action_chameleon_3000,0.000000,1,-1.000000,1,COMPLETED_SUCCESSFULLY,294.269344,0.000010,294.269354,294.269344,294.269354,29426935.400402,20,-1.000000,""
136_updated,w0,python3action_pyaes_3000_nova,0.997085,1,2000.000000,1,COMPLETED_SUCCESSFULLY,222.302318,78.200020,300.502338,221.305233,299.505253,3.829989,5,-1.000000,""
136,w0,python3action_pyaes_3000,0.000000,1,-1.000000,1,COMPLETED_SUCCESSFULLY,300.502353,0.000010,300.502363,300.502353,300.502363,30050236.300201,5,-1.000000,""
125_updated,w0,python3action_chameleon_2000_taurus,0.997085,1,2000.000000,1,COMPLETED_SUCCESSFULLY,239.055846,64.199977,303.255823,238.058761,302.258738,4.708082,15,-1.000000,""
125,w0,python3action_chameleon_2000,0.000000,1,-1.000000,1,COMPLETED_SUCCESSFULLY,303.255838,0.000010,303.255848,303.255838,303.255848,30325584.805266,15,-1.000000,""
126_updated,w0,python3action_chameleon_2000_taurus,0.997085,1,2000.000000,1,COMPLETED_SUCCESSFULLY,239.055906,64.199977,303.255883,238.058821,302.258798,4.708083,16,-1.000000,""
126,w0,python3action_chameleon_2000,0.000000,1,-1.000000,1,COMPLETED_SUCCESSFULLY,303.255898,0.000010,303.255908,303.255898,303.255908,30325590.806069,16,-1.000000,""
79_updated,w0,python3action_linpack_6000_orion,0.997085,1,2000.000000,1,COMPLETED_SUCCESSFULLY,218.763222,106.000000,324.763222,217.766137,323.766137,3.054398,8,-1.000000,""
79,w0,python3action_linpack_6000,0.000000,1,-1.000000,1,COMPLETED_SUCCESSFULLY,324.763237,0.000010,324.763247,324.763237,324.763247,32476324.725881,8,-1.000000,""
94_updated,w0,python3action_linpack_6000_orion,0.997085,1,2000.000000,1,COMPLETED_SUCCESSFULLY,218.763282,106.000000,324.763282,217.766197,323.766197,3.054398,9,-1.000000,""
94,w0,python3action_linpack_6000,0.000000,1,-1.000000,1,COMPLETED_SUCCESSFULLY,324.763297,0.000010,324.763307,324.763297,324.763307,32476330.726685,9,-1.000000,""
130_updated,w0,python3action_chameleon_2000_taurus,0.997085,1,2000.000000,1,COMPLETED_SUCCESSFULLY,271.655758,64.199977,335.855735,270.658673,334.858650,5.215869,10,-1.000000,""
130,w0,python3action_chameleon_2000,0.000000,1,-1.000000,1,COMPLETED_SUCCESSFULLY,335.855750,0.000010,335.855760,335.855750,335.855760,33585576.000201,10,-1.000000,""
149_updated,w0,python3action_chameleon_2000_taurus,0.997085,1,2000.000000,1,COMPLETED_SUCCESSFULLY,271.655818,64.199977,335.855795,270.658733,334.858710,5.215870,11,-1.000000,""
149,w0,python3action_chameleon_2000,0.000000,1,-1.000000,1,COMPLETED_SUCCESSFULLY,335.855810,0.000010,335.855820,335.855810,335.855820,33585582.000201,11,-1.000000,""
153_updated,w0,python3action_chameleon_2000_taurus,0.997085,1,2000.000000,1,COMPLETED_SUCCESSFULLY,271.655878,64.199977,335.855855,270.658793,334.858770,5.215871,13,-1.000000,""
153,w0,python3action_chameleon_2000,0.000000,1,-1.000000,1,COMPLETED_SUCCESSFULLY,335.855870,0.000010,335.855880,335.855870,335.855880,33585588.000201,13,-1.000000,""
168_updated,w0,python3action_chameleon_2000_taurus,0.997085,1,2000.000000,1,COMPLETED_SUCCESSFULLY,271.655938,64.199977,335.855915,270.658853,334.858830,5.215871,14,-1.000000,""
168,w0,python3action_chameleon_2000,0.000000,1,-1.000000,1,COMPLETED_SUCCESSFULLY,335.855930,0.000010,335.855940,335.855930,335.855940,33585594.000201,14,-1.000000,""
141_updated,w0,python3action_pyaes_3000_nova,0.997085,1,2000.000000,1,COMPLETED_SUCCESSFULLY,258.102392,78.200020,336.302412,257.105307,335.305327,4.287791,6,-1.000000,""
141,w0,python3action_pyaes_3000,0.000000,1,-1.000000,1,COMPLETED_SUCCESSFULLY,336.302427,0.000010,336.302437,336.302427,336.302437,33630243.700201,6,-1.000000,""
172_updated,w0,python3action_pyaes_3000_nova,0.997085,1,2000.000000,1,COMPLETED_SUCCESSFULLY,258.102452,78.200020,336.302472,257.105367,335.305387,4.287792,7,-1.000000,""
172,w0,python3action_pyaes_3000,0.000000,1,-1.000000,1,COMPLETED_SUCCESSFULLY,336.302487,0.000010,336.302497,336.302487,336.302497,33630249.700201,7,-1.000000,""
174_updated,w0,python3action_pyaes_3000_nova,0.997085,1,2000.000000,1,COMPLETED_SUCCESSFULLY,258.102512,78.200020,336.302531,257.105427,335.305446,4.287792,25,-1.000000,""
174,w0,python3action_pyaes_3000,0.000000,1,-1.000000,1,COMPLETED_SUCCESSFULLY,336.302546,0.000010,336.302556,336.302546,336.302556,33630255.608389,25,-1.000000,""
182_updated,w0,python3action_pyaes_3000_nova,0.997085,1,2000.000000,1,COMPLETED_SUCCESSFULLY,258.102572,78.200020,336.302592,257.105487,335.305507,4.287793,26,-1.000000,""
182,w0,python3action_pyaes_3000,0.000000,1,-1.000000,1,COMPLETED_SUCCESSFULLY,336.302607,0.000010,336.302617,336.302607,336.302617,33630261.700201,26,-1.000000,""
199_updated,w0,python3action_pyaes_3000_nova,0.997085,1,2000.000000,1,COMPLETED_SUCCESSFULLY,258.102632,78.200020,336.302652,257.105547,335.305567,4.287794,27,-1.000000,""
199,w0,python3action_pyaes_3000,0.000000,1,-1.000000,1,COMPLETED_SUCCESSFULLY,336.302667,0.000010,336.302677,336.302667,336.302677,33630267.700201,27,-1.000000,""
python3action_video_processing_job2_19,w0,python3action_video_processing_reduced_0.97,0.997085,1,2000.000000,1,COMPLETED_SUCCESSFULLY,336.302697,0.000000,336.302697,335.305612,335.305612,6867006645107.804688,27,-1.000000,""
17_updated,w0,python3action_modeltraining_reviews100mb_nova,0.997085,1,2000.000000,1,COMPLETED_SUCCESSFULLY,258.102677,79.600010,337.702687,257.105592,336.705602,4.229969,28,-1.000000,""
17,w0,python3action_modeltraining_reviews100mb,0.000000,1,-1.000000,1,COMPLETED_SUCCESSFULLY,337.702702,0.000010,337.702712,337.702702,337.702712,33770271.200201,28,-1.000000,""
33_updated,w0,python3action_modeltraining_reviews100mb_nova,0.997085,1,2000.000000,1,COMPLETED_SUCCESSFULLY,258.102722,79.600010,337.702732,257.105637,336.705647,4.229970,29,-1.000000,""
python3action_video_processing_job12_20,w0,python3action_video_processing_reduced_0.97,0.997085,1,2000.000000,1,COMPLETED_SUCCESSFULLY,337.702732,0.000000,337.702732,336.705647,336.705647,6895679138931.993164,28,-1.000000,""
33,w0,python3action_modeltraining_reviews100mb,0.000000,1,-1.000000,1,COMPLETED_SUCCESSFULLY,337.702762,0.000010,337.702772,337.702762,337.702772,33770277.200201,29,-1.000000,""
python3action_video_processing_job27_21,w0,python3action_video_processing_reduced_0.97,0.997085,1,2000.000000,1,COMPLETED_SUCCESSFULLY,337.702807,0.000000,337.702807,336.705722,336.705722,6895680679610.683594,29,-1.000000,""
python3action_modeltraining_job36_9,w0,python3action_modeltraining_reduced_0.94,0.997085,1,2000.000000,1,COMPLETED_SUCCESSFULLY,335.855780,4.236027,340.091807,334.858695,339.094722,80.050184,10,-1.000000,""
python3action_modeltraining_job44_10,w0,python3action_modeltraining_reduced_0.94,0.997085,1,2000.000000,1,COMPLETED_SUCCESSFULLY,335.855840,4.236027,340.091867,334.858755,339.094782,80.050198,11,-1.000000,""
python3action_modeltraining_job128_11,w0,python3action_modeltraining_reduced_0.94,0.997085,1,2000.000000,1,COMPLETED_SUCCESSFULLY,335.855900,4.236027,340.091927,334.858815,339.094842,80.050212,13,-1.000000,""
56_updated,w0,python3action_chameleon_3000_troll,0.997085,1,2000.000000,1,COMPLETED_SUCCESSFULLY,262.269314,94.000000,356.269314,261.272229,355.272229,3.779492,19,-1.000000,""
56,w0,python3action_chameleon_3000,0.000000,1,-1.000000,1,COMPLETED_SUCCESSFULLY,356.269329,0.000010,356.269339,356.269329,356.269339,35626933.900402,19,-1.000000,""
192_updated,w0,python3action_chameleon_2000_taurus,0.997085,1,2000.000000,1,COMPLETED_SUCCESSFULLY,303.255868,64.199977,367.455845,302.258783,366.458760,5.708082,15,-1.000000,""
192,w0,python3action_chameleon_2000,0.000000,1,-1.000000,1,COMPLETED_SUCCESSFULLY,367.455860,0.000010,367.455870,367.455860,367.455870,36745587.000201,15,-1.000000,""
193_updated,w0,python3action_chameleon_2000_taurus,0.997085,1,2000.000000,1,COMPLETED_SUCCESSFULLY,303.255928,64.199977,367.455905,302.258843,366.458820,5.708083,16,-1.000000,""
193,w0,python3action_chameleon_2000,0.000000,1,-1.000000,1,COMPLETED_SUCCESSFULLY,367.455920,0.000010,367.455930,367.455920,367.455930,36745593.000333,16,-1.000000,""
45_updated,w0,python3action_modeltraining_reviews100mb_nova,0.997085,1,2000.000000,1,COMPLETED_SUCCESSFULLY,292.702253,79.600010,372.302263,291.705168,371.305178,4.664637,2,-1.000000,""
45,w0,python3action_modeltraining_reviews100mb,0.000000,1,-1.000000,1,COMPLETED_SUCCESSFULLY,372.302278,0.000010,372.302288,372.302278,372.302288,37230228.800201,2,-1.000000,""
python3action_video_processing_job29_1,w0,python3action_video_processing_reduced_0.97,0.997085,1,2000.000000,1,COMPLETED_SUCCESSFULLY,372.302308,0.000000,372.302308,371.305223,371.305223,7604273064477.541992,2,-1.000000,""
68_updated,w0,python3action_modeltraining_reviews100mb_nova,0.997085,1,2000.000000,1,COMPLETED_SUCCESSFULLY,292.702312,79.600010,372.302322,291.705227,371.305237,4.664638,3,-1.000000,""
68,w0,python3action_modeltraining_reviews100mb,0.000000,1,-1.000000,1,COMPLETED_SUCCESSFULLY,372.302352,0.000010,372.302362,372.302352,372.302362,37230236.200402,3,-1.000000,""
python3action_video_processing_job50_2,w0,python3action_video_processing_reduced_0.97,0.997085,1,2000.000000,1,COMPLETED_SUCCESSFULLY,372.302382,0.000000,372.302382,371.305297,371.305297,7604274580027.127930,3,-1.000000,""
83_updated,w0,python3action_modeltraining_reviews100mb_nova,0.997085,1,2000.000000,1,COMPLETED_SUCCESSFULLY,292.702373,79.600010,372.302383,291.705288,371.305298,4.664639,4,-1.000000,""
83,w0,python3action_modeltraining_reviews100mb,0.000000,1,-1.000000,1,COMPLETED_SUCCESSFULLY,372.302427,0.000010,372.302437,372.302427,372.302437,37230243.701406,4,-1.000000,""
python3action_video_processing_job76_3,w0,python3action_video_processing_reduced_0.97,0.997085,1,2000.000000,1,COMPLETED_SUCCESSFULLY,372.302457,0.000000,372.302457,371.305372,371.305372,7604276116221.056641,4,-1.000000,""
101_updated,w0,python3action_modeltraining_reviews100mb_nova,0.997085,1,2000.000000,1,COMPLETED_SUCCESSFULLY,300.502383,79.600010,380.102393,299.505298,379.105308,4.762629,5,-1.000000,""
101,w0,python3action_modeltraining_reviews100mb,0.000000,1,-1.000000,1,COMPLETED_SUCCESSFULLY,380.102408,0.000010,380.102418,380.102408,380.102418,38010241.800201,5,-1.000000,""
python3action_video_processing_job97_4,w0,python3action_video_processing_reduced_0.97,0.997085,1,2000.000000,1,COMPLETED_SUCCESSFULLY,380.102438,0.000000,380.102438,379.105353,379.105353,7764018510496.902344,5,-1.000000,""
67_updated,w0,python3action_chameleon_3000_troll,0.997085,1,2000.000000,1,COMPLETED_SUCCESSFULLY,294.269374,94.000000,388.269374,293.272289,387.272289,4.119918,20,-1.000000,""
67,w0,python3action_chameleon_3000,0.000000,1,-1.000000,1,COMPLETED_SUCCESSFULLY,388.269389,0.000010,388.269399,388.269389,388.269399,38826939.901005,20,-1.000000,""
114_updated,w0,python3action_modeltraining_reviews100mb_nova,0.997085,1,2000.000000,1,COMPLETED_SUCCESSFULLY,336.302457,79.600010,415.902467,335.305372,414.905382,5.212379,6,-1.000000,""
114,w0,python3action_modeltraining_reviews100mb,0.000000,1,-1.000000,1,COMPLETED_SUCCESSFULLY,415.902482,0.000010,415.902492,415.902482,415.902492,41590249.200201,6,-1.000000,""
python3action_video_processing_job100_5,w0,python3action_video_processing_reduced_0.97,0.997085,1,2000.000000,1,COMPLETED_SUCCESSFULLY,415.902512,0.000000,415.902512,414.905427,414.905427,8497198443223.166016,6,-1.000000,""
119_updated,w0,python3action_modeltraining_reviews100mb_nova,0.997085,1,2000.000000,1,COMPLETED_SUCCESSFULLY,336.302517,79.600010,415.902527,335.305432,414.905442,5.212379,7,-1.000000,""
119,w0,python3action_modeltraining_reviews100mb,0.000000,1,-1.000000,1,COMPLETED_SUCCESSFULLY,415.902557,0.000010,415.902567,415.902557,415.902567,41590256.700402,7,-1.000000,""
137_updated,w0,python3action_modeltraining_reviews100mb_nova,0.997085,1,2000.000000,1,COMPLETED_SUCCESSFULLY,336.302576,79.600010,415.902586,335.305491,414.905501,5.212380,25,-1.000000,""
python3action_video_processing_job164_6,w0,python3action_video_processing_reduced_0.97,0.997085,1,2000.000000,1,COMPLETED_SUCCESSFULLY,415.902586,0.000000,415.902586,414.905501,414.905501,8497199955718.155273,7,-1.000000,""
137,w0,python3action_modeltraining_reviews100mb,0.000000,1,-1.000000,1,COMPLETED_SUCCESSFULLY,415.902616,0.000010,415.902626,415.902616,415.902626,41590262.600201,25,-1.000000,""
190_updated,w0,python3action_modeltraining_reviews100mb_nova,0.997085,1,2000.000000,1,COMPLETED_SUCCESSFULLY,336.302637,79.600010,415.902647,335.305552,414.905562,5.212381,26,-1.000000,""
python3action_video_processing_job167_17,w0,python3action_video_processing_reduced_0.97,0.997085,1,2000.000000,1,COMPLETED_SUCCESSFULLY,415.902661,0.000000,415.902661,414.905576,414.905576,8497201494761.055664,25,-1.000000,""
190,w0,python3action_modeltraining_reviews100mb,0.000000,1,-1.000000,1,COMPLETED_SUCCESSFULLY,415.902691,0.000010,415.902701,415.902691,415.902701,41590270.101205,26,-1.000000,""
36_updated,w0,python3action_modeltraining_reviews100mb_taurus,0.997085,1,2000.000000,1,COMPLETED_SUCCESSFULLY,340.091822,88.199977,428.291799,339.094737,427.294714,4.844613,10,-1.000000,""
36,w0,python3action_modeltraining_reviews100mb,0.000000,1,-1.000000,1,COMPLETED_SUCCESSFULLY,428.291814,0.000010,428.291824,428.291814,428.291824,42829182.400201,10,-1.000000,""
python3action_facedetection_job30_9,w0,python3action_facedetection_reduced_1.83,0.997085,1,2000.000000,1,COMPLETED_SUCCESSFULLY,428.291844,0.000000,428.291844,427.294759,427.294759,41076769924798.148438,10,-1.000000,""
44_updated,w0,python3action_modeltraining_reviews100mb_taurus,0.997085,1,2000.000000,1,COMPLETED_SUCCESSFULLY,340.091882,88.199977,428.291859,339.094797,427.294774,4.844613,11,-1.000000,""
44,w0,python3action_modeltraining_reviews100mb,0.000000,1,-1.000000,1,COMPLETED_SUCCESSFULLY,428.291889,0.000010,428.291899,428.291889,428.291899,42829189.900402,11,-1.000000,""
128_updated,w0,python3action_modeltraining_reviews100mb_taurus,0.997085,1,2000.000000,1,COMPLETED_SUCCESSFULLY,340.091942,88.199977,428.291919,339.094857,427.294834,4.844614,13,-1.000000,""
python3action_facedetection_job37_10,w0,python3action_facedetection_reduced_1.83,0.997085,1,2000.000000,1,COMPLETED_SUCCESSFULLY,428.291919,0.000000,428.291919,427.294834,427.294834,41076777128231.476562,11,-1.000000,""
128,w0,python3action_modeltraining_reviews100mb,0.000000,1,-1.000000,1,COMPLETED_SUCCESSFULLY,428.291949,0.000010,428.291959,428.291949,428.291959,42829195.900201,13,-1.000000,""
python3action_facedetection_job40_11,w0,python3action_facedetection_reduced_1.83,0.997085,1,2000.000000,1,COMPLETED_SUCCESSFULLY,428.291994,0.000000,428.291994,427.294909,427.294909,41076784344815.812500,13,-1.000000,""
104_updated,w0,python3action_linpack_6000_orion,0.997085,1,2000.000000,1,COMPLETED_SUCCESSFULLY,324.763267,106.000000,430.763267,323.766182,429.766182,4.054398,8,-1.000000,""
104,w0,python3action_linpack_6000,0.000000,1,-1.000000,1,COMPLETED_SUCCESSFULLY,430.763282,0.000010,430.763292,430.763282,430.763292,43076329.226484,8,-1.000000,""
133_updated,w0,python3action_linpack_6000_orion,0.997085,1,2000.000000,1,COMPLETED_SUCCESSFULLY,324.763327,106.000000,430.763327,323.766242,429.766242,4.054399,9,-1.000000,""
133,w0,python3action_linpack_6000,0.000000,1,-1.000000,1,COMPLETED_SUCCESSFULLY,430.763342,0.000010,430.763352,430.763342,430.763352,43076335.227287,9,-1.000000,""
32_updated,w0,python3action_imageprocessing_SampleImage_60mb_taurus,0.997085,1,2000.000000,1,COMPLETED_SUCCESSFULLY,335.855960,101.500058,437.356018,334.858875,436.358933,4.299100,14,-1.000000,""
32,w0,python3action_imageprocessing_SampleImage_60mb,0.000000,1,-1.000000,1,COMPLETED_SUCCESSFULLY,437.356033,0.000010,437.356043,437.356033,437.356043,43735604.300201,14,-1.000000,""
python3action_facedetection_job52_12,w0,python3action_facedetection_reduced_0.91,0.997085,1,2000.000000,1,COMPLETED_SUCCESSFULLY,437.356063,0.000000,437.356063,436.358978,436.358978,41948132913843.664062,14,-1.000000,""
2_updated,w0,python3action_videoprocessing_SampleVideo_30mb_nova,0.997085,1,2000.000000,1,COMPLETED_SUCCESSFULLY,336.302727,106.799980,443.102707,335.305642,442.105622,4.139567,27,-1.000000,""
2,w0,python3action_videoprocessing_SampleVideo_30mb,0.000000,1,-1.000000,1,COMPLETED_SUCCESSFULLY,443.102722,0.000010,443.102732,443.102722,443.102732,44310273.247412,27,-1.000000,""
12_updated,w0,python3action_videoprocessing_SampleVideo_30mb_nova,0.997085,1,2000.000000,1,COMPLETED_SUCCESSFULLY,337.702777,106.799980,444.502757,336.705692,443.505672,4.152676,28,-1.000000,""
12,w0,python3action_videoprocessing_SampleVideo_30mb,0.000000,1,-1.000000,1,COMPLETED_SUCCESSFULLY,444.502772,0.000010,444.502782,444.502772,444.502782,44450278.246810,28,-1.000000,""
27_updated,w0,python3action_videoprocessing_SampleVideo_30mb_nova,0.997085,1,2000.000000,1,COMPLETED_SUCCESSFULLY,337.702837,106.799980,444.502817,336.705752,443.505732,4.152676,29,-1.000000,""
27,w0,python3action_videoprocessing_SampleVideo_30mb,0.000000,1,-1.000000,1,COMPLETED_SUCCESSFULLY,444.502832,0.000010,444.502842,444.502832,444.502842,44450284.247613,29,-1.000000,""
99_updated,w0,python3action_chameleon_3000_troll,0.997085,1,2000.000000,1,COMPLETED_SUCCESSFULLY,356.269359,94.000000,450.269359,355.272274,449.272274,4.779492,19,-1.000000,""
99,w0,python3action_chameleon_3000,0.000000,1,-1.000000,1,COMPLETED_SUCCESSFULLY,450.269374,0.000010,450.269384,450.269374,450.269384,45026938.401005,19,-1.000000,""
110_updated,w0,python3action_imageprocessing_SampleImage_60mb_taurus,0.997085,1,2000.000000,1,COMPLETED_SUCCESSFULLY,367.455890,101.500058,468.955948,366.458805,467.958863,4.610430,15,-1.000000,""
110,w0,python3action_imageprocessing_SampleImage_60mb,0.000000,1,-1.000000,1,COMPLETED_SUCCESSFULLY,468.955963,0.000010,468.955973,468.955963,468.955973,46895597.300201,15,-1.000000,""
python3action_facedetection_job84_13,w0,python3action_facedetection_reduced_0.91,0.997085,1,2000.000000,1,COMPLETED_SUCCESSFULLY,468.955993,0.000000,468.955993,467.958908,467.958908,44985902572589.687500,15,-1.000000,""
169_updated,w0,python3action_imageprocessing_SampleImage_60mb_taurus,0.997085,1,2000.000000,1,COMPLETED_SUCCESSFULLY,367.455950,101.500058,468.956008,366.458865,467.958923,4.610430,16,-1.000000,""
169,w0,python3action_imageprocessing_SampleImage_60mb,0.000000,1,-1.000000,1,COMPLETED_SUCCESSFULLY,468.956038,0.000010,468.956048,468.956038,468.956048,46895604.800402,16,-1.000000,""
python3action_facedetection_job121_14,w0,python3action_facedetection_reduced_0.91,0.997085,1,2000.000000,1,COMPLETED_SUCCESSFULLY,468.956068,0.000000,468.956068,467.958983,467.958983,44985909782695.039062,16,-1.000000,""
29_updated,w0,python3action_videoprocessing_SampleVideo_30mb_nova,0.997085,1,2000.000000,1,COMPLETED_SUCCESSFULLY,372.302337,106.799980,479.102317,371.305252,478.105232,4.476642,2,-1.000000,""
29,w0,python3action_videoprocessing_SampleVideo_30mb,0.000000,1,-1.000000,1,COMPLETED_SUCCESSFULLY,479.102332,0.000010,479.102342,479.102332,479.102342,47910234.246609,2,-1.000000,""
50_updated,w0,python3action_videoprocessing_SampleVideo_30mb_nova,0.997085,1,2000.000000,1,COMPLETED_SUCCESSFULLY,372.302412,106.799980,479.102392,371.305327,478.105307,4.476642,3,-1.000000,""
50,w0,python3action_videoprocessing_SampleVideo_30mb,0.000000,1,-1.000000,1,COMPLETED_SUCCESSFULLY,479.102407,0.000010,479.102417,479.102407,479.102417,47910241.747613,3,-1.000000,""
76_updated,w0,python3action_videoprocessing_SampleVideo_30mb_nova,0.997085,1,2000.000000,1,COMPLETED_SUCCESSFULLY,372.302487,106.799980,479.102467,371.305402,478.105382,4.476643,4,-1.000000,""
76,w0,python3action_videoprocessing_SampleVideo_30mb,0.000000,1,-1.000000,1,COMPLETED_SUCCESSFULLY,479.102482,0.000010,479.102492,479.102482,479.102492,47910249.248617,4,-1.000000,""
116_updated,w0,python3action_chameleon_3000_troll,0.997085,1,2000.000000,1,COMPLETED_SUCCESSFULLY,388.269419,94.000000,482.269419,387.272334,481.272334,5.119918,20,-1.000000,""
116,w0,python3action_chameleon_3000,0.000000,1,-1.000000,1,COMPLETED_SUCCESSFULLY,482.269434,0.000010,482.269444,482.269434,482.269444,48226944.401607,20,-1.000000,""
97_updated,w0,python3action_videoprocessing_SampleVideo_30mb_nova,0.997085,1,2000.000000,1,COMPLETED_SUCCESSFULLY,380.102468,106.799980,486.902448,379.105383,485.905363,4.549677,5,-1.000000,""
97,w0,python3action_videoprocessing_SampleVideo_30mb,0.000000,1,-1.000000,1,COMPLETED_SUCCESSFULLY,486.902463,0.000010,486.902473,486.902463,486.902473,48690247.347412,5,-1.000000,""
100_updated,w0,python3action_videoprocessing_SampleVideo_30mb_nova,0.997085,1,2000.000000,1,COMPLETED_SUCCESSFULLY,415.902542,106.799980,522.702522,414.905457,521.705437,4.884883,6,-1.000000,""
100,w0,python3action_videoprocessing_SampleVideo_30mb,0.000000,1,-1.000000,1,COMPLETED_SUCCESSFULLY,522.702537,0.000010,522.702547,522.702537,522.702547,52270254.746609,6,-1.000000,""
164_updated,w0,python3action_videoprocessing_SampleVideo_30mb_nova,0.997085,1,2000.000000,1,COMPLETED_SUCCESSFULLY,415.902631,106.799980,522.702611,414.905546,521.705526,4.884884,7,-1.000000,""
164,w0,python3action_videoprocessing_SampleVideo_30mb,0.000000,1,-1.000000,1,COMPLETED_SUCCESSFULLY,522.702626,0.000010,522.702636,522.702626,522.702636,52270263.646810,7,-1.000000,""
167_updated,w0,python3action_videoprocessing_SampleVideo_30mb_nova,0.997085,1,2000.000000,1,COMPLETED_SUCCESSFULLY,415.902706,106.799980,522.702686,414.905621,521.705601,4.884885,25,-1.000000,""
167,w0,python3action_videoprocessing_SampleVideo_30mb,0.000000,1,-1.000000,1,COMPLETED_SUCCESSFULLY,522.702701,0.000010,522.702711,522.702701,522.702711,52270271.147814,25,-1.000000,""
138_updated,w0,python3action_linpack_6000_orion,0.997085,1,2000.000000,1,COMPLETED_SUCCESSFULLY,430.763312,106.000000,536.763312,429.766227,535.766227,5.054398,8,-1.000000,""
138,w0,python3action_linpack_6000,0.000000,1,-1.000000,1,COMPLETED_SUCCESSFULLY,536.763327,0.000010,536.763337,536.763327,536.763337,53676333.727087,8,-1.000000,""
145_updated,w0,python3action_linpack_6000_orion,0.997085,1,2000.000000,1,COMPLETED_SUCCESSFULLY,430.763372,106.000000,536.763372,429.766287,535.766287,5.054399,9,-1.000000,""
145,w0,python3action_linpack_6000,0.000000,1,-1.000000,1,COMPLETED_SUCCESSFULLY,536.763387,0.000010,536.763397,536.763387,536.763397,53676339.727890,9,-1.000000,""
117_updated,w0,python3action_chameleon_3000_troll,0.997085,1,2000.000000,1,COMPLETED_SUCCESSFULLY,450.269404,94.000000,544.269404,449.272319,543.272319,5.779493,19,-1.000000,""
117,w0,python3action_chameleon_3000,0.000000,1,-1.000000,1,COMPLETED_SUCCESSFULLY,544.269419,0.000010,544.269429,544.269419,544.269429,54426942.901607,19,-1.000000,""
35_updated,w0,python3action_floatoperation_200000000_nova,0.997085,1,2000.000000,1,COMPLETED_SUCCESSFULLY,415.902736,135.399990,551.302726,414.905651,550.305641,4.064296,26,-1.000000,""
35,w0,python3action_floatoperation_200000000,0.000000,1,-1.000000,1,COMPLETED_SUCCESSFULLY,551.302741,0.000010,551.302751,551.302741,551.302751,55130275.125112,26,-1.000000,""
30_updated,w0,python3action_facedetection_SampleVideo_50mb_taurus,0.997085,1,2000.000000,1,COMPLETED_SUCCESSFULLY,428.291874,134.600046,562.891920,427.294789,561.894835,4.174552,10,-1.000000,""
30,w0,python3action_facedetection_SampleVideo_50mb,0.000000,1,-1.000000,1,COMPLETED_SUCCESSFULLY,562.891935,0.000010,562.891945,562.891935,562.891945,56289194.513480,10,-1.000000,""
37_updated,w0,python3action_facedetection_SampleVideo_50mb_taurus,0.997085,1,2000.000000,1,COMPLETED_SUCCESSFULLY,428.291964,134.600046,562.892010,427.294879,561.894925,4.174552,11,-1.000000,""
37,w0,python3action_facedetection_SampleVideo_50mb,0.000000,1,-1.000000,1,COMPLETED_SUCCESSFULLY,562.892025,0.000010,562.892035,562.892025,562.892035,56289203.513681,11,-1.000000,""
40_updated,w0,python3action_facedetection_SampleVideo_50mb_taurus,0.997085,1,2000.000000,1,COMPLETED_SUCCESSFULLY,428.292024,134.600046,562.892070,427.294939,561.894985,4.174553,13,-1.000000,""
40,w0,python3action_facedetection_SampleVideo_50mb,0.000000,1,-1.000000,1,COMPLETED_SUCCESSFULLY,562.892085,0.000010,562.892095,562.892085,562.892095,56289209.514484,13,-1.000000,""
52_updated,w0,python3action_facedetection_SampleVideo_50mb_taurus,0.997085,1,2000.000000,1,COMPLETED_SUCCESSFULLY,437.356093,134.600046,571.956139,436.359008,570.959054,4.241893,14,-1.000000,""
52,w0,python3action_facedetection_SampleVideo_50mb,0.000000,1,-1.000000,1,COMPLETED_SUCCESSFULLY,571.956154,0.000010,571.956164,571.956154,571.956164,57195616.414283,14,-1.000000,""
python3action_video_processing_job5_12,w0,python3action_video_processing_reduced_1.83,0.997085,1,2000.000000,1,COMPLETED_SUCCESSFULLY,571.956184,0.000000,571.956184,570.959099,570.959099,4952869179460.308594,14,-1.000000,""
134_updated,w0,python3action_chameleon_3000_troll,0.997085,1,2000.000000,1,COMPLETED_SUCCESSFULLY,482.269464,94.000000,576.269464,481.272379,575.272379,6.119919,20,-1.000000,""
134,w0,python3action_chameleon_3000,0.000000,1,-1.000000,1,COMPLETED_SUCCESSFULLY,576.269479,0.000010,576.269489,576.269479,576.269489,57626948.902210,20,-1.000000,""
87_updated,w0,python3action_floatoperation_200000000_nova,0.997085,1,2000.000000,1,COMPLETED_SUCCESSFULLY,443.102752,135.399990,578.502743,442.105667,577.505658,4.265182,27,-1.000000,""
87,w0,python3action_floatoperation_200000000,0.000000,1,-1.000000,1,COMPLETED_SUCCESSFULLY,578.502758,0.000010,578.502768,578.502758,578.502768,57850276.800201,27,-1.000000,""
144_updated,w0,python3action_floatoperation_200000000_nova,0.997085,1,2000.000000,1,COMPLETED_SUCCESSFULLY,444.502802,135.399990,579.902793,443.505717,578.905708,4.275523,28,-1.000000,""
144,w0,python3action_floatoperation_200000000,0.000000,1,-1.000000,1,COMPLETED_SUCCESSFULLY,579.902808,0.000010,579.902818,579.902808,579.902818,57990281.800201,28,-1.000000,""
147_updated,w0,python3action_floatoperation_200000000_nova,0.997085,1,2000.000000,1,COMPLETED_SUCCESSFULLY,444.502862,135.399990,579.902853,443.505777,578.905768,4.275523,29,-1.000000,""
147,w0,python3action_floatoperation_200000000,0.000000,1,-1.000000,1,COMPLETED_SUCCESSFULLY,579.902868,0.000010,579.902878,579.902868,579.902878,57990287.800201,29,-1.000000,""
84_updated,w0,python3action_facedetection_SampleVideo_50mb_taurus,0.997085,1,2000.000000,1,COMPLETED_SUCCESSFULLY,468.956023,134.600046,603.556069,467.958938,602.558984,4.476663,15,-1.000000,""
84,w0,python3action_facedetection_SampleVideo_50mb,0.000000,1,-1.000000,1,COMPLETED_SUCCESSFULLY,603.556084,0.000010,603.556094,603.556084,603.556094,60355609.413480,15,-1.000000,""
python3action_video_processing_job21_13,w0,python3action_video_processing_reduced_1.83,0.997085,1,2000.000000,1,COMPLETED_SUCCESSFULLY,603.556114,0.000000,603.556114,602.559029,602.559029,5226987447413.559570,15,-1.000000,""
121_updated,w0,python3action_facedetection_SampleVideo_50mb_taurus,0.997085,1,2000.000000,1,COMPLETED_SUCCESSFULLY,468.956098,134.600046,603.556144,467.959013,602.559059,4.476663,16,-1.000000,""
121,w0,python3action_facedetection_SampleVideo_50mb,0.000000,1,-1.000000,1,COMPLETED_SUCCESSFULLY,603.556174,0.000010,603.556184,603.556174,603.556184,60355618.414684,16,-1.000000,""
python3action_video_processing_job55_14,w0,python3action_video_processing_reduced_1.83,0.997085,1,2000.000000,1,COMPLETED_SUCCESSFULLY,603.556204,0.000000,603.556204,602.559119,602.559119,5226988228236.388672,16,-1.000000,""
159_updated,w0,python3action_floatoperation_200000000_nova,0.997085,1,2000.000000,1,COMPLETED_SUCCESSFULLY,479.102362,135.399990,614.502353,478.105277,613.505268,4.531058,2,-1.000000,""
159,w0,python3action_floatoperation_200000000,0.000000,1,-1.000000,1,COMPLETED_SUCCESSFULLY,614.502368,0.000010,614.502378,614.502368,614.502378,61450237.800201,2,-1.000000,""
160_updated,w0,python3action_floatoperation_200000000_nova,0.997085,1,2000.000000,1,COMPLETED_SUCCESSFULLY,479.102437,135.399990,614.502428,478.105352,613.505343,4.531059,3,-1.000000,""
160,w0,python3action_floatoperation_200000000,0.000000,1,-1.000000,1,COMPLETED_SUCCESSFULLY,614.502443,0.000010,614.502453,614.502443,614.502453,61450245.300201,3,-1.000000,""
162_updated,w0,python3action_floatoperation_200000000_nova,0.997085,1,2000.000000,1,COMPLETED_SUCCESSFULLY,479.102512,135.399990,614.502503,478.105427,613.505418,4.531060,4,-1.000000,""
162,w0,python3action_floatoperation_200000000,0.000000,1,-1.000000,1,COMPLETED_SUCCESSFULLY,614.502518,0.000010,614.502528,614.502518,614.502528,61450252.800201,4,-1.000000,""
166_updated,w0,python3action_floatoperation_200000000_nova,0.997085,1,2000.000000,1,COMPLETED_SUCCESSFULLY,486.902493,135.399990,622.302484,485.905408,621.305399,4.588666,5,-1.000000,""
166,w0,python3action_floatoperation_200000000,0.000000,1,-1.000000,1,COMPLETED_SUCCESSFULLY,622.302499,0.000010,622.302509,622.302499,622.302509,62230250.900201,5,-1.000000,""
154_updated,w0,python3action_chameleon_3000_troll,0.997085,1,2000.000000,1,COMPLETED_SUCCESSFULLY,544.269449,94.000000,638.269449,543.272364,637.272364,6.779493,19,-1.000000,""
154,w0,python3action_chameleon_3000,0.000000,1,-1.000000,1,COMPLETED_SUCCESSFULLY,638.269464,0.000010,638.269474,638.269464,638.269474,63826947.402210,19,-1.000000,""
158_updated,w0,python3action_linpack_6000_orion,0.997085,1,2000.000000,1,COMPLETED_SUCCESSFULLY,536.763357,106.000000,642.763357,535.766272,641.766272,6.054399,8,-1.000000,""
158,w0,python3action_linpack_6000,0.000000,1,-1.000000,1,COMPLETED_SUCCESSFULLY,642.763372,0.000010,642.763382,642.763372,642.763382,64276338.227689,8,-1.000000,""
178_updated,w0,python3action_linpack_6000_orion,0.997085,1,2000.000000,1,COMPLETED_SUCCESSFULLY,536.763417,106.000000,642.763417,535.766332,641.766332,6.054399,9,-1.000000,""
178,w0,python3action_linpack_6000,0.000000,1,-1.000000,1,COMPLETED_SUCCESSFULLY,642.763432,0.000010,642.763442,642.763432,642.763442,64276344.228492,9,-1.000000,""
173_updated,w0,python3action_floatoperation_200000000_nova,0.997085,1,2000.000000,1,COMPLETED_SUCCESSFULLY,522.702567,135.399990,658.102558,521.705482,657.105473,4.853069,6,-1.000000,""
173,w0,python3action_floatoperation_200000000,0.000000,1,-1.000000,1,COMPLETED_SUCCESSFULLY,658.102573,0.000010,658.102583,658.102573,658.102583,65810258.300201,6,-1.000000,""
1_updated,w0,python3action_pyaes_4000_nova,0.997085,1,2000.000000,1,COMPLETED_SUCCESSFULLY,522.702656,139.600010,662.302666,521.705571,661.305581,4.737146,7,-1.000000,""
1,w0,python3action_pyaes_4000,0.000000,1,-1.000000,1,COMPLETED_SUCCESSFULLY,662.302681,0.000010,662.302691,662.302681,662.302691,66230269.124308,7,-1.000000,""
3_updated,w0,python3action_pyaes_4000_nova,0.997085,1,2000.000000,1,COMPLETED_SUCCESSFULLY,522.702731,139.600010,662.302741,521.705646,661.305656,4.737146,25,-1.000000,""
3,w0,python3action_pyaes_4000,0.000000,1,-1.000000,1,COMPLETED_SUCCESSFULLY,662.302756,0.000010,662.302766,662.302756,662.302766,66230276.625312,25,-1.000000,""
20_updated,w0,python3action_pyaes_4000_nova,0.997085,1,2000.000000,1,COMPLETED_SUCCESSFULLY,551.302771,139.600010,690.902781,550.305686,689.905696,4.942018,26,-1.000000,""
20,w0,python3action_pyaes_4000,0.000000,1,-1.000000,1,COMPLETED_SUCCESSFULLY,690.902796,0.000010,690.902806,690.902796,690.902806,69090280.602611,26,-1.000000,""
179_updated,w0,python3action_facedetection_SampleVideo_50mb_taurus,0.997085,1,2000.000000,1,COMPLETED_SUCCESSFULLY,562.891965,134.600046,697.492011,561.894880,696.494926,5.174552,10,-1.000000,""
179,w0,python3action_facedetection_SampleVideo_50mb,0.000000,1,-1.000000,1,COMPLETED_SUCCESSFULLY,697.492026,0.000010,697.492036,697.492026,697.492036,69749203.627160,10,-1.000000,""
python3action_video_processing_job89_9,w0,python3action_video_processing_reduced_2.8,0.997085,1,2000.000000,1,COMPLETED_SUCCESSFULLY,697.492056,0.000000,697.492056,696.494971,696.494971,6041848675386.029297,10,-1.000000,""
184_updated,w0,python3action_facedetection_SampleVideo_50mb_taurus,0.997085,1,2000.000000,1,COMPLETED_SUCCESSFULLY,562.892055,134.600046,697.492101,561.894970,696.495016,5.174553,11,-1.000000,""
184,w0,python3action_facedetection_SampleVideo_50mb,0.000000,1,-1.000000,1,COMPLETED_SUCCESSFULLY,697.492116,0.000010,697.492126,697.492116,697.492126,69749212.627562,11,-1.000000,""
python3action_video_processing_job90_10,w0,python3action_video_processing_reduced_2.8,0.997085,1,2000.000000,1,COMPLETED_SUCCESSFULLY,697.492146,0.000000,697.492146,696.495061,696.495061,6041849456139.182617,11,-1.000000,""
187_updated,w0,python3action_facedetection_SampleVideo_50mb_taurus,0.997085,1,2000.000000,1,COMPLETED_SUCCESSFULLY,562.892115,134.600046,697.492161,561.895030,696.495076,5.174553,13,-1.000000,""
187,w0,python3action_facedetection_SampleVideo_50mb,0.000000,1,-1.000000,1,COMPLETED_SUCCESSFULLY,697.492191,0.000010,697.492201,697.492191,697.492201,69749220.128566,13,-1.000000,""
python3action_video_processing_job115_11,w0,python3action_video_processing_reduced_2.8,0.997085,1,2000.000000,1,COMPLETED_SUCCESSFULLY,697.492221,0.000000,697.492221,696.495136,696.495136,6041850106824.872070,13,-1.000000,""
34_updated,w0,python3action_pyaes_4000_nova,0.997085,1,2000.000000,1,COMPLETED_SUCCESSFULLY,578.502788,139.600010,718.102798,577.505703,717.105713,5.136860,27,-1.000000,""
34,w0,python3action_pyaes_4000,0.000000,1,-1.000000,1,COMPLETED_SUCCESSFULLY,718.102813,0.000010,718.102823,718.102813,718.102823,71810282.300201,27,-1.000000,""
53_updated,w0,python3action_pyaes_4000_nova,0.997085,1,2000.000000,1,COMPLETED_SUCCESSFULLY,579.902838,139.600010,719.502848,578.905753,718.505763,5.146889,28,-1.000000,""
53,w0,python3action_pyaes_4000,0.000000,1,-1.000000,1,COMPLETED_SUCCESSFULLY,719.502863,0.000010,719.502873,719.502863,719.502873,71950287.300201,28,-1.000000,""
64_updated,w0,python3action_pyaes_4000_nova,0.997085,1,2000.000000,1,COMPLETED_SUCCESSFULLY,579.902898,139.600010,719.502908,578.905813,718.505823,5.146889,29,-1.000000,""
64,w0,python3action_pyaes_4000,0.000000,1,-1.000000,1,COMPLETED_SUCCESSFULLY,719.502923,0.000010,719.502933,719.502923,719.502933,71950293.300201,29,-1.000000,""
python3action_facedetection_job6_21,w0,python3action_facedetection_reduced_1.83,0.997085,1,2000.000000,1,COMPLETED_SUCCESSFULLY,719.502953,0.000000,719.502953,718.505868,718.505868,162052421845726.406250,29,-1.000000,""
5_updated,w0,python3action_videoprocessing_SampleVideo_50mb_taurus,0.997085,1,2000.000000,1,COMPLETED_SUCCESSFULLY,571.956214,154.250029,726.206243,570.959129,725.209158,4.701517,14,-1.000000,""
5,w0,python3action_videoprocessing_SampleVideo_50mb,0.000000,1,-1.000000,1,COMPLETED_SUCCESSFULLY,726.206258,0.000010,726.206268,726.206258,726.206268,72620626.800201,14,-1.000000,""
195_updated,w0,python3action_linpack_6000_orion,0.997085,1,2000.000000,1,COMPLETED_SUCCESSFULLY,642.763402,106.000000,748.763402,641.766317,747.766317,7.054399,8,-1.000000,""
195,w0,python3action_linpack_6000,0.000000,1,-1.000000,1,COMPLETED_SUCCESSFULLY,748.763417,0.000010,748.763427,748.763417,748.763427,74876342.728291,8,-1.000000,""
65_updated,w0,python3action_pyaes_4000_nova,0.997085,1,2000.000000,1,COMPLETED_SUCCESSFULLY,614.502398,139.600010,754.102408,613.505313,753.105323,5.394737,2,-1.000000,""
65,w0,python3action_pyaes_4000,0.000000,1,-1.000000,1,COMPLETED_SUCCESSFULLY,754.102423,0.000010,754.102433,754.102423,754.102433,75410243.300201,2,-1.000000,""
python3action_facedetection_job8_1,w0,python3action_facedetection_reduced_1.83,0.997085,1,2000.000000,1,COMPLETED_SUCCESSFULLY,754.102453,0.000000,754.102453,753.105368,753.105368,169856022371928.593750,2,-1.000000,""
85_updated,w0,python3action_pyaes_4000_nova,0.997085,1,2000.000000,1,COMPLETED_SUCCESSFULLY,614.502473,139.600010,754.102483,613.505388,753.105398,5.394737,3,-1.000000,""
85,w0,python3action_pyaes_4000,0.000000,1,-1.000000,1,COMPLETED_SUCCESSFULLY,754.102513,0.000010,754.102523,754.102513,754.102523,75410252.300201,3,-1.000000,""
python3action_facedetection_job14_2,w0,python3action_facedetection_reduced_1.83,0.997085,1,2000.000000,1,COMPLETED_SUCCESSFULLY,754.102543,0.000000,754.102543,753.105458,753.105458,169856042670604.781250,3,-1.000000,""
88_updated,w0,python3action_pyaes_4000_nova,0.997085,1,2000.000000,1,COMPLETED_SUCCESSFULLY,614.502548,139.600010,754.102558,613.505463,753.105473,5.394738,4,-1.000000,""
88,w0,python3action_pyaes_4000,0.000000,1,-1.000000,1,COMPLETED_SUCCESSFULLY,754.102588,0.000010,754.102598,754.102588,754.102598,75410259.800402,4,-1.000000,""
python3action_facedetection_job15_3,w0,python3action_facedetection_reduced_1.83,0.997085,1,2000.000000,1,COMPLETED_SUCCESSFULLY,754.102618,0.000000,754.102618,753.105533,753.105533,169856059586621.187500,4,-1.000000,""
21_updated,w0,python3action_videoprocessing_SampleVideo_50mb_taurus,0.997085,1,2000.000000,1,COMPLETED_SUCCESSFULLY,603.556144,154.250029,757.806173,602.559059,756.809088,4.906379,15,-1.000000,""
21,w0,python3action_videoprocessing_SampleVideo_50mb,0.000000,1,-1.000000,1,COMPLETED_SUCCESSFULLY,757.806188,0.000010,757.806198,757.806188,757.806198,75780619.800201,15,-1.000000,""
55_updated,w0,python3action_videoprocessing_SampleVideo_50mb_taurus,0.997085,1,2000.000000,1,COMPLETED_SUCCESSFULLY,603.556234,154.250029,757.806263,602.559149,756.809178,4.906379,16,-1.000000,""
55,w0,python3action_videoprocessing_SampleVideo_50mb,0.000000,1,-1.000000,1,COMPLETED_SUCCESSFULLY,757.806278,0.000010,757.806288,757.806278,757.806288,75780628.800201,16,-1.000000,""
91_updated,w0,python3action_pyaes_4000_nova,0.997085,1,2000.000000,1,COMPLETED_SUCCESSFULLY,622.302529,139.600010,761.902539,621.305444,760.905454,5.450612,5,-1.000000,""
91,w0,python3action_pyaes_4000,0.000000,1,-1.000000,1,COMPLETED_SUCCESSFULLY,761.902554,0.000010,761.902564,761.902554,761.902564,76190256.400201,5,-1.000000,""
python3action_facedetection_job16_4,w0,python3action_facedetection_reduced_1.83,0.997085,1,2000.000000,1,COMPLETED_SUCCESSFULLY,761.902584,0.000000,761.902584,760.905499,760.905499,171615270522221.125000,5,-1.000000,""
109_updated,w0,python3action_pyaes_4000_nova,0.997085,1,2000.000000,1,COMPLETED_SUCCESSFULLY,658.102603,139.600010,797.702613,657.105518,796.705528,5.707059,6,-1.000000,""
109,w0,python3action_pyaes_4000,0.000000,1,-1.000000,1,COMPLETED_SUCCESSFULLY,797.702628,0.000010,797.702638,797.702628,797.702638,79770263.800201,6,-1.000000,""
python3action_facedetection_job42_5,w0,python3action_facedetection_reduced_1.83,0.997085,1,2000.000000,1,COMPLETED_SUCCESSFULLY,797.702658,0.000000,797.702658,796.705573,796.705573,179689649524937.281250,6,-1.000000,""
122_updated,w0,python3action_pyaes_4000_nova,0.997085,1,2000.000000,1,COMPLETED_SUCCESSFULLY,662.302711,139.600010,801.902721,661.305626,800.905636,5.737146,7,-1.000000,""
122,w0,python3action_pyaes_4000,0.000000,1,-1.000000,1,COMPLETED_SUCCESSFULLY,801.902736,0.000010,801.902746,801.902736,801.902746,80190274.601807,7,-1.000000,""
python3action_facedetection_job58_6,w0,python3action_facedetection_reduced_1.83,0.997085,1,2000.000000,1,COMPLETED_SUCCESSFULLY,801.902766,0.000000,801.902766,800.905681,800.905681,180636945443209.593750,7,-1.000000,""
151_updated,w0,python3action_pyaes_4000_nova,0.997085,1,2000.000000,1,COMPLETED_SUCCESSFULLY,662.302786,139.600010,801.902796,661.305701,800.905711,5.737147,25,-1.000000,""
151,w0,python3action_pyaes_4000,0.000000,1,-1.000000,1,COMPLETED_SUCCESSFULLY,801.902826,0.000010,801.902836,801.902826,801.902836,80190283.603012,25,-1.000000,""
python3action_facedetection_job95_17,w0,python3action_facedetection_reduced_1.83,0.997085,1,2000.000000,1,COMPLETED_SUCCESSFULLY,801.902856,0.000000,801.902856,800.905771,800.905771,180636965744603.156250,25,-1.000000,""
163_updated,w0,python3action_pyaes_4000_nova,0.997085,1,2000.000000,1,COMPLETED_SUCCESSFULLY,690.902826,139.600010,830.502836,689.905741,829.505751,5.942018,26,-1.000000,""
163,w0,python3action_pyaes_4000,0.000000,1,-1.000000,1,COMPLETED_SUCCESSFULLY,830.502851,0.000010,830.502861,830.502851,830.502861,83050286.100201,26,-1.000000,""
python3action_facedetection_job108_18,w0,python3action_facedetection_reduced_0.91,0.997085,1,2000.000000,1,COMPLETED_SUCCESSFULLY,830.502881,0.000000,830.502881,829.505796,829.505796,187087439593069.750000,26,-1.000000,""
89_updated,w0,python3action_videoprocessing_SampleVideo_50mb_taurus,0.997085,1,2000.000000,1,COMPLETED_SUCCESSFULLY,697.492086,154.250029,851.742115,696.495001,850.745030,5.515364,10,-1.000000,""
89,w0,python3action_videoprocessing_SampleVideo_50mb,0.000000,1,-1.000000,1,COMPLETED_SUCCESSFULLY,851.742130,0.000010,851.742140,851.742130,851.742140,85174214.011338,10,-1.000000,""
90_updated,w0,python3action_videoprocessing_SampleVideo_50mb_taurus,0.997085,1,2000.000000,1,COMPLETED_SUCCESSFULLY,697.492176,154.250029,851.742205,696.495091,850.745120,5.515364,11,-1.000000,""
90,w0,python3action_videoprocessing_SampleVideo_50mb,0.000000,1,-1.000000,1,COMPLETED_SUCCESSFULLY,851.742220,0.000010,851.742230,851.742220,851.742230,85174223.011739,11,-1.000000,""
115_updated,w0,python3action_videoprocessing_SampleVideo_50mb_taurus,0.997085,1,2000.000000,1,COMPLETED_SUCCESSFULLY,697.492251,154.250029,851.742280,696.495166,850.745195,5.515365,13,-1.000000,""
115,w0,python3action_videoprocessing_SampleVideo_50mb,0.000000,1,-1.000000,1,COMPLETED_SUCCESSFULLY,851.742295,0.000010,851.742305,851.742295,851.742305,85174230.512743,13,-1.000000,""
183_updated,w0,python3action_pyaes_4000_nova,0.997085,1,2000.000000,1,COMPLETED_SUCCESSFULLY,718.102843,139.600010,857.702853,717.105758,856.705768,6.136860,27,-1.000000,""
183,w0,python3action_pyaes_4000,0.000000,1,-1.000000,1,COMPLETED_SUCCESSFULLY,857.702868,0.000010,857.702878,857.702868,857.702878,85770287.800201,27,-1.000000,""
python3action_facedetection_job143_19,w0,python3action_facedetection_reduced_1.83,0.997085,1,2000.000000,1,COMPLETED_SUCCESSFULLY,857.702898,0.000000,857.702898,856.705813,856.705813,193222154458137.406250,27,-1.000000,""
197_updated,w0,python3action_pyaes_4000_nova,0.997085,1,2000.000000,1,COMPLETED_SUCCESSFULLY,719.502893,139.600010,859.102903,718.505808,858.105818,6.146889,28,-1.000000,""
197,w0,python3action_pyaes_4000,0.000000,1,-1.000000,1,COMPLETED_SUCCESSFULLY,859.102918,0.000010,859.102928,859.102918,859.102928,85910292.800201,28,-1.000000,""
python3action_facedetection_job146_20,w0,python3action_facedetection_reduced_1.83,0.997085,1,2000.000000,1,COMPLETED_SUCCESSFULLY,859.102948,0.000000,859.102948,858.105863,858.105863,193537922920592.312500,28,-1.000000,""
6_updated,w0,python3action_facedetection_SampleVideo_30mb_nova,0.997085,1,2000.000000,1,COMPLETED_SUCCESSFULLY,719.502983,160.399990,879.902973,718.505898,878.905888,5.479463,29,-1.000000,""
6,w0,python3action_facedetection_SampleVideo_30mb,0.000000,1,-1.000000,1,COMPLETED_SUCCESSFULLY,879.902988,0.000010,879.902998,879.902988,879.902998,87990299.824308,29,-1.000000,""
118_updated,w0,python3action_videoprocessing_SampleVideo_50mb_taurus,0.997085,1,2000.000000,1,COMPLETED_SUCCESSFULLY,726.206288,154.250029,880.456317,725.209203,879.459232,5.701517,14,-1.000000,""
118,w0,python3action_videoprocessing_SampleVideo_50mb,0.000000,1,-1.000000,1,COMPLETED_SUCCESSFULLY,880.456332,0.000010,880.456342,880.456332,880.456342,88045634.200201,14,-1.000000,""
129_updated,w0,python3action_videoprocessing_SampleVideo_50mb_taurus,0.997085,1,2000.000000,1,COMPLETED_SUCCESSFULLY,757.806218,154.250029,912.056247,756.809133,911.059162,5.906379,15,-1.000000,""
129,w0,python3action_videoprocessing_SampleVideo_50mb,0.000000,1,-1.000000,1,COMPLETED_SUCCESSFULLY,912.056262,0.000010,912.056272,912.056262,912.056272,91205627.200201,15,-1.000000,""
140_updated,w0,python3action_videoprocessing_SampleVideo_50mb_taurus,0.997085,1,2000.000000,1,COMPLETED_SUCCESSFULLY,757.806308,154.250029,912.056337,756.809223,911.059252,5.906380,16,-1.000000,""
140,w0,python3action_videoprocessing_SampleVideo_50mb,0.000000,1,-1.000000,1,COMPLETED_SUCCESSFULLY,912.056352,0.000010,912.056362,912.056352,912.056362,91205636.200201,16,-1.000000,""
8_updated,w0,python3action_facedetection_SampleVideo_30mb_nova,0.997085,1,2000.000000,1,COMPLETED_SUCCESSFULLY,754.102483,160.399990,914.502473,753.105398,913.505388,5.695171,2,-1.000000,""
8,w0,python3action_facedetection_SampleVideo_30mb,0.000000,1,-1.000000,1,COMPLETED_SUCCESSFULLY,914.502488,0.000010,914.502498,914.502488,914.502498,91450249.801004,2,-1.000000,""
14_updated,w0,python3action_facedetection_SampleVideo_30mb_nova,0.997085,1,2000.000000,1,COMPLETED_SUCCESSFULLY,754.102573,160.399990,914.502563,753.105488,913.505478,5.695172,3,-1.000000,""
14,w0,python3action_facedetection_SampleVideo_30mb,0.000000,1,-1.000000,1,COMPLETED_SUCCESSFULLY,914.502578,0.000010,914.502588,914.502578,914.502588,91450258.823505,3,-1.000000,""
15_updated,w0,python3action_facedetection_SampleVideo_30mb_nova,0.997085,1,2000.000000,1,COMPLETED_SUCCESSFULLY,754.102648,160.399990,914.502638,753.105563,913.505553,5.695172,4,-1.000000,""
15,w0,python3action_facedetection_SampleVideo_30mb,0.000000,1,-1.000000,1,COMPLETED_SUCCESSFULLY,914.502653,0.000010,914.502663,914.502653,914.502663,91450266.324509,4,-1.000000,""
16_updated,w0,python3action_facedetection_SampleVideo_30mb_nova,0.997085,1,2000.000000,1,COMPLETED_SUCCESSFULLY,761.902614,160.399990,922.302604,760.905529,921.305519,5.743800,5,-1.000000,""
16,w0,python3action_facedetection_SampleVideo_30mb,0.000000,1,-1.000000,1,COMPLETED_SUCCESSFULLY,922.302619,0.000010,922.302629,922.302619,922.302629,92230262.924308,5,-1.000000,""
42_updated,w0,python3action_facedetection_SampleVideo_30mb_nova,0.997085,1,2000.000000,1,COMPLETED_SUCCESSFULLY,797.702688,160.399990,958.102678,796.705603,957.105593,5.966993,6,-1.000000,""
42,w0,python3action_facedetection_SampleVideo_30mb,0.000000,1,-1.000000,1,COMPLETED_SUCCESSFULLY,958.102693,0.000010,958.102703,958.102693,958.102703,95810270.324308,6,-1.000000,""
58_updated,w0,python3action_facedetection_SampleVideo_30mb_nova,0.997085,1,2000.000000,1,COMPLETED_SUCCESSFULLY,801.902796,160.399990,962.302786,800.905711,961.305701,5.993178,7,-1.000000,""
58,w0,python3action_facedetection_SampleVideo_30mb,0.000000,1,-1.000000,1,COMPLETED_SUCCESSFULLY,962.302801,0.000010,962.302811,962.302801,962.302811,96230281.125915,7,-1.000000,""
95_updated,w0,python3action_facedetection_SampleVideo_30mb_nova,0.997085,1,2000.000000,1,COMPLETED_SUCCESSFULLY,801.902886,160.399990,962.302876,800.905801,961.305791,5.993179,25,-1.000000,""
95,w0,python3action_facedetection_SampleVideo_30mb,0.000000,1,-1.000000,1,COMPLETED_SUCCESSFULLY,962.302891,0.000010,962.302901,962.302891,962.302901,96230290.127120,25,-1.000000,""
108_updated,w0,python3action_facedetection_SampleVideo_30mb_nova,0.997085,1,2000.000000,1,COMPLETED_SUCCESSFULLY,830.502911,160.399990,990.902901,829.505826,989.905816,6.171483,26,-1.000000,""
108,w0,python3action_facedetection_SampleVideo_30mb,0.000000,1,-1.000000,1,COMPLETED_SUCCESSFULLY,990.902916,0.000010,990.902926,990.902916,990.902926,99090292.624308,26,-1.000000,""
148_updated,w0,python3action_videoprocessing_SampleVideo_50mb_taurus,0.997085,1,2000.000000,1,COMPLETED_SUCCESSFULLY,851.742160,154.250029,1005.992189,850.745075,1004.995104,6.515364,10,-1.000000,""
148,w0,python3action_videoprocessing_SampleVideo_50mb,0.000000,1,-1.000000,1,COMPLETED_SUCCESSFULLY,1005.992204,0.000010,1005.992214,1005.992204,1005.992214,100599221.400201,10,-1.000000,""
150_updated,w0,python3action_videoprocessing_SampleVideo_50mb_taurus,0.997085,1,2000.000000,1,COMPLETED_SUCCESSFULLY,851.742250,154.250029,1005.992279,850.745165,1004.995194,6.515365,11,-1.000000,""
150,w0,python3action_videoprocessing_SampleVideo_50mb,0.000000,1,-1.000000,1,COMPLETED_SUCCESSFULLY,1005.992294,0.000010,1005.992304,1005.992294,1005.992304,100599230.400201,11,-1.000000,""
170_updated,w0,python3action_videoprocessing_SampleVideo_50mb_taurus,0.997085,1,2000.000000,1,COMPLETED_SUCCESSFULLY,851.742325,154.250029,1005.992354,850.745240,1004.995269,6.515365,13,-1.000000,""
170,w0,python3action_videoprocessing_SampleVideo_50mb,0.000000,1,-1.000000,1,COMPLETED_SUCCESSFULLY,1005.992369,0.000010,1005.992379,1005.992369,1005.992379,100599237.900201,13,-1.000000,""
143_updated,w0,python3action_facedetection_SampleVideo_30mb_nova,0.997085,1,2000.000000,1,COMPLETED_SUCCESSFULLY,857.702928,160.399990,1018.102918,856.705843,1017.105833,6.341059,27,-1.000000,""
143,w0,python3action_facedetection_SampleVideo_30mb,0.000000,1,-1.000000,1,COMPLETED_SUCCESSFULLY,1018.102933,0.000010,1018.102943,1018.102933,1018.102943,101810294.324308,27,-1.000000,""
146_updated,w0,python3action_facedetection_SampleVideo_30mb_nova,0.997085,1,2000.000000,1,COMPLETED_SUCCESSFULLY,859.102978,160.399990,1019.502968,858.105893,1018.505883,6.349788,28,-1.000000,""
146,w0,python3action_facedetection_SampleVideo_30mb,0.000000,1,-1.000000,1,COMPLETED_SUCCESSFULLY,1019.502983,0.000010,1019.502993,1019.502983,1019.502993,101950299.324308,28,-1.000000,""
171_updated,w0,python3action_videoprocessing_SampleVideo_50mb_taurus,0.997085,1,2000.000000,1,COMPLETED_SUCCESSFULLY,880.456362,154.250029,1034.706391,879.459277,1033.709306,6.701518,14,-1.000000,""
171,w0,python3action_videoprocessing_SampleVideo_50mb,0.000000,1,-1.000000,1,COMPLETED_SUCCESSFULLY,1034.706406,0.000010,1034.706416,1034.706406,1034.706416,103470641.600201,14,-1.000000,""
155_updated,w0,python3action_facedetection_SampleVideo_30mb_nova,0.997085,1,2000.000000,1,COMPLETED_SUCCESSFULLY,879.903018,160.399990,1040.303008,878.905933,1039.305923,6.479464,29,-1.000000,""
155,w0,python3action_facedetection_SampleVideo_30mb,0.000000,1,-1.000000,1,COMPLETED_SUCCESSFULLY,1040.303023,0.000010,1040.303033,1040.303023,1040.303033,104030303.348014,29,-1.000000,""
196_updated,w0,python3action_videoprocessing_SampleVideo_50mb_taurus,0.997085,1,2000.000000,1,COMPLETED_SUCCESSFULLY,912.056292,154.250029,1066.306321,911.059207,1065.309236,6.906379,15,-1.000000,""
196,w0,python3action_videoprocessing_SampleVideo_50mb,0.000000,1,-1.000000,1,COMPLETED_SUCCESSFULLY,1066.306336,0.000010,1066.306346,1066.306336,1066.306346,106630634.600201,15,-1.000000,""
176_updated,w0,python3action_facedetection_SampleVideo_30mb_nova,0.997085,1,2000.000000,1,COMPLETED_SUCCESSFULLY,914.502518,160.399990,1074.902508,913.505433,1073.905423,6.695171,2,-1.000000,""
176,w0,python3action_facedetection_SampleVideo_30mb,0.000000,1,-1.000000,1,COMPLETED_SUCCESSFULLY,1074.902523,0.000010,1074.902533,1074.902523,1074.902533,107490253.324710,2,-1.000000,""
194_updated,w0,python3action_facedetection_SampleVideo_30mb_nova,0.997085,1,2000.000000,1,COMPLETED_SUCCESSFULLY,914.502608,160.399990,1074.902598,913.505523,1073.905513,6.695172,3,-1.000000,""
194,w0,python3action_facedetection_SampleVideo_30mb,0.000000,1,-1.000000,1,COMPLETED_SUCCESSFULLY,1074.902613,0.000010,1074.902623,1074.902613,1074.902623,107490262.347211,3,-1.000000,""
198_updated,w0,python3action_facedetection_SampleVideo_30mb_nova,0.997085,1,2000.000000,1,COMPLETED_SUCCESSFULLY,914.502683,160.399990,1074.902673,913.505598,1073.905588,6.695172,4,-1.000000,""
198,w0,python3action_facedetection_SampleVideo_30mb,0.000000,1,-1.000000,1,COMPLETED_SUCCESSFULLY,1074.902688,0.000010,1074.902698,1074.902688,1074.902698,107490269.848215,4,-1.000000,""
