job_id,workload_name,profile,submission_time,requested_number_of_resources,requested_time,success,final_state,starting_time,execution_time,finish_time,waiting_time,turnaround_time,stretch,allocated_resources,consumed_energy,metadata
python3action_chameleon_job3_0,w0,python3action_chameleon,0.997085,1,2000.000000,1,COMPLETED_SUCCESSFULLY,1.002100,0.243006,1.245106,0.005015,0.248021,1.020637,0,-1.000000,""
python3action_pyaes_job24_2,w0,python3action_pyaes,0.997085,1,2000.000000,1,COMPLETED_SUCCESSFULLY,1.002130,0.867914,1.870044,0.005045,0.872959,1.005813,4,-1.000000,""
python3action_chameleon_job16_3,w0,python3action_chameleon,0.997085,1,2000.000000,1,COMPLETED_SUCCESSFULLY,1.002145,0.892694,1.894839,0.005060,0.897754,1.005668,5,-1.000000,""
python3action_linpack_job6_5,w0,python3action_linpack,0.997085,1,2000.000000,1,COMPLETED_SUCCESSFULLY,1.002175,5.760927,6.763102,0.005090,5.766017,1.000884,11,-1.000000,""
3_updated,w0,python3action_chameleon_2000_neowise,0.997085,1,2000.000000,1,COMPLETED_SUCCESSFULLY,1.245121,24.200002,25.445123,0.248036,24.448038,1.010249,0,-1.000000,""
3,w0,python3action_chameleon_2000,0.000000,1,-1.000000,1,COMPLETED_SUCCESSFULLY,25.445138,0.000010,25.445148,25.445138,25.445148,2544514.822787,0,-1.000000,""
python3action_facedetection_job1_4,w0,python3action_facedetection,0.997085,1,2000.000000,1,COMPLETED_SUCCESSFULLY,1.002160,30.499683,31.501843,0.005075,30.504758,1.000166,6,-1.000000,""
8_updated,w0,python3action_chameleon_2000_neowise,0.997085,1,2000.000000,1,COMPLETED_SUCCESSFULLY,25.445168,24.200002,49.645170,24.448083,48.648085,2.010251,0,-1.000000,""
8,w0,python3action_chameleon_2000,0.000000,1,-1.000000,1,COMPLETED_SUCCESSFULLY,49.645185,0.000010,49.645195,49.645185,49.645195,4964519.545775,0,-1.000000,""
python3action_facedetection_job44_1,w0,python3action_facedetection,0.997085,1,2000.000000,1,COMPLETED_SUCCESSFULLY,1.002115,72.012455,73.014570,0.005030,72.017485,1.000070,2,-1.000000,""
15_updated,w0,python3action_chameleon_2000_neowise,0.997085,1,2000.000000,1,COMPLETED_SUCCESSFULLY,49.645215,24.200002,73.845218,48.648130,72.848133,3.010253,0,-1.000000,""
15,w0,python3action_chameleon_2000,0.000000,1,-1.000000,1,COMPLETED_SUCCESSFULLY,73.845233,0.000010,73.845243,73.845233,73.845243,7384524.300201,0,-1.000000,""
16_updated,w0,python3action_chameleon_3000_yeti,0.997085,1,2000.000000,1,COMPLETED_SUCCESSFULLY,1.894854,93.000000,94.894854,0.897769,93.897769,1.009653,5,-1.000000,""
16,w0,python3action_chameleon_3000,0.000000,1,-1.000000,1,COMPLETED_SUCCESSFULLY,94.894869,0.000010,94.894879,94.894869,94.894879,9489487.949564,5,-1.000000,""
25_updated,w0,python3action_chameleon_2000_neowise,0.997085,1,2000.000000,1,COMPLETED_SUCCESSFULLY,73.845263,24.200002,98.045265,72.848178,97.048180,4.010255,0,-1.000000,""
25,w0,python3action_chameleon_2000,0.000000,1,-1.000000,1,COMPLETED_SUCCESSFULLY,98.045280,0.000010,98.045290,98.045280,98.045290,9804529.023189,0,-1.000000,""
24_updated,w0,python3action_pyaes_4000_troll,0.997085,1,2000.000000,1,COMPLETED_SUCCESSFULLY,1.870059,102.333333,104.203392,0.872974,103.206307,1.008531,4,-1.000000,""
24,w0,python3action_pyaes_4000,0.000000,1,-1.000000,1,COMPLETED_SUCCESSFULLY,104.203407,0.000010,104.203417,104.203407,104.203417,10420341.733735,4,-1.000000,""
6_updated,w0,python3action_linpack_6000_orion,0.997085,1,2000.000000,1,COMPLETED_SUCCESSFULLY,6.763117,106.000000,112.763117,5.766032,111.766032,1.054397,11,-1.000000,""
6,w0,python3action_linpack_6000,0.000000,1,-1.000000,1,COMPLETED_SUCCESSFULLY,112.763132,0.000010,112.763142,112.763132,112.763142,11276314.224476,11,-1.000000,""
53_updated,w0,python3action_chameleon_2000_neowise,0.997085,1,2000.000000,1,COMPLETED_SUCCESSFULLY,98.045310,24.200002,122.245312,97.048225,121.248227,5.010257,0,-1.000000,""
53,w0,python3action_chameleon_2000,0.000000,1,-1.000000,1,COMPLETED_SUCCESSFULLY,122.245327,0.000010,122.245337,122.245327,122.245337,12224533.746176,0,-1.000000,""
59_updated,w0,python3action_chameleon_2000_neowise,0.997085,1,2000.000000,1,COMPLETED_SUCCESSFULLY,122.245357,24.200002,146.445360,121.248272,145.448275,6.010259,0,-1.000000,""
59,w0,python3action_chameleon_2000,0.000000,1,-1.000000,1,COMPLETED_SUCCESSFULLY,146.445375,0.000010,146.445385,146.445375,146.445385,14644538.500201,0,-1.000000,""
64_updated,w0,python3action_chameleon_2000_neowise,0.997085,1,2000.000000,1,COMPLETED_SUCCESSFULLY,146.445405,24.200002,170.645407,145.448320,169.648322,7.010261,0,-1.000000,""
64,w0,python3action_chameleon_2000,0.000000,1,-1.000000,1,COMPLETED_SUCCESSFULLY,170.645422,0.000010,170.645432,170.645422,170.645432,17064543.223189,0,-1.000000,""
30_updated,w0,python3action_chameleon_3000_yeti,0.997085,1,2000.000000,1,COMPLETED_SUCCESSFULLY,94.894899,93.000000,187.894899,93.897814,186.897814,2.009654,5,-1.000000,""
30,w0,python3action_chameleon_3000,0.000000,1,-1.000000,1,COMPLETED_SUCCESSFULLY,187.894915,0.000010,187.894925,187.894915,187.894925,18789492.450166,5,-1.000000,""
1_updated,w0,python3action_facedetection_SampleVideo_30mb_nova,0.997085,1,2000.000000,1,COMPLETED_SUCCESSFULLY,31.501858,160.399990,191.901848,30.504773,190.904763,1.190179,6,-1.000000,""
1,w0,python3action_facedetection_SampleVideo_30mb,0.000000,1,-1.000000,1,COMPLETED_SUCCESSFULLY,191.901863,0.000010,191.901873,191.901863,191.901873,19190187.323505,6,-1.000000,""
102_updated,w0,python3action_chameleon_2000_neowise,0.997085,1,2000.000000,1,COMPLETED_SUCCESSFULLY,170.645452,24.200002,194.845454,169.648367,193.848369,8.010262,0,-1.000000,""
102,w0,python3action_chameleon_2000,0.000000,1,-1.000000,1,COMPLETED_SUCCESSFULLY,194.845469,0.000010,194.845479,194.845469,194.845479,19484547.946176,0,-1.000000,""
48_updated,w0,python3action_pyaes_4000_troll,0.997085,1,2000.000000,1,COMPLETED_SUCCESSFULLY,104.203437,102.333333,206.536771,103.206352,205.539686,2.008531,4,-1.000000,""
48,w0,python3action_pyaes_4000,0.000000,1,-1.000000,1,COMPLETED_SUCCESSFULLY,206.536786,0.000010,206.536796,206.536786,206.536796,20653679.600201,4,-1.000000,""
44_updated,w0,python3action_facedetection_SampleVideo_50mb_taurus,0.997085,1,2000.000000,1,COMPLETED_SUCCESSFULLY,73.014585,134.600046,207.614631,72.017500,206.617546,1.535048,2,-1.000000,""
44,w0,python3action_facedetection_SampleVideo_50mb,0.000000,1,-1.000000,1,COMPLETED_SUCCESSFULLY,207.614646,0.000010,207.614656,207.614646,207.614656,20761465.644962,2,-1.000000,""
9_updated,w0,python3action_linpack_6000_orion,0.997085,1,2000.000000,1,COMPLETED_SUCCESSFULLY,112.763162,106.000000,218.763162,111.766077,217.766077,2.054397,11,-1.000000,""
9,w0,python3action_linpack_6000,0.000000,1,-1.000000,1,COMPLETED_SUCCESSFULLY,218.763177,0.000010,218.763187,218.763177,218.763187,21876318.725078,11,-1.000000,""
111_updated,w0,python3action_chameleon_2000_neowise,0.997085,1,2000.000000,1,COMPLETED_SUCCESSFULLY,194.845499,24.200002,219.045502,193.848414,218.048417,9.010264,0,-1.000000,""
111,w0,python3action_chameleon_2000,0.000000,1,-1.000000,1,COMPLETED_SUCCESSFULLY,219.045517,0.000010,219.045527,219.045517,219.045527,21904552.700201,0,-1.000000,""
136_updated,w0,python3action_chameleon_2000_neowise,0.997085,1,2000.000000,1,COMPLETED_SUCCESSFULLY,219.045547,24.200002,243.245549,218.048462,242.248464,10.010266,0,-1.000000,""
136,w0,python3action_chameleon_2000,0.000000,1,-1.000000,1,COMPLETED_SUCCESSFULLY,243.245564,0.000010,243.245574,243.245564,243.245574,24324557.423189,0,-1.000000,""
61_updated,w0,python3action_pyaes_3000_troll,0.997085,1,2000.000000,1,COMPLETED_SUCCESSFULLY,206.536816,57.166677,263.703493,205.539731,262.706408,4.595447,4,-1.000000,""
61,w0,python3action_pyaes_3000,0.000000,1,-1.000000,1,COMPLETED_SUCCESSFULLY,263.703508,0.000010,263.703518,263.703508,263.703518,26370351.800201,4,-1.000000,""
138_updated,w0,python3action_chameleon_2000_neowise,0.997085,1,2000.000000,1,COMPLETED_SUCCESSFULLY,243.245594,24.200002,267.445596,242.248509,266.448511,11.010268,0,-1.000000,""
138,w0,python3action_chameleon_2000,0.000000,1,-1.000000,1,COMPLETED_SUCCESSFULLY,267.445611,0.000010,267.445621,267.445611,267.445621,26744562.146176,0,-1.000000,""
36_updated,w0,python3action_chameleon_3000_yeti,0.997085,1,2000.000000,1,COMPLETED_SUCCESSFULLY,187.894945,93.000000,280.894945,186.897860,279.897860,3.009654,5,-1.000000,""
36,w0,python3action_chameleon_3000,0.000000,1,-1.000000,1,COMPLETED_SUCCESSFULLY,280.894960,0.000010,280.894970,280.894960,280.894970,28089497.000402,5,-1.000000,""
140_updated,w0,python3action_chameleon_2000_neowise,0.997085,1,2000.000000,1,COMPLETED_SUCCESSFULLY,267.445641,24.200002,291.645644,266.448556,290.648559,12.010270,0,-1.000000,""
140,w0,python3action_chameleon_2000,0.000000,1,-1.000000,1,COMPLETED_SUCCESSFULLY,291.645659,0.000010,291.645669,291.645659,291.645669,29164566.900201,0,-1.000000,""
142_updated,w0,python3action_chameleon_2000_neowise,0.997085,1,2000.000000,1,COMPLETED_SUCCESSFULLY,291.645689,24.200002,315.845691,290.648604,314.848606,13.010272,0,-1.000000,""
142,w0,python3action_chameleon_2000,0.000000,1,-1.000000,1,COMPLETED_SUCCESSFULLY,315.845706,0.000010,315.845716,315.845706,315.845716,31584571.623189,0,-1.000000,""
62_updated,w0,python3action_pyaes_3000_troll,0.997085,1,2000.000000,1,COMPLETED_SUCCESSFULLY,263.703538,57.166677,320.870215,262.706453,319.873130,5.595447,4,-1.000000,""
62,w0,python3action_pyaes_3000,0.000000,1,-1.000000,1,COMPLETED_SUCCESSFULLY,320.870230,0.000010,320.870240,320.870230,320.870240,32087024.000201,4,-1.000000,""
17_updated,w0,python3action_linpack_6000_orion,0.997085,1,2000.000000,1,COMPLETED_SUCCESSFULLY,218.763207,106.000000,324.763207,217.766122,323.766122,3.054397,11,-1.000000,""
17,w0,python3action_linpack_6000,0.000000,1,-1.000000,1,COMPLETED_SUCCESSFULLY,324.763222,0.000010,324.763232,324.763222,324.763232,32476323.225681,11,-1.000000,""
146_updated,w0,python3action_chameleon_2000_neowise,0.997085,1,2000.000000,1,COMPLETED_SUCCESSFULLY,315.845736,24.200002,340.045738,314.848651,339.048653,14.010274,0,-1.000000,""
146,w0,python3action_chameleon_2000,0.000000,1,-1.000000,1,COMPLETED_SUCCESSFULLY,340.045753,0.000010,340.045763,340.045753,340.045763,34004576.346176,0,-1.000000,""
80_updated,w0,python3action_facedetection_SampleVideo_50mb_taurus,0.997085,1,2000.000000,1,COMPLETED_SUCCESSFULLY,207.614676,134.600046,342.214723,206.617591,341.217638,2.535048,2,-1.000000,""
80,w0,python3action_facedetection_SampleVideo_50mb,0.000000,1,-1.000000,1,COMPLETED_SUCCESSFULLY,342.214738,0.000010,342.214748,342.214738,342.214748,34221474.800201,2,-1.000000,""
27_updated,w0,python3action_facedetection_SampleVideo_30mb_nova,0.997085,1,2000.000000,1,COMPLETED_SUCCESSFULLY,191.901893,160.399990,352.301883,190.904808,351.304798,2.190180,6,-1.000000,""
27,w0,python3action_facedetection_SampleVideo_30mb,0.000000,1,-1.000000,1,COMPLETED_SUCCESSFULLY,352.301898,0.000010,352.301908,352.301898,352.301908,35230190.847211,6,-1.000000,""
155_updated,w0,python3action_chameleon_2000_neowise,0.997085,1,2000.000000,1,COMPLETED_SUCCESSFULLY,340.045783,24.200002,364.245786,339.048698,363.248701,15.010276,0,-1.000000,""
155,w0,python3action_chameleon_2000,0.000000,1,-1.000000,1,COMPLETED_SUCCESSFULLY,364.245801,0.000010,364.245811,364.245801,364.245811,36424581.100201,0,-1.000000,""
88_updated,w0,python3action_chameleon_3000_yeti,0.997085,1,2000.000000,1,COMPLETED_SUCCESSFULLY,280.894990,93.000000,373.894990,279.897905,372.897905,4.009655,5,-1.000000,""
88,w0,python3action_chameleon_3000,0.000000,1,-1.000000,1,COMPLETED_SUCCESSFULLY,373.895005,0.000010,373.895015,373.895005,373.895015,37389501.501004,5,-1.000000,""
75_updated,w0,python3action_pyaes_3000_troll,0.997085,1,2000.000000,1,COMPLETED_SUCCESSFULLY,320.870260,57.166677,378.036937,319.873175,377.039852,6.595448,4,-1.000000,""
75,w0,python3action_pyaes_3000,0.000000,1,-1.000000,1,COMPLETED_SUCCESSFULLY,378.036952,0.000010,378.036962,378.036952,378.036962,37803696.200201,4,-1.000000,""
167_updated,w0,python3action_chameleon_2000_neowise,0.997085,1,2000.000000,1,COMPLETED_SUCCESSFULLY,364.245831,24.200002,388.445833,363.248746,387.448748,16.010277,0,-1.000000,""
167,w0,python3action_chameleon_2000,0.000000,1,-1.000000,1,COMPLETED_SUCCESSFULLY,388.445848,0.000010,388.445858,388.445848,388.445858,38844585.823189,0,-1.000000,""
179_updated,w0,python3action_chameleon_2000_neowise,0.997085,1,2000.000000,1,COMPLETED_SUCCESSFULLY,388.445878,24.200002,412.645880,387.448793,411.648795,17.010279,0,-1.000000,""
179,w0,python3action_chameleon_2000,0.000000,1,-1.000000,1,COMPLETED_SUCCESSFULLY,412.645895,0.000010,412.645905,412.645895,412.645905,41264590.546176,0,-1.000000,""
python3action_image_processing_job2_1,w0,python3action_image_processing,0.997085,1,2000.000000,1,COMPLETED_SUCCESSFULLY,412.645925,3.471546,416.117471,411.648840,415.120386,119.577966,0,-1.000000,""
20_updated,w0,python3action_linpack_6000_orion,0.997085,1,2000.000000,1,COMPLETED_SUCCESSFULLY,324.763252,106.000000,430.763252,323.766167,429.766167,4.054398,11,-1.000000,""
20,w0,python3action_linpack_6000,0.000000,1,-1.000000,1,COMPLETED_SUCCESSFULLY,430.763267,0.000010,430.763277,430.763267,430.763277,43076327.726283,11,-1.000000,""
2_updated,w0,python3action_imageprocessing_SampleImage_60mb_neowise,0.997085,1,2000.000000,1,COMPLETED_SUCCESSFULLY,416.117486,37.500000,453.617486,415.120401,452.620401,12.069877,0,-1.000000,""
2,w0,python3action_imageprocessing_SampleImage_60mb,0.000000,1,-1.000000,1,COMPLETED_SUCCESSFULLY,453.617501,0.000010,453.617511,453.617501,453.617511,45361751.127005,0,-1.000000,""
139_updated,w0,python3action_chameleon_3000_yeti,0.997085,1,2000.000000,1,COMPLETED_SUCCESSFULLY,373.895035,93.000000,466.895035,372.897950,465.897950,5.009655,5,-1.000000,""
139,w0,python3action_chameleon_3000,0.000000,1,-1.000000,1,COMPLETED_SUCCESSFULLY,466.895050,0.000010,466.895060,466.895050,466.895060,46689506.001607,5,-1.000000,""
85_updated,w0,python3action_facedetection_SampleVideo_50mb_taurus,0.997085,1,2000.000000,1,COMPLETED_SUCCESSFULLY,342.214768,134.600046,476.814814,341.217683,475.817729,3.535049,2,-1.000000,""
85,w0,python3action_facedetection_SampleVideo_50mb,0.000000,1,-1.000000,1,COMPLETED_SUCCESSFULLY,476.814829,0.000010,476.814839,476.814829,476.814839,47681483.913881,2,-1.000000,""
79_updated,w0,python3action_pyaes_4000_troll,0.997085,1,2000.000000,1,COMPLETED_SUCCESSFULLY,378.036982,102.333333,480.370315,377.039897,479.373230,4.684429,4,-1.000000,""
79,w0,python3action_pyaes_4000,0.000000,1,-1.000000,1,COMPLETED_SUCCESSFULLY,480.370330,0.000010,480.370340,480.370330,480.370340,48037034.034137,4,-1.000000,""
11_updated,w0,python3action_imageprocessing_SampleImage_60mb_neowise,0.997085,1,2000.000000,1,COMPLETED_SUCCESSFULLY,453.617531,37.500000,491.117531,452.620446,490.120446,13.069879,0,-1.000000,""
11,w0,python3action_imageprocessing_SampleImage_60mb,0.000000,1,-1.000000,1,COMPLETED_SUCCESSFULLY,491.117546,0.000010,491.117556,491.117546,491.117556,49111755.627607,0,-1.000000,""
32_updated,w0,python3action_facedetection_SampleVideo_30mb_nova,0.997085,1,2000.000000,1,COMPLETED_SUCCESSFULLY,352.301928,160.399990,512.701919,351.304843,511.704834,3.190180,6,-1.000000,""
32,w0,python3action_facedetection_SampleVideo_30mb,0.000000,1,-1.000000,1,COMPLETED_SUCCESSFULLY,512.701934,0.000010,512.701944,512.701934,512.701944,51270194.400201,6,-1.000000,""
13_updated,w0,python3action_imageprocessing_SampleImage_60mb_neowise,0.997085,1,2000.000000,1,COMPLETED_SUCCESSFULLY,491.117576,37.500000,528.617576,490.120491,527.620491,14.069880,0,-1.000000,""
13,w0,python3action_imageprocessing_SampleImage_60mb,0.000000,1,-1.000000,1,COMPLETED_SUCCESSFULLY,528.617591,0.000010,528.617601,528.617591,528.617601,52861760.128210,0,-1.000000,""
21_updated,w0,python3action_linpack_6000_orion,0.997085,1,2000.000000,1,COMPLETED_SUCCESSFULLY,430.763297,106.000000,536.763297,429.766212,535.766212,5.054398,11,-1.000000,""
21,w0,python3action_linpack_6000,0.000000,1,-1.000000,1,COMPLETED_SUCCESSFULLY,536.763312,0.000010,536.763322,536.763312,536.763322,53676332.226886,11,-1.000000,""
165_updated,w0,python3action_chameleon_3000_yeti,0.997085,1,2000.000000,1,COMPLETED_SUCCESSFULLY,466.895080,93.000000,559.895080,465.897995,558.897995,6.009656,5,-1.000000,""
165,w0,python3action_chameleon_3000,0.000000,1,-1.000000,1,COMPLETED_SUCCESSFULLY,559.895095,0.000010,559.895105,559.895095,559.895105,55989510.502209,5,-1.000000,""
46_updated,w0,python3action_imageprocessing_SampleImage_60mb_neowise,0.997085,1,2000.000000,1,COMPLETED_SUCCESSFULLY,528.617621,37.500000,566.117621,527.620536,565.120536,15.069881,0,-1.000000,""
46,w0,python3action_imageprocessing_SampleImage_60mb,0.000000,1,-1.000000,1,COMPLETED_SUCCESSFULLY,566.117636,0.000010,566.117646,566.117636,566.117646,56611764.628812,0,-1.000000,""
91_updated,w0,python3action_pyaes_4000_troll,0.997085,1,2000.000000,1,COMPLETED_SUCCESSFULLY,480.370360,102.333333,582.703694,479.373275,581.706609,5.684429,4,-1.000000,""
91,w0,python3action_pyaes_4000,0.000000,1,-1.000000,1,COMPLETED_SUCCESSFULLY,582.703709,0.000010,582.703719,582.703709,582.703719,58270371.900201,4,-1.000000,""
49_updated,w0,python3action_imageprocessing_SampleImage_60mb_neowise,0.997085,1,2000.000000,1,COMPLETED_SUCCESSFULLY,566.117666,37.500000,603.617666,565.120581,602.620581,16.069882,0,-1.000000,""
49,w0,python3action_imageprocessing_SampleImage_60mb,0.000000,1,-1.000000,1,COMPLETED_SUCCESSFULLY,603.617681,0.000010,603.617691,603.617681,603.617691,60361769.129415,0,-1.000000,""
97_updated,w0,python3action_facedetection_SampleVideo_50mb_taurus,0.997085,1,2000.000000,1,COMPLETED_SUCCESSFULLY,476.814859,134.600046,611.414905,475.817774,610.417820,4.535049,2,-1.000000,""
97,w0,python3action_facedetection_SampleVideo_50mb,0.000000,1,-1.000000,1,COMPLETED_SUCCESSFULLY,611.414920,0.000010,611.414930,611.414920,611.414930,61141493.027562,2,-1.000000,""
94_updated,w0,python3action_pyaes_3000_troll,0.997085,1,2000.000000,1,COMPLETED_SUCCESSFULLY,582.703739,57.166677,639.870416,581.706654,638.873331,11.175625,4,-1.000000,""
94,w0,python3action_pyaes_3000,0.000000,1,-1.000000,1,COMPLETED_SUCCESSFULLY,639.870431,0.000010,639.870441,639.870431,639.870441,63987044.100201,4,-1.000000,""
74_updated,w0,python3action_imageprocessing_SampleImage_60mb_neowise,0.997085,1,2000.000000,1,COMPLETED_SUCCESSFULLY,603.617711,37.500000,641.117711,602.620626,640.120626,17.069883,0,-1.000000,""
74,w0,python3action_imageprocessing_SampleImage_60mb,0.000000,1,-1.000000,1,COMPLETED_SUCCESSFULLY,641.117726,0.000010,641.117736,641.117726,641.117736,64111773.630017,0,-1.000000,""
45_updated,w0,python3action_linpack_6000_orion,0.997085,1,2000.000000,1,COMPLETED_SUCCESSFULLY,536.763342,106.000000,642.763342,535.766257,641.766257,6.054399,11,-1.000000,""
45,w0,python3action_linpack_6000,0.000000,1,-1.000000,1,COMPLETED_SUCCESSFULLY,642.763357,0.000010,642.763367,642.763357,642.763367,64276336.727488,11,-1.000000,""
168_updated,w0,python3action_chameleon_3000_yeti,0.997085,1,2000.000000,1,COMPLETED_SUCCESSFULLY,559.895125,93.000000,652.895125,558.898040,651.898040,7.009656,5,-1.000000,""
168,w0,python3action_chameleon_3000,0.000000,1,-1.000000,1,COMPLETED_SUCCESSFULLY,652.895140,0.000010,652.895150,652.895140,652.895150,65289515.002811,5,-1.000000,""
35_updated,w0,python3action_facedetection_SampleVideo_30mb_nova,0.997085,1,2000.000000,1,COMPLETED_SUCCESSFULLY,512.701964,160.399990,673.101954,511.704879,672.104869,4.190180,6,-1.000000,""
35,w0,python3action_facedetection_SampleVideo_30mb,0.000000,1,-1.000000,1,COMPLETED_SUCCESSFULLY,673.101969,0.000010,673.101979,673.101969,673.101979,67310197.923907,6,-1.000000,""
82_updated,w0,python3action_imageprocessing_SampleImage_60mb_neowise,0.997085,1,2000.000000,1,COMPLETED_SUCCESSFULLY,641.117756,37.500000,678.617756,640.120671,677.620671,18.069885,0,-1.000000,""
82,w0,python3action_imageprocessing_SampleImage_60mb,0.000000,1,-1.000000,1,COMPLETED_SUCCESSFULLY,678.617771,0.000010,678.617781,678.617771,678.617781,67861778.130619,0,-1.000000,""
101_updated,w0,python3action_pyaes_3000_troll,0.997085,1,2000.000000,1,COMPLETED_SUCCESSFULLY,639.870461,57.166677,697.037138,638.873376,696.040053,12.175626,4,-1.000000,""
101,w0,python3action_pyaes_3000,0.000000,1,-1.000000,1,COMPLETED_SUCCESSFULLY,697.037153,0.000010,697.037163,697.037153,697.037163,69703716.300201,4,-1.000000,""
98_updated,w0,python3action_imageprocessing_SampleImage_60mb_neowise,0.997085,1,2000.000000,1,COMPLETED_SUCCESSFULLY,678.617801,37.500000,716.117801,677.620716,715.120716,19.069886,0,-1.000000,""
98,w0,python3action_imageprocessing_SampleImage_60mb,0.000000,1,-1.000000,1,COMPLETED_SUCCESSFULLY,716.117816,0.000010,716.117826,716.117816,716.117826,71611782.631222,0,-1.000000,""
173_updated,w0,python3action_chameleon_3000_yeti,0.997085,1,2000.000000,1,COMPLETED_SUCCESSFULLY,652.895170,93.000000,745.895170,651.898085,744.898085,8.009657,5,-1.000000,""
173,w0,python3action_chameleon_3000,0.000000,1,-1.000000,1,COMPLETED_SUCCESSFULLY,745.895185,0.000010,745.895195,745.895185,745.895195,74589519.503414,5,-1.000000,""
103_updated,w0,python3action_facedetection_SampleVideo_50mb_taurus,0.997085,1,2000.000000,1,COMPLETED_SUCCESSFULLY,611.414950,134.600046,746.014996,610.417865,745.017911,5.535049,2,-1.000000,""
103,w0,python3action_facedetection_SampleVideo_50mb,0.000000,1,-1.000000,1,COMPLETED_SUCCESSFULLY,746.015011,0.000010,746.015021,746.015011,746.015021,74601502.141242,2,-1.000000,""
63_updated,w0,python3action_linpack_6000_orion,0.997085,1,2000.000000,1,COMPLETED_SUCCESSFULLY,642.763387,106.000000,748.763387,641.766302,747.766302,7.054399,11,-1.000000,""
63,w0,python3action_linpack_6000,0.000000,1,-1.000000,1,COMPLETED_SUCCESSFULLY,748.763402,0.000010,748.763412,748.763402,748.763412,74876341.228090,11,-1.000000,""
109_updated,w0,python3action_imageprocessing_SampleImage_60mb_neowise,0.997085,1,2000.000000,1,COMPLETED_SUCCESSFULLY,716.117846,37.500000,753.617846,715.120761,752.620761,20.069887,0,-1.000000,""
109,w0,python3action_imageprocessing_SampleImage_60mb,0.000000,1,-1.000000,1,COMPLETED_SUCCESSFULLY,753.617861,0.000010,753.617871,753.617861,753.617871,75361787.131824,0,-1.000000,""
175_updated,w0,python3action_imageprocessing_SampleImage_60mb_neowise,0.997085,1,2000.000000,1,COMPLETED_SUCCESSFULLY,753.617891,37.500000,791.117891,752.620806,790.120806,21.069888,0,-1.000000,""
175,w0,python3action_imageprocessing_SampleImage_60mb,0.000000,1,-1.000000,1,COMPLETED_SUCCESSFULLY,791.117906,0.000010,791.117916,791.117906,791.117916,79111791.632426,0,-1.000000,""
104_updated,w0,python3action_pyaes_4000_troll,0.997085,1,2000.000000,1,COMPLETED_SUCCESSFULLY,697.037183,102.333333,799.370516,696.040098,798.373431,7.801695,4,-1.000000,""
104,w0,python3action_pyaes_4000,0.000000,1,-1.000000,1,COMPLETED_SUCCESSFULLY,799.370531,0.000010,799.370541,799.370531,799.370541,79937054.134136,4,-1.000000,""
188_updated,w0,python3action_imageprocessing_SampleImage_60mb_neowise,0.997085,1,2000.000000,1,COMPLETED_SUCCESSFULLY,791.117936,37.500000,828.617936,790.120851,827.620851,22.069889,0,-1.000000,""
188,w0,python3action_imageprocessing_SampleImage_60mb,0.000000,1,-1.000000,1,COMPLETED_SUCCESSFULLY,828.617951,0.000010,828.617961,828.617951,828.617961,82861796.133029,0,-1.000000,""
57_updated,w0,python3action_facedetection_SampleVideo_30mb_nova,0.997085,1,2000.000000,1,COMPLETED_SUCCESSFULLY,673.101999,160.399990,833.501989,672.104914,832.504904,5.190181,6,-1.000000,""
57,w0,python3action_facedetection_SampleVideo_30mb,0.000000,1,-1.000000,1,COMPLETED_SUCCESSFULLY,833.502004,0.000010,833.502014,833.502004,833.502014,83350201.447613,6,-1.000000,""
177_updated,w0,python3action_chameleon_3000_yeti,0.997085,1,2000.000000,1,COMPLETED_SUCCESSFULLY,745.895215,93.000000,838.895215,744.898130,837.898130,9.009657,5,-1.000000,""
177,w0,python3action_chameleon_3000,0.000000,1,-1.000000,1,COMPLETED_SUCCESSFULLY,838.895230,0.000010,838.895240,838.895230,838.895240,83889524.004016,5,-1.000000,""
71_updated,w0,python3action_linpack_6000_orion,0.997085,1,2000.000000,1,COMPLETED_SUCCESSFULLY,748.763432,106.000000,854.763432,747.766347,853.766347,8.054400,11,-1.000000,""
71,w0,python3action_linpack_6000,0.000000,1,-1.000000,1,COMPLETED_SUCCESSFULLY,854.763447,0.000010,854.763457,854.763447,854.763457,85476345.728693,11,-1.000000,""
193_updated,w0,python3action_imageprocessing_SampleImage_60mb_neowise,0.997085,1,2000.000000,1,COMPLETED_SUCCESSFULLY,828.617981,37.500000,866.117981,827.620896,865.120896,23.069891,0,-1.000000,""
193,w0,python3action_imageprocessing_SampleImage_60mb,0.000000,1,-1.000000,1,COMPLETED_SUCCESSFULLY,866.117996,0.000010,866.118006,866.117996,866.118006,86611800.633631,0,-1.000000,""
python3action_modeltraining_job19_1,w0,python3action_modeltraining_reduced_0.94,0.997085,1,2000.000000,1,COMPLETED_SUCCESSFULLY,866.118026,0.204209,866.322235,865.120941,865.325150,4237.457431,0,-1.000000,""
113_updated,w0,python3action_facedetection_SampleVideo_50mb_taurus,0.997085,1,2000.000000,1,COMPLETED_SUCCESSFULLY,746.015041,134.600046,880.615088,745.017956,879.618003,6.535050,2,-1.000000,""
113,w0,python3action_facedetection_SampleVideo_50mb,0.000000,1,-1.000000,1,COMPLETED_SUCCESSFULLY,880.615103,0.000010,880.615113,880.615103,880.615113,88061511.300201,2,-1.000000,""
19_updated,w0,python3action_modeltraining_reviews50mb_neowise,0.997085,1,2000.000000,1,COMPLETED_SUCCESSFULLY,866.322250,22.799998,889.122248,865.325165,888.125163,38.952862,0,-1.000000,""
19,w0,python3action_modeltraining_reviews50mb,0.000000,1,-1.000000,1,COMPLETED_SUCCESSFULLY,889.122263,0.000010,889.122273,889.122263,889.122273,88912227.300201,0,-1.000000,""
112_updated,w0,python3action_pyaes_4000_troll,0.997085,1,2000.000000,1,COMPLETED_SUCCESSFULLY,799.370561,102.333333,901.703895,798.373476,900.706810,8.801695,4,-1.000000,""
112,w0,python3action_pyaes_4000,0.000000,1,-1.000000,1,COMPLETED_SUCCESSFULLY,901.703910,0.000010,901.703920,901.703910,901.703920,90170392.000201,4,-1.000000,""
23_updated,w0,python3action_modeltraining_reviews50mb_neowise,0.997085,1,2000.000000,1,COMPLETED_SUCCESSFULLY,889.122293,22.799998,911.922291,888.125208,910.925206,39.952864,0,-1.000000,""
23,w0,python3action_modeltraining_reviews50mb,0.000000,1,-1.000000,1,COMPLETED_SUCCESSFULLY,911.922306,0.000010,911.922316,911.922306,911.922316,91192231.600201,0,-1.000000,""
186_updated,w0,python3action_chameleon_3000_yeti,0.997085,1,2000.000000,1,COMPLETED_SUCCESSFULLY,838.895260,93.000000,931.895260,837.898175,930.898175,10.009658,5,-1.000000,""
186,w0,python3action_chameleon_3000,0.000000,1,-1.000000,1,COMPLETED_SUCCESSFULLY,931.895275,0.000010,931.895285,931.895275,931.895285,93189528.504619,5,-1.000000,""
python3action_pyaes_job129_4,w0,python3action_pyaes_reduced_0.85,0.997085,1,2000.000000,1,COMPLETED_SUCCESSFULLY,931.895305,0.133904,932.029209,930.898220,931.032124,6952.973209,5,-1.000000,""
28_updated,w0,python3action_modeltraining_reviews50mb_neowise,0.997085,1,2000.000000,1,COMPLETED_SUCCESSFULLY,911.922336,22.799998,934.722334,910.925251,933.725249,40.952866,0,-1.000000,""
28,w0,python3action_modeltraining_reviews50mb,0.000000,1,-1.000000,1,COMPLETED_SUCCESSFULLY,934.722349,0.000010,934.722359,934.722349,934.722359,93472235.900201,0,-1.000000,""
38_updated,w0,python3action_modeltraining_reviews50mb_neowise,0.997085,1,2000.000000,1,COMPLETED_SUCCESSFULLY,934.722379,22.799998,957.522377,933.725294,956.525292,41.952868,0,-1.000000,""
38,w0,python3action_modeltraining_reviews50mb,0.000000,1,-1.000000,1,COMPLETED_SUCCESSFULLY,957.522392,0.000010,957.522402,957.522392,957.522402,95752240.200201,0,-1.000000,""
117_updated,w0,python3action_pyaes_3000_troll,0.997085,1,2000.000000,1,COMPLETED_SUCCESSFULLY,901.703940,57.166677,958.870617,900.706855,957.873532,16.755802,4,-1.000000,""
117,w0,python3action_pyaes_3000,0.000000,1,-1.000000,1,COMPLETED_SUCCESSFULLY,958.870632,0.000010,958.870642,958.870632,958.870642,95887064.200201,4,-1.000000,""
77_updated,w0,python3action_linpack_6000_orion,0.997085,1,2000.000000,1,COMPLETED_SUCCESSFULLY,854.763477,106.000000,960.763477,853.766392,959.766392,9.054400,11,-1.000000,""
77,w0,python3action_linpack_6000,0.000000,1,-1.000000,1,COMPLETED_SUCCESSFULLY,960.763492,0.000010,960.763502,960.763492,960.763502,96076350.229295,11,-1.000000,""
41_updated,w0,python3action_modeltraining_reviews50mb_neowise,0.997085,1,2000.000000,1,COMPLETED_SUCCESSFULLY,957.522422,22.799998,980.322420,956.525337,979.325335,42.952870,0,-1.000000,""
41,w0,python3action_modeltraining_reviews50mb,0.000000,1,-1.000000,1,COMPLETED_SUCCESSFULLY,980.322435,0.000010,980.322445,980.322435,980.322445,98032244.500201,0,-1.000000,""
65_updated,w0,python3action_facedetection_SampleVideo_30mb_nova,0.997085,1,2000.000000,1,COMPLETED_SUCCESSFULLY,833.502034,160.399990,993.902025,832.504949,992.904940,6.190181,6,-1.000000,""
65,w0,python3action_facedetection_SampleVideo_30mb,0.000000,1,-1.000000,1,COMPLETED_SUCCESSFULLY,993.902040,0.000010,993.902050,993.902040,993.902050,99390205.000201,6,-1.000000,""
51_updated,w0,python3action_modeltraining_reviews50mb_neowise,0.997085,1,2000.000000,1,COMPLETED_SUCCESSFULLY,980.322465,22.799998,1003.122463,979.325380,1002.125378,43.952872,0,-1.000000,""
51,w0,python3action_modeltraining_reviews50mb,0.000000,1,-1.000000,1,COMPLETED_SUCCESSFULLY,1003.122478,0.000010,1003.122488,1003.122478,1003.122488,100312248.800201,0,-1.000000,""
120_updated,w0,python3action_facedetection_SampleVideo_50mb_taurus,0.997085,1,2000.000000,1,COMPLETED_SUCCESSFULLY,880.615133,134.600046,1015.215179,879.618048,1014.218094,7.535050,2,-1.000000,""
120,w0,python3action_facedetection_SampleVideo_50mb,0.000000,1,-1.000000,1,COMPLETED_SUCCESSFULLY,1015.215194,0.000010,1015.215204,1015.215194,1015.215204,101521520.413881,2,-1.000000,""
143_updated,w0,python3action_pyaes_3000_troll,0.997085,1,2000.000000,1,COMPLETED_SUCCESSFULLY,958.870662,57.166677,1016.037339,957.873577,1015.040254,17.755803,4,-1.000000,""
143,w0,python3action_pyaes_3000,0.000000,1,-1.000000,1,COMPLETED_SUCCESSFULLY,1016.037354,0.000010,1016.037364,1016.037354,1016.037364,101603736.400201,4,-1.000000,""
129_updated,w0,python3action_pyaes_4000_yeti,0.997085,1,2000.000000,1,COMPLETED_SUCCESSFULLY,932.029224,105.500010,1037.529234,931.032139,1036.532149,9.824948,5,-1.000000,""
129,w0,python3action_pyaes_4000,0.000000,1,-1.000000,1,COMPLETED_SUCCESSFULLY,1037.529249,0.000010,1037.529259,1037.529249,1037.529259,103752925.943855,5,-1.000000,""
58_updated,w0,python3action_modeltraining_reviews100mb_neowise,0.997085,1,2000.000000,1,COMPLETED_SUCCESSFULLY,1003.122508,43.399999,1046.522507,1002.125423,1045.525422,24.090448,0,-1.000000,""
58,w0,python3action_modeltraining_reviews100mb,0.000000,1,-1.000000,1,COMPLETED_SUCCESSFULLY,1046.522522,0.000010,1046.522532,1046.522522,1046.522532,104652253.200201,0,-1.000000,""
84_updated,w0,python3action_linpack_6000_orion,0.997085,1,2000.000000,1,COMPLETED_SUCCESSFULLY,960.763522,106.000000,1066.763522,959.766437,1065.766437,10.054400,11,-1.000000,""
84,w0,python3action_linpack_6000,0.000000,1,-1.000000,1,COMPLETED_SUCCESSFULLY,1066.763537,0.000010,1066.763547,1066.763537,1066.763547,106676354.729897,11,-1.000000,""
66_updated,w0,python3action_modeltraining_reviews50mb_neowise,0.997085,1,2000.000000,1,COMPLETED_SUCCESSFULLY,1046.522552,22.799998,1069.322550,1045.525467,1068.325465,46.856385,0,-1.000000,""
66,w0,python3action_modeltraining_reviews50mb,0.000000,1,-1.000000,1,COMPLETED_SUCCESSFULLY,1069.322565,0.000010,1069.322575,1069.322565,1069.322575,106932257.500201,0,-1.000000,""
158_updated,w0,python3action_pyaes_3000_troll,0.997085,1,2000.000000,1,COMPLETED_SUCCESSFULLY,1016.037384,57.166677,1073.204061,1015.040299,1072.206976,18.755804,4,-1.000000,""
158,w0,python3action_pyaes_3000,0.000000,1,-1.000000,1,COMPLETED_SUCCESSFULLY,1073.204076,0.000010,1073.204086,1073.204076,1073.204086,107320408.600201,4,-1.000000,""
68_updated,w0,python3action_modeltraining_reviews50mb_neowise,0.997085,1,2000.000000,1,COMPLETED_SUCCESSFULLY,1069.322595,22.799998,1092.122593,1068.325510,1091.125508,47.856387,0,-1.000000,""
68,w0,python3action_modeltraining_reviews50mb,0.000000,1,-1.000000,1,COMPLETED_SUCCESSFULLY,1092.122608,0.000010,1092.122618,1092.122608,1092.122618,109212261.800201,0,-1.000000,""
69_updated,w0,python3action_modeltraining_reviews100mb_neowise,0.997085,1,2000.000000,1,COMPLETED_SUCCESSFULLY,1092.122638,43.399999,1135.522637,1091.125553,1134.525552,26.141142,0,-1.000000,""
69,w0,python3action_modeltraining_reviews100mb,0.000000,1,-1.000000,1,COMPLETED_SUCCESSFULLY,1135.522652,0.000010,1135.522662,1135.522652,1135.522662,113552266.200201,0,-1.000000,""
150_updated,w0,python3action_pyaes_4000_yeti,0.997085,1,2000.000000,1,COMPLETED_SUCCESSFULLY,1037.529279,105.500010,1143.029290,1036.532194,1142.032205,10.824949,5,-1.000000,""
150,w0,python3action_pyaes_4000,0.000000,1,-1.000000,1,COMPLETED_SUCCESSFULLY,1143.029305,0.000010,1143.029315,1143.029305,1143.029315,114302931.500201,5,-1.000000,""
131_updated,w0,python3action_facedetection_SampleVideo_50mb_taurus,0.997085,1,2000.000000,1,COMPLETED_SUCCESSFULLY,1015.215224,134.600046,1149.815270,1014.218139,1148.818185,8.535050,2,-1.000000,""
131,w0,python3action_facedetection_SampleVideo_50mb,0.000000,1,-1.000000,1,COMPLETED_SUCCESSFULLY,1149.815285,0.000010,1149.815295,1149.815285,1149.815295,114981529.527562,2,-1.000000,""
125_updated,w0,python3action_facedetection_SampleVideo_30mb_nova,0.997085,1,2000.000000,1,COMPLETED_SUCCESSFULLY,993.902070,160.399990,1154.302060,992.904985,1153.304975,7.190181,6,-1.000000,""
125,w0,python3action_facedetection_SampleVideo_30mb,0.000000,1,-1.000000,1,COMPLETED_SUCCESSFULLY,1154.302075,0.000010,1154.302085,1154.302075,1154.302085,115430208.523907,6,-1.000000,""
90_updated,w0,python3action_linpack_6000_orion,0.997085,1,2000.000000,1,COMPLETED_SUCCESSFULLY,1066.763567,106.000000,1172.763567,1065.766482,1171.766482,11.054401,11,-1.000000,""
90,w0,python3action_linpack_6000,0.000000,1,-1.000000,1,COMPLETED_SUCCESSFULLY,1172.763582,0.000010,1172.763592,1172.763582,1172.763592,117276359.230500,11,-1.000000,""
166_updated,w0,python3action_pyaes_4000_troll,0.997085,1,2000.000000,1,COMPLETED_SUCCESSFULLY,1073.204106,102.333333,1175.537439,1072.207021,1174.540354,11.477593,4,-1.000000,""
166,w0,python3action_pyaes_4000,0.000000,1,-1.000000,1,COMPLETED_SUCCESSFULLY,1175.537454,0.000010,1175.537464,1175.537454,1175.537464,117553746.434136,4,-1.000000,""
72_updated,w0,python3action_modeltraining_reviews100mb_neowise,0.997085,1,2000.000000,1,COMPLETED_SUCCESSFULLY,1135.522682,43.399999,1178.922681,1134.525597,1177.925596,27.141143,0,-1.000000,""
72,w0,python3action_modeltraining_reviews100mb,0.000000,1,-1.000000,1,COMPLETED_SUCCESSFULLY,1178.922696,0.000010,1178.922706,1178.922696,1178.922706,117892270.600201,0,-1.000000,""
87_updated,w0,python3action_modeltraining_reviews50mb_neowise,0.997085,1,2000.000000,1,COMPLETED_SUCCESSFULLY,1178.922726,22.799998,1201.722724,1177.925641,1200.725639,52.663410,0,-1.000000,""
87,w0,python3action_modeltraining_reviews50mb,0.000000,1,-1.000000,1,COMPLETED_SUCCESSFULLY,1201.722739,0.000010,1201.722749,1201.722739,1201.722749,120172274.900201,0,-1.000000,""
174_updated,w0,python3action_pyaes_3000_troll,0.997085,1,2000.000000,1,COMPLETED_SUCCESSFULLY,1175.537484,57.166677,1232.704161,1174.540399,1231.707076,21.545893,4,-1.000000,""
174,w0,python3action_pyaes_3000,0.000000,1,-1.000000,1,COMPLETED_SUCCESSFULLY,1232.704176,0.000010,1232.704186,1232.704176,1232.704186,123270418.600201,4,-1.000000,""
107_updated,w0,python3action_modeltraining_reviews100mb_neowise,0.997085,1,2000.000000,1,COMPLETED_SUCCESSFULLY,1201.722769,43.399999,1245.122768,1200.725684,1244.125683,28.666491,0,-1.000000,""
107,w0,python3action_modeltraining_reviews100mb,0.000000,1,-1.000000,1,COMPLETED_SUCCESSFULLY,1245.122783,0.000010,1245.122793,1245.122783,1245.122793,124512279.300201,0,-1.000000,""
195_updated,w0,python3action_pyaes_4000_yeti,0.997085,1,2000.000000,1,COMPLETED_SUCCESSFULLY,1143.029335,105.500010,1248.529345,1142.032250,1247.532260,11.824949,5,-1.000000,""
195,w0,python3action_pyaes_4000,0.000000,1,-1.000000,1,COMPLETED_SUCCESSFULLY,1248.529360,0.000010,1248.529370,1248.529360,1248.529370,124852937.021982,5,-1.000000,""
108_updated,w0,python3action_modeltraining_reviews50mb_neowise,0.997085,1,2000.000000,1,COMPLETED_SUCCESSFULLY,1245.122813,22.799998,1267.922811,1244.125728,1266.925726,55.566923,0,-1.000000,""
108,w0,python3action_modeltraining_reviews50mb,0.000000,1,-1.000000,1,COMPLETED_SUCCESSFULLY,1267.922826,0.000010,1267.922836,1267.922826,1267.922836,126792283.600201,0,-1.000000,""
128_updated,w0,python3action_linpack_6000_orion,0.997085,1,2000.000000,1,COMPLETED_SUCCESSFULLY,1172.763612,106.000000,1278.763612,1171.766527,1277.766527,12.054401,11,-1.000000,""
128,w0,python3action_linpack_6000,0.000000,1,-1.000000,1,COMPLETED_SUCCESSFULLY,1278.763627,0.000010,1278.763637,1278.763627,1278.763637,127876363.731102,11,-1.000000,""
135_updated,w0,python3action_facedetection_SampleVideo_50mb_taurus,0.997085,1,2000.000000,1,COMPLETED_SUCCESSFULLY,1149.815315,134.600046,1284.415361,1148.818230,1283.418276,9.535051,2,-1.000000,""
135,w0,python3action_facedetection_SampleVideo_50mb,0.000000,1,-1.000000,1,COMPLETED_SUCCESSFULLY,1284.415376,0.000010,1284.415386,1284.415376,1284.415386,128441538.641242,2,-1.000000,""
115_updated,w0,python3action_modeltraining_reviews100mb_neowise,0.997085,1,2000.000000,1,COMPLETED_SUCCESSFULLY,1267.922856,43.399999,1311.322855,1266.925771,1310.325770,30.191839,0,-1.000000,""
115,w0,python3action_modeltraining_reviews100mb,0.000000,1,-1.000000,1,COMPLETED_SUCCESSFULLY,1311.322870,0.000010,1311.322880,1311.322870,1311.322880,131132288.000201,0,-1.000000,""
134_updated,w0,python3action_facedetection_SampleVideo_30mb_nova,0.997085,1,2000.000000,1,COMPLETED_SUCCESSFULLY,1154.302105,160.399990,1314.702095,1153.305020,1313.705010,8.190181,6,-1.000000,""
134,w0,python3action_facedetection_SampleVideo_30mb,0.000000,1,-1.000000,1,COMPLETED_SUCCESSFULLY,1314.702110,0.000010,1314.702120,1314.702110,1314.702120,131470212.047613,6,-1.000000,""
176_updated,w0,python3action_pyaes_4000_troll,0.997085,1,2000.000000,1,COMPLETED_SUCCESSFULLY,1232.704206,102.333333,1335.037539,1231.707121,1334.040454,13.036226,4,-1.000000,""
176,w0,python3action_pyaes_4000,0.000000,1,-1.000000,1,COMPLETED_SUCCESSFULLY,1335.037554,0.000010,1335.037564,1335.037554,1335.037564,133503756.434137,4,-1.000000,""
124_updated,w0,python3action_modeltraining_reviews100mb_neowise,0.997085,1,2000.000000,1,COMPLETED_SUCCESSFULLY,1311.322900,43.399999,1354.722899,1310.325815,1353.725814,31.191840,0,-1.000000,""
124,w0,python3action_modeltraining_reviews100mb,0.000000,1,-1.000000,1,COMPLETED_SUCCESSFULLY,1354.722914,0.000010,1354.722924,1354.722914,1354.722924,135472292.400201,0,-1.000000,""
178_updated,w0,python3action_linpack_6000_orion,0.997085,1,2000.000000,1,COMPLETED_SUCCESSFULLY,1278.763657,106.000000,1384.763657,1277.766572,1383.766572,13.054402,11,-1.000000,""
178,w0,python3action_linpack_6000,0.000000,1,-1.000000,1,COMPLETED_SUCCESSFULLY,1384.763672,0.000010,1384.763682,1384.763672,1384.763682,138476368.231704,11,-1.000000,""
190_updated,w0,python3action_pyaes_3000_troll,0.997085,1,2000.000000,1,COMPLETED_SUCCESSFULLY,1335.037584,57.166677,1392.204261,1334.040499,1391.207176,24.335981,4,-1.000000,""
190,w0,python3action_pyaes_3000,0.000000,1,-1.000000,1,COMPLETED_SUCCESSFULLY,1392.204276,0.000010,1392.204286,1392.204276,1392.204286,139220428.600201,4,-1.000000,""
149_updated,w0,python3action_modeltraining_reviews100mb_neowise,0.997085,1,2000.000000,1,COMPLETED_SUCCESSFULLY,1354.722944,43.399999,1398.122943,1353.725859,1397.125858,32.191841,0,-1.000000,""
149,w0,python3action_modeltraining_reviews100mb,0.000000,1,-1.000000,1,COMPLETED_SUCCESSFULLY,1398.122958,0.000010,1398.122968,1398.122958,1398.122968,139812296.800201,0,-1.000000,""
141_updated,w0,python3action_facedetection_SampleVideo_50mb_taurus,0.997085,1,2000.000000,1,COMPLETED_SUCCESSFULLY,1284.415406,134.600046,1419.015453,1283.418321,1418.018368,10.535051,2,-1.000000,""
141,w0,python3action_facedetection_SampleVideo_50mb,0.000000,1,-1.000000,1,COMPLETED_SUCCESSFULLY,1419.015468,0.000010,1419.015478,1419.015468,1419.015478,141901547.800201,2,-1.000000,""
154_updated,w0,python3action_modeltraining_reviews50mb_neowise,0.997085,1,2000.000000,1,COMPLETED_SUCCESSFULLY,1398.122988,22.799998,1420.922986,1397.125903,1419.925901,62.277458,0,-1.000000,""
154,w0,python3action_modeltraining_reviews50mb,0.000000,1,-1.000000,1,COMPLETED_SUCCESSFULLY,1420.923001,0.000010,1420.923011,1420.923001,1420.923011,142092301.100201,0,-1.000000,""
196_updated,w0,python3action_pyaes_3000_troll,0.997085,1,2000.000000,1,COMPLETED_SUCCESSFULLY,1392.204306,57.166677,1449.370983,1391.207221,1448.373898,25.335982,4,-1.000000,""
196,w0,python3action_pyaes_3000,0.000000,1,-1.000000,1,COMPLETED_SUCCESSFULLY,1449.370998,0.000010,1449.371008,1449.370998,1449.371008,144937100.800201,4,-1.000000,""
157_updated,w0,python3action_modeltraining_reviews100mb_neowise,0.997085,1,2000.000000,1,COMPLETED_SUCCESSFULLY,1420.923031,43.399999,1464.323030,1419.925946,1463.325945,33.717189,0,-1.000000,""
157,w0,python3action_modeltraining_reviews100mb,0.000000,1,-1.000000,1,COMPLETED_SUCCESSFULLY,1464.323045,0.000010,1464.323055,1464.323045,1464.323055,146432305.500201,0,-1.000000,""
137_updated,w0,python3action_facedetection_SampleVideo_30mb_nova,0.997085,1,2000.000000,1,COMPLETED_SUCCESSFULLY,1314.702140,160.399990,1475.102131,1313.705055,1474.105046,9.190182,6,-1.000000,""
137,w0,python3action_facedetection_SampleVideo_30mb,0.000000,1,-1.000000,1,COMPLETED_SUCCESSFULLY,1475.102146,0.000010,1475.102156,1475.102146,1475.102156,147510215.600201,6,-1.000000,""
192_updated,w0,python3action_linpack_6000_orion,0.997085,1,2000.000000,1,COMPLETED_SUCCESSFULLY,1384.763702,106.000000,1490.763702,1383.766617,1489.766617,14.054402,11,-1.000000,""
192,w0,python3action_linpack_6000,0.000000,1,-1.000000,1,COMPLETED_SUCCESSFULLY,1490.763717,0.000010,1490.763727,1490.763717,1490.763727,149076372.732307,11,-1.000000,""
189_updated,w0,python3action_modeltraining_reviews100mb_neowise,0.997085,1,2000.000000,1,COMPLETED_SUCCESSFULLY,1464.323075,43.399999,1507.723074,1463.325990,1506.725989,34.717190,0,-1.000000,""
189,w0,python3action_modeltraining_reviews100mb,0.000000,1,-1.000000,1,COMPLETED_SUCCESSFULLY,1507.723089,0.000010,1507.723099,1507.723089,1507.723099,150772309.900201,0,-1.000000,""
194_updated,w0,python3action_modeltraining_reviews100mb_neowise,0.997085,1,2000.000000,1,COMPLETED_SUCCESSFULLY,1507.723119,43.399999,1551.123118,1506.726034,1550.126033,35.717191,0,-1.000000,""
194,w0,python3action_modeltraining_reviews100mb,0.000000,1,-1.000000,1,COMPLETED_SUCCESSFULLY,1551.123133,0.000010,1551.123143,1551.123133,1551.123143,155112314.300201,0,-1.000000,""
151_updated,w0,python3action_facedetection_SampleVideo_50mb_taurus,0.997085,1,2000.000000,1,COMPLETED_SUCCESSFULLY,1419.015498,134.600046,1553.615544,1418.018413,1552.618459,11.535051,2,-1.000000,""
151,w0,python3action_facedetection_SampleVideo_50mb,0.000000,1,-1.000000,1,COMPLETED_SUCCESSFULLY,1553.615559,0.000010,1553.615569,1553.615559,1553.615569,155361556.913881,2,-1.000000,""
197_updated,w0,python3action_modeltraining_reviews100mb_neowise,0.997085,1,2000.000000,1,COMPLETED_SUCCESSFULLY,1551.123163,43.399999,1594.523162,1550.126078,1593.526077,36.717192,0,-1.000000,""
197,w0,python3action_modeltraining_reviews100mb,0.000000,1,-1.000000,1,COMPLETED_SUCCESSFULLY,1594.523177,0.000010,1594.523187,1594.523177,1594.523187,159452318.700201,0,-1.000000,""
148_updated,w0,python3action_facedetection_SampleVideo_30mb_nova,0.997085,1,2000.000000,1,COMPLETED_SUCCESSFULLY,1475.102176,160.399990,1635.502166,1474.105091,1634.505081,10.190182,6,-1.000000,""
148,w0,python3action_facedetection_SampleVideo_30mb,0.000000,1,-1.000000,1,COMPLETED_SUCCESSFULLY,1635.502181,0.000010,1635.502191,1635.502181,1635.502191,163550219.123907,6,-1.000000,""
159_updated,w0,python3action_facedetection_SampleVideo_50mb_taurus,0.997085,1,2000.000000,1,COMPLETED_SUCCESSFULLY,1553.615589,134.600046,1688.215635,1552.618504,1687.218550,12.535052,2,-1.000000,""
159,w0,python3action_facedetection_SampleVideo_50mb,0.000000,1,-1.000000,1,COMPLETED_SUCCESSFULLY,1688.215650,0.000010,1688.215660,1688.215650,1688.215660,168821566.027562,2,-1.000000,""
184_updated,w0,python3action_facedetection_SampleVideo_30mb_nova,0.997085,1,2000.000000,1,COMPLETED_SUCCESSFULLY,1635.502211,160.399990,1795.902201,1634.505126,1794.905116,11.190182,6,-1.000000,""
184,w0,python3action_facedetection_SampleVideo_30mb,0.000000,1,-1.000000,1,COMPLETED_SUCCESSFULLY,1795.902216,0.000010,1795.902226,1795.902216,1795.902226,179590222.647613,6,-1.000000,""
python3action_floatoperation_job10_5,w0,python3action_floatoperation,0.997085,1,2000.000000,1,COMPLETED_SUCCESSFULLY,1795.902246,2.439945,1798.342192,1794.905161,1797.345107,736.633363,6,-1.000000,""
170_updated,w0,python3action_facedetection_SampleVideo_50mb_taurus,0.997085,1,2000.000000,1,COMPLETED_SUCCESSFULLY,1688.215680,134.600046,1822.815726,1687.218595,1821.818641,13.535052,2,-1.000000,""
170,w0,python3action_facedetection_SampleVideo_50mb,0.000000,1,-1.000000,1,COMPLETED_SUCCESSFULLY,1822.815741,0.000010,1822.815751,1822.815741,1822.815751,182281575.141242,2,-1.000000,""
python3action_image_processing_job5_2,w0,python3action_image_processing_reduced_0.86,0.997085,1,2000.000000,1,COMPLETED_SUCCESSFULLY,1822.815771,9.731413,1832.547184,1821.818686,1831.550099,188.210091,2,-1.000000,""
5_updated,w0,python3action_imageprocessing_SampleImage_40mb_taurus,0.997085,1,2000.000000,1,COMPLETED_SUCCESSFULLY,1832.547199,32.600046,1865.147245,1831.550114,1864.150160,57.182439,2,-1.000000,""
5,w0,python3action_imageprocessing_SampleImage_40mb,0.000000,1,-1.000000,1,COMPLETED_SUCCESSFULLY,1865.147260,0.000010,1865.147270,1865.147260,1865.147270,186514727.043107,2,-1.000000,""
7_updated,w0,python3action_imageprocessing_SampleImage_40mb_taurus,0.997085,1,2000.000000,1,COMPLETED_SUCCESSFULLY,1865.147290,32.600046,1897.747337,1864.150205,1896.750252,58.182441,2,-1.000000,""
7,w0,python3action_imageprocessing_SampleImage_40mb,0.000000,1,-1.000000,1,COMPLETED_SUCCESSFULLY,1897.747352,0.000010,1897.747362,1897.747352,1897.747362,189774736.200201,2,-1.000000,""
14_updated,w0,python3action_imageprocessing_SampleImage_40mb_taurus,0.997085,1,2000.000000,1,COMPLETED_SUCCESSFULLY,1897.747382,32.600046,1930.347428,1896.750297,1929.350343,59.182442,2,-1.000000,""
14,w0,python3action_imageprocessing_SampleImage_40mb,0.000000,1,-1.000000,1,COMPLETED_SUCCESSFULLY,1930.347443,0.000010,1930.347453,1930.347443,1930.347453,193034745.313881,2,-1.000000,""
10_updated,w0,python3action_floatoperation_200000000_nova,0.997085,1,2000.000000,1,COMPLETED_SUCCESSFULLY,1798.342207,135.399990,1933.742197,1797.345122,1932.745112,14.274337,6,-1.000000,""
10,w0,python3action_floatoperation_200000000,0.000000,1,-1.000000,1,COMPLETED_SUCCESSFULLY,1933.742212,0.000010,1933.742222,1933.742212,1933.742222,193374222.223505,6,-1.000000,""
18_updated,w0,python3action_imageprocessing_SampleImage_40mb_taurus,0.997085,1,2000.000000,1,COMPLETED_SUCCESSFULLY,1930.347473,32.600046,1962.947519,1929.350388,1961.950434,60.182443,2,-1.000000,""
18,w0,python3action_imageprocessing_SampleImage_40mb,0.000000,1,-1.000000,1,COMPLETED_SUCCESSFULLY,1962.947534,0.000010,1962.947544,1962.947534,1962.947544,196294754.427562,2,-1.000000,""
22_updated,w0,python3action_imageprocessing_SampleImage_40mb_taurus,0.997085,1,2000.000000,1,COMPLETED_SUCCESSFULLY,1962.947564,32.600046,1995.547610,1961.950479,1994.550525,61.182445,2,-1.000000,""
22,w0,python3action_imageprocessing_SampleImage_40mb,0.000000,1,-1.000000,1,COMPLETED_SUCCESSFULLY,1995.547625,0.000010,1995.547635,1995.547625,1995.547635,199554763.541242,2,-1.000000,""
26_updated,w0,python3action_imageprocessing_SampleImage_40mb_taurus,0.997085,1,2000.000000,1,COMPLETED_SUCCESSFULLY,1995.547655,32.600046,2028.147702,1994.550570,2027.150617,62.182446,2,-1.000000,""
26,w0,python3action_imageprocessing_SampleImage_40mb,0.000000,1,-1.000000,1,COMPLETED_SUCCESSFULLY,2028.147717,0.000010,2028.147727,2028.147717,2028.147727,202814772.700201,2,-1.000000,""
60_updated,w0,python3action_imageprocessing_SampleImage_40mb_taurus,0.997085,1,2000.000000,1,COMPLETED_SUCCESSFULLY,2028.147747,32.600046,2060.747793,2027.150662,2059.750708,63.182448,2,-1.000000,""
60,w0,python3action_imageprocessing_SampleImage_40mb,0.000000,1,-1.000000,1,COMPLETED_SUCCESSFULLY,2060.747808,0.000010,2060.747818,2060.747808,2060.747818,206074781.813881,2,-1.000000,""
34_updated,w0,python3action_floatoperation_200000000_nova,0.997085,1,2000.000000,1,COMPLETED_SUCCESSFULLY,1933.742242,135.399990,2069.142232,1932.745157,2068.145147,15.274337,6,-1.000000,""
34,w0,python3action_floatoperation_200000000,0.000000,1,-1.000000,1,COMPLETED_SUCCESSFULLY,2069.142247,0.000010,2069.142257,2069.142247,2069.142257,206914225.747211,6,-1.000000,""
81_updated,w0,python3action_imageprocessing_SampleImage_40mb_taurus,0.997085,1,2000.000000,1,COMPLETED_SUCCESSFULLY,2060.747838,32.600046,2093.347884,2059.750753,2092.350799,64.182449,2,-1.000000,""
81,w0,python3action_imageprocessing_SampleImage_40mb,0.000000,1,-1.000000,1,COMPLETED_SUCCESSFULLY,2093.347899,0.000010,2093.347909,2093.347899,2093.347909,209334790.927562,2,-1.000000,""
114_updated,w0,python3action_imageprocessing_SampleImage_40mb_taurus,0.997085,1,2000.000000,1,COMPLETED_SUCCESSFULLY,2093.347929,32.600046,2125.947975,2092.350844,2124.950890,65.182450,2,-1.000000,""
114,w0,python3action_imageprocessing_SampleImage_40mb,0.000000,1,-1.000000,1,COMPLETED_SUCCESSFULLY,2125.947990,0.000010,2125.948000,2125.947990,2125.948000,212594800.041243,2,-1.000000,""
116_updated,w0,python3action_imageprocessing_SampleImage_40mb_taurus,0.997085,1,2000.000000,1,COMPLETED_SUCCESSFULLY,2125.948020,32.600046,2158.548067,2124.950935,2157.550982,66.182452,2,-1.000000,""
116,w0,python3action_imageprocessing_SampleImage_40mb,0.000000,1,-1.000000,1,COMPLETED_SUCCESSFULLY,2158.548082,0.000010,2158.548092,2158.548082,2158.548092,215854809.200201,2,-1.000000,""
123_updated,w0,python3action_imageprocessing_SampleImage_40mb_taurus,0.997085,1,2000.000000,1,COMPLETED_SUCCESSFULLY,2158.548112,32.600046,2191.148158,2157.551027,2190.151073,67.182453,2,-1.000000,""
123,w0,python3action_imageprocessing_SampleImage_40mb,0.000000,1,-1.000000,1,COMPLETED_SUCCESSFULLY,2191.148173,0.000010,2191.148183,2191.148173,2191.148183,219114818.313881,2,-1.000000,""
42_updated,w0,python3action_floatoperation_200000000_nova,0.997085,1,2000.000000,1,COMPLETED_SUCCESSFULLY,2069.142277,135.399990,2204.542268,2068.145192,2203.545183,16.274338,6,-1.000000,""
42,w0,python3action_floatoperation_200000000,0.000000,1,-1.000000,1,COMPLETED_SUCCESSFULLY,2204.542283,0.000010,2204.542293,2204.542283,2204.542293,220454229.300201,6,-1.000000,""
164_updated,w0,python3action_imageprocessing_SampleImage_40mb_taurus,0.997085,1,2000.000000,1,COMPLETED_SUCCESSFULLY,2191.148203,32.600046,2223.748249,2190.151118,2222.751164,68.182455,2,-1.000000,""
164,w0,python3action_imageprocessing_SampleImage_40mb,0.000000,1,-1.000000,1,COMPLETED_SUCCESSFULLY,2223.748264,0.000010,2223.748274,2223.748264,2223.748274,222374827.427562,2,-1.000000,""
199_updated,w0,python3action_imageprocessing_SampleImage_40mb_taurus,0.997085,1,2000.000000,1,COMPLETED_SUCCESSFULLY,2223.748294,32.600046,2256.348340,2222.751209,2255.351255,69.182456,2,-1.000000,""
199,w0,python3action_imageprocessing_SampleImage_40mb,0.000000,1,-1.000000,1,COMPLETED_SUCCESSFULLY,2256.348355,0.000010,2256.348365,2256.348355,2256.348365,225634836.541243,2,-1.000000,""
python3action_linpack_job12_2,w0,python3action_linpack,0.997085,1,2000.000000,1,COMPLETED_SUCCESSFULLY,2256.348385,5.760927,2262.109313,2255.351300,2261.112228,392.491024,2,-1.000000,""
12_updated,w0,python3action_linpack_5000_taurus,0.997085,1,2000.000000,1,COMPLETED_SUCCESSFULLY,2262.109328,38.500058,2300.609386,2261.112243,2299.612301,59.730100,2,-1.000000,""
12,w0,python3action_linpack_5000,0.000000,1,-1.000000,1,COMPLETED_SUCCESSFULLY,2300.609401,0.000010,2300.609411,2300.609401,2300.609411,230060941.100201,2,-1.000000,""
29_updated,w0,python3action_linpack_5000_taurus,0.997085,1,2000.000000,1,COMPLETED_SUCCESSFULLY,2300.609431,38.500058,2339.109489,2299.612346,2338.112404,60.730101,2,-1.000000,""
29,w0,python3action_linpack_5000,0.000000,1,-1.000000,1,COMPLETED_SUCCESSFULLY,2339.109504,0.000010,2339.109514,2339.109504,2339.109514,233910951.400201,2,-1.000000,""
47_updated,w0,python3action_floatoperation_200000000_nova,0.997085,1,2000.000000,1,COMPLETED_SUCCESSFULLY,2204.542313,135.399990,2339.942303,2203.545228,2338.945218,17.274338,6,-1.000000,""
47,w0,python3action_floatoperation_200000000,0.000000,1,-1.000000,1,COMPLETED_SUCCESSFULLY,2339.942318,0.000010,2339.942328,2339.942318,2339.942328,233994232.823907,6,-1.000000,""
37_updated,w0,python3action_linpack_5000_taurus,0.997085,1,2000.000000,1,COMPLETED_SUCCESSFULLY,2339.109534,38.500058,2377.609592,2338.112449,2376.612507,61.730103,2,-1.000000,""
37,w0,python3action_linpack_5000,0.000000,1,-1.000000,1,COMPLETED_SUCCESSFULLY,2377.609607,0.000010,2377.609617,2377.609607,2377.609617,237760961.700201,2,-1.000000,""
54_updated,w0,python3action_floatoperation_100000000_nova,0.997085,1,2000.000000,1,COMPLETED_SUCCESSFULLY,2339.942348,66.200020,2406.142368,2338.945263,2405.145283,36.331489,6,-1.000000,""
54,w0,python3action_floatoperation_100000000,0.000000,1,-1.000000,1,COMPLETED_SUCCESSFULLY,2406.142383,0.000010,2406.142393,2406.142383,2406.142393,240614239.300201,6,-1.000000,""
39_updated,w0,python3action_linpack_5000_taurus,0.997085,1,2000.000000,1,COMPLETED_SUCCESSFULLY,2377.609637,38.500058,2416.109695,2376.612552,2415.112610,62.730104,2,-1.000000,""
39,w0,python3action_linpack_5000,0.000000,1,-1.000000,1,COMPLETED_SUCCESSFULLY,2416.109710,0.000010,2416.109720,2416.109710,2416.109720,241610972.000201,2,-1.000000,""
55_updated,w0,python3action_linpack_5000_taurus,0.997085,1,2000.000000,1,COMPLETED_SUCCESSFULLY,2416.109740,38.500058,2454.609798,2415.112655,2453.612713,63.730105,2,-1.000000,""
55,w0,python3action_linpack_5000,0.000000,1,-1.000000,1,COMPLETED_SUCCESSFULLY,2454.609813,0.000010,2454.609823,2454.609813,2454.609823,245460982.300201,2,-1.000000,""
73_updated,w0,python3action_linpack_5000_taurus,0.997085,1,2000.000000,1,COMPLETED_SUCCESSFULLY,2454.609843,38.500058,2493.109901,2453.612758,2492.112816,64.730106,2,-1.000000,""
73,w0,python3action_linpack_5000,0.000000,1,-1.000000,1,COMPLETED_SUCCESSFULLY,2493.109916,0.000010,2493.109926,2493.109916,2493.109926,249310992.600201,2,-1.000000,""
89_updated,w0,python3action_linpack_5000_taurus,0.997085,1,2000.000000,1,COMPLETED_SUCCESSFULLY,2493.109946,38.500058,2531.610004,2492.112861,2530.612919,65.730107,2,-1.000000,""
89,w0,python3action_linpack_5000,0.000000,1,-1.000000,1,COMPLETED_SUCCESSFULLY,2531.610019,0.000010,2531.610029,2531.610019,2531.610029,253161002.900201,2,-1.000000,""
56_updated,w0,python3action_floatoperation_200000000_nova,0.997085,1,2000.000000,1,COMPLETED_SUCCESSFULLY,2406.142413,135.399990,2541.542403,2405.145328,2540.545318,18.763261,6,-1.000000,""
56,w0,python3action_floatoperation_200000000,0.000000,1,-1.000000,1,COMPLETED_SUCCESSFULLY,2541.542418,0.000010,2541.542428,2541.542418,2541.542428,254154242.823907,6,-1.000000,""
122_updated,w0,python3action_linpack_5000_taurus,0.997085,1,2000.000000,1,COMPLETED_SUCCESSFULLY,2531.610049,38.500058,2570.110107,2530.612964,2569.113022,66.730108,2,-1.000000,""
122,w0,python3action_linpack_5000,0.000000,1,-1.000000,1,COMPLETED_SUCCESSFULLY,2570.110122,0.000010,2570.110132,2570.110122,2570.110132,257011013.200201,2,-1.000000,""
86_updated,w0,python3action_floatoperation_100000000_nova,0.997085,1,2000.000000,1,COMPLETED_SUCCESSFULLY,2541.542448,66.200020,2607.742468,2540.545363,2606.745383,39.376807,6,-1.000000,""
86,w0,python3action_floatoperation_100000000,0.000000,1,-1.000000,1,COMPLETED_SUCCESSFULLY,2607.742483,0.000010,2607.742493,2607.742483,2607.742493,260774249.300201,6,-1.000000,""
126_updated,w0,python3action_linpack_5000_taurus,0.997085,1,2000.000000,1,COMPLETED_SUCCESSFULLY,2570.110152,38.500058,2608.610210,2569.113067,2607.613125,67.730110,2,-1.000000,""
126,w0,python3action_linpack_5000,0.000000,1,-1.000000,1,COMPLETED_SUCCESSFULLY,2608.610225,0.000010,2608.610235,2608.610225,2608.610235,260861023.500201,2,-1.000000,""
127_updated,w0,python3action_linpack_5000_taurus,0.997085,1,2000.000000,1,COMPLETED_SUCCESSFULLY,2608.610255,38.500058,2647.110313,2607.613170,2646.113228,68.730111,2,-1.000000,""
127,w0,python3action_linpack_5000,0.000000,1,-1.000000,1,COMPLETED_SUCCESSFULLY,2647.110328,0.000010,2647.110338,2647.110328,2647.110338,264711033.800201,2,-1.000000,""
92_updated,w0,python3action_floatoperation_100000000_nova,0.997085,1,2000.000000,1,COMPLETED_SUCCESSFULLY,2607.742513,66.200020,2673.942533,2606.745428,2672.945448,40.376808,6,-1.000000,""
92,w0,python3action_floatoperation_100000000,0.000000,1,-1.000000,1,COMPLETED_SUCCESSFULLY,2673.942548,0.000010,2673.942558,2673.942548,2673.942558,267394255.800201,6,-1.000000,""
130_updated,w0,python3action_linpack_5000_taurus,0.997085,1,2000.000000,1,COMPLETED_SUCCESSFULLY,2647.110358,38.500058,2685.610416,2646.113273,2684.613331,69.730112,2,-1.000000,""
130,w0,python3action_linpack_5000,0.000000,1,-1.000000,1,COMPLETED_SUCCESSFULLY,2685.610431,0.000010,2685.610441,2685.610431,2685.610441,268561044.100201,2,-1.000000,""
147_updated,w0,python3action_linpack_5000_taurus,0.997085,1,2000.000000,1,COMPLETED_SUCCESSFULLY,2685.610461,38.500058,2724.110519,2684.613376,2723.113434,70.730113,2,-1.000000,""
147,w0,python3action_linpack_5000,0.000000,1,-1.000000,1,COMPLETED_SUCCESSFULLY,2724.110534,0.000010,2724.110544,2724.110534,2724.110544,272411054.400201,2,-1.000000,""
152_updated,w0,python3action_linpack_5000_taurus,0.997085,1,2000.000000,1,COMPLETED_SUCCESSFULLY,2724.110564,38.500058,2762.610622,2723.113479,2761.613537,71.730114,2,-1.000000,""
152,w0,python3action_linpack_5000,0.000000,1,-1.000000,1,COMPLETED_SUCCESSFULLY,2762.610637,0.000010,2762.610647,2762.610637,2762.610647,276261064.700201,2,-1.000000,""
161_updated,w0,python3action_linpack_5000_taurus,0.997085,1,2000.000000,1,COMPLETED_SUCCESSFULLY,2762.610667,38.500058,2801.110725,2761.613582,2800.113640,72.730115,2,-1.000000,""
161,w0,python3action_linpack_5000,0.000000,1,-1.000000,1,COMPLETED_SUCCESSFULLY,2801.110740,0.000010,2801.110750,2801.110740,2801.110750,280111075.000201,2,-1.000000,""
93_updated,w0,python3action_floatoperation_200000000_nova,0.997085,1,2000.000000,1,COMPLETED_SUCCESSFULLY,2673.942578,135.399990,2809.342568,2672.945493,2808.345483,20.741106,6,-1.000000,""
93,w0,python3action_floatoperation_200000000,0.000000,1,-1.000000,1,COMPLETED_SUCCESSFULLY,2809.342583,0.000010,2809.342593,2809.342583,2809.342593,280934259.323907,6,-1.000000,""
172_updated,w0,python3action_linpack_5000_taurus,0.997085,1,2000.000000,1,COMPLETED_SUCCESSFULLY,2801.110770,38.500058,2839.610828,2800.113685,2838.613743,73.730117,2,-1.000000,""
172,w0,python3action_linpack_5000,0.000000,1,-1.000000,1,COMPLETED_SUCCESSFULLY,2839.610843,0.000010,2839.610853,2839.610843,2839.610853,283961085.300201,2,-1.000000,""
181_updated,w0,python3action_linpack_5000_taurus,0.997085,1,2000.000000,1,COMPLETED_SUCCESSFULLY,2839.610873,38.500058,2878.110931,2838.613788,2877.113846,74.730118,2,-1.000000,""
181,w0,python3action_linpack_5000,0.000000,1,-1.000000,1,COMPLETED_SUCCESSFULLY,2878.110946,0.000010,2878.110956,2878.110946,2878.110956,287811095.600201,2,-1.000000,""
183_updated,w0,python3action_linpack_5000_taurus,0.997085,1,2000.000000,1,COMPLETED_SUCCESSFULLY,2878.110976,38.500058,2916.611034,2877.113891,2915.613949,75.730119,2,-1.000000,""
183,w0,python3action_linpack_5000,0.000000,1,-1.000000,1,COMPLETED_SUCCESSFULLY,2916.611049,0.000010,2916.611059,2916.611049,2916.611059,291661105.900201,2,-1.000000,""
95_updated,w0,python3action_floatoperation_200000000_nova,0.997085,1,2000.000000,1,COMPLETED_SUCCESSFULLY,2809.342613,135.399990,2944.742603,2808.345528,2943.745518,21.741106,6,-1.000000,""
95,w0,python3action_floatoperation_200000000,0.000000,1,-1.000000,1,COMPLETED_SUCCESSFULLY,2944.742618,0.000010,2944.742628,2944.742618,2944.742628,294474262.847614,6,-1.000000,""
191_updated,w0,python3action_linpack_5000_taurus,0.997085,1,2000.000000,1,COMPLETED_SUCCESSFULLY,2916.611079,38.500058,2955.111137,2915.613994,2954.114052,76.730120,2,-1.000000,""
191,w0,python3action_linpack_5000,0.000000,1,-1.000000,1,COMPLETED_SUCCESSFULLY,2955.111152,0.000010,2955.111162,2955.111152,2955.111162,295511116.200201,2,-1.000000,""
python3action_video_processing_job40_2,w0,python3action_video_processing_reduced_1.83,0.997085,1,2000.000000,1,COMPLETED_SUCCESSFULLY,2955.111182,0.000000,2955.111182,2954.114097,2954.114097,282441982559576.875000,2,-1.000000,""
100_updated,w0,python3action_floatoperation_100000000_nova,0.997085,1,2000.000000,1,COMPLETED_SUCCESSFULLY,2944.742648,66.200020,3010.942668,2943.745563,3009.945583,45.467443,6,-1.000000,""
100,w0,python3action_floatoperation_100000000,0.000000,1,-1.000000,1,COMPLETED_SUCCESSFULLY,3010.942683,0.000010,3010.942693,3010.942683,3010.942693,301094269.302009,6,-1.000000,""
40_updated,w0,python3action_videoprocessing_SampleVideo_50mb_taurus,0.997085,1,2000.000000,1,COMPLETED_SUCCESSFULLY,2955.111212,154.250029,3109.361241,2954.114127,3108.364156,20.151466,2,-1.000000,""
40,w0,python3action_videoprocessing_SampleVideo_50mb,0.000000,1,-1.000000,1,COMPLETED_SUCCESSFULLY,3109.361256,0.000010,3109.361266,3109.361256,3109.361266,310936126.600201,2,-1.000000,""
105_updated,w0,python3action_floatoperation_200000000_nova,0.997085,1,2000.000000,1,COMPLETED_SUCCESSFULLY,3010.942713,135.399990,3146.342703,3009.945628,3145.345618,23.230028,6,-1.000000,""
105,w0,python3action_floatoperation_200000000,0.000000,1,-1.000000,1,COMPLETED_SUCCESSFULLY,3146.342718,0.000010,3146.342728,3146.342718,3146.342728,314634272.825715,6,-1.000000,""
43_updated,w0,python3action_videoprocessing_SampleVideo_50mb_taurus,0.997085,1,2000.000000,1,COMPLETED_SUCCESSFULLY,3109.361286,154.250029,3263.611315,3108.364201,3262.614230,21.151466,2,-1.000000,""
43,w0,python3action_videoprocessing_SampleVideo_50mb,0.000000,1,-1.000000,1,COMPLETED_SUCCESSFULLY,3263.611330,0.000010,3263.611340,3263.611330,3263.611340,326361134.000201,2,-1.000000,""
110_updated,w0,python3action_floatoperation_200000000_nova,0.997085,1,2000.000000,1,COMPLETED_SUCCESSFULLY,3146.342748,135.399990,3281.742738,3145.345663,3280.745653,24.230029,6,-1.000000,""
110,w0,python3action_floatoperation_200000000,0.000000,1,-1.000000,1,COMPLETED_SUCCESSFULLY,3281.742753,0.000010,3281.742763,3281.742753,3281.742763,328174276.349421,6,-1.000000,""
118_updated,w0,python3action_floatoperation_200000000_nova,0.997085,1,2000.000000,1,COMPLETED_SUCCESSFULLY,3281.742783,135.399990,3417.142774,3280.745698,3416.145689,25.230029,6,-1.000000,""
118,w0,python3action_floatoperation_200000000,0.000000,1,-1.000000,1,COMPLETED_SUCCESSFULLY,3417.142789,0.000010,3417.142799,3417.142789,3417.142799,341714279.900201,6,-1.000000,""
106_updated,w0,python3action_videoprocessing_SampleVideo_50mb_taurus,0.997085,1,2000.000000,1,COMPLETED_SUCCESSFULLY,3263.611360,154.250029,3417.861389,3262.614275,3416.864304,22.151466,2,-1.000000,""
106,w0,python3action_videoprocessing_SampleVideo_50mb,0.000000,1,-1.000000,1,COMPLETED_SUCCESSFULLY,3417.861404,0.000010,3417.861414,3417.861404,3417.861414,341786141.400201,2,-1.000000,""
121_updated,w0,python3action_floatoperation_200000000_nova,0.997085,1,2000.000000,1,COMPLETED_SUCCESSFULLY,3417.142819,135.399990,3552.542809,3416.145734,3551.545724,26.230029,6,-1.000000,""
121,w0,python3action_floatoperation_200000000,0.000000,1,-1.000000,1,COMPLETED_SUCCESSFULLY,3552.542824,0.000010,3552.542834,3552.542824,3552.542834,355254283.423907,6,-1.000000,""
119_updated,w0,python3action_videoprocessing_SampleVideo_50mb_taurus,0.997085,1,2000.000000,1,COMPLETED_SUCCESSFULLY,3417.861434,154.250029,3572.111463,3416.864349,3571.114378,23.151467,2,-1.000000,""
119,w0,python3action_videoprocessing_SampleVideo_50mb,0.000000,1,-1.000000,1,COMPLETED_SUCCESSFULLY,3572.111478,0.000010,3572.111488,3572.111478,3572.111488,357211148.800201,2,-1.000000,""
145_updated,w0,python3action_floatoperation_100000000_nova,0.997085,1,2000.000000,1,COMPLETED_SUCCESSFULLY,3552.542854,66.200020,3618.742874,3551.545769,3617.745789,54.648712,6,-1.000000,""
145,w0,python3action_floatoperation_100000000,0.000000,1,-1.000000,1,COMPLETED_SUCCESSFULLY,3618.742889,0.000010,3618.742899,3618.742889,3618.742899,361874289.900201,6,-1.000000,""
153_updated,w0,python3action_floatoperation_100000000_nova,0.997085,1,2000.000000,1,COMPLETED_SUCCESSFULLY,3618.742919,66.200020,3684.942939,3617.745834,3683.945854,55.648712,6,-1.000000,""
153,w0,python3action_floatoperation_100000000,0.000000,1,-1.000000,1,COMPLETED_SUCCESSFULLY,3684.942954,0.000010,3684.942964,3684.942954,3684.942964,368494296.400201,6,-1.000000,""
132_updated,w0,python3action_videoprocessing_SampleVideo_50mb_taurus,0.997085,1,2000.000000,1,COMPLETED_SUCCESSFULLY,3572.111508,154.250029,3726.361537,3571.114423,3725.364452,24.151467,2,-1.000000,""
132,w0,python3action_videoprocessing_SampleVideo_50mb,0.000000,1,-1.000000,1,COMPLETED_SUCCESSFULLY,3726.361552,0.000010,3726.361562,3726.361552,3726.361562,372636156.200201,2,-1.000000,""
162_updated,w0,python3action_floatoperation_100000000_nova,0.997085,1,2000.000000,1,COMPLETED_SUCCESSFULLY,3684.942984,66.200020,3751.143004,3683.945899,3750.145919,56.648713,6,-1.000000,""
162,w0,python3action_floatoperation_100000000,0.000000,1,-1.000000,1,COMPLETED_SUCCESSFULLY,3751.143019,0.000010,3751.143029,3751.143019,3751.143029,375114302.900201,6,-1.000000,""
163_updated,w0,python3action_floatoperation_100000000_nova,0.997085,1,2000.000000,1,COMPLETED_SUCCESSFULLY,3751.143049,66.200020,3817.343069,3750.145964,3816.345984,57.648714,6,-1.000000,""
163,w0,python3action_floatoperation_100000000,0.000000,1,-1.000000,1,COMPLETED_SUCCESSFULLY,3817.343084,0.000010,3817.343094,3817.343084,3817.343094,381734309.400201,6,-1.000000,""
156_updated,w0,python3action_videoprocessing_SampleVideo_50mb_taurus,0.997085,1,2000.000000,1,COMPLETED_SUCCESSFULLY,3726.361582,154.250029,3880.611611,3725.364497,3879.614526,25.151467,2,-1.000000,""
156,w0,python3action_videoprocessing_SampleVideo_50mb,0.000000,1,-1.000000,1,COMPLETED_SUCCESSFULLY,3880.611626,0.000010,3880.611636,3880.611626,3880.611636,388061163.600201,2,-1.000000,""
180_updated,w0,python3action_floatoperation_200000000_nova,0.997085,1,2000.000000,1,COMPLETED_SUCCESSFULLY,3817.343114,135.399990,3952.743104,3816.346029,3951.746019,29.185719,6,-1.000000,""
180,w0,python3action_floatoperation_200000000,0.000000,1,-1.000000,1,COMPLETED_SUCCESSFULLY,3952.743119,0.000010,3952.743129,3952.743119,3952.743129,395274312.923907,6,-1.000000,""
187_updated,w0,python3action_floatoperation_100000000_nova,0.997085,1,2000.000000,1,COMPLETED_SUCCESSFULLY,3952.743149,66.200020,4018.943169,3951.746064,4017.946084,60.694032,6,-1.000000,""
187,w0,python3action_floatoperation_100000000,0.000000,1,-1.000000,1,COMPLETED_SUCCESSFULLY,4018.943184,0.000010,4018.943194,4018.943184,4018.943194,401894319.400201,6,-1.000000,""
python3action_pyaes_job50_5,w0,python3action_pyaes,0.997085,1,2000.000000,1,COMPLETED_SUCCESSFULLY,4018.943214,2.134958,4021.078172,4017.946129,4020.081087,1882.978794,6,-1.000000,""
169_updated,w0,python3action_videoprocessing_SampleVideo_50mb_taurus,0.997085,1,2000.000000,1,COMPLETED_SUCCESSFULLY,3880.611656,154.250029,4034.861685,3879.614571,4033.864600,26.151467,2,-1.000000,""
169,w0,python3action_videoprocessing_SampleVideo_50mb,0.000000,1,-1.000000,1,COMPLETED_SUCCESSFULLY,4034.861700,0.000010,4034.861710,4034.861700,4034.861710,403486171.000201,2,-1.000000,""
50_updated,w0,python3action_pyaes_4000_nova,0.997085,1,2000.000000,1,COMPLETED_SUCCESSFULLY,4021.078187,139.600010,4160.678197,4020.081102,4159.681112,29.797141,6,-1.000000,""
50,w0,python3action_pyaes_4000,0.000000,1,-1.000000,1,COMPLETED_SUCCESSFULLY,4160.678212,0.000010,4160.678222,4160.678212,4160.678222,416067822.201669,6,-1.000000,""
76_updated,w0,python3action_pyaes_4000_nova,0.997085,1,2000.000000,1,COMPLETED_SUCCESSFULLY,4160.678242,139.600010,4300.278252,4159.681157,4299.281167,30.797141,6,-1.000000,""
76,w0,python3action_pyaes_4000,0.000000,1,-1.000000,1,COMPLETED_SUCCESSFULLY,4300.278267,0.000010,4300.278277,4300.278267,4300.278277,430027827.700201,6,-1.000000,""
96_updated,w0,python3action_pyaes_4000_nova,0.997085,1,2000.000000,1,COMPLETED_SUCCESSFULLY,4300.278297,139.600010,4439.878307,4299.281212,4438.881222,31.797141,6,-1.000000,""
96,w0,python3action_pyaes_4000,0.000000,1,-1.000000,1,COMPLETED_SUCCESSFULLY,4439.878322,0.000010,4439.878332,4439.878322,4439.878332,443987833.200201,6,-1.000000,""
99_updated,w0,python3action_pyaes_4000_nova,0.997085,1,2000.000000,1,COMPLETED_SUCCESSFULLY,4439.878352,139.600010,4579.478362,4438.881267,4578.481277,32.797142,6,-1.000000,""
99,w0,python3action_pyaes_4000,0.000000,1,-1.000000,1,COMPLETED_SUCCESSFULLY,4579.478377,0.000010,4579.478387,4579.478377,4579.478387,457947838.700201,6,-1.000000,""
python3action_video_processing_job0_5,w0,python3action_video_processing_reduced_0.91,0.997085,1,2000.000000,1,COMPLETED_SUCCESSFULLY,4579.478407,0.000000,4579.478407,4578.481322,4578.481322,1006818690220172.000000,6,-1.000000,""
0_updated,w0,python3action_videoprocessing_SampleVideo_50mb_nova,0.997085,1,2000.000000,1,COMPLETED_SUCCESSFULLY,4579.478437,139.600010,4719.078447,4578.481352,4718.081362,33.797142,6,-1.000000,""
0,w0,python3action_videoprocessing_SampleVideo_50mb,0.000000,1,-1.000000,1,COMPLETED_SUCCESSFULLY,4719.078462,0.000010,4719.078472,4719.078462,4719.078472,471907847.200201,6,-1.000000,""
4_updated,w0,python3action_videoprocessing_SampleVideo_50mb_nova,0.997085,1,2000.000000,1,COMPLETED_SUCCESSFULLY,4719.078492,139.600010,4858.678502,4718.081407,4857.681417,34.797142,6,-1.000000,""
4,w0,python3action_videoprocessing_SampleVideo_50mb,0.000000,1,-1.000000,1,COMPLETED_SUCCESSFULLY,4858.678517,0.000010,4858.678527,4858.678517,4858.678527,485867852.700201,6,-1.000000,""
31_updated,w0,python3action_videoprocessing_SampleVideo_30mb_nova,0.997085,1,2000.000000,1,COMPLETED_SUCCESSFULLY,4858.678547,106.799980,4965.478527,4857.681462,4964.481442,46.483917,6,-1.000000,""
31,w0,python3action_videoprocessing_SampleVideo_30mb,0.000000,1,-1.000000,1,COMPLETED_SUCCESSFULLY,4965.478542,0.000010,4965.478552,4965.478542,4965.478552,496547855.247010,6,-1.000000,""
33_updated,w0,python3action_videoprocessing_SampleVideo_30mb_nova,0.997085,1,2000.000000,1,COMPLETED_SUCCESSFULLY,4965.478572,106.799980,5072.278553,4964.481487,5071.281468,47.483918,6,-1.000000,""
33,w0,python3action_videoprocessing_SampleVideo_30mb,0.000000,1,-1.000000,1,COMPLETED_SUCCESSFULLY,5072.278568,0.000010,5072.278578,5072.278568,5072.278578,507227857.800201,6,-1.000000,""
52_updated,w0,python3action_videoprocessing_SampleVideo_50mb_nova,0.997085,1,2000.000000,1,COMPLETED_SUCCESSFULLY,5072.278598,139.600010,5211.878608,5071.281513,5210.881523,37.327229,6,-1.000000,""
52,w0,python3action_videoprocessing_SampleVideo_50mb,0.000000,1,-1.000000,1,COMPLETED_SUCCESSFULLY,5211.878623,0.000010,5211.878633,5211.878623,5211.878633,521187863.300201,6,-1.000000,""
67_updated,w0,python3action_videoprocessing_SampleVideo_30mb_nova,0.997085,1,2000.000000,1,COMPLETED_SUCCESSFULLY,5211.878653,106.799980,5318.678633,5210.881568,5317.681548,49.791035,6,-1.000000,""
67,w0,python3action_videoprocessing_SampleVideo_30mb,0.000000,1,-1.000000,1,COMPLETED_SUCCESSFULLY,5318.678648,0.000010,5318.678658,5318.678648,5318.678658,531867865.847010,6,-1.000000,""
70_updated,w0,python3action_videoprocessing_SampleVideo_50mb_nova,0.997085,1,2000.000000,1,COMPLETED_SUCCESSFULLY,5318.678678,139.600010,5458.278688,5317.681593,5457.281603,39.092272,6,-1.000000,""
70,w0,python3action_videoprocessing_SampleVideo_50mb,0.000000,1,-1.000000,1,COMPLETED_SUCCESSFULLY,5458.278703,0.000010,5458.278713,5458.278703,5458.278713,545827871.324509,6,-1.000000,""
78_updated,w0,python3action_videoprocessing_SampleVideo_30mb_nova,0.997085,1,2000.000000,1,COMPLETED_SUCCESSFULLY,5458.278733,106.799980,5565.078714,5457.281648,5564.081629,52.098152,6,-1.000000,""
78,w0,python3action_videoprocessing_SampleVideo_30mb,0.000000,1,-1.000000,1,COMPLETED_SUCCESSFULLY,5565.078729,0.000010,5565.078739,5565.078729,5565.078739,556507873.900201,6,-1.000000,""
83_updated,w0,python3action_videoprocessing_SampleVideo_50mb_nova,0.997085,1,2000.000000,1,COMPLETED_SUCCESSFULLY,5565.078759,139.600010,5704.678769,5564.081674,5703.681684,40.857316,6,-1.000000,""
83,w0,python3action_videoprocessing_SampleVideo_50mb,0.000000,1,-1.000000,1,COMPLETED_SUCCESSFULLY,5704.678784,0.000010,5704.678794,5704.678784,5704.678794,570467879.400201,6,-1.000000,""
133_updated,w0,python3action_videoprocessing_SampleVideo_30mb_nova,0.997085,1,2000.000000,1,COMPLETED_SUCCESSFULLY,5704.678814,106.799980,5811.478794,5703.681729,5810.481709,54.405269,6,-1.000000,""
133,w0,python3action_videoprocessing_SampleVideo_30mb,0.000000,1,-1.000000,1,COMPLETED_SUCCESSFULLY,5811.478809,0.000010,5811.478819,5811.478809,5811.478819,581147881.947010,6,-1.000000,""
144_updated,w0,python3action_videoprocessing_SampleVideo_50mb_nova,0.997085,1,2000.000000,1,COMPLETED_SUCCESSFULLY,5811.478839,139.600010,5951.078849,5810.481754,5950.081764,42.622359,6,-1.000000,""
144,w0,python3action_videoprocessing_SampleVideo_50mb,0.000000,1,-1.000000,1,COMPLETED_SUCCESSFULLY,5951.078864,0.000010,5951.078874,5951.078864,5951.078874,595107887.424509,6,-1.000000,""
160_updated,w0,python3action_videoprocessing_SampleVideo_50mb_nova,0.997085,1,2000.000000,1,COMPLETED_SUCCESSFULLY,5951.078894,139.600010,6090.678904,5950.081809,6089.681819,43.622360,6,-1.000000,""
160,w0,python3action_videoprocessing_SampleVideo_50mb,0.000000,1,-1.000000,1,COMPLETED_SUCCESSFULLY,6090.678919,0.000010,6090.678929,6090.678919,6090.678929,609067892.902008,6,-1.000000,""
171_updated,w0,python3action_videoprocessing_SampleVideo_30mb_nova,0.997085,1,2000.000000,1,COMPLETED_SUCCESSFULLY,6090.678949,106.799980,6197.478929,6089.681864,6196.481844,58.019504,6,-1.000000,""
171,w0,python3action_videoprocessing_SampleVideo_30mb,0.000000,1,-1.000000,1,COMPLETED_SUCCESSFULLY,6197.478944,0.000010,6197.478954,6197.478944,6197.478954,619747895.448817,6,-1.000000,""
182_updated,w0,python3action_videoprocessing_SampleVideo_30mb_nova,0.997085,1,2000.000000,1,COMPLETED_SUCCESSFULLY,6197.478974,106.799980,6304.278955,6196.481889,6303.281870,59.019504,6,-1.000000,""
182,w0,python3action_videoprocessing_SampleVideo_30mb,0.000000,1,-1.000000,1,COMPLETED_SUCCESSFULLY,6304.278970,0.000010,6304.278980,6304.278970,6304.278980,630427898.000201,6,-1.000000,""
185_updated,w0,python3action_videoprocessing_SampleVideo_50mb_nova,0.997085,1,2000.000000,1,COMPLETED_SUCCESSFULLY,6304.279000,139.600010,6443.879010,6303.281915,6442.881925,46.152446,6,-1.000000,""
185,w0,python3action_videoprocessing_SampleVideo_50mb,0.000000,1,-1.000000,1,COMPLETED_SUCCESSFULLY,6443.879025,0.000010,6443.879035,6443.879025,6443.879035,644387903.500201,6,-1.000000,""
198_updated,w0,python3action_videoprocessing_SampleVideo_50mb_nova,0.997085,1,2000.000000,1,COMPLETED_SUCCESSFULLY,6443.879055,139.600010,6583.479065,6442.881970,6582.481980,47.152446,6,-1.000000,""
198,w0,python3action_videoprocessing_SampleVideo_50mb,0.000000,1,-1.000000,1,COMPLETED_SUCCESSFULLY,6583.479080,0.000010,6583.479090,6583.479080,6583.479090,658347909.000201,6,-1.000000,""
