job_id,workload_name,profile,submission_time,requested_number_of_resources,requested_time,success,final_state,starting_time,execution_time,finish_time,waiting_time,turnaround_time,stretch,allocated_resources,consumed_energy,metadata
python3action_chameleon_job18_4,w0,python3action_chameleon,0.997085,1,2000.000000,1,COMPLETED_SUCCESSFULLY,1.002160,0.867914,1.870074,0.005075,0.872989,1.005847,44,-1.000000,""
python3action_chameleon_job1_5,w0,python3action_chameleon,0.997085,1,2000.000000,1,COMPLETED_SUCCESSFULLY,1.002175,0.892694,1.894869,0.005090,0.897784,1.005702,49,-1.000000,""
python3action_image_processing_job86_0,w0,python3action_image_processing,0.997085,1,2000.000000,1,COMPLETED_SUCCESSFULLY,1.002100,3.471546,4.473646,0.005015,3.476561,1.001445,0,-1.000000,""
python3action_linpack_job25_2,w0,python3action_linpack,0.997085,1,2000.000000,1,COMPLETED_SUCCESSFULLY,1.002130,5.760927,6.763057,0.005045,5.765972,1.000876,26,-1.000000,""
python3action_facedetection_job16_1,w0,python3action_facedetection,0.997085,1,2000.000000,1,COMPLETED_SUCCESSFULLY,1.002115,30.499683,31.501798,0.005030,30.504713,1.000165,2,-1.000000,""
18_updated,w0,python3action_chameleon_2000_troll,0.997085,1,2000.000000,1,COMPLETED_SUCCESSFULLY,1.870089,39.500010,41.370099,0.873004,40.373014,1.022101,44,-1.000000,""
18,w0,python3action_chameleon_2000,0.000000,1,-1.000000,1,COMPLETED_SUCCESSFULLY,41.370114,0.000010,41.370124,41.370114,41.370124,4137012.400201,44,-1.000000,""
86_updated,w0,python3action_imageprocessing_SampleImage_60mb_neowise,0.997085,1,2000.000000,1,COMPLETED_SUCCESSFULLY,4.473661,37.500000,41.973661,3.476576,40.976576,1.092709,0,-1.000000,""
86,w0,python3action_imageprocessing_SampleImage_60mb,0.000000,1,-1.000000,1,COMPLETED_SUCCESSFULLY,41.973676,0.000010,41.973686,41.973676,41.973686,4197368.600402,0,-1.000000,""
python3action_facedetection_job3_3,w0,python3action_facedetection,0.997085,1,2000.000000,1,COMPLETED_SUCCESSFULLY,1.002145,72.012455,73.014600,0.005060,72.017515,1.000070,29,-1.000000,""
143_updated,w0,python3action_imageprocessing_SampleImage_60mb_neowise,0.997085,1,2000.000000,1,COMPLETED_SUCCESSFULLY,41.973706,37.500000,79.473706,40.976621,78.476621,2.092710,0,-1.000000,""
143,w0,python3action_imageprocessing_SampleImage_60mb,0.000000,1,-1.000000,1,COMPLETED_SUCCESSFULLY,79.473721,0.000010,79.473731,79.473721,79.473731,7947373.101004,0,-1.000000,""
21_updated,w0,python3action_chameleon_2000_troll,0.997085,1,2000.000000,1,COMPLETED_SUCCESSFULLY,41.370144,39.500010,80.870154,40.373059,79.873069,2.022103,44,-1.000000,""
21,w0,python3action_chameleon_2000,0.000000,1,-1.000000,1,COMPLETED_SUCCESSFULLY,80.870169,0.000010,80.870179,80.870169,80.870179,8087017.900201,44,-1.000000,""
1_updated,w0,python3action_chameleon_3000_yeti,0.997085,1,2000.000000,1,COMPLETED_SUCCESSFULLY,1.894884,93.000000,94.894884,0.897799,93.897799,1.009654,49,-1.000000,""
1,w0,python3action_chameleon_3000,0.000000,1,-1.000000,1,COMPLETED_SUCCESSFULLY,94.894899,0.000010,94.894909,94.894899,94.894909,9489490.949965,49,-1.000000,""
25_updated,w0,python3action_linpack_6000_orion,0.997085,1,2000.000000,1,COMPLETED_SUCCESSFULLY,6.763072,106.000000,112.763072,5.765987,111.765987,1.054396,26,-1.000000,""
25,w0,python3action_linpack_6000,0.000000,1,-1.000000,1,COMPLETED_SUCCESSFULLY,112.763087,0.000010,112.763097,112.763087,112.763097,11276309.723873,26,-1.000000,""
24_updated,w0,python3action_chameleon_2000_troll,0.997085,1,2000.000000,1,COMPLETED_SUCCESSFULLY,80.870199,39.500010,120.370209,79.873114,119.373124,3.022104,44,-1.000000,""
24,w0,python3action_chameleon_2000,0.000000,1,-1.000000,1,COMPLETED_SUCCESSFULLY,120.370224,0.000010,120.370234,120.370224,120.370234,12037023.400201,44,-1.000000,""
28_updated,w0,python3action_chameleon_2000_troll,0.997085,1,2000.000000,1,COMPLETED_SUCCESSFULLY,120.370254,39.500010,159.870264,119.373169,158.873179,4.022105,44,-1.000000,""
28,w0,python3action_chameleon_2000,0.000000,1,-1.000000,1,COMPLETED_SUCCESSFULLY,159.870279,0.000010,159.870289,159.870279,159.870289,15987028.900201,44,-1.000000,""
27_updated,w0,python3action_chameleon_3000_yeti,0.997085,1,2000.000000,1,COMPLETED_SUCCESSFULLY,94.894930,93.000000,187.894930,93.897845,186.897845,2.009654,49,-1.000000,""
27,w0,python3action_chameleon_3000,0.000000,1,-1.000000,1,COMPLETED_SUCCESSFULLY,187.894945,0.000010,187.894955,187.894945,187.894955,18789495.500402,49,-1.000000,""
16_updated,w0,python3action_facedetection_SampleVideo_30mb_nova,0.997085,1,2000.000000,1,COMPLETED_SUCCESSFULLY,31.501813,160.399990,191.901803,30.504728,190.904718,1.190179,2,-1.000000,""
16,w0,python3action_facedetection_SampleVideo_30mb,0.000000,1,-1.000000,1,COMPLETED_SUCCESSFULLY,191.901818,0.000010,191.901828,191.901818,191.901828,19190182.823505,2,-1.000000,""
41_updated,w0,python3action_chameleon_2000_troll,0.997085,1,2000.000000,1,COMPLETED_SUCCESSFULLY,159.870309,39.500010,199.370319,158.873224,198.373234,5.022106,44,-1.000000,""
41,w0,python3action_chameleon_2000,0.000000,1,-1.000000,1,COMPLETED_SUCCESSFULLY,199.370334,0.000010,199.370344,199.370334,199.370344,19937034.400201,44,-1.000000,""
3_updated,w0,python3action_facedetection_SampleVideo_50mb_taurus,0.997085,1,2000.000000,1,COMPLETED_SUCCESSFULLY,73.014615,134.600046,207.614661,72.017530,206.617576,1.535048,29,-1.000000,""
3,w0,python3action_facedetection_SampleVideo_50mb,0.000000,1,-1.000000,1,COMPLETED_SUCCESSFULLY,207.614676,0.000010,207.614686,207.614676,207.614686,20761468.645363,29,-1.000000,""
56_updated,w0,python3action_linpack_6000_orion,0.997085,1,2000.000000,1,COMPLETED_SUCCESSFULLY,112.763117,106.000000,218.763117,111.766032,217.766032,2.054397,26,-1.000000,""
56,w0,python3action_linpack_6000,0.000000,1,-1.000000,1,COMPLETED_SUCCESSFULLY,218.763132,0.000010,218.763142,218.763132,218.763142,21876314.224476,26,-1.000000,""
45_updated,w0,python3action_chameleon_2000_troll,0.997085,1,2000.000000,1,COMPLETED_SUCCESSFULLY,199.370364,39.500010,238.870374,198.373279,237.873289,6.022107,44,-1.000000,""
45,w0,python3action_chameleon_2000,0.000000,1,-1.000000,1,COMPLETED_SUCCESSFULLY,238.870389,0.000010,238.870399,238.870389,238.870399,23887039.900201,44,-1.000000,""
75_updated,w0,python3action_chameleon_2000_troll,0.997085,1,2000.000000,1,COMPLETED_SUCCESSFULLY,238.870419,39.500010,278.370429,237.873334,277.373344,7.022108,44,-1.000000,""
75,w0,python3action_chameleon_2000,0.000000,1,-1.000000,1,COMPLETED_SUCCESSFULLY,278.370444,0.000010,278.370454,278.370444,278.370454,27837045.400201,44,-1.000000,""
29_updated,w0,python3action_chameleon_3000_yeti,0.997085,1,2000.000000,1,COMPLETED_SUCCESSFULLY,187.894975,93.000000,280.894975,186.897890,279.897890,3.009655,49,-1.000000,""
29,w0,python3action_chameleon_3000,0.000000,1,-1.000000,1,COMPLETED_SUCCESSFULLY,280.894990,0.000010,280.895000,280.894990,280.895000,28089500.001004,49,-1.000000,""
82_updated,w0,python3action_chameleon_2000_troll,0.997085,1,2000.000000,1,COMPLETED_SUCCESSFULLY,278.370474,39.500010,317.870484,277.373389,316.873399,8.022109,44,-1.000000,""
82,w0,python3action_chameleon_2000,0.000000,1,-1.000000,1,COMPLETED_SUCCESSFULLY,317.870499,0.000010,317.870509,317.870499,317.870509,31787050.900201,44,-1.000000,""
64_updated,w0,python3action_linpack_6000_orion,0.997085,1,2000.000000,1,COMPLETED_SUCCESSFULLY,218.763162,106.000000,324.763162,217.766077,323.766077,3.054397,26,-1.000000,""
64,w0,python3action_linpack_6000,0.000000,1,-1.000000,1,COMPLETED_SUCCESSFULLY,324.763177,0.000010,324.763187,324.763177,324.763187,32476318.725078,26,-1.000000,""
6_updated,w0,python3action_facedetection_SampleVideo_50mb_taurus,0.997085,1,2000.000000,1,COMPLETED_SUCCESSFULLY,207.614706,134.600046,342.214753,206.617621,341.217668,2.535049,29,-1.000000,""
6,w0,python3action_facedetection_SampleVideo_50mb,0.000000,1,-1.000000,1,COMPLETED_SUCCESSFULLY,342.214768,0.000010,342.214778,342.214768,342.214778,34221477.800201,29,-1.000000,""
57_updated,w0,python3action_facedetection_SampleVideo_30mb_nova,0.997085,1,2000.000000,1,COMPLETED_SUCCESSFULLY,191.901848,160.399990,352.301838,190.904763,351.304753,2.190179,2,-1.000000,""
57,w0,python3action_facedetection_SampleVideo_30mb,0.000000,1,-1.000000,1,COMPLETED_SUCCESSFULLY,352.301853,0.000010,352.301863,352.301853,352.301863,35230186.347211,2,-1.000000,""
99_updated,w0,python3action_chameleon_2000_troll,0.997085,1,2000.000000,1,COMPLETED_SUCCESSFULLY,317.870529,39.500010,357.370539,316.873444,356.373454,9.022110,44,-1.000000,""
99,w0,python3action_chameleon_2000,0.000000,1,-1.000000,1,COMPLETED_SUCCESSFULLY,357.370554,0.000010,357.370564,357.370554,357.370564,35737056.400201,44,-1.000000,""
40_updated,w0,python3action_chameleon_3000_yeti,0.997085,1,2000.000000,1,COMPLETED_SUCCESSFULLY,280.895020,93.000000,373.895020,279.897935,372.897935,4.009655,49,-1.000000,""
40,w0,python3action_chameleon_3000,0.000000,1,-1.000000,1,COMPLETED_SUCCESSFULLY,373.895035,0.000010,373.895045,373.895035,373.895045,37389504.501607,49,-1.000000,""
119_updated,w0,python3action_chameleon_2000_troll,0.997085,1,2000.000000,1,COMPLETED_SUCCESSFULLY,357.370584,39.500010,396.870594,356.373499,395.873509,10.022112,44,-1.000000,""
119,w0,python3action_chameleon_2000,0.000000,1,-1.000000,1,COMPLETED_SUCCESSFULLY,396.870609,0.000010,396.870619,396.870609,396.870619,39687061.900201,44,-1.000000,""
128_updated,w0,python3action_linpack_6000_orion,0.997085,1,2000.000000,1,COMPLETED_SUCCESSFULLY,324.763207,106.000000,430.763207,323.766122,429.766122,4.054397,26,-1.000000,""
128,w0,python3action_linpack_6000,0.000000,1,-1.000000,1,COMPLETED_SUCCESSFULLY,430.763222,0.000010,430.763232,430.763222,430.763232,43076323.225681,26,-1.000000,""
147_updated,w0,python3action_chameleon_2000_troll,0.997085,1,2000.000000,1,COMPLETED_SUCCESSFULLY,396.870639,39.500010,436.370649,395.873554,435.373564,11.022113,44,-1.000000,""
147,w0,python3action_chameleon_2000,0.000000,1,-1.000000,1,COMPLETED_SUCCESSFULLY,436.370664,0.000010,436.370674,436.370664,436.370674,43637067.400201,44,-1.000000,""
49_updated,w0,python3action_chameleon_3000_yeti,0.997085,1,2000.000000,1,COMPLETED_SUCCESSFULLY,373.895065,93.000000,466.895065,372.897980,465.897980,5.009656,49,-1.000000,""
49,w0,python3action_chameleon_3000,0.000000,1,-1.000000,1,COMPLETED_SUCCESSFULLY,466.895080,0.000010,466.895090,466.895080,466.895090,46689509.002209,49,-1.000000,""
156_updated,w0,python3action_chameleon_2000_troll,0.997085,1,2000.000000,1,COMPLETED_SUCCESSFULLY,436.370694,39.500010,475.870704,435.373609,474.873619,12.022114,44,-1.000000,""
156,w0,python3action_chameleon_2000,0.000000,1,-1.000000,1,COMPLETED_SUCCESSFULLY,475.870719,0.000010,475.870729,475.870719,475.870729,47587072.900201,44,-1.000000,""
32_updated,w0,python3action_facedetection_SampleVideo_50mb_taurus,0.997085,1,2000.000000,1,COMPLETED_SUCCESSFULLY,342.214798,134.600046,476.814844,341.217713,475.817759,3.535049,29,-1.000000,""
32,w0,python3action_facedetection_SampleVideo_50mb,0.000000,1,-1.000000,1,COMPLETED_SUCCESSFULLY,476.814859,0.000010,476.814869,476.814859,476.814869,47681486.913881,29,-1.000000,""
59_updated,w0,python3action_facedetection_SampleVideo_30mb_nova,0.997085,1,2000.000000,1,COMPLETED_SUCCESSFULLY,352.301883,160.399990,512.701874,351.304798,511.704789,3.190180,2,-1.000000,""
59,w0,python3action_facedetection_SampleVideo_30mb,0.000000,1,-1.000000,1,COMPLETED_SUCCESSFULLY,512.701889,0.000010,512.701899,512.701889,512.701899,51270189.900201,2,-1.000000,""
172_updated,w0,python3action_chameleon_2000_troll,0.997085,1,2000.000000,1,COMPLETED_SUCCESSFULLY,475.870749,39.500010,515.370759,474.873664,514.373674,13.022115,44,-1.000000,""
172,w0,python3action_chameleon_2000,0.000000,1,-1.000000,1,COMPLETED_SUCCESSFULLY,515.370774,0.000010,515.370784,515.370774,515.370784,51537078.400201,44,-1.000000,""
python3action_image_processing_job8_5,w0,python3action_image_processing,0.997085,1,2000.000000,1,COMPLETED_SUCCESSFULLY,515.370804,12.398880,527.769684,514.373719,526.772599,42.485498,44,-1.000000,""
134_updated,w0,python3action_linpack_6000_orion,0.997085,1,2000.000000,1,COMPLETED_SUCCESSFULLY,430.763252,106.000000,536.763252,429.766167,535.766167,5.054398,26,-1.000000,""
134,w0,python3action_linpack_6000,0.000000,1,-1.000000,1,COMPLETED_SUCCESSFULLY,536.763267,0.000010,536.763277,536.763267,536.763277,53676327.726283,26,-1.000000,""
90_updated,w0,python3action_chameleon_3000_yeti,0.997085,1,2000.000000,1,COMPLETED_SUCCESSFULLY,466.895110,93.000000,559.895110,465.898025,558.898025,6.009656,49,-1.000000,""
90,w0,python3action_chameleon_3000,0.000000,1,-1.000000,1,COMPLETED_SUCCESSFULLY,559.895125,0.000010,559.895135,559.895125,559.895135,55989513.502811,49,-1.000000,""
8_updated,w0,python3action_imageprocessing_SampleImage_60mb_troll,0.997085,1,2000.000000,1,COMPLETED_SUCCESSFULLY,527.769699,62.000000,589.769699,526.772614,588.772614,9.496332,44,-1.000000,""
8,w0,python3action_imageprocessing_SampleImage_60mb,0.000000,1,-1.000000,1,COMPLETED_SUCCESSFULLY,589.769714,0.000010,589.769724,589.769714,589.769724,58976972.409582,44,-1.000000,""
37_updated,w0,python3action_facedetection_SampleVideo_50mb_taurus,0.997085,1,2000.000000,1,COMPLETED_SUCCESSFULLY,476.814889,134.600046,611.414935,475.817804,610.417850,4.535049,29,-1.000000,""
37,w0,python3action_facedetection_SampleVideo_50mb,0.000000,1,-1.000000,1,COMPLETED_SUCCESSFULLY,611.414950,0.000010,611.414960,611.414950,611.414960,61141496.027562,29,-1.000000,""
140_updated,w0,python3action_linpack_6000_orion,0.997085,1,2000.000000,1,COMPLETED_SUCCESSFULLY,536.763297,106.000000,642.763297,535.766212,641.766212,6.054398,26,-1.000000,""
140,w0,python3action_linpack_6000,0.000000,1,-1.000000,1,COMPLETED_SUCCESSFULLY,642.763312,0.000010,642.763322,642.763312,642.763322,64276332.226886,26,-1.000000,""
39_updated,w0,python3action_imageprocessing_SampleImage_60mb_troll,0.997085,1,2000.000000,1,COMPLETED_SUCCESSFULLY,589.769744,62.000000,651.769744,588.772659,650.772659,10.496333,44,-1.000000,""
39,w0,python3action_imageprocessing_SampleImage_60mb,0.000000,1,-1.000000,1,COMPLETED_SUCCESSFULLY,651.769759,0.000010,651.769769,651.769759,651.769769,65176976.910184,44,-1.000000,""
98_updated,w0,python3action_chameleon_3000_yeti,0.997085,1,2000.000000,1,COMPLETED_SUCCESSFULLY,559.895155,93.000000,652.895155,558.898070,651.898070,7.009657,49,-1.000000,""
98,w0,python3action_chameleon_3000,0.000000,1,-1.000000,1,COMPLETED_SUCCESSFULLY,652.895170,0.000010,652.895180,652.895170,652.895180,65289518.003414,49,-1.000000,""
62_updated,w0,python3action_facedetection_SampleVideo_30mb_nova,0.997085,1,2000.000000,1,COMPLETED_SUCCESSFULLY,512.701919,160.399990,673.101909,511.704834,672.104824,4.190180,2,-1.000000,""
62,w0,python3action_facedetection_SampleVideo_30mb,0.000000,1,-1.000000,1,COMPLETED_SUCCESSFULLY,673.101924,0.000010,673.101934,673.101924,673.101934,67310193.423907,2,-1.000000,""
72_updated,w0,python3action_imageprocessing_SampleImage_60mb_troll,0.997085,1,2000.000000,1,COMPLETED_SUCCESSFULLY,651.769789,62.000000,713.769789,650.772704,712.772704,11.496334,44,-1.000000,""
72,w0,python3action_imageprocessing_SampleImage_60mb,0.000000,1,-1.000000,1,COMPLETED_SUCCESSFULLY,713.769804,0.000010,713.769814,713.769804,713.769814,71376981.410787,44,-1.000000,""
101_updated,w0,python3action_chameleon_3000_yeti,0.997085,1,2000.000000,1,COMPLETED_SUCCESSFULLY,652.895200,93.000000,745.895200,651.898115,744.898115,8.009657,49,-1.000000,""
101,w0,python3action_chameleon_3000,0.000000,1,-1.000000,1,COMPLETED_SUCCESSFULLY,745.895215,0.000010,745.895225,745.895215,745.895225,74589522.504016,49,-1.000000,""
46_updated,w0,python3action_facedetection_SampleVideo_50mb_taurus,0.997085,1,2000.000000,1,COMPLETED_SUCCESSFULLY,611.414980,134.600046,746.015026,610.417895,745.017941,5.535050,29,-1.000000,""
46,w0,python3action_facedetection_SampleVideo_50mb,0.000000,1,-1.000000,1,COMPLETED_SUCCESSFULLY,746.015041,0.000010,746.015051,746.015041,746.015051,74601505.141242,29,-1.000000,""
145_updated,w0,python3action_linpack_6000_orion,0.997085,1,2000.000000,1,COMPLETED_SUCCESSFULLY,642.763342,106.000000,748.763342,641.766257,747.766257,7.054399,26,-1.000000,""
145,w0,python3action_linpack_6000,0.000000,1,-1.000000,1,COMPLETED_SUCCESSFULLY,748.763357,0.000010,748.763367,748.763357,748.763367,74876336.727488,26,-1.000000,""
83_updated,w0,python3action_imageprocessing_SampleImage_60mb_troll,0.997085,1,2000.000000,1,COMPLETED_SUCCESSFULLY,713.769834,62.000000,775.769834,712.772749,774.772749,12.496335,44,-1.000000,""
83,w0,python3action_imageprocessing_SampleImage_60mb,0.000000,1,-1.000000,1,COMPLETED_SUCCESSFULLY,775.769849,0.000010,775.769859,775.769849,775.769859,77576985.911389,44,-1.000000,""
71_updated,w0,python3action_facedetection_SampleVideo_30mb_nova,0.997085,1,2000.000000,1,COMPLETED_SUCCESSFULLY,673.101954,160.399990,833.501944,672.104869,832.504859,5.190180,2,-1.000000,""
71,w0,python3action_facedetection_SampleVideo_30mb,0.000000,1,-1.000000,1,COMPLETED_SUCCESSFULLY,833.501959,0.000010,833.501969,833.501959,833.501969,83350196.947613,2,-1.000000,""
89_updated,w0,python3action_imageprocessing_SampleImage_60mb_troll,0.997085,1,2000.000000,1,COMPLETED_SUCCESSFULLY,775.769879,62.000000,837.769879,774.772794,836.772794,13.496335,44,-1.000000,""
89,w0,python3action_imageprocessing_SampleImage_60mb,0.000000,1,-1.000000,1,COMPLETED_SUCCESSFULLY,837.769894,0.000010,837.769904,837.769894,837.769904,83776990.411992,44,-1.000000,""
111_updated,w0,python3action_chameleon_3000_yeti,0.997085,1,2000.000000,1,COMPLETED_SUCCESSFULLY,745.895245,93.000000,838.895245,744.898160,837.898160,9.009658,49,-1.000000,""
111,w0,python3action_chameleon_3000,0.000000,1,-1.000000,1,COMPLETED_SUCCESSFULLY,838.895260,0.000010,838.895270,838.895260,838.895270,83889527.004619,49,-1.000000,""
150_updated,w0,python3action_linpack_6000_orion,0.997085,1,2000.000000,1,COMPLETED_SUCCESSFULLY,748.763387,106.000000,854.763387,747.766302,853.766302,8.054399,26,-1.000000,""
150,w0,python3action_linpack_6000,0.000000,1,-1.000000,1,COMPLETED_SUCCESSFULLY,854.763402,0.000010,854.763412,854.763402,854.763412,85476341.228090,26,-1.000000,""
50_updated,w0,python3action_facedetection_SampleVideo_50mb_taurus,0.997085,1,2000.000000,1,COMPLETED_SUCCESSFULLY,746.015071,134.600046,880.615118,745.017986,879.618033,6.535050,29,-1.000000,""
50,w0,python3action_facedetection_SampleVideo_50mb,0.000000,1,-1.000000,1,COMPLETED_SUCCESSFULLY,880.615133,0.000010,880.615143,880.615133,880.615143,88061514.300201,29,-1.000000,""
102_updated,w0,python3action_imageprocessing_SampleImage_60mb_troll,0.997085,1,2000.000000,1,COMPLETED_SUCCESSFULLY,837.769924,62.000000,899.769924,836.772839,898.772839,14.496336,44,-1.000000,""
102,w0,python3action_imageprocessing_SampleImage_60mb,0.000000,1,-1.000000,1,COMPLETED_SUCCESSFULLY,899.769939,0.000010,899.769949,899.769939,899.769949,89976994.912594,44,-1.000000,""
115_updated,w0,python3action_chameleon_3000_yeti,0.997085,1,2000.000000,1,COMPLETED_SUCCESSFULLY,838.895290,93.000000,931.895290,837.898205,930.898205,10.009658,49,-1.000000,""
115,w0,python3action_chameleon_3000,0.000000,1,-1.000000,1,COMPLETED_SUCCESSFULLY,931.895305,0.000010,931.895315,931.895305,931.895315,93189531.505221,49,-1.000000,""
171_updated,w0,python3action_linpack_6000_orion,0.997085,1,2000.000000,1,COMPLETED_SUCCESSFULLY,854.763432,106.000000,960.763432,853.766347,959.766347,9.054400,26,-1.000000,""
171,w0,python3action_linpack_6000,0.000000,1,-1.000000,1,COMPLETED_SUCCESSFULLY,960.763447,0.000010,960.763457,960.763447,960.763457,96076345.728693,26,-1.000000,""
125_updated,w0,python3action_imageprocessing_SampleImage_60mb_troll,0.997085,1,2000.000000,1,COMPLETED_SUCCESSFULLY,899.769969,62.000000,961.769969,898.772884,960.772884,15.496337,44,-1.000000,""
125,w0,python3action_imageprocessing_SampleImage_60mb,0.000000,1,-1.000000,1,COMPLETED_SUCCESSFULLY,961.769984,0.000010,961.769994,961.769984,961.769994,96176999.413196,44,-1.000000,""
74_updated,w0,python3action_facedetection_SampleVideo_30mb_nova,0.997085,1,2000.000000,1,COMPLETED_SUCCESSFULLY,833.501989,160.399990,993.901980,832.504904,992.904895,6.190181,2,-1.000000,""
74,w0,python3action_facedetection_SampleVideo_30mb,0.000000,1,-1.000000,1,COMPLETED_SUCCESSFULLY,993.901995,0.000010,993.902005,993.901995,993.902005,99390200.500201,2,-1.000000,""
60_updated,w0,python3action_facedetection_SampleVideo_50mb_taurus,0.997085,1,2000.000000,1,COMPLETED_SUCCESSFULLY,880.615163,134.600046,1015.215209,879.618078,1014.218124,7.535050,29,-1.000000,""
60,w0,python3action_facedetection_SampleVideo_50mb,0.000000,1,-1.000000,1,COMPLETED_SUCCESSFULLY,1015.215224,0.000010,1015.215234,1015.215224,1015.215234,101521523.413881,29,-1.000000,""
130_updated,w0,python3action_imageprocessing_SampleImage_60mb_troll,0.997085,1,2000.000000,1,COMPLETED_SUCCESSFULLY,961.770014,62.000000,1023.770014,960.772929,1022.772929,16.496338,44,-1.000000,""
130,w0,python3action_imageprocessing_SampleImage_60mb,0.000000,1,-1.000000,1,COMPLETED_SUCCESSFULLY,1023.770029,0.000010,1023.770039,1023.770029,1023.770039,102377003.913799,44,-1.000000,""
117_updated,w0,python3action_chameleon_3000_yeti,0.997085,1,2000.000000,1,COMPLETED_SUCCESSFULLY,931.895335,93.000000,1024.895335,930.898250,1023.898250,11.009659,49,-1.000000,""
117,w0,python3action_chameleon_3000,0.000000,1,-1.000000,1,COMPLETED_SUCCESSFULLY,1024.895350,0.000010,1024.895360,1024.895350,1024.895360,102489536.005823,49,-1.000000,""
174_updated,w0,python3action_linpack_6000_orion,0.997085,1,2000.000000,1,COMPLETED_SUCCESSFULLY,960.763477,106.000000,1066.763477,959.766392,1065.766392,10.054400,26,-1.000000,""
174,w0,python3action_linpack_6000,0.000000,1,-1.000000,1,COMPLETED_SUCCESSFULLY,1066.763492,0.000010,1066.763502,1066.763492,1066.763502,106676350.229295,26,-1.000000,""
152_updated,w0,python3action_imageprocessing_SampleImage_60mb_troll,0.997085,1,2000.000000,1,COMPLETED_SUCCESSFULLY,1023.770059,62.000000,1085.770059,1022.772974,1084.772974,17.496338,44,-1.000000,""
152,w0,python3action_imageprocessing_SampleImage_60mb,0.000000,1,-1.000000,1,COMPLETED_SUCCESSFULLY,1085.770074,0.000010,1085.770084,1085.770074,1085.770084,108577008.414401,44,-1.000000,""
python3action_pyaes_job15_5,w0,python3action_pyaes_reduced_0.85,0.997085,1,2000.000000,1,COMPLETED_SUCCESSFULLY,1085.770104,0.130187,1085.900291,1084.773019,1084.903206,8333.418803,44,-1.000000,""
122_updated,w0,python3action_chameleon_3000_yeti,0.997085,1,2000.000000,1,COMPLETED_SUCCESSFULLY,1024.895380,93.000000,1117.895380,1023.898295,1116.898295,12.009659,49,-1.000000,""
122,w0,python3action_chameleon_3000,0.000000,1,-1.000000,1,COMPLETED_SUCCESSFULLY,1117.895395,0.000010,1117.895405,1117.895395,1117.895405,111789540.506426,49,-1.000000,""
15_updated,w0,python3action_pyaes_3000_troll,0.997085,1,2000.000000,1,COMPLETED_SUCCESSFULLY,1085.900306,57.166677,1143.066983,1084.903221,1142.069898,19.977896,44,-1.000000,""
15,w0,python3action_pyaes_3000,0.000000,1,-1.000000,1,COMPLETED_SUCCESSFULLY,1143.066998,0.000010,1143.067008,1143.066998,1143.067008,114306700.800201,44,-1.000000,""
94_updated,w0,python3action_facedetection_SampleVideo_50mb_taurus,0.997085,1,2000.000000,1,COMPLETED_SUCCESSFULLY,1015.215254,134.600046,1149.815300,1014.218169,1148.818215,8.535051,29,-1.000000,""
94,w0,python3action_facedetection_SampleVideo_50mb,0.000000,1,-1.000000,1,COMPLETED_SUCCESSFULLY,1149.815315,0.000010,1149.815325,1149.815315,1149.815325,114981532.527562,29,-1.000000,""
80_updated,w0,python3action_facedetection_SampleVideo_30mb_nova,0.997085,1,2000.000000,1,COMPLETED_SUCCESSFULLY,993.902025,160.399990,1154.302015,992.904940,1153.304930,7.190181,2,-1.000000,""
80,w0,python3action_facedetection_SampleVideo_30mb,0.000000,1,-1.000000,1,COMPLETED_SUCCESSFULLY,1154.302030,0.000010,1154.302040,1154.302030,1154.302040,115430204.023907,2,-1.000000,""
179_updated,w0,python3action_linpack_6000_orion,0.997085,1,2000.000000,1,COMPLETED_SUCCESSFULLY,1066.763522,106.000000,1172.763522,1065.766437,1171.766437,11.054400,26,-1.000000,""
179,w0,python3action_linpack_6000,0.000000,1,-1.000000,1,COMPLETED_SUCCESSFULLY,1172.763537,0.000010,1172.763547,1172.763537,1172.763547,117276354.729897,26,-1.000000,""
22_updated,w0,python3action_pyaes_3000_troll,0.997085,1,2000.000000,1,COMPLETED_SUCCESSFULLY,1143.067028,57.166677,1200.233705,1142.069943,1199.236620,20.977896,44,-1.000000,""
22,w0,python3action_pyaes_3000,0.000000,1,-1.000000,1,COMPLETED_SUCCESSFULLY,1200.233720,0.000010,1200.233730,1200.233720,1200.233730,120023373.000201,44,-1.000000,""
196_updated,w0,python3action_chameleon_3000_yeti,0.997085,1,2000.000000,1,COMPLETED_SUCCESSFULLY,1117.895425,93.000000,1210.895425,1116.898340,1209.898340,13.009660,49,-1.000000,""
196,w0,python3action_chameleon_3000,0.000000,1,-1.000000,1,COMPLETED_SUCCESSFULLY,1210.895440,0.000010,1210.895450,1210.895440,1210.895450,121089545.007028,49,-1.000000,""
58_updated,w0,python3action_pyaes_3000_troll,0.997085,1,2000.000000,1,COMPLETED_SUCCESSFULLY,1200.233750,57.166677,1257.400427,1199.236665,1256.403342,21.977897,44,-1.000000,""
58,w0,python3action_pyaes_3000,0.000000,1,-1.000000,1,COMPLETED_SUCCESSFULLY,1257.400442,0.000010,1257.400452,1257.400442,1257.400452,125740045.200201,44,-1.000000,""
181_updated,w0,python3action_linpack_6000_orion,0.997085,1,2000.000000,1,COMPLETED_SUCCESSFULLY,1172.763567,106.000000,1278.763567,1171.766482,1277.766482,12.054401,26,-1.000000,""
181,w0,python3action_linpack_6000,0.000000,1,-1.000000,1,COMPLETED_SUCCESSFULLY,1278.763582,0.000010,1278.763592,1278.763582,1278.763592,127876359.230500,26,-1.000000,""
116_updated,w0,python3action_facedetection_SampleVideo_50mb_taurus,0.997085,1,2000.000000,1,COMPLETED_SUCCESSFULLY,1149.815345,134.600046,1284.415391,1148.818260,1283.418306,9.535051,29,-1.000000,""
116,w0,python3action_facedetection_SampleVideo_50mb,0.000000,1,-1.000000,1,COMPLETED_SUCCESSFULLY,1284.415406,0.000010,1284.415416,1284.415406,1284.415416,128441541.641242,29,-1.000000,""
81_updated,w0,python3action_pyaes_3000_troll,0.997085,1,2000.000000,1,COMPLETED_SUCCESSFULLY,1257.400472,57.166677,1314.567149,1256.403387,1313.570064,22.977898,44,-1.000000,""
81,w0,python3action_pyaes_3000,0.000000,1,-1.000000,1,COMPLETED_SUCCESSFULLY,1314.567164,0.000010,1314.567174,1314.567164,1314.567174,131456717.400201,44,-1.000000,""
96_updated,w0,python3action_facedetection_SampleVideo_30mb_nova,0.997085,1,2000.000000,1,COMPLETED_SUCCESSFULLY,1154.302060,160.399990,1314.702050,1153.304975,1313.704965,8.190181,2,-1.000000,""
96,w0,python3action_facedetection_SampleVideo_30mb,0.000000,1,-1.000000,1,COMPLETED_SUCCESSFULLY,1314.702065,0.000010,1314.702075,1314.702065,1314.702075,131470207.547613,2,-1.000000,""
88_updated,w0,python3action_pyaes_3000_troll,0.997085,1,2000.000000,1,COMPLETED_SUCCESSFULLY,1314.567194,57.166677,1371.733871,1313.570109,1370.736786,23.977899,44,-1.000000,""
88,w0,python3action_pyaes_3000,0.000000,1,-1.000000,1,COMPLETED_SUCCESSFULLY,1371.733886,0.000010,1371.733896,1371.733886,1371.733896,137173389.600201,44,-1.000000,""
160_updated,w0,python3action_facedetection_SampleVideo_50mb_taurus,0.997085,1,2000.000000,1,COMPLETED_SUCCESSFULLY,1284.415436,134.600046,1419.015483,1283.418351,1418.018398,10.535051,29,-1.000000,""
160,w0,python3action_facedetection_SampleVideo_50mb,0.000000,1,-1.000000,1,COMPLETED_SUCCESSFULLY,1419.015498,0.000010,1419.015508,1419.015498,1419.015508,141901550.800201,29,-1.000000,""
106_updated,w0,python3action_pyaes_3000_troll,0.997085,1,2000.000000,1,COMPLETED_SUCCESSFULLY,1371.733916,57.166677,1428.900593,1370.736831,1427.903508,24.977900,44,-1.000000,""
106,w0,python3action_pyaes_3000,0.000000,1,-1.000000,1,COMPLETED_SUCCESSFULLY,1428.900608,0.000010,1428.900618,1428.900608,1428.900618,142890061.800201,44,-1.000000,""
108_updated,w0,python3action_facedetection_SampleVideo_30mb_nova,0.997085,1,2000.000000,1,COMPLETED_SUCCESSFULLY,1314.702095,160.399990,1475.102086,1313.705010,1474.105001,9.190181,2,-1.000000,""
108,w0,python3action_facedetection_SampleVideo_30mb,0.000000,1,-1.000000,1,COMPLETED_SUCCESSFULLY,1475.102101,0.000010,1475.102111,1475.102101,1475.102111,147510211.100201,2,-1.000000,""
135_updated,w0,python3action_pyaes_3000_troll,0.997085,1,2000.000000,1,COMPLETED_SUCCESSFULLY,1428.900638,57.166677,1486.067315,1427.903553,1485.070230,25.977900,44,-1.000000,""
135,w0,python3action_pyaes_3000,0.000000,1,-1.000000,1,COMPLETED_SUCCESSFULLY,1486.067330,0.000010,1486.067340,1486.067330,1486.067340,148606734.000201,44,-1.000000,""
141_updated,w0,python3action_pyaes_3000_troll,0.997085,1,2000.000000,1,COMPLETED_SUCCESSFULLY,1486.067360,57.166677,1543.234037,1485.070275,1542.236952,26.977901,44,-1.000000,""
141,w0,python3action_pyaes_3000,0.000000,1,-1.000000,1,COMPLETED_SUCCESSFULLY,1543.234052,0.000010,1543.234062,1543.234052,1543.234062,154323406.200201,44,-1.000000,""
170_updated,w0,python3action_facedetection_SampleVideo_50mb_taurus,0.997085,1,2000.000000,1,COMPLETED_SUCCESSFULLY,1419.015528,134.600046,1553.615574,1418.018443,1552.618489,11.535052,29,-1.000000,""
170,w0,python3action_facedetection_SampleVideo_50mb,0.000000,1,-1.000000,1,COMPLETED_SUCCESSFULLY,1553.615589,0.000010,1553.615599,1553.615589,1553.615599,155361559.913881,29,-1.000000,""
144_updated,w0,python3action_pyaes_3000_troll,0.997085,1,2000.000000,1,COMPLETED_SUCCESSFULLY,1543.234082,57.166677,1600.400759,1542.236997,1599.403674,27.977902,44,-1.000000,""
144,w0,python3action_pyaes_3000,0.000000,1,-1.000000,1,COMPLETED_SUCCESSFULLY,1600.400774,0.000010,1600.400784,1600.400774,1600.400784,160040078.400201,44,-1.000000,""
127_updated,w0,python3action_facedetection_SampleVideo_30mb_nova,0.997085,1,2000.000000,1,COMPLETED_SUCCESSFULLY,1475.102131,160.399990,1635.502121,1474.105046,1634.505036,10.190182,2,-1.000000,""
127,w0,python3action_facedetection_SampleVideo_30mb,0.000000,1,-1.000000,1,COMPLETED_SUCCESSFULLY,1635.502136,0.000010,1635.502146,1635.502136,1635.502146,163550214.623907,2,-1.000000,""
151_updated,w0,python3action_pyaes_3000_troll,0.997085,1,2000.000000,1,COMPLETED_SUCCESSFULLY,1600.400804,57.166677,1657.567481,1599.403719,1656.570396,28.977903,44,-1.000000,""
151,w0,python3action_pyaes_3000,0.000000,1,-1.000000,1,COMPLETED_SUCCESSFULLY,1657.567496,0.000010,1657.567506,1657.567496,1657.567506,165756750.600201,44,-1.000000,""
194_updated,w0,python3action_facedetection_SampleVideo_50mb_taurus,0.997085,1,2000.000000,1,COMPLETED_SUCCESSFULLY,1553.615619,134.600046,1688.215665,1552.618534,1687.218580,12.535052,29,-1.000000,""
194,w0,python3action_facedetection_SampleVideo_50mb,0.000000,1,-1.000000,1,COMPLETED_SUCCESSFULLY,1688.215680,0.000010,1688.215690,1688.215680,1688.215690,168821569.027562,29,-1.000000,""
169_updated,w0,python3action_pyaes_3000_troll,0.997085,1,2000.000000,1,COMPLETED_SUCCESSFULLY,1657.567526,57.166677,1714.734203,1656.570441,1713.737118,29.977904,44,-1.000000,""
169,w0,python3action_pyaes_3000,0.000000,1,-1.000000,1,COMPLETED_SUCCESSFULLY,1714.734218,0.000010,1714.734228,1714.734218,1714.734228,171473422.800201,44,-1.000000,""
185_updated,w0,python3action_pyaes_3000_troll,0.997085,1,2000.000000,1,COMPLETED_SUCCESSFULLY,1714.734248,57.166677,1771.900925,1713.737163,1770.903840,30.977904,44,-1.000000,""
185,w0,python3action_pyaes_3000,0.000000,1,-1.000000,1,COMPLETED_SUCCESSFULLY,1771.900940,0.000010,1771.900950,1771.900940,1771.900950,177190095.000201,44,-1.000000,""
142_updated,w0,python3action_facedetection_SampleVideo_30mb_nova,0.997085,1,2000.000000,1,COMPLETED_SUCCESSFULLY,1635.502166,160.399990,1795.902156,1634.505081,1794.905071,11.190182,2,-1.000000,""
142,w0,python3action_facedetection_SampleVideo_30mb,0.000000,1,-1.000000,1,COMPLETED_SUCCESSFULLY,1795.902171,0.000010,1795.902181,1795.902171,1795.902181,179590218.147613,2,-1.000000,""
195_updated,w0,python3action_facedetection_SampleVideo_50mb_taurus,0.997085,1,2000.000000,1,COMPLETED_SUCCESSFULLY,1688.215710,134.600046,1822.815756,1687.218625,1821.818671,13.535052,29,-1.000000,""
195,w0,python3action_facedetection_SampleVideo_50mb,0.000000,1,-1.000000,1,COMPLETED_SUCCESSFULLY,1822.815771,0.000010,1822.815781,1822.815771,1822.815781,182281578.141242,29,-1.000000,""
190_updated,w0,python3action_pyaes_3000_troll,0.997085,1,2000.000000,1,COMPLETED_SUCCESSFULLY,1771.900970,57.166677,1829.067647,1770.903885,1828.070562,31.977905,44,-1.000000,""
190,w0,python3action_pyaes_3000,0.000000,1,-1.000000,1,COMPLETED_SUCCESSFULLY,1829.067662,0.000010,1829.067672,1829.067662,1829.067672,182906767.200201,44,-1.000000,""
python3action_image_processing_job13_4,w0,python3action_image_processing_reduced_0.86,0.997085,1,2000.000000,1,COMPLETED_SUCCESSFULLY,1822.815801,9.731413,1832.547214,1821.818716,1831.550129,188.210094,29,-1.000000,""
13_updated,w0,python3action_imageprocessing_SampleImage_40mb_taurus,0.997085,1,2000.000000,1,COMPLETED_SUCCESSFULLY,1832.547229,32.600046,1865.147275,1831.550144,1864.150190,57.182440,29,-1.000000,""
13,w0,python3action_imageprocessing_SampleImage_40mb,0.000000,1,-1.000000,1,COMPLETED_SUCCESSFULLY,1865.147290,0.000010,1865.147300,1865.147290,1865.147300,186514730.043107,29,-1.000000,""
33_updated,w0,python3action_imageprocessing_SampleImage_40mb_taurus,0.997085,1,2000.000000,1,COMPLETED_SUCCESSFULLY,1865.147320,32.600046,1897.747367,1864.150235,1896.750282,58.182442,29,-1.000000,""
33,w0,python3action_imageprocessing_SampleImage_40mb,0.000000,1,-1.000000,1,COMPLETED_SUCCESSFULLY,1897.747382,0.000010,1897.747392,1897.747382,1897.747392,189774739.200201,29,-1.000000,""
38_updated,w0,python3action_imageprocessing_SampleImage_40mb_taurus,0.997085,1,2000.000000,1,COMPLETED_SUCCESSFULLY,1897.747412,32.600046,1930.347458,1896.750327,1929.350373,59.182443,29,-1.000000,""
38,w0,python3action_imageprocessing_SampleImage_40mb,0.000000,1,-1.000000,1,COMPLETED_SUCCESSFULLY,1930.347473,0.000010,1930.347483,1930.347473,1930.347483,193034748.313881,29,-1.000000,""
157_updated,w0,python3action_facedetection_SampleVideo_30mb_nova,0.997085,1,2000.000000,1,COMPLETED_SUCCESSFULLY,1795.902201,160.399990,1956.302192,1794.905116,1955.305107,12.190182,2,-1.000000,""
157,w0,python3action_facedetection_SampleVideo_30mb,0.000000,1,-1.000000,1,COMPLETED_SUCCESSFULLY,1956.302207,0.000010,1956.302217,1956.302207,1956.302217,195630221.700201,2,-1.000000,""
61_updated,w0,python3action_imageprocessing_SampleImage_40mb_taurus,0.997085,1,2000.000000,1,COMPLETED_SUCCESSFULLY,1930.347503,32.600046,1962.947549,1929.350418,1961.950464,60.182444,29,-1.000000,""
61,w0,python3action_imageprocessing_SampleImage_40mb,0.000000,1,-1.000000,1,COMPLETED_SUCCESSFULLY,1962.947564,0.000010,1962.947574,1962.947564,1962.947574,196294757.427562,29,-1.000000,""
85_updated,w0,python3action_imageprocessing_SampleImage_40mb_taurus,0.997085,1,2000.000000,1,COMPLETED_SUCCESSFULLY,1962.947594,32.600046,1995.547640,1961.950509,1994.550555,61.182446,29,-1.000000,""
85,w0,python3action_imageprocessing_SampleImage_40mb,0.000000,1,-1.000000,1,COMPLETED_SUCCESSFULLY,1995.547655,0.000010,1995.547665,1995.547655,1995.547665,199554766.541242,29,-1.000000,""
92_updated,w0,python3action_imageprocessing_SampleImage_40mb_taurus,0.997085,1,2000.000000,1,COMPLETED_SUCCESSFULLY,1995.547685,32.600046,2028.147732,1994.550600,2027.150647,62.182447,29,-1.000000,""
92,w0,python3action_imageprocessing_SampleImage_40mb,0.000000,1,-1.000000,1,COMPLETED_SUCCESSFULLY,2028.147747,0.000010,2028.147757,2028.147747,2028.147757,202814775.700201,29,-1.000000,""
133_updated,w0,python3action_imageprocessing_SampleImage_40mb_taurus,0.997085,1,2000.000000,1,COMPLETED_SUCCESSFULLY,2028.147777,32.600046,2060.747823,2027.150692,2059.750738,63.182449,29,-1.000000,""
133,w0,python3action_imageprocessing_SampleImage_40mb,0.000000,1,-1.000000,1,COMPLETED_SUCCESSFULLY,2060.747838,0.000010,2060.747848,2060.747838,2060.747848,206074784.813881,29,-1.000000,""
166_updated,w0,python3action_imageprocessing_SampleImage_40mb_taurus,0.997085,1,2000.000000,1,COMPLETED_SUCCESSFULLY,2060.747868,32.600046,2093.347914,2059.750783,2092.350829,64.182450,29,-1.000000,""
166,w0,python3action_imageprocessing_SampleImage_40mb,0.000000,1,-1.000000,1,COMPLETED_SUCCESSFULLY,2093.347929,0.000010,2093.347939,2093.347929,2093.347939,209334793.927562,29,-1.000000,""
161_updated,w0,python3action_facedetection_SampleVideo_30mb_nova,0.997085,1,2000.000000,1,COMPLETED_SUCCESSFULLY,1956.302237,160.399990,2116.702227,1955.305152,2115.705142,13.190182,2,-1.000000,""
161,w0,python3action_facedetection_SampleVideo_30mb,0.000000,1,-1.000000,1,COMPLETED_SUCCESSFULLY,2116.702242,0.000010,2116.702252,2116.702242,2116.702252,211670225.223907,2,-1.000000,""
186_updated,w0,python3action_imageprocessing_SampleImage_40mb_taurus,0.997085,1,2000.000000,1,COMPLETED_SUCCESSFULLY,2093.347959,32.600046,2125.948005,2092.350874,2124.950920,65.182451,29,-1.000000,""
186,w0,python3action_imageprocessing_SampleImage_40mb,0.000000,1,-1.000000,1,COMPLETED_SUCCESSFULLY,2125.948020,0.000010,2125.948030,2125.948020,2125.948030,212594803.041242,29,-1.000000,""
python3action_linpack_job0_4,w0,python3action_linpack,0.997085,1,2000.000000,1,COMPLETED_SUCCESSFULLY,2125.948050,5.760927,2131.708978,2124.950965,2130.711893,369.855721,29,-1.000000,""
177_updated,w0,python3action_facedetection_SampleVideo_30mb_nova,0.997085,1,2000.000000,1,COMPLETED_SUCCESSFULLY,2116.702272,160.399990,2277.102262,2115.705187,2276.105177,14.190183,2,-1.000000,""
177,w0,python3action_facedetection_SampleVideo_30mb,0.000000,1,-1.000000,1,COMPLETED_SUCCESSFULLY,2277.102277,0.000010,2277.102287,2277.102277,2277.102287,227710228.747613,2,-1.000000,""
python3action_floatoperation_job2_2,w0,python3action_floatoperation,0.997085,1,2000.000000,1,COMPLETED_SUCCESSFULLY,2277.102307,2.439945,2279.542253,2276.105222,2278.545168,933.850924,2,-1.000000,""
0_updated,w0,python3action_linpack_6000_taurus,0.997085,1,2000.000000,1,COMPLETED_SUCCESSFULLY,2131.708993,157.600046,2289.309039,2130.711908,2288.311954,14.519742,29,-1.000000,""
0,w0,python3action_linpack_6000,0.000000,1,-1.000000,1,COMPLETED_SUCCESSFULLY,2289.309054,0.000010,2289.309064,2289.309054,2289.309064,228930906.413480,29,-1.000000,""
2_updated,w0,python3action_floatoperation_200000000_nova,0.997085,1,2000.000000,1,COMPLETED_SUCCESSFULLY,2279.542268,135.399990,2414.942258,2278.545183,2413.945173,17.828252,2,-1.000000,""
2,w0,python3action_floatoperation_200000000,0.000000,1,-1.000000,1,COMPLETED_SUCCESSFULLY,2414.942273,0.000010,2414.942283,2414.942273,2414.942283,241494228.323505,2,-1.000000,""
4_updated,w0,python3action_linpack_6000_taurus,0.997085,1,2000.000000,1,COMPLETED_SUCCESSFULLY,2289.309084,157.600046,2446.909130,2288.311999,2445.912045,15.519742,29,-1.000000,""
4,w0,python3action_linpack_6000,0.000000,1,-1.000000,1,COMPLETED_SUCCESSFULLY,2446.909145,0.000010,2446.909155,2446.909145,2446.909155,244690915.527161,29,-1.000000,""
5_updated,w0,python3action_floatoperation_100000000_nova,0.997085,1,2000.000000,1,COMPLETED_SUCCESSFULLY,2414.942303,66.200020,2481.142323,2413.945218,2480.145238,37.464419,2,-1.000000,""
5,w0,python3action_floatoperation_100000000,0.000000,1,-1.000000,1,COMPLETED_SUCCESSFULLY,2481.142338,0.000010,2481.142348,2481.142338,2481.142348,248114234.800201,2,-1.000000,""
31_updated,w0,python3action_floatoperation_100000000_nova,0.997085,1,2000.000000,1,COMPLETED_SUCCESSFULLY,2481.142368,66.200020,2547.342388,2480.145283,2546.345303,38.464419,2,-1.000000,""
31,w0,python3action_floatoperation_100000000,0.000000,1,-1.000000,1,COMPLETED_SUCCESSFULLY,2547.342403,0.000010,2547.342413,2547.342403,2547.342413,254734241.300201,2,-1.000000,""
7_updated,w0,python3action_linpack_6000_taurus,0.997085,1,2000.000000,1,COMPLETED_SUCCESSFULLY,2446.909175,157.600046,2604.509221,2445.912090,2603.512136,16.519742,29,-1.000000,""
7,w0,python3action_linpack_6000,0.000000,1,-1.000000,1,COMPLETED_SUCCESSFULLY,2604.509236,0.000010,2604.509246,2604.509236,2604.509246,260450924.640841,29,-1.000000,""
43_updated,w0,python3action_floatoperation_100000000_nova,0.997085,1,2000.000000,1,COMPLETED_SUCCESSFULLY,2547.342433,66.200020,2613.542453,2546.345348,2612.545368,39.464420,2,-1.000000,""
43,w0,python3action_floatoperation_100000000,0.000000,1,-1.000000,1,COMPLETED_SUCCESSFULLY,2613.542468,0.000010,2613.542478,2613.542468,2613.542478,261354247.800201,2,-1.000000,""
35_updated,w0,python3action_linpack_5000_taurus,0.997085,1,2000.000000,1,COMPLETED_SUCCESSFULLY,2604.509266,38.500058,2643.009324,2603.512181,2642.012239,68.623592,29,-1.000000,""
35,w0,python3action_linpack_5000,0.000000,1,-1.000000,1,COMPLETED_SUCCESSFULLY,2643.009339,0.000010,2643.009349,2643.009339,2643.009349,264300934.907791,29,-1.000000,""
44_updated,w0,python3action_floatoperation_100000000_nova,0.997085,1,2000.000000,1,COMPLETED_SUCCESSFULLY,2613.542498,66.200020,2679.742518,2612.545413,2678.745433,40.464421,2,-1.000000,""
44,w0,python3action_floatoperation_100000000,0.000000,1,-1.000000,1,COMPLETED_SUCCESSFULLY,2679.742533,0.000010,2679.742543,2679.742533,2679.742543,267974254.300201,2,-1.000000,""
54_updated,w0,python3action_linpack_5000_taurus,0.997085,1,2000.000000,1,COMPLETED_SUCCESSFULLY,2643.009369,38.500058,2681.509427,2642.012284,2680.512342,69.623593,29,-1.000000,""
54,w0,python3action_linpack_5000,0.000000,1,-1.000000,1,COMPLETED_SUCCESSFULLY,2681.509442,0.000010,2681.509452,2681.509442,2681.509452,268150945.200201,29,-1.000000,""
47_updated,w0,python3action_floatoperation_100000000_nova,0.997085,1,2000.000000,1,COMPLETED_SUCCESSFULLY,2679.742563,66.200020,2745.942583,2678.745478,2744.945498,41.464421,2,-1.000000,""
47,w0,python3action_floatoperation_100000000,0.000000,1,-1.000000,1,COMPLETED_SUCCESSFULLY,2745.942598,0.000010,2745.942608,2745.942598,2745.942608,274594260.800201,2,-1.000000,""
69_updated,w0,python3action_linpack_6000_taurus,0.997085,1,2000.000000,1,COMPLETED_SUCCESSFULLY,2681.509472,157.600046,2839.109518,2680.512387,2838.112433,18.008322,29,-1.000000,""
69,w0,python3action_linpack_6000,0.000000,1,-1.000000,1,COMPLETED_SUCCESSFULLY,2839.109533,0.000010,2839.109543,2839.109533,2839.109543,283910954.313882,29,-1.000000,""
73_updated,w0,python3action_linpack_5000_taurus,0.997085,1,2000.000000,1,COMPLETED_SUCCESSFULLY,2839.109563,38.500058,2877.609621,2838.112478,2876.612536,74.717097,29,-1.000000,""
73,w0,python3action_linpack_5000,0.000000,1,-1.000000,1,COMPLETED_SUCCESSFULLY,2877.609636,0.000010,2877.609646,2877.609636,2877.609646,287760964.600201,29,-1.000000,""
51_updated,w0,python3action_floatoperation_200000000_nova,0.997085,1,2000.000000,1,COMPLETED_SUCCESSFULLY,2745.942628,135.399990,2881.342618,2744.945543,2880.345533,21.272864,2,-1.000000,""
51,w0,python3action_floatoperation_200000000,0.000000,1,-1.000000,1,COMPLETED_SUCCESSFULLY,2881.342633,0.000010,2881.342643,2881.342633,2881.342643,288134264.323907,2,-1.000000,""
107_updated,w0,python3action_linpack_5000_taurus,0.997085,1,2000.000000,1,COMPLETED_SUCCESSFULLY,2877.609666,38.500058,2916.109724,2876.612581,2915.112639,75.717098,29,-1.000000,""
107,w0,python3action_linpack_5000,0.000000,1,-1.000000,1,COMPLETED_SUCCESSFULLY,2916.109739,0.000010,2916.109749,2916.109739,2916.109749,291610974.900201,29,-1.000000,""
113_updated,w0,python3action_linpack_5000_taurus,0.997085,1,2000.000000,1,COMPLETED_SUCCESSFULLY,2916.109769,38.500058,2954.609827,2915.112684,2953.612742,76.717099,29,-1.000000,""
113,w0,python3action_linpack_5000,0.000000,1,-1.000000,1,COMPLETED_SUCCESSFULLY,2954.609842,0.000010,2954.609852,2954.609842,2954.609852,295460985.200201,29,-1.000000,""
63_updated,w0,python3action_floatoperation_200000000_nova,0.997085,1,2000.000000,1,COMPLETED_SUCCESSFULLY,2881.342663,135.399990,3016.742653,2880.345578,3015.745568,22.272864,2,-1.000000,""
63,w0,python3action_floatoperation_200000000,0.000000,1,-1.000000,1,COMPLETED_SUCCESSFULLY,3016.742668,0.000010,3016.742678,3016.742668,3016.742678,301674267.847613,2,-1.000000,""
79_updated,w0,python3action_floatoperation_100000000_nova,0.997085,1,2000.000000,1,COMPLETED_SUCCESSFULLY,3016.742698,66.200020,3082.942718,3015.745613,3081.945633,46.555056,2,-1.000000,""
79,w0,python3action_floatoperation_100000000,0.000000,1,-1.000000,1,COMPLETED_SUCCESSFULLY,3082.942733,0.000010,3082.942743,3082.942733,3082.942743,308294274.302009,2,-1.000000,""
162_updated,w0,python3action_linpack_6000_taurus,0.997085,1,2000.000000,1,COMPLETED_SUCCESSFULLY,2954.609872,157.600046,3112.209918,2953.612787,3111.212833,19.741192,29,-1.000000,""
162,w0,python3action_linpack_6000,0.000000,1,-1.000000,1,COMPLETED_SUCCESSFULLY,3112.209933,0.000010,3112.209943,3112.209933,3112.209943,311220994.313882,29,-1.000000,""
100_updated,w0,python3action_floatoperation_100000000_nova,0.997085,1,2000.000000,1,COMPLETED_SUCCESSFULLY,3082.942763,66.200020,3149.142783,3081.945678,3148.145698,47.555057,2,-1.000000,""
100,w0,python3action_floatoperation_100000000,0.000000,1,-1.000000,1,COMPLETED_SUCCESSFULLY,3149.142798,0.000010,3149.142808,3149.142798,3149.142808,314914280.800201,2,-1.000000,""
167_updated,w0,python3action_linpack_5000_taurus,0.997085,1,2000.000000,1,COMPLETED_SUCCESSFULLY,3112.209963,38.500058,3150.710021,3111.212878,3149.712936,81.810603,29,-1.000000,""
167,w0,python3action_linpack_5000,0.000000,1,-1.000000,1,COMPLETED_SUCCESSFULLY,3150.710036,0.000010,3150.710046,3150.710036,3150.710046,315071004.600201,29,-1.000000,""
168_updated,w0,python3action_linpack_5000_taurus,0.997085,1,2000.000000,1,COMPLETED_SUCCESSFULLY,3150.710066,38.500058,3189.210124,3149.712981,3188.213039,82.810604,29,-1.000000,""
168,w0,python3action_linpack_5000,0.000000,1,-1.000000,1,COMPLETED_SUCCESSFULLY,3189.210139,0.000010,3189.210149,3189.210139,3189.210149,318921014.900201,29,-1.000000,""
109_updated,w0,python3action_floatoperation_100000000_nova,0.997085,1,2000.000000,1,COMPLETED_SUCCESSFULLY,3149.142828,66.200020,3215.342848,3148.145743,3214.345763,48.555058,2,-1.000000,""
109,w0,python3action_floatoperation_100000000,0.000000,1,-1.000000,1,COMPLETED_SUCCESSFULLY,3215.342863,0.000010,3215.342873,3215.342863,3215.342873,321534287.300201,2,-1.000000,""
188_updated,w0,python3action_linpack_5000_taurus,0.997085,1,2000.000000,1,COMPLETED_SUCCESSFULLY,3189.210169,38.500058,3227.710227,3188.213084,3226.713142,83.810605,29,-1.000000,""
188,w0,python3action_linpack_5000,0.000000,1,-1.000000,1,COMPLETED_SUCCESSFULLY,3227.710242,0.000010,3227.710252,3227.710242,3227.710252,322771025.200201,29,-1.000000,""
136_updated,w0,python3action_floatoperation_200000000_nova,0.997085,1,2000.000000,1,COMPLETED_SUCCESSFULLY,3215.342893,135.399990,3350.742883,3214.345808,3349.745798,24.739631,2,-1.000000,""
136,w0,python3action_floatoperation_200000000,0.000000,1,-1.000000,1,COMPLETED_SUCCESSFULLY,3350.742898,0.000010,3350.742908,3350.742898,3350.742908,335074290.823907,2,-1.000000,""
189_updated,w0,python3action_linpack_6000_taurus,0.997085,1,2000.000000,1,COMPLETED_SUCCESSFULLY,3227.710272,157.600046,3385.310318,3226.713187,3384.313233,21.474062,29,-1.000000,""
189,w0,python3action_linpack_6000,0.000000,1,-1.000000,1,COMPLETED_SUCCESSFULLY,3385.310333,0.000010,3385.310343,3385.310333,3385.310343,338531034.313882,29,-1.000000,""
138_updated,w0,python3action_floatoperation_200000000_nova,0.997085,1,2000.000000,1,COMPLETED_SUCCESSFULLY,3350.742928,135.399990,3486.142918,3349.745843,3485.145833,25.739631,2,-1.000000,""
138,w0,python3action_floatoperation_200000000,0.000000,1,-1.000000,1,COMPLETED_SUCCESSFULLY,3486.142933,0.000010,3486.142943,3486.142933,3486.142943,348614294.347613,2,-1.000000,""
191_updated,w0,python3action_linpack_6000_taurus,0.997085,1,2000.000000,1,COMPLETED_SUCCESSFULLY,3385.310363,157.600046,3542.910409,3384.313278,3541.913324,22.474063,29,-1.000000,""
191,w0,python3action_linpack_6000,0.000000,1,-1.000000,1,COMPLETED_SUCCESSFULLY,3542.910424,0.000010,3542.910434,3542.910424,3542.910434,354291043.427562,29,-1.000000,""
192_updated,w0,python3action_linpack_5000_taurus,0.997085,1,2000.000000,1,COMPLETED_SUCCESSFULLY,3542.910454,38.500058,3581.410512,3541.913369,3580.413427,92.997612,29,-1.000000,""
192,w0,python3action_linpack_5000,0.000000,1,-1.000000,1,COMPLETED_SUCCESSFULLY,3581.410527,0.000010,3581.410537,3581.410527,3581.410537,358141053.700201,29,-1.000000,""
python3action_video_processing_job9_4,w0,python3action_video_processing_reduced_1.83,0.997085,1,2000.000000,1,COMPLETED_SUCCESSFULLY,3581.410557,0.000000,3581.410557,3580.413472,3580.413472,30997686966272.371094,29,-1.000000,""
158_updated,w0,python3action_floatoperation_200000000_nova,0.997085,1,2000.000000,1,COMPLETED_SUCCESSFULLY,3486.142963,135.399990,3621.542954,3485.145878,3620.545869,26.739632,2,-1.000000,""
158,w0,python3action_floatoperation_200000000,0.000000,1,-1.000000,1,COMPLETED_SUCCESSFULLY,3621.542969,0.000010,3621.542979,3621.542969,3621.542979,362154297.900201,2,-1.000000,""
9_updated,w0,python3action_videoprocessing_SampleVideo_50mb_taurus,0.997085,1,2000.000000,1,COMPLETED_SUCCESSFULLY,3581.410587,154.250029,3735.660616,3580.413502,3734.663531,24.211753,29,-1.000000,""
9,w0,python3action_videoprocessing_SampleVideo_50mb,0.000000,1,-1.000000,1,COMPLETED_SUCCESSFULLY,3735.660631,0.000010,3735.660641,3735.660631,3735.660641,373566064.100201,29,-1.000000,""
159_updated,w0,python3action_floatoperation_200000000_nova,0.997085,1,2000.000000,1,COMPLETED_SUCCESSFULLY,3621.542999,135.399990,3756.942989,3620.545914,3755.945904,27.739632,2,-1.000000,""
159,w0,python3action_floatoperation_200000000,0.000000,1,-1.000000,1,COMPLETED_SUCCESSFULLY,3756.943004,0.000010,3756.943014,3756.943004,3756.943014,375694301.423907,2,-1.000000,""
173_updated,w0,python3action_floatoperation_100000000_nova,0.997085,1,2000.000000,1,COMPLETED_SUCCESSFULLY,3756.943034,66.200020,3823.143054,3755.945949,3822.145969,57.736327,2,-1.000000,""
173,w0,python3action_floatoperation_100000000,0.000000,1,-1.000000,1,COMPLETED_SUCCESSFULLY,3823.143069,0.000010,3823.143079,3823.143069,3823.143079,382314307.900201,2,-1.000000,""
67_updated,w0,python3action_videoprocessing_SampleVideo_50mb_taurus,0.997085,1,2000.000000,1,COMPLETED_SUCCESSFULLY,3735.660661,154.250029,3889.910690,3734.663576,3888.913605,25.211753,29,-1.000000,""
67,w0,python3action_videoprocessing_SampleVideo_50mb,0.000000,1,-1.000000,1,COMPLETED_SUCCESSFULLY,3889.910705,0.000010,3889.910715,3889.910705,3889.910715,388991071.500201,29,-1.000000,""
182_updated,w0,python3action_floatoperation_200000000_nova,0.997085,1,2000.000000,1,COMPLETED_SUCCESSFULLY,3823.143099,135.399990,3958.543089,3822.146014,3957.546004,29.228555,2,-1.000000,""
182,w0,python3action_floatoperation_200000000,0.000000,1,-1.000000,1,COMPLETED_SUCCESSFULLY,3958.543104,0.000010,3958.543114,3958.543104,3958.543114,395854311.423907,2,-1.000000,""
199_updated,w0,python3action_floatoperation_100000000_nova,0.997085,1,2000.000000,1,COMPLETED_SUCCESSFULLY,3958.543134,66.200020,4024.743154,3957.546049,4023.746069,60.781645,2,-1.000000,""
199,w0,python3action_floatoperation_100000000,0.000000,1,-1.000000,1,COMPLETED_SUCCESSFULLY,4024.743169,0.000010,4024.743179,4024.743169,4024.743179,402474317.900201,2,-1.000000,""
python3action_modeltraining_job10_2,w0,python3action_modeltraining_reduced_0.94,0.997085,1,2000.000000,1,COMPLETED_SUCCESSFULLY,4024.743199,1.794099,4026.537298,4023.746114,4025.540213,2243.767082,2,-1.000000,""
70_updated,w0,python3action_videoprocessing_SampleVideo_50mb_taurus,0.997085,1,2000.000000,1,COMPLETED_SUCCESSFULLY,3889.910735,154.250029,4044.160764,3888.913650,4043.163679,26.211753,29,-1.000000,""
70,w0,python3action_videoprocessing_SampleVideo_50mb,0.000000,1,-1.000000,1,COMPLETED_SUCCESSFULLY,4044.160779,0.000010,4044.160789,4044.160779,4044.160789,404416078.900201,29,-1.000000,""
10_updated,w0,python3action_modeltraining_reviews100mb_nova,0.997085,1,2000.000000,1,COMPLETED_SUCCESSFULLY,4026.537313,79.600010,4106.137323,4025.540228,4105.140238,51.572107,2,-1.000000,""
10,w0,python3action_modeltraining_reviews100mb,0.000000,1,-1.000000,1,COMPLETED_SUCCESSFULLY,4106.137338,0.000010,4106.137348,4106.137338,4106.137348,410613734.800201,2,-1.000000,""
11_updated,w0,python3action_modeltraining_reviews100mb_nova,0.997085,1,2000.000000,1,COMPLETED_SUCCESSFULLY,4106.137368,79.600010,4185.737378,4105.140283,4184.740293,52.572108,2,-1.000000,""
11,w0,python3action_modeltraining_reviews100mb,0.000000,1,-1.000000,1,COMPLETED_SUCCESSFULLY,4185.737393,0.000010,4185.737403,4185.737393,4185.737403,418573740.300201,2,-1.000000,""
91_updated,w0,python3action_videoprocessing_SampleVideo_50mb_taurus,0.997085,1,2000.000000,1,COMPLETED_SUCCESSFULLY,4044.160809,154.250029,4198.410838,4043.163724,4197.413753,27.211753,29,-1.000000,""
91,w0,python3action_videoprocessing_SampleVideo_50mb,0.000000,1,-1.000000,1,COMPLETED_SUCCESSFULLY,4198.410853,0.000010,4198.410863,4198.410853,4198.410863,419841086.300201,29,-1.000000,""
12_updated,w0,python3action_modeltraining_reviews100mb_nova,0.997085,1,2000.000000,1,COMPLETED_SUCCESSFULLY,4185.737423,79.600010,4265.337433,4184.740338,4264.340348,53.572108,2,-1.000000,""
12,w0,python3action_modeltraining_reviews100mb,0.000000,1,-1.000000,1,COMPLETED_SUCCESSFULLY,4265.337448,0.000010,4265.337458,4265.337448,4265.337458,426533745.800201,2,-1.000000,""
14_updated,w0,python3action_modeltraining_reviews50mb_nova,0.997085,1,2000.000000,1,COMPLETED_SUCCESSFULLY,4265.337478,42.399990,4307.737468,4264.340393,4306.740383,101.574089,2,-1.000000,""
14,w0,python3action_modeltraining_reviews50mb,0.000000,1,-1.000000,1,COMPLETED_SUCCESSFULLY,4307.737483,0.000010,4307.737493,4307.737483,4307.737493,430773749.323907,2,-1.000000,""
104_updated,w0,python3action_videoprocessing_SampleVideo_50mb_taurus,0.997085,1,2000.000000,1,COMPLETED_SUCCESSFULLY,4198.410883,154.250029,4352.660912,4197.413798,4351.663827,28.211754,29,-1.000000,""
104,w0,python3action_videoprocessing_SampleVideo_50mb,0.000000,1,-1.000000,1,COMPLETED_SUCCESSFULLY,4352.660927,0.000010,4352.660937,4352.660927,4352.660937,435266093.700201,29,-1.000000,""
23_updated,w0,python3action_modeltraining_reviews100mb_nova,0.997085,1,2000.000000,1,COMPLETED_SUCCESSFULLY,4307.737513,79.600010,4387.337523,4306.740428,4386.340438,55.104773,2,-1.000000,""
23,w0,python3action_modeltraining_reviews100mb,0.000000,1,-1.000000,1,COMPLETED_SUCCESSFULLY,4387.337538,0.000010,4387.337548,4387.337538,4387.337548,438733754.801405,2,-1.000000,""
26_updated,w0,python3action_modeltraining_reviews50mb_nova,0.997085,1,2000.000000,1,COMPLETED_SUCCESSFULLY,4387.337568,42.399990,4429.737558,4386.340483,4428.740473,104.451450,2,-1.000000,""
26,w0,python3action_modeltraining_reviews50mb,0.000000,1,-1.000000,1,COMPLETED_SUCCESSFULLY,4429.737573,0.000010,4429.737583,4429.737573,4429.737583,442973758.325111,2,-1.000000,""
30_updated,w0,python3action_modeltraining_reviews50mb_nova,0.997085,1,2000.000000,1,COMPLETED_SUCCESSFULLY,4429.737603,42.399990,4472.137593,4428.740518,4471.140508,105.451451,2,-1.000000,""
30,w0,python3action_modeltraining_reviews50mb,0.000000,1,-1.000000,1,COMPLETED_SUCCESSFULLY,4472.137608,0.000010,4472.137618,4472.137608,4472.137618,447213761.848817,2,-1.000000,""
110_updated,w0,python3action_videoprocessing_SampleVideo_50mb_taurus,0.997085,1,2000.000000,1,COMPLETED_SUCCESSFULLY,4352.660957,154.250029,4506.910986,4351.663872,4505.913901,29.211754,29,-1.000000,""
110,w0,python3action_videoprocessing_SampleVideo_50mb,0.000000,1,-1.000000,1,COMPLETED_SUCCESSFULLY,4506.911001,0.000010,4506.911011,4506.911001,4506.911011,450691101.100201,29,-1.000000,""
36_updated,w0,python3action_modeltraining_reviews50mb_nova,0.997085,1,2000.000000,1,COMPLETED_SUCCESSFULLY,4472.137638,42.399990,4514.537629,4471.140553,4513.540544,106.451452,2,-1.000000,""
36,w0,python3action_modeltraining_reviews50mb,0.000000,1,-1.000000,1,COMPLETED_SUCCESSFULLY,4514.537644,0.000010,4514.537654,4514.537644,4514.537654,451453765.400201,2,-1.000000,""
52_updated,w0,python3action_modeltraining_reviews50mb_nova,0.997085,1,2000.000000,1,COMPLETED_SUCCESSFULLY,4514.537674,42.399990,4556.937664,4513.540589,4555.940579,107.451454,2,-1.000000,""
52,w0,python3action_modeltraining_reviews50mb,0.000000,1,-1.000000,1,COMPLETED_SUCCESSFULLY,4556.937679,0.000010,4556.937689,4556.937679,4556.937689,455693768.923907,2,-1.000000,""
55_updated,w0,python3action_modeltraining_reviews100mb_nova,0.997085,1,2000.000000,1,COMPLETED_SUCCESSFULLY,4556.937709,79.600010,4636.537719,4555.940624,4635.540634,58.235428,2,-1.000000,""
55,w0,python3action_modeltraining_reviews100mb,0.000000,1,-1.000000,1,COMPLETED_SUCCESSFULLY,4636.537734,0.000010,4636.537744,4636.537734,4636.537744,463653774.401406,2,-1.000000,""
120_updated,w0,python3action_videoprocessing_SampleVideo_50mb_taurus,0.997085,1,2000.000000,1,COMPLETED_SUCCESSFULLY,4506.911031,154.250029,4661.161060,4505.913946,4660.163975,30.211754,29,-1.000000,""
120,w0,python3action_videoprocessing_SampleVideo_50mb,0.000000,1,-1.000000,1,COMPLETED_SUCCESSFULLY,4661.161075,0.000010,4661.161085,4661.161075,4661.161085,466116108.500201,29,-1.000000,""
65_updated,w0,python3action_modeltraining_reviews50mb_nova,0.997085,1,2000.000000,1,COMPLETED_SUCCESSFULLY,4636.537764,42.399990,4678.937754,4635.540679,4677.940669,110.328815,2,-1.000000,""
65,w0,python3action_modeltraining_reviews50mb,0.000000,1,-1.000000,1,COMPLETED_SUCCESSFULLY,4678.937769,0.000010,4678.937779,4678.937769,4678.937779,467893777.925111,2,-1.000000,""
76_updated,w0,python3action_modeltraining_reviews100mb_nova,0.997085,1,2000.000000,1,COMPLETED_SUCCESSFULLY,4678.937799,79.600010,4758.537809,4677.940714,4757.540724,59.768092,2,-1.000000,""
76,w0,python3action_modeltraining_reviews100mb,0.000000,1,-1.000000,1,COMPLETED_SUCCESSFULLY,4758.537824,0.000010,4758.537834,4758.537824,4758.537834,475853783.402610,2,-1.000000,""
77_updated,w0,python3action_modeltraining_reviews50mb_nova,0.997085,1,2000.000000,1,COMPLETED_SUCCESSFULLY,4758.537854,42.399990,4800.937844,4757.540769,4799.940759,113.206176,2,-1.000000,""
77,w0,python3action_modeltraining_reviews50mb,0.000000,1,-1.000000,1,COMPLETED_SUCCESSFULLY,4800.937859,0.000010,4800.937869,4800.937859,4800.937869,480093786.926316,2,-1.000000,""
164_updated,w0,python3action_videoprocessing_SampleVideo_50mb_taurus,0.997085,1,2000.000000,1,COMPLETED_SUCCESSFULLY,4661.161105,154.250029,4815.411134,4660.164020,4814.414049,31.211755,29,-1.000000,""
164,w0,python3action_videoprocessing_SampleVideo_50mb,0.000000,1,-1.000000,1,COMPLETED_SUCCESSFULLY,4815.411149,0.000010,4815.411159,4815.411149,4815.411159,481541115.900201,29,-1.000000,""
84_updated,w0,python3action_modeltraining_reviews50mb_nova,0.997085,1,2000.000000,1,COMPLETED_SUCCESSFULLY,4800.937889,42.399990,4843.337879,4799.940804,4842.340794,114.206177,2,-1.000000,""
84,w0,python3action_modeltraining_reviews50mb,0.000000,1,-1.000000,1,COMPLETED_SUCCESSFULLY,4843.337895,0.000010,4843.337905,4843.337895,4843.337905,484333790.450022,2,-1.000000,""
95_updated,w0,python3action_modeltraining_reviews100mb_nova,0.997085,1,2000.000000,1,COMPLETED_SUCCESSFULLY,4843.337925,79.600010,4922.937935,4842.340840,4921.940850,61.833420,2,-1.000000,""
95,w0,python3action_modeltraining_reviews100mb,0.000000,1,-1.000000,1,COMPLETED_SUCCESSFULLY,4922.937950,0.000010,4922.937960,4922.937950,4922.937960,492293796.000201,2,-1.000000,""
112_updated,w0,python3action_modeltraining_reviews50mb_nova,0.997085,1,2000.000000,1,COMPLETED_SUCCESSFULLY,4922.937980,42.399990,4965.337970,4921.940895,4964.340885,117.083538,2,-1.000000,""
112,w0,python3action_modeltraining_reviews50mb,0.000000,1,-1.000000,1,COMPLETED_SUCCESSFULLY,4965.337985,0.000010,4965.337995,4965.337985,4965.337995,496533799.523907,2,-1.000000,""
183_updated,w0,python3action_videoprocessing_SampleVideo_50mb_taurus,0.997085,1,2000.000000,1,COMPLETED_SUCCESSFULLY,4815.411179,154.250029,4969.661208,4814.414094,4968.664123,32.211755,29,-1.000000,""
183,w0,python3action_videoprocessing_SampleVideo_50mb,0.000000,1,-1.000000,1,COMPLETED_SUCCESSFULLY,4969.661223,0.000010,4969.661233,4969.661223,4969.661233,496966123.300201,29,-1.000000,""
114_updated,w0,python3action_modeltraining_reviews50mb_nova,0.997085,1,2000.000000,1,COMPLETED_SUCCESSFULLY,4965.338015,42.399990,5007.738005,4964.340930,5006.740920,118.083539,2,-1.000000,""
114,w0,python3action_modeltraining_reviews50mb,0.000000,1,-1.000000,1,COMPLETED_SUCCESSFULLY,5007.738020,0.000010,5007.738030,5007.738020,5007.738030,500773803.047613,2,-1.000000,""
123_updated,w0,python3action_modeltraining_reviews50mb_nova,0.997085,1,2000.000000,1,COMPLETED_SUCCESSFULLY,5007.738050,42.399990,5050.138041,5006.740965,5049.140956,119.083541,2,-1.000000,""
123,w0,python3action_modeltraining_reviews50mb,0.000000,1,-1.000000,1,COMPLETED_SUCCESSFULLY,5050.138056,0.000010,5050.138066,5050.138056,5050.138066,505013806.600201,2,-1.000000,""
129_updated,w0,python3action_modeltraining_reviews50mb_nova,0.997085,1,2000.000000,1,COMPLETED_SUCCESSFULLY,5050.138086,42.399990,5092.538076,5049.141001,5091.540991,120.083542,2,-1.000000,""
129,w0,python3action_modeltraining_reviews50mb,0.000000,1,-1.000000,1,COMPLETED_SUCCESSFULLY,5092.538091,0.000010,5092.538101,5092.538091,5092.538101,509253810.123907,2,-1.000000,""
131_updated,w0,python3action_modeltraining_reviews50mb_nova,0.997085,1,2000.000000,1,COMPLETED_SUCCESSFULLY,5092.538121,42.399990,5134.938111,5091.541036,5133.941026,121.083543,2,-1.000000,""
131,w0,python3action_modeltraining_reviews50mb,0.000000,1,-1.000000,1,COMPLETED_SUCCESSFULLY,5134.938126,0.000010,5134.938136,5134.938126,5134.938136,513493813.647613,2,-1.000000,""
132_updated,w0,python3action_modeltraining_reviews100mb_nova,0.997085,1,2000.000000,1,COMPLETED_SUCCESSFULLY,5134.938156,79.600010,5214.538166,5133.941071,5213.541081,65.496739,2,-1.000000,""
132,w0,python3action_modeltraining_reviews100mb,0.000000,1,-1.000000,1,COMPLETED_SUCCESSFULLY,5214.538181,0.000010,5214.538191,5214.538181,5214.538191,521453819.125111,2,-1.000000,""
137_updated,w0,python3action_modeltraining_reviews50mb_nova,0.997085,1,2000.000000,1,COMPLETED_SUCCESSFULLY,5214.538211,42.399990,5256.938201,5213.541126,5255.941116,123.960904,2,-1.000000,""
137,w0,python3action_modeltraining_reviews50mb,0.000000,1,-1.000000,1,COMPLETED_SUCCESSFULLY,5256.938216,0.000010,5256.938226,5256.938216,5256.938226,525693822.648817,2,-1.000000,""
146_updated,w0,python3action_modeltraining_reviews50mb_nova,0.997085,1,2000.000000,1,COMPLETED_SUCCESSFULLY,5256.938246,42.399990,5299.338237,5255.941161,5298.341152,124.960905,2,-1.000000,""
146,w0,python3action_modeltraining_reviews50mb,0.000000,1,-1.000000,1,COMPLETED_SUCCESSFULLY,5299.338252,0.000010,5299.338262,5299.338252,5299.338262,529933826.200201,2,-1.000000,""
153_updated,w0,python3action_modeltraining_reviews50mb_nova,0.997085,1,2000.000000,1,COMPLETED_SUCCESSFULLY,5299.338282,42.399990,5341.738272,5298.341197,5340.741187,125.960906,2,-1.000000,""
153,w0,python3action_modeltraining_reviews50mb,0.000000,1,-1.000000,1,COMPLETED_SUCCESSFULLY,5341.738287,0.000010,5341.738297,5341.738287,5341.738297,534173829.723907,2,-1.000000,""
155_updated,w0,python3action_modeltraining_reviews50mb_nova,0.997085,1,2000.000000,1,COMPLETED_SUCCESSFULLY,5341.738317,42.399990,5384.138307,5340.741232,5383.141222,126.960907,2,-1.000000,""
155,w0,python3action_modeltraining_reviews50mb,0.000000,1,-1.000000,1,COMPLETED_SUCCESSFULLY,5384.138322,0.000010,5384.138332,5384.138322,5384.138332,538413833.247613,2,-1.000000,""
163_updated,w0,python3action_modeltraining_reviews100mb_nova,0.997085,1,2000.000000,1,COMPLETED_SUCCESSFULLY,5384.138352,79.600010,5463.738362,5383.141267,5462.741277,68.627395,2,-1.000000,""
163,w0,python3action_modeltraining_reviews100mb,0.000000,1,-1.000000,1,COMPLETED_SUCCESSFULLY,5463.738377,0.000010,5463.738387,5463.738377,5463.738387,546373838.725111,2,-1.000000,""
180_updated,w0,python3action_modeltraining_reviews100mb_nova,0.997085,1,2000.000000,1,COMPLETED_SUCCESSFULLY,5463.738407,79.600010,5543.338417,5462.741322,5542.341332,69.627395,2,-1.000000,""
180,w0,python3action_modeltraining_reviews100mb,0.000000,1,-1.000000,1,COMPLETED_SUCCESSFULLY,5543.338432,0.000010,5543.338442,5543.338432,5543.338442,554333844.202610,2,-1.000000,""
184_updated,w0,python3action_modeltraining_reviews100mb_nova,0.997085,1,2000.000000,1,COMPLETED_SUCCESSFULLY,5543.338462,79.600010,5622.938472,5542.341377,5621.941387,70.627396,2,-1.000000,""
184,w0,python3action_modeltraining_reviews100mb,0.000000,1,-1.000000,1,COMPLETED_SUCCESSFULLY,5622.938487,0.000010,5622.938497,5622.938487,5622.938497,562293849.700201,2,-1.000000,""
187_updated,w0,python3action_modeltraining_reviews50mb_nova,0.997085,1,2000.000000,1,COMPLETED_SUCCESSFULLY,5622.938517,42.399990,5665.338507,5621.941432,5664.341422,133.592989,2,-1.000000,""
187,w0,python3action_modeltraining_reviews50mb,0.000000,1,-1.000000,1,COMPLETED_SUCCESSFULLY,5665.338522,0.000010,5665.338532,5665.338522,5665.338532,566533853.223907,2,-1.000000,""
197_updated,w0,python3action_modeltraining_reviews100mb_nova,0.997085,1,2000.000000,1,COMPLETED_SUCCESSFULLY,5665.338552,79.600010,5744.938562,5664.341467,5743.941477,72.160060,2,-1.000000,""
197,w0,python3action_modeltraining_reviews100mb,0.000000,1,-1.000000,1,COMPLETED_SUCCESSFULLY,5744.938577,0.000010,5744.938587,5744.938577,5744.938587,574493858.701405,2,-1.000000,""
python3action_pyaes_job17_2,w0,python3action_pyaes,0.997085,1,2000.000000,1,COMPLETED_SUCCESSFULLY,5744.938607,2.134958,5747.073565,5743.941522,5746.076480,2691.423363,2,-1.000000,""
17_updated,w0,python3action_pyaes_3000_nova,0.997085,1,2000.000000,1,COMPLETED_SUCCESSFULLY,5747.073580,78.200020,5825.273600,5746.076495,5824.276515,74.479221,2,-1.000000,""
17,w0,python3action_pyaes_3000,0.000000,1,-1.000000,1,COMPLETED_SUCCESSFULLY,5825.273615,0.000010,5825.273625,5825.273615,5825.273625,582527362.500201,2,-1.000000,""
19_updated,w0,python3action_pyaes_4000_nova,0.997085,1,2000.000000,1,COMPLETED_SUCCESSFULLY,5825.273645,139.600010,5964.873655,5824.276560,5963.876570,42.721176,2,-1.000000,""
19,w0,python3action_pyaes_4000,0.000000,1,-1.000000,1,COMPLETED_SUCCESSFULLY,5964.873670,0.000010,5964.873680,5964.873670,5964.873680,596487368.000201,2,-1.000000,""
34_updated,w0,python3action_pyaes_4000_nova,0.997085,1,2000.000000,1,COMPLETED_SUCCESSFULLY,5964.873700,139.600010,6104.473710,5963.876615,6103.476625,43.721176,2,-1.000000,""
34,w0,python3action_pyaes_4000,0.000000,1,-1.000000,1,COMPLETED_SUCCESSFULLY,6104.473725,0.000010,6104.473735,6104.473725,6104.473735,610447373.500201,2,-1.000000,""
87_updated,w0,python3action_pyaes_4000_nova,0.997085,1,2000.000000,1,COMPLETED_SUCCESSFULLY,6104.473755,139.600010,6244.073765,6103.476670,6243.076680,44.721177,2,-1.000000,""
87,w0,python3action_pyaes_4000,0.000000,1,-1.000000,1,COMPLETED_SUCCESSFULLY,6244.073780,0.000010,6244.073790,6244.073780,6244.073790,624407379.000201,2,-1.000000,""
105_updated,w0,python3action_pyaes_4000_nova,0.997085,1,2000.000000,1,COMPLETED_SUCCESSFULLY,6244.073810,139.600010,6383.673820,6243.076725,6382.676735,45.721177,2,-1.000000,""
105,w0,python3action_pyaes_4000,0.000000,1,-1.000000,1,COMPLETED_SUCCESSFULLY,6383.673835,0.000010,6383.673845,6383.673835,6383.673845,638367384.500201,2,-1.000000,""
118_updated,w0,python3action_pyaes_4000_nova,0.997085,1,2000.000000,1,COMPLETED_SUCCESSFULLY,6383.673865,139.600010,6523.273875,6382.676780,6522.276790,46.721177,2,-1.000000,""
118,w0,python3action_pyaes_4000,0.000000,1,-1.000000,1,COMPLETED_SUCCESSFULLY,6523.273890,0.000010,6523.273900,6523.273890,6523.273900,652327390.000201,2,-1.000000,""
124_updated,w0,python3action_pyaes_4000_nova,0.997085,1,2000.000000,1,COMPLETED_SUCCESSFULLY,6523.273920,139.600010,6662.873930,6522.276835,6661.876845,47.721177,2,-1.000000,""
124,w0,python3action_pyaes_4000,0.000000,1,-1.000000,1,COMPLETED_SUCCESSFULLY,6662.873945,0.000010,6662.873955,6662.873945,6662.873955,666287395.500201,2,-1.000000,""
139_updated,w0,python3action_pyaes_4000_nova,0.997085,1,2000.000000,1,COMPLETED_SUCCESSFULLY,6662.873975,139.600010,6802.473985,6661.876890,6801.476900,48.721178,2,-1.000000,""
139,w0,python3action_pyaes_4000,0.000000,1,-1.000000,1,COMPLETED_SUCCESSFULLY,6802.474000,0.000010,6802.474010,6802.474000,6802.474010,680247401.000201,2,-1.000000,""
148_updated,w0,python3action_pyaes_4000_nova,0.997085,1,2000.000000,1,COMPLETED_SUCCESSFULLY,6802.474030,139.600010,6942.074040,6801.476945,6941.076955,49.721178,2,-1.000000,""
148,w0,python3action_pyaes_4000,0.000000,1,-1.000000,1,COMPLETED_SUCCESSFULLY,6942.074055,0.000010,6942.074065,6942.074055,6942.074065,694207406.500201,2,-1.000000,""
154_updated,w0,python3action_pyaes_4000_nova,0.997085,1,2000.000000,1,COMPLETED_SUCCESSFULLY,6942.074085,139.600010,7081.674095,6941.077000,7080.677010,50.721178,2,-1.000000,""
154,w0,python3action_pyaes_4000,0.000000,1,-1.000000,1,COMPLETED_SUCCESSFULLY,7081.674110,0.000010,7081.674120,7081.674110,7081.674120,708167412.000201,2,-1.000000,""
165_updated,w0,python3action_pyaes_4000_nova,0.997085,1,2000.000000,1,COMPLETED_SUCCESSFULLY,7081.674140,139.600010,7221.274150,7080.677055,7220.277065,51.721179,2,-1.000000,""
165,w0,python3action_pyaes_4000,0.000000,1,-1.000000,1,COMPLETED_SUCCESSFULLY,7221.274165,0.000010,7221.274175,7221.274165,7221.274175,722127417.500201,2,-1.000000,""
178_updated,w0,python3action_pyaes_4000_nova,0.997085,1,2000.000000,1,COMPLETED_SUCCESSFULLY,7221.274195,139.600010,7360.874205,7220.277110,7359.877120,52.721179,2,-1.000000,""
178,w0,python3action_pyaes_4000,0.000000,1,-1.000000,1,COMPLETED_SUCCESSFULLY,7360.874220,0.000010,7360.874230,7360.874220,7360.874230,736087423.000201,2,-1.000000,""
198_updated,w0,python3action_pyaes_4000_nova,0.997085,1,2000.000000,1,COMPLETED_SUCCESSFULLY,7360.874250,139.600010,7500.474260,7359.877165,7499.477175,53.721179,2,-1.000000,""
198,w0,python3action_pyaes_4000,0.000000,1,-1.000000,1,COMPLETED_SUCCESSFULLY,7500.474275,0.000010,7500.474285,7500.474275,7500.474285,750047428.500201,2,-1.000000,""
python3action_video_processing_job20_2,w0,python3action_video_processing_reduced_1.89,0.997085,1,2000.000000,1,COMPLETED_SUCCESSFULLY,7500.474305,0.000000,7500.474305,7499.477220,7499.477220,152699303808109.406250,2,-1.000000,""
20_updated,w0,python3action_videoprocessing_SampleVideo_30mb_nova,0.997085,1,2000.000000,1,COMPLETED_SUCCESSFULLY,7500.474335,106.799980,7607.274315,7499.477250,7606.277230,71.219837,2,-1.000000,""
20,w0,python3action_videoprocessing_SampleVideo_30mb,0.000000,1,-1.000000,1,COMPLETED_SUCCESSFULLY,7607.274330,0.000010,7607.274340,7607.274330,7607.274340,760727434.047412,2,-1.000000,""
42_updated,w0,python3action_videoprocessing_SampleVideo_30mb_nova,0.997085,1,2000.000000,1,COMPLETED_SUCCESSFULLY,7607.274360,106.799980,7714.074341,7606.277275,7713.077256,72.219838,2,-1.000000,""
42,w0,python3action_videoprocessing_SampleVideo_30mb,0.000000,1,-1.000000,1,COMPLETED_SUCCESSFULLY,7714.074356,0.000010,7714.074366,7714.074356,7714.074366,771407436.600201,2,-1.000000,""
48_updated,w0,python3action_videoprocessing_SampleVideo_30mb_nova,0.997085,1,2000.000000,1,COMPLETED_SUCCESSFULLY,7714.074386,106.799980,7820.874366,7713.077301,7819.877281,73.219838,2,-1.000000,""
48,w0,python3action_videoprocessing_SampleVideo_30mb,0.000000,1,-1.000000,1,COMPLETED_SUCCESSFULLY,7820.874381,0.000010,7820.874391,7820.874381,7820.874391,782087439.147010,2,-1.000000,""
53_updated,w0,python3action_videoprocessing_SampleVideo_50mb_nova,0.997085,1,2000.000000,1,COMPLETED_SUCCESSFULLY,7820.874411,139.600010,7960.474421,7819.877326,7959.477336,57.016309,2,-1.000000,""
53,w0,python3action_videoprocessing_SampleVideo_50mb,0.000000,1,-1.000000,1,COMPLETED_SUCCESSFULLY,7960.474436,0.000010,7960.474446,7960.474436,7960.474446,796047444.624509,2,-1.000000,""
66_updated,w0,python3action_videoprocessing_SampleVideo_30mb_nova,0.997085,1,2000.000000,1,COMPLETED_SUCCESSFULLY,7960.474466,106.799980,8067.274447,7959.477381,8066.277362,75.526955,2,-1.000000,""
66,w0,python3action_videoprocessing_SampleVideo_30mb,0.000000,1,-1.000000,1,COMPLETED_SUCCESSFULLY,8067.274462,0.000010,8067.274472,8067.274462,8067.274472,806727447.200201,2,-1.000000,""
68_updated,w0,python3action_videoprocessing_SampleVideo_50mb_nova,0.997085,1,2000.000000,1,COMPLETED_SUCCESSFULLY,8067.274492,139.600010,8206.874502,8066.277407,8205.877417,58.781353,2,-1.000000,""
68,w0,python3action_videoprocessing_SampleVideo_50mb,0.000000,1,-1.000000,1,COMPLETED_SUCCESSFULLY,8206.874517,0.000010,8206.874527,8206.874517,8206.874527,820687452.700201,2,-1.000000,""
78_updated,w0,python3action_videoprocessing_SampleVideo_50mb_nova,0.997085,1,2000.000000,1,COMPLETED_SUCCESSFULLY,8206.874547,139.600010,8346.474557,8205.877462,8345.477472,59.781353,2,-1.000000,""
78,w0,python3action_videoprocessing_SampleVideo_50mb,0.000000,1,-1.000000,1,COMPLETED_SUCCESSFULLY,8346.474572,0.000010,8346.474582,8346.474572,8346.474582,834647458.200201,2,-1.000000,""
93_updated,w0,python3action_videoprocessing_SampleVideo_50mb_nova,0.997085,1,2000.000000,1,COMPLETED_SUCCESSFULLY,8346.474602,139.600010,8486.074612,8345.477517,8485.077527,60.781353,2,-1.000000,""
93,w0,python3action_videoprocessing_SampleVideo_50mb,0.000000,1,-1.000000,1,COMPLETED_SUCCESSFULLY,8486.074627,0.000010,8486.074637,8486.074627,8486.074637,848607463.700201,2,-1.000000,""
97_updated,w0,python3action_videoprocessing_SampleVideo_50mb_nova,0.997085,1,2000.000000,1,COMPLETED_SUCCESSFULLY,8486.074657,139.600010,8625.674667,8485.077572,8624.677582,61.781354,2,-1.000000,""
97,w0,python3action_videoprocessing_SampleVideo_50mb,0.000000,1,-1.000000,1,COMPLETED_SUCCESSFULLY,8625.674682,0.000010,8625.674692,8625.674682,8625.674692,862567469.200201,2,-1.000000,""
103_updated,w0,python3action_videoprocessing_SampleVideo_30mb_nova,0.997085,1,2000.000000,1,COMPLETED_SUCCESSFULLY,8625.674712,106.799980,8732.474692,8624.677627,8731.477607,81.755423,2,-1.000000,""
103,w0,python3action_videoprocessing_SampleVideo_30mb,0.000000,1,-1.000000,1,COMPLETED_SUCCESSFULLY,8732.474707,0.000010,8732.474717,8732.474707,8732.474717,873247471.747010,2,-1.000000,""
121_updated,w0,python3action_videoprocessing_SampleVideo_50mb_nova,0.997085,1,2000.000000,1,COMPLETED_SUCCESSFULLY,8732.474737,139.600010,8872.074747,8731.477652,8871.077662,63.546397,2,-1.000000,""
121,w0,python3action_videoprocessing_SampleVideo_50mb,0.000000,1,-1.000000,1,COMPLETED_SUCCESSFULLY,8872.074762,0.000010,8872.074772,8872.074762,8872.074772,887207477.224509,2,-1.000000,""
126_updated,w0,python3action_videoprocessing_SampleVideo_30mb_nova,0.997085,1,2000.000000,1,COMPLETED_SUCCESSFULLY,8872.074792,106.799980,8978.874773,8871.077707,8977.877688,84.062541,2,-1.000000,""
126,w0,python3action_videoprocessing_SampleVideo_30mb,0.000000,1,-1.000000,1,COMPLETED_SUCCESSFULLY,8978.874788,0.000010,8978.874798,8978.874788,8978.874798,897887479.800201,2,-1.000000,""
149_updated,w0,python3action_videoprocessing_SampleVideo_30mb_nova,0.997085,1,2000.000000,1,COMPLETED_SUCCESSFULLY,8978.874818,106.799980,9085.674798,8977.877733,9084.677713,85.062541,2,-1.000000,""
149,w0,python3action_videoprocessing_SampleVideo_30mb,0.000000,1,-1.000000,1,COMPLETED_SUCCESSFULLY,9085.674813,0.000010,9085.674823,9085.674813,9085.674823,908567482.347010,2,-1.000000,""
175_updated,w0,python3action_videoprocessing_SampleVideo_50mb_nova,0.997085,1,2000.000000,1,COMPLETED_SUCCESSFULLY,9085.674843,139.600010,9225.274853,9084.677758,9224.277768,66.076484,2,-1.000000,""
175,w0,python3action_videoprocessing_SampleVideo_50mb,0.000000,1,-1.000000,1,COMPLETED_SUCCESSFULLY,9225.274868,0.000010,9225.274878,9225.274868,9225.274878,922527487.824509,2,-1.000000,""
176_updated,w0,python3action_videoprocessing_SampleVideo_30mb_nova,0.997085,1,2000.000000,1,COMPLETED_SUCCESSFULLY,9225.274898,106.799980,9332.074879,9224.277813,9331.077794,87.369658,2,-1.000000,""
176,w0,python3action_videoprocessing_SampleVideo_30mb,0.000000,1,-1.000000,1,COMPLETED_SUCCESSFULLY,9332.074894,0.000010,9332.074904,9332.074894,9332.074904,933207490.400201,2,-1.000000,""
193_updated,w0,python3action_videoprocessing_SampleVideo_50mb_nova,0.997085,1,2000.000000,1,COMPLETED_SUCCESSFULLY,9332.074924,139.600010,9471.674934,9331.077839,9470.677849,67.841527,2,-1.000000,""
193,w0,python3action_videoprocessing_SampleVideo_50mb,0.000000,1,-1.000000,1,COMPLETED_SUCCESSFULLY,9471.674949,0.000010,9471.674959,9471.674949,9471.674959,947167495.900201,2,-1.000000,""
