job_id,workload_name,profile,submission_time,requested_number_of_resources,requested_time,success,final_state,starting_time,execution_time,finish_time,waiting_time,turnaround_time,stretch,allocated_resources,consumed_energy,metadata
python3action_chameleon_job2_0,w0,python3action_chameleon,0.997085,1,2000.000000,1,COMPLETED_SUCCESSFULLY,1.002100,0.243006,1.245106,0.005015,0.248021,1.020637,0,-1.000000,""
python3action_pyaes_job1_2,w0,python3action_pyaes,0.997085,1,2000.000000,1,COMPLETED_SUCCESSFULLY,1.002130,0.867914,1.870044,0.005045,0.872959,1.005813,4,-1.000000,""
python3action_chameleon_job4_3,w0,python3action_chameleon,0.997085,1,2000.000000,1,COMPLETED_SUCCESSFULLY,1.002145,0.892694,1.894839,0.005060,0.897754,1.005668,5,-1.000000,""
2_updated,w0,python3action_chameleon_2000_neowise,0.997085,1,2000.000000,1,COMPLETED_SUCCESSFULLY,1.245121,24.200002,25.445123,0.248036,24.448038,1.010249,0,-1.000000,""
2,w0,python3action_chameleon_2000,0.000000,1,-1.000000,1,COMPLETED_SUCCESSFULLY,25.445138,0.000010,25.445148,25.445138,25.445148,2544514.822787,0,-1.000000,""
python3action_facedetection_job7_4,w0,python3action_facedetection,0.997085,1,2000.000000,1,COMPLETED_SUCCESSFULLY,1.002160,30.499683,31.501843,0.005075,30.504758,1.000166,6,-1.000000,""
1_updated,w0,python3action_pyaes_3000_troll,0.997085,1,2000.000000,1,COMPLETED_SUCCESSFULLY,1.870059,57.166677,59.036736,0.872974,58.039651,1.015271,4,-1.000000,""
1,w0,python3action_pyaes_3000,0.000000,1,-1.000000,1,COMPLETED_SUCCESSFULLY,59.036751,0.000010,59.036761,59.036751,59.036761,5903676.100201,4,-1.000000,""
python3action_facedetection_job3_1,w0,python3action_facedetection,0.997085,1,2000.000000,1,COMPLETED_SUCCESSFULLY,1.002115,72.012455,73.014570,0.005030,72.017485,1.000070,2,-1.000000,""
python3action_image_processing_job16_5,w0,python3action_image_processing,0.997085,1,2000.000000,1,COMPLETED_SUCCESSFULLY,1.002175,72.012455,73.014630,0.005090,72.017545,1.000071,11,-1.000000,""
12_updated,w0,python3action_chameleon_3000_neowise,0.997085,1,2000.000000,1,COMPLETED_SUCCESSFULLY,25.445168,55.799998,81.245166,24.448083,80.248081,1.438138,0,-1.000000,""
12,w0,python3action_chameleon_3000,0.000000,1,-1.000000,1,COMPLETED_SUCCESSFULLY,81.245181,0.000010,81.245191,81.245181,81.245191,8124519.101004,0,-1.000000,""
4_updated,w0,python3action_chameleon_3000_yeti,0.997085,1,2000.000000,1,COMPLETED_SUCCESSFULLY,1.894854,93.000000,94.894854,0.897769,93.897769,1.009653,5,-1.000000,""
4,w0,python3action_chameleon_3000,0.000000,1,-1.000000,1,COMPLETED_SUCCESSFULLY,94.894869,0.000010,94.894879,94.894869,94.894879,9489487.949564,5,-1.000000,""
16_updated,w0,python3action_imageprocessing_SampleImage_40mb_orion,0.997085,1,2000.000000,1,COMPLETED_SUCCESSFULLY,73.014645,32.000000,105.014645,72.017560,104.017560,3.250549,11,-1.000000,""
16,w0,python3action_imageprocessing_SampleImage_40mb,0.000000,1,-1.000000,1,COMPLETED_SUCCESSFULLY,105.014660,0.000010,105.014670,105.014660,105.014670,10501467.032687,11,-1.000000,""
26_updated,w0,python3action_chameleon_2000_neowise,0.997085,1,2000.000000,1,COMPLETED_SUCCESSFULLY,81.245211,24.200002,105.445213,80.248126,104.448128,4.316038,0,-1.000000,""
26,w0,python3action_chameleon_2000,0.000000,1,-1.000000,1,COMPLETED_SUCCESSFULLY,105.445228,0.000010,105.445238,105.445228,105.445238,10544523.823992,0,-1.000000,""
46_updated,w0,python3action_chameleon_2000_neowise,0.997085,1,2000.000000,1,COMPLETED_SUCCESSFULLY,105.445258,24.200002,129.645260,104.448173,128.648175,5.316040,0,-1.000000,""
46,w0,python3action_chameleon_2000,0.000000,1,-1.000000,1,COMPLETED_SUCCESSFULLY,129.645275,0.000010,129.645285,129.645275,129.645285,12964528.546979,0,-1.000000,""
19_updated,w0,python3action_imageprocessing_SampleImage_40mb_orion,0.997085,1,2000.000000,1,COMPLETED_SUCCESSFULLY,105.014690,32.000000,137.014690,104.017605,136.017605,4.250550,11,-1.000000,""
19,w0,python3action_imageprocessing_SampleImage_40mb,0.000000,1,-1.000000,1,COMPLETED_SUCCESSFULLY,137.014705,0.000010,137.014715,137.014705,137.014715,13701471.533289,11,-1.000000,""
54_updated,w0,python3action_chameleon_2000_neowise,0.997085,1,2000.000000,1,COMPLETED_SUCCESSFULLY,129.645305,24.200002,153.845308,128.648220,152.848223,6.316042,0,-1.000000,""
54,w0,python3action_chameleon_2000,0.000000,1,-1.000000,1,COMPLETED_SUCCESSFULLY,153.845323,0.000010,153.845333,153.845323,153.845333,15384533.300201,0,-1.000000,""
9_updated,w0,python3action_pyaes_4000_troll,0.997085,1,2000.000000,1,COMPLETED_SUCCESSFULLY,59.036781,102.333333,161.370114,58.039696,160.373029,1.567163,4,-1.000000,""
9,w0,python3action_pyaes_4000,0.000000,1,-1.000000,1,COMPLETED_SUCCESSFULLY,161.370129,0.000010,161.370139,161.370129,161.370139,16137013.934137,4,-1.000000,""
24_updated,w0,python3action_imageprocessing_SampleImage_40mb_orion,0.997085,1,2000.000000,1,COMPLETED_SUCCESSFULLY,137.014735,32.000000,169.014735,136.017650,168.017650,5.250552,11,-1.000000,""
24,w0,python3action_imageprocessing_SampleImage_40mb,0.000000,1,-1.000000,1,COMPLETED_SUCCESSFULLY,169.014750,0.000010,169.014760,169.014750,169.014760,16901476.033892,11,-1.000000,""
67_updated,w0,python3action_chameleon_2000_neowise,0.997085,1,2000.000000,1,COMPLETED_SUCCESSFULLY,153.845353,24.200002,178.045355,152.848268,177.048270,7.316044,0,-1.000000,""
67,w0,python3action_chameleon_2000,0.000000,1,-1.000000,1,COMPLETED_SUCCESSFULLY,178.045370,0.000010,178.045380,178.045370,178.045380,17804538.023188,0,-1.000000,""
34_updated,w0,python3action_chameleon_3000_yeti,0.997085,1,2000.000000,1,COMPLETED_SUCCESSFULLY,94.894899,93.000000,187.894899,93.897814,186.897814,2.009654,5,-1.000000,""
34,w0,python3action_chameleon_3000,0.000000,1,-1.000000,1,COMPLETED_SUCCESSFULLY,187.894915,0.000010,187.894925,187.894915,187.894925,18789492.450166,5,-1.000000,""
7_updated,w0,python3action_facedetection_SampleVideo_30mb_nova,0.997085,1,2000.000000,1,COMPLETED_SUCCESSFULLY,31.501858,160.399990,191.901848,30.504773,190.904763,1.190179,6,-1.000000,""
7,w0,python3action_facedetection_SampleVideo_30mb,0.000000,1,-1.000000,1,COMPLETED_SUCCESSFULLY,191.901863,0.000010,191.901873,191.901863,191.901873,19190187.323505,6,-1.000000,""
25_updated,w0,python3action_imageprocessing_SampleImage_40mb_orion,0.997085,1,2000.000000,1,COMPLETED_SUCCESSFULLY,169.014780,32.000000,201.014780,168.017695,200.017695,6.250553,11,-1.000000,""
25,w0,python3action_imageprocessing_SampleImage_40mb,0.000000,1,-1.000000,1,COMPLETED_SUCCESSFULLY,201.014795,0.000010,201.014805,201.014795,201.014805,20101480.534494,11,-1.000000,""
68_updated,w0,python3action_chameleon_2000_neowise,0.997085,1,2000.000000,1,COMPLETED_SUCCESSFULLY,178.045400,24.200002,202.245402,177.048315,201.248317,8.316045,0,-1.000000,""
68,w0,python3action_chameleon_2000,0.000000,1,-1.000000,1,COMPLETED_SUCCESSFULLY,202.245417,0.000010,202.245427,202.245417,202.245427,20224542.746176,0,-1.000000,""
3_updated,w0,python3action_facedetection_SampleVideo_50mb_taurus,0.997085,1,2000.000000,1,COMPLETED_SUCCESSFULLY,73.014585,134.600046,207.614631,72.017500,206.617546,1.535048,2,-1.000000,""
3,w0,python3action_facedetection_SampleVideo_50mb,0.000000,1,-1.000000,1,COMPLETED_SUCCESSFULLY,207.614646,0.000010,207.614656,207.614646,207.614656,20761465.644962,2,-1.000000,""
11_updated,w0,python3action_pyaes_3000_troll,0.997085,1,2000.000000,1,COMPLETED_SUCCESSFULLY,161.370159,57.166677,218.536836,160.373074,217.539751,3.805359,4,-1.000000,""
11,w0,python3action_pyaes_3000,0.000000,1,-1.000000,1,COMPLETED_SUCCESSFULLY,218.536851,0.000010,218.536861,218.536851,218.536861,21853686.100201,4,-1.000000,""
79_updated,w0,python3action_chameleon_2000_neowise,0.997085,1,2000.000000,1,COMPLETED_SUCCESSFULLY,202.245447,24.200002,226.445450,201.248362,225.448365,9.316047,0,-1.000000,""
79,w0,python3action_chameleon_2000,0.000000,1,-1.000000,1,COMPLETED_SUCCESSFULLY,226.445465,0.000010,226.445475,226.445465,226.445475,22644547.500201,0,-1.000000,""
51_updated,w0,python3action_imageprocessing_SampleImage_40mb_orion,0.997085,1,2000.000000,1,COMPLETED_SUCCESSFULLY,201.014825,32.000000,233.014825,200.017740,232.017740,7.250554,11,-1.000000,""
51,w0,python3action_imageprocessing_SampleImage_40mb,0.000000,1,-1.000000,1,COMPLETED_SUCCESSFULLY,233.014840,0.000010,233.014850,233.014840,233.014850,23301485.035097,11,-1.000000,""
81_updated,w0,python3action_chameleon_2000_neowise,0.997085,1,2000.000000,1,COMPLETED_SUCCESSFULLY,226.445495,24.200002,250.645497,225.448410,249.648412,10.316049,0,-1.000000,""
81,w0,python3action_chameleon_2000,0.000000,1,-1.000000,1,COMPLETED_SUCCESSFULLY,250.645512,0.000010,250.645522,250.645512,250.645522,25064552.223189,0,-1.000000,""
77_updated,w0,python3action_imageprocessing_SampleImage_40mb_orion,0.997085,1,2000.000000,1,COMPLETED_SUCCESSFULLY,233.014870,32.000000,265.014870,232.017785,264.017785,8.250556,11,-1.000000,""
77,w0,python3action_imageprocessing_SampleImage_40mb,0.000000,1,-1.000000,1,COMPLETED_SUCCESSFULLY,265.014885,0.000010,265.014895,265.014885,265.014895,26501489.535699,11,-1.000000,""
84_updated,w0,python3action_chameleon_2000_neowise,0.997085,1,2000.000000,1,COMPLETED_SUCCESSFULLY,250.645542,24.200002,274.845544,249.648457,273.848459,11.316051,0,-1.000000,""
84,w0,python3action_chameleon_2000,0.000000,1,-1.000000,1,COMPLETED_SUCCESSFULLY,274.845559,0.000010,274.845569,274.845559,274.845569,27484556.946176,0,-1.000000,""
14_updated,w0,python3action_pyaes_3000_troll,0.997085,1,2000.000000,1,COMPLETED_SUCCESSFULLY,218.536881,57.166677,275.703558,217.539796,274.706473,4.805360,4,-1.000000,""
14,w0,python3action_pyaes_3000,0.000000,1,-1.000000,1,COMPLETED_SUCCESSFULLY,275.703573,0.000010,275.703583,275.703573,275.703583,27570358.300201,4,-1.000000,""
39_updated,w0,python3action_chameleon_3000_yeti,0.997085,1,2000.000000,1,COMPLETED_SUCCESSFULLY,187.894945,93.000000,280.894945,186.897860,279.897860,3.009654,5,-1.000000,""
39,w0,python3action_chameleon_3000,0.000000,1,-1.000000,1,COMPLETED_SUCCESSFULLY,280.894960,0.000010,280.894970,280.894960,280.894970,28089497.000402,5,-1.000000,""
103_updated,w0,python3action_imageprocessing_SampleImage_40mb_orion,0.997085,1,2000.000000,1,COMPLETED_SUCCESSFULLY,265.014915,32.000000,297.014915,264.017830,296.017830,9.250557,11,-1.000000,""
103,w0,python3action_imageprocessing_SampleImage_40mb,0.000000,1,-1.000000,1,COMPLETED_SUCCESSFULLY,297.014930,0.000010,297.014940,297.014930,297.014940,29701494.036301,11,-1.000000,""
91_updated,w0,python3action_chameleon_2000_neowise,0.997085,1,2000.000000,1,COMPLETED_SUCCESSFULLY,274.845589,24.200002,299.045592,273.848504,298.048507,12.316053,0,-1.000000,""
91,w0,python3action_chameleon_2000,0.000000,1,-1.000000,1,COMPLETED_SUCCESSFULLY,299.045607,0.000010,299.045617,299.045607,299.045617,29904561.700201,0,-1.000000,""
126_updated,w0,python3action_imageprocessing_SampleImage_40mb_orion,0.997085,1,2000.000000,1,COMPLETED_SUCCESSFULLY,297.014960,32.000000,329.014960,296.017875,328.017875,10.250559,11,-1.000000,""
126,w0,python3action_imageprocessing_SampleImage_40mb,0.000000,1,-1.000000,1,COMPLETED_SUCCESSFULLY,329.014975,0.000010,329.014985,329.014975,329.014985,32901498.536904,11,-1.000000,""
23_updated,w0,python3action_pyaes_3000_troll,0.997085,1,2000.000000,1,COMPLETED_SUCCESSFULLY,275.703603,57.166677,332.870280,274.706518,331.873195,5.805361,4,-1.000000,""
23,w0,python3action_pyaes_3000,0.000000,1,-1.000000,1,COMPLETED_SUCCESSFULLY,332.870295,0.000010,332.870305,332.870295,332.870305,33287030.500201,4,-1.000000,""
28_updated,w0,python3action_facedetection_SampleVideo_50mb_taurus,0.997085,1,2000.000000,1,COMPLETED_SUCCESSFULLY,207.614676,134.600046,342.214723,206.617591,341.217638,2.535048,2,-1.000000,""
28,w0,python3action_facedetection_SampleVideo_50mb,0.000000,1,-1.000000,1,COMPLETED_SUCCESSFULLY,342.214738,0.000010,342.214748,342.214738,342.214748,34221474.800201,2,-1.000000,""
18_updated,w0,python3action_facedetection_SampleVideo_30mb_nova,0.997085,1,2000.000000,1,COMPLETED_SUCCESSFULLY,191.901893,160.399990,352.301883,190.904808,351.304798,2.190180,6,-1.000000,""
18,w0,python3action_facedetection_SampleVideo_30mb,0.000000,1,-1.000000,1,COMPLETED_SUCCESSFULLY,352.301898,0.000010,352.301908,352.301898,352.301908,35230190.847211,6,-1.000000,""
109_updated,w0,python3action_chameleon_3000_neowise,0.997085,1,2000.000000,1,COMPLETED_SUCCESSFULLY,299.045637,55.799998,354.845635,298.048552,353.848550,6.341372,0,-1.000000,""
109,w0,python3action_chameleon_3000,0.000000,1,-1.000000,1,COMPLETED_SUCCESSFULLY,354.845650,0.000010,354.845660,354.845650,354.845660,35484566.000201,0,-1.000000,""
143_updated,w0,python3action_imageprocessing_SampleImage_40mb_orion,0.997085,1,2000.000000,1,COMPLETED_SUCCESSFULLY,329.015005,32.000000,361.015005,328.017920,360.017920,11.250560,11,-1.000000,""
143,w0,python3action_imageprocessing_SampleImage_40mb,0.000000,1,-1.000000,1,COMPLETED_SUCCESSFULLY,361.015020,0.000010,361.015030,361.015020,361.015030,36101503.037506,11,-1.000000,""
45_updated,w0,python3action_chameleon_3000_yeti,0.997085,1,2000.000000,1,COMPLETED_SUCCESSFULLY,280.894990,93.000000,373.894990,279.897905,372.897905,4.009655,5,-1.000000,""
45,w0,python3action_chameleon_3000,0.000000,1,-1.000000,1,COMPLETED_SUCCESSFULLY,373.895005,0.000010,373.895015,373.895005,373.895015,37389501.501004,5,-1.000000,""
158_updated,w0,python3action_imageprocessing_SampleImage_40mb_orion,0.997085,1,2000.000000,1,COMPLETED_SUCCESSFULLY,361.015050,32.000000,393.015050,360.017965,392.017965,12.250561,11,-1.000000,""
158,w0,python3action_imageprocessing_SampleImage_40mb,0.000000,1,-1.000000,1,COMPLETED_SUCCESSFULLY,393.015065,0.000010,393.015075,393.015065,393.015075,39301507.538109,11,-1.000000,""
125_updated,w0,python3action_chameleon_3000_neowise,0.997085,1,2000.000000,1,COMPLETED_SUCCESSFULLY,354.845680,55.799998,410.645678,353.848595,409.648593,7.341373,0,-1.000000,""
125,w0,python3action_chameleon_3000,0.000000,1,-1.000000,1,COMPLETED_SUCCESSFULLY,410.645693,0.000010,410.645703,410.645693,410.645703,41064570.300201,0,-1.000000,""
161_updated,w0,python3action_imageprocessing_SampleImage_40mb_orion,0.997085,1,2000.000000,1,COMPLETED_SUCCESSFULLY,393.015095,32.000000,425.015095,392.018010,424.018010,13.250563,11,-1.000000,""
161,w0,python3action_imageprocessing_SampleImage_40mb,0.000000,1,-1.000000,1,COMPLETED_SUCCESSFULLY,425.015110,0.000010,425.015120,425.015110,425.015120,42501512.038711,11,-1.000000,""
python3action_linpack_job37_6,w0,python3action_linpack,0.997085,1,2000.000000,1,COMPLETED_SUCCESSFULLY,425.015140,5.760927,430.776068,424.018055,429.778983,74.602397,11,-1.000000,""
135_updated,w0,python3action_chameleon_2000_neowise,0.997085,1,2000.000000,1,COMPLETED_SUCCESSFULLY,410.645723,24.200002,434.845725,409.648638,433.848640,17.927628,0,-1.000000,""
135,w0,python3action_chameleon_2000,0.000000,1,-1.000000,1,COMPLETED_SUCCESSFULLY,434.845740,0.000010,434.845750,434.845740,434.845750,43484575.023189,0,-1.000000,""
40_updated,w0,python3action_pyaes_4000_troll,0.997085,1,2000.000000,1,COMPLETED_SUCCESSFULLY,332.870325,102.333333,435.203658,331.873240,434.206573,4.243061,4,-1.000000,""
40,w0,python3action_pyaes_4000,0.000000,1,-1.000000,1,COMPLETED_SUCCESSFULLY,435.203673,0.000010,435.203683,435.203673,435.203683,43520368.334137,4,-1.000000,""
140_updated,w0,python3action_chameleon_2000_neowise,0.997085,1,2000.000000,1,COMPLETED_SUCCESSFULLY,434.845770,24.200002,459.045772,433.848685,458.048687,18.927630,0,-1.000000,""
140,w0,python3action_chameleon_2000,0.000000,1,-1.000000,1,COMPLETED_SUCCESSFULLY,459.045787,0.000010,459.045797,459.045787,459.045797,45904579.746176,0,-1.000000,""
63_updated,w0,python3action_chameleon_3000_yeti,0.997085,1,2000.000000,1,COMPLETED_SUCCESSFULLY,373.895035,93.000000,466.895035,372.897950,465.897950,5.009655,5,-1.000000,""
63,w0,python3action_chameleon_3000,0.000000,1,-1.000000,1,COMPLETED_SUCCESSFULLY,466.895050,0.000010,466.895060,466.895050,466.895060,46689506.001607,5,-1.000000,""
30_updated,w0,python3action_facedetection_SampleVideo_50mb_taurus,0.997085,1,2000.000000,1,COMPLETED_SUCCESSFULLY,342.214768,134.600046,476.814814,341.217683,475.817729,3.535049,2,-1.000000,""
30,w0,python3action_facedetection_SampleVideo_50mb,0.000000,1,-1.000000,1,COMPLETED_SUCCESSFULLY,476.814829,0.000010,476.814839,476.814829,476.814839,47681483.913881,2,-1.000000,""
56_updated,w0,python3action_pyaes_3000_troll,0.997085,1,2000.000000,1,COMPLETED_SUCCESSFULLY,435.203703,57.166677,492.370380,434.206618,491.373295,8.595450,4,-1.000000,""
56,w0,python3action_pyaes_3000,0.000000,1,-1.000000,1,COMPLETED_SUCCESSFULLY,492.370395,0.000010,492.370405,492.370395,492.370405,49237040.500201,4,-1.000000,""
74_updated,w0,python3action_facedetection_SampleVideo_30mb_nova,0.997085,1,2000.000000,1,COMPLETED_SUCCESSFULLY,352.301928,160.399990,512.701919,351.304843,511.704834,3.190180,6,-1.000000,""
74,w0,python3action_facedetection_SampleVideo_30mb,0.000000,1,-1.000000,1,COMPLETED_SUCCESSFULLY,512.701934,0.000010,512.701944,512.701934,512.701944,51270194.400201,6,-1.000000,""
147_updated,w0,python3action_chameleon_3000_neowise,0.997085,1,2000.000000,1,COMPLETED_SUCCESSFULLY,459.045817,55.799998,514.845815,458.048732,513.848730,9.208759,0,-1.000000,""
147,w0,python3action_chameleon_3000,0.000000,1,-1.000000,1,COMPLETED_SUCCESSFULLY,514.845830,0.000010,514.845840,514.845830,514.845840,51484584.024393,0,-1.000000,""
37_updated,w0,python3action_linpack_6000_orion,0.997085,1,2000.000000,1,COMPLETED_SUCCESSFULLY,430.776083,106.000000,536.776083,429.778998,535.778998,5.054519,11,-1.000000,""
37,w0,python3action_linpack_6000,0.000000,1,-1.000000,1,COMPLETED_SUCCESSFULLY,536.776098,0.000010,536.776108,536.776098,536.776108,53677610.800402,11,-1.000000,""
80_updated,w0,python3action_pyaes_3000_troll,0.997085,1,2000.000000,1,COMPLETED_SUCCESSFULLY,492.370425,57.166677,549.537102,491.373340,548.540017,9.595451,4,-1.000000,""
80,w0,python3action_pyaes_3000,0.000000,1,-1.000000,1,COMPLETED_SUCCESSFULLY,549.537117,0.000010,549.537127,549.537117,549.537127,54953712.700201,4,-1.000000,""
70_updated,w0,python3action_chameleon_3000_yeti,0.997085,1,2000.000000,1,COMPLETED_SUCCESSFULLY,466.895080,93.000000,559.895080,465.897995,558.897995,6.009656,5,-1.000000,""
70,w0,python3action_chameleon_3000,0.000000,1,-1.000000,1,COMPLETED_SUCCESSFULLY,559.895095,0.000010,559.895105,559.895095,559.895105,55989510.502209,5,-1.000000,""
165_updated,w0,python3action_chameleon_3000_neowise,0.997085,1,2000.000000,1,COMPLETED_SUCCESSFULLY,514.845860,55.799998,570.645858,513.848775,569.648773,10.208760,0,-1.000000,""
165,w0,python3action_chameleon_3000,0.000000,1,-1.000000,1,COMPLETED_SUCCESSFULLY,570.645873,0.000010,570.645883,570.645873,570.645883,57064588.302611,0,-1.000000,""
172_updated,w0,python3action_chameleon_2000_neowise,0.997085,1,2000.000000,1,COMPLETED_SUCCESSFULLY,570.645903,24.200002,594.845905,569.648818,593.848820,24.539205,0,-1.000000,""
172,w0,python3action_chameleon_2000,0.000000,1,-1.000000,1,COMPLETED_SUCCESSFULLY,594.845920,0.000010,594.845930,594.845920,594.845930,59484593.025598,0,-1.000000,""
83_updated,w0,python3action_pyaes_3000_troll,0.997085,1,2000.000000,1,COMPLETED_SUCCESSFULLY,549.537147,57.166677,606.703824,548.540062,605.706739,10.595451,4,-1.000000,""
83,w0,python3action_pyaes_3000,0.000000,1,-1.000000,1,COMPLETED_SUCCESSFULLY,606.703839,0.000010,606.703849,606.703839,606.703849,60670384.900201,4,-1.000000,""
31_updated,w0,python3action_facedetection_SampleVideo_50mb_taurus,0.997085,1,2000.000000,1,COMPLETED_SUCCESSFULLY,476.814859,134.600046,611.414905,475.817774,610.417820,4.535049,2,-1.000000,""
31,w0,python3action_facedetection_SampleVideo_50mb,0.000000,1,-1.000000,1,COMPLETED_SUCCESSFULLY,611.414920,0.000010,611.414930,611.414920,611.414930,61141493.027562,2,-1.000000,""
181_updated,w0,python3action_chameleon_2000_neowise,0.997085,1,2000.000000,1,COMPLETED_SUCCESSFULLY,594.845950,24.200002,619.045952,593.848865,618.048867,25.539207,0,-1.000000,""
181,w0,python3action_chameleon_2000,0.000000,1,-1.000000,1,COMPLETED_SUCCESSFULLY,619.045967,0.000010,619.045977,619.045967,619.045977,61904597.748586,0,-1.000000,""
41_updated,w0,python3action_linpack_6000_orion,0.997085,1,2000.000000,1,COMPLETED_SUCCESSFULLY,536.776128,106.000000,642.776128,535.779043,641.779043,6.054519,11,-1.000000,""
41,w0,python3action_linpack_6000,0.000000,1,-1.000000,1,COMPLETED_SUCCESSFULLY,642.776143,0.000010,642.776153,642.776143,642.776153,64277615.301004,11,-1.000000,""
186_updated,w0,python3action_chameleon_2000_neowise,0.997085,1,2000.000000,1,COMPLETED_SUCCESSFULLY,619.045997,24.200002,643.246000,618.048912,642.248915,26.539209,0,-1.000000,""
186,w0,python3action_chameleon_2000,0.000000,1,-1.000000,1,COMPLETED_SUCCESSFULLY,643.246015,0.000010,643.246025,643.246015,643.246025,64324602.500201,0,-1.000000,""
85_updated,w0,python3action_chameleon_3000_yeti,0.997085,1,2000.000000,1,COMPLETED_SUCCESSFULLY,559.895125,93.000000,652.895125,558.898040,651.898040,7.009656,5,-1.000000,""
85,w0,python3action_chameleon_3000,0.000000,1,-1.000000,1,COMPLETED_SUCCESSFULLY,652.895140,0.000010,652.895150,652.895140,652.895150,65289515.002811,5,-1.000000,""
92_updated,w0,python3action_pyaes_3000_troll,0.997085,1,2000.000000,1,COMPLETED_SUCCESSFULLY,606.703869,57.166677,663.870546,605.706784,662.873461,11.595452,4,-1.000000,""
92,w0,python3action_pyaes_3000,0.000000,1,-1.000000,1,COMPLETED_SUCCESSFULLY,663.870561,0.000010,663.870571,663.870561,663.870571,66387057.100201,4,-1.000000,""
193_updated,w0,python3action_chameleon_2000_neowise,0.997085,1,2000.000000,1,COMPLETED_SUCCESSFULLY,643.246045,24.200002,667.446047,642.248960,666.448962,27.539211,0,-1.000000,""
193,w0,python3action_chameleon_2000,0.000000,1,-1.000000,1,COMPLETED_SUCCESSFULLY,667.446062,0.000010,667.446072,667.446062,667.446072,66744607.223188,0,-1.000000,""
python3action_image_processing_job6_1,w0,python3action_image_processing,0.997085,1,2000.000000,1,COMPLETED_SUCCESSFULLY,667.446092,3.471546,670.917638,666.449007,669.920553,192.974713,0,-1.000000,""
105_updated,w0,python3action_facedetection_SampleVideo_30mb_nova,0.997085,1,2000.000000,1,COMPLETED_SUCCESSFULLY,512.701964,160.399990,673.101954,511.704879,672.104869,4.190180,6,-1.000000,""
105,w0,python3action_facedetection_SampleVideo_30mb,0.000000,1,-1.000000,1,COMPLETED_SUCCESSFULLY,673.101969,0.000010,673.101979,673.101969,673.101979,67310197.923907,6,-1.000000,""
6_updated,w0,python3action_imageprocessing_SampleImage_60mb_neowise,0.997085,1,2000.000000,1,COMPLETED_SUCCESSFULLY,670.917653,37.500000,708.417653,669.920568,707.420568,18.864548,0,-1.000000,""
6,w0,python3action_imageprocessing_SampleImage_60mb,0.000000,1,-1.000000,1,COMPLETED_SUCCESSFULLY,708.417668,0.000010,708.417678,708.417668,708.417678,70841767.804017,0,-1.000000,""
94_updated,w0,python3action_pyaes_3000_troll,0.997085,1,2000.000000,1,COMPLETED_SUCCESSFULLY,663.870591,57.166677,721.037268,662.873506,720.040183,12.595453,4,-1.000000,""
94,w0,python3action_pyaes_3000,0.000000,1,-1.000000,1,COMPLETED_SUCCESSFULLY,721.037283,0.000010,721.037293,721.037283,721.037293,72103729.300201,4,-1.000000,""
154_updated,w0,python3action_chameleon_3000_yeti,0.997085,1,2000.000000,1,COMPLETED_SUCCESSFULLY,652.895170,93.000000,745.895170,651.898085,744.898085,8.009657,5,-1.000000,""
154,w0,python3action_chameleon_3000,0.000000,1,-1.000000,1,COMPLETED_SUCCESSFULLY,745.895185,0.000010,745.895195,745.895185,745.895195,74589519.503414,5,-1.000000,""
100_updated,w0,python3action_imageprocessing_SampleImage_60mb_neowise,0.997085,1,2000.000000,1,COMPLETED_SUCCESSFULLY,708.417698,37.500000,745.917698,707.420613,744.920613,19.864550,0,-1.000000,""
100,w0,python3action_imageprocessing_SampleImage_60mb,0.000000,1,-1.000000,1,COMPLETED_SUCCESSFULLY,745.917713,0.000010,745.917723,745.917713,745.917723,74591772.304619,0,-1.000000,""
43_updated,w0,python3action_facedetection_SampleVideo_50mb_taurus,0.997085,1,2000.000000,1,COMPLETED_SUCCESSFULLY,611.414950,134.600046,746.014996,610.417865,745.017911,5.535049,2,-1.000000,""
43,w0,python3action_facedetection_SampleVideo_50mb,0.000000,1,-1.000000,1,COMPLETED_SUCCESSFULLY,746.015011,0.000010,746.015021,746.015011,746.015021,74601502.141242,2,-1.000000,""
55_updated,w0,python3action_linpack_6000_orion,0.997085,1,2000.000000,1,COMPLETED_SUCCESSFULLY,642.776173,106.000000,748.776173,641.779088,747.779088,7.054520,11,-1.000000,""
55,w0,python3action_linpack_6000,0.000000,1,-1.000000,1,COMPLETED_SUCCESSFULLY,748.776188,0.000010,748.776198,748.776188,748.776198,74877619.801606,11,-1.000000,""
104_updated,w0,python3action_pyaes_3000_troll,0.997085,1,2000.000000,1,COMPLETED_SUCCESSFULLY,721.037313,57.166677,778.203990,720.040228,777.206905,13.595454,4,-1.000000,""
104,w0,python3action_pyaes_3000,0.000000,1,-1.000000,1,COMPLETED_SUCCESSFULLY,778.204005,0.000010,778.204015,778.204005,778.204015,77820401.500201,4,-1.000000,""
111_updated,w0,python3action_imageprocessing_SampleImage_60mb_neowise,0.997085,1,2000.000000,1,COMPLETED_SUCCESSFULLY,745.917743,37.500000,783.417743,744.920658,782.420658,20.864551,0,-1.000000,""
111,w0,python3action_imageprocessing_SampleImage_60mb,0.000000,1,-1.000000,1,COMPLETED_SUCCESSFULLY,783.417758,0.000010,783.417768,783.417758,783.417768,78341776.805222,0,-1.000000,""
124_updated,w0,python3action_imageprocessing_SampleImage_60mb_neowise,0.997085,1,2000.000000,1,COMPLETED_SUCCESSFULLY,783.417788,37.500000,820.917788,782.420703,819.920703,21.864552,0,-1.000000,""
124,w0,python3action_imageprocessing_SampleImage_60mb,0.000000,1,-1.000000,1,COMPLETED_SUCCESSFULLY,820.917803,0.000010,820.917813,820.917803,820.917813,82091781.305824,0,-1.000000,""
107_updated,w0,python3action_facedetection_SampleVideo_30mb_nova,0.997085,1,2000.000000,1,COMPLETED_SUCCESSFULLY,673.101999,160.399990,833.501989,672.104914,832.504904,5.190181,6,-1.000000,""
107,w0,python3action_facedetection_SampleVideo_30mb,0.000000,1,-1.000000,1,COMPLETED_SUCCESSFULLY,833.502004,0.000010,833.502014,833.502004,833.502014,83350201.447613,6,-1.000000,""
110_updated,w0,python3action_pyaes_3000_troll,0.997085,1,2000.000000,1,COMPLETED_SUCCESSFULLY,778.204035,57.166677,835.370712,777.206950,834.373627,14.595454,4,-1.000000,""
110,w0,python3action_pyaes_3000,0.000000,1,-1.000000,1,COMPLETED_SUCCESSFULLY,835.370727,0.000010,835.370737,835.370727,835.370737,83537073.700201,4,-1.000000,""
160_updated,w0,python3action_chameleon_3000_yeti,0.997085,1,2000.000000,1,COMPLETED_SUCCESSFULLY,745.895215,93.000000,838.895215,744.898130,837.898130,9.009657,5,-1.000000,""
160,w0,python3action_chameleon_3000,0.000000,1,-1.000000,1,COMPLETED_SUCCESSFULLY,838.895230,0.000010,838.895240,838.895230,838.895240,83889524.004016,5,-1.000000,""
python3action_pyaes_job117_4,w0,python3action_pyaes_reduced_0.85,0.997085,1,2000.000000,1,COMPLETED_SUCCESSFULLY,838.895260,0.133904,839.029164,837.898175,838.032079,6258.446345,5,-1.000000,""
75_updated,w0,python3action_linpack_6000_orion,0.997085,1,2000.000000,1,COMPLETED_SUCCESSFULLY,748.776218,106.000000,854.776218,747.779133,853.779133,8.054520,11,-1.000000,""
75,w0,python3action_linpack_6000,0.000000,1,-1.000000,1,COMPLETED_SUCCESSFULLY,854.776233,0.000010,854.776243,854.776233,854.776243,85477624.302209,11,-1.000000,""
149_updated,w0,python3action_imageprocessing_SampleImage_60mb_neowise,0.997085,1,2000.000000,1,COMPLETED_SUCCESSFULLY,820.917833,37.500000,858.417833,819.920748,857.420748,22.864553,0,-1.000000,""
149,w0,python3action_imageprocessing_SampleImage_60mb,0.000000,1,-1.000000,1,COMPLETED_SUCCESSFULLY,858.417848,0.000010,858.417858,858.417848,858.417858,85841785.806427,0,-1.000000,""
53_updated,w0,python3action_facedetection_SampleVideo_50mb_taurus,0.997085,1,2000.000000,1,COMPLETED_SUCCESSFULLY,746.015041,134.600046,880.615088,745.017956,879.618003,6.535050,2,-1.000000,""
53,w0,python3action_facedetection_SampleVideo_50mb,0.000000,1,-1.000000,1,COMPLETED_SUCCESSFULLY,880.615103,0.000010,880.615113,880.615103,880.615113,88061511.300201,2,-1.000000,""
114_updated,w0,python3action_pyaes_3000_troll,0.997085,1,2000.000000,1,COMPLETED_SUCCESSFULLY,835.370757,57.166677,892.537434,834.373672,891.540349,15.595455,4,-1.000000,""
114,w0,python3action_pyaes_3000,0.000000,1,-1.000000,1,COMPLETED_SUCCESSFULLY,892.537449,0.000010,892.537459,892.537449,892.537459,89253745.900201,4,-1.000000,""
163_updated,w0,python3action_imageprocessing_SampleImage_60mb_neowise,0.997085,1,2000.000000,1,COMPLETED_SUCCESSFULLY,858.417878,37.500000,895.917878,857.420793,894.920793,23.864554,0,-1.000000,""
163,w0,python3action_imageprocessing_SampleImage_60mb,0.000000,1,-1.000000,1,COMPLETED_SUCCESSFULLY,895.917893,0.000010,895.917903,895.917893,895.917903,89591790.307029,0,-1.000000,""
183_updated,w0,python3action_imageprocessing_SampleImage_60mb_neowise,0.997085,1,2000.000000,1,COMPLETED_SUCCESSFULLY,895.917923,37.500000,933.417923,894.920838,932.420838,24.864556,0,-1.000000,""
183,w0,python3action_imageprocessing_SampleImage_60mb,0.000000,1,-1.000000,1,COMPLETED_SUCCESSFULLY,933.417938,0.000010,933.417948,933.417938,933.417948,93341794.807631,0,-1.000000,""
python3action_linpack_job17_1,w0,python3action_linpack_reduced_0.85,0.997085,1,2000.000000,1,COMPLETED_SUCCESSFULLY,933.417968,0.041658,933.459626,932.420883,932.462541,22383.730353,0,-1.000000,""
117_updated,w0,python3action_pyaes_4000_yeti,0.997085,1,2000.000000,1,COMPLETED_SUCCESSFULLY,839.029179,105.500010,944.529189,838.032094,943.532104,8.943431,5,-1.000000,""
117,w0,python3action_pyaes_4000,0.000000,1,-1.000000,1,COMPLETED_SUCCESSFULLY,944.529204,0.000010,944.529214,944.529204,944.529214,94452921.443252,5,-1.000000,""
17_updated,w0,python3action_linpack_5000_neowise,0.997085,1,2000.000000,1,COMPLETED_SUCCESSFULLY,933.459641,20.750000,954.209641,932.462556,953.212556,45.937955,0,-1.000000,""
17,w0,python3action_linpack_5000,0.000000,1,-1.000000,1,COMPLETED_SUCCESSFULLY,954.209656,0.000010,954.209666,954.209656,954.209666,95420966.613358,0,-1.000000,""
171_updated,w0,python3action_linpack_6000_orion,0.997085,1,2000.000000,1,COMPLETED_SUCCESSFULLY,854.776263,106.000000,960.776263,853.779178,959.779178,9.054521,11,-1.000000,""
171,w0,python3action_linpack_6000,0.000000,1,-1.000000,1,COMPLETED_SUCCESSFULLY,960.776278,0.000010,960.776288,960.776278,960.776288,96077628.802811,11,-1.000000,""
21_updated,w0,python3action_linpack_5000_neowise,0.997085,1,2000.000000,1,COMPLETED_SUCCESSFULLY,954.209686,20.750000,974.959686,953.212601,973.962601,46.937957,0,-1.000000,""
21,w0,python3action_linpack_5000,0.000000,1,-1.000000,1,COMPLETED_SUCCESSFULLY,974.959701,0.000010,974.959711,974.959701,974.959711,97495971.113961,0,-1.000000,""
118_updated,w0,python3action_facedetection_SampleVideo_30mb_nova,0.997085,1,2000.000000,1,COMPLETED_SUCCESSFULLY,833.502034,160.399990,993.902025,832.504949,992.904940,6.190181,6,-1.000000,""
118,w0,python3action_facedetection_SampleVideo_30mb,0.000000,1,-1.000000,1,COMPLETED_SUCCESSFULLY,993.902040,0.000010,993.902050,993.902040,993.902050,99390205.000201,6,-1.000000,""
115_updated,w0,python3action_pyaes_4000_troll,0.997085,1,2000.000000,1,COMPLETED_SUCCESSFULLY,892.537479,102.333333,994.870812,891.540394,993.873727,9.712121,4,-1.000000,""
115,w0,python3action_pyaes_4000,0.000000,1,-1.000000,1,COMPLETED_SUCCESSFULLY,994.870827,0.000010,994.870837,994.870827,994.870837,99487083.734136,4,-1.000000,""
44_updated,w0,python3action_linpack_5000_neowise,0.997085,1,2000.000000,1,COMPLETED_SUCCESSFULLY,974.959731,20.750000,995.709731,973.962646,994.712646,47.937959,0,-1.000000,""
44,w0,python3action_linpack_5000,0.000000,1,-1.000000,1,COMPLETED_SUCCESSFULLY,995.709746,0.000010,995.709756,995.709746,995.709756,99570975.614563,0,-1.000000,""
73_updated,w0,python3action_facedetection_SampleVideo_50mb_taurus,0.997085,1,2000.000000,1,COMPLETED_SUCCESSFULLY,880.615133,134.600046,1015.215179,879.618048,1014.218094,7.535050,2,-1.000000,""
73,w0,python3action_facedetection_SampleVideo_50mb,0.000000,1,-1.000000,1,COMPLETED_SUCCESSFULLY,1015.215194,0.000010,1015.215204,1015.215194,1015.215204,101521520.413881,2,-1.000000,""
49_updated,w0,python3action_linpack_5000_neowise,0.997085,1,2000.000000,1,COMPLETED_SUCCESSFULLY,995.709776,20.750000,1016.459776,994.712691,1015.462691,48.937961,0,-1.000000,""
49,w0,python3action_linpack_5000,0.000000,1,-1.000000,1,COMPLETED_SUCCESSFULLY,1016.459791,0.000010,1016.459801,1016.459791,1016.459801,101645980.115165,0,-1.000000,""
61_updated,w0,python3action_linpack_5000_neowise,0.997085,1,2000.000000,1,COMPLETED_SUCCESSFULLY,1016.459821,20.750000,1037.209821,1015.462736,1036.212736,49.937963,0,-1.000000,""
61,w0,python3action_linpack_5000,0.000000,1,-1.000000,1,COMPLETED_SUCCESSFULLY,1037.209836,0.000010,1037.209846,1037.209836,1037.209846,103720984.615768,0,-1.000000,""
123_updated,w0,python3action_pyaes_4000_yeti,0.997085,1,2000.000000,1,COMPLETED_SUCCESSFULLY,944.529234,105.500010,1050.029245,943.532149,1049.032160,9.943432,5,-1.000000,""
123,w0,python3action_pyaes_4000,0.000000,1,-1.000000,1,COMPLETED_SUCCESSFULLY,1050.029260,0.000010,1050.029270,1050.029260,1050.029270,105002927.000201,5,-1.000000,""
129_updated,w0,python3action_pyaes_3000_troll,0.997085,1,2000.000000,1,COMPLETED_SUCCESSFULLY,994.870857,57.166677,1052.037534,993.873772,1051.040449,18.385544,4,-1.000000,""
129,w0,python3action_pyaes_3000,0.000000,1,-1.000000,1,COMPLETED_SUCCESSFULLY,1052.037549,0.000010,1052.037559,1052.037549,1052.037559,105203755.900201,4,-1.000000,""
113_updated,w0,python3action_linpack_5000_neowise,0.997085,1,2000.000000,1,COMPLETED_SUCCESSFULLY,1037.209866,20.750000,1057.959866,1036.212781,1056.962781,50.937965,0,-1.000000,""
113,w0,python3action_linpack_5000,0.000000,1,-1.000000,1,COMPLETED_SUCCESSFULLY,1057.959881,0.000010,1057.959891,1057.959881,1057.959891,105795989.116370,0,-1.000000,""
175_updated,w0,python3action_linpack_6000_orion,0.997085,1,2000.000000,1,COMPLETED_SUCCESSFULLY,960.776308,106.000000,1066.776308,959.779223,1065.779223,10.054521,11,-1.000000,""
175,w0,python3action_linpack_6000,0.000000,1,-1.000000,1,COMPLETED_SUCCESSFULLY,1066.776323,0.000010,1066.776333,1066.776323,1066.776333,106677633.303413,11,-1.000000,""
119_updated,w0,python3action_linpack_5000_neowise,0.997085,1,2000.000000,1,COMPLETED_SUCCESSFULLY,1057.959911,20.750000,1078.709911,1056.962826,1077.712826,51.937968,0,-1.000000,""
119,w0,python3action_linpack_5000,0.000000,1,-1.000000,1,COMPLETED_SUCCESSFULLY,1078.709926,0.000010,1078.709936,1078.709926,1078.709936,107870993.616973,0,-1.000000,""
134_updated,w0,python3action_linpack_5000_neowise,0.997085,1,2000.000000,1,COMPLETED_SUCCESSFULLY,1078.709956,20.750000,1099.459956,1077.712871,1098.462871,52.937970,0,-1.000000,""
134,w0,python3action_linpack_5000,0.000000,1,-1.000000,1,COMPLETED_SUCCESSFULLY,1099.459971,0.000010,1099.459981,1099.459971,1099.459981,109945998.117575,0,-1.000000,""
159_updated,w0,python3action_linpack_5000_neowise,0.997085,1,2000.000000,1,COMPLETED_SUCCESSFULLY,1099.460001,20.750000,1120.210001,1098.462916,1119.212916,53.937972,0,-1.000000,""
159,w0,python3action_linpack_5000,0.000000,1,-1.000000,1,COMPLETED_SUCCESSFULLY,1120.210016,0.000010,1120.210026,1120.210016,1120.210026,112021002.618177,0,-1.000000,""
166_updated,w0,python3action_linpack_5000_neowise,0.997085,1,2000.000000,1,COMPLETED_SUCCESSFULLY,1120.210046,20.750000,1140.960046,1119.212961,1139.962961,54.937974,0,-1.000000,""
166,w0,python3action_linpack_5000,0.000000,1,-1.000000,1,COMPLETED_SUCCESSFULLY,1140.960061,0.000010,1140.960071,1140.960061,1140.960071,114096007.118780,0,-1.000000,""
89_updated,w0,python3action_facedetection_SampleVideo_50mb_taurus,0.997085,1,2000.000000,1,COMPLETED_SUCCESSFULLY,1015.215224,134.600046,1149.815270,1014.218139,1148.818185,8.535050,2,-1.000000,""
89,w0,python3action_facedetection_SampleVideo_50mb,0.000000,1,-1.000000,1,COMPLETED_SUCCESSFULLY,1149.815285,0.000010,1149.815295,1149.815285,1149.815295,114981529.527562,2,-1.000000,""
138_updated,w0,python3action_facedetection_SampleVideo_30mb_nova,0.997085,1,2000.000000,1,COMPLETED_SUCCESSFULLY,993.902070,160.399990,1154.302060,992.904985,1153.304975,7.190181,6,-1.000000,""
138,w0,python3action_facedetection_SampleVideo_30mb,0.000000,1,-1.000000,1,COMPLETED_SUCCESSFULLY,1154.302075,0.000010,1154.302085,1154.302075,1154.302085,115430208.523907,6,-1.000000,""
132_updated,w0,python3action_pyaes_4000_troll,0.997085,1,2000.000000,1,COMPLETED_SUCCESSFULLY,1052.037579,102.333333,1154.370912,1051.040494,1153.373827,11.270754,4,-1.000000,""
132,w0,python3action_pyaes_4000,0.000000,1,-1.000000,1,COMPLETED_SUCCESSFULLY,1154.370927,0.000010,1154.370937,1154.370927,1154.370937,115437093.734137,4,-1.000000,""
156_updated,w0,python3action_pyaes_4000_yeti,0.997085,1,2000.000000,1,COMPLETED_SUCCESSFULLY,1050.029290,105.500010,1155.529300,1049.032205,1154.532215,10.943432,5,-1.000000,""
156,w0,python3action_pyaes_4000,0.000000,1,-1.000000,1,COMPLETED_SUCCESSFULLY,1155.529315,0.000010,1155.529325,1155.529315,1155.529325,115552932.521982,5,-1.000000,""
python3action_floatoperation_job5_5,w0,python3action_floatoperation,0.997085,1,2000.000000,1,COMPLETED_SUCCESSFULLY,1154.302105,2.439945,1156.742051,1153.305020,1155.744966,473.676590,6,-1.000000,""
170_updated,w0,python3action_linpack_5000_neowise,0.997085,1,2000.000000,1,COMPLETED_SUCCESSFULLY,1140.960091,20.750000,1161.710091,1139.963006,1160.713006,55.937976,0,-1.000000,""
170,w0,python3action_linpack_5000,0.000000,1,-1.000000,1,COMPLETED_SUCCESSFULLY,1161.710106,0.000010,1161.710116,1161.710106,1161.710116,116171011.619382,0,-1.000000,""
177_updated,w0,python3action_linpack_6000_orion,0.997085,1,2000.000000,1,COMPLETED_SUCCESSFULLY,1066.776353,106.000000,1172.776353,1065.779268,1171.779268,11.054521,11,-1.000000,""
177,w0,python3action_linpack_6000,0.000000,1,-1.000000,1,COMPLETED_SUCCESSFULLY,1172.776368,0.000010,1172.776378,1172.776368,1172.776378,117277637.804016,11,-1.000000,""
196_updated,w0,python3action_linpack_5000_neowise,0.997085,1,2000.000000,1,COMPLETED_SUCCESSFULLY,1161.710136,20.750000,1182.460136,1160.713051,1181.463051,56.937978,0,-1.000000,""
196,w0,python3action_linpack_5000,0.000000,1,-1.000000,1,COMPLETED_SUCCESSFULLY,1182.460151,0.000010,1182.460161,1182.460151,1182.460161,118246016.119985,0,-1.000000,""
python3action_modeltraining_job22_1,w0,python3action_modeltraining_reduced_0.94,0.997085,1,2000.000000,1,COMPLETED_SUCCESSFULLY,1182.460181,0.204209,1182.664390,1181.463096,1181.667305,5786.570403,0,-1.000000,""
22_updated,w0,python3action_modeltraining_reviews50mb_neowise,0.997085,1,2000.000000,1,COMPLETED_SUCCESSFULLY,1182.664405,22.799998,1205.464403,1181.667320,1204.467318,52.827519,0,-1.000000,""
22,w0,python3action_modeltraining_reviews50mb,0.000000,1,-1.000000,1,COMPLETED_SUCCESSFULLY,1205.464418,0.000010,1205.464428,1205.464418,1205.464428,120546442.800201,0,-1.000000,""
153_updated,w0,python3action_pyaes_3000_troll,0.997085,1,2000.000000,1,COMPLETED_SUCCESSFULLY,1154.370957,57.166677,1211.537634,1153.373872,1210.540549,21.175633,4,-1.000000,""
153,w0,python3action_pyaes_3000,0.000000,1,-1.000000,1,COMPLETED_SUCCESSFULLY,1211.537649,0.000010,1211.537659,1211.537649,1211.537659,121153765.900201,4,-1.000000,""
36_updated,w0,python3action_modeltraining_reviews50mb_neowise,0.997085,1,2000.000000,1,COMPLETED_SUCCESSFULLY,1205.464448,22.799998,1228.264446,1204.467363,1227.267361,53.827521,0,-1.000000,""
36,w0,python3action_modeltraining_reviews50mb,0.000000,1,-1.000000,1,COMPLETED_SUCCESSFULLY,1228.264461,0.000010,1228.264471,1228.264461,1228.264471,122826447.100201,0,-1.000000,""
164_updated,w0,python3action_pyaes_4000_yeti,0.997085,1,2000.000000,1,COMPLETED_SUCCESSFULLY,1155.529345,105.500010,1261.029355,1154.532260,1260.032270,11.943433,5,-1.000000,""
164,w0,python3action_pyaes_4000,0.000000,1,-1.000000,1,COMPLETED_SUCCESSFULLY,1261.029370,0.000010,1261.029380,1261.029370,1261.029380,126102938.043764,5,-1.000000,""
58_updated,w0,python3action_modeltraining_reviews100mb_neowise,0.997085,1,2000.000000,1,COMPLETED_SUCCESSFULLY,1228.264491,43.399999,1271.664490,1227.267406,1270.667405,29.278052,0,-1.000000,""
58,w0,python3action_modeltraining_reviews100mb,0.000000,1,-1.000000,1,COMPLETED_SUCCESSFULLY,1271.664505,0.000010,1271.664515,1271.664505,1271.664515,127166451.500201,0,-1.000000,""
187_updated,w0,python3action_linpack_6000_orion,0.997085,1,2000.000000,1,COMPLETED_SUCCESSFULLY,1172.776398,106.000000,1278.776398,1171.779313,1277.779313,12.054522,11,-1.000000,""
187,w0,python3action_linpack_6000,0.000000,1,-1.000000,1,COMPLETED_SUCCESSFULLY,1278.776413,0.000010,1278.776423,1278.776413,1278.776423,127877642.304618,11,-1.000000,""
90_updated,w0,python3action_facedetection_SampleVideo_50mb_taurus,0.997085,1,2000.000000,1,COMPLETED_SUCCESSFULLY,1149.815315,134.600046,1284.415361,1148.818230,1283.418276,9.535051,2,-1.000000,""
90,w0,python3action_facedetection_SampleVideo_50mb,0.000000,1,-1.000000,1,COMPLETED_SUCCESSFULLY,1284.415376,0.000010,1284.415386,1284.415376,1284.415386,128441538.641242,2,-1.000000,""
5_updated,w0,python3action_floatoperation_200000000_nova,0.997085,1,2000.000000,1,COMPLETED_SUCCESSFULLY,1156.742066,135.399990,1292.142056,1155.744981,1291.144971,9.535783,6,-1.000000,""
5,w0,python3action_floatoperation_200000000,0.000000,1,-1.000000,1,COMPLETED_SUCCESSFULLY,1292.142071,0.000010,1292.142081,1292.142071,1292.142081,129214208.123505,6,-1.000000,""
62_updated,w0,python3action_modeltraining_reviews50mb_neowise,0.997085,1,2000.000000,1,COMPLETED_SUCCESSFULLY,1271.664535,22.799998,1294.464533,1270.667450,1293.467448,56.731034,0,-1.000000,""
62,w0,python3action_modeltraining_reviews50mb,0.000000,1,-1.000000,1,COMPLETED_SUCCESSFULLY,1294.464548,0.000010,1294.464558,1294.464548,1294.464558,129446455.800201,0,-1.000000,""
180_updated,w0,python3action_pyaes_4000_troll,0.997085,1,2000.000000,1,COMPLETED_SUCCESSFULLY,1211.537679,102.333333,1313.871012,1210.540594,1312.873927,12.829387,4,-1.000000,""
180,w0,python3action_pyaes_4000,0.000000,1,-1.000000,1,COMPLETED_SUCCESSFULLY,1313.871027,0.000010,1313.871037,1313.871027,1313.871037,131387103.734136,4,-1.000000,""
65_updated,w0,python3action_modeltraining_reviews50mb_neowise,0.997085,1,2000.000000,1,COMPLETED_SUCCESSFULLY,1294.464578,22.799998,1317.264576,1293.467493,1316.267491,57.731036,0,-1.000000,""
65,w0,python3action_modeltraining_reviews50mb,0.000000,1,-1.000000,1,COMPLETED_SUCCESSFULLY,1317.264591,0.000010,1317.264601,1317.264591,1317.264601,131726460.100201,0,-1.000000,""
86_updated,w0,python3action_modeltraining_reviews50mb_neowise,0.997085,1,2000.000000,1,COMPLETED_SUCCESSFULLY,1317.264621,22.799998,1340.064619,1316.267536,1339.067534,58.731038,0,-1.000000,""
86,w0,python3action_modeltraining_reviews50mb,0.000000,1,-1.000000,1,COMPLETED_SUCCESSFULLY,1340.064634,0.000010,1340.064644,1340.064634,1340.064644,134006464.400201,0,-1.000000,""
87_updated,w0,python3action_modeltraining_reviews50mb_neowise,0.997085,1,2000.000000,1,COMPLETED_SUCCESSFULLY,1340.064664,22.799998,1362.864662,1339.067579,1361.867577,59.731040,0,-1.000000,""
87,w0,python3action_modeltraining_reviews50mb,0.000000,1,-1.000000,1,COMPLETED_SUCCESSFULLY,1362.864677,0.000010,1362.864687,1362.864677,1362.864687,136286468.700201,0,-1.000000,""
176_updated,w0,python3action_pyaes_4000_yeti,0.997085,1,2000.000000,1,COMPLETED_SUCCESSFULLY,1261.029400,105.500010,1366.529411,1260.032315,1365.532326,12.943433,5,-1.000000,""
176,w0,python3action_pyaes_4000,0.000000,1,-1.000000,1,COMPLETED_SUCCESSFULLY,1366.529426,0.000010,1366.529436,1366.529426,1366.529436,136652943.600201,5,-1.000000,""
191_updated,w0,python3action_pyaes_3000_troll,0.997085,1,2000.000000,1,COMPLETED_SUCCESSFULLY,1313.871057,57.166677,1371.037734,1312.873972,1370.040649,23.965721,4,-1.000000,""
191,w0,python3action_pyaes_3000,0.000000,1,-1.000000,1,COMPLETED_SUCCESSFULLY,1371.037749,0.000010,1371.037759,1371.037749,1371.037759,137103775.900201,4,-1.000000,""
190_updated,w0,python3action_linpack_6000_orion,0.997085,1,2000.000000,1,COMPLETED_SUCCESSFULLY,1278.776443,106.000000,1384.776443,1277.779358,1383.779358,13.054522,11,-1.000000,""
190,w0,python3action_linpack_6000,0.000000,1,-1.000000,1,COMPLETED_SUCCESSFULLY,1384.776458,0.000010,1384.776468,1384.776458,1384.776468,138477646.805220,11,-1.000000,""
python3action_video_processing_job133_6,w0,python3action_video_processing_reduced_0.91,0.997085,1,2000.000000,1,COMPLETED_SUCCESSFULLY,1384.776488,6.172496,1390.948984,1383.779403,1389.951899,225.184733,11,-1.000000,""
93_updated,w0,python3action_modeltraining_reviews100mb_neowise,0.997085,1,2000.000000,1,COMPLETED_SUCCESSFULLY,1362.864707,43.399999,1406.264706,1361.867622,1405.267621,32.379439,0,-1.000000,""
93,w0,python3action_modeltraining_reviews100mb,0.000000,1,-1.000000,1,COMPLETED_SUCCESSFULLY,1406.264721,0.000010,1406.264731,1406.264721,1406.264731,140626473.100201,0,-1.000000,""
97_updated,w0,python3action_facedetection_SampleVideo_50mb_taurus,0.997085,1,2000.000000,1,COMPLETED_SUCCESSFULLY,1284.415406,134.600046,1419.015453,1283.418321,1418.018368,10.535051,2,-1.000000,""
97,w0,python3action_facedetection_SampleVideo_50mb,0.000000,1,-1.000000,1,COMPLETED_SUCCESSFULLY,1419.015468,0.000010,1419.015478,1419.015468,1419.015478,141901547.800201,2,-1.000000,""
10_updated,w0,python3action_floatoperation_200000000_nova,0.997085,1,2000.000000,1,COMPLETED_SUCCESSFULLY,1292.142101,135.399990,1427.542091,1291.145016,1426.545006,10.535784,6,-1.000000,""
10,w0,python3action_floatoperation_200000000,0.000000,1,-1.000000,1,COMPLETED_SUCCESSFULLY,1427.542106,0.000010,1427.542116,1427.542106,1427.542116,142754211.647211,6,-1.000000,""
101_updated,w0,python3action_modeltraining_reviews100mb_neowise,0.997085,1,2000.000000,1,COMPLETED_SUCCESSFULLY,1406.264751,43.399999,1449.664750,1405.267666,1448.667665,33.379440,0,-1.000000,""
101,w0,python3action_modeltraining_reviews100mb,0.000000,1,-1.000000,1,COMPLETED_SUCCESSFULLY,1449.664765,0.000010,1449.664775,1449.664765,1449.664775,144966477.500201,0,-1.000000,""
102_updated,w0,python3action_modeltraining_reviews50mb_neowise,0.997085,1,2000.000000,1,COMPLETED_SUCCESSFULLY,1449.664795,22.799998,1472.464793,1448.667710,1471.467708,64.538064,0,-1.000000,""
102,w0,python3action_modeltraining_reviews50mb,0.000000,1,-1.000000,1,COMPLETED_SUCCESSFULLY,1472.464808,0.000010,1472.464818,1472.464808,1472.464818,147246481.800201,0,-1.000000,""
15_updated,w0,python3action_floatoperation_100000000_nova,0.997085,1,2000.000000,1,COMPLETED_SUCCESSFULLY,1427.542136,66.200020,1493.742156,1426.545051,1492.745071,22.549013,6,-1.000000,""
15,w0,python3action_floatoperation_100000000,0.000000,1,-1.000000,1,COMPLETED_SUCCESSFULLY,1493.742171,0.000010,1493.742181,1493.742171,1493.742181,149374218.101606,6,-1.000000,""
127_updated,w0,python3action_modeltraining_reviews50mb_neowise,0.997085,1,2000.000000,1,COMPLETED_SUCCESSFULLY,1472.464838,22.799998,1495.264836,1471.467753,1494.267751,65.538066,0,-1.000000,""
127,w0,python3action_modeltraining_reviews50mb,0.000000,1,-1.000000,1,COMPLETED_SUCCESSFULLY,1495.264851,0.000010,1495.264861,1495.264851,1495.264861,149526486.100201,0,-1.000000,""
142_updated,w0,python3action_modeltraining_reviews100mb_neowise,0.997085,1,2000.000000,1,COMPLETED_SUCCESSFULLY,1495.264881,43.399999,1538.664880,1494.267796,1537.667795,35.430134,0,-1.000000,""
142,w0,python3action_modeltraining_reviews100mb,0.000000,1,-1.000000,1,COMPLETED_SUCCESSFULLY,1538.664895,0.000010,1538.664905,1538.664895,1538.664905,153866490.500201,0,-1.000000,""
133_updated,w0,python3action_videoprocessing_SampleVideo_50mb_orion,0.997085,1,2000.000000,1,COMPLETED_SUCCESSFULLY,1390.948999,151.199977,1542.148976,1389.951914,1541.151891,10.192805,11,-1.000000,""
133,w0,python3action_videoprocessing_SampleVideo_50mb,0.000000,1,-1.000000,1,COMPLETED_SUCCESSFULLY,1542.148991,0.000010,1542.149001,1542.148991,1542.149001,154214900.116434,11,-1.000000,""
99_updated,w0,python3action_facedetection_SampleVideo_50mb_taurus,0.997085,1,2000.000000,1,COMPLETED_SUCCESSFULLY,1419.015498,134.600046,1553.615544,1418.018413,1552.618459,11.535051,2,-1.000000,""
99,w0,python3action_facedetection_SampleVideo_50mb,0.000000,1,-1.000000,1,COMPLETED_SUCCESSFULLY,1553.615559,0.000010,1553.615569,1553.615559,1553.615569,155361556.913881,2,-1.000000,""
148_updated,w0,python3action_modeltraining_reviews50mb_neowise,0.997085,1,2000.000000,1,COMPLETED_SUCCESSFULLY,1538.664925,22.799998,1561.464923,1537.667840,1560.467838,68.441579,0,-1.000000,""
148,w0,python3action_modeltraining_reviews50mb,0.000000,1,-1.000000,1,COMPLETED_SUCCESSFULLY,1561.464938,0.000010,1561.464948,1561.464938,1561.464948,156146494.800201,0,-1.000000,""
151_updated,w0,python3action_modeltraining_reviews100mb_neowise,0.997085,1,2000.000000,1,COMPLETED_SUCCESSFULLY,1561.464968,43.399999,1604.864967,1560.467883,1603.867882,36.955482,0,-1.000000,""
151,w0,python3action_modeltraining_reviews100mb,0.000000,1,-1.000000,1,COMPLETED_SUCCESSFULLY,1604.864982,0.000010,1604.864992,1604.864982,1604.864992,160486499.200201,0,-1.000000,""
152_updated,w0,python3action_modeltraining_reviews50mb_neowise,0.997085,1,2000.000000,1,COMPLETED_SUCCESSFULLY,1604.865012,22.799998,1627.665010,1603.867927,1626.667925,71.345091,0,-1.000000,""
152,w0,python3action_modeltraining_reviews50mb,0.000000,1,-1.000000,1,COMPLETED_SUCCESSFULLY,1627.665025,0.000010,1627.665035,1627.665025,1627.665035,162766503.500201,0,-1.000000,""
20_updated,w0,python3action_floatoperation_200000000_nova,0.997085,1,2000.000000,1,COMPLETED_SUCCESSFULLY,1493.742201,135.399990,1629.142191,1492.745116,1628.145106,12.024706,6,-1.000000,""
20,w0,python3action_floatoperation_200000000,0.000000,1,-1.000000,1,COMPLETED_SUCCESSFULLY,1629.142206,0.000010,1629.142216,1629.142206,1629.142216,162914221.625312,6,-1.000000,""
162_updated,w0,python3action_modeltraining_reviews50mb_neowise,0.997085,1,2000.000000,1,COMPLETED_SUCCESSFULLY,1627.665055,22.799998,1650.465053,1626.667970,1649.467968,72.345093,0,-1.000000,""
162,w0,python3action_modeltraining_reviews50mb,0.000000,1,-1.000000,1,COMPLETED_SUCCESSFULLY,1650.465068,0.000010,1650.465078,1650.465068,1650.465078,165046507.800201,0,-1.000000,""
112_updated,w0,python3action_facedetection_SampleVideo_50mb_taurus,0.997085,1,2000.000000,1,COMPLETED_SUCCESSFULLY,1553.615589,134.600046,1688.215635,1552.618504,1687.218550,12.535052,2,-1.000000,""
112,w0,python3action_facedetection_SampleVideo_50mb,0.000000,1,-1.000000,1,COMPLETED_SUCCESSFULLY,1688.215650,0.000010,1688.215660,1688.215650,1688.215660,168821566.027562,2,-1.000000,""
169_updated,w0,python3action_modeltraining_reviews100mb_neowise,0.997085,1,2000.000000,1,COMPLETED_SUCCESSFULLY,1650.465098,43.399999,1693.865097,1649.468013,1692.868012,39.006176,0,-1.000000,""
169,w0,python3action_modeltraining_reviews100mb,0.000000,1,-1.000000,1,COMPLETED_SUCCESSFULLY,1693.865112,0.000010,1693.865122,1693.865112,1693.865122,169386512.200201,0,-1.000000,""
173_updated,w0,python3action_modeltraining_reviews50mb_neowise,0.997085,1,2000.000000,1,COMPLETED_SUCCESSFULLY,1693.865142,22.799998,1716.665140,1692.868057,1715.668055,75.248606,0,-1.000000,""
173,w0,python3action_modeltraining_reviews50mb,0.000000,1,-1.000000,1,COMPLETED_SUCCESSFULLY,1716.665155,0.000010,1716.665165,1716.665155,1716.665165,171666516.500201,0,-1.000000,""
185_updated,w0,python3action_modeltraining_reviews50mb_neowise,0.997085,1,2000.000000,1,COMPLETED_SUCCESSFULLY,1716.665185,22.799998,1739.465183,1715.668100,1738.468098,76.248608,0,-1.000000,""
185,w0,python3action_modeltraining_reviews50mb,0.000000,1,-1.000000,1,COMPLETED_SUCCESSFULLY,1739.465198,0.000010,1739.465208,1739.465198,1739.465208,173946520.800201,0,-1.000000,""
27_updated,w0,python3action_floatoperation_200000000_nova,0.997085,1,2000.000000,1,COMPLETED_SUCCESSFULLY,1629.142236,135.399990,1764.542226,1628.145151,1763.545141,13.024707,6,-1.000000,""
27,w0,python3action_floatoperation_200000000,0.000000,1,-1.000000,1,COMPLETED_SUCCESSFULLY,1764.542241,0.000010,1764.542251,1764.542241,1764.542251,176454225.149018,6,-1.000000,""
188_updated,w0,python3action_modeltraining_reviews100mb_neowise,0.997085,1,2000.000000,1,COMPLETED_SUCCESSFULLY,1739.465228,43.399999,1782.865227,1738.468143,1781.868142,41.056871,0,-1.000000,""
188,w0,python3action_modeltraining_reviews100mb,0.000000,1,-1.000000,1,COMPLETED_SUCCESSFULLY,1782.865242,0.000010,1782.865252,1782.865242,1782.865252,178286525.200201,0,-1.000000,""
116_updated,w0,python3action_facedetection_SampleVideo_50mb_taurus,0.997085,1,2000.000000,1,COMPLETED_SUCCESSFULLY,1688.215680,134.600046,1822.815726,1687.218595,1821.818641,13.535052,2,-1.000000,""
116,w0,python3action_facedetection_SampleVideo_50mb,0.000000,1,-1.000000,1,COMPLETED_SUCCESSFULLY,1822.815741,0.000010,1822.815751,1822.815741,1822.815751,182281575.141242,2,-1.000000,""
195_updated,w0,python3action_modeltraining_reviews100mb_neowise,0.997085,1,2000.000000,1,COMPLETED_SUCCESSFULLY,1782.865272,43.399999,1826.265271,1781.868187,1825.268186,42.056872,0,-1.000000,""
195,w0,python3action_modeltraining_reviews100mb,0.000000,1,-1.000000,1,COMPLETED_SUCCESSFULLY,1826.265286,0.000010,1826.265296,1826.265286,1826.265296,182626529.600201,0,-1.000000,""
29_updated,w0,python3action_floatoperation_100000000_nova,0.997085,1,2000.000000,1,COMPLETED_SUCCESSFULLY,1764.542271,66.200020,1830.742291,1763.545186,1829.745206,27.639648,6,-1.000000,""
29,w0,python3action_floatoperation_100000000,0.000000,1,-1.000000,1,COMPLETED_SUCCESSFULLY,1830.742306,0.000010,1830.742316,1830.742306,1830.742316,183074231.603413,6,-1.000000,""
33_updated,w0,python3action_floatoperation_100000000_nova,0.997085,1,2000.000000,1,COMPLETED_SUCCESSFULLY,1830.742336,66.200020,1896.942356,1829.745251,1895.945271,28.639648,6,-1.000000,""
33,w0,python3action_floatoperation_100000000,0.000000,1,-1.000000,1,COMPLETED_SUCCESSFULLY,1896.942371,0.000010,1896.942381,1896.942371,1896.942381,189694238.100201,6,-1.000000,""
131_updated,w0,python3action_facedetection_SampleVideo_50mb_taurus,0.997085,1,2000.000000,1,COMPLETED_SUCCESSFULLY,1822.815771,134.600046,1957.415818,1821.818686,1956.418733,14.535052,2,-1.000000,""
131,w0,python3action_facedetection_SampleVideo_50mb,0.000000,1,-1.000000,1,COMPLETED_SUCCESSFULLY,1957.415833,0.000010,1957.415843,1957.415833,1957.415843,195741584.300201,2,-1.000000,""
38_updated,w0,python3action_floatoperation_100000000_nova,0.997085,1,2000.000000,1,COMPLETED_SUCCESSFULLY,1896.942401,66.200020,1963.142421,1895.945316,1962.145336,29.639649,6,-1.000000,""
38,w0,python3action_floatoperation_100000000,0.000000,1,-1.000000,1,COMPLETED_SUCCESSFULLY,1963.142436,0.000010,1963.142446,1963.142436,1963.142446,196314244.600201,6,-1.000000,""
178_updated,w0,python3action_facedetection_SampleVideo_50mb_taurus,0.997085,1,2000.000000,1,COMPLETED_SUCCESSFULLY,1957.415863,134.600046,2092.015909,1956.418778,2091.018824,15.535053,2,-1.000000,""
178,w0,python3action_facedetection_SampleVideo_50mb,0.000000,1,-1.000000,1,COMPLETED_SUCCESSFULLY,2092.015924,0.000010,2092.015934,2092.015924,2092.015934,209201593.413881,2,-1.000000,""
57_updated,w0,python3action_floatoperation_200000000_nova,0.997085,1,2000.000000,1,COMPLETED_SUCCESSFULLY,1963.142466,135.399990,2098.542456,1962.145381,2097.545371,15.491474,6,-1.000000,""
57,w0,python3action_floatoperation_200000000,0.000000,1,-1.000000,1,COMPLETED_SUCCESSFULLY,2098.542471,0.000010,2098.542481,2098.542471,2098.542481,209854248.123907,6,-1.000000,""
59_updated,w0,python3action_floatoperation_100000000_nova,0.997085,1,2000.000000,1,COMPLETED_SUCCESSFULLY,2098.542501,66.200020,2164.742521,2097.545416,2163.745436,32.684967,6,-1.000000,""
59,w0,python3action_floatoperation_100000000,0.000000,1,-1.000000,1,COMPLETED_SUCCESSFULLY,2164.742536,0.000010,2164.742546,2164.742536,2164.742546,216474254.600201,6,-1.000000,""
179_updated,w0,python3action_facedetection_SampleVideo_50mb_taurus,0.997085,1,2000.000000,1,COMPLETED_SUCCESSFULLY,2092.015954,134.600046,2226.616000,2091.018869,2225.618915,16.535053,2,-1.000000,""
179,w0,python3action_facedetection_SampleVideo_50mb,0.000000,1,-1.000000,1,COMPLETED_SUCCESSFULLY,2226.616015,0.000010,2226.616025,2226.616015,2226.616025,222661602.527562,2,-1.000000,""
71_updated,w0,python3action_floatoperation_100000000_nova,0.997085,1,2000.000000,1,COMPLETED_SUCCESSFULLY,2164.742566,66.200020,2230.942586,2163.745481,2229.945501,33.684967,6,-1.000000,""
71,w0,python3action_floatoperation_100000000,0.000000,1,-1.000000,1,COMPLETED_SUCCESSFULLY,2230.942601,0.000010,2230.942611,2230.942601,2230.942611,223094261.100201,6,-1.000000,""
72_updated,w0,python3action_floatoperation_100000000_nova,0.997085,1,2000.000000,1,COMPLETED_SUCCESSFULLY,2230.942631,66.200020,2297.142651,2229.945546,2296.145566,34.684968,6,-1.000000,""
72,w0,python3action_floatoperation_100000000,0.000000,1,-1.000000,1,COMPLETED_SUCCESSFULLY,2297.142666,0.000010,2297.142676,2297.142666,2297.142676,229714267.600201,6,-1.000000,""
197_updated,w0,python3action_facedetection_SampleVideo_50mb_taurus,0.997085,1,2000.000000,1,COMPLETED_SUCCESSFULLY,2226.616045,134.600046,2361.216091,2225.618960,2360.219006,17.535053,2,-1.000000,""
197,w0,python3action_facedetection_SampleVideo_50mb,0.000000,1,-1.000000,1,COMPLETED_SUCCESSFULLY,2361.216106,0.000010,2361.216116,2361.216106,2361.216116,236121611.641243,2,-1.000000,""
76_updated,w0,python3action_floatoperation_100000000_nova,0.997085,1,2000.000000,1,COMPLETED_SUCCESSFULLY,2297.142696,66.200020,2363.342716,2296.145611,2362.345631,35.684969,6,-1.000000,""
76,w0,python3action_floatoperation_100000000,0.000000,1,-1.000000,1,COMPLETED_SUCCESSFULLY,2363.342731,0.000010,2363.342741,2363.342731,2363.342741,236334274.100201,6,-1.000000,""
python3action_video_processing_job35_2,w0,python3action_video_processing_reduced_0.91,0.997085,1,2000.000000,1,COMPLETED_SUCCESSFULLY,2361.216136,6.172496,2367.388633,2360.219051,2366.391548,383.376754,2,-1.000000,""
78_updated,w0,python3action_floatoperation_100000000_nova,0.997085,1,2000.000000,1,COMPLETED_SUCCESSFULLY,2363.342761,66.200020,2429.542781,2362.345676,2428.545696,36.684969,6,-1.000000,""
78,w0,python3action_floatoperation_100000000,0.000000,1,-1.000000,1,COMPLETED_SUCCESSFULLY,2429.542796,0.000010,2429.542806,2429.542796,2429.542806,242954280.600201,6,-1.000000,""
82_updated,w0,python3action_floatoperation_100000000_nova,0.997085,1,2000.000000,1,COMPLETED_SUCCESSFULLY,2429.542826,66.200020,2495.742846,2428.545741,2494.745761,37.684970,6,-1.000000,""
82,w0,python3action_floatoperation_100000000,0.000000,1,-1.000000,1,COMPLETED_SUCCESSFULLY,2495.742861,0.000010,2495.742871,2495.742861,2495.742871,249574287.100201,6,-1.000000,""
35_updated,w0,python3action_videoprocessing_SampleVideo_50mb_taurus,0.997085,1,2000.000000,1,COMPLETED_SUCCESSFULLY,2367.388648,154.250029,2521.638677,2366.391563,2520.641592,16.341271,2,-1.000000,""
35,w0,python3action_videoprocessing_SampleVideo_50mb,0.000000,1,-1.000000,1,COMPLETED_SUCCESSFULLY,2521.638692,0.000010,2521.638702,2521.638692,2521.638702,252163870.200201,2,-1.000000,""
95_updated,w0,python3action_floatoperation_100000000_nova,0.997085,1,2000.000000,1,COMPLETED_SUCCESSFULLY,2495.742891,66.200020,2561.942911,2494.745806,2560.945826,38.684971,6,-1.000000,""
95,w0,python3action_floatoperation_100000000,0.000000,1,-1.000000,1,COMPLETED_SUCCESSFULLY,2561.942926,0.000010,2561.942936,2561.942926,2561.942936,256194293.600201,6,-1.000000,""
96_updated,w0,python3action_floatoperation_100000000_nova,0.997085,1,2000.000000,1,COMPLETED_SUCCESSFULLY,2561.942956,66.200020,2628.142976,2560.945871,2627.145891,39.684972,6,-1.000000,""
96,w0,python3action_floatoperation_100000000,0.000000,1,-1.000000,1,COMPLETED_SUCCESSFULLY,2628.142991,0.000010,2628.143001,2628.142991,2628.143001,262814300.100201,6,-1.000000,""
66_updated,w0,python3action_videoprocessing_SampleVideo_50mb_taurus,0.997085,1,2000.000000,1,COMPLETED_SUCCESSFULLY,2521.638722,154.250029,2675.888751,2520.641637,2674.891666,17.341272,2,-1.000000,""
66,w0,python3action_videoprocessing_SampleVideo_50mb,0.000000,1,-1.000000,1,COMPLETED_SUCCESSFULLY,2675.888766,0.000010,2675.888776,2675.888766,2675.888776,267588877.600201,2,-1.000000,""
120_updated,w0,python3action_floatoperation_100000000_nova,0.997085,1,2000.000000,1,COMPLETED_SUCCESSFULLY,2628.143021,66.200020,2694.343041,2627.145936,2693.345956,40.684972,6,-1.000000,""
120,w0,python3action_floatoperation_100000000,0.000000,1,-1.000000,1,COMPLETED_SUCCESSFULLY,2694.343056,0.000010,2694.343066,2694.343056,2694.343066,269434306.600201,6,-1.000000,""
121_updated,w0,python3action_floatoperation_100000000_nova,0.997085,1,2000.000000,1,COMPLETED_SUCCESSFULLY,2694.343086,66.200020,2760.543106,2693.346001,2759.546021,41.684973,6,-1.000000,""
121,w0,python3action_floatoperation_100000000,0.000000,1,-1.000000,1,COMPLETED_SUCCESSFULLY,2760.543121,0.000010,2760.543131,2760.543121,2760.543131,276054313.100201,6,-1.000000,""
130_updated,w0,python3action_floatoperation_100000000_nova,0.997085,1,2000.000000,1,COMPLETED_SUCCESSFULLY,2760.543151,66.200020,2826.743171,2759.546066,2825.746086,42.684974,6,-1.000000,""
130,w0,python3action_floatoperation_100000000,0.000000,1,-1.000000,1,COMPLETED_SUCCESSFULLY,2826.743186,0.000010,2826.743196,2826.743186,2826.743196,282674319.600201,6,-1.000000,""
88_updated,w0,python3action_videoprocessing_SampleVideo_50mb_taurus,0.997085,1,2000.000000,1,COMPLETED_SUCCESSFULLY,2675.888796,154.250029,2830.138825,2674.891711,2829.141740,18.341272,2,-1.000000,""
88,w0,python3action_videoprocessing_SampleVideo_50mb,0.000000,1,-1.000000,1,COMPLETED_SUCCESSFULLY,2830.138840,0.000010,2830.138850,2830.138840,2830.138850,283013885.000201,2,-1.000000,""
150_updated,w0,python3action_floatoperation_200000000_nova,0.997085,1,2000.000000,1,COMPLETED_SUCCESSFULLY,2826.743216,135.399990,2962.143206,2825.746131,2961.146121,21.869618,6,-1.000000,""
150,w0,python3action_floatoperation_200000000,0.000000,1,-1.000000,1,COMPLETED_SUCCESSFULLY,2962.143221,0.000010,2962.143231,2962.143221,2962.143231,296214323.123907,6,-1.000000,""
106_updated,w0,python3action_videoprocessing_SampleVideo_50mb_taurus,0.997085,1,2000.000000,1,COMPLETED_SUCCESSFULLY,2830.138870,154.250029,2984.388899,2829.141785,2983.391814,19.341272,2,-1.000000,""
106,w0,python3action_videoprocessing_SampleVideo_50mb,0.000000,1,-1.000000,1,COMPLETED_SUCCESSFULLY,2984.388914,0.000010,2984.388924,2984.388914,2984.388924,298438892.400201,2,-1.000000,""
157_updated,w0,python3action_floatoperation_100000000_nova,0.997085,1,2000.000000,1,COMPLETED_SUCCESSFULLY,2962.143251,66.200020,3028.343271,2961.146166,3027.346186,45.730291,6,-1.000000,""
157,w0,python3action_floatoperation_100000000,0.000000,1,-1.000000,1,COMPLETED_SUCCESSFULLY,3028.343286,0.000010,3028.343296,3028.343286,3028.343296,302834329.600201,6,-1.000000,""
139_updated,w0,python3action_videoprocessing_SampleVideo_50mb_taurus,0.997085,1,2000.000000,1,COMPLETED_SUCCESSFULLY,2984.388944,154.250029,3138.638973,2983.391859,3137.641888,20.341273,2,-1.000000,""
139,w0,python3action_videoprocessing_SampleVideo_50mb,0.000000,1,-1.000000,1,COMPLETED_SUCCESSFULLY,3138.638988,0.000010,3138.638998,3138.638988,3138.638998,313863899.800201,2,-1.000000,""
167_updated,w0,python3action_floatoperation_200000000_nova,0.997085,1,2000.000000,1,COMPLETED_SUCCESSFULLY,3028.343316,135.399990,3163.743306,3027.346231,3162.746221,23.358541,6,-1.000000,""
167,w0,python3action_floatoperation_200000000,0.000000,1,-1.000000,1,COMPLETED_SUCCESSFULLY,3163.743321,0.000010,3163.743331,3163.743321,3163.743331,316374333.123907,6,-1.000000,""
168_updated,w0,python3action_floatoperation_100000000_nova,0.997085,1,2000.000000,1,COMPLETED_SUCCESSFULLY,3163.743351,66.200020,3229.943371,3162.746266,3228.946286,48.775609,6,-1.000000,""
168,w0,python3action_floatoperation_100000000,0.000000,1,-1.000000,1,COMPLETED_SUCCESSFULLY,3229.943386,0.000010,3229.943396,3229.943386,3229.943396,322994339.600201,6,-1.000000,""
145_updated,w0,python3action_videoprocessing_SampleVideo_50mb_taurus,0.997085,1,2000.000000,1,COMPLETED_SUCCESSFULLY,3138.639018,154.250029,3292.889047,3137.641933,3291.891962,21.341273,2,-1.000000,""
145,w0,python3action_videoprocessing_SampleVideo_50mb,0.000000,1,-1.000000,1,COMPLETED_SUCCESSFULLY,3292.889062,0.000010,3292.889072,3292.889062,3292.889072,329288907.200201,2,-1.000000,""
184_updated,w0,python3action_floatoperation_200000000_nova,0.997085,1,2000.000000,1,COMPLETED_SUCCESSFULLY,3229.943416,135.399990,3365.343406,3228.946331,3364.346321,24.847464,6,-1.000000,""
184,w0,python3action_floatoperation_200000000,0.000000,1,-1.000000,1,COMPLETED_SUCCESSFULLY,3365.343421,0.000010,3365.343431,3365.343421,3365.343431,336534343.123907,6,-1.000000,""
189_updated,w0,python3action_floatoperation_100000000_nova,0.997085,1,2000.000000,1,COMPLETED_SUCCESSFULLY,3365.343451,66.200020,3431.543471,3364.346366,3430.546386,51.820927,6,-1.000000,""
189,w0,python3action_floatoperation_100000000,0.000000,1,-1.000000,1,COMPLETED_SUCCESSFULLY,3431.543486,0.000010,3431.543496,3431.543486,3431.543496,343154349.600201,6,-1.000000,""
python3action_pyaes_job64_5,w0,python3action_pyaes,0.997085,1,2000.000000,1,COMPLETED_SUCCESSFULLY,3431.543516,2.134958,3433.678474,3430.546431,3432.681389,1607.844748,6,-1.000000,""
174_updated,w0,python3action_videoprocessing_SampleVideo_50mb_taurus,0.997085,1,2000.000000,1,COMPLETED_SUCCESSFULLY,3292.889092,154.250029,3447.139121,3291.892007,3446.142036,22.341273,2,-1.000000,""
174,w0,python3action_videoprocessing_SampleVideo_50mb,0.000000,1,-1.000000,1,COMPLETED_SUCCESSFULLY,3447.139136,0.000010,3447.139146,3447.139136,3447.139146,344713914.600201,2,-1.000000,""
64_updated,w0,python3action_pyaes_4000_nova,0.997085,1,2000.000000,1,COMPLETED_SUCCESSFULLY,3433.678489,139.600010,3573.278499,3432.681404,3572.281414,25.589407,6,-1.000000,""
64,w0,python3action_pyaes_4000,0.000000,1,-1.000000,1,COMPLETED_SUCCESSFULLY,3573.278514,0.000010,3573.278524,3573.278514,3573.278524,357327852.401669,6,-1.000000,""
182_updated,w0,python3action_videoprocessing_SampleVideo_50mb_taurus,0.997085,1,2000.000000,1,COMPLETED_SUCCESSFULLY,3447.139166,154.250029,3601.389195,3446.142081,3600.392110,23.341273,2,-1.000000,""
182,w0,python3action_videoprocessing_SampleVideo_50mb,0.000000,1,-1.000000,1,COMPLETED_SUCCESSFULLY,3601.389210,0.000010,3601.389220,3601.389210,3601.389220,360138922.000201,2,-1.000000,""
98_updated,w0,python3action_pyaes_4000_nova,0.997085,1,2000.000000,1,COMPLETED_SUCCESSFULLY,3573.278544,139.600010,3712.878554,3572.281459,3711.881469,26.589407,6,-1.000000,""
98,w0,python3action_pyaes_4000,0.000000,1,-1.000000,1,COMPLETED_SUCCESSFULLY,3712.878569,0.000010,3712.878579,3712.878569,3712.878579,371287857.900201,6,-1.000000,""
199_updated,w0,python3action_videoprocessing_SampleVideo_50mb_taurus,0.997085,1,2000.000000,1,COMPLETED_SUCCESSFULLY,3601.389240,154.250029,3755.639269,3600.392155,3754.642184,24.341274,2,-1.000000,""
199,w0,python3action_videoprocessing_SampleVideo_50mb,0.000000,1,-1.000000,1,COMPLETED_SUCCESSFULLY,3755.639284,0.000010,3755.639294,3755.639284,3755.639294,375563929.400201,2,-1.000000,""
108_updated,w0,python3action_pyaes_4000_nova,0.997085,1,2000.000000,1,COMPLETED_SUCCESSFULLY,3712.878599,139.600010,3852.478609,3711.881514,3851.481524,27.589407,6,-1.000000,""
108,w0,python3action_pyaes_4000,0.000000,1,-1.000000,1,COMPLETED_SUCCESSFULLY,3852.478624,0.000010,3852.478634,3852.478624,3852.478634,385247863.400201,6,-1.000000,""
122_updated,w0,python3action_pyaes_4000_nova,0.997085,1,2000.000000,1,COMPLETED_SUCCESSFULLY,3852.478654,139.600010,3992.078664,3851.481569,3991.081579,28.589408,6,-1.000000,""
122,w0,python3action_pyaes_4000,0.000000,1,-1.000000,1,COMPLETED_SUCCESSFULLY,3992.078679,0.000010,3992.078689,3992.078679,3992.078689,399207868.900201,6,-1.000000,""
146_updated,w0,python3action_pyaes_4000_nova,0.997085,1,2000.000000,1,COMPLETED_SUCCESSFULLY,3992.078709,139.600010,4131.678719,3991.081624,4130.681634,29.589408,6,-1.000000,""
146,w0,python3action_pyaes_4000,0.000000,1,-1.000000,1,COMPLETED_SUCCESSFULLY,4131.678734,0.000010,4131.678744,4131.678734,4131.678744,413167874.400201,6,-1.000000,""
155_updated,w0,python3action_pyaes_4000_nova,0.997085,1,2000.000000,1,COMPLETED_SUCCESSFULLY,4131.678764,139.600010,4271.278774,4130.681679,4270.281689,30.589408,6,-1.000000,""
155,w0,python3action_pyaes_4000,0.000000,1,-1.000000,1,COMPLETED_SUCCESSFULLY,4271.278789,0.000010,4271.278799,4271.278789,4271.278799,427127879.900201,6,-1.000000,""
python3action_video_processing_job0_5,w0,python3action_video_processing_reduced_0.91,0.997085,1,2000.000000,1,COMPLETED_SUCCESSFULLY,4271.278819,2.614259,4273.893078,4270.281734,4272.895993,1634.458104,6,-1.000000,""
0_updated,w0,python3action_videoprocessing_SampleVideo_30mb_nova,0.997085,1,2000.000000,1,COMPLETED_SUCCESSFULLY,4273.893093,106.799980,4380.693073,4272.896008,4379.695988,41.008397,6,-1.000000,""
0,w0,python3action_videoprocessing_SampleVideo_30mb,0.000000,1,-1.000000,1,COMPLETED_SUCCESSFULLY,4380.693088,0.000010,4380.693098,4380.693088,4380.693098,438069309.846609,6,-1.000000,""
8_updated,w0,python3action_videoprocessing_SampleVideo_30mb_nova,0.997085,1,2000.000000,1,COMPLETED_SUCCESSFULLY,4380.693118,106.799980,4487.493099,4379.696033,4486.496014,42.008397,6,-1.000000,""
8,w0,python3action_videoprocessing_SampleVideo_30mb,0.000000,1,-1.000000,1,COMPLETED_SUCCESSFULLY,4487.493114,0.000010,4487.493124,4487.493114,4487.493124,448749312.400201,6,-1.000000,""
13_updated,w0,python3action_videoprocessing_SampleVideo_30mb_nova,0.997085,1,2000.000000,1,COMPLETED_SUCCESSFULLY,4487.493144,106.799980,4594.293124,4486.496059,4593.296039,43.008398,6,-1.000000,""
13,w0,python3action_videoprocessing_SampleVideo_30mb,0.000000,1,-1.000000,1,COMPLETED_SUCCESSFULLY,4594.293139,0.000010,4594.293149,4594.293139,4594.293149,459429314.947010,6,-1.000000,""
32_updated,w0,python3action_videoprocessing_SampleVideo_30mb_nova,0.997085,1,2000.000000,1,COMPLETED_SUCCESSFULLY,4594.293169,106.799980,4701.093150,4593.296084,4700.096065,44.008398,6,-1.000000,""
32,w0,python3action_videoprocessing_SampleVideo_30mb,0.000000,1,-1.000000,1,COMPLETED_SUCCESSFULLY,4701.093165,0.000010,4701.093175,4701.093165,4701.093175,470109317.500201,6,-1.000000,""
42_updated,w0,python3action_videoprocessing_SampleVideo_30mb_nova,0.997085,1,2000.000000,1,COMPLETED_SUCCESSFULLY,4701.093195,106.799980,4807.893175,4700.096110,4806.896090,45.008399,6,-1.000000,""
42,w0,python3action_videoprocessing_SampleVideo_30mb,0.000000,1,-1.000000,1,COMPLETED_SUCCESSFULLY,4807.893190,0.000010,4807.893200,4807.893190,4807.893200,480789320.047010,6,-1.000000,""
47_updated,w0,python3action_videoprocessing_SampleVideo_30mb_nova,0.997085,1,2000.000000,1,COMPLETED_SUCCESSFULLY,4807.893220,106.799980,4914.693201,4806.896135,4913.696116,46.008399,6,-1.000000,""
47,w0,python3action_videoprocessing_SampleVideo_30mb,0.000000,1,-1.000000,1,COMPLETED_SUCCESSFULLY,4914.693216,0.000010,4914.693226,4914.693216,4914.693226,491469322.600201,6,-1.000000,""
48_updated,w0,python3action_videoprocessing_SampleVideo_30mb_nova,0.997085,1,2000.000000,1,COMPLETED_SUCCESSFULLY,4914.693246,106.799980,5021.493226,4913.696161,5020.496141,47.008399,6,-1.000000,""
48,w0,python3action_videoprocessing_SampleVideo_30mb,0.000000,1,-1.000000,1,COMPLETED_SUCCESSFULLY,5021.493241,0.000010,5021.493251,5021.493241,5021.493251,502149325.147010,6,-1.000000,""
50_updated,w0,python3action_videoprocessing_SampleVideo_50mb_nova,0.997085,1,2000.000000,1,COMPLETED_SUCCESSFULLY,5021.493271,139.600010,5161.093281,5020.496186,5160.096196,36.963437,6,-1.000000,""
50,w0,python3action_videoprocessing_SampleVideo_50mb,0.000000,1,-1.000000,1,COMPLETED_SUCCESSFULLY,5161.093296,0.000010,5161.093306,5161.093296,5161.093306,516109330.624509,6,-1.000000,""
52_updated,w0,python3action_videoprocessing_SampleVideo_30mb_nova,0.997085,1,2000.000000,1,COMPLETED_SUCCESSFULLY,5161.093326,106.799980,5267.893307,5160.096241,5266.896222,49.315517,6,-1.000000,""
52,w0,python3action_videoprocessing_SampleVideo_30mb,0.000000,1,-1.000000,1,COMPLETED_SUCCESSFULLY,5267.893322,0.000010,5267.893332,5267.893322,5267.893332,526789333.200201,6,-1.000000,""
60_updated,w0,python3action_videoprocessing_SampleVideo_30mb_nova,0.997085,1,2000.000000,1,COMPLETED_SUCCESSFULLY,5267.893352,106.799980,5374.693332,5266.896267,5373.696247,50.315517,6,-1.000000,""
60,w0,python3action_videoprocessing_SampleVideo_30mb,0.000000,1,-1.000000,1,COMPLETED_SUCCESSFULLY,5374.693347,0.000010,5374.693357,5374.693347,5374.693357,537469335.747010,6,-1.000000,""
69_updated,w0,python3action_videoprocessing_SampleVideo_30mb_nova,0.997085,1,2000.000000,1,COMPLETED_SUCCESSFULLY,5374.693377,106.799980,5481.493358,5373.696292,5480.496273,51.315518,6,-1.000000,""
69,w0,python3action_videoprocessing_SampleVideo_30mb,0.000000,1,-1.000000,1,COMPLETED_SUCCESSFULLY,5481.493373,0.000010,5481.493383,5481.493373,5481.493383,548149338.300201,6,-1.000000,""
128_updated,w0,python3action_videoprocessing_SampleVideo_50mb_nova,0.997085,1,2000.000000,1,COMPLETED_SUCCESSFULLY,5481.493403,139.600010,5621.093413,5480.496318,5620.096328,40.258567,6,-1.000000,""
128,w0,python3action_videoprocessing_SampleVideo_50mb,0.000000,1,-1.000000,1,COMPLETED_SUCCESSFULLY,5621.093428,0.000010,5621.093438,5621.093428,5621.093438,562109343.800201,6,-1.000000,""
136_updated,w0,python3action_videoprocessing_SampleVideo_30mb_nova,0.997085,1,2000.000000,1,COMPLETED_SUCCESSFULLY,5621.093458,106.799980,5727.893438,5620.096373,5726.896353,53.622635,6,-1.000000,""
136,w0,python3action_videoprocessing_SampleVideo_30mb,0.000000,1,-1.000000,1,COMPLETED_SUCCESSFULLY,5727.893453,0.000010,5727.893463,5727.893453,5727.893463,572789346.347010,6,-1.000000,""
137_updated,w0,python3action_videoprocessing_SampleVideo_50mb_nova,0.997085,1,2000.000000,1,COMPLETED_SUCCESSFULLY,5727.893483,139.600010,5867.493493,5726.896398,5866.496408,42.023610,6,-1.000000,""
137,w0,python3action_videoprocessing_SampleVideo_50mb,0.000000,1,-1.000000,1,COMPLETED_SUCCESSFULLY,5867.493508,0.000010,5867.493518,5867.493508,5867.493518,586749351.824509,6,-1.000000,""
141_updated,w0,python3action_videoprocessing_SampleVideo_30mb_nova,0.997085,1,2000.000000,1,COMPLETED_SUCCESSFULLY,5867.493538,106.799980,5974.293519,5866.496453,5973.296434,55.929752,6,-1.000000,""
141,w0,python3action_videoprocessing_SampleVideo_30mb,0.000000,1,-1.000000,1,COMPLETED_SUCCESSFULLY,5974.293534,0.000010,5974.293544,5974.293534,5974.293544,597429354.400201,6,-1.000000,""
144_updated,w0,python3action_videoprocessing_SampleVideo_30mb_nova,0.997085,1,2000.000000,1,COMPLETED_SUCCESSFULLY,5974.293564,106.799980,6081.093544,5973.296479,6080.096459,56.929753,6,-1.000000,""
144,w0,python3action_videoprocessing_SampleVideo_30mb,0.000000,1,-1.000000,1,COMPLETED_SUCCESSFULLY,6081.093559,0.000010,6081.093569,6081.093559,6081.093569,608109356.947010,6,-1.000000,""
192_updated,w0,python3action_videoprocessing_SampleVideo_30mb_nova,0.997085,1,2000.000000,1,COMPLETED_SUCCESSFULLY,6081.093589,106.799980,6187.893570,6080.096504,6186.896485,57.929753,6,-1.000000,""
192,w0,python3action_videoprocessing_SampleVideo_30mb,0.000000,1,-1.000000,1,COMPLETED_SUCCESSFULLY,6187.893585,0.000010,6187.893595,6187.893585,6187.893595,618789359.500201,6,-1.000000,""
194_updated,w0,python3action_videoprocessing_SampleVideo_30mb_nova,0.997085,1,2000.000000,1,COMPLETED_SUCCESSFULLY,6187.893615,106.799980,6294.693595,6186.896530,6293.696510,58.929753,6,-1.000000,""
194,w0,python3action_videoprocessing_SampleVideo_30mb,0.000000,1,-1.000000,1,COMPLETED_SUCCESSFULLY,6294.693610,0.000010,6294.693620,6294.693610,6294.693620,629469362.047010,6,-1.000000,""
198_updated,w0,python3action_videoprocessing_SampleVideo_50mb_nova,0.997085,1,2000.000000,1,COMPLETED_SUCCESSFULLY,6294.693640,139.600010,6434.293650,6293.696555,6433.296565,46.083783,6,-1.000000,""
198,w0,python3action_videoprocessing_SampleVideo_50mb,0.000000,1,-1.000000,1,COMPLETED_SUCCESSFULLY,6434.293665,0.000010,6434.293675,6434.293665,6434.293675,643429367.524509,6,-1.000000,""
