job_id,workload_name,profile,submission_time,requested_number_of_resources,requested_time,success,final_state,starting_time,execution_time,finish_time,waiting_time,turnaround_time,stretch,allocated_resources,consumed_energy,metadata
python3action_chameleon_job46_0,w0,python3action_chameleon,0.997085,1,2000.000000,1,COMPLETED_SUCCESSFULLY,1.002100,0.243006,1.245106,0.005015,0.248021,1.020637,0,-1.000000,""
python3action_pyaes_job3_2,w0,python3action_pyaes,0.997085,1,2000.000000,1,COMPLETED_SUCCESSFULLY,1.002130,0.867914,1.870044,0.005045,0.872959,1.005813,4,-1.000000,""
python3action_chameleon_job19_3,w0,python3action_chameleon,0.997085,1,2000.000000,1,COMPLETED_SUCCESSFULLY,1.002145,0.892694,1.894839,0.005060,0.897754,1.005668,5,-1.000000,""
46_updated,w0,python3action_chameleon_2000_neowise,0.997085,1,2000.000000,1,COMPLETED_SUCCESSFULLY,1.245121,24.200002,25.445123,0.248036,24.448038,1.010249,0,-1.000000,""
46,w0,python3action_chameleon_2000,0.000000,1,-1.000000,1,COMPLETED_SUCCESSFULLY,25.445138,0.000010,25.445148,25.445138,25.445148,2544514.822787,0,-1.000000,""
python3action_facedetection_job9_4,w0,python3action_facedetection,0.997085,1,2000.000000,1,COMPLETED_SUCCESSFULLY,1.002160,30.499683,31.501843,0.005075,30.504758,1.000166,6,-1.000000,""
93_updated,w0,python3action_chameleon_2000_neowise,0.997085,1,2000.000000,1,COMPLETED_SUCCESSFULLY,25.445168,24.200002,49.645170,24.448083,48.648085,2.010251,0,-1.000000,""
93,w0,python3action_chameleon_2000,0.000000,1,-1.000000,1,COMPLETED_SUCCESSFULLY,49.645185,0.000010,49.645195,49.645185,49.645195,4964519.545775,0,-1.000000,""
3_updated,w0,python3action_pyaes_3000_troll,0.997085,1,2000.000000,1,COMPLETED_SUCCESSFULLY,1.870059,57.166677,59.036736,0.872974,58.039651,1.015271,4,-1.000000,""
3,w0,python3action_pyaes_3000,0.000000,1,-1.000000,1,COMPLETED_SUCCESSFULLY,59.036751,0.000010,59.036761,59.036751,59.036761,5903676.100201,4,-1.000000,""
python3action_facedetection_job23_1,w0,python3action_facedetection,0.997085,1,2000.000000,1,COMPLETED_SUCCESSFULLY,1.002115,72.012455,73.014570,0.005030,72.017485,1.000070,2,-1.000000,""
python3action_image_processing_job79_5,w0,python3action_image_processing,0.997085,1,2000.000000,1,COMPLETED_SUCCESSFULLY,1.002175,72.012455,73.014630,0.005090,72.017545,1.000071,11,-1.000000,""
19_updated,w0,python3action_chameleon_3000_yeti,0.997085,1,2000.000000,1,COMPLETED_SUCCESSFULLY,1.894854,93.000000,94.894854,0.897769,93.897769,1.009653,5,-1.000000,""
19,w0,python3action_chameleon_3000,0.000000,1,-1.000000,1,COMPLETED_SUCCESSFULLY,94.894869,0.000010,94.894879,94.894869,94.894879,9489487.949564,5,-1.000000,""
79_updated,w0,python3action_imageprocessing_SampleImage_40mb_orion,0.997085,1,2000.000000,1,COMPLETED_SUCCESSFULLY,73.014645,32.000000,105.014645,72.017560,104.017560,3.250549,11,-1.000000,""
79,w0,python3action_imageprocessing_SampleImage_40mb,0.000000,1,-1.000000,1,COMPLETED_SUCCESSFULLY,105.014660,0.000010,105.014670,105.014660,105.014670,10501467.032687,11,-1.000000,""
99_updated,w0,python3action_chameleon_3000_neowise,0.997085,1,2000.000000,1,COMPLETED_SUCCESSFULLY,49.645215,55.799998,105.445213,48.648130,104.448128,1.871830,0,-1.000000,""
99,w0,python3action_chameleon_3000,0.000000,1,-1.000000,1,COMPLETED_SUCCESSFULLY,105.445228,0.000010,105.445238,105.445228,105.445238,10544523.823992,0,-1.000000,""
119_updated,w0,python3action_chameleon_2000_neowise,0.997085,1,2000.000000,1,COMPLETED_SUCCESSFULLY,105.445258,24.200002,129.645260,104.448173,128.648175,5.316040,0,-1.000000,""
119,w0,python3action_chameleon_2000,0.000000,1,-1.000000,1,COMPLETED_SUCCESSFULLY,129.645275,0.000010,129.645285,129.645275,129.645285,12964528.546979,0,-1.000000,""
147_updated,w0,python3action_imageprocessing_SampleImage_40mb_orion,0.997085,1,2000.000000,1,COMPLETED_SUCCESSFULLY,105.014690,32.000000,137.014690,104.017605,136.017605,4.250550,11,-1.000000,""
147,w0,python3action_imageprocessing_SampleImage_40mb,0.000000,1,-1.000000,1,COMPLETED_SUCCESSFULLY,137.014705,0.000010,137.014715,137.014705,137.014715,13701471.533289,11,-1.000000,""
python3action_linpack_job6_6,w0,python3action_linpack,0.997085,1,2000.000000,1,COMPLETED_SUCCESSFULLY,137.014735,5.760927,142.775663,136.017650,141.778578,24.610375,11,-1.000000,""
16_updated,w0,python3action_pyaes_4000_troll,0.997085,1,2000.000000,1,COMPLETED_SUCCESSFULLY,59.036781,102.333333,161.370114,58.039696,160.373029,1.567163,4,-1.000000,""
16,w0,python3action_pyaes_4000,0.000000,1,-1.000000,1,COMPLETED_SUCCESSFULLY,161.370129,0.000010,161.370139,161.370129,161.370139,16137013.934137,4,-1.000000,""
6_updated,w0,python3action_linpack_5000_orion,0.997085,1,2000.000000,1,COMPLETED_SUCCESSFULLY,142.775678,36.199977,178.975655,141.778593,177.978570,4.916538,11,-1.000000,""
6,w0,python3action_linpack_5000,0.000000,1,-1.000000,1,COMPLETED_SUCCESSFULLY,178.975670,0.000010,178.975680,178.975670,178.975680,17897568.000201,11,-1.000000,""
120_updated,w0,python3action_chameleon_3000_neowise,0.997085,1,2000.000000,1,COMPLETED_SUCCESSFULLY,129.645305,55.799998,185.445303,128.648220,184.448218,3.305524,0,-1.000000,""
120,w0,python3action_chameleon_3000,0.000000,1,-1.000000,1,COMPLETED_SUCCESSFULLY,185.445318,0.000010,185.445328,185.445318,185.445328,18544532.825197,0,-1.000000,""
21_updated,w0,python3action_chameleon_3000_yeti,0.997085,1,2000.000000,1,COMPLETED_SUCCESSFULLY,94.894899,93.000000,187.894899,93.897814,186.897814,2.009654,5,-1.000000,""
21,w0,python3action_chameleon_3000,0.000000,1,-1.000000,1,COMPLETED_SUCCESSFULLY,187.894915,0.000010,187.894925,187.894915,187.894925,18789492.450166,5,-1.000000,""
9_updated,w0,python3action_facedetection_SampleVideo_30mb_nova,0.997085,1,2000.000000,1,COMPLETED_SUCCESSFULLY,31.501858,160.399990,191.901848,30.504773,190.904763,1.190179,6,-1.000000,""
9,w0,python3action_facedetection_SampleVideo_30mb,0.000000,1,-1.000000,1,COMPLETED_SUCCESSFULLY,191.901863,0.000010,191.901873,191.901863,191.901873,19190187.323505,6,-1.000000,""
23_updated,w0,python3action_facedetection_SampleVideo_50mb_taurus,0.997085,1,2000.000000,1,COMPLETED_SUCCESSFULLY,73.014585,134.600046,207.614631,72.017500,206.617546,1.535048,2,-1.000000,""
23,w0,python3action_facedetection_SampleVideo_50mb,0.000000,1,-1.000000,1,COMPLETED_SUCCESSFULLY,207.614646,0.000010,207.614656,207.614646,207.614656,20761465.644962,2,-1.000000,""
140_updated,w0,python3action_chameleon_2000_neowise,0.997085,1,2000.000000,1,COMPLETED_SUCCESSFULLY,185.445348,24.200002,209.645350,184.448263,208.648265,8.621828,0,-1.000000,""
140,w0,python3action_chameleon_2000,0.000000,1,-1.000000,1,COMPLETED_SUCCESSFULLY,209.645365,0.000010,209.645375,209.645365,209.645375,20964537.548184,0,-1.000000,""
173_updated,w0,python3action_chameleon_2000_neowise,0.997085,1,2000.000000,1,COMPLETED_SUCCESSFULLY,209.645395,24.200002,233.845398,208.648310,232.848313,9.621830,0,-1.000000,""
173,w0,python3action_chameleon_2000,0.000000,1,-1.000000,1,COMPLETED_SUCCESSFULLY,233.845413,0.000010,233.845423,233.845413,233.845423,23384542.300201,0,-1.000000,""
27_updated,w0,python3action_pyaes_4000_troll,0.997085,1,2000.000000,1,COMPLETED_SUCCESSFULLY,161.370159,102.333333,263.703493,160.373074,262.706408,2.567164,4,-1.000000,""
27,w0,python3action_pyaes_4000,0.000000,1,-1.000000,1,COMPLETED_SUCCESSFULLY,263.703508,0.000010,263.703518,263.703508,263.703518,26370351.800201,4,-1.000000,""
34_updated,w0,python3action_chameleon_3000_yeti,0.997085,1,2000.000000,1,COMPLETED_SUCCESSFULLY,187.894945,93.000000,280.894945,186.897860,279.897860,3.009654,5,-1.000000,""
34,w0,python3action_chameleon_3000,0.000000,1,-1.000000,1,COMPLETED_SUCCESSFULLY,280.894960,0.000010,280.894970,280.894960,280.894970,28089497.000402,5,-1.000000,""
8_updated,w0,python3action_linpack_6000_orion,0.997085,1,2000.000000,1,COMPLETED_SUCCESSFULLY,178.975700,106.000000,284.975700,177.978615,283.978615,2.679044,11,-1.000000,""
8,w0,python3action_linpack_6000,0.000000,1,-1.000000,1,COMPLETED_SUCCESSFULLY,284.975715,0.000010,284.975725,284.975715,284.975725,28497572.500803,11,-1.000000,""
187_updated,w0,python3action_chameleon_3000_neowise,0.997085,1,2000.000000,1,COMPLETED_SUCCESSFULLY,233.845443,55.799998,289.645441,232.848358,288.648356,5.172910,0,-1.000000,""
187,w0,python3action_chameleon_3000,0.000000,1,-1.000000,1,COMPLETED_SUCCESSFULLY,289.645456,0.000010,289.645466,289.645456,289.645466,28964546.600201,0,-1.000000,""
python3action_image_processing_job5_1,w0,python3action_image_processing,0.997085,1,2000.000000,1,COMPLETED_SUCCESSFULLY,289.645486,3.471546,293.117032,288.648401,292.119947,84.146937,0,-1.000000,""
29_updated,w0,python3action_pyaes_3000_troll,0.997085,1,2000.000000,1,COMPLETED_SUCCESSFULLY,263.703538,57.166677,320.870215,262.706453,319.873130,5.595447,4,-1.000000,""
29,w0,python3action_pyaes_3000,0.000000,1,-1.000000,1,COMPLETED_SUCCESSFULLY,320.870230,0.000010,320.870240,320.870230,320.870240,32087024.000201,4,-1.000000,""
5_updated,w0,python3action_imageprocessing_SampleImage_60mb_neowise,0.997085,1,2000.000000,1,COMPLETED_SUCCESSFULLY,293.117047,37.500000,330.617047,292.119962,329.619962,8.789866,0,-1.000000,""
5,w0,python3action_imageprocessing_SampleImage_60mb,0.000000,1,-1.000000,1,COMPLETED_SUCCESSFULLY,330.617062,0.000010,330.617072,330.617062,330.617072,33061707.200402,0,-1.000000,""
28_updated,w0,python3action_facedetection_SampleVideo_50mb_taurus,0.997085,1,2000.000000,1,COMPLETED_SUCCESSFULLY,207.614676,134.600046,342.214723,206.617591,341.217638,2.535048,2,-1.000000,""
28,w0,python3action_facedetection_SampleVideo_50mb,0.000000,1,-1.000000,1,COMPLETED_SUCCESSFULLY,342.214738,0.000010,342.214748,342.214738,342.214748,34221474.800201,2,-1.000000,""
10_updated,w0,python3action_facedetection_SampleVideo_30mb_nova,0.997085,1,2000.000000,1,COMPLETED_SUCCESSFULLY,191.901893,160.399990,352.301883,190.904808,351.304798,2.190180,6,-1.000000,""
10,w0,python3action_facedetection_SampleVideo_30mb,0.000000,1,-1.000000,1,COMPLETED_SUCCESSFULLY,352.301898,0.000010,352.301908,352.301898,352.301908,35230190.847211,6,-1.000000,""
12_updated,w0,python3action_imageprocessing_SampleImage_60mb_neowise,0.997085,1,2000.000000,1,COMPLETED_SUCCESSFULLY,330.617092,37.500000,368.117092,329.620007,367.120007,9.789867,0,-1.000000,""
12,w0,python3action_imageprocessing_SampleImage_60mb,0.000000,1,-1.000000,1,COMPLETED_SUCCESSFULLY,368.117107,0.000010,368.117117,368.117107,368.117117,36811711.701004,0,-1.000000,""
45_updated,w0,python3action_chameleon_3000_yeti,0.997085,1,2000.000000,1,COMPLETED_SUCCESSFULLY,280.894990,93.000000,373.894990,279.897905,372.897905,4.009655,5,-1.000000,""
45,w0,python3action_chameleon_3000,0.000000,1,-1.000000,1,COMPLETED_SUCCESSFULLY,373.895005,0.000010,373.895015,373.895005,373.895015,37389501.501004,5,-1.000000,""
31_updated,w0,python3action_pyaes_3000_troll,0.997085,1,2000.000000,1,COMPLETED_SUCCESSFULLY,320.870260,57.166677,378.036937,319.873175,377.039852,6.595448,4,-1.000000,""
31,w0,python3action_pyaes_3000,0.000000,1,-1.000000,1,COMPLETED_SUCCESSFULLY,378.036952,0.000010,378.036962,378.036952,378.036962,37803696.200201,4,-1.000000,""
30_updated,w0,python3action_linpack_6000_orion,0.997085,1,2000.000000,1,COMPLETED_SUCCESSFULLY,284.975745,106.000000,390.975745,283.978660,389.978660,3.679044,11,-1.000000,""
30,w0,python3action_linpack_6000,0.000000,1,-1.000000,1,COMPLETED_SUCCESSFULLY,390.975760,0.000010,390.975770,390.975760,390.975770,39097577.001406,11,-1.000000,""
40_updated,w0,python3action_imageprocessing_SampleImage_60mb_neowise,0.997085,1,2000.000000,1,COMPLETED_SUCCESSFULLY,368.117137,37.500000,405.617137,367.120052,404.620052,10.789868,0,-1.000000,""
40,w0,python3action_imageprocessing_SampleImage_60mb,0.000000,1,-1.000000,1,COMPLETED_SUCCESSFULLY,405.617152,0.000010,405.617162,405.617152,405.617162,40561716.201607,0,-1.000000,""
35_updated,w0,python3action_pyaes_3000_troll,0.997085,1,2000.000000,1,COMPLETED_SUCCESSFULLY,378.036982,57.166677,435.203659,377.039897,434.206574,7.595449,4,-1.000000,""
35,w0,python3action_pyaes_3000,0.000000,1,-1.000000,1,COMPLETED_SUCCESSFULLY,435.203674,0.000010,435.203684,435.203674,435.203684,43520368.400201,4,-1.000000,""
61_updated,w0,python3action_imageprocessing_SampleImage_60mb_neowise,0.997085,1,2000.000000,1,COMPLETED_SUCCESSFULLY,405.617182,37.500000,443.117182,404.620097,442.120097,11.789869,0,-1.000000,""
61,w0,python3action_imageprocessing_SampleImage_60mb,0.000000,1,-1.000000,1,COMPLETED_SUCCESSFULLY,443.117197,0.000010,443.117207,443.117197,443.117207,44311720.702209,0,-1.000000,""
88_updated,w0,python3action_chameleon_3000_yeti,0.997085,1,2000.000000,1,COMPLETED_SUCCESSFULLY,373.895035,93.000000,466.895035,372.897950,465.897950,5.009655,5,-1.000000,""
88,w0,python3action_chameleon_3000,0.000000,1,-1.000000,1,COMPLETED_SUCCESSFULLY,466.895050,0.000010,466.895060,466.895050,466.895060,46689506.001607,5,-1.000000,""
39_updated,w0,python3action_facedetection_SampleVideo_50mb_taurus,0.997085,1,2000.000000,1,COMPLETED_SUCCESSFULLY,342.214768,134.600046,476.814814,341.217683,475.817729,3.535049,2,-1.000000,""
39,w0,python3action_facedetection_SampleVideo_50mb,0.000000,1,-1.000000,1,COMPLETED_SUCCESSFULLY,476.814829,0.000010,476.814839,476.814829,476.814839,47681483.913881,2,-1.000000,""
69_updated,w0,python3action_imageprocessing_SampleImage_60mb_neowise,0.997085,1,2000.000000,1,COMPLETED_SUCCESSFULLY,443.117227,37.500000,480.617227,442.120142,479.620142,12.789870,0,-1.000000,""
69,w0,python3action_imageprocessing_SampleImage_60mb,0.000000,1,-1.000000,1,COMPLETED_SUCCESSFULLY,480.617242,0.000010,480.617252,480.617242,480.617252,48061725.202811,0,-1.000000,""
36_updated,w0,python3action_linpack_6000_orion,0.997085,1,2000.000000,1,COMPLETED_SUCCESSFULLY,390.975790,106.000000,496.975790,389.978705,495.978705,4.679044,11,-1.000000,""
36,w0,python3action_linpack_6000,0.000000,1,-1.000000,1,COMPLETED_SUCCESSFULLY,496.975805,0.000010,496.975815,496.975805,496.975815,49697581.502008,11,-1.000000,""
14_updated,w0,python3action_facedetection_SampleVideo_30mb_nova,0.997085,1,2000.000000,1,COMPLETED_SUCCESSFULLY,352.301928,160.399990,512.701919,351.304843,511.704834,3.190180,6,-1.000000,""
14,w0,python3action_facedetection_SampleVideo_30mb,0.000000,1,-1.000000,1,COMPLETED_SUCCESSFULLY,512.701934,0.000010,512.701944,512.701934,512.701944,51270194.400201,6,-1.000000,""
71_updated,w0,python3action_imageprocessing_SampleImage_60mb_neowise,0.997085,1,2000.000000,1,COMPLETED_SUCCESSFULLY,480.617272,37.500000,518.117272,479.620187,517.120187,13.789872,0,-1.000000,""
71,w0,python3action_imageprocessing_SampleImage_60mb,0.000000,1,-1.000000,1,COMPLETED_SUCCESSFULLY,518.117287,0.000010,518.117297,518.117287,518.117297,51811729.703414,0,-1.000000,""
38_updated,w0,python3action_linpack_5000_orion,0.997085,1,2000.000000,1,COMPLETED_SUCCESSFULLY,496.975835,36.199977,533.175812,495.978750,532.178727,14.701079,11,-1.000000,""
38,w0,python3action_linpack_5000,0.000000,1,-1.000000,1,COMPLETED_SUCCESSFULLY,533.175827,0.000010,533.175837,533.175827,533.175837,53317583.700201,11,-1.000000,""
48_updated,w0,python3action_pyaes_4000_troll,0.997085,1,2000.000000,1,COMPLETED_SUCCESSFULLY,435.203704,102.333333,537.537037,434.206619,536.539952,5.243061,4,-1.000000,""
48,w0,python3action_pyaes_4000,0.000000,1,-1.000000,1,COMPLETED_SUCCESSFULLY,537.537052,0.000010,537.537062,537.537052,537.537062,53753706.234137,4,-1.000000,""
80_updated,w0,python3action_imageprocessing_SampleImage_60mb_neowise,0.997085,1,2000.000000,1,COMPLETED_SUCCESSFULLY,518.117317,37.500000,555.617317,517.120232,554.620232,14.789873,0,-1.000000,""
80,w0,python3action_imageprocessing_SampleImage_60mb,0.000000,1,-1.000000,1,COMPLETED_SUCCESSFULLY,555.617332,0.000010,555.617342,555.617332,555.617342,55561734.204016,0,-1.000000,""
91_updated,w0,python3action_chameleon_3000_yeti,0.997085,1,2000.000000,1,COMPLETED_SUCCESSFULLY,466.895080,93.000000,559.895080,465.897995,558.897995,6.009656,5,-1.000000,""
91,w0,python3action_chameleon_3000,0.000000,1,-1.000000,1,COMPLETED_SUCCESSFULLY,559.895095,0.000010,559.895105,559.895095,559.895105,55989510.502209,5,-1.000000,""
41_updated,w0,python3action_linpack_5000_orion,0.997085,1,2000.000000,1,COMPLETED_SUCCESSFULLY,533.175857,36.199977,569.375834,532.178772,568.378749,15.701080,11,-1.000000,""
41,w0,python3action_linpack_5000,0.000000,1,-1.000000,1,COMPLETED_SUCCESSFULLY,569.375849,0.000010,569.375859,569.375849,569.375859,56937585.900201,11,-1.000000,""
83_updated,w0,python3action_imageprocessing_SampleImage_60mb_neowise,0.997085,1,2000.000000,1,COMPLETED_SUCCESSFULLY,555.617362,37.500000,593.117362,554.620277,592.120277,15.789874,0,-1.000000,""
83,w0,python3action_imageprocessing_SampleImage_60mb,0.000000,1,-1.000000,1,COMPLETED_SUCCESSFULLY,593.117377,0.000010,593.117387,593.117377,593.117387,59311738.704619,0,-1.000000,""
66_updated,w0,python3action_linpack_5000_orion,0.997085,1,2000.000000,1,COMPLETED_SUCCESSFULLY,569.375879,36.199977,605.575856,568.378794,604.578771,16.701082,11,-1.000000,""
66,w0,python3action_linpack_5000,0.000000,1,-1.000000,1,COMPLETED_SUCCESSFULLY,605.575871,0.000010,605.575881,605.575871,605.575881,60557588.100201,11,-1.000000,""
43_updated,w0,python3action_facedetection_SampleVideo_50mb_taurus,0.997085,1,2000.000000,1,COMPLETED_SUCCESSFULLY,476.814859,134.600046,611.414905,475.817774,610.417820,4.535049,2,-1.000000,""
43,w0,python3action_facedetection_SampleVideo_50mb,0.000000,1,-1.000000,1,COMPLETED_SUCCESSFULLY,611.414920,0.000010,611.414930,611.414920,611.414930,61141493.027562,2,-1.000000,""
89_updated,w0,python3action_imageprocessing_SampleImage_60mb_neowise,0.997085,1,2000.000000,1,COMPLETED_SUCCESSFULLY,593.117407,37.500000,630.617407,592.120322,629.620322,16.789875,0,-1.000000,""
89,w0,python3action_imageprocessing_SampleImage_60mb,0.000000,1,-1.000000,1,COMPLETED_SUCCESSFULLY,630.617422,0.000010,630.617432,630.617422,630.617432,63061743.205221,0,-1.000000,""
77_updated,w0,python3action_pyaes_4000_troll,0.997085,1,2000.000000,1,COMPLETED_SUCCESSFULLY,537.537082,102.333333,639.870416,536.539997,638.873331,6.243062,4,-1.000000,""
77,w0,python3action_pyaes_4000,0.000000,1,-1.000000,1,COMPLETED_SUCCESSFULLY,639.870431,0.000010,639.870441,639.870431,639.870441,63987044.100201,4,-1.000000,""
72_updated,w0,python3action_linpack_5000_orion,0.997085,1,2000.000000,1,COMPLETED_SUCCESSFULLY,605.575901,36.199977,641.775878,604.578816,640.778793,17.701083,11,-1.000000,""
72,w0,python3action_linpack_5000,0.000000,1,-1.000000,1,COMPLETED_SUCCESSFULLY,641.775893,0.000010,641.775903,641.775893,641.775903,64177590.300201,11,-1.000000,""
108_updated,w0,python3action_chameleon_3000_yeti,0.997085,1,2000.000000,1,COMPLETED_SUCCESSFULLY,559.895125,93.000000,652.895125,558.898040,651.898040,7.009656,5,-1.000000,""
108,w0,python3action_chameleon_3000,0.000000,1,-1.000000,1,COMPLETED_SUCCESSFULLY,652.895140,0.000010,652.895150,652.895140,652.895150,65289515.002811,5,-1.000000,""
102_updated,w0,python3action_imageprocessing_SampleImage_60mb_neowise,0.997085,1,2000.000000,1,COMPLETED_SUCCESSFULLY,630.617452,37.500000,668.117452,629.620367,667.120367,17.789876,0,-1.000000,""
102,w0,python3action_imageprocessing_SampleImage_60mb,0.000000,1,-1.000000,1,COMPLETED_SUCCESSFULLY,668.117467,0.000010,668.117477,668.117467,668.117477,66811747.705823,0,-1.000000,""
32_updated,w0,python3action_facedetection_SampleVideo_30mb_nova,0.997085,1,2000.000000,1,COMPLETED_SUCCESSFULLY,512.701964,160.399990,673.101954,511.704879,672.104869,4.190180,6,-1.000000,""
32,w0,python3action_facedetection_SampleVideo_30mb,0.000000,1,-1.000000,1,COMPLETED_SUCCESSFULLY,673.101969,0.000010,673.101979,673.101969,673.101979,67310197.923907,6,-1.000000,""
104_updated,w0,python3action_imageprocessing_SampleImage_60mb_neowise,0.997085,1,2000.000000,1,COMPLETED_SUCCESSFULLY,668.117497,37.500000,705.617497,667.120412,704.620412,18.789878,0,-1.000000,""
104,w0,python3action_imageprocessing_SampleImage_60mb,0.000000,1,-1.000000,1,COMPLETED_SUCCESSFULLY,705.617512,0.000010,705.617522,705.617512,705.617522,70561752.206426,0,-1.000000,""
85_updated,w0,python3action_pyaes_4000_troll,0.997085,1,2000.000000,1,COMPLETED_SUCCESSFULLY,639.870461,102.333333,742.203794,638.873376,741.206709,7.243062,4,-1.000000,""
85,w0,python3action_pyaes_4000,0.000000,1,-1.000000,1,COMPLETED_SUCCESSFULLY,742.203809,0.000010,742.203819,742.203809,742.203819,74220381.934137,4,-1.000000,""
118_updated,w0,python3action_imageprocessing_SampleImage_60mb_neowise,0.997085,1,2000.000000,1,COMPLETED_SUCCESSFULLY,705.617542,37.500000,743.117542,704.620457,742.120457,19.789879,0,-1.000000,""
118,w0,python3action_imageprocessing_SampleImage_60mb,0.000000,1,-1.000000,1,COMPLETED_SUCCESSFULLY,743.117557,0.000010,743.117567,743.117557,743.117567,74311756.707028,0,-1.000000,""
126_updated,w0,python3action_chameleon_3000_yeti,0.997085,1,2000.000000,1,COMPLETED_SUCCESSFULLY,652.895170,93.000000,745.895170,651.898085,744.898085,8.009657,5,-1.000000,""
126,w0,python3action_chameleon_3000,0.000000,1,-1.000000,1,COMPLETED_SUCCESSFULLY,745.895185,0.000010,745.895195,745.895185,745.895195,74589519.503414,5,-1.000000,""
44_updated,w0,python3action_facedetection_SampleVideo_50mb_taurus,0.997085,1,2000.000000,1,COMPLETED_SUCCESSFULLY,611.414950,134.600046,746.014996,610.417865,745.017911,5.535049,2,-1.000000,""
44,w0,python3action_facedetection_SampleVideo_50mb,0.000000,1,-1.000000,1,COMPLETED_SUCCESSFULLY,746.015011,0.000010,746.015021,746.015011,746.015021,74601502.141242,2,-1.000000,""
82_updated,w0,python3action_linpack_6000_orion,0.997085,1,2000.000000,1,COMPLETED_SUCCESSFULLY,641.775923,106.000000,747.775923,640.778838,746.778838,7.045083,11,-1.000000,""
82,w0,python3action_linpack_6000,0.000000,1,-1.000000,1,COMPLETED_SUCCESSFULLY,747.775938,0.000010,747.775948,747.775938,747.775948,74777594.800803,11,-1.000000,""
122_updated,w0,python3action_imageprocessing_SampleImage_60mb_neowise,0.997085,1,2000.000000,1,COMPLETED_SUCCESSFULLY,743.117587,37.500000,780.617587,742.120502,779.620502,20.789880,0,-1.000000,""
122,w0,python3action_imageprocessing_SampleImage_60mb,0.000000,1,-1.000000,1,COMPLETED_SUCCESSFULLY,780.617602,0.000010,780.617612,780.617602,780.617612,78061761.207631,0,-1.000000,""
94_updated,w0,python3action_pyaes_3000_troll,0.997085,1,2000.000000,1,COMPLETED_SUCCESSFULLY,742.203839,57.166677,799.370516,741.206754,798.373431,13.965714,4,-1.000000,""
94,w0,python3action_pyaes_3000,0.000000,1,-1.000000,1,COMPLETED_SUCCESSFULLY,799.370531,0.000010,799.370541,799.370531,799.370541,79937054.100201,4,-1.000000,""
127_updated,w0,python3action_imageprocessing_SampleImage_60mb_neowise,0.997085,1,2000.000000,1,COMPLETED_SUCCESSFULLY,780.617632,37.500000,818.117632,779.620547,817.120547,21.789881,0,-1.000000,""
127,w0,python3action_imageprocessing_SampleImage_60mb,0.000000,1,-1.000000,1,COMPLETED_SUCCESSFULLY,818.117647,0.000010,818.117657,818.117647,818.117657,81811765.708233,0,-1.000000,""
58_updated,w0,python3action_facedetection_SampleVideo_30mb_nova,0.997085,1,2000.000000,1,COMPLETED_SUCCESSFULLY,673.101999,160.399990,833.501989,672.104914,832.504904,5.190181,6,-1.000000,""
58,w0,python3action_facedetection_SampleVideo_30mb,0.000000,1,-1.000000,1,COMPLETED_SUCCESSFULLY,833.502004,0.000010,833.502014,833.502004,833.502014,83350201.447613,6,-1.000000,""
132_updated,w0,python3action_chameleon_3000_yeti,0.997085,1,2000.000000,1,COMPLETED_SUCCESSFULLY,745.895215,93.000000,838.895215,744.898130,837.898130,9.009657,5,-1.000000,""
132,w0,python3action_chameleon_3000,0.000000,1,-1.000000,1,COMPLETED_SUCCESSFULLY,838.895230,0.000010,838.895240,838.895230,838.895240,83889524.004016,5,-1.000000,""
103_updated,w0,python3action_linpack_6000_orion,0.997085,1,2000.000000,1,COMPLETED_SUCCESSFULLY,747.775968,106.000000,853.775968,746.778883,852.778883,8.045084,11,-1.000000,""
103,w0,python3action_linpack_6000,0.000000,1,-1.000000,1,COMPLETED_SUCCESSFULLY,853.775983,0.000010,853.775993,853.775983,853.775993,85377599.301406,11,-1.000000,""
146_updated,w0,python3action_imageprocessing_SampleImage_60mb_neowise,0.997085,1,2000.000000,1,COMPLETED_SUCCESSFULLY,818.117677,37.500000,855.617677,817.120592,854.620592,22.789882,0,-1.000000,""
146,w0,python3action_imageprocessing_SampleImage_60mb,0.000000,1,-1.000000,1,COMPLETED_SUCCESSFULLY,855.617692,0.000010,855.617702,855.617692,855.617702,85561770.208835,0,-1.000000,""
50_updated,w0,python3action_facedetection_SampleVideo_50mb_taurus,0.997085,1,2000.000000,1,COMPLETED_SUCCESSFULLY,746.015041,134.600046,880.615088,745.017956,879.618003,6.535050,2,-1.000000,""
50,w0,python3action_facedetection_SampleVideo_50mb,0.000000,1,-1.000000,1,COMPLETED_SUCCESSFULLY,880.615103,0.000010,880.615113,880.615103,880.615113,88061511.300201,2,-1.000000,""
117_updated,w0,python3action_linpack_5000_orion,0.997085,1,2000.000000,1,COMPLETED_SUCCESSFULLY,853.776013,36.199977,889.975990,852.778928,888.978905,24.557444,11,-1.000000,""
117,w0,python3action_linpack_5000,0.000000,1,-1.000000,1,COMPLETED_SUCCESSFULLY,889.976005,0.000010,889.976015,889.976005,889.976015,88997601.500201,11,-1.000000,""
153_updated,w0,python3action_imageprocessing_SampleImage_60mb_neowise,0.997085,1,2000.000000,1,COMPLETED_SUCCESSFULLY,855.617722,37.500000,893.117722,854.620637,892.120637,23.789884,0,-1.000000,""
153,w0,python3action_imageprocessing_SampleImage_60mb,0.000000,1,-1.000000,1,COMPLETED_SUCCESSFULLY,893.117737,0.000010,893.117747,893.117737,893.117747,89311774.709438,0,-1.000000,""
121_updated,w0,python3action_pyaes_4000_troll,0.997085,1,2000.000000,1,COMPLETED_SUCCESSFULLY,799.370561,102.333333,901.703894,798.373476,900.706809,8.801695,4,-1.000000,""
121,w0,python3action_pyaes_4000,0.000000,1,-1.000000,1,COMPLETED_SUCCESSFULLY,901.703909,0.000010,901.703919,901.703909,901.703919,90170391.934136,4,-1.000000,""
170_updated,w0,python3action_imageprocessing_SampleImage_60mb_neowise,0.997085,1,2000.000000,1,COMPLETED_SUCCESSFULLY,893.117767,37.500000,930.617767,892.120682,929.620682,24.789885,0,-1.000000,""
170,w0,python3action_imageprocessing_SampleImage_60mb,0.000000,1,-1.000000,1,COMPLETED_SUCCESSFULLY,930.617782,0.000010,930.617792,930.617782,930.617792,93061779.210040,0,-1.000000,""
144_updated,w0,python3action_chameleon_3000_yeti,0.997085,1,2000.000000,1,COMPLETED_SUCCESSFULLY,838.895260,93.000000,931.895260,837.898175,930.898175,10.009658,5,-1.000000,""
144,w0,python3action_chameleon_3000,0.000000,1,-1.000000,1,COMPLETED_SUCCESSFULLY,931.895275,0.000010,931.895285,931.895275,931.895285,93189528.504618,5,-1.000000,""
131_updated,w0,python3action_pyaes_3000_troll,0.997085,1,2000.000000,1,COMPLETED_SUCCESSFULLY,901.703939,57.166677,958.870616,900.706854,957.873531,16.755802,4,-1.000000,""
131,w0,python3action_pyaes_3000,0.000000,1,-1.000000,1,COMPLETED_SUCCESSFULLY,958.870631,0.000010,958.870641,958.870631,958.870641,95887064.100201,4,-1.000000,""
185_updated,w0,python3action_imageprocessing_SampleImage_60mb_neowise,0.997085,1,2000.000000,1,COMPLETED_SUCCESSFULLY,930.617812,37.500000,968.117812,929.620727,967.120727,25.789886,0,-1.000000,""
185,w0,python3action_imageprocessing_SampleImage_60mb,0.000000,1,-1.000000,1,COMPLETED_SUCCESSFULLY,968.117827,0.000010,968.117837,968.117827,968.117837,96811783.710642,0,-1.000000,""
python3action_modeltraining_job1_1,w0,python3action_modeltraining_reduced_0.94,0.997085,1,2000.000000,1,COMPLETED_SUCCESSFULLY,968.117857,0.204209,968.322066,967.120772,967.324981,4736.945908,0,-1.000000,""
1_updated,w0,python3action_modeltraining_reviews50mb_neowise,0.997085,1,2000.000000,1,COMPLETED_SUCCESSFULLY,968.322081,22.799998,991.122079,967.324996,990.124994,43.426539,0,-1.000000,""
1,w0,python3action_modeltraining_reviews50mb,0.000000,1,-1.000000,1,COMPLETED_SUCCESSFULLY,991.122094,0.000010,991.122104,991.122094,991.122104,99112210.400201,0,-1.000000,""
62_updated,w0,python3action_facedetection_SampleVideo_30mb_nova,0.997085,1,2000.000000,1,COMPLETED_SUCCESSFULLY,833.502034,160.399990,993.902025,832.504949,992.904940,6.190181,6,-1.000000,""
62,w0,python3action_facedetection_SampleVideo_30mb,0.000000,1,-1.000000,1,COMPLETED_SUCCESSFULLY,993.902040,0.000010,993.902050,993.902040,993.902050,99390205.000201,6,-1.000000,""
138_updated,w0,python3action_linpack_6000_orion,0.997085,1,2000.000000,1,COMPLETED_SUCCESSFULLY,889.976035,106.000000,995.976035,888.978950,994.978950,9.386594,11,-1.000000,""
138,w0,python3action_linpack_6000,0.000000,1,-1.000000,1,COMPLETED_SUCCESSFULLY,995.976050,0.000010,995.976060,995.976050,995.976060,99597606.000803,11,-1.000000,""
15_updated,w0,python3action_modeltraining_reviews50mb_neowise,0.997085,1,2000.000000,1,COMPLETED_SUCCESSFULLY,991.122124,22.799998,1013.922122,990.125039,1012.925037,44.426541,0,-1.000000,""
15,w0,python3action_modeltraining_reviews50mb,0.000000,1,-1.000000,1,COMPLETED_SUCCESSFULLY,1013.922137,0.000010,1013.922147,1013.922137,1013.922147,101392214.700201,0,-1.000000,""
53_updated,w0,python3action_facedetection_SampleVideo_50mb_taurus,0.997085,1,2000.000000,1,COMPLETED_SUCCESSFULLY,880.615133,134.600046,1015.215179,879.618048,1014.218094,7.535050,2,-1.000000,""
53,w0,python3action_facedetection_SampleVideo_50mb,0.000000,1,-1.000000,1,COMPLETED_SUCCESSFULLY,1015.215194,0.000010,1015.215204,1015.215194,1015.215204,101521520.413881,2,-1.000000,""
136_updated,w0,python3action_pyaes_3000_troll,0.997085,1,2000.000000,1,COMPLETED_SUCCESSFULLY,958.870661,57.166677,1016.037338,957.873576,1015.040253,17.755803,4,-1.000000,""
136,w0,python3action_pyaes_3000,0.000000,1,-1.000000,1,COMPLETED_SUCCESSFULLY,1016.037353,0.000010,1016.037363,1016.037353,1016.037363,101603736.300201,4,-1.000000,""
154_updated,w0,python3action_chameleon_3000_yeti,0.997085,1,2000.000000,1,COMPLETED_SUCCESSFULLY,931.895305,93.000000,1024.895305,930.898220,1023.898220,11.009658,5,-1.000000,""
154,w0,python3action_chameleon_3000,0.000000,1,-1.000000,1,COMPLETED_SUCCESSFULLY,1024.895320,0.000010,1024.895330,1024.895320,1024.895330,102489533.005221,5,-1.000000,""
161_updated,w0,python3action_linpack_5000_orion,0.997085,1,2000.000000,1,COMPLETED_SUCCESSFULLY,995.976080,36.199977,1032.176057,994.978995,1031.178972,28.485625,11,-1.000000,""
161,w0,python3action_linpack_5000,0.000000,1,-1.000000,1,COMPLETED_SUCCESSFULLY,1032.176072,0.000010,1032.176082,1032.176072,1032.176082,103217608.200201,11,-1.000000,""
17_updated,w0,python3action_modeltraining_reviews100mb_neowise,0.997085,1,2000.000000,1,COMPLETED_SUCCESSFULLY,1013.922167,43.399999,1057.322166,1012.925082,1056.325081,24.339288,0,-1.000000,""
17,w0,python3action_modeltraining_reviews100mb,0.000000,1,-1.000000,1,COMPLETED_SUCCESSFULLY,1057.322181,0.000010,1057.322191,1057.322181,1057.322191,105732219.100201,0,-1.000000,""
37_updated,w0,python3action_modeltraining_reviews50mb_neowise,0.997085,1,2000.000000,1,COMPLETED_SUCCESSFULLY,1057.322211,22.799998,1080.122209,1056.325126,1079.125124,47.330054,0,-1.000000,""
37,w0,python3action_modeltraining_reviews50mb,0.000000,1,-1.000000,1,COMPLETED_SUCCESSFULLY,1080.122224,0.000010,1080.122234,1080.122224,1080.122234,108012223.400201,0,-1.000000,""
158_updated,w0,python3action_chameleon_3000_yeti,0.997085,1,2000.000000,1,COMPLETED_SUCCESSFULLY,1024.895350,93.000000,1117.895350,1023.898265,1116.898265,12.009659,5,-1.000000,""
158,w0,python3action_chameleon_3000,0.000000,1,-1.000000,1,COMPLETED_SUCCESSFULLY,1117.895365,0.000010,1117.895375,1117.895365,1117.895375,111789537.505823,5,-1.000000,""
143_updated,w0,python3action_pyaes_4000_troll,0.997085,1,2000.000000,1,COMPLETED_SUCCESSFULLY,1016.037383,102.333333,1118.370716,1015.040298,1117.373631,10.918961,4,-1.000000,""
143,w0,python3action_pyaes_4000,0.000000,1,-1.000000,1,COMPLETED_SUCCESSFULLY,1118.370731,0.000010,1118.370741,1118.370731,1118.370741,111837074.134137,4,-1.000000,""
47_updated,w0,python3action_modeltraining_reviews100mb_neowise,0.997085,1,2000.000000,1,COMPLETED_SUCCESSFULLY,1080.122254,43.399999,1123.522253,1079.125169,1122.525168,25.864636,0,-1.000000,""
47,w0,python3action_modeltraining_reviews100mb,0.000000,1,-1.000000,1,COMPLETED_SUCCESSFULLY,1123.522268,0.000010,1123.522278,1123.522268,1123.522278,112352227.800201,0,-1.000000,""
167_updated,w0,python3action_linpack_6000_orion,0.997085,1,2000.000000,1,COMPLETED_SUCCESSFULLY,1032.176102,106.000000,1138.176102,1031.179017,1137.179017,10.728104,11,-1.000000,""
167,w0,python3action_linpack_6000,0.000000,1,-1.000000,1,COMPLETED_SUCCESSFULLY,1138.176117,0.000010,1138.176127,1138.176117,1138.176127,113817612.700803,11,-1.000000,""
63_updated,w0,python3action_modeltraining_reviews50mb_neowise,0.997085,1,2000.000000,1,COMPLETED_SUCCESSFULLY,1123.522298,22.799998,1146.322296,1122.525213,1145.325211,50.233567,0,-1.000000,""
63,w0,python3action_modeltraining_reviews50mb,0.000000,1,-1.000000,1,COMPLETED_SUCCESSFULLY,1146.322311,0.000010,1146.322321,1146.322311,1146.322321,114632232.100201,0,-1.000000,""
73_updated,w0,python3action_facedetection_SampleVideo_50mb_taurus,0.997085,1,2000.000000,1,COMPLETED_SUCCESSFULLY,1015.215224,134.600046,1149.815270,1014.218139,1148.818185,8.535050,2,-1.000000,""
73,w0,python3action_facedetection_SampleVideo_50mb,0.000000,1,-1.000000,1,COMPLETED_SUCCESSFULLY,1149.815285,0.000010,1149.815295,1149.815285,1149.815295,114981529.527562,2,-1.000000,""
68_updated,w0,python3action_facedetection_SampleVideo_30mb_nova,0.997085,1,2000.000000,1,COMPLETED_SUCCESSFULLY,993.902070,160.399990,1154.302060,992.904985,1153.304975,7.190181,6,-1.000000,""
68,w0,python3action_facedetection_SampleVideo_30mb,0.000000,1,-1.000000,1,COMPLETED_SUCCESSFULLY,1154.302075,0.000010,1154.302085,1154.302075,1154.302085,115430208.523907,6,-1.000000,""
180_updated,w0,python3action_linpack_5000_orion,0.997085,1,2000.000000,1,COMPLETED_SUCCESSFULLY,1138.176147,36.199977,1174.376124,1137.179062,1173.379039,32.413806,11,-1.000000,""
180,w0,python3action_linpack_5000,0.000000,1,-1.000000,1,COMPLETED_SUCCESSFULLY,1174.376139,0.000010,1174.376149,1174.376139,1174.376149,117437614.900201,11,-1.000000,""
151_updated,w0,python3action_pyaes_3000_troll,0.997085,1,2000.000000,1,COMPLETED_SUCCESSFULLY,1118.370761,57.166677,1175.537438,1117.373676,1174.540353,20.545892,4,-1.000000,""
151,w0,python3action_pyaes_3000,0.000000,1,-1.000000,1,COMPLETED_SUCCESSFULLY,1175.537453,0.000010,1175.537463,1175.537453,1175.537463,117553746.300201,4,-1.000000,""
67_updated,w0,python3action_modeltraining_reviews100mb_neowise,0.997085,1,2000.000000,1,COMPLETED_SUCCESSFULLY,1146.322341,43.399999,1189.722340,1145.325256,1188.725255,27.389984,0,-1.000000,""
67,w0,python3action_modeltraining_reviews100mb,0.000000,1,-1.000000,1,COMPLETED_SUCCESSFULLY,1189.722355,0.000010,1189.722365,1189.722355,1189.722365,118972236.500201,0,-1.000000,""
181_updated,w0,python3action_linpack_5000_orion,0.997085,1,2000.000000,1,COMPLETED_SUCCESSFULLY,1174.376169,36.199977,1210.576146,1173.379084,1209.579061,33.413808,11,-1.000000,""
181,w0,python3action_linpack_5000,0.000000,1,-1.000000,1,COMPLETED_SUCCESSFULLY,1210.576161,0.000010,1210.576171,1210.576161,1210.576171,121057617.100201,11,-1.000000,""
165_updated,w0,python3action_chameleon_3000_yeti,0.997085,1,2000.000000,1,COMPLETED_SUCCESSFULLY,1117.895395,93.000000,1210.895395,1116.898310,1209.898310,13.009659,5,-1.000000,""
165,w0,python3action_chameleon_3000,0.000000,1,-1.000000,1,COMPLETED_SUCCESSFULLY,1210.895410,0.000010,1210.895420,1210.895410,1210.895420,121089542.006426,5,-1.000000,""
152_updated,w0,python3action_pyaes_3000_troll,0.997085,1,2000.000000,1,COMPLETED_SUCCESSFULLY,1175.537483,57.166677,1232.704160,1174.540398,1231.707075,21.545893,4,-1.000000,""
152,w0,python3action_pyaes_3000,0.000000,1,-1.000000,1,COMPLETED_SUCCESSFULLY,1232.704175,0.000010,1232.704185,1232.704175,1232.704185,123270418.500201,4,-1.000000,""
75_updated,w0,python3action_modeltraining_reviews100mb_neowise,0.997085,1,2000.000000,1,COMPLETED_SUCCESSFULLY,1189.722385,43.399999,1233.122384,1188.725300,1232.125299,28.389985,0,-1.000000,""
75,w0,python3action_modeltraining_reviews100mb,0.000000,1,-1.000000,1,COMPLETED_SUCCESSFULLY,1233.122399,0.000010,1233.122409,1233.122399,1233.122409,123312240.900201,0,-1.000000,""
81_updated,w0,python3action_modeltraining_reviews50mb_neowise,0.997085,1,2000.000000,1,COMPLETED_SUCCESSFULLY,1233.122429,22.799998,1255.922427,1232.125344,1254.925342,55.040591,0,-1.000000,""
81,w0,python3action_modeltraining_reviews50mb,0.000000,1,-1.000000,1,COMPLETED_SUCCESSFULLY,1255.922442,0.000010,1255.922452,1255.922442,1255.922452,125592245.200201,0,-1.000000,""
87_updated,w0,python3action_facedetection_SampleVideo_50mb_taurus,0.997085,1,2000.000000,1,COMPLETED_SUCCESSFULLY,1149.815315,134.600046,1284.415361,1148.818230,1283.418276,9.535051,2,-1.000000,""
87,w0,python3action_facedetection_SampleVideo_50mb,0.000000,1,-1.000000,1,COMPLETED_SUCCESSFULLY,1284.415376,0.000010,1284.415386,1284.415376,1284.415386,128441538.641242,2,-1.000000,""
86_updated,w0,python3action_modeltraining_reviews100mb_neowise,0.997085,1,2000.000000,1,COMPLETED_SUCCESSFULLY,1255.922472,43.399999,1299.322471,1254.925387,1298.325386,29.915332,0,-1.000000,""
86,w0,python3action_modeltraining_reviews100mb,0.000000,1,-1.000000,1,COMPLETED_SUCCESSFULLY,1299.322486,0.000010,1299.322496,1299.322486,1299.322496,129932249.600201,0,-1.000000,""
175_updated,w0,python3action_chameleon_3000_yeti,0.997085,1,2000.000000,1,COMPLETED_SUCCESSFULLY,1210.895440,93.000000,1303.895440,1209.898355,1302.898355,14.009660,5,-1.000000,""
175,w0,python3action_chameleon_3000,0.000000,1,-1.000000,1,COMPLETED_SUCCESSFULLY,1303.895455,0.000010,1303.895465,1303.895455,1303.895465,130389546.507028,5,-1.000000,""
107_updated,w0,python3action_facedetection_SampleVideo_30mb_nova,0.997085,1,2000.000000,1,COMPLETED_SUCCESSFULLY,1154.302105,160.399990,1314.702095,1153.305020,1313.705010,8.190181,6,-1.000000,""
107,w0,python3action_facedetection_SampleVideo_30mb,0.000000,1,-1.000000,1,COMPLETED_SUCCESSFULLY,1314.702110,0.000010,1314.702120,1314.702110,1314.702120,131470212.047613,6,-1.000000,""
183_updated,w0,python3action_linpack_6000_orion,0.997085,1,2000.000000,1,COMPLETED_SUCCESSFULLY,1210.576191,106.000000,1316.576191,1209.579106,1315.579106,12.411124,11,-1.000000,""
183,w0,python3action_linpack_6000,0.000000,1,-1.000000,1,COMPLETED_SUCCESSFULLY,1316.576206,0.000010,1316.576216,1316.576206,1316.576216,131657621.600803,11,-1.000000,""
95_updated,w0,python3action_modeltraining_reviews50mb_neowise,0.997085,1,2000.000000,1,COMPLETED_SUCCESSFULLY,1299.322516,22.799998,1322.122514,1298.325431,1321.125429,57.944103,0,-1.000000,""
95,w0,python3action_modeltraining_reviews50mb,0.000000,1,-1.000000,1,COMPLETED_SUCCESSFULLY,1322.122529,0.000010,1322.122539,1322.122529,1322.122539,132212253.900201,0,-1.000000,""
176_updated,w0,python3action_pyaes_4000_troll,0.997085,1,2000.000000,1,COMPLETED_SUCCESSFULLY,1232.704205,102.333333,1335.037538,1231.707120,1334.040453,13.036226,4,-1.000000,""
176,w0,python3action_pyaes_4000,0.000000,1,-1.000000,1,COMPLETED_SUCCESSFULLY,1335.037553,0.000010,1335.037563,1335.037553,1335.037563,133503756.334136,4,-1.000000,""
101_updated,w0,python3action_modeltraining_reviews50mb_neowise,0.997085,1,2000.000000,1,COMPLETED_SUCCESSFULLY,1322.122559,22.799998,1344.922557,1321.125474,1343.925472,58.944105,0,-1.000000,""
101,w0,python3action_modeltraining_reviews50mb,0.000000,1,-1.000000,1,COMPLETED_SUCCESSFULLY,1344.922572,0.000010,1344.922582,1344.922572,1344.922582,134492258.200201,0,-1.000000,""
111_updated,w0,python3action_modeltraining_reviews50mb_neowise,0.997085,1,2000.000000,1,COMPLETED_SUCCESSFULLY,1344.922602,22.799998,1367.722600,1343.925517,1366.725515,59.944107,0,-1.000000,""
111,w0,python3action_modeltraining_reviews50mb,0.000000,1,-1.000000,1,COMPLETED_SUCCESSFULLY,1367.722615,0.000010,1367.722625,1367.722615,1367.722625,136772262.500201,0,-1.000000,""
192_updated,w0,python3action_chameleon_3000_yeti,0.997085,1,2000.000000,1,COMPLETED_SUCCESSFULLY,1303.895485,93.000000,1396.895485,1302.898400,1395.898400,15.009660,5,-1.000000,""
192,w0,python3action_chameleon_3000,0.000000,1,-1.000000,1,COMPLETED_SUCCESSFULLY,1396.895500,0.000010,1396.895510,1396.895500,1396.895510,139689551.007630,5,-1.000000,""
114_updated,w0,python3action_modeltraining_reviews100mb_neowise,0.997085,1,2000.000000,1,COMPLETED_SUCCESSFULLY,1367.722645,43.399999,1411.122644,1366.725560,1410.125559,32.491373,0,-1.000000,""
114,w0,python3action_modeltraining_reviews100mb,0.000000,1,-1.000000,1,COMPLETED_SUCCESSFULLY,1411.122659,0.000010,1411.122669,1411.122659,1411.122669,141112266.900201,0,-1.000000,""
135_updated,w0,python3action_facedetection_SampleVideo_50mb_taurus,0.997085,1,2000.000000,1,COMPLETED_SUCCESSFULLY,1284.415406,134.600046,1419.015453,1283.418321,1418.018368,10.535051,2,-1.000000,""
135,w0,python3action_facedetection_SampleVideo_50mb,0.000000,1,-1.000000,1,COMPLETED_SUCCESSFULLY,1419.015468,0.000010,1419.015478,1419.015468,1419.015478,141901547.800201,2,-1.000000,""
190_updated,w0,python3action_linpack_6000_orion,0.997085,1,2000.000000,1,COMPLETED_SUCCESSFULLY,1316.576236,106.000000,1422.576236,1315.579151,1421.579151,13.411124,11,-1.000000,""
190,w0,python3action_linpack_6000,0.000000,1,-1.000000,1,COMPLETED_SUCCESSFULLY,1422.576251,0.000010,1422.576261,1422.576251,1422.576261,142257626.101406,11,-1.000000,""
178_updated,w0,python3action_pyaes_4000_troll,0.997085,1,2000.000000,1,COMPLETED_SUCCESSFULLY,1335.037583,102.333333,1437.370917,1334.040498,1436.373832,14.036226,4,-1.000000,""
178,w0,python3action_pyaes_4000,0.000000,1,-1.000000,1,COMPLETED_SUCCESSFULLY,1437.370932,0.000010,1437.370942,1437.370932,1437.370942,143737094.200201,4,-1.000000,""
116_updated,w0,python3action_modeltraining_reviews100mb_neowise,0.997085,1,2000.000000,1,COMPLETED_SUCCESSFULLY,1411.122689,43.399999,1454.522688,1410.125604,1453.525603,33.491374,0,-1.000000,""
116,w0,python3action_modeltraining_reviews100mb,0.000000,1,-1.000000,1,COMPLETED_SUCCESSFULLY,1454.522703,0.000010,1454.522713,1454.522703,1454.522713,145452271.300201,0,-1.000000,""
109_updated,w0,python3action_facedetection_SampleVideo_30mb_nova,0.997085,1,2000.000000,1,COMPLETED_SUCCESSFULLY,1314.702140,160.399990,1475.102131,1313.705055,1474.105046,9.190182,6,-1.000000,""
109,w0,python3action_facedetection_SampleVideo_30mb,0.000000,1,-1.000000,1,COMPLETED_SUCCESSFULLY,1475.102146,0.000010,1475.102156,1475.102146,1475.102156,147510215.600201,6,-1.000000,""
184_updated,w0,python3action_pyaes_3000_troll,0.997085,1,2000.000000,1,COMPLETED_SUCCESSFULLY,1437.370962,57.166677,1494.537639,1436.373877,1493.540554,26.126069,4,-1.000000,""
184,w0,python3action_pyaes_3000,0.000000,1,-1.000000,1,COMPLETED_SUCCESSFULLY,1494.537654,0.000010,1494.537664,1494.537654,1494.537664,149453766.400201,4,-1.000000,""
133_updated,w0,python3action_modeltraining_reviews100mb_neowise,0.997085,1,2000.000000,1,COMPLETED_SUCCESSFULLY,1454.522733,43.399999,1497.922732,1453.525648,1496.925647,34.491375,0,-1.000000,""
133,w0,python3action_modeltraining_reviews100mb,0.000000,1,-1.000000,1,COMPLETED_SUCCESSFULLY,1497.922747,0.000010,1497.922757,1497.922747,1497.922757,149792275.700201,0,-1.000000,""
194_updated,w0,python3action_linpack_6000_orion,0.997085,1,2000.000000,1,COMPLETED_SUCCESSFULLY,1422.576281,106.000000,1528.576281,1421.579196,1527.579196,14.411124,11,-1.000000,""
194,w0,python3action_linpack_6000,0.000000,1,-1.000000,1,COMPLETED_SUCCESSFULLY,1528.576296,0.000010,1528.576306,1528.576296,1528.576306,152857630.602008,11,-1.000000,""
139_updated,w0,python3action_modeltraining_reviews100mb_neowise,0.997085,1,2000.000000,1,COMPLETED_SUCCESSFULLY,1497.922777,43.399999,1541.322776,1496.925692,1540.325691,35.491376,0,-1.000000,""
139,w0,python3action_modeltraining_reviews100mb,0.000000,1,-1.000000,1,COMPLETED_SUCCESSFULLY,1541.322791,0.000010,1541.322801,1541.322791,1541.322801,154132280.100201,0,-1.000000,""
186_updated,w0,python3action_pyaes_3000_troll,0.997085,1,2000.000000,1,COMPLETED_SUCCESSFULLY,1494.537684,57.166677,1551.704361,1493.540599,1550.707276,27.126070,4,-1.000000,""
186,w0,python3action_pyaes_3000,0.000000,1,-1.000000,1,COMPLETED_SUCCESSFULLY,1551.704376,0.000010,1551.704386,1551.704376,1551.704386,155170438.600201,4,-1.000000,""
162_updated,w0,python3action_facedetection_SampleVideo_50mb_taurus,0.997085,1,2000.000000,1,COMPLETED_SUCCESSFULLY,1419.015498,134.600046,1553.615544,1418.018413,1552.618459,11.535051,2,-1.000000,""
162,w0,python3action_facedetection_SampleVideo_50mb,0.000000,1,-1.000000,1,COMPLETED_SUCCESSFULLY,1553.615559,0.000010,1553.615569,1553.615559,1553.615569,155361556.913881,2,-1.000000,""
199_updated,w0,python3action_linpack_5000_orion,0.997085,1,2000.000000,1,COMPLETED_SUCCESSFULLY,1528.576326,36.199977,1564.776303,1527.579241,1563.779218,43.198348,11,-1.000000,""
199,w0,python3action_linpack_5000,0.000000,1,-1.000000,1,COMPLETED_SUCCESSFULLY,1564.776318,0.000010,1564.776328,1564.776318,1564.776328,156477632.800201,11,-1.000000,""
160_updated,w0,python3action_modeltraining_reviews100mb_neowise,0.997085,1,2000.000000,1,COMPLETED_SUCCESSFULLY,1541.322821,43.399999,1584.722820,1540.325736,1583.725735,36.491377,0,-1.000000,""
160,w0,python3action_modeltraining_reviews100mb,0.000000,1,-1.000000,1,COMPLETED_SUCCESSFULLY,1584.722835,0.000010,1584.722845,1584.722835,1584.722845,158472284.500201,0,-1.000000,""
164_updated,w0,python3action_modeltraining_reviews50mb_neowise,0.997085,1,2000.000000,1,COMPLETED_SUCCESSFULLY,1584.722865,22.799998,1607.522863,1583.725780,1606.525778,70.461664,0,-1.000000,""
164,w0,python3action_modeltraining_reviews50mb,0.000000,1,-1.000000,1,COMPLETED_SUCCESSFULLY,1607.522878,0.000010,1607.522888,1607.522878,1607.522888,160752288.800201,0,-1.000000,""
124_updated,w0,python3action_facedetection_SampleVideo_30mb_nova,0.997085,1,2000.000000,1,COMPLETED_SUCCESSFULLY,1475.102176,160.399990,1635.502166,1474.105091,1634.505081,10.190182,6,-1.000000,""
124,w0,python3action_facedetection_SampleVideo_30mb,0.000000,1,-1.000000,1,COMPLETED_SUCCESSFULLY,1635.502181,0.000010,1635.502191,1635.502181,1635.502191,163550219.123907,6,-1.000000,""
168_updated,w0,python3action_modeltraining_reviews100mb_neowise,0.997085,1,2000.000000,1,COMPLETED_SUCCESSFULLY,1607.522908,43.399999,1650.922907,1606.525823,1649.925822,38.016725,0,-1.000000,""
168,w0,python3action_modeltraining_reviews100mb,0.000000,1,-1.000000,1,COMPLETED_SUCCESSFULLY,1650.922922,0.000010,1650.922932,1650.922922,1650.922932,165092293.200201,0,-1.000000,""
193_updated,w0,python3action_facedetection_SampleVideo_50mb_taurus,0.997085,1,2000.000000,1,COMPLETED_SUCCESSFULLY,1553.615589,134.600046,1688.215635,1552.618504,1687.218550,12.535052,2,-1.000000,""
193,w0,python3action_facedetection_SampleVideo_50mb,0.000000,1,-1.000000,1,COMPLETED_SUCCESSFULLY,1688.215650,0.000010,1688.215660,1688.215650,1688.215660,168821566.027562,2,-1.000000,""
179_updated,w0,python3action_modeltraining_reviews100mb_neowise,0.997085,1,2000.000000,1,COMPLETED_SUCCESSFULLY,1650.922952,43.399999,1694.322951,1649.925867,1693.325866,39.016726,0,-1.000000,""
179,w0,python3action_modeltraining_reviews100mb,0.000000,1,-1.000000,1,COMPLETED_SUCCESSFULLY,1694.322966,0.000010,1694.322976,1694.322966,1694.322976,169432297.600201,0,-1.000000,""
python3action_image_processing_job7_2,w0,python3action_image_processing_reduced_0.86,0.997085,1,2000.000000,1,COMPLETED_SUCCESSFULLY,1688.215680,9.731413,1697.947093,1687.218595,1696.950008,174.378585,2,-1.000000,""
197_updated,w0,python3action_modeltraining_reviews50mb_neowise,0.997085,1,2000.000000,1,COMPLETED_SUCCESSFULLY,1694.322996,22.799998,1717.122994,1693.325911,1716.125909,75.268688,0,-1.000000,""
197,w0,python3action_modeltraining_reviews50mb,0.000000,1,-1.000000,1,COMPLETED_SUCCESSFULLY,1717.123009,0.000010,1717.123019,1717.123009,1717.123019,171712301.900201,0,-1.000000,""
7_updated,w0,python3action_imageprocessing_SampleImage_40mb_taurus,0.997085,1,2000.000000,1,COMPLETED_SUCCESSFULLY,1697.947108,32.600046,1730.547154,1696.950023,1729.550069,53.053608,2,-1.000000,""
7,w0,python3action_imageprocessing_SampleImage_40mb,0.000000,1,-1.000000,1,COMPLETED_SUCCESSFULLY,1730.547169,0.000010,1730.547179,1730.547169,1730.547179,173054717.929427,2,-1.000000,""
33_updated,w0,python3action_imageprocessing_SampleImage_40mb_taurus,0.997085,1,2000.000000,1,COMPLETED_SUCCESSFULLY,1730.547199,32.600046,1763.147245,1729.550114,1762.150160,54.053609,2,-1.000000,""
33,w0,python3action_imageprocessing_SampleImage_40mb,0.000000,1,-1.000000,1,COMPLETED_SUCCESSFULLY,1763.147260,0.000010,1763.147270,1763.147260,1763.147270,176314727.043107,2,-1.000000,""
51_updated,w0,python3action_imageprocessing_SampleImage_40mb_taurus,0.997085,1,2000.000000,1,COMPLETED_SUCCESSFULLY,1763.147290,32.600046,1795.747337,1762.150205,1794.750252,55.053611,2,-1.000000,""
51,w0,python3action_imageprocessing_SampleImage_40mb,0.000000,1,-1.000000,1,COMPLETED_SUCCESSFULLY,1795.747352,0.000010,1795.747362,1795.747352,1795.747362,179574736.200201,2,-1.000000,""
134_updated,w0,python3action_facedetection_SampleVideo_30mb_nova,0.997085,1,2000.000000,1,COMPLETED_SUCCESSFULLY,1635.502211,160.399990,1795.902201,1634.505126,1794.905116,11.190182,6,-1.000000,""
134,w0,python3action_facedetection_SampleVideo_30mb,0.000000,1,-1.000000,1,COMPLETED_SUCCESSFULLY,1795.902216,0.000010,1795.902226,1795.902216,1795.902226,179590222.647613,6,-1.000000,""
59_updated,w0,python3action_imageprocessing_SampleImage_40mb_taurus,0.997085,1,2000.000000,1,COMPLETED_SUCCESSFULLY,1795.747382,32.600046,1828.347428,1794.750297,1827.350343,56.053612,2,-1.000000,""
59,w0,python3action_imageprocessing_SampleImage_40mb,0.000000,1,-1.000000,1,COMPLETED_SUCCESSFULLY,1828.347443,0.000010,1828.347453,1828.347443,1828.347453,182834745.313881,2,-1.000000,""
76_updated,w0,python3action_imageprocessing_SampleImage_40mb_taurus,0.997085,1,2000.000000,1,COMPLETED_SUCCESSFULLY,1828.347473,32.600046,1860.947519,1827.350388,1859.950434,57.053614,2,-1.000000,""
76,w0,python3action_imageprocessing_SampleImage_40mb,0.000000,1,-1.000000,1,COMPLETED_SUCCESSFULLY,1860.947534,0.000010,1860.947544,1860.947534,1860.947544,186094754.427562,2,-1.000000,""
97_updated,w0,python3action_imageprocessing_SampleImage_40mb_taurus,0.997085,1,2000.000000,1,COMPLETED_SUCCESSFULLY,1860.947564,32.600046,1893.547610,1859.950479,1892.550525,58.053615,2,-1.000000,""
97,w0,python3action_imageprocessing_SampleImage_40mb,0.000000,1,-1.000000,1,COMPLETED_SUCCESSFULLY,1893.547625,0.000010,1893.547635,1893.547625,1893.547635,189354763.541242,2,-1.000000,""
129_updated,w0,python3action_imageprocessing_SampleImage_40mb_taurus,0.997085,1,2000.000000,1,COMPLETED_SUCCESSFULLY,1893.547655,32.600046,1926.147702,1892.550570,1925.150617,59.053616,2,-1.000000,""
129,w0,python3action_imageprocessing_SampleImage_40mb,0.000000,1,-1.000000,1,COMPLETED_SUCCESSFULLY,1926.147717,0.000010,1926.147727,1926.147717,1926.147727,192614772.700201,2,-1.000000,""
155_updated,w0,python3action_facedetection_SampleVideo_30mb_nova,0.997085,1,2000.000000,1,COMPLETED_SUCCESSFULLY,1795.902246,160.399990,1956.302237,1794.905161,1955.305152,12.190182,6,-1.000000,""
155,w0,python3action_facedetection_SampleVideo_30mb,0.000000,1,-1.000000,1,COMPLETED_SUCCESSFULLY,1956.302252,0.000010,1956.302262,1956.302252,1956.302262,195630226.200201,6,-1.000000,""
141_updated,w0,python3action_imageprocessing_SampleImage_40mb_taurus,0.997085,1,2000.000000,1,COMPLETED_SUCCESSFULLY,1926.147747,32.600046,1958.747793,1925.150662,1957.750708,60.053618,2,-1.000000,""
141,w0,python3action_imageprocessing_SampleImage_40mb,0.000000,1,-1.000000,1,COMPLETED_SUCCESSFULLY,1958.747808,0.000010,1958.747818,1958.747808,1958.747818,195874781.813881,2,-1.000000,""
149_updated,w0,python3action_imageprocessing_SampleImage_40mb_taurus,0.997085,1,2000.000000,1,COMPLETED_SUCCESSFULLY,1958.747838,32.600046,1991.347884,1957.750753,1990.350799,61.053619,2,-1.000000,""
149,w0,python3action_imageprocessing_SampleImage_40mb,0.000000,1,-1.000000,1,COMPLETED_SUCCESSFULLY,1991.347899,0.000010,1991.347909,1991.347899,1991.347909,199134790.927562,2,-1.000000,""
python3action_video_processing_job4_2,w0,python3action_video_processing_reduced_1.83,0.997085,1,2000.000000,1,COMPLETED_SUCCESSFULLY,1991.347929,0.000000,1991.347929,1990.350844,1990.350844,17265592872894.378906,2,-1.000000,""
174_updated,w0,python3action_facedetection_SampleVideo_30mb_nova,0.997085,1,2000.000000,1,COMPLETED_SUCCESSFULLY,1956.302282,160.399990,2116.702272,1955.305197,2115.705187,13.190183,6,-1.000000,""
174,w0,python3action_facedetection_SampleVideo_30mb,0.000000,1,-1.000000,1,COMPLETED_SUCCESSFULLY,2116.702287,0.000010,2116.702297,2116.702287,2116.702297,211670229.723907,6,-1.000000,""
4_updated,w0,python3action_videoprocessing_SampleVideo_50mb_taurus,0.997085,1,2000.000000,1,COMPLETED_SUCCESSFULLY,1991.347959,154.250029,2145.597988,1990.350874,2144.600903,13.903407,2,-1.000000,""
4,w0,python3action_videoprocessing_SampleVideo_50mb,0.000000,1,-1.000000,1,COMPLETED_SUCCESSFULLY,2145.598003,0.000010,2145.598013,2145.598003,2145.598013,214559801.311740,2,-1.000000,""
198_updated,w0,python3action_facedetection_SampleVideo_30mb_nova,0.997085,1,2000.000000,1,COMPLETED_SUCCESSFULLY,2116.702317,160.399990,2277.102307,2115.705232,2276.105222,14.190183,6,-1.000000,""
198,w0,python3action_facedetection_SampleVideo_30mb,0.000000,1,-1.000000,1,COMPLETED_SUCCESSFULLY,2277.102322,0.000010,2277.102332,2277.102322,2277.102332,227710233.247613,6,-1.000000,""
python3action_floatoperation_job20_5,w0,python3action_floatoperation,0.997085,1,2000.000000,1,COMPLETED_SUCCESSFULLY,2277.102352,2.439945,2279.542298,2276.105267,2278.545213,933.850943,6,-1.000000,""
11_updated,w0,python3action_videoprocessing_SampleVideo_50mb_taurus,0.997085,1,2000.000000,1,COMPLETED_SUCCESSFULLY,2145.598033,154.250029,2299.848062,2144.600948,2298.850977,14.903407,2,-1.000000,""
11,w0,python3action_videoprocessing_SampleVideo_50mb,0.000000,1,-1.000000,1,COMPLETED_SUCCESSFULLY,2299.848077,0.000010,2299.848087,2299.848077,2299.848087,229984808.700201,2,-1.000000,""
20_updated,w0,python3action_floatoperation_200000000_nova,0.997085,1,2000.000000,1,COMPLETED_SUCCESSFULLY,2279.542313,135.399990,2414.942303,2278.545228,2413.945218,17.828253,6,-1.000000,""
20,w0,python3action_floatoperation_200000000,0.000000,1,-1.000000,1,COMPLETED_SUCCESSFULLY,2414.942318,0.000010,2414.942328,2414.942318,2414.942328,241494232.823505,6,-1.000000,""
13_updated,w0,python3action_videoprocessing_SampleVideo_50mb_taurus,0.997085,1,2000.000000,1,COMPLETED_SUCCESSFULLY,2299.848107,154.250029,2454.098136,2298.851022,2453.101051,15.903407,2,-1.000000,""
13,w0,python3action_videoprocessing_SampleVideo_50mb,0.000000,1,-1.000000,1,COMPLETED_SUCCESSFULLY,2454.098151,0.000010,2454.098161,2454.098151,2454.098161,245409816.100201,2,-1.000000,""
22_updated,w0,python3action_floatoperation_200000000_nova,0.997085,1,2000.000000,1,COMPLETED_SUCCESSFULLY,2414.942348,135.399990,2550.342338,2413.945263,2549.345253,18.828253,6,-1.000000,""
22,w0,python3action_floatoperation_200000000,0.000000,1,-1.000000,1,COMPLETED_SUCCESSFULLY,2550.342353,0.000010,2550.342363,2550.342353,2550.342363,255034236.347212,6,-1.000000,""
24_updated,w0,python3action_videoprocessing_SampleVideo_50mb_taurus,0.997085,1,2000.000000,1,COMPLETED_SUCCESSFULLY,2454.098181,154.250029,2608.348210,2453.101096,2607.351125,16.903408,2,-1.000000,""
24,w0,python3action_videoprocessing_SampleVideo_50mb,0.000000,1,-1.000000,1,COMPLETED_SUCCESSFULLY,2608.348225,0.000010,2608.348235,2608.348225,2608.348235,260834823.500201,2,-1.000000,""
25_updated,w0,python3action_floatoperation_100000000_nova,0.997085,1,2000.000000,1,COMPLETED_SUCCESSFULLY,2550.342383,66.200020,2616.542403,2549.345298,2615.545318,39.509736,6,-1.000000,""
25,w0,python3action_floatoperation_100000000,0.000000,1,-1.000000,1,COMPLETED_SUCCESSFULLY,2616.542418,0.000010,2616.542428,2616.542418,2616.542428,261654242.801607,6,-1.000000,""
55_updated,w0,python3action_floatoperation_100000000_nova,0.997085,1,2000.000000,1,COMPLETED_SUCCESSFULLY,2616.542448,66.200020,2682.742468,2615.545363,2681.745383,40.509737,6,-1.000000,""
55,w0,python3action_floatoperation_100000000,0.000000,1,-1.000000,1,COMPLETED_SUCCESSFULLY,2682.742483,0.000010,2682.742493,2682.742483,2682.742493,268274249.300201,6,-1.000000,""
60_updated,w0,python3action_floatoperation_100000000_nova,0.997085,1,2000.000000,1,COMPLETED_SUCCESSFULLY,2682.742513,66.200020,2748.942533,2681.745428,2747.945448,41.509738,6,-1.000000,""
60,w0,python3action_floatoperation_100000000,0.000000,1,-1.000000,1,COMPLETED_SUCCESSFULLY,2748.942548,0.000010,2748.942558,2748.942548,2748.942558,274894255.800201,6,-1.000000,""
64_updated,w0,python3action_videoprocessing_SampleVideo_50mb_taurus,0.997085,1,2000.000000,1,COMPLETED_SUCCESSFULLY,2608.348255,154.250029,2762.598284,2607.351170,2761.601199,17.903408,2,-1.000000,""
64,w0,python3action_videoprocessing_SampleVideo_50mb,0.000000,1,-1.000000,1,COMPLETED_SUCCESSFULLY,2762.598299,0.000010,2762.598309,2762.598299,2762.598309,276259830.900201,2,-1.000000,""
84_updated,w0,python3action_floatoperation_200000000_nova,0.997085,1,2000.000000,1,COMPLETED_SUCCESSFULLY,2748.942578,135.399990,2884.342568,2747.945493,2883.345483,21.295020,6,-1.000000,""
84,w0,python3action_floatoperation_200000000,0.000000,1,-1.000000,1,COMPLETED_SUCCESSFULLY,2884.342583,0.000010,2884.342593,2884.342583,2884.342593,288434259.323907,6,-1.000000,""
78_updated,w0,python3action_videoprocessing_SampleVideo_50mb_taurus,0.997085,1,2000.000000,1,COMPLETED_SUCCESSFULLY,2762.598329,154.250029,2916.848358,2761.601244,2915.851273,18.903408,2,-1.000000,""
78,w0,python3action_videoprocessing_SampleVideo_50mb,0.000000,1,-1.000000,1,COMPLETED_SUCCESSFULLY,2916.848373,0.000010,2916.848383,2916.848373,2916.848383,291684838.300201,2,-1.000000,""
92_updated,w0,python3action_floatoperation_200000000_nova,0.997085,1,2000.000000,1,COMPLETED_SUCCESSFULLY,2884.342613,135.399990,3019.742603,2883.345528,3018.745518,22.295020,6,-1.000000,""
92,w0,python3action_floatoperation_200000000,0.000000,1,-1.000000,1,COMPLETED_SUCCESSFULLY,3019.742618,0.000010,3019.742628,3019.742618,3019.742628,301974262.847613,6,-1.000000,""
98_updated,w0,python3action_videoprocessing_SampleVideo_50mb_taurus,0.997085,1,2000.000000,1,COMPLETED_SUCCESSFULLY,2916.848403,154.250029,3071.098432,2915.851318,3070.101347,19.903409,2,-1.000000,""
98,w0,python3action_videoprocessing_SampleVideo_50mb,0.000000,1,-1.000000,1,COMPLETED_SUCCESSFULLY,3071.098447,0.000010,3071.098457,3071.098447,3071.098457,307109845.700201,2,-1.000000,""
105_updated,w0,python3action_floatoperation_200000000_nova,0.997085,1,2000.000000,1,COMPLETED_SUCCESSFULLY,3019.742648,135.399990,3155.142639,3018.745563,3154.145554,23.295021,6,-1.000000,""
105,w0,python3action_floatoperation_200000000,0.000000,1,-1.000000,1,COMPLETED_SUCCESSFULLY,3155.142654,0.000010,3155.142664,3155.142654,3155.142664,315514266.400201,6,-1.000000,""
110_updated,w0,python3action_videoprocessing_SampleVideo_50mb_taurus,0.997085,1,2000.000000,1,COMPLETED_SUCCESSFULLY,3071.098477,154.250029,3225.348506,3070.101392,3224.351421,20.903409,2,-1.000000,""
110,w0,python3action_videoprocessing_SampleVideo_50mb,0.000000,1,-1.000000,1,COMPLETED_SUCCESSFULLY,3225.348521,0.000010,3225.348531,3225.348521,3225.348531,322534853.100201,2,-1.000000,""
106_updated,w0,python3action_floatoperation_200000000_nova,0.997085,1,2000.000000,1,COMPLETED_SUCCESSFULLY,3155.142684,135.399990,3290.542674,3154.145599,3289.545589,24.295021,6,-1.000000,""
106,w0,python3action_floatoperation_200000000,0.000000,1,-1.000000,1,COMPLETED_SUCCESSFULLY,3290.542689,0.000010,3290.542699,3290.542689,3290.542699,329054269.923907,6,-1.000000,""
113_updated,w0,python3action_floatoperation_100000000_nova,0.997085,1,2000.000000,1,COMPLETED_SUCCESSFULLY,3290.542719,66.200020,3356.742739,3289.545634,3355.745654,50.691007,6,-1.000000,""
113,w0,python3action_floatoperation_100000000,0.000000,1,-1.000000,1,COMPLETED_SUCCESSFULLY,3356.742754,0.000010,3356.742764,3356.742754,3356.742764,335674276.400201,6,-1.000000,""
112_updated,w0,python3action_videoprocessing_SampleVideo_50mb_taurus,0.997085,1,2000.000000,1,COMPLETED_SUCCESSFULLY,3225.348551,154.250029,3379.598580,3224.351466,3378.601495,21.903409,2,-1.000000,""
112,w0,python3action_videoprocessing_SampleVideo_50mb,0.000000,1,-1.000000,1,COMPLETED_SUCCESSFULLY,3379.598595,0.000010,3379.598605,3379.598595,3379.598605,337959860.500201,2,-1.000000,""
115_updated,w0,python3action_floatoperation_200000000_nova,0.997085,1,2000.000000,1,COMPLETED_SUCCESSFULLY,3356.742784,135.399990,3492.142774,3355.745699,3491.145689,25.783943,6,-1.000000,""
115,w0,python3action_floatoperation_200000000,0.000000,1,-1.000000,1,COMPLETED_SUCCESSFULLY,3492.142789,0.000010,3492.142799,3492.142789,3492.142799,349214279.923907,6,-1.000000,""
123_updated,w0,python3action_videoprocessing_SampleVideo_50mb_taurus,0.997085,1,2000.000000,1,COMPLETED_SUCCESSFULLY,3379.598625,154.250029,3533.848654,3378.601540,3532.851569,22.903409,2,-1.000000,""
123,w0,python3action_videoprocessing_SampleVideo_50mb,0.000000,1,-1.000000,1,COMPLETED_SUCCESSFULLY,3533.848669,0.000010,3533.848679,3533.848669,3533.848679,353384867.900201,2,-1.000000,""
128_updated,w0,python3action_floatoperation_200000000_nova,0.997085,1,2000.000000,1,COMPLETED_SUCCESSFULLY,3492.142819,135.399990,3627.542809,3491.145734,3626.545724,26.783944,6,-1.000000,""
128,w0,python3action_floatoperation_200000000,0.000000,1,-1.000000,1,COMPLETED_SUCCESSFULLY,3627.542824,0.000010,3627.542834,3627.542824,3627.542834,362754283.447613,6,-1.000000,""
125_updated,w0,python3action_videoprocessing_SampleVideo_50mb_taurus,0.997085,1,2000.000000,1,COMPLETED_SUCCESSFULLY,3533.848699,154.250029,3688.098728,3532.851614,3687.101643,23.903410,2,-1.000000,""
125,w0,python3action_videoprocessing_SampleVideo_50mb,0.000000,1,-1.000000,1,COMPLETED_SUCCESSFULLY,3688.098743,0.000010,3688.098753,3688.098743,3688.098753,368809875.300201,2,-1.000000,""
137_updated,w0,python3action_floatoperation_100000000_nova,0.997085,1,2000.000000,1,COMPLETED_SUCCESSFULLY,3627.542854,66.200020,3693.742874,3626.545769,3692.745789,55.781642,6,-1.000000,""
137,w0,python3action_floatoperation_100000000,0.000000,1,-1.000000,1,COMPLETED_SUCCESSFULLY,3693.742889,0.000010,3693.742899,3693.742889,3693.742899,369374289.902009,6,-1.000000,""
142_updated,w0,python3action_floatoperation_100000000_nova,0.997085,1,2000.000000,1,COMPLETED_SUCCESSFULLY,3693.742919,66.200020,3759.942939,3692.745834,3758.945854,56.781643,6,-1.000000,""
142,w0,python3action_floatoperation_100000000,0.000000,1,-1.000000,1,COMPLETED_SUCCESSFULLY,3759.942954,0.000010,3759.942964,3759.942954,3759.942964,375994296.400201,6,-1.000000,""
148_updated,w0,python3action_floatoperation_100000000_nova,0.997085,1,2000.000000,1,COMPLETED_SUCCESSFULLY,3759.942984,66.200020,3826.143004,3758.945899,3825.145919,57.781643,6,-1.000000,""
148,w0,python3action_floatoperation_100000000,0.000000,1,-1.000000,1,COMPLETED_SUCCESSFULLY,3826.143019,0.000010,3826.143029,3826.143019,3826.143029,382614302.900201,6,-1.000000,""
145_updated,w0,python3action_videoprocessing_SampleVideo_50mb_taurus,0.997085,1,2000.000000,1,COMPLETED_SUCCESSFULLY,3688.098773,154.250029,3842.348802,3687.101688,3841.351717,24.903410,2,-1.000000,""
145,w0,python3action_videoprocessing_SampleVideo_50mb,0.000000,1,-1.000000,1,COMPLETED_SUCCESSFULLY,3842.348817,0.000010,3842.348827,3842.348817,3842.348827,384234882.700201,2,-1.000000,""
150_updated,w0,python3action_floatoperation_200000000_nova,0.997085,1,2000.000000,1,COMPLETED_SUCCESSFULLY,3826.143049,135.399990,3961.543039,3825.145964,3960.545954,29.250711,6,-1.000000,""
150,w0,python3action_floatoperation_200000000,0.000000,1,-1.000000,1,COMPLETED_SUCCESSFULLY,3961.543054,0.000010,3961.543064,3961.543054,3961.543064,396154306.423907,6,-1.000000,""
163_updated,w0,python3action_videoprocessing_SampleVideo_50mb_taurus,0.997085,1,2000.000000,1,COMPLETED_SUCCESSFULLY,3842.348847,154.250029,3996.598876,3841.351762,3995.601791,25.903410,2,-1.000000,""
163,w0,python3action_videoprocessing_SampleVideo_50mb,0.000000,1,-1.000000,1,COMPLETED_SUCCESSFULLY,3996.598891,0.000010,3996.598901,3996.598891,3996.598901,399659890.100201,2,-1.000000,""
156_updated,w0,python3action_floatoperation_100000000_nova,0.997085,1,2000.000000,1,COMPLETED_SUCCESSFULLY,3961.543084,66.200020,4027.743104,3960.545999,4026.746019,60.826961,6,-1.000000,""
156,w0,python3action_floatoperation_100000000,0.000000,1,-1.000000,1,COMPLETED_SUCCESSFULLY,4027.743119,0.000010,4027.743129,4027.743119,4027.743129,402774312.900201,6,-1.000000,""
157_updated,w0,python3action_floatoperation_100000000_nova,0.997085,1,2000.000000,1,COMPLETED_SUCCESSFULLY,4027.743149,66.200020,4093.943169,4026.746064,4092.946084,61.826962,6,-1.000000,""
157,w0,python3action_floatoperation_100000000,0.000000,1,-1.000000,1,COMPLETED_SUCCESSFULLY,4093.943184,0.000010,4093.943194,4093.943184,4093.943194,409394319.400201,6,-1.000000,""
196_updated,w0,python3action_videoprocessing_SampleVideo_50mb_taurus,0.997085,1,2000.000000,1,COMPLETED_SUCCESSFULLY,3996.598921,154.250029,4150.848950,3995.601836,4149.851865,26.903411,2,-1.000000,""
196,w0,python3action_videoprocessing_SampleVideo_50mb,0.000000,1,-1.000000,1,COMPLETED_SUCCESSFULLY,4150.848965,0.000010,4150.848975,4150.848965,4150.848975,415084897.500201,2,-1.000000,""
159_updated,w0,python3action_floatoperation_100000000_nova,0.997085,1,2000.000000,1,COMPLETED_SUCCESSFULLY,4093.943214,66.200020,4160.143234,4092.946129,4159.146149,62.826963,6,-1.000000,""
159,w0,python3action_floatoperation_100000000,0.000000,1,-1.000000,1,COMPLETED_SUCCESSFULLY,4160.143249,0.000010,4160.143259,4160.143249,4160.143259,416014325.900201,6,-1.000000,""
166_updated,w0,python3action_floatoperation_100000000_nova,0.997085,1,2000.000000,1,COMPLETED_SUCCESSFULLY,4160.143279,66.200020,4226.343299,4159.146194,4225.346214,63.826963,6,-1.000000,""
166,w0,python3action_floatoperation_100000000,0.000000,1,-1.000000,1,COMPLETED_SUCCESSFULLY,4226.343314,0.000010,4226.343324,4226.343314,4226.343324,422634332.400201,6,-1.000000,""
169_updated,w0,python3action_floatoperation_200000000_nova,0.997085,1,2000.000000,1,COMPLETED_SUCCESSFULLY,4226.343344,135.399990,4361.743334,4225.346259,4360.746249,32.206400,6,-1.000000,""
169,w0,python3action_floatoperation_200000000,0.000000,1,-1.000000,1,COMPLETED_SUCCESSFULLY,4361.743349,0.000010,4361.743359,4361.743349,4361.743359,436174335.923907,6,-1.000000,""
171_updated,w0,python3action_floatoperation_200000000_nova,0.997085,1,2000.000000,1,COMPLETED_SUCCESSFULLY,4361.743379,135.399990,4497.143369,4360.746294,4496.146284,33.206400,6,-1.000000,""
171,w0,python3action_floatoperation_200000000,0.000000,1,-1.000000,1,COMPLETED_SUCCESSFULLY,4497.143384,0.000010,4497.143394,4497.143384,4497.143394,449714339.447613,6,-1.000000,""
182_updated,w0,python3action_floatoperation_200000000_nova,0.997085,1,2000.000000,1,COMPLETED_SUCCESSFULLY,4497.143414,135.399990,4632.543405,4496.146329,4631.546320,34.206401,6,-1.000000,""
182,w0,python3action_floatoperation_200000000,0.000000,1,-1.000000,1,COMPLETED_SUCCESSFULLY,4632.543420,0.000010,4632.543430,4632.543420,4632.543430,463254343.000201,6,-1.000000,""
188_updated,w0,python3action_floatoperation_100000000_nova,0.997085,1,2000.000000,1,COMPLETED_SUCCESSFULLY,4632.543450,66.200020,4698.743470,4631.546365,4697.746385,70.962915,6,-1.000000,""
188,w0,python3action_floatoperation_100000000,0.000000,1,-1.000000,1,COMPLETED_SUCCESSFULLY,4698.743485,0.000010,4698.743495,4698.743485,4698.743495,469874349.500201,6,-1.000000,""
189_updated,w0,python3action_floatoperation_200000000_nova,0.997085,1,2000.000000,1,COMPLETED_SUCCESSFULLY,4698.743515,135.399990,4834.143505,4697.746430,4833.146420,35.695323,6,-1.000000,""
189,w0,python3action_floatoperation_200000000,0.000000,1,-1.000000,1,COMPLETED_SUCCESSFULLY,4834.143520,0.000010,4834.143530,4834.143520,4834.143530,483414353.023907,6,-1.000000,""
195_updated,w0,python3action_floatoperation_200000000_nova,0.997085,1,2000.000000,1,COMPLETED_SUCCESSFULLY,4834.143550,135.399990,4969.543540,4833.146465,4968.546455,36.695324,6,-1.000000,""
195,w0,python3action_floatoperation_200000000,0.000000,1,-1.000000,1,COMPLETED_SUCCESSFULLY,4969.543555,0.000010,4969.543565,4969.543555,4969.543565,496954356.547613,6,-1.000000,""
python3action_modeltraining_job74_5,w0,python3action_modeltraining_reduced_0.94,0.997085,1,2000.000000,1,COMPLETED_SUCCESSFULLY,4969.543585,1.794099,4971.337684,4968.546500,4970.340599,2770.382615,6,-1.000000,""
74_updated,w0,python3action_modeltraining_reviews100mb_nova,0.997085,1,2000.000000,1,COMPLETED_SUCCESSFULLY,4971.337699,79.600010,5050.937709,4970.340614,5049.940624,63.441457,6,-1.000000,""
74,w0,python3action_modeltraining_reviews100mb,0.000000,1,-1.000000,1,COMPLETED_SUCCESSFULLY,5050.937724,0.000010,5050.937734,5050.937724,5050.937734,505093773.422422,6,-1.000000,""
python3action_pyaes_job49_5,w0,python3action_pyaes,0.997085,1,2000.000000,1,COMPLETED_SUCCESSFULLY,5050.937754,2.134958,5053.072712,5049.940669,5052.075627,2366.358057,6,-1.000000,""
49_updated,w0,python3action_pyaes_4000_nova,0.997085,1,2000.000000,1,COMPLETED_SUCCESSFULLY,5053.072727,139.600010,5192.672737,5052.075642,5191.675652,37.189651,6,-1.000000,""
49,w0,python3action_pyaes_4000,0.000000,1,-1.000000,1,COMPLETED_SUCCESSFULLY,5192.672752,0.000010,5192.672762,5192.672752,5192.672762,519267276.223889,6,-1.000000,""
54_updated,w0,python3action_pyaes_4000_nova,0.997085,1,2000.000000,1,COMPLETED_SUCCESSFULLY,5192.672782,139.600010,5332.272792,5191.675697,5331.275707,38.189651,6,-1.000000,""
54,w0,python3action_pyaes_4000,0.000000,1,-1.000000,1,COMPLETED_SUCCESSFULLY,5332.272807,0.000010,5332.272817,5332.272807,5332.272817,533227281.701388,6,-1.000000,""
57_updated,w0,python3action_pyaes_4000_nova,0.997085,1,2000.000000,1,COMPLETED_SUCCESSFULLY,5332.272837,139.600010,5471.872847,5331.275752,5470.875762,39.189652,6,-1.000000,""
57,w0,python3action_pyaes_4000,0.000000,1,-1.000000,1,COMPLETED_SUCCESSFULLY,5471.872862,0.000010,5471.872872,5471.872862,5471.872872,547187287.200201,6,-1.000000,""
100_updated,w0,python3action_pyaes_4000_nova,0.997085,1,2000.000000,1,COMPLETED_SUCCESSFULLY,5471.872892,139.600010,5611.472902,5470.875807,5610.475817,40.189652,6,-1.000000,""
100,w0,python3action_pyaes_4000,0.000000,1,-1.000000,1,COMPLETED_SUCCESSFULLY,5611.472917,0.000010,5611.472927,5611.472917,5611.472927,561147292.700201,6,-1.000000,""
python3action_video_processing_job0_5,w0,python3action_video_processing_reduced_1.89,0.997085,1,2000.000000,1,COMPLETED_SUCCESSFULLY,5611.472947,0.000000,5611.472947,5610.475862,5610.475862,114236730511708.406250,6,-1.000000,""
0_updated,w0,python3action_videoprocessing_SampleVideo_30mb_nova,0.997085,1,2000.000000,1,COMPLETED_SUCCESSFULLY,5611.472977,106.799980,5718.272957,5610.475892,5717.275872,53.532555,6,-1.000000,""
0,w0,python3action_videoprocessing_SampleVideo_30mb,0.000000,1,-1.000000,1,COMPLETED_SUCCESSFULLY,5718.272972,0.000010,5718.272982,5718.272972,5718.272982,571827298.247412,6,-1.000000,""
2_updated,w0,python3action_videoprocessing_SampleVideo_30mb_nova,0.997085,1,2000.000000,1,COMPLETED_SUCCESSFULLY,5718.273002,106.799980,5825.072983,5717.275917,5824.075898,54.532556,6,-1.000000,""
2,w0,python3action_videoprocessing_SampleVideo_30mb,0.000000,1,-1.000000,1,COMPLETED_SUCCESSFULLY,5825.072998,0.000010,5825.073008,5825.072998,5825.073008,582507300.800201,6,-1.000000,""
18_updated,w0,python3action_videoprocessing_SampleVideo_30mb_nova,0.997085,1,2000.000000,1,COMPLETED_SUCCESSFULLY,5825.073028,106.799980,5931.873008,5824.075943,5930.875923,55.532556,6,-1.000000,""
18,w0,python3action_videoprocessing_SampleVideo_30mb,0.000000,1,-1.000000,1,COMPLETED_SUCCESSFULLY,5931.873023,0.000010,5931.873033,5931.873023,5931.873033,593187303.347010,6,-1.000000,""
26_updated,w0,python3action_videoprocessing_SampleVideo_30mb_nova,0.997085,1,2000.000000,1,COMPLETED_SUCCESSFULLY,5931.873053,106.799980,6038.673034,5930.875968,6037.675949,56.532557,6,-1.000000,""
26,w0,python3action_videoprocessing_SampleVideo_30mb,0.000000,1,-1.000000,1,COMPLETED_SUCCESSFULLY,6038.673049,0.000010,6038.673059,6038.673049,6038.673059,603867305.900201,6,-1.000000,""
42_updated,w0,python3action_videoprocessing_SampleVideo_30mb_nova,0.997085,1,2000.000000,1,COMPLETED_SUCCESSFULLY,6038.673079,106.799980,6145.473059,6037.675994,6144.475974,57.532557,6,-1.000000,""
42,w0,python3action_videoprocessing_SampleVideo_30mb,0.000000,1,-1.000000,1,COMPLETED_SUCCESSFULLY,6145.473074,0.000010,6145.473084,6145.473074,6145.473084,614547308.447010,6,-1.000000,""
52_updated,w0,python3action_videoprocessing_SampleVideo_30mb_nova,0.997085,1,2000.000000,1,COMPLETED_SUCCESSFULLY,6145.473104,106.799980,6252.273085,6144.476019,6251.276000,58.532558,6,-1.000000,""
52,w0,python3action_videoprocessing_SampleVideo_30mb,0.000000,1,-1.000000,1,COMPLETED_SUCCESSFULLY,6252.273100,0.000010,6252.273110,6252.273100,6252.273110,625227311.000201,6,-1.000000,""
56_updated,w0,python3action_videoprocessing_SampleVideo_30mb_nova,0.997085,1,2000.000000,1,COMPLETED_SUCCESSFULLY,6252.273130,106.799980,6359.073110,6251.276045,6358.076025,59.532558,6,-1.000000,""
56,w0,python3action_videoprocessing_SampleVideo_30mb,0.000000,1,-1.000000,1,COMPLETED_SUCCESSFULLY,6359.073125,0.000010,6359.073135,6359.073125,6359.073135,635907313.547010,6,-1.000000,""
65_updated,w0,python3action_videoprocessing_SampleVideo_50mb_nova,0.997085,1,2000.000000,1,COMPLETED_SUCCESSFULLY,6359.073155,139.600010,6498.673165,6358.076070,6497.676080,46.544954,6,-1.000000,""
65,w0,python3action_videoprocessing_SampleVideo_50mb,0.000000,1,-1.000000,1,COMPLETED_SUCCESSFULLY,6498.673180,0.000010,6498.673190,6498.673180,6498.673190,649867319.024509,6,-1.000000,""
70_updated,w0,python3action_videoprocessing_SampleVideo_30mb_nova,0.997085,1,2000.000000,1,COMPLETED_SUCCESSFULLY,6498.673210,106.799980,6605.473191,6497.676125,6604.476106,61.839675,6,-1.000000,""
70,w0,python3action_videoprocessing_SampleVideo_30mb,0.000000,1,-1.000000,1,COMPLETED_SUCCESSFULLY,6605.473206,0.000010,6605.473216,6605.473206,6605.473216,660547321.600201,6,-1.000000,""
90_updated,w0,python3action_videoprocessing_SampleVideo_30mb_nova,0.997085,1,2000.000000,1,COMPLETED_SUCCESSFULLY,6605.473236,106.799980,6712.273216,6604.476151,6711.276131,62.839676,6,-1.000000,""
90,w0,python3action_videoprocessing_SampleVideo_30mb,0.000000,1,-1.000000,1,COMPLETED_SUCCESSFULLY,6712.273231,0.000010,6712.273241,6712.273231,6712.273241,671227324.147010,6,-1.000000,""
96_updated,w0,python3action_videoprocessing_SampleVideo_30mb_nova,0.997085,1,2000.000000,1,COMPLETED_SUCCESSFULLY,6712.273261,106.799980,6819.073242,6711.276176,6818.076157,63.839676,6,-1.000000,""
96,w0,python3action_videoprocessing_SampleVideo_30mb,0.000000,1,-1.000000,1,COMPLETED_SUCCESSFULLY,6819.073257,0.000010,6819.073267,6819.073257,6819.073267,681907326.700201,6,-1.000000,""
130_updated,w0,python3action_videoprocessing_SampleVideo_30mb_nova,0.997085,1,2000.000000,1,COMPLETED_SUCCESSFULLY,6819.073287,106.799980,6925.873267,6818.076202,6924.876182,64.839676,6,-1.000000,""
130,w0,python3action_videoprocessing_SampleVideo_30mb,0.000000,1,-1.000000,1,COMPLETED_SUCCESSFULLY,6925.873282,0.000010,6925.873292,6925.873282,6925.873292,692587329.247010,6,-1.000000,""
172_updated,w0,python3action_videoprocessing_SampleVideo_30mb_nova,0.997085,1,2000.000000,1,COMPLETED_SUCCESSFULLY,6925.873312,106.799980,7032.673293,6924.876227,7031.676208,65.839677,6,-1.000000,""
172,w0,python3action_videoprocessing_SampleVideo_30mb,0.000000,1,-1.000000,1,COMPLETED_SUCCESSFULLY,7032.673308,0.000010,7032.673318,7032.673308,7032.673318,703267331.800201,6,-1.000000,""
177_updated,w0,python3action_videoprocessing_SampleVideo_30mb_nova,0.997085,1,2000.000000,1,COMPLETED_SUCCESSFULLY,7032.673338,106.799980,7139.473318,7031.676253,7138.476233,66.839677,6,-1.000000,""
177,w0,python3action_videoprocessing_SampleVideo_30mb,0.000000,1,-1.000000,1,COMPLETED_SUCCESSFULLY,7139.473333,0.000010,7139.473343,7139.473333,7139.473343,713947334.347010,6,-1.000000,""
191_updated,w0,python3action_videoprocessing_SampleVideo_30mb_nova,0.997085,1,2000.000000,1,COMPLETED_SUCCESSFULLY,7139.473363,106.799980,7246.273344,7138.476278,7245.276259,67.839678,6,-1.000000,""
191,w0,python3action_videoprocessing_SampleVideo_30mb,0.000000,1,-1.000000,1,COMPLETED_SUCCESSFULLY,7246.273359,0.000010,7246.273369,7246.273359,7246.273369,724627336.900201,6,-1.000000,""
