job_id,workload_name,profile,submission_time,requested_number_of_resources,requested_time,success,final_state,starting_time,execution_time,finish_time,waiting_time,turnaround_time,stretch,allocated_resources,consumed_energy,metadata
python3action_chameleon_job2_3,w0,python3action_chameleon,0.997085,1,2000.000000,1,COMPLETED_SUCCESSFULLY,1.002145,0.867914,1.870059,0.005060,0.872974,1.005830,19,-1.000000,""
python3action_chameleon_job39_4,w0,python3action_chameleon,0.997085,1,2000.000000,1,COMPLETED_SUCCESSFULLY,1.002160,0.892694,1.894854,0.005075,0.897769,1.005685,21,-1.000000,""
python3action_facedetection_job7_0,w0,python3action_facedetection,0.997085,1,2000.000000,1,COMPLETED_SUCCESSFULLY,1.002100,30.499683,31.501783,0.005015,30.504698,1.000164,2,-1.000000,""
2_updated,w0,python3action_chameleon_2000_troll,0.997085,1,2000.000000,1,COMPLETED_SUCCESSFULLY,1.870074,39.500010,41.370084,0.872989,40.372999,1.022101,19,-1.000000,""
2,w0,python3action_chameleon_2000,0.000000,1,-1.000000,1,COMPLETED_SUCCESSFULLY,41.370099,0.000010,41.370109,41.370099,41.370109,4137010.900201,19,-1.000000,""
python3action_image_processing_job6_1,w0,python3action_image_processing,0.997085,1,2000.000000,1,COMPLETED_SUCCESSFULLY,1.002115,72.012455,73.014570,0.005030,72.017485,1.000070,8,-1.000000,""
python3action_facedetection_job3_2,w0,python3action_facedetection,0.997085,1,2000.000000,1,COMPLETED_SUCCESSFULLY,1.002130,72.012455,73.014585,0.005045,72.017500,1.000070,10,-1.000000,""
39_updated,w0,python3action_chameleon_3000_yeti,0.997085,1,2000.000000,1,COMPLETED_SUCCESSFULLY,1.894869,93.000000,94.894869,0.897784,93.897784,1.009654,21,-1.000000,""
39,w0,python3action_chameleon_3000,0.000000,1,-1.000000,1,COMPLETED_SUCCESSFULLY,94.894884,0.000010,94.894894,94.894884,94.894894,9489489.449765,21,-1.000000,""
4_updated,w0,python3action_chameleon_3000_troll,0.997085,1,2000.000000,1,COMPLETED_SUCCESSFULLY,41.370129,94.000000,135.370129,40.373044,134.373044,1.429500,19,-1.000000,""
4,w0,python3action_chameleon_3000,0.000000,1,-1.000000,1,COMPLETED_SUCCESSFULLY,135.370144,0.000010,135.370154,135.370144,135.370154,13537015.400803,19,-1.000000,""
6_updated,w0,python3action_imageprocessing_SampleImage_60mb_orion,0.997085,1,2000.000000,1,COMPLETED_SUCCESSFULLY,73.014585,88.000000,161.014585,72.017500,160.017500,1.818381,8,-1.000000,""
6,w0,python3action_imageprocessing_SampleImage_60mb,0.000000,1,-1.000000,1,COMPLETED_SUCCESSFULLY,161.014600,0.000010,161.014610,161.014600,161.014610,16101461.031884,8,-1.000000,""
63_updated,w0,python3action_chameleon_3000_yeti,0.997085,1,2000.000000,1,COMPLETED_SUCCESSFULLY,94.894915,93.000000,187.894915,93.897830,186.897830,2.009654,21,-1.000000,""
63,w0,python3action_chameleon_3000,0.000000,1,-1.000000,1,COMPLETED_SUCCESSFULLY,187.894930,0.000010,187.894940,187.894930,187.894940,18789494.000201,21,-1.000000,""
7_updated,w0,python3action_facedetection_SampleVideo_30mb_nova,0.997085,1,2000.000000,1,COMPLETED_SUCCESSFULLY,31.501798,160.399990,191.901788,30.504713,190.904703,1.190179,2,-1.000000,""
7,w0,python3action_facedetection_SampleVideo_30mb,0.000000,1,-1.000000,1,COMPLETED_SUCCESSFULLY,191.901803,0.000010,191.901813,191.901803,191.901813,19190181.323505,2,-1.000000,""
3_updated,w0,python3action_facedetection_SampleVideo_50mb_taurus,0.997085,1,2000.000000,1,COMPLETED_SUCCESSFULLY,73.014615,134.600046,207.614661,72.017530,206.617576,1.535048,10,-1.000000,""
3,w0,python3action_facedetection_SampleVideo_50mb,0.000000,1,-1.000000,1,COMPLETED_SUCCESSFULLY,207.614676,0.000010,207.614686,207.614676,207.614686,20761468.645363,10,-1.000000,""
12_updated,w0,python3action_chameleon_3000_troll,0.997085,1,2000.000000,1,COMPLETED_SUCCESSFULLY,135.370174,94.000000,229.370174,134.373089,228.373089,2.429501,19,-1.000000,""
12,w0,python3action_chameleon_3000,0.000000,1,-1.000000,1,COMPLETED_SUCCESSFULLY,229.370189,0.000010,229.370199,229.370189,229.370199,22937019.901406,19,-1.000000,""
100_updated,w0,python3action_imageprocessing_SampleImage_60mb_orion,0.997085,1,2000.000000,1,COMPLETED_SUCCESSFULLY,161.014630,88.000000,249.014630,160.017545,248.017545,2.818381,8,-1.000000,""
100,w0,python3action_imageprocessing_SampleImage_60mb,0.000000,1,-1.000000,1,COMPLETED_SUCCESSFULLY,249.014645,0.000010,249.014655,249.014645,249.014655,24901465.532486,8,-1.000000,""
26_updated,w0,python3action_chameleon_2000_troll,0.997085,1,2000.000000,1,COMPLETED_SUCCESSFULLY,229.370219,39.500010,268.870229,228.373134,267.873144,6.781597,19,-1.000000,""
26,w0,python3action_chameleon_2000,0.000000,1,-1.000000,1,COMPLETED_SUCCESSFULLY,268.870244,0.000010,268.870254,268.870244,268.870254,26887025.400201,19,-1.000000,""
70_updated,w0,python3action_chameleon_3000_yeti,0.997085,1,2000.000000,1,COMPLETED_SUCCESSFULLY,187.894960,93.000000,280.894960,186.897875,279.897875,3.009655,21,-1.000000,""
70,w0,python3action_chameleon_3000,0.000000,1,-1.000000,1,COMPLETED_SUCCESSFULLY,280.894975,0.000010,280.894985,280.894975,280.894985,28089498.500803,21,-1.000000,""
111_updated,w0,python3action_imageprocessing_SampleImage_60mb_orion,0.997085,1,2000.000000,1,COMPLETED_SUCCESSFULLY,249.014675,88.000000,337.014675,248.017590,336.017590,3.818382,8,-1.000000,""
111,w0,python3action_imageprocessing_SampleImage_60mb,0.000000,1,-1.000000,1,COMPLETED_SUCCESSFULLY,337.014690,0.000010,337.014700,337.014690,337.014700,33701470.033089,8,-1.000000,""
28_updated,w0,python3action_facedetection_SampleVideo_50mb_taurus,0.997085,1,2000.000000,1,COMPLETED_SUCCESSFULLY,207.614706,134.600046,342.214753,206.617621,341.217668,2.535049,10,-1.000000,""
28,w0,python3action_facedetection_SampleVideo_50mb,0.000000,1,-1.000000,1,COMPLETED_SUCCESSFULLY,342.214768,0.000010,342.214778,342.214768,342.214778,34221477.800201,10,-1.000000,""
18_updated,w0,python3action_facedetection_SampleVideo_30mb_nova,0.997085,1,2000.000000,1,COMPLETED_SUCCESSFULLY,191.901833,160.399990,352.301823,190.904748,351.304738,2.190179,2,-1.000000,""
18,w0,python3action_facedetection_SampleVideo_30mb,0.000000,1,-1.000000,1,COMPLETED_SUCCESSFULLY,352.301838,0.000010,352.301848,352.301838,352.301848,35230184.847211,2,-1.000000,""
34_updated,w0,python3action_chameleon_3000_troll,0.997085,1,2000.000000,1,COMPLETED_SUCCESSFULLY,268.870274,94.000000,362.870274,267.873189,361.873189,3.849715,19,-1.000000,""
34,w0,python3action_chameleon_3000,0.000000,1,-1.000000,1,COMPLETED_SUCCESSFULLY,362.870289,0.000010,362.870299,362.870289,362.870299,36287029.900803,19,-1.000000,""
125_updated,w0,python3action_chameleon_3000_yeti,0.997085,1,2000.000000,1,COMPLETED_SUCCESSFULLY,280.895005,93.000000,373.895005,279.897920,372.897920,4.009655,21,-1.000000,""
125,w0,python3action_chameleon_3000,0.000000,1,-1.000000,1,COMPLETED_SUCCESSFULLY,373.895020,0.000010,373.895030,373.895020,373.895030,37389503.001406,21,-1.000000,""
124_updated,w0,python3action_imageprocessing_SampleImage_60mb_orion,0.997085,1,2000.000000,1,COMPLETED_SUCCESSFULLY,337.014720,88.000000,425.014720,336.017635,424.017635,4.818382,8,-1.000000,""
124,w0,python3action_imageprocessing_SampleImage_60mb,0.000000,1,-1.000000,1,COMPLETED_SUCCESSFULLY,425.014735,0.000010,425.014745,425.014735,425.014745,42501474.533691,8,-1.000000,""
45_updated,w0,python3action_chameleon_3000_troll,0.997085,1,2000.000000,1,COMPLETED_SUCCESSFULLY,362.870319,94.000000,456.870319,361.873234,455.873234,4.849715,19,-1.000000,""
45,w0,python3action_chameleon_3000,0.000000,1,-1.000000,1,COMPLETED_SUCCESSFULLY,456.870334,0.000010,456.870344,456.870334,456.870344,45687034.401406,19,-1.000000,""
30_updated,w0,python3action_facedetection_SampleVideo_50mb_taurus,0.997085,1,2000.000000,1,COMPLETED_SUCCESSFULLY,342.214798,134.600046,476.814844,341.217713,475.817759,3.535049,10,-1.000000,""
30,w0,python3action_facedetection_SampleVideo_50mb,0.000000,1,-1.000000,1,COMPLETED_SUCCESSFULLY,476.814859,0.000010,476.814869,476.814859,476.814869,47681486.913881,10,-1.000000,""
46_updated,w0,python3action_chameleon_2000_troll,0.997085,1,2000.000000,1,COMPLETED_SUCCESSFULLY,456.870364,39.500010,496.370374,455.873279,495.373289,12.541093,19,-1.000000,""
46,w0,python3action_chameleon_2000,0.000000,1,-1.000000,1,COMPLETED_SUCCESSFULLY,496.370389,0.000010,496.370399,496.370389,496.370399,49637039.900201,19,-1.000000,""
74_updated,w0,python3action_facedetection_SampleVideo_30mb_nova,0.997085,1,2000.000000,1,COMPLETED_SUCCESSFULLY,352.301868,160.399990,512.701859,351.304783,511.704774,3.190180,2,-1.000000,""
74,w0,python3action_facedetection_SampleVideo_30mb,0.000000,1,-1.000000,1,COMPLETED_SUCCESSFULLY,512.701874,0.000010,512.701884,512.701874,512.701884,51270188.400201,2,-1.000000,""
149_updated,w0,python3action_imageprocessing_SampleImage_60mb_orion,0.997085,1,2000.000000,1,COMPLETED_SUCCESSFULLY,425.014765,88.000000,513.014765,424.017680,512.017680,5.818383,8,-1.000000,""
149,w0,python3action_imageprocessing_SampleImage_60mb,0.000000,1,-1.000000,1,COMPLETED_SUCCESSFULLY,513.014780,0.000010,513.014790,513.014780,513.014790,51301479.034294,8,-1.000000,""
54_updated,w0,python3action_chameleon_2000_troll,0.997085,1,2000.000000,1,COMPLETED_SUCCESSFULLY,496.370419,39.500010,535.870429,495.373334,534.873344,13.541094,19,-1.000000,""
54,w0,python3action_chameleon_2000,0.000000,1,-1.000000,1,COMPLETED_SUCCESSFULLY,535.870444,0.000010,535.870454,535.870444,535.870454,53587045.400201,19,-1.000000,""
67_updated,w0,python3action_chameleon_2000_troll,0.997085,1,2000.000000,1,COMPLETED_SUCCESSFULLY,535.870474,39.500010,575.370484,534.873389,574.373399,14.541095,19,-1.000000,""
67,w0,python3action_chameleon_2000,0.000000,1,-1.000000,1,COMPLETED_SUCCESSFULLY,575.370499,0.000010,575.370509,575.370499,575.370509,57537050.900201,19,-1.000000,""
163_updated,w0,python3action_imageprocessing_SampleImage_60mb_orion,0.997085,1,2000.000000,1,COMPLETED_SUCCESSFULLY,513.014810,88.000000,601.014810,512.017725,600.017725,6.818383,8,-1.000000,""
163,w0,python3action_imageprocessing_SampleImage_60mb,0.000000,1,-1.000000,1,COMPLETED_SUCCESSFULLY,601.014825,0.000010,601.014835,601.014825,601.014835,60101483.534896,8,-1.000000,""
31_updated,w0,python3action_facedetection_SampleVideo_50mb_taurus,0.997085,1,2000.000000,1,COMPLETED_SUCCESSFULLY,476.814889,134.600046,611.414935,475.817804,610.417850,4.535049,10,-1.000000,""
31,w0,python3action_facedetection_SampleVideo_50mb,0.000000,1,-1.000000,1,COMPLETED_SUCCESSFULLY,611.414950,0.000010,611.414960,611.414950,611.414960,61141496.027562,10,-1.000000,""
68_updated,w0,python3action_chameleon_2000_troll,0.997085,1,2000.000000,1,COMPLETED_SUCCESSFULLY,575.370529,39.500010,614.870539,574.373444,613.873454,15.541096,19,-1.000000,""
68,w0,python3action_chameleon_2000,0.000000,1,-1.000000,1,COMPLETED_SUCCESSFULLY,614.870554,0.000010,614.870564,614.870554,614.870564,61487056.400201,19,-1.000000,""
79_updated,w0,python3action_chameleon_2000_troll,0.997085,1,2000.000000,1,COMPLETED_SUCCESSFULLY,614.870584,39.500010,654.370594,613.873499,653.373509,16.541097,19,-1.000000,""
79,w0,python3action_chameleon_2000,0.000000,1,-1.000000,1,COMPLETED_SUCCESSFULLY,654.370609,0.000010,654.370619,654.370609,654.370619,65437061.900201,19,-1.000000,""
105_updated,w0,python3action_facedetection_SampleVideo_30mb_nova,0.997085,1,2000.000000,1,COMPLETED_SUCCESSFULLY,512.701904,160.399990,673.101894,511.704819,672.104809,4.190180,2,-1.000000,""
105,w0,python3action_facedetection_SampleVideo_30mb,0.000000,1,-1.000000,1,COMPLETED_SUCCESSFULLY,673.101909,0.000010,673.101919,673.101909,673.101919,67310191.923907,2,-1.000000,""
183_updated,w0,python3action_imageprocessing_SampleImage_60mb_orion,0.997085,1,2000.000000,1,COMPLETED_SUCCESSFULLY,601.014855,88.000000,689.014855,600.017770,688.017770,7.818384,8,-1.000000,""
183,w0,python3action_imageprocessing_SampleImage_60mb,0.000000,1,-1.000000,1,COMPLETED_SUCCESSFULLY,689.014870,0.000010,689.014880,689.014870,689.014880,68901488.035498,8,-1.000000,""
81_updated,w0,python3action_chameleon_2000_troll,0.997085,1,2000.000000,1,COMPLETED_SUCCESSFULLY,654.370639,39.500010,693.870649,653.373554,692.873564,17.541098,19,-1.000000,""
81,w0,python3action_chameleon_2000,0.000000,1,-1.000000,1,COMPLETED_SUCCESSFULLY,693.870664,0.000010,693.870674,693.870664,693.870674,69387067.400201,19,-1.000000,""
python3action_linpack_job37_2,w0,python3action_linpack,0.997085,1,2000.000000,1,COMPLETED_SUCCESSFULLY,689.014900,5.760927,694.775828,688.017815,693.778743,120.428312,8,-1.000000,""
84_updated,w0,python3action_chameleon_2000_troll,0.997085,1,2000.000000,1,COMPLETED_SUCCESSFULLY,693.870694,39.500010,733.370704,692.873609,732.373619,18.541100,19,-1.000000,""
84,w0,python3action_chameleon_2000,0.000000,1,-1.000000,1,COMPLETED_SUCCESSFULLY,733.370719,0.000010,733.370729,733.370719,733.370729,73337072.900201,19,-1.000000,""
43_updated,w0,python3action_facedetection_SampleVideo_50mb_taurus,0.997085,1,2000.000000,1,COMPLETED_SUCCESSFULLY,611.414980,134.600046,746.015026,610.417895,745.017941,5.535050,10,-1.000000,""
43,w0,python3action_facedetection_SampleVideo_50mb,0.000000,1,-1.000000,1,COMPLETED_SUCCESSFULLY,746.015041,0.000010,746.015051,746.015041,746.015051,74601505.141242,10,-1.000000,""
37_updated,w0,python3action_linpack_6000_orion,0.997085,1,2000.000000,1,COMPLETED_SUCCESSFULLY,694.775843,106.000000,800.775843,693.778758,799.778758,7.545083,8,-1.000000,""
37,w0,python3action_linpack_6000,0.000000,1,-1.000000,1,COMPLETED_SUCCESSFULLY,800.775858,0.000010,800.775868,800.775858,800.775868,80077586.800402,8,-1.000000,""
85_updated,w0,python3action_chameleon_3000_troll,0.997085,1,2000.000000,1,COMPLETED_SUCCESSFULLY,733.370749,94.000000,827.370749,732.373664,826.373664,8.791209,19,-1.000000,""
85,w0,python3action_chameleon_3000,0.000000,1,-1.000000,1,COMPLETED_SUCCESSFULLY,827.370764,0.000010,827.370774,827.370764,827.370774,82737077.400803,19,-1.000000,""
107_updated,w0,python3action_facedetection_SampleVideo_30mb_nova,0.997085,1,2000.000000,1,COMPLETED_SUCCESSFULLY,673.101939,160.399990,833.501929,672.104854,832.504844,5.190180,2,-1.000000,""
107,w0,python3action_facedetection_SampleVideo_30mb,0.000000,1,-1.000000,1,COMPLETED_SUCCESSFULLY,833.501944,0.000010,833.501954,833.501944,833.501954,83350195.447613,2,-1.000000,""
91_updated,w0,python3action_chameleon_2000_troll,0.997085,1,2000.000000,1,COMPLETED_SUCCESSFULLY,827.370794,39.500010,866.870804,826.373709,865.873719,21.920848,19,-1.000000,""
91,w0,python3action_chameleon_2000,0.000000,1,-1.000000,1,COMPLETED_SUCCESSFULLY,866.870819,0.000010,866.870829,866.870819,866.870829,86687082.900201,19,-1.000000,""
53_updated,w0,python3action_facedetection_SampleVideo_50mb_taurus,0.997085,1,2000.000000,1,COMPLETED_SUCCESSFULLY,746.015071,134.600046,880.615118,745.017986,879.618033,6.535050,10,-1.000000,""
53,w0,python3action_facedetection_SampleVideo_50mb,0.000000,1,-1.000000,1,COMPLETED_SUCCESSFULLY,880.615133,0.000010,880.615143,880.615133,880.615143,88061514.300201,10,-1.000000,""
41_updated,w0,python3action_linpack_6000_orion,0.997085,1,2000.000000,1,COMPLETED_SUCCESSFULLY,800.775888,106.000000,906.775888,799.778803,905.778803,8.545083,8,-1.000000,""
41,w0,python3action_linpack_6000,0.000000,1,-1.000000,1,COMPLETED_SUCCESSFULLY,906.775903,0.000010,906.775913,906.775903,906.775913,90677591.301004,8,-1.000000,""
109_updated,w0,python3action_chameleon_3000_troll,0.997085,1,2000.000000,1,COMPLETED_SUCCESSFULLY,866.870849,94.000000,960.870849,865.873764,959.873764,10.211423,19,-1.000000,""
109,w0,python3action_chameleon_3000,0.000000,1,-1.000000,1,COMPLETED_SUCCESSFULLY,960.870864,0.000010,960.870874,960.870864,960.870874,96087087.400803,19,-1.000000,""
118_updated,w0,python3action_facedetection_SampleVideo_30mb_nova,0.997085,1,2000.000000,1,COMPLETED_SUCCESSFULLY,833.501974,160.399990,993.901965,832.504889,992.904880,6.190180,2,-1.000000,""
118,w0,python3action_facedetection_SampleVideo_30mb,0.000000,1,-1.000000,1,COMPLETED_SUCCESSFULLY,993.901980,0.000010,993.901990,993.901980,993.901990,99390199.000201,2,-1.000000,""
135_updated,w0,python3action_chameleon_2000_troll,0.997085,1,2000.000000,1,COMPLETED_SUCCESSFULLY,960.870894,39.500010,1000.370904,959.873809,999.373819,25.300597,19,-1.000000,""
135,w0,python3action_chameleon_2000,0.000000,1,-1.000000,1,COMPLETED_SUCCESSFULLY,1000.370919,0.000010,1000.370929,1000.370919,1000.370929,100037092.900201,19,-1.000000,""
55_updated,w0,python3action_linpack_6000_orion,0.997085,1,2000.000000,1,COMPLETED_SUCCESSFULLY,906.775933,106.000000,1012.775933,905.778848,1011.778848,9.545083,8,-1.000000,""
55,w0,python3action_linpack_6000,0.000000,1,-1.000000,1,COMPLETED_SUCCESSFULLY,1012.775948,0.000010,1012.775958,1012.775948,1012.775958,101277595.801606,8,-1.000000,""
73_updated,w0,python3action_facedetection_SampleVideo_50mb_taurus,0.997085,1,2000.000000,1,COMPLETED_SUCCESSFULLY,880.615163,134.600046,1015.215209,879.618078,1014.218124,7.535050,10,-1.000000,""
73,w0,python3action_facedetection_SampleVideo_50mb,0.000000,1,-1.000000,1,COMPLETED_SUCCESSFULLY,1015.215224,0.000010,1015.215234,1015.215224,1015.215234,101521523.413881,10,-1.000000,""
140_updated,w0,python3action_chameleon_2000_troll,0.997085,1,2000.000000,1,COMPLETED_SUCCESSFULLY,1000.370949,39.500010,1039.870959,999.373864,1038.873874,26.300598,19,-1.000000,""
140,w0,python3action_chameleon_2000,0.000000,1,-1.000000,1,COMPLETED_SUCCESSFULLY,1039.870974,0.000010,1039.870984,1039.870974,1039.870984,103987098.400201,19,-1.000000,""
61_updated,w0,python3action_linpack_5000_orion,0.997085,1,2000.000000,1,COMPLETED_SUCCESSFULLY,1012.775978,36.199977,1048.975955,1011.778893,1047.978870,28.949711,8,-1.000000,""
61,w0,python3action_linpack_5000,0.000000,1,-1.000000,1,COMPLETED_SUCCESSFULLY,1048.975970,0.000010,1048.975980,1048.975970,1048.975980,104897598.000201,8,-1.000000,""
147_updated,w0,python3action_chameleon_3000_troll,0.997085,1,2000.000000,1,COMPLETED_SUCCESSFULLY,1039.871004,94.000000,1133.871004,1038.873919,1132.873919,12.051850,19,-1.000000,""
147,w0,python3action_chameleon_3000,0.000000,1,-1.000000,1,COMPLETED_SUCCESSFULLY,1133.871019,0.000010,1133.871029,1133.871019,1133.871029,113387102.900803,19,-1.000000,""
89_updated,w0,python3action_facedetection_SampleVideo_50mb_taurus,0.997085,1,2000.000000,1,COMPLETED_SUCCESSFULLY,1015.215254,134.600046,1149.815300,1014.218169,1148.818215,8.535051,10,-1.000000,""
89,w0,python3action_facedetection_SampleVideo_50mb,0.000000,1,-1.000000,1,COMPLETED_SUCCESSFULLY,1149.815315,0.000010,1149.815325,1149.815315,1149.815325,114981532.527562,10,-1.000000,""
138_updated,w0,python3action_facedetection_SampleVideo_30mb_nova,0.997085,1,2000.000000,1,COMPLETED_SUCCESSFULLY,993.902010,160.399990,1154.302000,992.904925,1153.304915,7.190181,2,-1.000000,""
138,w0,python3action_facedetection_SampleVideo_30mb,0.000000,1,-1.000000,1,COMPLETED_SUCCESSFULLY,1154.302015,0.000010,1154.302025,1154.302015,1154.302025,115430202.523907,2,-1.000000,""
75_updated,w0,python3action_linpack_6000_orion,0.997085,1,2000.000000,1,COMPLETED_SUCCESSFULLY,1048.976000,106.000000,1154.976000,1047.978915,1153.978915,10.886594,8,-1.000000,""
75,w0,python3action_linpack_6000,0.000000,1,-1.000000,1,COMPLETED_SUCCESSFULLY,1154.976015,0.000010,1154.976025,1154.976015,1154.976025,115497602.500803,8,-1.000000,""
python3action_floatoperation_job5_1,w0,python3action_floatoperation,0.997085,1,2000.000000,1,COMPLETED_SUCCESSFULLY,1154.302045,2.439945,1156.741991,1153.304960,1155.744906,473.676565,2,-1.000000,""
113_updated,w0,python3action_linpack_5000_orion,0.997085,1,2000.000000,1,COMPLETED_SUCCESSFULLY,1154.976045,36.199977,1191.176022,1153.978960,1190.178937,32.877892,8,-1.000000,""
113,w0,python3action_linpack_5000,0.000000,1,-1.000000,1,COMPLETED_SUCCESSFULLY,1191.176037,0.000010,1191.176047,1191.176037,1191.176047,119117604.700201,8,-1.000000,""
166_updated,w0,python3action_linpack_5000_orion,0.997085,1,2000.000000,1,COMPLETED_SUCCESSFULLY,1191.176067,36.199977,1227.376044,1190.178982,1226.378959,33.877893,8,-1.000000,""
166,w0,python3action_linpack_5000,0.000000,1,-1.000000,1,COMPLETED_SUCCESSFULLY,1227.376059,0.000010,1227.376069,1227.376059,1227.376069,122737606.900201,8,-1.000000,""
154_updated,w0,python3action_chameleon_3000_troll,0.997085,1,2000.000000,1,COMPLETED_SUCCESSFULLY,1133.871049,94.000000,1227.871049,1132.873964,1226.873964,13.051851,19,-1.000000,""
154,w0,python3action_chameleon_3000,0.000000,1,-1.000000,1,COMPLETED_SUCCESSFULLY,1227.871064,0.000010,1227.871074,1227.871064,1227.871074,122787107.401406,19,-1.000000,""
90_updated,w0,python3action_facedetection_SampleVideo_50mb_taurus,0.997085,1,2000.000000,1,COMPLETED_SUCCESSFULLY,1149.815345,134.600046,1284.415391,1148.818260,1283.418306,9.535051,10,-1.000000,""
90,w0,python3action_facedetection_SampleVideo_50mb,0.000000,1,-1.000000,1,COMPLETED_SUCCESSFULLY,1284.415406,0.000010,1284.415416,1284.415406,1284.415416,128441541.641242,10,-1.000000,""
5_updated,w0,python3action_floatoperation_200000000_nova,0.997085,1,2000.000000,1,COMPLETED_SUCCESSFULLY,1156.742006,135.399990,1292.141996,1155.744921,1291.144911,9.535783,2,-1.000000,""
5,w0,python3action_floatoperation_200000000,0.000000,1,-1.000000,1,COMPLETED_SUCCESSFULLY,1292.142011,0.000010,1292.142021,1292.142011,1292.142021,129214202.123505,2,-1.000000,""
160_updated,w0,python3action_chameleon_3000_troll,0.997085,1,2000.000000,1,COMPLETED_SUCCESSFULLY,1227.871094,94.000000,1321.871094,1226.874009,1320.874009,14.051851,19,-1.000000,""
160,w0,python3action_chameleon_3000,0.000000,1,-1.000000,1,COMPLETED_SUCCESSFULLY,1321.871109,0.000010,1321.871119,1321.871109,1321.871119,132187111.902008,19,-1.000000,""
171_updated,w0,python3action_linpack_6000_orion,0.997085,1,2000.000000,1,COMPLETED_SUCCESSFULLY,1227.376089,106.000000,1333.376089,1226.379004,1332.379004,12.569613,8,-1.000000,""
171,w0,python3action_linpack_6000,0.000000,1,-1.000000,1,COMPLETED_SUCCESSFULLY,1333.376104,0.000010,1333.376114,1333.376104,1333.376114,133337611.400803,8,-1.000000,""
165_updated,w0,python3action_chameleon_3000_troll,0.997085,1,2000.000000,1,COMPLETED_SUCCESSFULLY,1321.871139,94.000000,1415.871139,1320.874054,1414.874054,15.051852,19,-1.000000,""
165,w0,python3action_chameleon_3000,0.000000,1,-1.000000,1,COMPLETED_SUCCESSFULLY,1415.871154,0.000010,1415.871164,1415.871154,1415.871164,141587116.402610,19,-1.000000,""
97_updated,w0,python3action_facedetection_SampleVideo_50mb_taurus,0.997085,1,2000.000000,1,COMPLETED_SUCCESSFULLY,1284.415436,134.600046,1419.015483,1283.418351,1418.018398,10.535051,10,-1.000000,""
97,w0,python3action_facedetection_SampleVideo_50mb,0.000000,1,-1.000000,1,COMPLETED_SUCCESSFULLY,1419.015498,0.000010,1419.015508,1419.015498,1419.015508,141901550.800201,10,-1.000000,""
10_updated,w0,python3action_floatoperation_200000000_nova,0.997085,1,2000.000000,1,COMPLETED_SUCCESSFULLY,1292.142041,135.399990,1427.542031,1291.144956,1426.544946,10.535783,2,-1.000000,""
10,w0,python3action_floatoperation_200000000,0.000000,1,-1.000000,1,COMPLETED_SUCCESSFULLY,1427.542046,0.000010,1427.542056,1427.542046,1427.542056,142754205.647211,2,-1.000000,""
175_updated,w0,python3action_linpack_6000_orion,0.997085,1,2000.000000,1,COMPLETED_SUCCESSFULLY,1333.376134,106.000000,1439.376134,1332.379049,1438.379049,13.569614,8,-1.000000,""
175,w0,python3action_linpack_6000,0.000000,1,-1.000000,1,COMPLETED_SUCCESSFULLY,1439.376149,0.000010,1439.376159,1439.376149,1439.376159,143937615.901406,8,-1.000000,""
172_updated,w0,python3action_chameleon_2000_troll,0.997085,1,2000.000000,1,COMPLETED_SUCCESSFULLY,1415.871184,39.500010,1455.371194,1414.874099,1454.374109,36.819588,19,-1.000000,""
172,w0,python3action_chameleon_2000,0.000000,1,-1.000000,1,COMPLETED_SUCCESSFULLY,1455.371209,0.000010,1455.371219,1455.371209,1455.371219,145537121.900201,19,-1.000000,""
15_updated,w0,python3action_floatoperation_100000000_nova,0.997085,1,2000.000000,1,COMPLETED_SUCCESSFULLY,1427.542076,66.200020,1493.742096,1426.544991,1492.745011,22.549012,2,-1.000000,""
15,w0,python3action_floatoperation_100000000,0.000000,1,-1.000000,1,COMPLETED_SUCCESSFULLY,1493.742111,0.000010,1493.742121,1493.742111,1493.742121,149374212.101606,2,-1.000000,""
181_updated,w0,python3action_chameleon_2000_troll,0.997085,1,2000.000000,1,COMPLETED_SUCCESSFULLY,1455.371239,39.500010,1494.871249,1454.374154,1493.874164,37.819590,19,-1.000000,""
181,w0,python3action_chameleon_2000,0.000000,1,-1.000000,1,COMPLETED_SUCCESSFULLY,1494.871264,0.000010,1494.871274,1494.871264,1494.871274,149487127.400201,19,-1.000000,""
186_updated,w0,python3action_chameleon_2000_troll,0.997085,1,2000.000000,1,COMPLETED_SUCCESSFULLY,1494.871294,39.500010,1534.371304,1493.874209,1533.374219,38.819591,19,-1.000000,""
186,w0,python3action_chameleon_2000,0.000000,1,-1.000000,1,COMPLETED_SUCCESSFULLY,1534.371319,0.000010,1534.371329,1534.371319,1534.371329,153437132.900201,19,-1.000000,""
177_updated,w0,python3action_linpack_6000_orion,0.997085,1,2000.000000,1,COMPLETED_SUCCESSFULLY,1439.376179,106.000000,1545.376179,1438.379094,1544.379094,14.569614,8,-1.000000,""
177,w0,python3action_linpack_6000,0.000000,1,-1.000000,1,COMPLETED_SUCCESSFULLY,1545.376194,0.000010,1545.376204,1545.376194,1545.376204,154537620.402008,8,-1.000000,""
99_updated,w0,python3action_facedetection_SampleVideo_50mb_taurus,0.997085,1,2000.000000,1,COMPLETED_SUCCESSFULLY,1419.015528,134.600046,1553.615574,1418.018443,1552.618489,11.535052,10,-1.000000,""
99,w0,python3action_facedetection_SampleVideo_50mb,0.000000,1,-1.000000,1,COMPLETED_SUCCESSFULLY,1553.615589,0.000010,1553.615599,1553.615589,1553.615599,155361559.913881,10,-1.000000,""
193_updated,w0,python3action_chameleon_2000_troll,0.997085,1,2000.000000,1,COMPLETED_SUCCESSFULLY,1534.371349,39.500010,1573.871359,1533.374264,1572.874274,39.819592,19,-1.000000,""
193,w0,python3action_chameleon_2000,0.000000,1,-1.000000,1,COMPLETED_SUCCESSFULLY,1573.871374,0.000010,1573.871384,1573.871374,1573.871384,157387138.400201,19,-1.000000,""
python3action_pyaes_job1_4,w0,python3action_pyaes_reduced_0.85,0.997085,1,2000.000000,1,COMPLETED_SUCCESSFULLY,1573.871404,0.130187,1574.001591,1572.874319,1573.004506,12082.649634,19,-1.000000,""
20_updated,w0,python3action_floatoperation_200000000_nova,0.997085,1,2000.000000,1,COMPLETED_SUCCESSFULLY,1493.742141,135.399990,1629.142131,1492.745056,1628.145046,12.024706,2,-1.000000,""
20,w0,python3action_floatoperation_200000000,0.000000,1,-1.000000,1,COMPLETED_SUCCESSFULLY,1629.142146,0.000010,1629.142156,1629.142146,1629.142156,162914215.625312,2,-1.000000,""
1_updated,w0,python3action_pyaes_3000_troll,0.997085,1,2000.000000,1,COMPLETED_SUCCESSFULLY,1574.001606,57.166677,1631.168283,1573.004521,1630.171198,28.516109,19,-1.000000,""
1,w0,python3action_pyaes_3000,0.000000,1,-1.000000,1,COMPLETED_SUCCESSFULLY,1631.168298,0.000010,1631.168308,1631.168298,1631.168308,163116830.800201,19,-1.000000,""
187_updated,w0,python3action_linpack_6000_orion,0.997085,1,2000.000000,1,COMPLETED_SUCCESSFULLY,1545.376224,106.000000,1651.376224,1544.379139,1650.379139,15.569615,8,-1.000000,""
187,w0,python3action_linpack_6000,0.000000,1,-1.000000,1,COMPLETED_SUCCESSFULLY,1651.376239,0.000010,1651.376249,1651.376239,1651.376249,165137624.902610,8,-1.000000,""
112_updated,w0,python3action_facedetection_SampleVideo_50mb_taurus,0.997085,1,2000.000000,1,COMPLETED_SUCCESSFULLY,1553.615619,134.600046,1688.215665,1552.618534,1687.218580,12.535052,10,-1.000000,""
112,w0,python3action_facedetection_SampleVideo_50mb,0.000000,1,-1.000000,1,COMPLETED_SUCCESSFULLY,1688.215680,0.000010,1688.215690,1688.215680,1688.215690,168821569.027562,10,-1.000000,""
94_updated,w0,python3action_pyaes_3000_troll,0.997085,1,2000.000000,1,COMPLETED_SUCCESSFULLY,1631.168328,57.166677,1688.335005,1630.171243,1687.337920,29.516110,19,-1.000000,""
94,w0,python3action_pyaes_3000,0.000000,1,-1.000000,1,COMPLETED_SUCCESSFULLY,1688.335020,0.000010,1688.335030,1688.335020,1688.335030,168833503.000201,19,-1.000000,""
191_updated,w0,python3action_pyaes_3000_troll,0.997085,1,2000.000000,1,COMPLETED_SUCCESSFULLY,1688.335050,57.166677,1745.501727,1687.337965,1744.504642,30.516111,19,-1.000000,""
191,w0,python3action_pyaes_3000,0.000000,1,-1.000000,1,COMPLETED_SUCCESSFULLY,1745.501742,0.000010,1745.501752,1745.501742,1745.501752,174550175.200201,19,-1.000000,""
190_updated,w0,python3action_linpack_6000_orion,0.997085,1,2000.000000,1,COMPLETED_SUCCESSFULLY,1651.376269,106.000000,1757.376269,1650.379184,1756.379184,16.569615,8,-1.000000,""
190,w0,python3action_linpack_6000,0.000000,1,-1.000000,1,COMPLETED_SUCCESSFULLY,1757.376284,0.000010,1757.376294,1757.376284,1757.376294,175737629.403213,8,-1.000000,""
27_updated,w0,python3action_floatoperation_200000000_nova,0.997085,1,2000.000000,1,COMPLETED_SUCCESSFULLY,1629.142176,135.399990,1764.542166,1628.145091,1763.545081,13.024706,2,-1.000000,""
27,w0,python3action_floatoperation_200000000,0.000000,1,-1.000000,1,COMPLETED_SUCCESSFULLY,1764.542181,0.000010,1764.542191,1764.542181,1764.542191,176454219.149018,2,-1.000000,""
116_updated,w0,python3action_facedetection_SampleVideo_50mb_taurus,0.997085,1,2000.000000,1,COMPLETED_SUCCESSFULLY,1688.215710,134.600046,1822.815756,1687.218625,1821.818671,13.535052,10,-1.000000,""
116,w0,python3action_facedetection_SampleVideo_50mb,0.000000,1,-1.000000,1,COMPLETED_SUCCESSFULLY,1822.815771,0.000010,1822.815781,1822.815771,1822.815781,182281578.141242,10,-1.000000,""
29_updated,w0,python3action_floatoperation_100000000_nova,0.997085,1,2000.000000,1,COMPLETED_SUCCESSFULLY,1764.542211,66.200020,1830.742231,1763.545126,1829.745146,27.639647,2,-1.000000,""
29,w0,python3action_floatoperation_100000000,0.000000,1,-1.000000,1,COMPLETED_SUCCESSFULLY,1830.742246,0.000010,1830.742256,1830.742246,1830.742256,183074225.603413,2,-1.000000,""
33_updated,w0,python3action_floatoperation_100000000_nova,0.997085,1,2000.000000,1,COMPLETED_SUCCESSFULLY,1830.742276,66.200020,1896.942296,1829.745191,1895.945211,28.639647,2,-1.000000,""
33,w0,python3action_floatoperation_100000000,0.000000,1,-1.000000,1,COMPLETED_SUCCESSFULLY,1896.942311,0.000010,1896.942321,1896.942311,1896.942321,189694232.100201,2,-1.000000,""
131_updated,w0,python3action_facedetection_SampleVideo_50mb_taurus,0.997085,1,2000.000000,1,COMPLETED_SUCCESSFULLY,1822.815801,134.600046,1957.415848,1821.818716,1956.418763,14.535053,10,-1.000000,""
131,w0,python3action_facedetection_SampleVideo_50mb,0.000000,1,-1.000000,1,COMPLETED_SUCCESSFULLY,1957.415863,0.000010,1957.415873,1957.415863,1957.415873,195741587.300201,10,-1.000000,""
38_updated,w0,python3action_floatoperation_100000000_nova,0.997085,1,2000.000000,1,COMPLETED_SUCCESSFULLY,1896.942341,66.200020,1963.142361,1895.945256,1962.145276,29.639648,2,-1.000000,""
38,w0,python3action_floatoperation_100000000,0.000000,1,-1.000000,1,COMPLETED_SUCCESSFULLY,1963.142376,0.000010,1963.142386,1963.142376,1963.142386,196314238.600201,2,-1.000000,""
178_updated,w0,python3action_facedetection_SampleVideo_50mb_taurus,0.997085,1,2000.000000,1,COMPLETED_SUCCESSFULLY,1957.415893,134.600046,2092.015939,1956.418808,2091.018854,15.535053,10,-1.000000,""
178,w0,python3action_facedetection_SampleVideo_50mb,0.000000,1,-1.000000,1,COMPLETED_SUCCESSFULLY,2092.015954,0.000010,2092.015964,2092.015954,2092.015964,209201596.413881,10,-1.000000,""
57_updated,w0,python3action_floatoperation_200000000_nova,0.997085,1,2000.000000,1,COMPLETED_SUCCESSFULLY,1963.142406,135.399990,2098.542396,1962.145321,2097.545311,15.491473,2,-1.000000,""
57,w0,python3action_floatoperation_200000000,0.000000,1,-1.000000,1,COMPLETED_SUCCESSFULLY,2098.542411,0.000010,2098.542421,2098.542411,2098.542421,209854242.123907,2,-1.000000,""
59_updated,w0,python3action_floatoperation_100000000_nova,0.997085,1,2000.000000,1,COMPLETED_SUCCESSFULLY,2098.542441,66.200020,2164.742461,2097.545356,2163.745376,32.684966,2,-1.000000,""
59,w0,python3action_floatoperation_100000000,0.000000,1,-1.000000,1,COMPLETED_SUCCESSFULLY,2164.742476,0.000010,2164.742486,2164.742476,2164.742486,216474248.600201,2,-1.000000,""
179_updated,w0,python3action_facedetection_SampleVideo_50mb_taurus,0.997085,1,2000.000000,1,COMPLETED_SUCCESSFULLY,2092.015984,134.600046,2226.616030,2091.018899,2225.618945,16.535053,10,-1.000000,""
179,w0,python3action_facedetection_SampleVideo_50mb,0.000000,1,-1.000000,1,COMPLETED_SUCCESSFULLY,2226.616045,0.000010,2226.616055,2226.616045,2226.616055,222661605.527562,10,-1.000000,""
71_updated,w0,python3action_floatoperation_100000000_nova,0.997085,1,2000.000000,1,COMPLETED_SUCCESSFULLY,2164.742506,66.200020,2230.942526,2163.745421,2229.945441,33.684967,2,-1.000000,""
71,w0,python3action_floatoperation_100000000,0.000000,1,-1.000000,1,COMPLETED_SUCCESSFULLY,2230.942541,0.000010,2230.942551,2230.942541,2230.942551,223094255.100201,2,-1.000000,""
72_updated,w0,python3action_floatoperation_100000000_nova,0.997085,1,2000.000000,1,COMPLETED_SUCCESSFULLY,2230.942571,66.200020,2297.142591,2229.945486,2296.145506,34.684967,2,-1.000000,""
72,w0,python3action_floatoperation_100000000,0.000000,1,-1.000000,1,COMPLETED_SUCCESSFULLY,2297.142606,0.000010,2297.142616,2297.142606,2297.142616,229714261.600201,2,-1.000000,""
197_updated,w0,python3action_facedetection_SampleVideo_50mb_taurus,0.997085,1,2000.000000,1,COMPLETED_SUCCESSFULLY,2226.616075,134.600046,2361.216121,2225.618990,2360.219036,17.535054,10,-1.000000,""
197,w0,python3action_facedetection_SampleVideo_50mb,0.000000,1,-1.000000,1,COMPLETED_SUCCESSFULLY,2361.216136,0.000010,2361.216146,2361.216136,2361.216146,236121614.641243,10,-1.000000,""
76_updated,w0,python3action_floatoperation_100000000_nova,0.997085,1,2000.000000,1,COMPLETED_SUCCESSFULLY,2297.142636,66.200020,2363.342656,2296.145551,2362.345571,35.684968,2,-1.000000,""
76,w0,python3action_floatoperation_100000000,0.000000,1,-1.000000,1,COMPLETED_SUCCESSFULLY,2363.342671,0.000010,2363.342681,2363.342671,2363.342681,236334268.100201,2,-1.000000,""
python3action_image_processing_job16_3,w0,python3action_image_processing_reduced_0.86,0.997085,1,2000.000000,1,COMPLETED_SUCCESSFULLY,2361.216166,9.731413,2370.947579,2360.219081,2369.950494,243.536116,10,-1.000000,""
16_updated,w0,python3action_imageprocessing_SampleImage_40mb_taurus,0.997085,1,2000.000000,1,COMPLETED_SUCCESSFULLY,2370.947594,32.600046,2403.547640,2369.950509,2402.550555,73.697766,10,-1.000000,""
16,w0,python3action_imageprocessing_SampleImage_40mb,0.000000,1,-1.000000,1,COMPLETED_SUCCESSFULLY,2403.547655,0.000010,2403.547665,2403.547655,2403.547665,240354766.543108,10,-1.000000,""
78_updated,w0,python3action_floatoperation_100000000_nova,0.997085,1,2000.000000,1,COMPLETED_SUCCESSFULLY,2363.342701,66.200020,2429.542721,2362.345616,2428.545636,36.684969,2,-1.000000,""
78,w0,python3action_floatoperation_100000000,0.000000,1,-1.000000,1,COMPLETED_SUCCESSFULLY,2429.542736,0.000010,2429.542746,2429.542736,2429.542746,242954274.600201,2,-1.000000,""
19_updated,w0,python3action_imageprocessing_SampleImage_40mb_taurus,0.997085,1,2000.000000,1,COMPLETED_SUCCESSFULLY,2403.547685,32.600046,2436.147732,2402.550600,2435.150647,74.697767,10,-1.000000,""
19,w0,python3action_imageprocessing_SampleImage_40mb,0.000000,1,-1.000000,1,COMPLETED_SUCCESSFULLY,2436.147747,0.000010,2436.147757,2436.147747,2436.147757,243614775.700201,10,-1.000000,""
24_updated,w0,python3action_imageprocessing_SampleImage_40mb_taurus,0.997085,1,2000.000000,1,COMPLETED_SUCCESSFULLY,2436.147777,32.600046,2468.747823,2435.150692,2467.750738,75.697768,10,-1.000000,""
24,w0,python3action_imageprocessing_SampleImage_40mb,0.000000,1,-1.000000,1,COMPLETED_SUCCESSFULLY,2468.747838,0.000010,2468.747848,2468.747838,2468.747848,246874784.813881,10,-1.000000,""
82_updated,w0,python3action_floatoperation_100000000_nova,0.997085,1,2000.000000,1,COMPLETED_SUCCESSFULLY,2429.542766,66.200020,2495.742786,2428.545681,2494.745701,37.684969,2,-1.000000,""
82,w0,python3action_floatoperation_100000000,0.000000,1,-1.000000,1,COMPLETED_SUCCESSFULLY,2495.742801,0.000010,2495.742811,2495.742801,2495.742811,249574281.100201,2,-1.000000,""
25_updated,w0,python3action_imageprocessing_SampleImage_40mb_taurus,0.997085,1,2000.000000,1,COMPLETED_SUCCESSFULLY,2468.747868,32.600046,2501.347914,2467.750783,2500.350829,76.697770,10,-1.000000,""
25,w0,python3action_imageprocessing_SampleImage_40mb,0.000000,1,-1.000000,1,COMPLETED_SUCCESSFULLY,2501.347929,0.000010,2501.347939,2501.347929,2501.347939,250134793.927562,10,-1.000000,""
51_updated,w0,python3action_imageprocessing_SampleImage_40mb_taurus,0.997085,1,2000.000000,1,COMPLETED_SUCCESSFULLY,2501.347959,32.600046,2533.948005,2500.350874,2532.950920,77.697771,10,-1.000000,""
51,w0,python3action_imageprocessing_SampleImage_40mb,0.000000,1,-1.000000,1,COMPLETED_SUCCESSFULLY,2533.948020,0.000010,2533.948030,2533.948020,2533.948030,253394803.041243,10,-1.000000,""
95_updated,w0,python3action_floatoperation_100000000_nova,0.997085,1,2000.000000,1,COMPLETED_SUCCESSFULLY,2495.742831,66.200020,2561.942851,2494.745746,2560.945766,38.684970,2,-1.000000,""
95,w0,python3action_floatoperation_100000000,0.000000,1,-1.000000,1,COMPLETED_SUCCESSFULLY,2561.942866,0.000010,2561.942876,2561.942866,2561.942876,256194287.600201,2,-1.000000,""
77_updated,w0,python3action_imageprocessing_SampleImage_40mb_taurus,0.997085,1,2000.000000,1,COMPLETED_SUCCESSFULLY,2533.948050,32.600046,2566.548097,2532.950965,2565.551012,78.697772,10,-1.000000,""
77,w0,python3action_imageprocessing_SampleImage_40mb,0.000000,1,-1.000000,1,COMPLETED_SUCCESSFULLY,2566.548112,0.000010,2566.548122,2566.548112,2566.548122,256654812.200201,10,-1.000000,""
103_updated,w0,python3action_imageprocessing_SampleImage_40mb_taurus,0.997085,1,2000.000000,1,COMPLETED_SUCCESSFULLY,2566.548142,32.600046,2599.148188,2565.551057,2598.151103,79.697774,10,-1.000000,""
103,w0,python3action_imageprocessing_SampleImage_40mb,0.000000,1,-1.000000,1,COMPLETED_SUCCESSFULLY,2599.148203,0.000010,2599.148213,2599.148203,2599.148213,259914821.313881,10,-1.000000,""
96_updated,w0,python3action_floatoperation_100000000_nova,0.997085,1,2000.000000,1,COMPLETED_SUCCESSFULLY,2561.942896,66.200020,2628.142916,2560.945811,2627.145831,39.684971,2,-1.000000,""
96,w0,python3action_floatoperation_100000000,0.000000,1,-1.000000,1,COMPLETED_SUCCESSFULLY,2628.142931,0.000010,2628.142941,2628.142931,2628.142941,262814294.100201,2,-1.000000,""
126_updated,w0,python3action_imageprocessing_SampleImage_40mb_taurus,0.997085,1,2000.000000,1,COMPLETED_SUCCESSFULLY,2599.148233,32.600046,2631.748279,2598.151148,2630.751194,80.697775,10,-1.000000,""
126,w0,python3action_imageprocessing_SampleImage_40mb,0.000000,1,-1.000000,1,COMPLETED_SUCCESSFULLY,2631.748294,0.000010,2631.748304,2631.748294,2631.748304,263174830.427562,10,-1.000000,""
143_updated,w0,python3action_imageprocessing_SampleImage_40mb_taurus,0.997085,1,2000.000000,1,COMPLETED_SUCCESSFULLY,2631.748324,32.600046,2664.348370,2630.751239,2663.351285,81.697777,10,-1.000000,""
143,w0,python3action_imageprocessing_SampleImage_40mb,0.000000,1,-1.000000,1,COMPLETED_SUCCESSFULLY,2664.348385,0.000010,2664.348395,2664.348385,2664.348395,266434839.541243,10,-1.000000,""
120_updated,w0,python3action_floatoperation_100000000_nova,0.997085,1,2000.000000,1,COMPLETED_SUCCESSFULLY,2628.142961,66.200020,2694.342981,2627.145876,2693.345896,40.684971,2,-1.000000,""
120,w0,python3action_floatoperation_100000000,0.000000,1,-1.000000,1,COMPLETED_SUCCESSFULLY,2694.342996,0.000010,2694.343006,2694.342996,2694.343006,269434300.600201,2,-1.000000,""
158_updated,w0,python3action_imageprocessing_SampleImage_40mb_taurus,0.997085,1,2000.000000,1,COMPLETED_SUCCESSFULLY,2664.348415,32.600046,2696.948462,2663.351330,2695.951377,82.697778,10,-1.000000,""
158,w0,python3action_imageprocessing_SampleImage_40mb,0.000000,1,-1.000000,1,COMPLETED_SUCCESSFULLY,2696.948477,0.000010,2696.948487,2696.948477,2696.948487,269694848.700201,10,-1.000000,""
161_updated,w0,python3action_imageprocessing_SampleImage_40mb_taurus,0.997085,1,2000.000000,1,COMPLETED_SUCCESSFULLY,2696.948507,32.600046,2729.548553,2695.951422,2728.551468,83.697779,10,-1.000000,""
161,w0,python3action_imageprocessing_SampleImage_40mb,0.000000,1,-1.000000,1,COMPLETED_SUCCESSFULLY,2729.548568,0.000010,2729.548578,2729.548568,2729.548578,272954857.813881,10,-1.000000,""
python3action_modeltraining_job151_3,w0,python3action_modeltraining_reduced_1.88,0.997085,1,2000.000000,1,COMPLETED_SUCCESSFULLY,2729.548598,0.000000,2729.548598,2728.551513,2728.551513,23622630832176.914062,10,-1.000000,""
121_updated,w0,python3action_floatoperation_100000000_nova,0.997085,1,2000.000000,1,COMPLETED_SUCCESSFULLY,2694.343026,66.200020,2760.543046,2693.345941,2759.545961,41.684972,2,-1.000000,""
121,w0,python3action_floatoperation_100000000,0.000000,1,-1.000000,1,COMPLETED_SUCCESSFULLY,2760.543061,0.000010,2760.543071,2760.543061,2760.543071,276054307.100201,2,-1.000000,""
151_updated,w0,python3action_modeltraining_reviews100mb_taurus,0.997085,1,2000.000000,1,COMPLETED_SUCCESSFULLY,2729.548628,88.199977,2817.748605,2728.551543,2816.751520,31.935967,10,-1.000000,""
151,w0,python3action_modeltraining_reviews100mb,0.000000,1,-1.000000,1,COMPLETED_SUCCESSFULLY,2817.748620,0.000010,2817.748630,2817.748620,2817.748630,281774863.008346,10,-1.000000,""
130_updated,w0,python3action_floatoperation_100000000_nova,0.997085,1,2000.000000,1,COMPLETED_SUCCESSFULLY,2760.543091,66.200020,2826.743111,2759.546006,2825.746026,42.684973,2,-1.000000,""
130,w0,python3action_floatoperation_100000000,0.000000,1,-1.000000,1,COMPLETED_SUCCESSFULLY,2826.743126,0.000010,2826.743136,2826.743126,2826.743136,282674313.600201,2,-1.000000,""
188_updated,w0,python3action_modeltraining_reviews100mb_taurus,0.997085,1,2000.000000,1,COMPLETED_SUCCESSFULLY,2817.748650,88.199977,2905.948627,2816.751565,2904.951542,32.935967,10,-1.000000,""
188,w0,python3action_modeltraining_reviews100mb,0.000000,1,-1.000000,1,COMPLETED_SUCCESSFULLY,2905.948642,0.000010,2905.948652,2905.948642,2905.948652,290594865.202410,10,-1.000000,""
python3action_video_processing_job35_3,w0,python3action_video_processing_reduced_2.8,0.997085,1,2000.000000,1,COMPLETED_SUCCESSFULLY,2905.948672,0.000000,2905.948672,2904.951587,2904.951587,25149827150109.339844,10,-1.000000,""
150_updated,w0,python3action_floatoperation_200000000_nova,0.997085,1,2000.000000,1,COMPLETED_SUCCESSFULLY,2826.743156,135.399990,2962.143146,2825.746071,2961.146061,21.869618,2,-1.000000,""
150,w0,python3action_floatoperation_200000000,0.000000,1,-1.000000,1,COMPLETED_SUCCESSFULLY,2962.143161,0.000010,2962.143171,2962.143161,2962.143171,296214317.123907,2,-1.000000,""
157_updated,w0,python3action_floatoperation_100000000_nova,0.997085,1,2000.000000,1,COMPLETED_SUCCESSFULLY,2962.143191,66.200020,3028.343211,2961.146106,3027.346126,45.730291,2,-1.000000,""
157,w0,python3action_floatoperation_100000000,0.000000,1,-1.000000,1,COMPLETED_SUCCESSFULLY,3028.343226,0.000010,3028.343236,3028.343226,3028.343236,302834323.600201,2,-1.000000,""
35_updated,w0,python3action_videoprocessing_SampleVideo_50mb_taurus,0.997085,1,2000.000000,1,COMPLETED_SUCCESSFULLY,2905.948702,154.250029,3060.198731,2904.951617,3059.201646,19.832746,10,-1.000000,""
35,w0,python3action_videoprocessing_SampleVideo_50mb,0.000000,1,-1.000000,1,COMPLETED_SUCCESSFULLY,3060.198746,0.000010,3060.198756,3060.198746,3060.198756,306019875.600201,10,-1.000000,""
167_updated,w0,python3action_floatoperation_200000000_nova,0.997085,1,2000.000000,1,COMPLETED_SUCCESSFULLY,3028.343256,135.399990,3163.743246,3027.346171,3162.746161,23.358541,2,-1.000000,""
167,w0,python3action_floatoperation_200000000,0.000000,1,-1.000000,1,COMPLETED_SUCCESSFULLY,3163.743261,0.000010,3163.743271,3163.743261,3163.743271,316374327.123907,2,-1.000000,""
50_updated,w0,python3action_videoprocessing_SampleVideo_50mb_taurus,0.997085,1,2000.000000,1,COMPLETED_SUCCESSFULLY,3060.198776,154.250029,3214.448805,3059.201691,3213.451720,20.832746,10,-1.000000,""
50,w0,python3action_videoprocessing_SampleVideo_50mb,0.000000,1,-1.000000,1,COMPLETED_SUCCESSFULLY,3214.448820,0.000010,3214.448830,3214.448820,3214.448830,321444883.000201,10,-1.000000,""
168_updated,w0,python3action_floatoperation_100000000_nova,0.997085,1,2000.000000,1,COMPLETED_SUCCESSFULLY,3163.743291,66.200020,3229.943311,3162.746206,3228.946226,48.775608,2,-1.000000,""
168,w0,python3action_floatoperation_100000000,0.000000,1,-1.000000,1,COMPLETED_SUCCESSFULLY,3229.943326,0.000010,3229.943336,3229.943326,3229.943336,322994333.600201,2,-1.000000,""
184_updated,w0,python3action_floatoperation_200000000_nova,0.997085,1,2000.000000,1,COMPLETED_SUCCESSFULLY,3229.943356,135.399990,3365.343346,3228.946271,3364.346261,24.847463,2,-1.000000,""
184,w0,python3action_floatoperation_200000000,0.000000,1,-1.000000,1,COMPLETED_SUCCESSFULLY,3365.343361,0.000010,3365.343371,3365.343361,3365.343371,336534337.123907,2,-1.000000,""
66_updated,w0,python3action_videoprocessing_SampleVideo_50mb_taurus,0.997085,1,2000.000000,1,COMPLETED_SUCCESSFULLY,3214.448850,154.250029,3368.698879,3213.451765,3367.701794,21.832747,10,-1.000000,""
66,w0,python3action_videoprocessing_SampleVideo_50mb,0.000000,1,-1.000000,1,COMPLETED_SUCCESSFULLY,3368.698894,0.000010,3368.698904,3368.698894,3368.698904,336869890.400201,10,-1.000000,""
189_updated,w0,python3action_floatoperation_100000000_nova,0.997085,1,2000.000000,1,COMPLETED_SUCCESSFULLY,3365.343391,66.200020,3431.543411,3364.346306,3430.546326,51.820926,2,-1.000000,""
189,w0,python3action_floatoperation_100000000,0.000000,1,-1.000000,1,COMPLETED_SUCCESSFULLY,3431.543426,0.000010,3431.543436,3431.543426,3431.543436,343154343.600201,2,-1.000000,""
python3action_linpack_job17_1,w0,python3action_linpack,0.997085,1,2000.000000,1,COMPLETED_SUCCESSFULLY,3431.543456,2.439945,3433.983401,3430.546371,3432.986316,1406.993151,2,-1.000000,""
17_updated,w0,python3action_linpack_5000_nova,0.997085,1,2000.000000,1,COMPLETED_SUCCESSFULLY,3433.983416,34.600010,3468.583426,3432.986331,3467.586341,100.219230,2,-1.000000,""
17,w0,python3action_linpack_5000,0.000000,1,-1.000000,1,COMPLETED_SUCCESSFULLY,3468.583441,0.000010,3468.583451,3468.583441,3468.583451,346858345.107281,2,-1.000000,""
21_updated,w0,python3action_linpack_5000_nova,0.997085,1,2000.000000,1,COMPLETED_SUCCESSFULLY,3468.583471,34.600010,3503.183481,3467.586386,3502.186396,101.219231,2,-1.000000,""
21,w0,python3action_linpack_5000,0.000000,1,-1.000000,1,COMPLETED_SUCCESSFULLY,3503.183496,0.000010,3503.183506,3503.183496,3503.183506,350318350.600201,2,-1.000000,""
88_updated,w0,python3action_videoprocessing_SampleVideo_50mb_taurus,0.997085,1,2000.000000,1,COMPLETED_SUCCESSFULLY,3368.698924,154.250029,3522.948953,3367.701839,3521.951868,22.832747,10,-1.000000,""
88,w0,python3action_videoprocessing_SampleVideo_50mb,0.000000,1,-1.000000,1,COMPLETED_SUCCESSFULLY,3522.948968,0.000010,3522.948978,3522.948968,3522.948978,352294897.800201,10,-1.000000,""
44_updated,w0,python3action_linpack_5000_nova,0.997085,1,2000.000000,1,COMPLETED_SUCCESSFULLY,3503.183526,34.600010,3537.783536,3502.186441,3536.786451,102.219233,2,-1.000000,""
44,w0,python3action_linpack_5000,0.000000,1,-1.000000,1,COMPLETED_SUCCESSFULLY,3537.783551,0.000010,3537.783561,3537.783551,3537.783561,353778356.100201,2,-1.000000,""
49_updated,w0,python3action_linpack_5000_nova,0.997085,1,2000.000000,1,COMPLETED_SUCCESSFULLY,3537.783581,34.600010,3572.383591,3536.786496,3571.386506,103.219234,2,-1.000000,""
49,w0,python3action_linpack_5000,0.000000,1,-1.000000,1,COMPLETED_SUCCESSFULLY,3572.383606,0.000010,3572.383616,3572.383606,3572.383616,357238361.600201,2,-1.000000,""
119_updated,w0,python3action_linpack_5000_nova,0.997085,1,2000.000000,1,COMPLETED_SUCCESSFULLY,3572.383636,34.600010,3606.983646,3571.386551,3605.986561,104.219235,2,-1.000000,""
119,w0,python3action_linpack_5000,0.000000,1,-1.000000,1,COMPLETED_SUCCESSFULLY,3606.983661,0.000010,3606.983671,3606.983661,3606.983671,360698367.100201,2,-1.000000,""
134_updated,w0,python3action_linpack_5000_nova,0.997085,1,2000.000000,1,COMPLETED_SUCCESSFULLY,3606.983691,34.600010,3641.583701,3605.986606,3640.586616,105.219237,2,-1.000000,""
134,w0,python3action_linpack_5000,0.000000,1,-1.000000,1,COMPLETED_SUCCESSFULLY,3641.583716,0.000010,3641.583726,3641.583716,3641.583726,364158372.600201,2,-1.000000,""
159_updated,w0,python3action_linpack_5000_nova,0.997085,1,2000.000000,1,COMPLETED_SUCCESSFULLY,3641.583746,34.600010,3676.183756,3640.586661,3675.186671,106.219238,2,-1.000000,""
159,w0,python3action_linpack_5000,0.000000,1,-1.000000,1,COMPLETED_SUCCESSFULLY,3676.183771,0.000010,3676.183781,3676.183771,3676.183781,367618378.100201,2,-1.000000,""
106_updated,w0,python3action_videoprocessing_SampleVideo_50mb_taurus,0.997085,1,2000.000000,1,COMPLETED_SUCCESSFULLY,3522.948998,154.250029,3677.199027,3521.951913,3676.201942,23.832747,10,-1.000000,""
106,w0,python3action_videoprocessing_SampleVideo_50mb,0.000000,1,-1.000000,1,COMPLETED_SUCCESSFULLY,3677.199042,0.000010,3677.199052,3677.199042,3677.199052,367719905.200201,10,-1.000000,""
170_updated,w0,python3action_linpack_5000_nova,0.997085,1,2000.000000,1,COMPLETED_SUCCESSFULLY,3676.183801,34.600010,3710.783811,3675.186716,3709.786726,107.219239,2,-1.000000,""
170,w0,python3action_linpack_5000,0.000000,1,-1.000000,1,COMPLETED_SUCCESSFULLY,3710.783826,0.000010,3710.783836,3710.783826,3710.783836,371078383.600201,2,-1.000000,""
196_updated,w0,python3action_linpack_5000_nova,0.997085,1,2000.000000,1,COMPLETED_SUCCESSFULLY,3710.783856,34.600010,3745.383866,3709.786771,3744.386781,108.219241,2,-1.000000,""
196,w0,python3action_linpack_5000,0.000000,1,-1.000000,1,COMPLETED_SUCCESSFULLY,3745.383881,0.000010,3745.383891,3745.383881,3745.383891,374538389.100201,2,-1.000000,""
python3action_modeltraining_job22_1,w0,python3action_modeltraining_reduced_0.94,0.997085,1,2000.000000,1,COMPLETED_SUCCESSFULLY,3745.383911,0.000000,3745.383911,3744.386826,3744.386826,76953212225886.875000,2,-1.000000,""
22_updated,w0,python3action_modeltraining_reviews50mb_nova,0.997085,1,2000.000000,1,COMPLETED_SUCCESSFULLY,3745.383941,42.399990,3787.783931,3744.386856,3786.786846,89.311031,2,-1.000000,""
22,w0,python3action_modeltraining_reviews50mb,0.000000,1,-1.000000,1,COMPLETED_SUCCESSFULLY,3787.783946,0.000010,3787.783956,3787.783946,3787.783956,378778395.624309,2,-1.000000,""
36_updated,w0,python3action_modeltraining_reviews50mb_nova,0.997085,1,2000.000000,1,COMPLETED_SUCCESSFULLY,3787.783976,42.399990,3830.183966,3786.786891,3829.186881,90.311032,2,-1.000000,""
36,w0,python3action_modeltraining_reviews50mb,0.000000,1,-1.000000,1,COMPLETED_SUCCESSFULLY,3830.183981,0.000010,3830.183991,3830.183981,3830.183991,383018399.148015,2,-1.000000,""
128_updated,w0,python3action_videoprocessing_SampleVideo_50mb_taurus,0.997085,1,2000.000000,1,COMPLETED_SUCCESSFULLY,3677.199072,154.250029,3831.449101,3676.201987,3830.452016,24.832747,10,-1.000000,""
128,w0,python3action_videoprocessing_SampleVideo_50mb,0.000000,1,-1.000000,1,COMPLETED_SUCCESSFULLY,3831.449116,0.000010,3831.449126,3831.449116,3831.449126,383144912.600201,10,-1.000000,""
58_updated,w0,python3action_modeltraining_reviews100mb_nova,0.997085,1,2000.000000,1,COMPLETED_SUCCESSFULLY,3830.184011,79.600010,3909.784021,3829.186926,3908.786936,49.105357,2,-1.000000,""
58,w0,python3action_modeltraining_reviews100mb,0.000000,1,-1.000000,1,COMPLETED_SUCCESSFULLY,3909.784036,0.000010,3909.784046,3909.784036,3909.784046,390978404.625514,2,-1.000000,""
62_updated,w0,python3action_modeltraining_reviews50mb_nova,0.997085,1,2000.000000,1,COMPLETED_SUCCESSFULLY,3909.784066,42.399990,3952.184056,3908.786981,3951.186971,93.188393,2,-1.000000,""
62,w0,python3action_modeltraining_reviews50mb,0.000000,1,-1.000000,1,COMPLETED_SUCCESSFULLY,3952.184071,0.000010,3952.184081,3952.184071,3952.184081,395218408.149220,2,-1.000000,""
133_updated,w0,python3action_videoprocessing_SampleVideo_50mb_taurus,0.997085,1,2000.000000,1,COMPLETED_SUCCESSFULLY,3831.449146,154.250029,3985.699175,3830.452061,3984.702090,25.832748,10,-1.000000,""
133,w0,python3action_videoprocessing_SampleVideo_50mb,0.000000,1,-1.000000,1,COMPLETED_SUCCESSFULLY,3985.699190,0.000010,3985.699200,3985.699190,3985.699200,398569920.000201,10,-1.000000,""
65_updated,w0,python3action_modeltraining_reviews50mb_nova,0.997085,1,2000.000000,1,COMPLETED_SUCCESSFULLY,3952.184101,42.399990,3994.584092,3951.187016,3993.587007,94.188395,2,-1.000000,""
65,w0,python3action_modeltraining_reviews50mb,0.000000,1,-1.000000,1,COMPLETED_SUCCESSFULLY,3994.584107,0.000010,3994.584117,3994.584107,3994.584117,399458411.700201,2,-1.000000,""
86_updated,w0,python3action_modeltraining_reviews50mb_nova,0.997085,1,2000.000000,1,COMPLETED_SUCCESSFULLY,3994.584137,42.399990,4036.984127,3993.587052,4035.987042,95.188396,2,-1.000000,""
86,w0,python3action_modeltraining_reviews50mb,0.000000,1,-1.000000,1,COMPLETED_SUCCESSFULLY,4036.984142,0.000010,4036.984152,4036.984142,4036.984152,403698415.223907,2,-1.000000,""
87_updated,w0,python3action_modeltraining_reviews50mb_nova,0.997085,1,2000.000000,1,COMPLETED_SUCCESSFULLY,4036.984172,42.399990,4079.384162,4035.987087,4078.387077,96.188397,2,-1.000000,""
87,w0,python3action_modeltraining_reviews50mb,0.000000,1,-1.000000,1,COMPLETED_SUCCESSFULLY,4079.384177,0.000010,4079.384187,4079.384177,4079.384187,407938418.747613,2,-1.000000,""
137_updated,w0,python3action_videoprocessing_SampleVideo_50mb_taurus,0.997085,1,2000.000000,1,COMPLETED_SUCCESSFULLY,3985.699220,154.250029,4139.949249,3984.702135,4138.952164,26.832748,10,-1.000000,""
137,w0,python3action_videoprocessing_SampleVideo_50mb,0.000000,1,-1.000000,1,COMPLETED_SUCCESSFULLY,4139.949264,0.000010,4139.949274,4139.949264,4139.949274,413994927.400201,10,-1.000000,""
93_updated,w0,python3action_modeltraining_reviews100mb_nova,0.997085,1,2000.000000,1,COMPLETED_SUCCESSFULLY,4079.384207,79.600010,4158.984217,4078.387122,4157.987132,52.236013,2,-1.000000,""
93,w0,python3action_modeltraining_reviews100mb,0.000000,1,-1.000000,1,COMPLETED_SUCCESSFULLY,4158.984232,0.000010,4158.984242,4158.984232,4158.984242,415898424.225112,2,-1.000000,""
101_updated,w0,python3action_modeltraining_reviews100mb_nova,0.997085,1,2000.000000,1,COMPLETED_SUCCESSFULLY,4158.984262,79.600010,4238.584272,4157.987177,4237.587187,53.236013,2,-1.000000,""
101,w0,python3action_modeltraining_reviews100mb,0.000000,1,-1.000000,1,COMPLETED_SUCCESSFULLY,4238.584287,0.000010,4238.584297,4238.584287,4238.584297,423858429.702610,2,-1.000000,""
102_updated,w0,python3action_modeltraining_reviews50mb_nova,0.997085,1,2000.000000,1,COMPLETED_SUCCESSFULLY,4238.584317,42.399990,4280.984307,4237.587232,4279.987222,100.943118,2,-1.000000,""
102,w0,python3action_modeltraining_reviews50mb,0.000000,1,-1.000000,1,COMPLETED_SUCCESSFULLY,4280.984322,0.000010,4280.984332,4280.984322,4280.984332,428098433.226316,2,-1.000000,""
139_updated,w0,python3action_videoprocessing_SampleVideo_50mb_taurus,0.997085,1,2000.000000,1,COMPLETED_SUCCESSFULLY,4139.949294,154.250029,4294.199323,4138.952209,4293.202238,27.832748,10,-1.000000,""
139,w0,python3action_videoprocessing_SampleVideo_50mb,0.000000,1,-1.000000,1,COMPLETED_SUCCESSFULLY,4294.199338,0.000010,4294.199348,4294.199338,4294.199348,429419934.800201,10,-1.000000,""
127_updated,w0,python3action_modeltraining_reviews50mb_nova,0.997085,1,2000.000000,1,COMPLETED_SUCCESSFULLY,4280.984352,42.399990,4323.384342,4279.987267,4322.387257,101.943119,2,-1.000000,""
127,w0,python3action_modeltraining_reviews50mb,0.000000,1,-1.000000,1,COMPLETED_SUCCESSFULLY,4323.384358,0.000010,4323.384368,4323.384358,4323.384368,432338436.750022,2,-1.000000,""
142_updated,w0,python3action_modeltraining_reviews100mb_nova,0.997085,1,2000.000000,1,COMPLETED_SUCCESSFULLY,4323.384388,79.600010,4402.984398,4322.387303,4401.987313,55.301341,2,-1.000000,""
142,w0,python3action_modeltraining_reviews100mb,0.000000,1,-1.000000,1,COMPLETED_SUCCESSFULLY,4402.984413,0.000010,4402.984423,4402.984413,4402.984423,440298442.300201,2,-1.000000,""
148_updated,w0,python3action_modeltraining_reviews50mb_nova,0.997085,1,2000.000000,1,COMPLETED_SUCCESSFULLY,4402.984443,42.399990,4445.384433,4401.987358,4444.387348,104.820480,2,-1.000000,""
148,w0,python3action_modeltraining_reviews50mb,0.000000,1,-1.000000,1,COMPLETED_SUCCESSFULLY,4445.384448,0.000010,4445.384458,4445.384448,4445.384458,444538445.823907,2,-1.000000,""
145_updated,w0,python3action_videoprocessing_SampleVideo_50mb_taurus,0.997085,1,2000.000000,1,COMPLETED_SUCCESSFULLY,4294.199368,154.250029,4448.449397,4293.202283,4447.452312,28.832749,10,-1.000000,""
145,w0,python3action_videoprocessing_SampleVideo_50mb,0.000000,1,-1.000000,1,COMPLETED_SUCCESSFULLY,4448.449412,0.000010,4448.449422,4448.449412,4448.449422,444844942.200201,10,-1.000000,""
152_updated,w0,python3action_modeltraining_reviews50mb_nova,0.997085,1,2000.000000,1,COMPLETED_SUCCESSFULLY,4445.384478,42.399990,4487.784468,4444.387393,4486.787383,105.820482,2,-1.000000,""
152,w0,python3action_modeltraining_reviews50mb,0.000000,1,-1.000000,1,COMPLETED_SUCCESSFULLY,4487.784483,0.000010,4487.784493,4487.784483,4487.784493,448778449.347612,2,-1.000000,""
162_updated,w0,python3action_modeltraining_reviews50mb_nova,0.997085,1,2000.000000,1,COMPLETED_SUCCESSFULLY,4487.784513,42.399990,4530.184504,4486.787428,4529.187419,106.820483,2,-1.000000,""
162,w0,python3action_modeltraining_reviews50mb,0.000000,1,-1.000000,1,COMPLETED_SUCCESSFULLY,4530.184519,0.000010,4530.184529,4530.184519,4530.184529,453018452.900201,2,-1.000000,""
174_updated,w0,python3action_videoprocessing_SampleVideo_50mb_taurus,0.997085,1,2000.000000,1,COMPLETED_SUCCESSFULLY,4448.449442,154.250029,4602.699471,4447.452357,4601.702386,29.832749,10,-1.000000,""
174,w0,python3action_videoprocessing_SampleVideo_50mb,0.000000,1,-1.000000,1,COMPLETED_SUCCESSFULLY,4602.699486,0.000010,4602.699496,4602.699486,4602.699496,460269949.600201,10,-1.000000,""
169_updated,w0,python3action_modeltraining_reviews100mb_nova,0.997085,1,2000.000000,1,COMPLETED_SUCCESSFULLY,4530.184549,79.600010,4609.784559,4529.187464,4608.787474,57.899333,2,-1.000000,""
169,w0,python3action_modeltraining_reviews100mb,0.000000,1,-1.000000,1,COMPLETED_SUCCESSFULLY,4609.784574,0.000010,4609.784584,4609.784574,4609.784584,460978458.400201,2,-1.000000,""
173_updated,w0,python3action_modeltraining_reviews50mb_nova,0.997085,1,2000.000000,1,COMPLETED_SUCCESSFULLY,4609.784604,42.399990,4652.184594,4608.787519,4651.187509,109.697844,2,-1.000000,""
173,w0,python3action_modeltraining_reviews50mb,0.000000,1,-1.000000,1,COMPLETED_SUCCESSFULLY,4652.184609,0.000010,4652.184619,4652.184609,4652.184619,465218461.923907,2,-1.000000,""
185_updated,w0,python3action_modeltraining_reviews50mb_nova,0.997085,1,2000.000000,1,COMPLETED_SUCCESSFULLY,4652.184639,42.399990,4694.584629,4651.187554,4693.587544,110.697845,2,-1.000000,""
185,w0,python3action_modeltraining_reviews50mb,0.000000,1,-1.000000,1,COMPLETED_SUCCESSFULLY,4694.584644,0.000010,4694.584654,4694.584644,4694.584654,469458465.447613,2,-1.000000,""
182_updated,w0,python3action_videoprocessing_SampleVideo_50mb_taurus,0.997085,1,2000.000000,1,COMPLETED_SUCCESSFULLY,4602.699516,154.250029,4756.949545,4601.702431,4755.952460,30.832749,10,-1.000000,""
182,w0,python3action_videoprocessing_SampleVideo_50mb,0.000000,1,-1.000000,1,COMPLETED_SUCCESSFULLY,4756.949560,0.000010,4756.949570,4756.949560,4756.949570,475694957.000201,10,-1.000000,""
195_updated,w0,python3action_modeltraining_reviews100mb_nova,0.997085,1,2000.000000,1,COMPLETED_SUCCESSFULLY,4694.584674,79.600010,4774.184684,4693.587589,4773.187599,59.964661,2,-1.000000,""
195,w0,python3action_modeltraining_reviews100mb,0.000000,1,-1.000000,1,COMPLETED_SUCCESSFULLY,4774.184699,0.000010,4774.184709,4774.184699,4774.184709,477418470.925111,2,-1.000000,""
python3action_pyaes_job9_1,w0,python3action_pyaes_reduced_0.85,0.997085,1,2000.000000,1,COMPLETED_SUCCESSFULLY,4774.184729,0.320244,4774.504973,4773.187644,4773.507888,14905.858746,2,-1.000000,""
198_updated,w0,python3action_videoprocessing_SampleVideo_50mb_taurus,0.997085,1,2000.000000,1,COMPLETED_SUCCESSFULLY,4756.949590,154.250029,4911.199619,4755.952505,4910.202534,31.832750,10,-1.000000,""
198,w0,python3action_videoprocessing_SampleVideo_50mb,0.000000,1,-1.000000,1,COMPLETED_SUCCESSFULLY,4911.199634,0.000010,4911.199644,4911.199634,4911.199644,491119964.400201,10,-1.000000,""
9_updated,w0,python3action_pyaes_4000_nova,0.997085,1,2000.000000,1,COMPLETED_SUCCESSFULLY,4774.504988,139.600010,4914.104998,4773.507903,4913.107913,35.194180,2,-1.000000,""
9,w0,python3action_pyaes_4000,0.000000,1,-1.000000,1,COMPLETED_SUCCESSFULLY,4914.105013,0.000010,4914.105023,4914.105013,4914.105023,491410502.300201,2,-1.000000,""
11_updated,w0,python3action_pyaes_3000_nova,0.997085,1,2000.000000,1,COMPLETED_SUCCESSFULLY,4914.105043,78.200020,4992.305063,4913.107958,4991.307978,63.827452,2,-1.000000,""
11,w0,python3action_pyaes_3000,0.000000,1,-1.000000,1,COMPLETED_SUCCESSFULLY,4992.305078,0.000010,4992.305088,4992.305078,4992.305088,499230508.800201,2,-1.000000,""
199_updated,w0,python3action_videoprocessing_SampleVideo_50mb_taurus,0.997085,1,2000.000000,1,COMPLETED_SUCCESSFULLY,4911.199664,154.250029,5065.449693,4910.202579,5064.452608,32.832750,10,-1.000000,""
199,w0,python3action_videoprocessing_SampleVideo_50mb,0.000000,1,-1.000000,1,COMPLETED_SUCCESSFULLY,5065.449708,0.000010,5065.449718,5065.449708,5065.449718,506544971.800201,10,-1.000000,""
14_updated,w0,python3action_pyaes_3000_nova,0.997085,1,2000.000000,1,COMPLETED_SUCCESSFULLY,4992.305108,78.200020,5070.505128,4991.308023,5069.508043,64.827452,2,-1.000000,""
14,w0,python3action_pyaes_3000,0.000000,1,-1.000000,1,COMPLETED_SUCCESSFULLY,5070.505143,0.000010,5070.505153,5070.505143,5070.505153,507050515.300201,2,-1.000000,""
23_updated,w0,python3action_pyaes_3000_nova,0.997085,1,2000.000000,1,COMPLETED_SUCCESSFULLY,5070.505173,78.200020,5148.705193,5069.508088,5147.708108,65.827453,2,-1.000000,""
23,w0,python3action_pyaes_3000,0.000000,1,-1.000000,1,COMPLETED_SUCCESSFULLY,5148.705208,0.000010,5148.705218,5148.705208,5148.705218,514870521.800201,2,-1.000000,""
40_updated,w0,python3action_pyaes_4000_nova,0.997085,1,2000.000000,1,COMPLETED_SUCCESSFULLY,5148.705238,139.600010,5288.305248,5147.708153,5287.308163,37.874698,2,-1.000000,""
40,w0,python3action_pyaes_4000,0.000000,1,-1.000000,1,COMPLETED_SUCCESSFULLY,5288.305263,0.000010,5288.305273,5288.305263,5288.305273,528830527.300201,2,-1.000000,""
56_updated,w0,python3action_pyaes_3000_nova,0.997085,1,2000.000000,1,COMPLETED_SUCCESSFULLY,5288.305293,78.200020,5366.505313,5287.308208,5365.508228,68.612620,2,-1.000000,""
56,w0,python3action_pyaes_3000,0.000000,1,-1.000000,1,COMPLETED_SUCCESSFULLY,5366.505328,0.000010,5366.505338,5366.505328,5366.505338,536650533.800201,2,-1.000000,""
64_updated,w0,python3action_pyaes_4000_nova,0.997085,1,2000.000000,1,COMPLETED_SUCCESSFULLY,5366.505358,139.600010,5506.105368,5365.508273,5505.108283,39.434870,2,-1.000000,""
64,w0,python3action_pyaes_4000,0.000000,1,-1.000000,1,COMPLETED_SUCCESSFULLY,5506.105383,0.000010,5506.105393,5506.105383,5506.105393,550610539.300201,2,-1.000000,""
80_updated,w0,python3action_pyaes_3000_nova,0.997085,1,2000.000000,1,COMPLETED_SUCCESSFULLY,5506.105413,78.200020,5584.305433,5505.108328,5583.308348,71.397787,2,-1.000000,""
80,w0,python3action_pyaes_3000,0.000000,1,-1.000000,1,COMPLETED_SUCCESSFULLY,5584.305448,0.000010,5584.305458,5584.305448,5584.305458,558430545.800201,2,-1.000000,""
83_updated,w0,python3action_pyaes_3000_nova,0.997085,1,2000.000000,1,COMPLETED_SUCCESSFULLY,5584.305478,78.200020,5662.505498,5583.308393,5661.508413,72.397788,2,-1.000000,""
83,w0,python3action_pyaes_3000,0.000000,1,-1.000000,1,COMPLETED_SUCCESSFULLY,5662.505513,0.000010,5662.505523,5662.505513,5662.505523,566250552.300201,2,-1.000000,""
92_updated,w0,python3action_pyaes_3000_nova,0.997085,1,2000.000000,1,COMPLETED_SUCCESSFULLY,5662.505543,78.200020,5740.705563,5661.508458,5739.708478,73.397788,2,-1.000000,""
92,w0,python3action_pyaes_3000,0.000000,1,-1.000000,1,COMPLETED_SUCCESSFULLY,5740.705578,0.000010,5740.705588,5740.705578,5740.705588,574070558.800201,2,-1.000000,""
98_updated,w0,python3action_pyaes_4000_nova,0.997085,1,2000.000000,1,COMPLETED_SUCCESSFULLY,5740.705608,139.600010,5880.305618,5739.708523,5879.308533,42.115388,2,-1.000000,""
98,w0,python3action_pyaes_4000,0.000000,1,-1.000000,1,COMPLETED_SUCCESSFULLY,5880.305633,0.000010,5880.305643,5880.305633,5880.305643,588030564.300201,2,-1.000000,""
104_updated,w0,python3action_pyaes_3000_nova,0.997085,1,2000.000000,1,COMPLETED_SUCCESSFULLY,5880.305663,78.200020,5958.505683,5879.308578,5957.508598,76.182955,2,-1.000000,""
104,w0,python3action_pyaes_3000,0.000000,1,-1.000000,1,COMPLETED_SUCCESSFULLY,5958.505698,0.000010,5958.505708,5958.505698,5958.505708,595850570.800201,2,-1.000000,""
108_updated,w0,python3action_pyaes_4000_nova,0.997085,1,2000.000000,1,COMPLETED_SUCCESSFULLY,5958.505728,139.600010,6098.105738,5957.508643,6097.108653,43.675560,2,-1.000000,""
108,w0,python3action_pyaes_4000,0.000000,1,-1.000000,1,COMPLETED_SUCCESSFULLY,6098.105753,0.000010,6098.105763,6098.105753,6098.105763,609810576.300201,2,-1.000000,""
110_updated,w0,python3action_pyaes_3000_nova,0.997085,1,2000.000000,1,COMPLETED_SUCCESSFULLY,6098.105783,78.200020,6176.305803,6097.108698,6175.308718,78.968122,2,-1.000000,""
110,w0,python3action_pyaes_3000,0.000000,1,-1.000000,1,COMPLETED_SUCCESSFULLY,6176.305818,0.000010,6176.305828,6176.305818,6176.305828,617630582.800201,2,-1.000000,""
114_updated,w0,python3action_pyaes_3000_nova,0.997085,1,2000.000000,1,COMPLETED_SUCCESSFULLY,6176.305848,78.200020,6254.505868,6175.308763,6253.508783,79.968123,2,-1.000000,""
114,w0,python3action_pyaes_3000,0.000000,1,-1.000000,1,COMPLETED_SUCCESSFULLY,6254.505883,0.000010,6254.505893,6254.505883,6254.505893,625450589.300201,2,-1.000000,""
115_updated,w0,python3action_pyaes_4000_nova,0.997085,1,2000.000000,1,COMPLETED_SUCCESSFULLY,6254.505913,139.600010,6394.105923,6253.508828,6393.108838,45.795905,2,-1.000000,""
115,w0,python3action_pyaes_4000,0.000000,1,-1.000000,1,COMPLETED_SUCCESSFULLY,6394.105938,0.000010,6394.105948,6394.105938,6394.105948,639410594.800201,2,-1.000000,""
117_updated,w0,python3action_pyaes_4000_nova,0.997085,1,2000.000000,1,COMPLETED_SUCCESSFULLY,6394.105968,139.600010,6533.705978,6393.108883,6532.708893,46.795906,2,-1.000000,""
117,w0,python3action_pyaes_4000,0.000000,1,-1.000000,1,COMPLETED_SUCCESSFULLY,6533.705993,0.000010,6533.706003,6533.705993,6533.706003,653370600.300201,2,-1.000000,""
122_updated,w0,python3action_pyaes_4000_nova,0.997085,1,2000.000000,1,COMPLETED_SUCCESSFULLY,6533.706023,139.600010,6673.306033,6532.708938,6672.308948,47.795906,2,-1.000000,""
122,w0,python3action_pyaes_4000,0.000000,1,-1.000000,1,COMPLETED_SUCCESSFULLY,6673.306048,0.000010,6673.306058,6673.306048,6673.306058,667330605.800201,2,-1.000000,""
123_updated,w0,python3action_pyaes_4000_nova,0.997085,1,2000.000000,1,COMPLETED_SUCCESSFULLY,6673.306078,139.600010,6812.906088,6672.308993,6811.909003,48.795906,2,-1.000000,""
123,w0,python3action_pyaes_4000,0.000000,1,-1.000000,1,COMPLETED_SUCCESSFULLY,6812.906103,0.000010,6812.906113,6812.906103,6812.906113,681290611.300201,2,-1.000000,""
129_updated,w0,python3action_pyaes_3000_nova,0.997085,1,2000.000000,1,COMPLETED_SUCCESSFULLY,6812.906133,78.200020,6891.106153,6811.909048,6890.109068,88.108790,2,-1.000000,""
129,w0,python3action_pyaes_3000,0.000000,1,-1.000000,1,COMPLETED_SUCCESSFULLY,6891.106168,0.000010,6891.106178,6891.106168,6891.106178,689110617.800201,2,-1.000000,""
132_updated,w0,python3action_pyaes_4000_nova,0.997085,1,2000.000000,1,COMPLETED_SUCCESSFULLY,6891.106198,139.600010,7030.706208,6890.109113,7029.709123,50.356079,2,-1.000000,""
132,w0,python3action_pyaes_4000,0.000000,1,-1.000000,1,COMPLETED_SUCCESSFULLY,7030.706223,0.000010,7030.706233,7030.706223,7030.706233,703070623.300201,2,-1.000000,""
146_updated,w0,python3action_pyaes_4000_nova,0.997085,1,2000.000000,1,COMPLETED_SUCCESSFULLY,7030.706253,139.600010,7170.306263,7029.709168,7169.309178,51.356079,2,-1.000000,""
146,w0,python3action_pyaes_4000,0.000000,1,-1.000000,1,COMPLETED_SUCCESSFULLY,7170.306278,0.000010,7170.306288,7170.306278,7170.306288,717030628.800201,2,-1.000000,""
153_updated,w0,python3action_pyaes_3000_nova,0.997085,1,2000.000000,1,COMPLETED_SUCCESSFULLY,7170.306308,78.200020,7248.506328,7169.309223,7247.509243,92.679123,2,-1.000000,""
153,w0,python3action_pyaes_3000,0.000000,1,-1.000000,1,COMPLETED_SUCCESSFULLY,7248.506343,0.000010,7248.506353,7248.506343,7248.506353,724850635.300201,2,-1.000000,""
155_updated,w0,python3action_pyaes_4000_nova,0.997085,1,2000.000000,1,COMPLETED_SUCCESSFULLY,7248.506373,139.600010,7388.106383,7247.509288,7387.109298,52.916252,2,-1.000000,""
155,w0,python3action_pyaes_4000,0.000000,1,-1.000000,1,COMPLETED_SUCCESSFULLY,7388.106398,0.000010,7388.106408,7388.106398,7388.106408,738810640.800201,2,-1.000000,""
156_updated,w0,python3action_pyaes_4000_nova,0.997085,1,2000.000000,1,COMPLETED_SUCCESSFULLY,7388.106428,139.600010,7527.706438,7387.109343,7526.709353,53.916252,2,-1.000000,""
156,w0,python3action_pyaes_4000,0.000000,1,-1.000000,1,COMPLETED_SUCCESSFULLY,7527.706453,0.000010,7527.706463,7527.706453,7527.706463,752770646.300201,2,-1.000000,""
164_updated,w0,python3action_pyaes_4000_nova,0.997085,1,2000.000000,1,COMPLETED_SUCCESSFULLY,7527.706483,139.600010,7667.306493,7526.709398,7666.309408,54.916253,2,-1.000000,""
164,w0,python3action_pyaes_4000,0.000000,1,-1.000000,1,COMPLETED_SUCCESSFULLY,7667.306508,0.000010,7667.306518,7667.306508,7667.306518,766730651.800201,2,-1.000000,""
176_updated,w0,python3action_pyaes_4000_nova,0.997085,1,2000.000000,1,COMPLETED_SUCCESSFULLY,7667.306538,139.600010,7806.906548,7666.309453,7805.909463,55.916253,2,-1.000000,""
176,w0,python3action_pyaes_4000,0.000000,1,-1.000000,1,COMPLETED_SUCCESSFULLY,7806.906563,0.000010,7806.906573,7806.906563,7806.906573,780690657.300201,2,-1.000000,""
180_updated,w0,python3action_pyaes_4000_nova,0.997085,1,2000.000000,1,COMPLETED_SUCCESSFULLY,7806.906593,139.600010,7946.506603,7805.909508,7945.509518,56.916253,2,-1.000000,""
180,w0,python3action_pyaes_4000,0.000000,1,-1.000000,1,COMPLETED_SUCCESSFULLY,7946.506618,0.000010,7946.506628,7946.506618,7946.506628,794650662.800201,2,-1.000000,""
python3action_video_processing_job0_1,w0,python3action_video_processing_reduced_1.89,0.997085,1,2000.000000,1,COMPLETED_SUCCESSFULLY,7946.506648,0.000000,7946.506648,7945.509563,7945.509563,161781113946862.625000,2,-1.000000,""
0_updated,w0,python3action_videoprocessing_SampleVideo_30mb_nova,0.997085,1,2000.000000,1,COMPLETED_SUCCESSFULLY,7946.506678,106.799980,8053.306658,7945.509593,8052.309573,75.396171,2,-1.000000,""
0,w0,python3action_videoprocessing_SampleVideo_30mb,0.000000,1,-1.000000,1,COMPLETED_SUCCESSFULLY,8053.306673,0.000010,8053.306683,8053.306673,8053.306683,805330668.347412,2,-1.000000,""
8_updated,w0,python3action_videoprocessing_SampleVideo_30mb_nova,0.997085,1,2000.000000,1,COMPLETED_SUCCESSFULLY,8053.306703,106.799980,8160.106684,8052.309618,8159.109599,76.396171,2,-1.000000,""
8,w0,python3action_videoprocessing_SampleVideo_30mb,0.000000,1,-1.000000,1,COMPLETED_SUCCESSFULLY,8160.106699,0.000010,8160.106709,8160.106699,8160.106709,816010670.900201,2,-1.000000,""
13_updated,w0,python3action_videoprocessing_SampleVideo_30mb_nova,0.997085,1,2000.000000,1,COMPLETED_SUCCESSFULLY,8160.106729,106.799980,8266.906709,8159.109644,8265.909624,77.396172,2,-1.000000,""
13,w0,python3action_videoprocessing_SampleVideo_30mb,0.000000,1,-1.000000,1,COMPLETED_SUCCESSFULLY,8266.906724,0.000010,8266.906734,8266.906724,8266.906734,826690673.447010,2,-1.000000,""
32_updated,w0,python3action_videoprocessing_SampleVideo_30mb_nova,0.997085,1,2000.000000,1,COMPLETED_SUCCESSFULLY,8266.906754,106.799980,8373.706735,8265.909669,8372.709650,78.396172,2,-1.000000,""
32,w0,python3action_videoprocessing_SampleVideo_30mb,0.000000,1,-1.000000,1,COMPLETED_SUCCESSFULLY,8373.706750,0.000010,8373.706760,8373.706750,8373.706760,837370676.000201,2,-1.000000,""
42_updated,w0,python3action_videoprocessing_SampleVideo_30mb_nova,0.997085,1,2000.000000,1,COMPLETED_SUCCESSFULLY,8373.706780,106.799980,8480.506760,8372.709695,8479.509675,79.396173,2,-1.000000,""
42,w0,python3action_videoprocessing_SampleVideo_30mb,0.000000,1,-1.000000,1,COMPLETED_SUCCESSFULLY,8480.506775,0.000010,8480.506785,8480.506775,8480.506785,848050678.547010,2,-1.000000,""
47_updated,w0,python3action_videoprocessing_SampleVideo_30mb_nova,0.997085,1,2000.000000,1,COMPLETED_SUCCESSFULLY,8480.506805,106.799980,8587.306786,8479.509720,8586.309701,80.396173,2,-1.000000,""
47,w0,python3action_videoprocessing_SampleVideo_30mb,0.000000,1,-1.000000,1,COMPLETED_SUCCESSFULLY,8587.306801,0.000010,8587.306811,8587.306801,8587.306811,858730681.100201,2,-1.000000,""
48_updated,w0,python3action_videoprocessing_SampleVideo_30mb_nova,0.997085,1,2000.000000,1,COMPLETED_SUCCESSFULLY,8587.306831,106.799980,8694.106811,8586.309746,8693.109726,81.396173,2,-1.000000,""
48,w0,python3action_videoprocessing_SampleVideo_30mb,0.000000,1,-1.000000,1,COMPLETED_SUCCESSFULLY,8694.106826,0.000010,8694.106836,8694.106826,8694.106836,869410683.647010,2,-1.000000,""
52_updated,w0,python3action_videoprocessing_SampleVideo_30mb_nova,0.997085,1,2000.000000,1,COMPLETED_SUCCESSFULLY,8694.106856,106.799980,8800.906837,8693.109771,8799.909752,82.396174,2,-1.000000,""
52,w0,python3action_videoprocessing_SampleVideo_30mb,0.000000,1,-1.000000,1,COMPLETED_SUCCESSFULLY,8800.906852,0.000010,8800.906862,8800.906852,8800.906862,880090686.200201,2,-1.000000,""
60_updated,w0,python3action_videoprocessing_SampleVideo_30mb_nova,0.997085,1,2000.000000,1,COMPLETED_SUCCESSFULLY,8800.906882,106.799980,8907.706862,8799.909797,8906.709777,83.396174,2,-1.000000,""
60,w0,python3action_videoprocessing_SampleVideo_30mb,0.000000,1,-1.000000,1,COMPLETED_SUCCESSFULLY,8907.706877,0.000010,8907.706887,8907.706877,8907.706887,890770688.747010,2,-1.000000,""
69_updated,w0,python3action_videoprocessing_SampleVideo_30mb_nova,0.997085,1,2000.000000,1,COMPLETED_SUCCESSFULLY,8907.706907,106.799980,9014.506888,8906.709822,9013.509803,84.396175,2,-1.000000,""
69,w0,python3action_videoprocessing_SampleVideo_30mb,0.000000,1,-1.000000,1,COMPLETED_SUCCESSFULLY,9014.506903,0.000010,9014.506913,9014.506903,9014.506913,901450691.300201,2,-1.000000,""
136_updated,w0,python3action_videoprocessing_SampleVideo_30mb_nova,0.997085,1,2000.000000,1,COMPLETED_SUCCESSFULLY,9014.506933,106.799980,9121.306913,9013.509848,9120.309828,85.396175,2,-1.000000,""
136,w0,python3action_videoprocessing_SampleVideo_30mb,0.000000,1,-1.000000,1,COMPLETED_SUCCESSFULLY,9121.306928,0.000010,9121.306938,9121.306928,9121.306938,912130693.847010,2,-1.000000,""
141_updated,w0,python3action_videoprocessing_SampleVideo_30mb_nova,0.997085,1,2000.000000,1,COMPLETED_SUCCESSFULLY,9121.306958,106.799980,9228.106939,9120.309873,9227.109854,86.396175,2,-1.000000,""
141,w0,python3action_videoprocessing_SampleVideo_30mb,0.000000,1,-1.000000,1,COMPLETED_SUCCESSFULLY,9228.106954,0.000010,9228.106964,9228.106954,9228.106964,922810696.400201,2,-1.000000,""
144_updated,w0,python3action_videoprocessing_SampleVideo_30mb_nova,0.997085,1,2000.000000,1,COMPLETED_SUCCESSFULLY,9228.106984,106.799980,9334.906964,9227.109899,9333.909879,87.396176,2,-1.000000,""
144,w0,python3action_videoprocessing_SampleVideo_30mb,0.000000,1,-1.000000,1,COMPLETED_SUCCESSFULLY,9334.906979,0.000010,9334.906989,9334.906979,9334.906989,933490698.947010,2,-1.000000,""
192_updated,w0,python3action_videoprocessing_SampleVideo_30mb_nova,0.997085,1,2000.000000,1,COMPLETED_SUCCESSFULLY,9334.907009,106.799980,9441.706990,9333.909924,9440.709905,88.396176,2,-1.000000,""
192,w0,python3action_videoprocessing_SampleVideo_30mb,0.000000,1,-1.000000,1,COMPLETED_SUCCESSFULLY,9441.707005,0.000010,9441.707015,9441.707005,9441.707015,944170701.500201,2,-1.000000,""
194_updated,w0,python3action_videoprocessing_SampleVideo_30mb_nova,0.997085,1,2000.000000,1,COMPLETED_SUCCESSFULLY,9441.707035,106.799980,9548.507015,9440.709950,9547.509930,89.396177,2,-1.000000,""
194,w0,python3action_videoprocessing_SampleVideo_30mb,0.000000,1,-1.000000,1,COMPLETED_SUCCESSFULLY,9548.507030,0.000010,9548.507040,9548.507030,9548.507040,954850704.047010,2,-1.000000,""
