job_id,workload_name,profile,submission_time,requested_number_of_resources,requested_time,success,final_state,starting_time,execution_time,finish_time,waiting_time,turnaround_time,stretch,allocated_resources,consumed_energy,metadata
python3action_chameleon_job4_0,w0,python3action_chameleon,0.997085,1,2000.000000,1,COMPLETED_SUCCESSFULLY,1.002100,0.243006,1.245106,0.005015,0.248021,1.020637,0,-1.000000,""
python3action_pyaes_job5_2,w0,python3action_pyaes,0.997085,1,2000.000000,1,COMPLETED_SUCCESSFULLY,1.002130,0.867914,1.870044,0.005045,0.872959,1.005813,4,-1.000000,""
python3action_chameleon_job15_3,w0,python3action_chameleon,0.997085,1,2000.000000,1,COMPLETED_SUCCESSFULLY,1.002145,0.892694,1.894839,0.005060,0.897754,1.005668,5,-1.000000,""
4_updated,w0,python3action_chameleon_2000_neowise,0.997085,1,2000.000000,1,COMPLETED_SUCCESSFULLY,1.245121,24.200002,25.445123,0.248036,24.448038,1.010249,0,-1.000000,""
4,w0,python3action_chameleon_2000,0.000000,1,-1.000000,1,COMPLETED_SUCCESSFULLY,25.445138,0.000010,25.445148,25.445138,25.445148,2544514.822787,0,-1.000000,""
python3action_facedetection_job0_4,w0,python3action_facedetection,0.997085,1,2000.000000,1,COMPLETED_SUCCESSFULLY,1.002160,30.499683,31.501843,0.005075,30.504758,1.000166,6,-1.000000,""
10_updated,w0,python3action_chameleon_2000_neowise,0.997085,1,2000.000000,1,COMPLETED_SUCCESSFULLY,25.445168,24.200002,49.645170,24.448083,48.648085,2.010251,0,-1.000000,""
10,w0,python3action_chameleon_2000,0.000000,1,-1.000000,1,COMPLETED_SUCCESSFULLY,49.645185,0.000010,49.645195,49.645185,49.645195,4964519.545775,0,-1.000000,""
5_updated,w0,python3action_pyaes_3000_troll,0.997085,1,2000.000000,1,COMPLETED_SUCCESSFULLY,1.870059,57.166677,59.036736,0.872974,58.039651,1.015271,4,-1.000000,""
5,w0,python3action_pyaes_3000,0.000000,1,-1.000000,1,COMPLETED_SUCCESSFULLY,59.036751,0.000010,59.036761,59.036751,59.036761,5903676.100201,4,-1.000000,""
python3action_facedetection_job32_1,w0,python3action_facedetection,0.997085,1,2000.000000,1,COMPLETED_SUCCESSFULLY,1.002115,72.012455,73.014570,0.005030,72.017485,1.000070,2,-1.000000,""
python3action_image_processing_job33_5,w0,python3action_image_processing,0.997085,1,2000.000000,1,COMPLETED_SUCCESSFULLY,1.002175,72.012455,73.014630,0.005090,72.017545,1.000071,11,-1.000000,""
13_updated,w0,python3action_chameleon_2000_neowise,0.997085,1,2000.000000,1,COMPLETED_SUCCESSFULLY,49.645215,24.200002,73.845218,48.648130,72.848133,3.010253,0,-1.000000,""
13,w0,python3action_chameleon_2000,0.000000,1,-1.000000,1,COMPLETED_SUCCESSFULLY,73.845233,0.000010,73.845243,73.845233,73.845243,7384524.300201,0,-1.000000,""
15_updated,w0,python3action_chameleon_3000_yeti,0.997085,1,2000.000000,1,COMPLETED_SUCCESSFULLY,1.894854,93.000000,94.894854,0.897769,93.897769,1.009653,5,-1.000000,""
15,w0,python3action_chameleon_3000,0.000000,1,-1.000000,1,COMPLETED_SUCCESSFULLY,94.894869,0.000010,94.894879,94.894869,94.894879,9489487.949564,5,-1.000000,""
76_updated,w0,python3action_chameleon_2000_neowise,0.997085,1,2000.000000,1,COMPLETED_SUCCESSFULLY,73.845263,24.200002,98.045265,72.848178,97.048180,4.010255,0,-1.000000,""
76,w0,python3action_chameleon_2000,0.000000,1,-1.000000,1,COMPLETED_SUCCESSFULLY,98.045280,0.000010,98.045290,98.045280,98.045290,9804529.023189,0,-1.000000,""
33_updated,w0,python3action_imageprocessing_SampleImage_40mb_orion,0.997085,1,2000.000000,1,COMPLETED_SUCCESSFULLY,73.014645,32.000000,105.014645,72.017560,104.017560,3.250549,11,-1.000000,""
33,w0,python3action_imageprocessing_SampleImage_40mb,0.000000,1,-1.000000,1,COMPLETED_SUCCESSFULLY,105.014660,0.000010,105.014670,105.014660,105.014670,10501467.032687,11,-1.000000,""
108_updated,w0,python3action_chameleon_2000_neowise,0.997085,1,2000.000000,1,COMPLETED_SUCCESSFULLY,98.045310,24.200002,122.245312,97.048225,121.248227,5.010257,0,-1.000000,""
108,w0,python3action_chameleon_2000,0.000000,1,-1.000000,1,COMPLETED_SUCCESSFULLY,122.245327,0.000010,122.245337,122.245327,122.245337,12224533.746176,0,-1.000000,""
47_updated,w0,python3action_imageprocessing_SampleImage_40mb_orion,0.997085,1,2000.000000,1,COMPLETED_SUCCESSFULLY,105.014690,32.000000,137.014690,104.017605,136.017605,4.250550,11,-1.000000,""
47,w0,python3action_imageprocessing_SampleImage_40mb,0.000000,1,-1.000000,1,COMPLETED_SUCCESSFULLY,137.014705,0.000010,137.014715,137.014705,137.014715,13701471.533289,11,-1.000000,""
197_updated,w0,python3action_chameleon_2000_neowise,0.997085,1,2000.000000,1,COMPLETED_SUCCESSFULLY,122.245357,24.200002,146.445360,121.248272,145.448275,6.010259,0,-1.000000,""
197,w0,python3action_chameleon_2000,0.000000,1,-1.000000,1,COMPLETED_SUCCESSFULLY,146.445375,0.000010,146.445385,146.445375,146.445385,14644538.500201,0,-1.000000,""
python3action_image_processing_job1_1,w0,python3action_image_processing,0.997085,1,2000.000000,1,COMPLETED_SUCCESSFULLY,146.445405,3.471546,149.916951,145.448320,148.919866,42.897278,0,-1.000000,""
14_updated,w0,python3action_pyaes_4000_troll,0.997085,1,2000.000000,1,COMPLETED_SUCCESSFULLY,59.036781,102.333333,161.370114,58.039696,160.373029,1.567163,4,-1.000000,""
14,w0,python3action_pyaes_4000,0.000000,1,-1.000000,1,COMPLETED_SUCCESSFULLY,161.370129,0.000010,161.370139,161.370129,161.370139,16137013.934137,4,-1.000000,""
89_updated,w0,python3action_imageprocessing_SampleImage_40mb_orion,0.997085,1,2000.000000,1,COMPLETED_SUCCESSFULLY,137.014735,32.000000,169.014735,136.017650,168.017650,5.250552,11,-1.000000,""
89,w0,python3action_imageprocessing_SampleImage_40mb,0.000000,1,-1.000000,1,COMPLETED_SUCCESSFULLY,169.014750,0.000010,169.014760,169.014750,169.014760,16901476.033892,11,-1.000000,""
1_updated,w0,python3action_imageprocessing_SampleImage_60mb_neowise,0.997085,1,2000.000000,1,COMPLETED_SUCCESSFULLY,149.916966,37.500000,187.416966,148.919881,186.419881,4.971197,0,-1.000000,""
1,w0,python3action_imageprocessing_SampleImage_60mb,0.000000,1,-1.000000,1,COMPLETED_SUCCESSFULLY,187.416981,0.000010,187.416991,187.416981,187.416991,18741699.100402,0,-1.000000,""
28_updated,w0,python3action_chameleon_3000_yeti,0.997085,1,2000.000000,1,COMPLETED_SUCCESSFULLY,94.894899,93.000000,187.894899,93.897814,186.897814,2.009654,5,-1.000000,""
28,w0,python3action_chameleon_3000,0.000000,1,-1.000000,1,COMPLETED_SUCCESSFULLY,187.894915,0.000010,187.894925,187.894915,187.894925,18789492.450166,5,-1.000000,""
0_updated,w0,python3action_facedetection_SampleVideo_30mb_nova,0.997085,1,2000.000000,1,COMPLETED_SUCCESSFULLY,31.501858,160.399990,191.901848,30.504773,190.904763,1.190179,6,-1.000000,""
0,w0,python3action_facedetection_SampleVideo_30mb,0.000000,1,-1.000000,1,COMPLETED_SUCCESSFULLY,191.901863,0.000010,191.901873,191.901863,191.901873,19190187.323505,6,-1.000000,""
117_updated,w0,python3action_imageprocessing_SampleImage_40mb_orion,0.997085,1,2000.000000,1,COMPLETED_SUCCESSFULLY,169.014780,32.000000,201.014780,168.017695,200.017695,6.250553,11,-1.000000,""
117,w0,python3action_imageprocessing_SampleImage_40mb,0.000000,1,-1.000000,1,COMPLETED_SUCCESSFULLY,201.014795,0.000010,201.014805,201.014795,201.014805,20101480.534494,11,-1.000000,""
32_updated,w0,python3action_facedetection_SampleVideo_50mb_taurus,0.997085,1,2000.000000,1,COMPLETED_SUCCESSFULLY,73.014585,134.600046,207.614631,72.017500,206.617546,1.535048,2,-1.000000,""
32,w0,python3action_facedetection_SampleVideo_50mb,0.000000,1,-1.000000,1,COMPLETED_SUCCESSFULLY,207.614646,0.000010,207.614656,207.614646,207.614656,20761465.644962,2,-1.000000,""
8_updated,w0,python3action_imageprocessing_SampleImage_60mb_neowise,0.997085,1,2000.000000,1,COMPLETED_SUCCESSFULLY,187.417011,37.500000,224.917011,186.419926,223.919926,5.971198,0,-1.000000,""
8,w0,python3action_imageprocessing_SampleImage_60mb,0.000000,1,-1.000000,1,COMPLETED_SUCCESSFULLY,224.917026,0.000010,224.917036,224.917026,224.917036,22491703.601004,0,-1.000000,""
135_updated,w0,python3action_imageprocessing_SampleImage_40mb_orion,0.997085,1,2000.000000,1,COMPLETED_SUCCESSFULLY,201.014825,32.000000,233.014825,200.017740,232.017740,7.250554,11,-1.000000,""
135,w0,python3action_imageprocessing_SampleImage_40mb,0.000000,1,-1.000000,1,COMPLETED_SUCCESSFULLY,233.014840,0.000010,233.014850,233.014840,233.014850,23301485.035097,11,-1.000000,""
41_updated,w0,python3action_imageprocessing_SampleImage_60mb_neowise,0.997085,1,2000.000000,1,COMPLETED_SUCCESSFULLY,224.917056,37.500000,262.417056,223.919971,261.419971,6.971199,0,-1.000000,""
41,w0,python3action_imageprocessing_SampleImage_60mb,0.000000,1,-1.000000,1,COMPLETED_SUCCESSFULLY,262.417071,0.000010,262.417081,262.417071,262.417081,26241708.101606,0,-1.000000,""
26_updated,w0,python3action_pyaes_4000_troll,0.997085,1,2000.000000,1,COMPLETED_SUCCESSFULLY,161.370159,102.333333,263.703493,160.373074,262.706408,2.567164,4,-1.000000,""
26,w0,python3action_pyaes_4000,0.000000,1,-1.000000,1,COMPLETED_SUCCESSFULLY,263.703508,0.000010,263.703518,263.703508,263.703518,26370351.800201,4,-1.000000,""
179_updated,w0,python3action_imageprocessing_SampleImage_40mb_orion,0.997085,1,2000.000000,1,COMPLETED_SUCCESSFULLY,233.014870,32.000000,265.014870,232.017785,264.017785,8.250556,11,-1.000000,""
179,w0,python3action_imageprocessing_SampleImage_40mb,0.000000,1,-1.000000,1,COMPLETED_SUCCESSFULLY,265.014885,0.000010,265.014895,265.014885,265.014895,26501489.535699,11,-1.000000,""
python3action_linpack_job7_6,w0,python3action_linpack,0.997085,1,2000.000000,1,COMPLETED_SUCCESSFULLY,265.014915,5.760927,270.775843,264.017830,269.778758,46.829051,11,-1.000000,""
29_updated,w0,python3action_chameleon_3000_yeti,0.997085,1,2000.000000,1,COMPLETED_SUCCESSFULLY,187.894945,93.000000,280.894945,186.897860,279.897860,3.009654,5,-1.000000,""
29,w0,python3action_chameleon_3000,0.000000,1,-1.000000,1,COMPLETED_SUCCESSFULLY,280.894960,0.000010,280.894970,280.894960,280.894970,28089497.000402,5,-1.000000,""
53_updated,w0,python3action_imageprocessing_SampleImage_60mb_neowise,0.997085,1,2000.000000,1,COMPLETED_SUCCESSFULLY,262.417101,37.500000,299.917101,261.420016,298.920016,7.971200,0,-1.000000,""
53,w0,python3action_imageprocessing_SampleImage_60mb,0.000000,1,-1.000000,1,COMPLETED_SUCCESSFULLY,299.917116,0.000010,299.917126,299.917116,299.917126,29991712.602209,0,-1.000000,""
7_updated,w0,python3action_linpack_5000_orion,0.997085,1,2000.000000,1,COMPLETED_SUCCESSFULLY,270.775858,36.199977,306.975835,269.778773,305.978750,8.452457,11,-1.000000,""
7,w0,python3action_linpack_5000,0.000000,1,-1.000000,1,COMPLETED_SUCCESSFULLY,306.975850,0.000010,306.975860,306.975850,306.975860,30697586.000201,11,-1.000000,""
64_updated,w0,python3action_imageprocessing_SampleImage_60mb_neowise,0.997085,1,2000.000000,1,COMPLETED_SUCCESSFULLY,299.917146,37.500000,337.417146,298.920061,336.420061,8.971202,0,-1.000000,""
64,w0,python3action_imageprocessing_SampleImage_60mb,0.000000,1,-1.000000,1,COMPLETED_SUCCESSFULLY,337.417161,0.000010,337.417171,337.417161,337.417171,33741717.102811,0,-1.000000,""
39_updated,w0,python3action_facedetection_SampleVideo_50mb_taurus,0.997085,1,2000.000000,1,COMPLETED_SUCCESSFULLY,207.614676,134.600046,342.214723,206.617591,341.217638,2.535048,2,-1.000000,""
39,w0,python3action_facedetection_SampleVideo_50mb,0.000000,1,-1.000000,1,COMPLETED_SUCCESSFULLY,342.214738,0.000010,342.214748,342.214738,342.214748,34221474.800201,2,-1.000000,""
12_updated,w0,python3action_linpack_5000_orion,0.997085,1,2000.000000,1,COMPLETED_SUCCESSFULLY,306.975880,36.199977,343.175857,305.978795,342.178772,9.452458,11,-1.000000,""
12,w0,python3action_linpack_5000,0.000000,1,-1.000000,1,COMPLETED_SUCCESSFULLY,343.175872,0.000010,343.175882,343.175872,343.175882,34317588.200201,11,-1.000000,""
17_updated,w0,python3action_facedetection_SampleVideo_30mb_nova,0.997085,1,2000.000000,1,COMPLETED_SUCCESSFULLY,191.901893,160.399990,352.301883,190.904808,351.304798,2.190180,6,-1.000000,""
17,w0,python3action_facedetection_SampleVideo_30mb,0.000000,1,-1.000000,1,COMPLETED_SUCCESSFULLY,352.301898,0.000010,352.301908,352.301898,352.301908,35230190.847211,6,-1.000000,""
27_updated,w0,python3action_pyaes_4000_troll,0.997085,1,2000.000000,1,COMPLETED_SUCCESSFULLY,263.703538,102.333333,366.036871,262.706453,365.039786,3.567164,4,-1.000000,""
27,w0,python3action_pyaes_4000,0.000000,1,-1.000000,1,COMPLETED_SUCCESSFULLY,366.036886,0.000010,366.036896,366.036886,366.036896,36603689.634137,4,-1.000000,""
34_updated,w0,python3action_chameleon_3000_yeti,0.997085,1,2000.000000,1,COMPLETED_SUCCESSFULLY,280.894990,93.000000,373.894990,279.897905,372.897905,4.009655,5,-1.000000,""
34,w0,python3action_chameleon_3000,0.000000,1,-1.000000,1,COMPLETED_SUCCESSFULLY,373.895005,0.000010,373.895015,373.895005,373.895015,37389501.501004,5,-1.000000,""
68_updated,w0,python3action_imageprocessing_SampleImage_60mb_neowise,0.997085,1,2000.000000,1,COMPLETED_SUCCESSFULLY,337.417191,37.500000,374.917191,336.420106,373.920106,9.971203,0,-1.000000,""
68,w0,python3action_imageprocessing_SampleImage_60mb,0.000000,1,-1.000000,1,COMPLETED_SUCCESSFULLY,374.917206,0.000010,374.917216,374.917206,374.917216,37491721.603414,0,-1.000000,""
78_updated,w0,python3action_imageprocessing_SampleImage_60mb_neowise,0.997085,1,2000.000000,1,COMPLETED_SUCCESSFULLY,374.917236,37.500000,412.417236,373.920151,411.420151,10.971204,0,-1.000000,""
78,w0,python3action_imageprocessing_SampleImage_60mb,0.000000,1,-1.000000,1,COMPLETED_SUCCESSFULLY,412.417251,0.000010,412.417261,412.417251,412.417261,41241726.104016,0,-1.000000,""
21_updated,w0,python3action_linpack_6000_orion,0.997085,1,2000.000000,1,COMPLETED_SUCCESSFULLY,343.175902,106.000000,449.175902,342.178817,448.178817,4.228102,11,-1.000000,""
21,w0,python3action_linpack_6000,0.000000,1,-1.000000,1,COMPLETED_SUCCESSFULLY,449.175917,0.000010,449.175927,449.175917,449.175927,44917592.700803,11,-1.000000,""
79_updated,w0,python3action_imageprocessing_SampleImage_60mb_neowise,0.997085,1,2000.000000,1,COMPLETED_SUCCESSFULLY,412.417281,37.500000,449.917281,411.420196,448.920196,11.971205,0,-1.000000,""
79,w0,python3action_imageprocessing_SampleImage_60mb,0.000000,1,-1.000000,1,COMPLETED_SUCCESSFULLY,449.917296,0.000010,449.917306,449.917296,449.917306,44991730.604619,0,-1.000000,""
35_updated,w0,python3action_chameleon_3000_yeti,0.997085,1,2000.000000,1,COMPLETED_SUCCESSFULLY,373.895035,93.000000,466.895035,372.897950,465.897950,5.009655,5,-1.000000,""
35,w0,python3action_chameleon_3000,0.000000,1,-1.000000,1,COMPLETED_SUCCESSFULLY,466.895050,0.000010,466.895060,466.895050,466.895060,46689506.001607,5,-1.000000,""
40_updated,w0,python3action_pyaes_4000_troll,0.997085,1,2000.000000,1,COMPLETED_SUCCESSFULLY,366.036916,102.333333,468.370250,365.039831,467.373165,4.567164,4,-1.000000,""
40,w0,python3action_pyaes_4000,0.000000,1,-1.000000,1,COMPLETED_SUCCESSFULLY,468.370265,0.000010,468.370275,468.370265,468.370275,46837027.500201,4,-1.000000,""
48_updated,w0,python3action_facedetection_SampleVideo_50mb_taurus,0.997085,1,2000.000000,1,COMPLETED_SUCCESSFULLY,342.214768,134.600046,476.814814,341.217683,475.817729,3.535049,2,-1.000000,""
48,w0,python3action_facedetection_SampleVideo_50mb,0.000000,1,-1.000000,1,COMPLETED_SUCCESSFULLY,476.814829,0.000010,476.814839,476.814829,476.814839,47681483.913881,2,-1.000000,""
83_updated,w0,python3action_imageprocessing_SampleImage_60mb_neowise,0.997085,1,2000.000000,1,COMPLETED_SUCCESSFULLY,449.917326,37.500000,487.417326,448.920241,486.420241,12.971206,0,-1.000000,""
83,w0,python3action_imageprocessing_SampleImage_60mb,0.000000,1,-1.000000,1,COMPLETED_SUCCESSFULLY,487.417341,0.000010,487.417351,487.417341,487.417351,48741735.105221,0,-1.000000,""
45_updated,w0,python3action_facedetection_SampleVideo_30mb_nova,0.997085,1,2000.000000,1,COMPLETED_SUCCESSFULLY,352.301928,160.399990,512.701919,351.304843,511.704834,3.190180,6,-1.000000,""
45,w0,python3action_facedetection_SampleVideo_30mb,0.000000,1,-1.000000,1,COMPLETED_SUCCESSFULLY,512.701934,0.000010,512.701944,512.701934,512.701944,51270194.400201,6,-1.000000,""
90_updated,w0,python3action_imageprocessing_SampleImage_60mb_neowise,0.997085,1,2000.000000,1,COMPLETED_SUCCESSFULLY,487.417371,37.500000,524.917371,486.420286,523.920286,13.971208,0,-1.000000,""
90,w0,python3action_imageprocessing_SampleImage_60mb,0.000000,1,-1.000000,1,COMPLETED_SUCCESSFULLY,524.917386,0.000010,524.917396,524.917386,524.917396,52491739.605824,0,-1.000000,""
61_updated,w0,python3action_pyaes_3000_troll,0.997085,1,2000.000000,1,COMPLETED_SUCCESSFULLY,468.370295,57.166677,525.536972,467.373210,524.539887,9.175623,4,-1.000000,""
61,w0,python3action_pyaes_3000,0.000000,1,-1.000000,1,COMPLETED_SUCCESSFULLY,525.536987,0.000010,525.536997,525.536987,525.536997,52553699.700201,4,-1.000000,""
46_updated,w0,python3action_linpack_6000_orion,0.997085,1,2000.000000,1,COMPLETED_SUCCESSFULLY,449.175947,106.000000,555.175947,448.178862,554.178862,5.228102,11,-1.000000,""
46,w0,python3action_linpack_6000,0.000000,1,-1.000000,1,COMPLETED_SUCCESSFULLY,555.175962,0.000010,555.175972,555.175962,555.175972,55517597.201406,11,-1.000000,""
37_updated,w0,python3action_chameleon_3000_yeti,0.997085,1,2000.000000,1,COMPLETED_SUCCESSFULLY,466.895080,93.000000,559.895080,465.897995,558.897995,6.009656,5,-1.000000,""
37,w0,python3action_chameleon_3000,0.000000,1,-1.000000,1,COMPLETED_SUCCESSFULLY,559.895095,0.000010,559.895105,559.895095,559.895105,55989510.502209,5,-1.000000,""
109_updated,w0,python3action_imageprocessing_SampleImage_60mb_neowise,0.997085,1,2000.000000,1,COMPLETED_SUCCESSFULLY,524.917416,37.500000,562.417416,523.920331,561.420331,14.971209,0,-1.000000,""
109,w0,python3action_imageprocessing_SampleImage_60mb,0.000000,1,-1.000000,1,COMPLETED_SUCCESSFULLY,562.417431,0.000010,562.417441,562.417431,562.417441,56241744.106426,0,-1.000000,""
125_updated,w0,python3action_imageprocessing_SampleImage_60mb_neowise,0.997085,1,2000.000000,1,COMPLETED_SUCCESSFULLY,562.417461,37.500000,599.917461,561.420376,598.920376,15.971210,0,-1.000000,""
125,w0,python3action_imageprocessing_SampleImage_60mb,0.000000,1,-1.000000,1,COMPLETED_SUCCESSFULLY,599.917476,0.000010,599.917486,599.917476,599.917486,59991748.607028,0,-1.000000,""
52_updated,w0,python3action_facedetection_SampleVideo_50mb_taurus,0.997085,1,2000.000000,1,COMPLETED_SUCCESSFULLY,476.814859,134.600046,611.414905,475.817774,610.417820,4.535049,2,-1.000000,""
52,w0,python3action_facedetection_SampleVideo_50mb,0.000000,1,-1.000000,1,COMPLETED_SUCCESSFULLY,611.414920,0.000010,611.414930,611.414920,611.414930,61141493.027562,2,-1.000000,""
63_updated,w0,python3action_pyaes_4000_troll,0.997085,1,2000.000000,1,COMPLETED_SUCCESSFULLY,525.537017,102.333333,627.870350,524.539932,626.873265,6.125797,4,-1.000000,""
63,w0,python3action_pyaes_4000,0.000000,1,-1.000000,1,COMPLETED_SUCCESSFULLY,627.870365,0.000010,627.870375,627.870365,627.870375,62787037.534137,4,-1.000000,""
151_updated,w0,python3action_imageprocessing_SampleImage_60mb_neowise,0.997085,1,2000.000000,1,COMPLETED_SUCCESSFULLY,599.917506,37.500000,637.417506,598.920421,636.420421,16.971211,0,-1.000000,""
151,w0,python3action_imageprocessing_SampleImage_60mb,0.000000,1,-1.000000,1,COMPLETED_SUCCESSFULLY,637.417521,0.000010,637.417531,637.417521,637.417531,63741753.107631,0,-1.000000,""
74_updated,w0,python3action_chameleon_3000_yeti,0.997085,1,2000.000000,1,COMPLETED_SUCCESSFULLY,559.895125,93.000000,652.895125,558.898040,651.898040,7.009656,5,-1.000000,""
74,w0,python3action_chameleon_3000,0.000000,1,-1.000000,1,COMPLETED_SUCCESSFULLY,652.895140,0.000010,652.895150,652.895140,652.895150,65289515.002811,5,-1.000000,""
51_updated,w0,python3action_linpack_6000_orion,0.997085,1,2000.000000,1,COMPLETED_SUCCESSFULLY,555.175992,106.000000,661.175992,554.178907,660.178907,6.228103,11,-1.000000,""
51,w0,python3action_linpack_6000,0.000000,1,-1.000000,1,COMPLETED_SUCCESSFULLY,661.176007,0.000010,661.176017,661.176007,661.176017,66117601.702008,11,-1.000000,""
62_updated,w0,python3action_facedetection_SampleVideo_30mb_nova,0.997085,1,2000.000000,1,COMPLETED_SUCCESSFULLY,512.701964,160.399990,673.101954,511.704879,672.104869,4.190180,6,-1.000000,""
62,w0,python3action_facedetection_SampleVideo_30mb,0.000000,1,-1.000000,1,COMPLETED_SUCCESSFULLY,673.101969,0.000010,673.101979,673.101969,673.101979,67310197.923907,6,-1.000000,""
153_updated,w0,python3action_imageprocessing_SampleImage_60mb_neowise,0.997085,1,2000.000000,1,COMPLETED_SUCCESSFULLY,637.417551,37.500000,674.917551,636.420466,673.920466,17.971212,0,-1.000000,""
153,w0,python3action_imageprocessing_SampleImage_60mb,0.000000,1,-1.000000,1,COMPLETED_SUCCESSFULLY,674.917566,0.000010,674.917576,674.917566,674.917576,67491757.608233,0,-1.000000,""
75_updated,w0,python3action_linpack_5000_orion,0.997085,1,2000.000000,1,COMPLETED_SUCCESSFULLY,661.176037,36.199977,697.376014,660.178952,696.378929,19.236999,11,-1.000000,""
75,w0,python3action_linpack_5000,0.000000,1,-1.000000,1,COMPLETED_SUCCESSFULLY,697.376029,0.000010,697.376039,697.376029,697.376039,69737603.900201,11,-1.000000,""
156_updated,w0,python3action_imageprocessing_SampleImage_60mb_neowise,0.997085,1,2000.000000,1,COMPLETED_SUCCESSFULLY,674.917596,37.500000,712.417596,673.920511,711.420511,18.971214,0,-1.000000,""
156,w0,python3action_imageprocessing_SampleImage_60mb,0.000000,1,-1.000000,1,COMPLETED_SUCCESSFULLY,712.417611,0.000010,712.417621,712.417611,712.417621,71241762.108835,0,-1.000000,""
66_updated,w0,python3action_pyaes_4000_troll,0.997085,1,2000.000000,1,COMPLETED_SUCCESSFULLY,627.870395,102.333333,730.203729,626.873310,729.206644,7.125798,4,-1.000000,""
66,w0,python3action_pyaes_4000,0.000000,1,-1.000000,1,COMPLETED_SUCCESSFULLY,730.203744,0.000010,730.203754,730.203744,730.203754,73020375.400201,4,-1.000000,""
82_updated,w0,python3action_linpack_5000_orion,0.997085,1,2000.000000,1,COMPLETED_SUCCESSFULLY,697.376059,36.199977,733.576036,696.378974,732.578951,20.237000,11,-1.000000,""
82,w0,python3action_linpack_5000,0.000000,1,-1.000000,1,COMPLETED_SUCCESSFULLY,733.576051,0.000010,733.576061,733.576051,733.576061,73357606.100201,11,-1.000000,""
88_updated,w0,python3action_chameleon_3000_yeti,0.997085,1,2000.000000,1,COMPLETED_SUCCESSFULLY,652.895170,93.000000,745.895170,651.898085,744.898085,8.009657,5,-1.000000,""
88,w0,python3action_chameleon_3000,0.000000,1,-1.000000,1,COMPLETED_SUCCESSFULLY,745.895185,0.000010,745.895195,745.895185,745.895195,74589519.503414,5,-1.000000,""
54_updated,w0,python3action_facedetection_SampleVideo_50mb_taurus,0.997085,1,2000.000000,1,COMPLETED_SUCCESSFULLY,611.414950,134.600046,746.014996,610.417865,745.017911,5.535049,2,-1.000000,""
54,w0,python3action_facedetection_SampleVideo_50mb,0.000000,1,-1.000000,1,COMPLETED_SUCCESSFULLY,746.015011,0.000010,746.015021,746.015011,746.015021,74601502.141242,2,-1.000000,""
170_updated,w0,python3action_imageprocessing_SampleImage_60mb_neowise,0.997085,1,2000.000000,1,COMPLETED_SUCCESSFULLY,712.417641,37.500000,749.917641,711.420556,748.920556,19.971215,0,-1.000000,""
170,w0,python3action_imageprocessing_SampleImage_60mb,0.000000,1,-1.000000,1,COMPLETED_SUCCESSFULLY,749.917656,0.000010,749.917666,749.917656,749.917666,74991766.609438,0,-1.000000,""
171_updated,w0,python3action_imageprocessing_SampleImage_60mb_neowise,0.997085,1,2000.000000,1,COMPLETED_SUCCESSFULLY,749.917686,37.500000,787.417686,748.920601,786.420601,20.971216,0,-1.000000,""
171,w0,python3action_imageprocessing_SampleImage_60mb,0.000000,1,-1.000000,1,COMPLETED_SUCCESSFULLY,787.417701,0.000010,787.417711,787.417701,787.417711,78741771.110040,0,-1.000000,""
173_updated,w0,python3action_imageprocessing_SampleImage_60mb_neowise,0.997085,1,2000.000000,1,COMPLETED_SUCCESSFULLY,787.417731,37.500000,824.917731,786.420646,823.920646,21.971217,0,-1.000000,""
173,w0,python3action_imageprocessing_SampleImage_60mb,0.000000,1,-1.000000,1,COMPLETED_SUCCESSFULLY,824.917746,0.000010,824.917756,824.917746,824.917756,82491775.610643,0,-1.000000,""
70_updated,w0,python3action_pyaes_4000_troll,0.997085,1,2000.000000,1,COMPLETED_SUCCESSFULLY,730.203774,102.333333,832.537107,729.206689,831.540022,8.125798,4,-1.000000,""
70,w0,python3action_pyaes_4000,0.000000,1,-1.000000,1,COMPLETED_SUCCESSFULLY,832.537122,0.000010,832.537132,832.537122,832.537132,83253713.234137,4,-1.000000,""
80_updated,w0,python3action_facedetection_SampleVideo_30mb_nova,0.997085,1,2000.000000,1,COMPLETED_SUCCESSFULLY,673.101999,160.399990,833.501989,672.104914,832.504904,5.190181,6,-1.000000,""
80,w0,python3action_facedetection_SampleVideo_30mb,0.000000,1,-1.000000,1,COMPLETED_SUCCESSFULLY,833.502004,0.000010,833.502014,833.502004,833.502014,83350201.447613,6,-1.000000,""
118_updated,w0,python3action_chameleon_3000_yeti,0.997085,1,2000.000000,1,COMPLETED_SUCCESSFULLY,745.895215,93.000000,838.895215,744.898130,837.898130,9.009657,5,-1.000000,""
118,w0,python3action_chameleon_3000,0.000000,1,-1.000000,1,COMPLETED_SUCCESSFULLY,838.895230,0.000010,838.895240,838.895230,838.895240,83889524.004016,5,-1.000000,""
87_updated,w0,python3action_linpack_6000_orion,0.997085,1,2000.000000,1,COMPLETED_SUCCESSFULLY,733.576081,106.000000,839.576081,732.578996,838.578996,7.911123,11,-1.000000,""
87,w0,python3action_linpack_6000,0.000000,1,-1.000000,1,COMPLETED_SUCCESSFULLY,839.576096,0.000010,839.576106,839.576096,839.576106,83957610.600803,11,-1.000000,""
175_updated,w0,python3action_imageprocessing_SampleImage_60mb_neowise,0.997085,1,2000.000000,1,COMPLETED_SUCCESSFULLY,824.917776,37.500000,862.417776,823.920691,861.420691,22.971218,0,-1.000000,""
175,w0,python3action_imageprocessing_SampleImage_60mb,0.000000,1,-1.000000,1,COMPLETED_SUCCESSFULLY,862.417791,0.000010,862.417801,862.417791,862.417801,86241780.111245,0,-1.000000,""
84_updated,w0,python3action_facedetection_SampleVideo_50mb_taurus,0.997085,1,2000.000000,1,COMPLETED_SUCCESSFULLY,746.015041,134.600046,880.615088,745.017956,879.618003,6.535050,2,-1.000000,""
84,w0,python3action_facedetection_SampleVideo_50mb,0.000000,1,-1.000000,1,COMPLETED_SUCCESSFULLY,880.615103,0.000010,880.615113,880.615103,880.615113,88061511.300201,2,-1.000000,""
72_updated,w0,python3action_pyaes_3000_troll,0.997085,1,2000.000000,1,COMPLETED_SUCCESSFULLY,832.537152,57.166677,889.703829,831.540067,888.706744,15.545888,4,-1.000000,""
72,w0,python3action_pyaes_3000,0.000000,1,-1.000000,1,COMPLETED_SUCCESSFULLY,889.703844,0.000010,889.703854,889.703844,889.703854,88970385.400201,4,-1.000000,""
178_updated,w0,python3action_imageprocessing_SampleImage_60mb_neowise,0.997085,1,2000.000000,1,COMPLETED_SUCCESSFULLY,862.417821,37.500000,899.917821,861.420736,898.920736,23.971220,0,-1.000000,""
178,w0,python3action_imageprocessing_SampleImage_60mb,0.000000,1,-1.000000,1,COMPLETED_SUCCESSFULLY,899.917836,0.000010,899.917846,899.917836,899.917846,89991784.611847,0,-1.000000,""
182_updated,w0,python3action_chameleon_3000_yeti,0.997085,1,2000.000000,1,COMPLETED_SUCCESSFULLY,838.895260,93.000000,931.895260,837.898175,930.898175,10.009658,5,-1.000000,""
182,w0,python3action_chameleon_3000,0.000000,1,-1.000000,1,COMPLETED_SUCCESSFULLY,931.895275,0.000010,931.895285,931.895275,931.895285,93189528.504619,5,-1.000000,""
183_updated,w0,python3action_imageprocessing_SampleImage_60mb_neowise,0.997085,1,2000.000000,1,COMPLETED_SUCCESSFULLY,899.917866,37.500000,937.417866,898.920781,936.420781,24.971221,0,-1.000000,""
183,w0,python3action_imageprocessing_SampleImage_60mb,0.000000,1,-1.000000,1,COMPLETED_SUCCESSFULLY,937.417881,0.000010,937.417891,937.417881,937.417891,93741789.112450,0,-1.000000,""
python3action_modeltraining_job11_1,w0,python3action_modeltraining_reduced_0.94,0.997085,1,2000.000000,1,COMPLETED_SUCCESSFULLY,937.417911,0.204209,937.622120,936.420826,936.625035,4586.609685,0,-1.000000,""
94_updated,w0,python3action_linpack_6000_orion,0.997085,1,2000.000000,1,COMPLETED_SUCCESSFULLY,839.576126,106.000000,945.576126,838.579041,944.579041,8.911123,11,-1.000000,""
94,w0,python3action_linpack_6000,0.000000,1,-1.000000,1,COMPLETED_SUCCESSFULLY,945.576141,0.000010,945.576151,945.576141,945.576151,94557615.101406,11,-1.000000,""
85_updated,w0,python3action_pyaes_3000_troll,0.997085,1,2000.000000,1,COMPLETED_SUCCESSFULLY,889.703874,57.166677,946.870551,888.706789,945.873466,16.545889,4,-1.000000,""
85,w0,python3action_pyaes_3000,0.000000,1,-1.000000,1,COMPLETED_SUCCESSFULLY,946.870566,0.000010,946.870576,946.870566,946.870576,94687057.600201,4,-1.000000,""
11_updated,w0,python3action_modeltraining_reviews100mb_neowise,0.997085,1,2000.000000,1,COMPLETED_SUCCESSFULLY,937.622135,43.399999,981.022134,936.625050,980.025049,22.581223,0,-1.000000,""
11,w0,python3action_modeltraining_reviews100mb,0.000000,1,-1.000000,1,COMPLETED_SUCCESSFULLY,981.022149,0.000010,981.022159,981.022149,981.022159,98102215.900201,0,-1.000000,""
93_updated,w0,python3action_facedetection_SampleVideo_30mb_nova,0.997085,1,2000.000000,1,COMPLETED_SUCCESSFULLY,833.502034,160.399990,993.902025,832.504949,992.904940,6.190181,6,-1.000000,""
93,w0,python3action_facedetection_SampleVideo_30mb,0.000000,1,-1.000000,1,COMPLETED_SUCCESSFULLY,993.902040,0.000010,993.902050,993.902040,993.902050,99390205.000201,6,-1.000000,""
16_updated,w0,python3action_modeltraining_reviews50mb_neowise,0.997085,1,2000.000000,1,COMPLETED_SUCCESSFULLY,981.022179,22.799998,1003.822177,980.025094,1002.825092,43.983561,0,-1.000000,""
16,w0,python3action_modeltraining_reviews50mb,0.000000,1,-1.000000,1,COMPLETED_SUCCESSFULLY,1003.822192,0.000010,1003.822202,1003.822192,1003.822202,100382220.200201,0,-1.000000,""
104_updated,w0,python3action_pyaes_3000_troll,0.997085,1,2000.000000,1,COMPLETED_SUCCESSFULLY,946.870596,57.166677,1004.037273,945.873511,1003.040188,17.545889,4,-1.000000,""
104,w0,python3action_pyaes_3000,0.000000,1,-1.000000,1,COMPLETED_SUCCESSFULLY,1004.037288,0.000010,1004.037298,1004.037288,1004.037298,100403729.800201,4,-1.000000,""
95_updated,w0,python3action_facedetection_SampleVideo_50mb_taurus,0.997085,1,2000.000000,1,COMPLETED_SUCCESSFULLY,880.615133,134.600046,1015.215179,879.618048,1014.218094,7.535050,2,-1.000000,""
95,w0,python3action_facedetection_SampleVideo_50mb,0.000000,1,-1.000000,1,COMPLETED_SUCCESSFULLY,1015.215194,0.000010,1015.215204,1015.215194,1015.215204,101521520.413881,2,-1.000000,""
193_updated,w0,python3action_chameleon_3000_yeti,0.997085,1,2000.000000,1,COMPLETED_SUCCESSFULLY,931.895305,93.000000,1024.895305,930.898220,1023.898220,11.009658,5,-1.000000,""
193,w0,python3action_chameleon_3000,0.000000,1,-1.000000,1,COMPLETED_SUCCESSFULLY,1024.895320,0.000010,1024.895330,1024.895320,1024.895330,102489533.005221,5,-1.000000,""
python3action_floatoperation_job100_4,w0,python3action_floatoperation,0.997085,1,2000.000000,1,COMPLETED_SUCCESSFULLY,1024.895350,1.020219,1025.915569,1023.898265,1024.918484,1004.606005,5,-1.000000,""
19_updated,w0,python3action_modeltraining_reviews100mb_neowise,0.997085,1,2000.000000,1,COMPLETED_SUCCESSFULLY,1003.822222,43.399999,1047.222221,1002.825137,1046.225136,24.106571,0,-1.000000,""
19,w0,python3action_modeltraining_reviews100mb,0.000000,1,-1.000000,1,COMPLETED_SUCCESSFULLY,1047.222236,0.000010,1047.222246,1047.222236,1047.222246,104722224.600201,0,-1.000000,""
99_updated,w0,python3action_linpack_6000_orion,0.997085,1,2000.000000,1,COMPLETED_SUCCESSFULLY,945.576171,106.000000,1051.576171,944.579086,1050.579086,9.911123,11,-1.000000,""
99,w0,python3action_linpack_6000,0.000000,1,-1.000000,1,COMPLETED_SUCCESSFULLY,1051.576186,0.000010,1051.576196,1051.576186,1051.576196,105157619.602008,11,-1.000000,""
107_updated,w0,python3action_pyaes_3000_troll,0.997085,1,2000.000000,1,COMPLETED_SUCCESSFULLY,1004.037318,57.166677,1061.203995,1003.040233,1060.206910,18.545890,4,-1.000000,""
107,w0,python3action_pyaes_3000,0.000000,1,-1.000000,1,COMPLETED_SUCCESSFULLY,1061.204010,0.000010,1061.204020,1061.204010,1061.204020,106120402.000201,4,-1.000000,""
38_updated,w0,python3action_modeltraining_reviews100mb_neowise,0.997085,1,2000.000000,1,COMPLETED_SUCCESSFULLY,1047.222266,43.399999,1090.622265,1046.225181,1089.625180,25.106572,0,-1.000000,""
38,w0,python3action_modeltraining_reviews100mb,0.000000,1,-1.000000,1,COMPLETED_SUCCESSFULLY,1090.622280,0.000010,1090.622290,1090.622280,1090.622290,109062229.000201,0,-1.000000,""
42_updated,w0,python3action_modeltraining_reviews50mb_neowise,0.997085,1,2000.000000,1,COMPLETED_SUCCESSFULLY,1090.622310,22.799998,1113.422308,1089.625225,1112.425223,48.790585,0,-1.000000,""
42,w0,python3action_modeltraining_reviews50mb,0.000000,1,-1.000000,1,COMPLETED_SUCCESSFULLY,1113.422323,0.000010,1113.422333,1113.422323,1113.422333,111342233.300201,0,-1.000000,""
114_updated,w0,python3action_pyaes_3000_troll,0.997085,1,2000.000000,1,COMPLETED_SUCCESSFULLY,1061.204040,57.166677,1118.370717,1060.206955,1117.373632,19.545891,4,-1.000000,""
114,w0,python3action_pyaes_3000,0.000000,1,-1.000000,1,COMPLETED_SUCCESSFULLY,1118.370732,0.000010,1118.370742,1118.370732,1118.370742,111837074.200201,4,-1.000000,""
100_updated,w0,python3action_floatoperation_200000000_yeti,0.997085,1,2000.000000,1,COMPLETED_SUCCESSFULLY,1025.915584,106.000000,1131.915584,1024.918499,1130.918499,10.669042,5,-1.000000,""
100,w0,python3action_floatoperation_200000000,0.000000,1,-1.000000,1,COMPLETED_SUCCESSFULLY,1131.915599,0.000010,1131.915609,1131.915599,1131.915609,113191560.940955,5,-1.000000,""
python3action_pyaes_job2_4,w0,python3action_pyaes_reduced_0.85,0.997085,1,2000.000000,1,COMPLETED_SUCCESSFULLY,1131.915629,0.133904,1132.049534,1130.918544,1131.052449,8446.730428,5,-1.000000,""
97_updated,w0,python3action_facedetection_SampleVideo_50mb_taurus,0.997085,1,2000.000000,1,COMPLETED_SUCCESSFULLY,1015.215224,134.600046,1149.815270,1014.218139,1148.818185,8.535050,2,-1.000000,""
97,w0,python3action_facedetection_SampleVideo_50mb,0.000000,1,-1.000000,1,COMPLETED_SUCCESSFULLY,1149.815285,0.000010,1149.815295,1149.815285,1149.815295,114981529.527562,2,-1.000000,""
110_updated,w0,python3action_facedetection_SampleVideo_30mb_nova,0.997085,1,2000.000000,1,COMPLETED_SUCCESSFULLY,993.902070,160.399990,1154.302060,992.904985,1153.304975,7.190181,6,-1.000000,""
110,w0,python3action_facedetection_SampleVideo_30mb,0.000000,1,-1.000000,1,COMPLETED_SUCCESSFULLY,1154.302075,0.000010,1154.302085,1154.302075,1154.302085,115430208.523907,6,-1.000000,""
65_updated,w0,python3action_modeltraining_reviews100mb_neowise,0.997085,1,2000.000000,1,COMPLETED_SUCCESSFULLY,1113.422353,43.399999,1156.822352,1112.425268,1155.825267,26.631919,0,-1.000000,""
65,w0,python3action_modeltraining_reviews100mb,0.000000,1,-1.000000,1,COMPLETED_SUCCESSFULLY,1156.822367,0.000010,1156.822377,1156.822367,1156.822377,115682237.700201,0,-1.000000,""
105_updated,w0,python3action_linpack_6000_orion,0.997085,1,2000.000000,1,COMPLETED_SUCCESSFULLY,1051.576216,106.000000,1157.576216,1050.579131,1156.579131,10.911124,11,-1.000000,""
105,w0,python3action_linpack_6000,0.000000,1,-1.000000,1,COMPLETED_SUCCESSFULLY,1157.576231,0.000010,1157.576241,1157.576231,1157.576241,115757624.102610,11,-1.000000,""
115_updated,w0,python3action_pyaes_3000_troll,0.997085,1,2000.000000,1,COMPLETED_SUCCESSFULLY,1118.370762,57.166677,1175.537439,1117.373677,1174.540354,20.545892,4,-1.000000,""
115,w0,python3action_pyaes_3000,0.000000,1,-1.000000,1,COMPLETED_SUCCESSFULLY,1175.537454,0.000010,1175.537464,1175.537454,1175.537464,117553746.400201,4,-1.000000,""
67_updated,w0,python3action_modeltraining_reviews50mb_neowise,0.997085,1,2000.000000,1,COMPLETED_SUCCESSFULLY,1156.822397,22.799998,1179.622395,1155.825312,1178.625310,51.694098,0,-1.000000,""
67,w0,python3action_modeltraining_reviews50mb,0.000000,1,-1.000000,1,COMPLETED_SUCCESSFULLY,1179.622410,0.000010,1179.622420,1179.622410,1179.622420,117962242.000201,0,-1.000000,""
122_updated,w0,python3action_linpack_5000_orion,0.997085,1,2000.000000,1,COMPLETED_SUCCESSFULLY,1157.576261,36.199977,1193.776238,1156.579176,1192.779153,32.949721,11,-1.000000,""
122,w0,python3action_linpack_5000,0.000000,1,-1.000000,1,COMPLETED_SUCCESSFULLY,1193.776253,0.000010,1193.776263,1193.776253,1193.776263,119377626.300201,11,-1.000000,""
69_updated,w0,python3action_modeltraining_reviews100mb_neowise,0.997085,1,2000.000000,1,COMPLETED_SUCCESSFULLY,1179.622440,43.399999,1223.022439,1178.625355,1222.025354,28.157267,0,-1.000000,""
69,w0,python3action_modeltraining_reviews100mb,0.000000,1,-1.000000,1,COMPLETED_SUCCESSFULLY,1223.022454,0.000010,1223.022464,1223.022454,1223.022464,122302246.400201,0,-1.000000,""
142_updated,w0,python3action_linpack_5000_orion,0.997085,1,2000.000000,1,COMPLETED_SUCCESSFULLY,1193.776283,36.199977,1229.976260,1192.779198,1228.979175,33.949723,11,-1.000000,""
142,w0,python3action_linpack_5000,0.000000,1,-1.000000,1,COMPLETED_SUCCESSFULLY,1229.976275,0.000010,1229.976285,1229.976275,1229.976285,122997628.500201,11,-1.000000,""
127_updated,w0,python3action_pyaes_3000_troll,0.997085,1,2000.000000,1,COMPLETED_SUCCESSFULLY,1175.537484,57.166677,1232.704161,1174.540399,1231.707076,21.545893,4,-1.000000,""
127,w0,python3action_pyaes_3000,0.000000,1,-1.000000,1,COMPLETED_SUCCESSFULLY,1232.704176,0.000010,1232.704186,1232.704176,1232.704186,123270418.600201,4,-1.000000,""
2_updated,w0,python3action_pyaes_4000_yeti,0.997085,1,2000.000000,1,COMPLETED_SUCCESSFULLY,1132.049549,105.500010,1237.549559,1131.052464,1236.552474,11.720875,5,-1.000000,""
2,w0,python3action_pyaes_4000,0.000000,1,-1.000000,1,COMPLETED_SUCCESSFULLY,1237.549574,0.000010,1237.549584,1237.549574,1237.549584,123754958.421581,5,-1.000000,""
86_updated,w0,python3action_modeltraining_reviews50mb_neowise,0.997085,1,2000.000000,1,COMPLETED_SUCCESSFULLY,1223.022484,22.799998,1245.822482,1222.025399,1244.825397,54.597610,0,-1.000000,""
86,w0,python3action_modeltraining_reviews50mb,0.000000,1,-1.000000,1,COMPLETED_SUCCESSFULLY,1245.822497,0.000010,1245.822507,1245.822497,1245.822507,124582250.700201,0,-1.000000,""
101_updated,w0,python3action_facedetection_SampleVideo_50mb_taurus,0.997085,1,2000.000000,1,COMPLETED_SUCCESSFULLY,1149.815315,134.600046,1284.415361,1148.818230,1283.418276,9.535051,2,-1.000000,""
101,w0,python3action_facedetection_SampleVideo_50mb,0.000000,1,-1.000000,1,COMPLETED_SUCCESSFULLY,1284.415376,0.000010,1284.415386,1284.415376,1284.415386,128441538.641242,2,-1.000000,""
106_updated,w0,python3action_modeltraining_reviews100mb_neowise,0.997085,1,2000.000000,1,COMPLETED_SUCCESSFULLY,1245.822527,43.399999,1289.222526,1244.825442,1288.225441,29.682615,0,-1.000000,""
106,w0,python3action_modeltraining_reviews100mb,0.000000,1,-1.000000,1,COMPLETED_SUCCESSFULLY,1289.222541,0.000010,1289.222551,1289.222541,1289.222551,128922255.100201,0,-1.000000,""
154_updated,w0,python3action_pyaes_3000_troll,0.997085,1,2000.000000,1,COMPLETED_SUCCESSFULLY,1232.704206,57.166677,1289.870883,1231.707121,1288.873798,22.545893,4,-1.000000,""
154,w0,python3action_pyaes_3000,0.000000,1,-1.000000,1,COMPLETED_SUCCESSFULLY,1289.870898,0.000010,1289.870908,1289.870898,1289.870908,128987090.800201,4,-1.000000,""
112_updated,w0,python3action_modeltraining_reviews50mb_neowise,0.997085,1,2000.000000,1,COMPLETED_SUCCESSFULLY,1289.222571,22.799998,1312.022569,1288.225486,1311.025484,57.501123,0,-1.000000,""
112,w0,python3action_modeltraining_reviews50mb,0.000000,1,-1.000000,1,COMPLETED_SUCCESSFULLY,1312.022584,0.000010,1312.022594,1312.022584,1312.022594,131202259.400201,0,-1.000000,""
137_updated,w0,python3action_facedetection_SampleVideo_30mb_nova,0.997085,1,2000.000000,1,COMPLETED_SUCCESSFULLY,1154.302105,160.399990,1314.702095,1153.305020,1313.705010,8.190181,6,-1.000000,""
137,w0,python3action_facedetection_SampleVideo_30mb,0.000000,1,-1.000000,1,COMPLETED_SUCCESSFULLY,1314.702110,0.000010,1314.702120,1314.702110,1314.702120,131470212.047613,6,-1.000000,""
121_updated,w0,python3action_modeltraining_reviews50mb_neowise,0.997085,1,2000.000000,1,COMPLETED_SUCCESSFULLY,1312.022614,22.799998,1334.822612,1311.025529,1333.825527,58.501125,0,-1.000000,""
121,w0,python3action_modeltraining_reviews50mb,0.000000,1,-1.000000,1,COMPLETED_SUCCESSFULLY,1334.822627,0.000010,1334.822637,1334.822627,1334.822637,133482263.700201,0,-1.000000,""
148_updated,w0,python3action_linpack_6000_orion,0.997085,1,2000.000000,1,COMPLETED_SUCCESSFULLY,1229.976305,106.000000,1335.976305,1228.979220,1334.979220,12.594144,11,-1.000000,""
148,w0,python3action_linpack_6000,0.000000,1,-1.000000,1,COMPLETED_SUCCESSFULLY,1335.976320,0.000010,1335.976330,1335.976320,1335.976330,133597633.000803,11,-1.000000,""
49_updated,w0,python3action_pyaes_4000_yeti,0.997085,1,2000.000000,1,COMPLETED_SUCCESSFULLY,1237.549604,105.500010,1343.049614,1236.552519,1342.052529,12.720876,5,-1.000000,""
49,w0,python3action_pyaes_4000,0.000000,1,-1.000000,1,COMPLETED_SUCCESSFULLY,1343.049629,0.000010,1343.049639,1343.049629,1343.049639,134304963.943362,5,-1.000000,""
124_updated,w0,python3action_modeltraining_reviews50mb_neowise,0.997085,1,2000.000000,1,COMPLETED_SUCCESSFULLY,1334.822657,22.799998,1357.622655,1333.825572,1356.625570,59.501127,0,-1.000000,""
124,w0,python3action_modeltraining_reviews50mb,0.000000,1,-1.000000,1,COMPLETED_SUCCESSFULLY,1357.622670,0.000010,1357.622680,1357.622670,1357.622680,135762268.000201,0,-1.000000,""
128_updated,w0,python3action_modeltraining_reviews50mb_neowise,0.997085,1,2000.000000,1,COMPLETED_SUCCESSFULLY,1357.622700,22.799998,1380.422698,1356.625615,1379.425613,60.501129,0,-1.000000,""
128,w0,python3action_modeltraining_reviews50mb,0.000000,1,-1.000000,1,COMPLETED_SUCCESSFULLY,1380.422713,0.000010,1380.422723,1380.422713,1380.422723,138042272.300201,0,-1.000000,""
163_updated,w0,python3action_pyaes_4000_troll,0.997085,1,2000.000000,1,COMPLETED_SUCCESSFULLY,1289.870928,102.333333,1392.204261,1288.873843,1391.207176,13.594858,4,-1.000000,""
163,w0,python3action_pyaes_4000,0.000000,1,-1.000000,1,COMPLETED_SUCCESSFULLY,1392.204276,0.000010,1392.204286,1392.204276,1392.204286,139220428.634137,4,-1.000000,""
129_updated,w0,python3action_facedetection_SampleVideo_50mb_taurus,0.997085,1,2000.000000,1,COMPLETED_SUCCESSFULLY,1284.415406,134.600046,1419.015453,1283.418321,1418.018368,10.535051,2,-1.000000,""
129,w0,python3action_facedetection_SampleVideo_50mb,0.000000,1,-1.000000,1,COMPLETED_SUCCESSFULLY,1419.015468,0.000010,1419.015478,1419.015468,1419.015478,141901547.800201,2,-1.000000,""
140_updated,w0,python3action_modeltraining_reviews100mb_neowise,0.997085,1,2000.000000,1,COMPLETED_SUCCESSFULLY,1380.422743,43.399999,1423.822742,1379.425658,1422.825657,32.784002,0,-1.000000,""
140,w0,python3action_modeltraining_reviews100mb,0.000000,1,-1.000000,1,COMPLETED_SUCCESSFULLY,1423.822757,0.000010,1423.822767,1423.822757,1423.822767,142382276.700201,0,-1.000000,""
152_updated,w0,python3action_linpack_6000_orion,0.997085,1,2000.000000,1,COMPLETED_SUCCESSFULLY,1335.976350,106.000000,1441.976350,1334.979265,1440.979265,13.594144,11,-1.000000,""
152,w0,python3action_linpack_6000,0.000000,1,-1.000000,1,COMPLETED_SUCCESSFULLY,1441.976365,0.000010,1441.976375,1441.976365,1441.976375,144197637.501406,11,-1.000000,""
143_updated,w0,python3action_modeltraining_reviews100mb_neowise,0.997085,1,2000.000000,1,COMPLETED_SUCCESSFULLY,1423.822787,43.399999,1467.222786,1422.825702,1466.225701,33.784003,0,-1.000000,""
143,w0,python3action_modeltraining_reviews100mb,0.000000,1,-1.000000,1,COMPLETED_SUCCESSFULLY,1467.222801,0.000010,1467.222811,1467.222801,1467.222811,146722281.100201,0,-1.000000,""
150_updated,w0,python3action_facedetection_SampleVideo_30mb_nova,0.997085,1,2000.000000,1,COMPLETED_SUCCESSFULLY,1314.702140,160.399990,1475.102131,1313.705055,1474.105046,9.190182,6,-1.000000,""
150,w0,python3action_facedetection_SampleVideo_30mb,0.000000,1,-1.000000,1,COMPLETED_SUCCESSFULLY,1475.102146,0.000010,1475.102156,1475.102146,1475.102156,147510215.600201,6,-1.000000,""
174_updated,w0,python3action_modeltraining_reviews50mb_neowise,0.997085,1,2000.000000,1,COMPLETED_SUCCESSFULLY,1467.222831,22.799998,1490.022829,1466.225746,1489.025744,65.308153,0,-1.000000,""
174,w0,python3action_modeltraining_reviews50mb,0.000000,1,-1.000000,1,COMPLETED_SUCCESSFULLY,1490.022844,0.000010,1490.022854,1490.022844,1490.022854,149002285.400201,0,-1.000000,""
192_updated,w0,python3action_pyaes_4000_troll,0.997085,1,2000.000000,1,COMPLETED_SUCCESSFULLY,1392.204306,102.333333,1494.537640,1391.207221,1493.540555,14.594859,4,-1.000000,""
192,w0,python3action_pyaes_4000,0.000000,1,-1.000000,1,COMPLETED_SUCCESSFULLY,1494.537655,0.000010,1494.537665,1494.537655,1494.537665,149453766.500201,4,-1.000000,""
187_updated,w0,python3action_modeltraining_reviews50mb_neowise,0.997085,1,2000.000000,1,COMPLETED_SUCCESSFULLY,1490.022874,22.799998,1512.822872,1489.025789,1511.825787,66.308155,0,-1.000000,""
187,w0,python3action_modeltraining_reviews50mb,0.000000,1,-1.000000,1,COMPLETED_SUCCESSFULLY,1512.822887,0.000010,1512.822897,1512.822887,1512.822897,151282289.700201,0,-1.000000,""
189_updated,w0,python3action_modeltraining_reviews50mb_neowise,0.997085,1,2000.000000,1,COMPLETED_SUCCESSFULLY,1512.822917,22.799998,1535.622915,1511.825832,1534.625830,67.308157,0,-1.000000,""
189,w0,python3action_modeltraining_reviews50mb,0.000000,1,-1.000000,1,COMPLETED_SUCCESSFULLY,1535.622930,0.000010,1535.622940,1535.622930,1535.622940,153562294.000201,0,-1.000000,""
186_updated,w0,python3action_linpack_6000_orion,0.997085,1,2000.000000,1,COMPLETED_SUCCESSFULLY,1441.976395,106.000000,1547.976395,1440.979310,1546.979310,14.594144,11,-1.000000,""
186,w0,python3action_linpack_6000,0.000000,1,-1.000000,1,COMPLETED_SUCCESSFULLY,1547.976410,0.000010,1547.976420,1547.976410,1547.976420,154797642.002008,11,-1.000000,""
199_updated,w0,python3action_pyaes_3000_troll,0.997085,1,2000.000000,1,COMPLETED_SUCCESSFULLY,1494.537685,57.166677,1551.704362,1493.540600,1550.707277,27.126070,4,-1.000000,""
199,w0,python3action_pyaes_3000,0.000000,1,-1.000000,1,COMPLETED_SUCCESSFULLY,1551.704377,0.000010,1551.704387,1551.704377,1551.704387,155170438.700201,4,-1.000000,""
138_updated,w0,python3action_facedetection_SampleVideo_50mb_taurus,0.997085,1,2000.000000,1,COMPLETED_SUCCESSFULLY,1419.015498,134.600046,1553.615544,1418.018413,1552.618459,11.535051,2,-1.000000,""
138,w0,python3action_facedetection_SampleVideo_50mb,0.000000,1,-1.000000,1,COMPLETED_SUCCESSFULLY,1553.615559,0.000010,1553.615569,1553.615559,1553.615569,155361556.913881,2,-1.000000,""
157_updated,w0,python3action_facedetection_SampleVideo_30mb_nova,0.997085,1,2000.000000,1,COMPLETED_SUCCESSFULLY,1475.102176,160.399990,1635.502166,1474.105091,1634.505081,10.190182,6,-1.000000,""
157,w0,python3action_facedetection_SampleVideo_30mb,0.000000,1,-1.000000,1,COMPLETED_SUCCESSFULLY,1635.502181,0.000010,1635.502191,1635.502181,1635.502191,163550219.123907,6,-1.000000,""
155_updated,w0,python3action_facedetection_SampleVideo_50mb_taurus,0.997085,1,2000.000000,1,COMPLETED_SUCCESSFULLY,1553.615589,134.600046,1688.215635,1552.618504,1687.218550,12.535052,2,-1.000000,""
155,w0,python3action_facedetection_SampleVideo_50mb,0.000000,1,-1.000000,1,COMPLETED_SUCCESSFULLY,1688.215650,0.000010,1688.215660,1688.215650,1688.215660,168821566.027562,2,-1.000000,""
159_updated,w0,python3action_facedetection_SampleVideo_30mb_nova,0.997085,1,2000.000000,1,COMPLETED_SUCCESSFULLY,1635.502211,160.399990,1795.902201,1634.505126,1794.905116,11.190182,6,-1.000000,""
159,w0,python3action_facedetection_SampleVideo_30mb,0.000000,1,-1.000000,1,COMPLETED_SUCCESSFULLY,1795.902216,0.000010,1795.902226,1795.902216,1795.902226,179590222.647613,6,-1.000000,""
160_updated,w0,python3action_facedetection_SampleVideo_50mb_taurus,0.997085,1,2000.000000,1,COMPLETED_SUCCESSFULLY,1688.215680,134.600046,1822.815726,1687.218595,1821.818641,13.535052,2,-1.000000,""
160,w0,python3action_facedetection_SampleVideo_50mb,0.000000,1,-1.000000,1,COMPLETED_SUCCESSFULLY,1822.815741,0.000010,1822.815751,1822.815741,1822.815751,182281575.141242,2,-1.000000,""
165_updated,w0,python3action_facedetection_SampleVideo_30mb_nova,0.997085,1,2000.000000,1,COMPLETED_SUCCESSFULLY,1795.902246,160.399990,1956.302237,1794.905161,1955.305152,12.190182,6,-1.000000,""
165,w0,python3action_facedetection_SampleVideo_30mb,0.000000,1,-1.000000,1,COMPLETED_SUCCESSFULLY,1956.302252,0.000010,1956.302262,1956.302252,1956.302262,195630226.200201,6,-1.000000,""
169_updated,w0,python3action_facedetection_SampleVideo_50mb_taurus,0.997085,1,2000.000000,1,COMPLETED_SUCCESSFULLY,1822.815771,134.600046,1957.415818,1821.818686,1956.418733,14.535052,2,-1.000000,""
169,w0,python3action_facedetection_SampleVideo_50mb,0.000000,1,-1.000000,1,COMPLETED_SUCCESSFULLY,1957.415833,0.000010,1957.415843,1957.415833,1957.415843,195741584.300201,2,-1.000000,""
185_updated,w0,python3action_facedetection_SampleVideo_50mb_taurus,0.997085,1,2000.000000,1,COMPLETED_SUCCESSFULLY,1957.415863,134.600046,2092.015909,1956.418778,2091.018824,15.535053,2,-1.000000,""
185,w0,python3action_facedetection_SampleVideo_50mb,0.000000,1,-1.000000,1,COMPLETED_SUCCESSFULLY,2092.015924,0.000010,2092.015934,2092.015924,2092.015934,209201593.413881,2,-1.000000,""
167_updated,w0,python3action_facedetection_SampleVideo_30mb_nova,0.997085,1,2000.000000,1,COMPLETED_SUCCESSFULLY,1956.302282,160.399990,2116.702272,1955.305197,2115.705187,13.190183,6,-1.000000,""
167,w0,python3action_facedetection_SampleVideo_30mb,0.000000,1,-1.000000,1,COMPLETED_SUCCESSFULLY,2116.702287,0.000010,2116.702297,2116.702287,2116.702297,211670229.723907,6,-1.000000,""
190_updated,w0,python3action_facedetection_SampleVideo_50mb_taurus,0.997085,1,2000.000000,1,COMPLETED_SUCCESSFULLY,2092.015954,134.600046,2226.616000,2091.018869,2225.618915,16.535053,2,-1.000000,""
190,w0,python3action_facedetection_SampleVideo_50mb,0.000000,1,-1.000000,1,COMPLETED_SUCCESSFULLY,2226.616015,0.000010,2226.616025,2226.616015,2226.616025,222661602.527562,2,-1.000000,""
python3action_image_processing_job50_2,w0,python3action_image_processing_reduced_0.86,0.997085,1,2000.000000,1,COMPLETED_SUCCESSFULLY,2226.616045,9.731413,2236.347458,2225.618960,2235.350373,229.704607,2,-1.000000,""
50_updated,w0,python3action_imageprocessing_SampleImage_40mb_taurus,0.997085,1,2000.000000,1,COMPLETED_SUCCESSFULLY,2236.347473,32.600046,2268.947519,2235.350388,2267.950434,69.568933,2,-1.000000,""
50,w0,python3action_imageprocessing_SampleImage_40mb,0.000000,1,-1.000000,1,COMPLETED_SUCCESSFULLY,2268.947534,0.000010,2268.947544,2268.947534,2268.947544,226894754.429427,2,-1.000000,""
172_updated,w0,python3action_facedetection_SampleVideo_30mb_nova,0.997085,1,2000.000000,1,COMPLETED_SUCCESSFULLY,2116.702317,160.399990,2277.102307,2115.705232,2276.105222,14.190183,6,-1.000000,""
172,w0,python3action_facedetection_SampleVideo_30mb,0.000000,1,-1.000000,1,COMPLETED_SUCCESSFULLY,2277.102322,0.000010,2277.102332,2277.102322,2277.102332,227710233.247613,6,-1.000000,""
56_updated,w0,python3action_imageprocessing_SampleImage_40mb_taurus,0.997085,1,2000.000000,1,COMPLETED_SUCCESSFULLY,2268.947564,32.600046,2301.547610,2267.950479,2300.550525,70.568935,2,-1.000000,""
56,w0,python3action_imageprocessing_SampleImage_40mb,0.000000,1,-1.000000,1,COMPLETED_SUCCESSFULLY,2301.547625,0.000010,2301.547635,2301.547625,2301.547635,230154763.543108,2,-1.000000,""
92_updated,w0,python3action_imageprocessing_SampleImage_40mb_taurus,0.997085,1,2000.000000,1,COMPLETED_SUCCESSFULLY,2301.547655,32.600046,2334.147702,2300.550570,2333.150617,71.568936,2,-1.000000,""
92,w0,python3action_imageprocessing_SampleImage_40mb,0.000000,1,-1.000000,1,COMPLETED_SUCCESSFULLY,2334.147717,0.000010,2334.147727,2334.147717,2334.147727,233414772.700201,2,-1.000000,""
96_updated,w0,python3action_imageprocessing_SampleImage_40mb_taurus,0.997085,1,2000.000000,1,COMPLETED_SUCCESSFULLY,2334.147747,32.600046,2366.747793,2333.150662,2365.750708,72.568937,2,-1.000000,""
96,w0,python3action_imageprocessing_SampleImage_40mb,0.000000,1,-1.000000,1,COMPLETED_SUCCESSFULLY,2366.747808,0.000010,2366.747818,2366.747808,2366.747818,236674781.813881,2,-1.000000,""
146_updated,w0,python3action_imageprocessing_SampleImage_40mb_taurus,0.997085,1,2000.000000,1,COMPLETED_SUCCESSFULLY,2366.747838,32.600046,2399.347884,2365.750753,2398.350799,73.568939,2,-1.000000,""
146,w0,python3action_imageprocessing_SampleImage_40mb,0.000000,1,-1.000000,1,COMPLETED_SUCCESSFULLY,2399.347899,0.000010,2399.347909,2399.347899,2399.347909,239934790.927562,2,-1.000000,""
161_updated,w0,python3action_imageprocessing_SampleImage_40mb_taurus,0.997085,1,2000.000000,1,COMPLETED_SUCCESSFULLY,2399.347929,32.600046,2431.947975,2398.350844,2430.950890,74.568940,2,-1.000000,""
161,w0,python3action_imageprocessing_SampleImage_40mb,0.000000,1,-1.000000,1,COMPLETED_SUCCESSFULLY,2431.947990,0.000010,2431.948000,2431.947990,2431.948000,243194800.041243,2,-1.000000,""
191_updated,w0,python3action_facedetection_SampleVideo_30mb_nova,0.997085,1,2000.000000,1,COMPLETED_SUCCESSFULLY,2277.102352,160.399990,2437.502343,2276.105267,2436.505258,15.190183,6,-1.000000,""
191,w0,python3action_facedetection_SampleVideo_30mb,0.000000,1,-1.000000,1,COMPLETED_SUCCESSFULLY,2437.502358,0.000010,2437.502368,2437.502358,2437.502368,243750236.800201,6,-1.000000,""
python3action_floatoperation_job6_5,w0,python3action_floatoperation,0.997085,1,2000.000000,1,COMPLETED_SUCCESSFULLY,2437.502388,2.439945,2439.942333,2436.505303,2438.945248,999.590136,6,-1.000000,""
166_updated,w0,python3action_imageprocessing_SampleImage_40mb_taurus,0.997085,1,2000.000000,1,COMPLETED_SUCCESSFULLY,2431.948020,32.600046,2464.548067,2430.950935,2463.550982,75.568942,2,-1.000000,""
166,w0,python3action_imageprocessing_SampleImage_40mb,0.000000,1,-1.000000,1,COMPLETED_SUCCESSFULLY,2464.548082,0.000010,2464.548092,2464.548082,2464.548092,246454809.200201,2,-1.000000,""
python3action_video_processing_job9_2,w0,python3action_video_processing_reduced_1.83,0.997085,1,2000.000000,1,COMPLETED_SUCCESSFULLY,2464.548112,0.000000,2464.548112,2463.551027,2463.551027,235539391288055.875000,2,-1.000000,""
6_updated,w0,python3action_floatoperation_100000000_nova,0.997085,1,2000.000000,1,COMPLETED_SUCCESSFULLY,2439.942348,66.200020,2506.142368,2438.945263,2505.145283,37.842063,6,-1.000000,""
6,w0,python3action_floatoperation_100000000,0.000000,1,-1.000000,1,COMPLETED_SUCCESSFULLY,2506.142383,0.000010,2506.142393,2506.142383,2506.142393,250614239.300201,6,-1.000000,""
18_updated,w0,python3action_floatoperation_100000000_nova,0.997085,1,2000.000000,1,COMPLETED_SUCCESSFULLY,2506.142413,66.200020,2572.342433,2505.145328,2571.345348,38.842063,6,-1.000000,""
18,w0,python3action_floatoperation_100000000,0.000000,1,-1.000000,1,COMPLETED_SUCCESSFULLY,2572.342448,0.000010,2572.342458,2572.342448,2572.342458,257234245.800201,6,-1.000000,""
9_updated,w0,python3action_videoprocessing_SampleVideo_50mb_taurus,0.997085,1,2000.000000,1,COMPLETED_SUCCESSFULLY,2464.548142,154.250029,2618.798171,2463.551057,2617.801086,16.971155,2,-1.000000,""
9,w0,python3action_videoprocessing_SampleVideo_50mb,0.000000,1,-1.000000,1,COMPLETED_SUCCESSFULLY,2618.798186,0.000010,2618.798196,2618.798186,2618.798196,261879819.600201,2,-1.000000,""
20_updated,w0,python3action_floatoperation_100000000_nova,0.997085,1,2000.000000,1,COMPLETED_SUCCESSFULLY,2572.342478,66.200020,2638.542498,2571.345393,2637.545413,39.842064,6,-1.000000,""
20,w0,python3action_floatoperation_100000000,0.000000,1,-1.000000,1,COMPLETED_SUCCESSFULLY,2638.542513,0.000010,2638.542523,2638.542513,2638.542523,263854252.300201,6,-1.000000,""
55_updated,w0,python3action_videoprocessing_SampleVideo_50mb_taurus,0.997085,1,2000.000000,1,COMPLETED_SUCCESSFULLY,2618.798216,154.250029,2773.048245,2617.801131,2772.051160,17.971155,2,-1.000000,""
55,w0,python3action_videoprocessing_SampleVideo_50mb,0.000000,1,-1.000000,1,COMPLETED_SUCCESSFULLY,2773.048260,0.000010,2773.048270,2773.048260,2773.048270,277304827.000201,2,-1.000000,""
22_updated,w0,python3action_floatoperation_200000000_nova,0.997085,1,2000.000000,1,COMPLETED_SUCCESSFULLY,2638.542543,135.399990,2773.942533,2637.545458,2772.945448,20.479658,6,-1.000000,""
22,w0,python3action_floatoperation_200000000,0.000000,1,-1.000000,1,COMPLETED_SUCCESSFULLY,2773.942548,0.000010,2773.942558,2773.942548,2773.942558,277394255.823907,6,-1.000000,""
24_updated,w0,python3action_floatoperation_200000000_nova,0.997085,1,2000.000000,1,COMPLETED_SUCCESSFULLY,2773.942578,135.399990,2909.342568,2772.945493,2908.345483,21.479658,6,-1.000000,""
24,w0,python3action_floatoperation_200000000,0.000000,1,-1.000000,1,COMPLETED_SUCCESSFULLY,2909.342583,0.000010,2909.342593,2909.342583,2909.342593,290934259.347613,6,-1.000000,""
58_updated,w0,python3action_videoprocessing_SampleVideo_50mb_taurus,0.997085,1,2000.000000,1,COMPLETED_SUCCESSFULLY,2773.048290,154.250029,2927.298319,2772.051205,2926.301234,18.971155,2,-1.000000,""
58,w0,python3action_videoprocessing_SampleVideo_50mb,0.000000,1,-1.000000,1,COMPLETED_SUCCESSFULLY,2927.298334,0.000010,2927.298344,2927.298334,2927.298344,292729834.400201,2,-1.000000,""
25_updated,w0,python3action_floatoperation_200000000_nova,0.997085,1,2000.000000,1,COMPLETED_SUCCESSFULLY,2909.342613,135.399990,3044.742604,2908.345528,3043.745519,22.479658,6,-1.000000,""
25,w0,python3action_floatoperation_200000000,0.000000,1,-1.000000,1,COMPLETED_SUCCESSFULLY,3044.742619,0.000010,3044.742629,3044.742619,3044.742629,304474262.900201,6,-1.000000,""
59_updated,w0,python3action_videoprocessing_SampleVideo_50mb_taurus,0.997085,1,2000.000000,1,COMPLETED_SUCCESSFULLY,2927.298364,154.250029,3081.548393,2926.301279,3080.551308,19.971155,2,-1.000000,""
59,w0,python3action_videoprocessing_SampleVideo_50mb,0.000000,1,-1.000000,1,COMPLETED_SUCCESSFULLY,3081.548408,0.000010,3081.548418,3081.548408,3081.548418,308154841.800201,2,-1.000000,""
30_updated,w0,python3action_floatoperation_100000000_nova,0.997085,1,2000.000000,1,COMPLETED_SUCCESSFULLY,3044.742649,66.200020,3110.942669,3043.745564,3109.945584,46.978016,6,-1.000000,""
30,w0,python3action_floatoperation_100000000,0.000000,1,-1.000000,1,COMPLETED_SUCCESSFULLY,3110.942684,0.000010,3110.942694,3110.942684,3110.942694,311094269.400201,6,-1.000000,""
31_updated,w0,python3action_floatoperation_100000000_nova,0.997085,1,2000.000000,1,COMPLETED_SUCCESSFULLY,3110.942714,66.200020,3177.142734,3109.945629,3176.145649,47.978017,6,-1.000000,""
31,w0,python3action_floatoperation_100000000,0.000000,1,-1.000000,1,COMPLETED_SUCCESSFULLY,3177.142749,0.000010,3177.142759,3177.142749,3177.142759,317714275.900201,6,-1.000000,""
102_updated,w0,python3action_videoprocessing_SampleVideo_50mb_taurus,0.997085,1,2000.000000,1,COMPLETED_SUCCESSFULLY,3081.548438,154.250029,3235.798467,3080.551353,3234.801382,20.971156,2,-1.000000,""
102,w0,python3action_videoprocessing_SampleVideo_50mb,0.000000,1,-1.000000,1,COMPLETED_SUCCESSFULLY,3235.798482,0.000010,3235.798492,3235.798482,3235.798492,323579849.200201,2,-1.000000,""
36_updated,w0,python3action_floatoperation_100000000_nova,0.997085,1,2000.000000,1,COMPLETED_SUCCESSFULLY,3177.142779,66.200020,3243.342799,3176.145694,3242.345714,48.978017,6,-1.000000,""
36,w0,python3action_floatoperation_100000000,0.000000,1,-1.000000,1,COMPLETED_SUCCESSFULLY,3243.342814,0.000010,3243.342824,3243.342814,3243.342824,324334282.400201,6,-1.000000,""
43_updated,w0,python3action_floatoperation_100000000_nova,0.997085,1,2000.000000,1,COMPLETED_SUCCESSFULLY,3243.342844,66.200020,3309.542864,3242.345759,3308.545779,49.978018,6,-1.000000,""
43,w0,python3action_floatoperation_100000000,0.000000,1,-1.000000,1,COMPLETED_SUCCESSFULLY,3309.542879,0.000010,3309.542889,3309.542879,3309.542889,330954288.900201,6,-1.000000,""
134_updated,w0,python3action_videoprocessing_SampleVideo_50mb_taurus,0.997085,1,2000.000000,1,COMPLETED_SUCCESSFULLY,3235.798512,154.250029,3390.048541,3234.801427,3389.051456,21.971156,2,-1.000000,""
134,w0,python3action_videoprocessing_SampleVideo_50mb,0.000000,1,-1.000000,1,COMPLETED_SUCCESSFULLY,3390.048556,0.000010,3390.048566,3390.048556,3390.048566,339004856.600201,2,-1.000000,""
44_updated,w0,python3action_floatoperation_200000000_nova,0.997085,1,2000.000000,1,COMPLETED_SUCCESSFULLY,3309.542909,135.399990,3444.942899,3308.545824,3443.945814,25.435348,6,-1.000000,""
44,w0,python3action_floatoperation_200000000,0.000000,1,-1.000000,1,COMPLETED_SUCCESSFULLY,3444.942914,0.000010,3444.942924,3444.942914,3444.942924,344494292.423907,6,-1.000000,""
57_updated,w0,python3action_floatoperation_100000000_nova,0.997085,1,2000.000000,1,COMPLETED_SUCCESSFULLY,3444.942944,66.200020,3511.142964,3443.945859,3510.145879,53.023336,6,-1.000000,""
57,w0,python3action_floatoperation_100000000,0.000000,1,-1.000000,1,COMPLETED_SUCCESSFULLY,3511.142979,0.000010,3511.142989,3511.142979,3511.142989,351114298.900201,6,-1.000000,""
136_updated,w0,python3action_videoprocessing_SampleVideo_50mb_taurus,0.997085,1,2000.000000,1,COMPLETED_SUCCESSFULLY,3390.048586,154.250029,3544.298615,3389.051501,3543.301530,22.971156,2,-1.000000,""
136,w0,python3action_videoprocessing_SampleVideo_50mb,0.000000,1,-1.000000,1,COMPLETED_SUCCESSFULLY,3544.298630,0.000010,3544.298640,3544.298630,3544.298640,354429864.000201,2,-1.000000,""
60_updated,w0,python3action_floatoperation_100000000_nova,0.997085,1,2000.000000,1,COMPLETED_SUCCESSFULLY,3511.143009,66.200020,3577.343029,3510.145924,3576.345944,54.023337,6,-1.000000,""
60,w0,python3action_floatoperation_100000000,0.000000,1,-1.000000,1,COMPLETED_SUCCESSFULLY,3577.343044,0.000010,3577.343054,3577.343044,3577.343054,357734305.400201,6,-1.000000,""
73_updated,w0,python3action_floatoperation_100000000_nova,0.997085,1,2000.000000,1,COMPLETED_SUCCESSFULLY,3577.343074,66.200020,3643.543094,3576.345989,3642.546009,55.023337,6,-1.000000,""
73,w0,python3action_floatoperation_100000000,0.000000,1,-1.000000,1,COMPLETED_SUCCESSFULLY,3643.543109,0.000010,3643.543119,3643.543109,3643.543119,364354311.900201,6,-1.000000,""
139_updated,w0,python3action_videoprocessing_SampleVideo_50mb_taurus,0.997085,1,2000.000000,1,COMPLETED_SUCCESSFULLY,3544.298660,154.250029,3698.548689,3543.301575,3697.551604,23.971157,2,-1.000000,""
139,w0,python3action_videoprocessing_SampleVideo_50mb,0.000000,1,-1.000000,1,COMPLETED_SUCCESSFULLY,3698.548704,0.000010,3698.548714,3698.548704,3698.548714,369854871.400201,2,-1.000000,""
91_updated,w0,python3action_floatoperation_200000000_nova,0.997085,1,2000.000000,1,COMPLETED_SUCCESSFULLY,3643.543139,135.399990,3778.943129,3642.546054,3777.946044,27.902115,6,-1.000000,""
91,w0,python3action_floatoperation_200000000,0.000000,1,-1.000000,1,COMPLETED_SUCCESSFULLY,3778.943144,0.000010,3778.943154,3778.943144,3778.943154,377894315.423907,6,-1.000000,""
98_updated,w0,python3action_floatoperation_100000000_nova,0.997085,1,2000.000000,1,COMPLETED_SUCCESSFULLY,3778.943174,66.200020,3845.143194,3777.946089,3844.146109,58.068655,6,-1.000000,""
98,w0,python3action_floatoperation_100000000,0.000000,1,-1.000000,1,COMPLETED_SUCCESSFULLY,3845.143209,0.000010,3845.143219,3845.143209,3845.143219,384514321.900201,6,-1.000000,""
145_updated,w0,python3action_videoprocessing_SampleVideo_50mb_taurus,0.997085,1,2000.000000,1,COMPLETED_SUCCESSFULLY,3698.548734,154.250029,3852.798763,3697.551649,3851.801678,24.971157,2,-1.000000,""
145,w0,python3action_videoprocessing_SampleVideo_50mb,0.000000,1,-1.000000,1,COMPLETED_SUCCESSFULLY,3852.798778,0.000010,3852.798788,3852.798778,3852.798788,385279878.800201,2,-1.000000,""
103_updated,w0,python3action_floatoperation_100000000_nova,0.997085,1,2000.000000,1,COMPLETED_SUCCESSFULLY,3845.143239,66.200020,3911.343259,3844.146154,3910.346174,59.068656,6,-1.000000,""
103,w0,python3action_floatoperation_100000000,0.000000,1,-1.000000,1,COMPLETED_SUCCESSFULLY,3911.343274,0.000010,3911.343284,3911.343274,3911.343284,391134328.400201,6,-1.000000,""
149_updated,w0,python3action_videoprocessing_SampleVideo_50mb_taurus,0.997085,1,2000.000000,1,COMPLETED_SUCCESSFULLY,3852.798808,154.250029,4007.048837,3851.801723,4006.051752,25.971157,2,-1.000000,""
149,w0,python3action_videoprocessing_SampleVideo_50mb,0.000000,1,-1.000000,1,COMPLETED_SUCCESSFULLY,4007.048852,0.000010,4007.048862,4007.048852,4007.048862,400704886.200201,2,-1.000000,""
113_updated,w0,python3action_floatoperation_200000000_nova,0.997085,1,2000.000000,1,COMPLETED_SUCCESSFULLY,3911.343304,135.399990,4046.743294,3910.346219,4045.746209,29.879959,6,-1.000000,""
113,w0,python3action_floatoperation_200000000,0.000000,1,-1.000000,1,COMPLETED_SUCCESSFULLY,4046.743309,0.000010,4046.743319,4046.743309,4046.743319,404674331.923907,6,-1.000000,""
158_updated,w0,python3action_videoprocessing_SampleVideo_50mb_taurus,0.997085,1,2000.000000,1,COMPLETED_SUCCESSFULLY,4007.048882,154.250029,4161.298911,4006.051797,4160.301826,26.971158,2,-1.000000,""
158,w0,python3action_videoprocessing_SampleVideo_50mb,0.000000,1,-1.000000,1,COMPLETED_SUCCESSFULLY,4161.298926,0.000010,4161.298936,4161.298926,4161.298936,416129893.600201,2,-1.000000,""
119_updated,w0,python3action_floatoperation_200000000_nova,0.997085,1,2000.000000,1,COMPLETED_SUCCESSFULLY,4046.743339,135.399990,4182.143329,4045.746254,4181.146244,30.879960,6,-1.000000,""
119,w0,python3action_floatoperation_200000000,0.000000,1,-1.000000,1,COMPLETED_SUCCESSFULLY,4182.143344,0.000010,4182.143354,4182.143344,4182.143354,418214335.447613,6,-1.000000,""
164_updated,w0,python3action_videoprocessing_SampleVideo_50mb_taurus,0.997085,1,2000.000000,1,COMPLETED_SUCCESSFULLY,4161.298956,154.250029,4315.548985,4160.301871,4314.551900,27.971158,2,-1.000000,""
164,w0,python3action_videoprocessing_SampleVideo_50mb,0.000000,1,-1.000000,1,COMPLETED_SUCCESSFULLY,4315.549000,0.000010,4315.549010,4315.549000,4315.549010,431554901.000201,2,-1.000000,""
120_updated,w0,python3action_floatoperation_200000000_nova,0.997085,1,2000.000000,1,COMPLETED_SUCCESSFULLY,4182.143374,135.399990,4317.543365,4181.146289,4316.546280,31.879960,6,-1.000000,""
120,w0,python3action_floatoperation_200000000,0.000000,1,-1.000000,1,COMPLETED_SUCCESSFULLY,4317.543380,0.000010,4317.543390,4317.543380,4317.543390,431754339.000201,6,-1.000000,""
123_updated,w0,python3action_floatoperation_100000000_nova,0.997085,1,2000.000000,1,COMPLETED_SUCCESSFULLY,4317.543410,66.200020,4383.743430,4316.546325,4382.746345,66.204608,6,-1.000000,""
123,w0,python3action_floatoperation_100000000,0.000000,1,-1.000000,1,COMPLETED_SUCCESSFULLY,4383.743445,0.000010,4383.743455,4383.743445,4383.743455,438374345.500201,6,-1.000000,""
126_updated,w0,python3action_floatoperation_200000000_nova,0.997085,1,2000.000000,1,COMPLETED_SUCCESSFULLY,4383.743475,135.399990,4519.143465,4382.746390,4518.146380,33.368883,6,-1.000000,""
126,w0,python3action_floatoperation_200000000,0.000000,1,-1.000000,1,COMPLETED_SUCCESSFULLY,4519.143480,0.000010,4519.143490,4519.143480,4519.143490,451914349.023907,6,-1.000000,""
130_updated,w0,python3action_floatoperation_200000000_nova,0.997085,1,2000.000000,1,COMPLETED_SUCCESSFULLY,4519.143510,135.399990,4654.543500,4518.146425,4653.546415,34.368883,6,-1.000000,""
130,w0,python3action_floatoperation_200000000,0.000000,1,-1.000000,1,COMPLETED_SUCCESSFULLY,4654.543515,0.000010,4654.543525,4654.543515,4654.543525,465454352.547613,6,-1.000000,""
132_updated,w0,python3action_floatoperation_100000000_nova,0.997085,1,2000.000000,1,COMPLETED_SUCCESSFULLY,4654.543545,66.200020,4720.743565,4653.546460,4719.746480,71.295243,6,-1.000000,""
132,w0,python3action_floatoperation_100000000,0.000000,1,-1.000000,1,COMPLETED_SUCCESSFULLY,4720.743580,0.000010,4720.743590,4720.743580,4720.743590,472074359.002008,6,-1.000000,""
141_updated,w0,python3action_floatoperation_200000000_nova,0.997085,1,2000.000000,1,COMPLETED_SUCCESSFULLY,4720.743610,135.399990,4856.143600,4719.746525,4855.146515,35.857806,6,-1.000000,""
141,w0,python3action_floatoperation_200000000,0.000000,1,-1.000000,1,COMPLETED_SUCCESSFULLY,4856.143615,0.000010,4856.143625,4856.143615,4856.143625,485614362.525714,6,-1.000000,""
144_updated,w0,python3action_floatoperation_100000000_nova,0.997085,1,2000.000000,1,COMPLETED_SUCCESSFULLY,4856.143645,66.200020,4922.343665,4855.146560,4921.346580,74.340561,6,-1.000000,""
144,w0,python3action_floatoperation_100000000,0.000000,1,-1.000000,1,COMPLETED_SUCCESSFULLY,4922.343680,0.000010,4922.343690,4922.343680,4922.343690,492234369.000201,6,-1.000000,""
147_updated,w0,python3action_floatoperation_100000000_nova,0.997085,1,2000.000000,1,COMPLETED_SUCCESSFULLY,4922.343710,66.200020,4988.543730,4921.346625,4987.546645,75.340562,6,-1.000000,""
147,w0,python3action_floatoperation_100000000,0.000000,1,-1.000000,1,COMPLETED_SUCCESSFULLY,4988.543745,0.000010,4988.543755,4988.543745,4988.543755,498854375.500201,6,-1.000000,""
162_updated,w0,python3action_floatoperation_100000000_nova,0.997085,1,2000.000000,1,COMPLETED_SUCCESSFULLY,4988.543775,66.200020,5054.743795,4987.546690,5053.746710,76.340562,6,-1.000000,""
162,w0,python3action_floatoperation_100000000,0.000000,1,-1.000000,1,COMPLETED_SUCCESSFULLY,5054.743810,0.000010,5054.743820,5054.743810,5054.743820,505474382.000201,6,-1.000000,""
176_updated,w0,python3action_floatoperation_100000000_nova,0.997085,1,2000.000000,1,COMPLETED_SUCCESSFULLY,5054.743840,66.200020,5120.943860,5053.746755,5119.946775,77.340563,6,-1.000000,""
176,w0,python3action_floatoperation_100000000,0.000000,1,-1.000000,1,COMPLETED_SUCCESSFULLY,5120.943875,0.000010,5120.943885,5120.943875,5120.943885,512094388.500201,6,-1.000000,""
180_updated,w0,python3action_floatoperation_200000000_nova,0.997085,1,2000.000000,1,COMPLETED_SUCCESSFULLY,5120.943905,135.399990,5256.343895,5119.946820,5255.346810,38.813495,6,-1.000000,""
180,w0,python3action_floatoperation_200000000,0.000000,1,-1.000000,1,COMPLETED_SUCCESSFULLY,5256.343910,0.000010,5256.343920,5256.343910,5256.343920,525634392.023907,6,-1.000000,""
181_updated,w0,python3action_floatoperation_100000000_nova,0.997085,1,2000.000000,1,COMPLETED_SUCCESSFULLY,5256.343940,66.200020,5322.543960,5255.346855,5321.546875,80.385881,6,-1.000000,""
181,w0,python3action_floatoperation_100000000,0.000000,1,-1.000000,1,COMPLETED_SUCCESSFULLY,5322.543975,0.000010,5322.543985,5322.543975,5322.543985,532254398.500201,6,-1.000000,""
188_updated,w0,python3action_floatoperation_100000000_nova,0.997085,1,2000.000000,1,COMPLETED_SUCCESSFULLY,5322.544005,66.200020,5388.744025,5321.546920,5387.746940,81.385881,6,-1.000000,""
188,w0,python3action_floatoperation_100000000,0.000000,1,-1.000000,1,COMPLETED_SUCCESSFULLY,5388.744040,0.000010,5388.744050,5388.744040,5388.744050,538874405.000201,6,-1.000000,""
194_updated,w0,python3action_floatoperation_100000000_nova,0.997085,1,2000.000000,1,COMPLETED_SUCCESSFULLY,5388.744070,66.200020,5454.944090,5387.746985,5453.947005,82.385882,6,-1.000000,""
194,w0,python3action_floatoperation_100000000,0.000000,1,-1.000000,1,COMPLETED_SUCCESSFULLY,5454.944105,0.000010,5454.944115,5454.944105,5454.944115,545494411.500201,6,-1.000000,""
196_updated,w0,python3action_floatoperation_100000000_nova,0.997085,1,2000.000000,1,COMPLETED_SUCCESSFULLY,5454.944135,66.200020,5521.144155,5453.947050,5520.147070,83.385883,6,-1.000000,""
196,w0,python3action_floatoperation_100000000,0.000000,1,-1.000000,1,COMPLETED_SUCCESSFULLY,5521.144170,0.000010,5521.144180,5521.144170,5521.144180,552114418.000201,6,-1.000000,""
198_updated,w0,python3action_floatoperation_100000000_nova,0.997085,1,2000.000000,1,COMPLETED_SUCCESSFULLY,5521.144200,66.200020,5587.344220,5520.147115,5586.347135,84.385883,6,-1.000000,""
198,w0,python3action_floatoperation_100000000,0.000000,1,-1.000000,1,COMPLETED_SUCCESSFULLY,5587.344235,0.000010,5587.344245,5587.344235,5587.344245,558734424.500201,6,-1.000000,""
python3action_video_processing_job3_5,w0,python3action_video_processing_reduced_0.91,0.997085,1,2000.000000,1,COMPLETED_SUCCESSFULLY,5587.344265,0.000000,5587.344265,5586.347180,5586.347180,1228450736242059.000000,6,-1.000000,""
3_updated,w0,python3action_videoprocessing_SampleVideo_30mb_nova,0.997085,1,2000.000000,1,COMPLETED_SUCCESSFULLY,5587.344295,106.799980,5694.144275,5586.347210,5693.147190,53.306631,6,-1.000000,""
3,w0,python3action_videoprocessing_SampleVideo_30mb,0.000000,1,-1.000000,1,COMPLETED_SUCCESSFULLY,5694.144290,0.000010,5694.144300,5694.144290,5694.144300,569414430.047412,6,-1.000000,""
23_updated,w0,python3action_videoprocessing_SampleVideo_30mb_nova,0.997085,1,2000.000000,1,COMPLETED_SUCCESSFULLY,5694.144320,106.799980,5800.944301,5693.147235,5799.947216,54.306632,6,-1.000000,""
23,w0,python3action_videoprocessing_SampleVideo_30mb,0.000000,1,-1.000000,1,COMPLETED_SUCCESSFULLY,5800.944316,0.000010,5800.944326,5800.944316,5800.944326,580094432.600201,6,-1.000000,""
71_updated,w0,python3action_videoprocessing_SampleVideo_30mb_nova,0.997085,1,2000.000000,1,COMPLETED_SUCCESSFULLY,5800.944346,106.799980,5907.744326,5799.947261,5906.747241,55.306632,6,-1.000000,""
71,w0,python3action_videoprocessing_SampleVideo_30mb,0.000000,1,-1.000000,1,COMPLETED_SUCCESSFULLY,5907.744341,0.000010,5907.744351,5907.744341,5907.744351,590774435.147010,6,-1.000000,""
77_updated,w0,python3action_videoprocessing_SampleVideo_30mb_nova,0.997085,1,2000.000000,1,COMPLETED_SUCCESSFULLY,5907.744371,106.799980,6014.544352,5906.747286,6013.547267,56.306633,6,-1.000000,""
77,w0,python3action_videoprocessing_SampleVideo_30mb,0.000000,1,-1.000000,1,COMPLETED_SUCCESSFULLY,6014.544367,0.000010,6014.544377,6014.544367,6014.544377,601454437.700201,6,-1.000000,""
81_updated,w0,python3action_videoprocessing_SampleVideo_30mb_nova,0.997085,1,2000.000000,1,COMPLETED_SUCCESSFULLY,6014.544397,106.799980,6121.344377,6013.547312,6120.347292,57.306633,6,-1.000000,""
81,w0,python3action_videoprocessing_SampleVideo_30mb,0.000000,1,-1.000000,1,COMPLETED_SUCCESSFULLY,6121.344392,0.000010,6121.344402,6121.344392,6121.344402,612134440.247010,6,-1.000000,""
111_updated,w0,python3action_videoprocessing_SampleVideo_30mb_nova,0.997085,1,2000.000000,1,COMPLETED_SUCCESSFULLY,6121.344422,106.799980,6228.144403,6120.347337,6227.147318,58.306633,6,-1.000000,""
111,w0,python3action_videoprocessing_SampleVideo_30mb,0.000000,1,-1.000000,1,COMPLETED_SUCCESSFULLY,6228.144418,0.000010,6228.144428,6228.144418,6228.144428,622814442.800201,6,-1.000000,""
116_updated,w0,python3action_videoprocessing_SampleVideo_50mb_nova,0.997085,1,2000.000000,1,COMPLETED_SUCCESSFULLY,6228.144448,139.600010,6367.744458,6227.147363,6366.747373,45.607070,6,-1.000000,""
116,w0,python3action_videoprocessing_SampleVideo_50mb,0.000000,1,-1.000000,1,COMPLETED_SUCCESSFULLY,6367.744473,0.000010,6367.744483,6367.744473,6367.744483,636774448.300201,6,-1.000000,""
131_updated,w0,python3action_videoprocessing_SampleVideo_30mb_nova,0.997085,1,2000.000000,1,COMPLETED_SUCCESSFULLY,6367.744503,106.799980,6474.544483,6366.747418,6473.547398,60.613751,6,-1.000000,""
131,w0,python3action_videoprocessing_SampleVideo_30mb,0.000000,1,-1.000000,1,COMPLETED_SUCCESSFULLY,6474.544498,0.000010,6474.544508,6474.544498,6474.544508,647454450.847010,6,-1.000000,""
133_updated,w0,python3action_videoprocessing_SampleVideo_30mb_nova,0.997085,1,2000.000000,1,COMPLETED_SUCCESSFULLY,6474.544528,106.799980,6581.344509,6473.547443,6580.347424,61.613751,6,-1.000000,""
133,w0,python3action_videoprocessing_SampleVideo_30mb,0.000000,1,-1.000000,1,COMPLETED_SUCCESSFULLY,6581.344524,0.000010,6581.344534,6581.344524,6581.344534,658134453.400201,6,-1.000000,""
168_updated,w0,python3action_videoprocessing_SampleVideo_30mb_nova,0.997085,1,2000.000000,1,COMPLETED_SUCCESSFULLY,6581.344554,106.799980,6688.144534,6580.347469,6687.147449,62.613752,6,-1.000000,""
168,w0,python3action_videoprocessing_SampleVideo_30mb,0.000000,1,-1.000000,1,COMPLETED_SUCCESSFULLY,6688.144549,0.000010,6688.144559,6688.144549,6688.144559,668814455.947010,6,-1.000000,""
177_updated,w0,python3action_videoprocessing_SampleVideo_30mb_nova,0.997085,1,2000.000000,1,COMPLETED_SUCCESSFULLY,6688.144579,106.799980,6794.944560,6687.147494,6793.947475,63.613752,6,-1.000000,""
177,w0,python3action_videoprocessing_SampleVideo_30mb,0.000000,1,-1.000000,1,COMPLETED_SUCCESSFULLY,6794.944575,0.000010,6794.944585,6794.944575,6794.944585,679494458.500201,6,-1.000000,""
184_updated,w0,python3action_videoprocessing_SampleVideo_50mb_nova,0.997085,1,2000.000000,1,COMPLETED_SUCCESSFULLY,6794.944605,139.600010,6934.544615,6793.947520,6933.547530,49.667242,6,-1.000000,""
184,w0,python3action_videoprocessing_SampleVideo_50mb,0.000000,1,-1.000000,1,COMPLETED_SUCCESSFULLY,6934.544630,0.000010,6934.544640,6934.544630,6934.544640,693454464.000201,6,-1.000000,""
195_updated,w0,python3action_videoprocessing_SampleVideo_30mb_nova,0.997085,1,2000.000000,1,COMPLETED_SUCCESSFULLY,6934.544660,106.799980,7041.344640,6933.547575,7040.347555,65.920869,6,-1.000000,""
195,w0,python3action_videoprocessing_SampleVideo_30mb,0.000000,1,-1.000000,1,COMPLETED_SUCCESSFULLY,7041.344655,0.000010,7041.344665,7041.344655,7041.344665,704134466.547010,6,-1.000000,""
