job_id,workload_name,profile,submission_time,requested_number_of_resources,requested_time,success,final_state,starting_time,execution_time,finish_time,waiting_time,turnaround_time,stretch,allocated_resources,consumed_energy,metadata
python3action_pyaes_job7_3,w0,python3action_pyaes,0.997085,1,2000.000000,1,COMPLETED_SUCCESSFULLY,1.002145,0.867914,1.870059,0.005060,0.872974,1.005830,4,-1.000000,""
python3action_chameleon_job52_4,w0,python3action_chameleon,0.997085,1,2000.000000,1,COMPLETED_SUCCESSFULLY,1.002160,0.892694,1.894854,0.005075,0.897769,1.005685,5,-1.000000,""
python3action_pyaes_job21_9,w0,python3action_pyaes,0.997085,1,2000.000000,1,COMPLETED_SUCCESSFULLY,1.002235,2.134958,3.137193,0.005150,2.140108,1.002412,10,-1.000000,""
python3action_floatoperation_job1_5,w0,python3action_floatoperation,0.997085,1,2000.000000,1,COMPLETED_SUCCESSFULLY,1.002175,2.439945,3.442120,0.005090,2.445035,1.002086,6,-1.000000,""
python3action_floatoperation_job3_6,w0,python3action_floatoperation,0.997085,1,2000.000000,1,COMPLETED_SUCCESSFULLY,1.002190,2.439945,3.442135,0.005105,2.445050,1.002092,7,-1.000000,""
python3action_modeltraining_job5_0,w0,python3action_modeltraining,0.997085,1,2000.000000,1,COMPLETED_SUCCESSFULLY,1.002100,3.471546,4.473646,0.005015,3.476561,1.001445,0,-1.000000,""
python3action_image_processing_job9_1,w0,python3action_image_processing,0.997085,1,2000.000000,1,COMPLETED_SUCCESSFULLY,1.002115,3.471546,4.473661,0.005030,3.476576,1.001449,1,-1.000000,""
python3action_linpack_job24_10,w0,python3action_linpack,0.997085,1,2000.000000,1,COMPLETED_SUCCESSFULLY,1.002250,5.760927,6.763177,0.005165,5.766092,1.000897,11,-1.000000,""
5_updated,w0,python3action_modeltraining_reviews50mb_neowise,0.997085,1,2000.000000,1,COMPLETED_SUCCESSFULLY,4.473661,22.799998,27.273659,3.476576,26.276574,1.152481,0,-1.000000,""
5,w0,python3action_modeltraining_reviews50mb,0.000000,1,-1.000000,1,COMPLETED_SUCCESSFULLY,27.273674,0.000010,27.273684,27.273674,27.273684,2727368.400201,0,-1.000000,""
python3action_image_processing_job11_1,w0,python3action_image_processing_reduced_0.86,0.997085,1,2000.000000,1,COMPLETED_SUCCESSFULLY,27.273704,0.000000,27.273704,26.276619,26.276619,4726013241378.261719,0,-1.000000,""
python3action_facedetection_job6_7,w0,python3action_facedetection,0.997085,1,2000.000000,1,COMPLETED_SUCCESSFULLY,1.002205,30.499683,31.501888,0.005120,30.504803,1.000168,8,-1.000000,""
python3action_facedetection_job8_8,w0,python3action_facedetection,0.997085,1,2000.000000,1,COMPLETED_SUCCESSFULLY,1.002220,30.499683,31.501903,0.005135,30.504818,1.000168,9,-1.000000,""
9_updated,w0,python3action_imageprocessing_SampleImage_60mb_neowise,0.997085,1,2000.000000,1,COMPLETED_SUCCESSFULLY,4.473691,37.500000,41.973691,3.476606,40.976606,1.092709,1,-1.000000,""
9,w0,python3action_imageprocessing_SampleImage_60mb,0.000000,1,-1.000000,1,COMPLETED_SUCCESSFULLY,41.973706,0.000010,41.973716,41.973706,41.973716,4197371.600402,1,-1.000000,""
7_updated,w0,python3action_pyaes_3000_troll,0.997085,1,2000.000000,1,COMPLETED_SUCCESSFULLY,1.870074,57.166677,59.036751,0.872989,58.039666,1.015271,4,-1.000000,""
7,w0,python3action_pyaes_3000,0.000000,1,-1.000000,1,COMPLETED_SUCCESSFULLY,59.036766,0.000010,59.036776,59.036766,59.036776,5903677.600201,4,-1.000000,""
11_updated,w0,python3action_imageprocessing_SampleImage_60mb_neowise,0.997085,1,2000.000000,1,COMPLETED_SUCCESSFULLY,27.273734,37.500000,64.773734,26.276649,63.776649,1.700711,0,-1.000000,""
11,w0,python3action_imageprocessing_SampleImage_60mb,0.000000,1,-1.000000,1,COMPLETED_SUCCESSFULLY,64.773749,0.000010,64.773759,64.773749,64.773759,6477375.901205,0,-1.000000,""
python3action_chameleon_job22_1,w0,python3action_chameleon,0.997085,1,2000.000000,1,COMPLETED_SUCCESSFULLY,64.773779,0.243006,65.016785,63.776694,64.019700,263.449070,0,-1.000000,""
python3action_image_processing_job0_2,w0,python3action_image_processing,0.997085,1,2000.000000,1,COMPLETED_SUCCESSFULLY,1.002130,72.012455,73.014585,0.005045,72.017500,1.000070,2,-1.000000,""
python3action_image_processing_job2_11,w0,python3action_image_processing,0.997085,1,2000.000000,1,COMPLETED_SUCCESSFULLY,1.002265,72.012455,73.014720,0.005180,72.017635,1.000072,12,-1.000000,""
python3action_facedetection_job4_12,w0,python3action_facedetection,0.997085,1,2000.000000,1,COMPLETED_SUCCESSFULLY,1.002280,72.012455,73.014735,0.005195,72.017650,1.000072,13,-1.000000,""
16_updated,w0,python3action_imageprocessing_SampleImage_60mb_neowise,0.997085,1,2000.000000,1,COMPLETED_SUCCESSFULLY,41.973736,37.500000,79.473736,40.976651,78.476651,2.092711,1,-1.000000,""
16,w0,python3action_imageprocessing_SampleImage_60mb,0.000000,1,-1.000000,1,COMPLETED_SUCCESSFULLY,79.473751,0.000010,79.473761,79.473751,79.473761,7947376.101004,1,-1.000000,""
22_updated,w0,python3action_chameleon_2000_neowise,0.997085,1,2000.000000,1,COMPLETED_SUCCESSFULLY,65.016800,24.200002,89.216802,64.019715,88.219717,3.645443,0,-1.000000,""
22,w0,python3action_chameleon_2000,0.000000,1,-1.000000,1,COMPLETED_SUCCESSFULLY,89.216817,0.000010,89.216827,89.216817,89.216827,8921682.722787,0,-1.000000,""
52_updated,w0,python3action_chameleon_3000_yeti,0.997085,1,2000.000000,1,COMPLETED_SUCCESSFULLY,1.894869,93.000000,94.894869,0.897784,93.897784,1.009654,5,-1.000000,""
52,w0,python3action_chameleon_3000,0.000000,1,-1.000000,1,COMPLETED_SUCCESSFULLY,94.894884,0.000010,94.894894,94.894884,94.894894,9489489.449765,5,-1.000000,""
0_updated,w0,python3action_imageprocessing_SampleImage_40mb_taurus,0.997085,1,2000.000000,1,COMPLETED_SUCCESSFULLY,73.014600,32.600046,105.614646,72.017515,104.617561,3.209123,2,-1.000000,""
0,w0,python3action_imageprocessing_SampleImage_40mb,0.000000,1,-1.000000,1,COMPLETED_SUCCESSFULLY,105.614661,0.000010,105.614671,105.614661,105.614671,10561467.145163,2,-1.000000,""
2_updated,w0,python3action_imageprocessing_SampleImage_40mb_taurus,0.997085,1,2000.000000,1,COMPLETED_SUCCESSFULLY,73.014735,32.600046,105.614781,72.017650,104.617696,3.209127,12,-1.000000,""
2,w0,python3action_imageprocessing_SampleImage_40mb,0.000000,1,-1.000000,1,COMPLETED_SUCCESSFULLY,105.614796,0.000010,105.614806,105.614796,105.614806,10561480.646970,12,-1.000000,""
python3action_linpack_job10_3,w0,python3action_linpack,0.997085,1,2000.000000,1,COMPLETED_SUCCESSFULLY,105.614691,5.760927,111.375619,104.617606,110.378534,19.159856,2,-1.000000,""
python3action_linpack_job14_12,w0,python3action_linpack,0.997085,1,2000.000000,1,COMPLETED_SUCCESSFULLY,105.614826,5.760927,111.375754,104.617741,110.378669,19.159879,12,-1.000000,""
24_updated,w0,python3action_linpack_6000_orion,0.997085,1,2000.000000,1,COMPLETED_SUCCESSFULLY,6.763192,106.000000,112.763192,5.766107,111.766107,1.054397,11,-1.000000,""
24,w0,python3action_linpack_6000,0.000000,1,-1.000000,1,COMPLETED_SUCCESSFULLY,112.763207,0.000010,112.763217,112.763207,112.763217,11276321.725480,11,-1.000000,""
30_updated,w0,python3action_imageprocessing_SampleImage_60mb_neowise,0.997085,1,2000.000000,1,COMPLETED_SUCCESSFULLY,79.473781,37.500000,116.973781,78.476696,115.976696,3.092712,1,-1.000000,""
30,w0,python3action_imageprocessing_SampleImage_60mb,0.000000,1,-1.000000,1,COMPLETED_SUCCESSFULLY,116.973796,0.000010,116.973806,116.973796,116.973806,11697380.601606,1,-1.000000,""
python3action_modeltraining_job50_2,w0,python3action_modeltraining_reduced_0.94,0.997085,1,2000.000000,1,COMPLETED_SUCCESSFULLY,116.973826,0.000000,116.973826,115.976741,115.976741,20872474729927.468750,1,-1.000000,""
40_updated,w0,python3action_modeltraining_reviews100mb_neowise,0.997085,1,2000.000000,1,COMPLETED_SUCCESSFULLY,89.216847,43.399999,132.616846,88.219762,131.619761,3.032713,0,-1.000000,""
40,w0,python3action_modeltraining_reviews100mb,0.000000,1,-1.000000,1,COMPLETED_SUCCESSFULLY,132.616861,0.000010,132.616871,132.616861,132.616871,13261687.112197,0,-1.000000,""
1_updated,w0,python3action_floatoperation_200000000_nova,0.997085,1,2000.000000,1,COMPLETED_SUCCESSFULLY,3.442135,135.399990,138.842126,2.445050,137.845041,1.018058,6,-1.000000,""
1,w0,python3action_floatoperation_200000000,0.000000,1,-1.000000,1,COMPLETED_SUCCESSFULLY,138.842141,0.000010,138.842151,138.842141,138.842151,13884215.100201,6,-1.000000,""
3_updated,w0,python3action_floatoperation_200000000_nova,0.997085,1,2000.000000,1,COMPLETED_SUCCESSFULLY,3.442165,135.399990,138.842156,2.445080,137.845071,1.018058,7,-1.000000,""
3,w0,python3action_floatoperation_200000000,0.000000,1,-1.000000,1,COMPLETED_SUCCESSFULLY,138.842186,0.000010,138.842196,138.842186,138.842196,13884219.600402,7,-1.000000,""
21_updated,w0,python3action_pyaes_4000_nova,0.997085,1,2000.000000,1,COMPLETED_SUCCESSFULLY,3.137208,139.600010,142.737218,2.140123,141.740133,1.015330,10,-1.000000,""
21,w0,python3action_pyaes_4000,0.000000,1,-1.000000,1,COMPLETED_SUCCESSFULLY,142.737233,0.000010,142.737243,142.737233,142.737243,14273724.303074,10,-1.000000,""
10_updated,w0,python3action_linpack_5000_taurus,0.997085,1,2000.000000,1,COMPLETED_SUCCESSFULLY,111.375634,38.500058,149.875692,110.378549,148.878607,3.866971,2,-1.000000,""
10,w0,python3action_linpack_5000,0.000000,1,-1.000000,1,COMPLETED_SUCCESSFULLY,149.875707,0.000010,149.875717,149.875707,149.875717,14987571.700201,2,-1.000000,""
14_updated,w0,python3action_linpack_5000_taurus,0.997085,1,2000.000000,1,COMPLETED_SUCCESSFULLY,111.375769,38.500058,149.875827,110.378684,148.878742,3.866975,12,-1.000000,""
14,w0,python3action_linpack_5000,0.000000,1,-1.000000,1,COMPLETED_SUCCESSFULLY,149.875842,0.000010,149.875852,149.875842,149.875852,14987585.200201,12,-1.000000,""
python3action_video_processing_job19_12,w0,python3action_video_processing_reduced_0.91,0.997085,1,2000.000000,1,COMPLETED_SUCCESSFULLY,149.875872,0.000000,149.875872,148.878787,148.878787,1290834558442.083252,12,-1.000000,""
50_updated,w0,python3action_modeltraining_reviews100mb_neowise,0.997085,1,2000.000000,1,COMPLETED_SUCCESSFULLY,116.973856,43.399999,160.373855,115.976771,159.376770,3.672276,1,-1.000000,""
50,w0,python3action_modeltraining_reviews100mb,0.000000,1,-1.000000,1,COMPLETED_SUCCESSFULLY,160.373870,0.000010,160.373880,160.373870,160.373880,16037388.000201,1,-1.000000,""
python3action_chameleon_job57_2,w0,python3action_chameleon,0.997085,1,2000.000000,1,COMPLETED_SUCCESSFULLY,160.373900,0.243006,160.616906,159.376815,159.619821,656.855521,1,-1.000000,""
12_updated,w0,python3action_pyaes_4000_troll,0.997085,1,2000.000000,1,COMPLETED_SUCCESSFULLY,59.036796,102.333333,161.370129,58.039711,160.373044,1.567163,4,-1.000000,""
12,w0,python3action_pyaes_4000,0.000000,1,-1.000000,1,COMPLETED_SUCCESSFULLY,161.370144,0.000010,161.370154,161.370144,161.370154,16137015.434137,4,-1.000000,""
python3action_video_processing_job36_10,w0,python3action_video_processing,0.997085,1,2000.000000,1,COMPLETED_SUCCESSFULLY,142.737263,30.499683,173.236946,141.740178,172.239861,5.647267,10,-1.000000,""
54_updated,w0,python3action_modeltraining_reviews100mb_neowise,0.997085,1,2000.000000,1,COMPLETED_SUCCESSFULLY,132.616891,43.399999,176.016890,131.619806,175.019805,4.032715,0,-1.000000,""
54,w0,python3action_modeltraining_reviews100mb,0.000000,1,-1.000000,1,COMPLETED_SUCCESSFULLY,176.016905,0.000010,176.016915,176.016905,176.016915,17601691.501606,0,-1.000000,""
18_updated,w0,python3action_imageprocessing_SampleImage_40mb_taurus,0.997085,1,2000.000000,1,COMPLETED_SUCCESSFULLY,149.875737,32.600046,182.475783,148.878652,181.478698,5.566823,2,-1.000000,""
18,w0,python3action_imageprocessing_SampleImage_40mb,0.000000,1,-1.000000,1,COMPLETED_SUCCESSFULLY,182.475798,0.000010,182.475808,182.475798,182.475808,18247580.813881,2,-1.000000,""
57_updated,w0,python3action_chameleon_2000_neowise,0.997085,1,2000.000000,1,COMPLETED_SUCCESSFULLY,160.616921,24.200002,184.816923,159.619836,183.819838,7.595860,1,-1.000000,""
57,w0,python3action_chameleon_2000,0.000000,1,-1.000000,1,COMPLETED_SUCCESSFULLY,184.816938,0.000010,184.816948,184.816938,184.816948,18481694.822787,1,-1.000000,""
116_updated,w0,python3action_chameleon_3000_yeti,0.997085,1,2000.000000,1,COMPLETED_SUCCESSFULLY,94.894915,93.000000,187.894915,93.897830,186.897830,2.009654,5,-1.000000,""
116,w0,python3action_chameleon_3000,0.000000,1,-1.000000,1,COMPLETED_SUCCESSFULLY,187.894930,0.000010,187.894940,187.894930,187.894940,18789494.000201,5,-1.000000,""
6_updated,w0,python3action_facedetection_SampleVideo_30mb_nova,0.997085,1,2000.000000,1,COMPLETED_SUCCESSFULLY,31.501903,160.399990,191.901893,30.504818,190.904808,1.190180,8,-1.000000,""
6,w0,python3action_facedetection_SampleVideo_30mb,0.000000,1,-1.000000,1,COMPLETED_SUCCESSFULLY,191.901908,0.000010,191.901918,191.901908,191.901918,19190191.800201,8,-1.000000,""
8_updated,w0,python3action_facedetection_SampleVideo_30mb_nova,0.997085,1,2000.000000,1,COMPLETED_SUCCESSFULLY,31.501933,160.399990,191.901923,30.504848,190.904838,1.190180,9,-1.000000,""
8,w0,python3action_facedetection_SampleVideo_30mb,0.000000,1,-1.000000,1,COMPLETED_SUCCESSFULLY,191.901968,0.000010,191.901978,191.901968,191.901978,19190197.801004,9,-1.000000,""
python3action_floatoperation_job33_8,w0,python3action_floatoperation,0.997085,1,2000.000000,1,COMPLETED_SUCCESSFULLY,191.901938,2.439945,194.341883,190.904853,193.344798,79.241448,8,-1.000000,""
python3action_floatoperation_job35_9,w0,python3action_floatoperation,0.997085,1,2000.000000,1,COMPLETED_SUCCESSFULLY,191.901998,2.439945,194.341943,190.904913,193.344858,79.241473,9,-1.000000,""
58_updated,w0,python3action_chameleon_2000_neowise,0.997085,1,2000.000000,1,COMPLETED_SUCCESSFULLY,176.016935,24.200002,200.216937,175.019850,199.219852,8.232225,0,-1.000000,""
58,w0,python3action_chameleon_2000,0.000000,1,-1.000000,1,COMPLETED_SUCCESSFULLY,200.216952,0.000010,200.216962,200.216952,200.216962,20021696.224594,0,-1.000000,""
25_updated,w0,python3action_floatoperation_100000000_nova,0.997085,1,2000.000000,1,COMPLETED_SUCCESSFULLY,138.842171,66.200020,205.042191,137.845086,204.045106,3.082251,6,-1.000000,""
25,w0,python3action_floatoperation_100000000,0.000000,1,-1.000000,1,COMPLETED_SUCCESSFULLY,205.042206,0.000010,205.042216,205.042206,205.042216,20504221.600201,6,-1.000000,""
27_updated,w0,python3action_floatoperation_100000000_nova,0.997085,1,2000.000000,1,COMPLETED_SUCCESSFULLY,138.842216,66.200020,205.042236,137.845131,204.045151,3.082252,7,-1.000000,""
27,w0,python3action_floatoperation_100000000,0.000000,1,-1.000000,1,COMPLETED_SUCCESSFULLY,205.042266,0.000010,205.042276,205.042266,205.042276,20504227.600201,7,-1.000000,""
4_updated,w0,python3action_facedetection_SampleVideo_50mb_taurus,0.997085,1,2000.000000,1,COMPLETED_SUCCESSFULLY,73.014765,134.600046,207.614811,72.017680,206.617726,1.535049,13,-1.000000,""
4,w0,python3action_facedetection_SampleVideo_50mb,0.000000,1,-1.000000,1,COMPLETED_SUCCESSFULLY,207.614826,0.000010,207.614836,207.614826,207.614836,20761483.647371,13,-1.000000,""
python3action_video_processing_job15_13,w0,python3action_video_processing_reduced_0.91,0.997085,1,2000.000000,1,COMPLETED_SUCCESSFULLY,207.614856,0.000000,207.614856,206.617771,206.617771,1791453068467.663086,13,-1.000000,""
26_updated,w0,python3action_imageprocessing_SampleImage_40mb_taurus,0.997085,1,2000.000000,1,COMPLETED_SUCCESSFULLY,182.475828,32.600046,215.075874,181.478743,214.078789,6.566825,2,-1.000000,""
26,w0,python3action_imageprocessing_SampleImage_40mb,0.000000,1,-1.000000,1,COMPLETED_SUCCESSFULLY,215.075889,0.000010,215.075899,215.075889,215.075899,21507589.927562,2,-1.000000,""
python3action_video_processing_job37_3,w0,python3action_video_processing_reduced_0.91,0.997085,1,2000.000000,1,COMPLETED_SUCCESSFULLY,215.075919,0.000000,215.075919,214.078834,214.078834,1856143263095.626709,2,-1.000000,""
28_updated,w0,python3action_linpack_6000_orion,0.997085,1,2000.000000,1,COMPLETED_SUCCESSFULLY,112.763237,106.000000,218.763237,111.766152,217.766152,2.054398,11,-1.000000,""
28,w0,python3action_linpack_6000,0.000000,1,-1.000000,1,COMPLETED_SUCCESSFULLY,218.763252,0.000010,218.763262,218.763252,218.763262,21876326.226082,11,-1.000000,""
75_updated,w0,python3action_modeltraining_reviews100mb_neowise,0.997085,1,2000.000000,1,COMPLETED_SUCCESSFULLY,184.816968,43.399999,228.216967,183.819883,227.219882,5.235481,1,-1.000000,""
75,w0,python3action_modeltraining_reviews100mb,0.000000,1,-1.000000,1,COMPLETED_SUCCESSFULLY,228.216982,0.000010,228.216992,228.216982,228.216992,22821699.212197,1,-1.000000,""
python3action_modeltraining_job39_6,w0,python3action_modeltraining,0.997085,1,2000.000000,1,COMPLETED_SUCCESSFULLY,205.042236,30.499683,235.541918,204.045151,234.544833,7.690075,6,-1.000000,""
python3action_facedetection_job42_7,w0,python3action_facedetection,0.997085,1,2000.000000,1,COMPLETED_SUCCESSFULLY,205.042296,30.499683,235.541979,204.045211,234.544894,7.690077,7,-1.000000,""
83_updated,w0,python3action_imageprocessing_SampleImage_60mb_neowise,0.997085,1,2000.000000,1,COMPLETED_SUCCESSFULLY,200.216982,37.500000,237.716982,199.219897,236.719897,6.312531,0,-1.000000,""
83,w0,python3action_imageprocessing_SampleImage_60mb,0.000000,1,-1.000000,1,COMPLETED_SUCCESSFULLY,237.716997,0.000010,237.717007,237.716997,237.717007,23771700.725196,0,-1.000000,""
33_updated,w0,python3action_floatoperation_100000000_nova,0.997085,1,2000.000000,1,COMPLETED_SUCCESSFULLY,194.341898,66.200020,260.541918,193.344813,259.544833,3.920616,8,-1.000000,""
33,w0,python3action_floatoperation_100000000,0.000000,1,-1.000000,1,COMPLETED_SUCCESSFULLY,260.541933,0.000010,260.541943,260.541933,260.541943,26054194.300201,8,-1.000000,""
python3action_video_processing_job43_8,w0,python3action_video_processing_reduced_0.91,0.997085,1,2000.000000,1,COMPLETED_SUCCESSFULLY,260.541963,0.000000,260.541963,259.544878,259.544878,5315438627192.190430,8,-1.000000,""
92_updated,w0,python3action_chameleon_2000_neowise,0.997085,1,2000.000000,1,COMPLETED_SUCCESSFULLY,237.717027,24.200002,261.917029,236.719942,260.919944,10.781815,0,-1.000000,""
92,w0,python3action_chameleon_2000,0.000000,1,-1.000000,1,COMPLETED_SUCCESSFULLY,261.917044,0.000010,261.917054,261.917044,261.917054,26191705.448184,0,-1.000000,""
13_updated,w0,python3action_pyaes_4000_troll,0.997085,1,2000.000000,1,COMPLETED_SUCCESSFULLY,161.370174,102.333333,263.703508,160.373089,262.706423,2.567164,4,-1.000000,""
13,w0,python3action_pyaes_4000,0.000000,1,-1.000000,1,COMPLETED_SUCCESSFULLY,263.703523,0.000010,263.703533,263.703523,263.703533,26370353.300201,4,-1.000000,""
85_updated,w0,python3action_imageprocessing_SampleImage_60mb_neowise,0.997085,1,2000.000000,1,COMPLETED_SUCCESSFULLY,228.217012,37.500000,265.717012,227.219927,264.719927,7.059198,1,-1.000000,""
85,w0,python3action_imageprocessing_SampleImage_60mb,0.000000,1,-1.000000,1,COMPLETED_SUCCESSFULLY,265.717027,0.000010,265.717037,265.717027,265.717037,26571703.712799,1,-1.000000,""
36_updated,w0,python3action_videoprocessing_SampleVideo_30mb_nova,0.997085,1,2000.000000,1,COMPLETED_SUCCESSFULLY,173.236961,106.799980,280.036941,172.239876,279.039856,2.612733,10,-1.000000,""
36,w0,python3action_videoprocessing_SampleVideo_30mb,0.000000,1,-1.000000,1,COMPLETED_SUCCESSFULLY,280.036956,0.000010,280.036966,280.036956,280.036966,28003696.646609,10,-1.000000,""
118_updated,w0,python3action_chameleon_3000_yeti,0.997085,1,2000.000000,1,COMPLETED_SUCCESSFULLY,187.894960,93.000000,280.894960,186.897875,279.897875,3.009655,5,-1.000000,""
118,w0,python3action_chameleon_3000,0.000000,1,-1.000000,1,COMPLETED_SUCCESSFULLY,280.894975,0.000010,280.894985,280.894975,280.894985,28089498.500803,5,-1.000000,""
97_updated,w0,python3action_chameleon_2000_neowise,0.997085,1,2000.000000,1,COMPLETED_SUCCESSFULLY,261.917074,24.200002,286.117077,260.919989,285.119992,11.781817,0,-1.000000,""
97,w0,python3action_chameleon_2000,0.000000,1,-1.000000,1,COMPLETED_SUCCESSFULLY,286.117092,0.000010,286.117102,286.117092,286.117102,28611710.200201,0,-1.000000,""
93_updated,w0,python3action_imageprocessing_SampleImage_60mb_neowise,0.997085,1,2000.000000,1,COMPLETED_SUCCESSFULLY,265.717057,37.500000,303.217057,264.719972,302.219972,8.059199,1,-1.000000,""
93,w0,python3action_imageprocessing_SampleImage_60mb,0.000000,1,-1.000000,1,COMPLETED_SUCCESSFULLY,303.217072,0.000010,303.217082,303.217072,303.217082,30321708.213401,1,-1.000000,""
19_updated,w0,python3action_videoprocessing_SampleVideo_50mb_taurus,0.997085,1,2000.000000,1,COMPLETED_SUCCESSFULLY,149.875902,154.250029,304.125931,148.878817,303.128846,1.965179,12,-1.000000,""
19,w0,python3action_videoprocessing_SampleVideo_50mb,0.000000,1,-1.000000,1,COMPLETED_SUCCESSFULLY,304.125946,0.000010,304.125956,304.125946,304.125956,30412595.600201,12,-1.000000,""
101_updated,w0,python3action_modeltraining_reviews50mb_neowise,0.997085,1,2000.000000,1,COMPLETED_SUCCESSFULLY,286.117122,22.799998,308.917120,285.120037,307.920035,13.505266,0,-1.000000,""
101,w0,python3action_modeltraining_reviews50mb,0.000000,1,-1.000000,1,COMPLETED_SUCCESSFULLY,308.917135,0.000010,308.917145,308.917135,308.917145,30891714.500201,0,-1.000000,""
39_updated,w0,python3action_modeltraining_reviews100mb_nova,0.997085,1,2000.000000,1,COMPLETED_SUCCESSFULLY,235.541933,79.600010,315.141943,234.544848,314.144858,3.946543,6,-1.000000,""
39,w0,python3action_modeltraining_reviews100mb,0.000000,1,-1.000000,1,COMPLETED_SUCCESSFULLY,315.141958,0.000010,315.141968,315.141958,315.141968,31514196.800201,6,-1.000000,""
python3action_facedetection_job56_6,w0,python3action_facedetection_reduced_0.91,0.997085,1,2000.000000,1,COMPLETED_SUCCESSFULLY,315.141988,0.000000,315.141988,314.144903,314.144903,71772669851780.187500,6,-1.000000,""
31_updated,w0,python3action_linpack_6000_orion,0.997085,1,2000.000000,1,COMPLETED_SUCCESSFULLY,218.763282,106.000000,324.763282,217.766197,323.766197,3.054398,11,-1.000000,""
31,w0,python3action_linpack_6000,0.000000,1,-1.000000,1,COMPLETED_SUCCESSFULLY,324.763297,0.000010,324.763307,324.763297,324.763307,32476330.726685,11,-1.000000,""
100_updated,w0,python3action_chameleon_2000_neowise,0.997085,1,2000.000000,1,COMPLETED_SUCCESSFULLY,303.217102,24.200002,327.417104,302.220017,326.420019,13.488429,1,-1.000000,""
100,w0,python3action_chameleon_2000,0.000000,1,-1.000000,1,COMPLETED_SUCCESSFULLY,327.417119,0.000010,327.417129,327.417119,327.417129,32741712.936389,1,-1.000000,""
35_updated,w0,python3action_floatoperation_200000000_nova,0.997085,1,2000.000000,1,COMPLETED_SUCCESSFULLY,194.341958,135.399990,329.741949,193.344873,328.744864,2.427953,9,-1.000000,""
35,w0,python3action_floatoperation_200000000,0.000000,1,-1.000000,1,COMPLETED_SUCCESSFULLY,329.741964,0.000010,329.741974,329.741964,329.741974,32974197.400201,9,-1.000000,""
python3action_modeltraining_job51_9,w0,python3action_modeltraining_reduced_0.94,0.997085,1,2000.000000,1,COMPLETED_SUCCESSFULLY,329.741994,0.000000,329.741994,328.744909,328.744909,6732644470767.689453,9,-1.000000,""
104_updated,w0,python3action_imageprocessing_SampleImage_60mb_neowise,0.997085,1,2000.000000,1,COMPLETED_SUCCESSFULLY,308.917165,37.500000,346.417165,307.920080,345.420080,9.211202,0,-1.000000,""
104,w0,python3action_imageprocessing_SampleImage_60mb,0.000000,1,-1.000000,1,COMPLETED_SUCCESSFULLY,346.417180,0.000010,346.417190,346.417180,346.417190,34641719.000803,0,-1.000000,""
103_updated,w0,python3action_modeltraining_reviews50mb_neowise,0.997085,1,2000.000000,1,COMPLETED_SUCCESSFULLY,327.417149,22.799998,350.217147,326.420064,349.220062,15.316671,1,-1.000000,""
103,w0,python3action_modeltraining_reviews50mb,0.000000,1,-1.000000,1,COMPLETED_SUCCESSFULLY,350.217162,0.000010,350.217172,350.217162,350.217172,35021717.214606,1,-1.000000,""
15_updated,w0,python3action_videoprocessing_SampleVideo_50mb_taurus,0.997085,1,2000.000000,1,COMPLETED_SUCCESSFULLY,207.614886,154.250029,361.864915,206.617801,360.867830,2.339499,13,-1.000000,""
15,w0,python3action_videoprocessing_SampleVideo_50mb,0.000000,1,-1.000000,1,COMPLETED_SUCCESSFULLY,361.864930,0.000010,361.864940,361.864930,361.864940,36186494.031549,13,-1.000000,""
python3action_image_processing_job23_13,w0,python3action_image_processing_reduced_1.73,0.997085,1,2000.000000,1,COMPLETED_SUCCESSFULLY,361.864960,0.000000,361.864960,360.867875,360.867875,3128858945330.693359,13,-1.000000,""
17_updated,w0,python3action_pyaes_4000_troll,0.997085,1,2000.000000,1,COMPLETED_SUCCESSFULLY,263.703553,102.333333,366.036886,262.706468,365.039801,3.567164,4,-1.000000,""
17,w0,python3action_pyaes_4000,0.000000,1,-1.000000,1,COMPLETED_SUCCESSFULLY,366.036901,0.000010,366.036911,366.036901,366.036911,36603691.134137,4,-1.000000,""
43_updated,w0,python3action_videoprocessing_SampleVideo_30mb_nova,0.997085,1,2000.000000,1,COMPLETED_SUCCESSFULLY,260.541993,106.799980,367.341973,259.544908,366.344888,3.430196,8,-1.000000,""
43,w0,python3action_videoprocessing_SampleVideo_30mb,0.000000,1,-1.000000,1,COMPLETED_SUCCESSFULLY,367.341988,0.000010,367.341998,367.341988,367.341998,36734199.847412,8,-1.000000,""
37_updated,w0,python3action_videoprocessing_SampleVideo_50mb_taurus,0.997085,1,2000.000000,1,COMPLETED_SUCCESSFULLY,215.075949,154.250029,369.325978,214.078864,368.328893,2.387869,2,-1.000000,""
37,w0,python3action_videoprocessing_SampleVideo_50mb,0.000000,1,-1.000000,1,COMPLETED_SUCCESSFULLY,369.325993,0.000010,369.326003,369.325993,369.326003,36932600.311740,2,-1.000000,""
python3action_pyaes_job60_8,w0,python3action_pyaes,0.997085,1,2000.000000,1,COMPLETED_SUCCESSFULLY,367.342018,2.134958,369.476977,366.344933,368.479892,172.593489,8,-1.000000,""
114_updated,w0,python3action_chameleon_2000_neowise,0.997085,1,2000.000000,1,COMPLETED_SUCCESSFULLY,346.417210,24.200002,370.617212,345.420125,369.620127,15.273558,0,-1.000000,""
114,w0,python3action_chameleon_2000,0.000000,1,-1.000000,1,COMPLETED_SUCCESSFULLY,370.617227,0.000010,370.617237,370.617227,370.617237,37061723.723791,0,-1.000000,""
123_updated,w0,python3action_chameleon_3000_yeti,0.997085,1,2000.000000,1,COMPLETED_SUCCESSFULLY,280.895005,93.000000,373.895005,279.897920,372.897920,4.009655,5,-1.000000,""
123,w0,python3action_chameleon_3000,0.000000,1,-1.000000,1,COMPLETED_SUCCESSFULLY,373.895020,0.000010,373.895030,373.895020,373.895030,37389503.001406,5,-1.000000,""
112_updated,w0,python3action_chameleon_2000_neowise,0.997085,1,2000.000000,1,COMPLETED_SUCCESSFULLY,350.217192,24.200002,374.417194,349.220107,373.420109,15.430582,1,-1.000000,""
112,w0,python3action_chameleon_2000,0.000000,1,-1.000000,1,COMPLETED_SUCCESSFULLY,374.417209,0.000010,374.417219,374.417209,374.417219,37441721.937594,1,-1.000000,""
53_updated,w0,python3action_videoprocessing_SampleVideo_30mb_nova,0.997085,1,2000.000000,1,COMPLETED_SUCCESSFULLY,280.036986,106.799980,386.836967,279.039901,385.839882,3.612734,10,-1.000000,""
53,w0,python3action_videoprocessing_SampleVideo_30mb,0.000000,1,-1.000000,1,COMPLETED_SUCCESSFULLY,386.836982,0.000010,386.836992,386.836982,386.836992,38683699.200201,10,-1.000000,""
23_updated,w0,python3action_imageprocessing_SampleImage_40mb_taurus,0.997085,1,2000.000000,1,COMPLETED_SUCCESSFULLY,361.864990,32.600046,394.465036,360.867905,393.467951,12.069552,13,-1.000000,""
23,w0,python3action_imageprocessing_SampleImage_40mb,0.000000,1,-1.000000,1,COMPLETED_SUCCESSFULLY,394.465051,0.000010,394.465061,394.465051,394.465061,39446506.145632,13,-1.000000,""
120_updated,w0,python3action_chameleon_2000_neowise,0.997085,1,2000.000000,1,COMPLETED_SUCCESSFULLY,370.617257,24.200002,394.817259,369.620172,393.820174,16.273559,0,-1.000000,""
120,w0,python3action_chameleon_2000,0.000000,1,-1.000000,1,COMPLETED_SUCCESSFULLY,394.817274,0.000010,394.817284,394.817274,394.817284,39481728.446779,0,-1.000000,""
42_updated,w0,python3action_facedetection_SampleVideo_30mb_nova,0.997085,1,2000.000000,1,COMPLETED_SUCCESSFULLY,235.541994,160.399990,395.941984,234.544909,394.944899,2.462250,7,-1.000000,""
42,w0,python3action_facedetection_SampleVideo_30mb,0.000000,1,-1.000000,1,COMPLETED_SUCCESSFULLY,395.941999,0.000010,395.942009,395.941999,395.942009,39594200.923506,7,-1.000000,""
46_updated,w0,python3action_imageprocessing_SampleImage_40mb_taurus,0.997085,1,2000.000000,1,COMPLETED_SUCCESSFULLY,369.326023,32.600046,401.926069,368.328938,400.928984,12.298418,2,-1.000000,""
46,w0,python3action_imageprocessing_SampleImage_40mb,0.000000,1,-1.000000,1,COMPLETED_SUCCESSFULLY,401.926084,0.000010,401.926094,401.926084,401.926094,40192609.425420,2,-1.000000,""
51_updated,w0,python3action_modeltraining_reviews100mb_nova,0.997085,1,2000.000000,1,COMPLETED_SUCCESSFULLY,329.742024,79.600010,409.342034,328.744939,408.344949,5.129961,9,-1.000000,""
51,w0,python3action_modeltraining_reviews100mb,0.000000,1,-1.000000,1,COMPLETED_SUCCESSFULLY,409.342049,0.000010,409.342059,409.342049,409.342059,40934205.900201,9,-1.000000,""
117_updated,w0,python3action_modeltraining_reviews100mb_neowise,0.997085,1,2000.000000,1,COMPLETED_SUCCESSFULLY,374.417239,43.399999,417.817238,373.420154,416.820153,9.604151,1,-1.000000,""
117,w0,python3action_modeltraining_reviews100mb,0.000000,1,-1.000000,1,COMPLETED_SUCCESSFULLY,417.817253,0.000010,417.817263,417.817253,417.817263,41781726.327004,1,-1.000000,""
20_updated,w0,python3action_pyaes_3000_troll,0.997085,1,2000.000000,1,COMPLETED_SUCCESSFULLY,366.036931,57.166677,423.203608,365.039846,422.206523,7.385536,4,-1.000000,""
20,w0,python3action_pyaes_3000,0.000000,1,-1.000000,1,COMPLETED_SUCCESSFULLY,423.203623,0.000010,423.203633,423.203623,423.203633,42320363.300201,4,-1.000000,""
34_updated,w0,python3action_linpack_6000_orion,0.997085,1,2000.000000,1,COMPLETED_SUCCESSFULLY,324.763327,106.000000,430.763327,323.766242,429.766242,4.054399,11,-1.000000,""
34,w0,python3action_linpack_6000,0.000000,1,-1.000000,1,COMPLETED_SUCCESSFULLY,430.763342,0.000010,430.763352,430.763342,430.763352,43076335.227287,11,-1.000000,""
130_updated,w0,python3action_imageprocessing_SampleImage_60mb_neowise,0.997085,1,2000.000000,1,COMPLETED_SUCCESSFULLY,394.817304,37.500000,432.317304,393.820219,431.320219,11.501873,0,-1.000000,""
130,w0,python3action_imageprocessing_SampleImage_60mb,0.000000,1,-1.000000,1,COMPLETED_SUCCESSFULLY,432.317319,0.000010,432.317329,432.317319,432.317329,43231732.947381,0,-1.000000,""
62_updated,w0,python3action_linpack_5000_taurus,0.997085,1,2000.000000,1,COMPLETED_SUCCESSFULLY,401.926114,38.500058,440.426172,400.929029,439.429087,11.413725,2,-1.000000,""
62,w0,python3action_linpack_5000,0.000000,1,-1.000000,1,COMPLETED_SUCCESSFULLY,440.426187,0.000010,440.426197,440.426187,440.426197,44042619.700201,2,-1.000000,""
python3action_facedetection_job71_3,w0,python3action_facedetection_reduced_1.83,0.997085,1,2000.000000,1,COMPLETED_SUCCESSFULLY,440.426217,0.000000,440.426217,439.429132,439.429132,42243273462220.757812,2,-1.000000,""
133_updated,w0,python3action_chameleon_2000_neowise,0.997085,1,2000.000000,1,COMPLETED_SUCCESSFULLY,432.317349,24.200002,456.517352,431.320264,455.520267,18.823150,0,-1.000000,""
133,w0,python3action_chameleon_2000,0.000000,1,-1.000000,1,COMPLETED_SUCCESSFULLY,456.517367,0.000010,456.517377,456.517367,456.517377,45651737.700201,0,-1.000000,""
29_updated,w0,python3action_videoprocessing_SampleVideo_50mb_taurus,0.997085,1,2000.000000,1,COMPLETED_SUCCESSFULLY,304.125976,154.250029,458.376005,303.128891,457.378920,2.965179,12,-1.000000,""
29,w0,python3action_videoprocessing_SampleVideo_50mb,0.000000,1,-1.000000,1,COMPLETED_SUCCESSFULLY,458.376020,0.000010,458.376030,458.376020,458.376030,45837603.000201,12,-1.000000,""
121_updated,w0,python3action_modeltraining_reviews100mb_neowise,0.997085,1,2000.000000,1,COMPLETED_SUCCESSFULLY,417.817283,43.399999,461.217282,416.820198,460.220197,10.604152,1,-1.000000,""
121,w0,python3action_modeltraining_reviews100mb,0.000000,1,-1.000000,1,COMPLETED_SUCCESSFULLY,461.217297,0.000010,461.217307,461.217297,461.217307,46121730.716414,1,-1.000000,""
59_updated,w0,python3action_floatoperation_100000000_nova,0.997085,1,2000.000000,1,COMPLETED_SUCCESSFULLY,395.942029,66.200020,462.142049,394.944944,461.144964,6.965934,7,-1.000000,""
59,w0,python3action_floatoperation_100000000,0.000000,1,-1.000000,1,COMPLETED_SUCCESSFULLY,462.142064,0.000010,462.142074,462.142064,462.142074,46214207.400201,7,-1.000000,""
python3action_pyaes_job68_7,w0,python3action_pyaes,0.997085,1,2000.000000,1,COMPLETED_SUCCESSFULLY,462.142094,2.134958,464.277052,461.145009,463.279967,216.997204,7,-1.000000,""
128_updated,w0,python3action_chameleon_3000_yeti,0.997085,1,2000.000000,1,COMPLETED_SUCCESSFULLY,373.895050,93.000000,466.895050,372.897965,465.897965,5.009656,5,-1.000000,""
128,w0,python3action_chameleon_3000,0.000000,1,-1.000000,1,COMPLETED_SUCCESSFULLY,466.895065,0.000010,466.895075,466.895065,466.895075,46689507.502009,5,-1.000000,""
56_updated,w0,python3action_facedetection_SampleVideo_30mb_nova,0.997085,1,2000.000000,1,COMPLETED_SUCCESSFULLY,315.142018,160.399990,475.542008,314.144933,474.544923,2.958510,6,-1.000000,""
56,w0,python3action_facedetection_SampleVideo_30mb,0.000000,1,-1.000000,1,COMPLETED_SUCCESSFULLY,475.542023,0.000010,475.542033,475.542023,475.542033,47554203.324309,6,-1.000000,""
64_updated,w0,python3action_floatoperation_100000000_nova,0.997085,1,2000.000000,1,COMPLETED_SUCCESSFULLY,409.342079,66.200020,475.542099,408.344994,474.545014,7.168352,9,-1.000000,""
64,w0,python3action_floatoperation_100000000,0.000000,1,-1.000000,1,COMPLETED_SUCCESSFULLY,475.542114,0.000010,475.542124,475.542114,475.542124,47554212.400201,9,-1.000000,""
41_updated,w0,python3action_pyaes_3000_troll,0.997085,1,2000.000000,1,COMPLETED_SUCCESSFULLY,423.203653,57.166677,480.370330,422.206568,479.373245,8.385536,4,-1.000000,""
41,w0,python3action_pyaes_3000,0.000000,1,-1.000000,1,COMPLETED_SUCCESSFULLY,480.370345,0.000010,480.370355,480.370345,480.370355,48037035.500201,4,-1.000000,""
131_updated,w0,python3action_modeltraining_reviews50mb_neowise,0.997085,1,2000.000000,1,COMPLETED_SUCCESSFULLY,461.217327,22.799998,484.017325,460.220242,483.020240,21.185100,1,-1.000000,""
131,w0,python3action_modeltraining_reviews50mb,0.000000,1,-1.000000,1,COMPLETED_SUCCESSFULLY,484.017340,0.000010,484.017350,484.017340,484.017350,48401735.000201,1,-1.000000,""
38_updated,w0,python3action_imageprocessing_SampleImage_40mb_taurus,0.997085,1,2000.000000,1,COMPLETED_SUCCESSFULLY,458.376050,32.600046,490.976096,457.378965,489.979011,15.030010,12,-1.000000,""
38,w0,python3action_imageprocessing_SampleImage_40mb,0.000000,1,-1.000000,1,COMPLETED_SUCCESSFULLY,490.976111,0.000010,490.976121,490.976111,490.976121,49097612.113881,12,-1.000000,""
136_updated,w0,python3action_imageprocessing_SampleImage_60mb_neowise,0.997085,1,2000.000000,1,COMPLETED_SUCCESSFULLY,456.517397,37.500000,494.017397,455.520312,493.020312,13.147208,0,-1.000000,""
136,w0,python3action_imageprocessing_SampleImage_60mb,0.000000,1,-1.000000,1,COMPLETED_SUCCESSFULLY,494.017412,0.000010,494.017422,494.017412,494.017422,49401742.200803,0,-1.000000,""
60_updated,w0,python3action_pyaes_4000_nova,0.997085,1,2000.000000,1,COMPLETED_SUCCESSFULLY,369.476992,139.600010,509.077002,368.479907,508.079917,3.639541,8,-1.000000,""
60,w0,python3action_pyaes_4000,0.000000,1,-1.000000,1,COMPLETED_SUCCESSFULLY,509.077017,0.000010,509.077027,509.077017,509.077027,50907702.700201,8,-1.000000,""
135_updated,w0,python3action_imageprocessing_SampleImage_60mb_neowise,0.997085,1,2000.000000,1,COMPLETED_SUCCESSFULLY,484.017370,37.500000,521.517370,483.020285,520.520285,13.880541,1,-1.000000,""
135,w0,python3action_imageprocessing_SampleImage_60mb,0.000000,1,-1.000000,1,COMPLETED_SUCCESSFULLY,521.517385,0.000010,521.517395,521.517385,521.517395,52151739.500803,1,-1.000000,""
65_updated,w0,python3action_pyaes_4000_nova,0.997085,1,2000.000000,1,COMPLETED_SUCCESSFULLY,386.837012,139.600010,526.437022,385.839927,525.439937,3.763896,10,-1.000000,""
65,w0,python3action_pyaes_4000,0.000000,1,-1.000000,1,COMPLETED_SUCCESSFULLY,526.437037,0.000010,526.437047,526.437037,526.437047,52643704.700201,10,-1.000000,""
32_updated,w0,python3action_facedetection_SampleVideo_50mb_taurus,0.997085,1,2000.000000,1,COMPLETED_SUCCESSFULLY,394.465081,134.600046,529.065128,393.467996,528.068043,3.923238,13,-1.000000,""
32,w0,python3action_facedetection_SampleVideo_50mb,0.000000,1,-1.000000,1,COMPLETED_SUCCESSFULLY,529.065143,0.000010,529.065153,529.065143,529.065153,52906515.300201,13,-1.000000,""
python3action_linpack_job45_13,w0,python3action_linpack,0.997085,1,2000.000000,1,COMPLETED_SUCCESSFULLY,529.065173,5.760927,534.826100,528.068088,533.829015,92.663732,13,-1.000000,""
49_updated,w0,python3action_linpack_6000_orion,0.997085,1,2000.000000,1,COMPLETED_SUCCESSFULLY,430.763372,106.000000,536.763372,429.766287,535.766287,5.054399,11,-1.000000,""
49,w0,python3action_linpack_6000,0.000000,1,-1.000000,1,COMPLETED_SUCCESSFULLY,536.763387,0.000010,536.763397,536.763387,536.763397,53676339.727890,11,-1.000000,""
149_updated,w0,python3action_modeltraining_reviews100mb_neowise,0.997085,1,2000.000000,1,COMPLETED_SUCCESSFULLY,494.017442,43.399999,537.417441,493.020357,536.420356,12.359916,0,-1.000000,""
149,w0,python3action_modeltraining_reviews100mb,0.000000,1,-1.000000,1,COMPLETED_SUCCESSFULLY,537.417456,0.000010,537.417466,537.417456,537.417466,53741746.600201,0,-1.000000,""
44_updated,w0,python3action_pyaes_3000_troll,0.997085,1,2000.000000,1,COMPLETED_SUCCESSFULLY,480.370375,57.166677,537.537052,479.373290,536.539967,9.385537,4,-1.000000,""
44,w0,python3action_pyaes_3000,0.000000,1,-1.000000,1,COMPLETED_SUCCESSFULLY,537.537067,0.000010,537.537077,537.537067,537.537077,53753707.700201,4,-1.000000,""
70_updated,w0,python3action_floatoperation_100000000_nova,0.997085,1,2000.000000,1,COMPLETED_SUCCESSFULLY,475.542144,66.200020,541.742164,474.545059,540.745079,8.168352,9,-1.000000,""
70,w0,python3action_floatoperation_100000000,0.000000,1,-1.000000,1,COMPLETED_SUCCESSFULLY,541.742179,0.000010,541.742189,541.742179,541.742189,54174218.900201,9,-1.000000,""
python3action_video_processing_job86_9,w0,python3action_video_processing_reduced_1.89,0.997085,1,2000.000000,1,COMPLETED_SUCCESSFULLY,541.742209,0.000000,541.742209,540.745124,540.745124,11061498632704.226562,9,-1.000000,""
134_updated,w0,python3action_chameleon_3000_yeti,0.997085,1,2000.000000,1,COMPLETED_SUCCESSFULLY,466.895095,93.000000,559.895095,465.898010,558.898010,6.009656,5,-1.000000,""
134,w0,python3action_chameleon_3000,0.000000,1,-1.000000,1,COMPLETED_SUCCESSFULLY,559.895110,0.000010,559.895120,559.895110,559.895120,55989512.002611,5,-1.000000,""
145_updated,w0,python3action_modeltraining_reviews100mb_neowise,0.997085,1,2000.000000,1,COMPLETED_SUCCESSFULLY,521.517415,43.399999,564.917414,520.520330,563.920329,12.993556,1,-1.000000,""
145,w0,python3action_modeltraining_reviews100mb,0.000000,1,-1.000000,1,COMPLETED_SUCCESSFULLY,564.917429,0.000010,564.917439,564.917429,564.917439,56491743.900201,1,-1.000000,""
45_updated,w0,python3action_linpack_5000_taurus,0.997085,1,2000.000000,1,COMPLETED_SUCCESSFULLY,534.826115,38.500058,573.326173,533.829030,572.329088,14.865668,13,-1.000000,""
45,w0,python3action_linpack_5000,0.000000,1,-1.000000,1,COMPLETED_SUCCESSFULLY,573.326188,0.000010,573.326198,573.326188,573.326198,57332619.800201,13,-1.000000,""
152_updated,w0,python3action_imageprocessing_SampleImage_60mb_neowise,0.997085,1,2000.000000,1,COMPLETED_SUCCESSFULLY,537.417486,37.500000,574.917486,536.420401,573.920401,15.304544,0,-1.000000,""
152,w0,python3action_imageprocessing_SampleImage_60mb,0.000000,1,-1.000000,1,COMPLETED_SUCCESSFULLY,574.917501,0.000010,574.917511,574.917501,574.917511,57491751.100803,0,-1.000000,""
71_updated,w0,python3action_facedetection_SampleVideo_50mb_taurus,0.997085,1,2000.000000,1,COMPLETED_SUCCESSFULLY,440.426247,134.600046,575.026293,439.429162,574.029208,4.264703,2,-1.000000,""
71,w0,python3action_facedetection_SampleVideo_50mb,0.000000,1,-1.000000,1,COMPLETED_SUCCESSFULLY,575.026308,0.000010,575.026318,575.026308,575.026318,57502631.814283,2,-1.000000,""
150_updated,w0,python3action_modeltraining_reviews50mb_neowise,0.997085,1,2000.000000,1,COMPLETED_SUCCESSFULLY,564.917459,22.799998,587.717457,563.920374,586.720372,25.733352,1,-1.000000,""
150,w0,python3action_modeltraining_reviews50mb,0.000000,1,-1.000000,1,COMPLETED_SUCCESSFULLY,587.717472,0.000010,587.717482,587.717472,587.717482,58771748.200201,1,-1.000000,""
68_updated,w0,python3action_pyaes_4000_nova,0.997085,1,2000.000000,1,COMPLETED_SUCCESSFULLY,464.277067,139.600010,603.877077,463.279982,602.879992,4.318624,7,-1.000000,""
68,w0,python3action_pyaes_4000,0.000000,1,-1.000000,1,COMPLETED_SUCCESSFULLY,603.877092,0.000010,603.877102,603.877092,603.877102,60387710.201668,7,-1.000000,""
66_updated,w0,python3action_floatoperation_200000000_nova,0.997085,1,2000.000000,1,COMPLETED_SUCCESSFULLY,475.542053,135.399990,610.942043,474.544968,609.944958,4.504764,6,-1.000000,""
66,w0,python3action_floatoperation_200000000,0.000000,1,-1.000000,1,COMPLETED_SUCCESSFULLY,610.942058,0.000010,610.942068,610.942058,610.942068,61094206.848015,6,-1.000000,""
48_updated,w0,python3action_linpack_5000_taurus,0.997085,1,2000.000000,1,COMPLETED_SUCCESSFULLY,573.326218,38.500058,611.826276,572.329133,610.829191,15.865670,13,-1.000000,""
48,w0,python3action_linpack_5000,0.000000,1,-1.000000,1,COMPLETED_SUCCESSFULLY,611.826291,0.000010,611.826301,611.826291,611.826301,61182630.100201,13,-1.000000,""
168_updated,w0,python3action_imageprocessing_SampleImage_60mb_neowise,0.997085,1,2000.000000,1,COMPLETED_SUCCESSFULLY,574.917531,37.500000,612.417531,573.920446,611.420446,16.304545,0,-1.000000,""
168,w0,python3action_imageprocessing_SampleImage_60mb,0.000000,1,-1.000000,1,COMPLETED_SUCCESSFULLY,612.417546,0.000010,612.417556,612.417546,612.417556,61241755.601406,0,-1.000000,""
69_updated,w0,python3action_videoprocessing_SampleVideo_30mb_nova,0.997085,1,2000.000000,1,COMPLETED_SUCCESSFULLY,509.077047,106.799980,615.877027,508.079962,614.879942,5.757304,8,-1.000000,""
69,w0,python3action_videoprocessing_SampleVideo_30mb,0.000000,1,-1.000000,1,COMPLETED_SUCCESSFULLY,615.877042,0.000010,615.877052,615.877042,615.877052,61587705.247010,8,-1.000000,""
163_updated,w0,python3action_modeltraining_reviews100mb_neowise,0.997085,1,2000.000000,1,COMPLETED_SUCCESSFULLY,587.717502,43.399999,631.117501,586.720417,630.120416,14.518904,1,-1.000000,""
163,w0,python3action_modeltraining_reviews100mb,0.000000,1,-1.000000,1,COMPLETED_SUCCESSFULLY,631.117516,0.000010,631.117526,631.117516,631.117526,63111752.600201,1,-1.000000,""
72_updated,w0,python3action_videoprocessing_SampleVideo_30mb_nova,0.997085,1,2000.000000,1,COMPLETED_SUCCESSFULLY,526.437067,106.799980,633.237047,525.439982,632.239962,5.919851,10,-1.000000,""
72,w0,python3action_videoprocessing_SampleVideo_30mb,0.000000,1,-1.000000,1,COMPLETED_SUCCESSFULLY,633.237062,0.000010,633.237072,633.237062,633.237072,63323707.247010,10,-1.000000,""
python3action_modeltraining_job87_10,w0,python3action_modeltraining_reduced_1.0,0.997085,1,2000.000000,1,COMPLETED_SUCCESSFULLY,633.237092,0.000000,633.237092,632.240007,632.240007,12933120739777.332031,10,-1.000000,""
176_updated,w0,python3action_modeltraining_reviews50mb_neowise,0.997085,1,2000.000000,1,COMPLETED_SUCCESSFULLY,612.417576,22.799998,635.217574,611.420491,634.220489,27.816691,0,-1.000000,""
176,w0,python3action_modeltraining_reviews50mb,0.000000,1,-1.000000,1,COMPLETED_SUCCESSFULLY,635.217589,0.000010,635.217599,635.217589,635.217599,63521759.900201,0,-1.000000,""
55_updated,w0,python3action_pyaes_4000_troll,0.997085,1,2000.000000,1,COMPLETED_SUCCESSFULLY,537.537097,102.333333,639.870430,536.540012,638.873345,6.243062,4,-1.000000,""
55,w0,python3action_pyaes_4000,0.000000,1,-1.000000,1,COMPLETED_SUCCESSFULLY,639.870445,0.000010,639.870455,639.870445,639.870455,63987045.534136,4,-1.000000,""
61_updated,w0,python3action_linpack_6000_orion,0.997085,1,2000.000000,1,COMPLETED_SUCCESSFULLY,536.763417,106.000000,642.763417,535.766332,641.766332,6.054399,11,-1.000000,""
61,w0,python3action_linpack_6000,0.000000,1,-1.000000,1,COMPLETED_SUCCESSFULLY,642.763432,0.000010,642.763442,642.763432,642.763442,64276344.228492,11,-1.000000,""
47_updated,w0,python3action_videoprocessing_SampleVideo_50mb_taurus,0.997085,1,2000.000000,1,COMPLETED_SUCCESSFULLY,490.976141,154.250029,645.226170,489.979056,644.229085,4.176525,12,-1.000000,""
47,w0,python3action_videoprocessing_SampleVideo_50mb,0.000000,1,-1.000000,1,COMPLETED_SUCCESSFULLY,645.226185,0.000010,645.226195,645.226185,645.226195,64522619.500201,12,-1.000000,""
86_updated,w0,python3action_videoprocessing_SampleVideo_30mb_nova,0.997085,1,2000.000000,1,COMPLETED_SUCCESSFULLY,541.742239,106.799980,648.542219,540.745154,647.545134,6.063158,9,-1.000000,""
86,w0,python3action_videoprocessing_SampleVideo_30mb,0.000000,1,-1.000000,1,COMPLETED_SUCCESSFULLY,648.542234,0.000010,648.542244,648.542234,648.542244,64854224.447412,9,-1.000000,""
171_updated,w0,python3action_chameleon_3000_yeti,0.997085,1,2000.000000,1,COMPLETED_SUCCESSFULLY,559.895140,93.000000,652.895140,558.898055,651.898055,7.009657,5,-1.000000,""
171,w0,python3action_chameleon_3000,0.000000,1,-1.000000,1,COMPLETED_SUCCESSFULLY,652.895155,0.000010,652.895165,652.895155,652.895165,65289516.503213,5,-1.000000,""
184_updated,w0,python3action_modeltraining_reviews50mb_neowise,0.997085,1,2000.000000,1,COMPLETED_SUCCESSFULLY,635.217619,22.799998,658.017617,634.220534,657.020532,28.816693,0,-1.000000,""
184,w0,python3action_modeltraining_reviews50mb,0.000000,1,-1.000000,1,COMPLETED_SUCCESSFULLY,658.017632,0.000010,658.017642,658.017632,658.017642,65801764.200201,0,-1.000000,""
174_updated,w0,python3action_imageprocessing_SampleImage_60mb_neowise,0.997085,1,2000.000000,1,COMPLETED_SUCCESSFULLY,631.117546,37.500000,668.617546,630.120461,667.620461,17.803212,1,-1.000000,""
174,w0,python3action_imageprocessing_SampleImage_60mb,0.000000,1,-1.000000,1,COMPLETED_SUCCESSFULLY,668.617561,0.000010,668.617571,668.617561,668.617571,66861757.100803,1,-1.000000,""
77_updated,w0,python3action_floatoperation_100000000_nova,0.997085,1,2000.000000,1,COMPLETED_SUCCESSFULLY,615.877072,66.200020,682.077092,614.879987,681.080007,10.288215,8,-1.000000,""
77,w0,python3action_floatoperation_100000000,0.000000,1,-1.000000,1,COMPLETED_SUCCESSFULLY,682.077107,0.000010,682.077117,682.077107,682.077117,68207711.701405,8,-1.000000,""
63_updated,w0,python3action_linpack_5000_taurus,0.997085,1,2000.000000,1,COMPLETED_SUCCESSFULLY,645.226215,38.500058,683.726273,644.229130,682.729188,17.733199,12,-1.000000,""
63,w0,python3action_linpack_5000,0.000000,1,-1.000000,1,COMPLETED_SUCCESSFULLY,683.726288,0.000010,683.726298,683.726288,683.726298,68372629.800201,12,-1.000000,""
73_updated,w0,python3action_modeltraining_reviews100mb_nova,0.997085,1,2000.000000,1,COMPLETED_SUCCESSFULLY,610.942088,79.600010,690.542098,609.945003,689.545013,8.662625,6,-1.000000,""
73,w0,python3action_modeltraining_reviews100mb,0.000000,1,-1.000000,1,COMPLETED_SUCCESSFULLY,690.542113,0.000010,690.542123,690.542113,690.542123,69054212.325514,6,-1.000000,""
python3action_pyaes_job88_6,w0,python3action_pyaes,0.997085,1,2000.000000,1,COMPLETED_SUCCESSFULLY,690.542143,2.134958,692.677101,689.545058,691.680016,323.978242,6,-1.000000,""
74_updated,w0,python3action_pyaes_3000_troll,0.997085,1,2000.000000,1,COMPLETED_SUCCESSFULLY,639.870475,57.166677,697.037152,638.873390,696.040067,12.175626,4,-1.000000,""
74,w0,python3action_pyaes_3000,0.000000,1,-1.000000,1,COMPLETED_SUCCESSFULLY,697.037167,0.000010,697.037177,697.037167,697.037177,69703717.700201,4,-1.000000,""
187_updated,w0,python3action_modeltraining_reviews100mb_neowise,0.997085,1,2000.000000,1,COMPLETED_SUCCESSFULLY,658.017662,43.399999,701.417661,657.020577,700.420576,16.138723,0,-1.000000,""
187,w0,python3action_modeltraining_reviews100mb,0.000000,1,-1.000000,1,COMPLETED_SUCCESSFULLY,701.417676,0.000010,701.417686,701.417676,701.417686,70141768.600201,0,-1.000000,""
180_updated,w0,python3action_imageprocessing_SampleImage_60mb_neowise,0.997085,1,2000.000000,1,COMPLETED_SUCCESSFULLY,668.617591,37.500000,706.117591,667.620506,705.120506,18.803213,1,-1.000000,""
180,w0,python3action_imageprocessing_SampleImage_60mb,0.000000,1,-1.000000,1,COMPLETED_SUCCESSFULLY,706.117606,0.000010,706.117616,706.117606,706.117616,70611761.601406,1,-1.000000,""
80_updated,w0,python3action_facedetection_SampleVideo_50mb_taurus,0.997085,1,2000.000000,1,COMPLETED_SUCCESSFULLY,575.026338,134.600046,709.626384,574.029253,708.629299,5.264703,2,-1.000000,""
80,w0,python3action_facedetection_SampleVideo_50mb,0.000000,1,-1.000000,1,COMPLETED_SUCCESSFULLY,709.626399,0.000010,709.626409,709.626399,709.626409,70962640.927963,2,-1.000000,""
87_updated,w0,python3action_modeltraining_reviews100mb_nova,0.997085,1,2000.000000,1,COMPLETED_SUCCESSFULLY,633.237122,79.600010,712.837132,632.240037,711.840047,8.942713,10,-1.000000,""
87,w0,python3action_modeltraining_reviews100mb,0.000000,1,-1.000000,1,COMPLETED_SUCCESSFULLY,712.837147,0.000010,712.837157,712.837147,712.837157,71283715.724911,10,-1.000000,""
94_updated,w0,python3action_floatoperation_100000000_nova,0.997085,1,2000.000000,1,COMPLETED_SUCCESSFULLY,648.542264,66.200020,714.742284,647.545179,713.745199,10.781646,9,-1.000000,""
94,w0,python3action_floatoperation_100000000,0.000000,1,-1.000000,1,COMPLETED_SUCCESSFULLY,714.742299,0.000010,714.742309,714.742299,714.742309,71474230.901807,9,-1.000000,""
78_updated,w0,python3action_imageprocessing_SampleImage_40mb_taurus,0.997085,1,2000.000000,1,COMPLETED_SUCCESSFULLY,683.726318,32.600046,716.326364,682.729233,715.329279,21.942585,12,-1.000000,""
78,w0,python3action_imageprocessing_SampleImage_40mb,0.000000,1,-1.000000,1,COMPLETED_SUCCESSFULLY,716.326379,0.000010,716.326389,716.326379,716.326389,71632638.913881,12,-1.000000,""
185_updated,w0,python3action_chameleon_2000_neowise,0.997085,1,2000.000000,1,COMPLETED_SUCCESSFULLY,706.117636,24.200002,730.317638,705.120551,729.320553,30.137210,1,-1.000000,""
185,w0,python3action_chameleon_2000,0.000000,1,-1.000000,1,COMPLETED_SUCCESSFULLY,730.317653,0.000010,730.317663,730.317653,730.317663,73031766.324393,1,-1.000000,""
183_updated,w0,python3action_chameleon_3000_yeti,0.997085,1,2000.000000,1,COMPLETED_SUCCESSFULLY,652.895185,93.000000,745.895185,651.898100,744.898100,8.009657,5,-1.000000,""
183,w0,python3action_chameleon_3000,0.000000,1,-1.000000,1,COMPLETED_SUCCESSFULLY,745.895200,0.000010,745.895210,745.895200,745.895210,74589521.003816,5,-1.000000,""
91_updated,w0,python3action_linpack_5000_taurus,0.997085,1,2000.000000,1,COMPLETED_SUCCESSFULLY,709.626429,38.500058,748.126487,708.629344,747.129402,19.405929,2,-1.000000,""
91,w0,python3action_linpack_5000,0.000000,1,-1.000000,1,COMPLETED_SUCCESSFULLY,748.126502,0.000010,748.126512,748.126502,748.126512,74812651.200201,2,-1.000000,""
84_updated,w0,python3action_linpack_6000_orion,0.997085,1,2000.000000,1,COMPLETED_SUCCESSFULLY,642.763462,106.000000,748.763462,641.766377,747.766377,7.054400,11,-1.000000,""
84,w0,python3action_linpack_6000,0.000000,1,-1.000000,1,COMPLETED_SUCCESSFULLY,748.763477,0.000010,748.763487,748.763477,748.763487,74876348.729094,11,-1.000000,""
102_updated,w0,python3action_pyaes_3000_troll,0.997085,1,2000.000000,1,COMPLETED_SUCCESSFULLY,697.037197,57.166677,754.203874,696.040112,753.206789,13.175627,4,-1.000000,""
102,w0,python3action_pyaes_3000,0.000000,1,-1.000000,1,COMPLETED_SUCCESSFULLY,754.203889,0.000010,754.203899,754.203889,754.203899,75420389.900201,4,-1.000000,""
76_updated,w0,python3action_facedetection_SampleVideo_30mb_nova,0.997085,1,2000.000000,1,COMPLETED_SUCCESSFULLY,603.877122,160.399990,764.277112,602.880037,763.280027,4.758604,7,-1.000000,""
76,w0,python3action_facedetection_SampleVideo_30mb,0.000000,1,-1.000000,1,COMPLETED_SUCCESSFULLY,764.277127,0.000010,764.277137,764.277127,764.277137,76427713.725374,7,-1.000000,""
python3action_video_processing_job89_7,w0,python3action_video_processing_reduced_0.91,0.997085,1,2000.000000,1,COMPLETED_SUCCESSFULLY,764.277157,0.000000,764.277157,763.280072,763.280072,15613680273435.591797,7,-1.000000,""
67_updated,w0,python3action_videoprocessing_SampleVideo_50mb_taurus,0.997085,1,2000.000000,1,COMPLETED_SUCCESSFULLY,611.826321,154.250029,766.076350,610.829236,765.079265,4.959994,13,-1.000000,""
67,w0,python3action_videoprocessing_SampleVideo_50mb,0.000000,1,-1.000000,1,COMPLETED_SUCCESSFULLY,766.076365,0.000010,766.076375,766.076365,766.076375,76607637.500201,13,-1.000000,""
190_updated,w0,python3action_imageprocessing_SampleImage_60mb_neowise,0.997085,1,2000.000000,1,COMPLETED_SUCCESSFULLY,730.317683,37.500000,767.817683,729.320598,766.820598,20.448549,1,-1.000000,""
190,w0,python3action_imageprocessing_SampleImage_60mb,0.000000,1,-1.000000,1,COMPLETED_SUCCESSFULLY,767.817698,0.000010,767.817708,767.817698,767.817708,76781770.824996,1,-1.000000,""
143_updated,w0,python3action_linpack_5000_orion,0.997085,1,2000.000000,1,COMPLETED_SUCCESSFULLY,748.763507,36.199977,784.963484,747.766422,783.966399,21.656544,11,-1.000000,""
143,w0,python3action_linpack_5000,0.000000,1,-1.000000,1,COMPLETED_SUCCESSFULLY,784.963499,0.000010,784.963509,784.963499,784.963509,78496350.923158,11,-1.000000,""
99_updated,w0,python3action_linpack_5000_taurus,0.997085,1,2000.000000,1,COMPLETED_SUCCESSFULLY,748.126532,38.500058,786.626590,747.129447,785.629505,20.405931,2,-1.000000,""
99,w0,python3action_linpack_5000,0.000000,1,-1.000000,1,COMPLETED_SUCCESSFULLY,786.626605,0.000010,786.626615,786.626605,786.626615,78662661.500201,2,-1.000000,""
90_updated,w0,python3action_videoprocessing_SampleVideo_30mb_nova,0.997085,1,2000.000000,1,COMPLETED_SUCCESSFULLY,682.077137,106.799980,788.877117,681.080052,787.880032,7.377155,8,-1.000000,""
90,w0,python3action_videoprocessing_SampleVideo_30mb,0.000000,1,-1.000000,1,COMPLETED_SUCCESSFULLY,788.877132,0.000010,788.877142,788.877132,788.877142,78887714.248215,8,-1.000000,""
110_updated,w0,python3action_imageprocessing_SampleImage_40mb_taurus,0.997085,1,2000.000000,1,COMPLETED_SUCCESSFULLY,786.626635,32.600046,819.226681,785.629550,818.229596,25.099032,2,-1.000000,""
110,w0,python3action_imageprocessing_SampleImage_40mb,0.000000,1,-1.000000,1,COMPLETED_SUCCESSFULLY,819.226696,0.000010,819.226706,819.226696,819.226706,81922670.613881,2,-1.000000,""
95_updated,w0,python3action_videoprocessing_SampleVideo_30mb_nova,0.997085,1,2000.000000,1,COMPLETED_SUCCESSFULLY,712.837177,106.799980,819.637158,711.840092,818.640073,7.665171,10,-1.000000,""
95,w0,python3action_videoprocessing_SampleVideo_30mb,0.000000,1,-1.000000,1,COMPLETED_SUCCESSFULLY,819.637173,0.000010,819.637183,819.637173,819.637183,81963718.300201,10,-1.000000,""
python3action_facedetection_job119_10,w0,python3action_facedetection_reduced_1.83,0.997085,1,2000.000000,1,COMPLETED_SUCCESSFULLY,819.637203,0.000000,819.637203,818.640118,818.640118,184636785376727.187500,10,-1.000000,""
88_updated,w0,python3action_pyaes_4000_nova,0.997085,1,2000.000000,1,COMPLETED_SUCCESSFULLY,692.677116,139.600010,832.277126,691.680031,831.280041,5.954728,6,-1.000000,""
88,w0,python3action_pyaes_4000,0.000000,1,-1.000000,1,COMPLETED_SUCCESSFULLY,832.277141,0.000010,832.277151,832.277141,832.277151,83227715.126981,6,-1.000000,""
python3action_video_processing_job105_6,w0,python3action_video_processing_reduced_1.89,0.997085,1,2000.000000,1,COMPLETED_SUCCESSFULLY,832.277171,0.000000,832.277171,831.280086,831.280086,17004690619474.626953,6,-1.000000,""
197_updated,w0,python3action_chameleon_3000_yeti,0.997085,1,2000.000000,1,COMPLETED_SUCCESSFULLY,745.895230,93.000000,838.895230,744.898145,837.898145,9.009657,5,-1.000000,""
197,w0,python3action_chameleon_3000,0.000000,1,-1.000000,1,COMPLETED_SUCCESSFULLY,838.895245,0.000010,838.895255,838.895245,838.895255,83889525.504418,5,-1.000000,""
115_updated,w0,python3action_floatoperation_200000000_nova,0.997085,1,2000.000000,1,COMPLETED_SUCCESSFULLY,714.742329,135.399990,850.142319,713.745244,849.145234,6.271383,9,-1.000000,""
115,w0,python3action_floatoperation_200000000,0.000000,1,-1.000000,1,COMPLETED_SUCCESSFULLY,850.142334,0.000010,850.142344,850.142334,850.142344,85014234.425513,9,-1.000000,""
141_updated,w0,python3action_imageprocessing_SampleImage_40mb_taurus,0.997085,1,2000.000000,1,COMPLETED_SUCCESSFULLY,819.226726,32.600046,851.826772,818.229641,850.829687,26.099033,2,-1.000000,""
141,w0,python3action_imageprocessing_SampleImage_40mb,0.000000,1,-1.000000,1,COMPLETED_SUCCESSFULLY,851.826787,0.000010,851.826797,851.826787,851.826797,85182679.727562,2,-1.000000,""
106_updated,w0,python3action_pyaes_4000_troll,0.997085,1,2000.000000,1,COMPLETED_SUCCESSFULLY,754.203919,102.333333,856.537252,753.206834,855.540167,8.360327,4,-1.000000,""
106,w0,python3action_pyaes_4000,0.000000,1,-1.000000,1,COMPLETED_SUCCESSFULLY,856.537267,0.000010,856.537277,856.537267,856.537277,85653727.734136,4,-1.000000,""
81_updated,w0,python3action_videoprocessing_SampleVideo_50mb_taurus,0.997085,1,2000.000000,1,COMPLETED_SUCCESSFULLY,716.326409,154.250029,870.576438,715.329324,869.579353,5.637466,12,-1.000000,""
81,w0,python3action_videoprocessing_SampleVideo_50mb,0.000000,1,-1.000000,1,COMPLETED_SUCCESSFULLY,870.576453,0.000010,870.576463,870.576453,870.576463,87057646.300201,12,-1.000000,""
89_updated,w0,python3action_videoprocessing_SampleVideo_30mb_nova,0.997085,1,2000.000000,1,COMPLETED_SUCCESSFULLY,764.277187,106.799980,871.077168,763.280102,870.080083,8.146819,7,-1.000000,""
89,w0,python3action_videoprocessing_SampleVideo_30mb,0.000000,1,-1.000000,1,COMPLETED_SUCCESSFULLY,871.077183,0.000010,871.077193,871.077183,871.077193,87107719.300201,7,-1.000000,""
144_updated,w0,python3action_linpack_6000_orion,0.997085,1,2000.000000,1,COMPLETED_SUCCESSFULLY,784.963529,106.000000,890.963529,783.966444,889.966444,8.395910,11,-1.000000,""
144,w0,python3action_linpack_6000,0.000000,1,-1.000000,1,COMPLETED_SUCCESSFULLY,890.963544,0.000010,890.963554,890.963544,890.963554,89096355.423760,11,-1.000000,""
113_updated,w0,python3action_videoprocessing_SampleVideo_30mb_nova,0.997085,1,2000.000000,1,COMPLETED_SUCCESSFULLY,788.877162,106.799980,895.677143,787.880077,894.680058,8.377156,8,-1.000000,""
113,w0,python3action_videoprocessing_SampleVideo_30mb,0.000000,1,-1.000000,1,COMPLETED_SUCCESSFULLY,895.677158,0.000010,895.677168,895.677158,895.677168,89567716.800201,8,-1.000000,""
96_updated,w0,python3action_linpack_5000_taurus,0.997085,1,2000.000000,1,COMPLETED_SUCCESSFULLY,870.576483,38.500058,909.076541,869.579398,908.079456,23.586444,12,-1.000000,""
96,w0,python3action_linpack_5000,0.000000,1,-1.000000,1,COMPLETED_SUCCESSFULLY,909.076556,0.000010,909.076566,909.076556,909.076566,90907656.600201,12,-1.000000,""
79_updated,w0,python3action_videoprocessing_SampleVideo_50mb_taurus,0.997085,1,2000.000000,1,COMPLETED_SUCCESSFULLY,766.076395,154.250029,920.326424,765.079310,919.329339,5.959995,13,-1.000000,""
79,w0,python3action_videoprocessing_SampleVideo_50mb,0.000000,1,-1.000000,1,COMPLETED_SUCCESSFULLY,920.326439,0.000010,920.326449,920.326439,920.326449,92032644.900201,13,-1.000000,""
107_updated,w0,python3action_floatoperation_100000000_nova,0.997085,1,2000.000000,1,COMPLETED_SUCCESSFULLY,871.077213,66.200020,937.277233,870.080128,936.280148,14.143200,7,-1.000000,""
107,w0,python3action_floatoperation_100000000,0.000000,1,-1.000000,1,COMPLETED_SUCCESSFULLY,937.277248,0.000010,937.277258,937.277248,937.277258,93727725.800201,7,-1.000000,""
105_updated,w0,python3action_videoprocessing_SampleVideo_30mb_nova,0.997085,1,2000.000000,1,COMPLETED_SUCCESSFULLY,832.277201,106.799980,939.077182,831.280116,938.080097,8.783523,6,-1.000000,""
105,w0,python3action_videoprocessing_SampleVideo_30mb,0.000000,1,-1.000000,1,COMPLETED_SUCCESSFULLY,939.077197,0.000010,939.077207,939.077197,939.077207,93907720.700201,6,-1.000000,""
108_updated,w0,python3action_linpack_5000_taurus,0.997085,1,2000.000000,1,COMPLETED_SUCCESSFULLY,909.076586,38.500058,947.576644,908.079501,946.579559,24.586445,12,-1.000000,""
108,w0,python3action_linpack_5000,0.000000,1,-1.000000,1,COMPLETED_SUCCESSFULLY,947.576659,0.000010,947.576669,947.576659,947.576669,94757666.900201,12,-1.000000,""
127_updated,w0,python3action_videoprocessing_SampleVideo_30mb_nova,0.997085,1,2000.000000,1,COMPLETED_SUCCESSFULLY,850.142364,106.799980,956.942345,849.145279,955.945260,8.950800,9,-1.000000,""
127,w0,python3action_videoprocessing_SampleVideo_30mb,0.000000,1,-1.000000,1,COMPLETED_SUCCESSFULLY,956.942360,0.000010,956.942370,956.942360,956.942370,95694237.000201,9,-1.000000,""
82_updated,w0,python3action_linpack_5000_taurus,0.997085,1,2000.000000,1,COMPLETED_SUCCESSFULLY,920.326469,38.500058,958.826527,919.329384,957.829442,24.878650,13,-1.000000,""
82,w0,python3action_linpack_5000,0.000000,1,-1.000000,1,COMPLETED_SUCCESSFULLY,958.826542,0.000010,958.826552,958.826542,958.826552,95882655.200201,13,-1.000000,""
129_updated,w0,python3action_pyaes_4000_troll,0.997085,1,2000.000000,1,COMPLETED_SUCCESSFULLY,856.537297,102.333333,958.870631,855.540212,957.873546,9.360328,4,-1.000000,""
129,w0,python3action_pyaes_4000,0.000000,1,-1.000000,1,COMPLETED_SUCCESSFULLY,958.870646,0.000010,958.870656,958.870646,958.870656,95887065.600201,4,-1.000000,""
119_updated,w0,python3action_facedetection_SampleVideo_30mb_nova,0.997085,1,2000.000000,1,COMPLETED_SUCCESSFULLY,819.637233,160.399990,980.037223,818.640148,979.040138,6.103742,10,-1.000000,""
119,w0,python3action_facedetection_SampleVideo_30mb,0.000000,1,-1.000000,1,COMPLETED_SUCCESSFULLY,980.037238,0.000010,980.037248,980.037238,980.037248,98003724.824308,10,-1.000000,""
111_updated,w0,python3action_linpack_5000_taurus,0.997085,1,2000.000000,1,COMPLETED_SUCCESSFULLY,947.576689,38.500058,986.076747,946.579604,985.079662,25.586446,12,-1.000000,""
111,w0,python3action_linpack_5000,0.000000,1,-1.000000,1,COMPLETED_SUCCESSFULLY,986.076762,0.000010,986.076772,986.076762,986.076772,98607677.200201,12,-1.000000,""
python3action_facedetection_job142_12,w0,python3action_facedetection_reduced_1.83,0.997085,1,2000.000000,1,COMPLETED_SUCCESSFULLY,986.076792,0.000000,986.076792,985.079707,985.079707,95218161946312.968750,12,-1.000000,""
166_updated,w0,python3action_linpack_6000_orion,0.997085,1,2000.000000,1,COMPLETED_SUCCESSFULLY,890.963574,106.000000,996.963574,889.966489,995.966489,9.395910,11,-1.000000,""
166,w0,python3action_linpack_6000,0.000000,1,-1.000000,1,COMPLETED_SUCCESSFULLY,996.963589,0.000010,996.963599,996.963589,996.963599,99696359.924362,11,-1.000000,""
125_updated,w0,python3action_videoprocessing_SampleVideo_30mb_nova,0.997085,1,2000.000000,1,COMPLETED_SUCCESSFULLY,895.677188,106.799980,1002.477168,894.680103,1001.480083,9.377156,8,-1.000000,""
125,w0,python3action_videoprocessing_SampleVideo_30mb,0.000000,1,-1.000000,1,COMPLETED_SUCCESSFULLY,1002.477183,0.000010,1002.477193,1002.477183,1002.477193,100247719.347010,8,-1.000000,""
158_updated,w0,python3action_videoprocessing_SampleVideo_50mb_taurus,0.997085,1,2000.000000,1,COMPLETED_SUCCESSFULLY,851.826817,154.250029,1006.076846,850.829732,1005.079761,6.515913,2,-1.000000,""
158,w0,python3action_videoprocessing_SampleVideo_50mb,0.000000,1,-1.000000,1,COMPLETED_SUCCESSFULLY,1006.076861,0.000010,1006.076871,1006.076861,1006.076871,100607687.111338,2,-1.000000,""
137_updated,w0,python3action_pyaes_3000_troll,0.997085,1,2000.000000,1,COMPLETED_SUCCESSFULLY,958.870676,57.166677,1016.037353,957.873591,1015.040268,17.755803,4,-1.000000,""
137,w0,python3action_pyaes_3000,0.000000,1,-1.000000,1,COMPLETED_SUCCESSFULLY,1016.037368,0.000010,1016.037378,1016.037368,1016.037378,101603737.800201,4,-1.000000,""
161_updated,w0,python3action_imageprocessing_SampleImage_40mb_taurus,0.997085,1,2000.000000,1,COMPLETED_SUCCESSFULLY,1006.076891,32.600046,1038.676937,1005.079806,1037.679852,31.830625,2,-1.000000,""
161,w0,python3action_imageprocessing_SampleImage_40mb,0.000000,1,-1.000000,1,COMPLETED_SUCCESSFULLY,1038.676952,0.000010,1038.676962,1038.676952,1038.676962,103867696.225018,2,-1.000000,""
122_updated,w0,python3action_videoprocessing_SampleVideo_30mb_nova,0.997085,1,2000.000000,1,COMPLETED_SUCCESSFULLY,939.077227,106.799980,1045.877207,938.080142,1044.880122,9.783524,6,-1.000000,""
122,w0,python3action_videoprocessing_SampleVideo_30mb,0.000000,1,-1.000000,1,COMPLETED_SUCCESSFULLY,1045.877222,0.000010,1045.877232,1045.877222,1045.877232,104587723.247010,6,-1.000000,""
172_updated,w0,python3action_imageprocessing_SampleImage_40mb_taurus,0.997085,1,2000.000000,1,COMPLETED_SUCCESSFULLY,1038.676982,32.600046,1071.277028,1037.679897,1070.279943,32.830627,2,-1.000000,""
172,w0,python3action_imageprocessing_SampleImage_40mb,0.000000,1,-1.000000,1,COMPLETED_SUCCESSFULLY,1071.277043,0.000010,1071.277053,1071.277043,1071.277053,107127705.338699,2,-1.000000,""
124_updated,w0,python3action_floatoperation_200000000_nova,0.997085,1,2000.000000,1,COMPLETED_SUCCESSFULLY,937.277278,135.399990,1072.677268,936.280193,1071.680183,7.914921,7,-1.000000,""
124,w0,python3action_floatoperation_200000000,0.000000,1,-1.000000,1,COMPLETED_SUCCESSFULLY,1072.677283,0.000010,1072.677293,1072.677283,1072.677293,107267729.323907,7,-1.000000,""
139_updated,w0,python3action_pyaes_3000_troll,0.997085,1,2000.000000,1,COMPLETED_SUCCESSFULLY,1016.037398,57.166677,1073.204075,1015.040313,1072.206990,18.755804,4,-1.000000,""
139,w0,python3action_pyaes_3000,0.000000,1,-1.000000,1,COMPLETED_SUCCESSFULLY,1073.204090,0.000010,1073.204100,1073.204090,1073.204100,107320410.000201,4,-1.000000,""
98_updated,w0,python3action_facedetection_SampleVideo_50mb_taurus,0.997085,1,2000.000000,1,COMPLETED_SUCCESSFULLY,958.826572,134.600046,1093.426618,957.829487,1092.429533,8.116116,13,-1.000000,""
98,w0,python3action_facedetection_SampleVideo_50mb,0.000000,1,-1.000000,1,COMPLETED_SUCCESSFULLY,1093.426633,0.000010,1093.426643,1093.426633,1093.426643,109342664.313881,13,-1.000000,""
177_updated,w0,python3action_linpack_6000_orion,0.997085,1,2000.000000,1,COMPLETED_SUCCESSFULLY,996.963619,106.000000,1102.963619,995.966534,1101.966534,10.395911,11,-1.000000,""
177,w0,python3action_linpack_6000,0.000000,1,-1.000000,1,COMPLETED_SUCCESSFULLY,1102.963634,0.000010,1102.963644,1102.963634,1102.963644,110296364.424965,11,-1.000000,""
191_updated,w0,python3action_imageprocessing_SampleImage_40mb_taurus,0.997085,1,2000.000000,1,COMPLETED_SUCCESSFULLY,1071.277073,32.600046,1103.877120,1070.279988,1102.880035,33.830628,2,-1.000000,""
191,w0,python3action_imageprocessing_SampleImage_40mb,0.000000,1,-1.000000,1,COMPLETED_SUCCESSFULLY,1103.877135,0.000010,1103.877145,1103.877135,1103.877145,110387714.500201,2,-1.000000,""
138_updated,w0,python3action_floatoperation_100000000_nova,0.997085,1,2000.000000,1,COMPLETED_SUCCESSFULLY,1045.877252,66.200020,1112.077272,1044.880167,1111.080187,16.783684,6,-1.000000,""
138,w0,python3action_floatoperation_100000000,0.000000,1,-1.000000,1,COMPLETED_SUCCESSFULLY,1112.077287,0.000010,1112.077297,1112.077287,1112.077297,111207729.701405,6,-1.000000,""
153_updated,w0,python3action_facedetection_SampleVideo_30mb_nova,0.997085,1,2000.000000,1,COMPLETED_SUCCESSFULLY,956.942390,160.399990,1117.342380,955.945305,1116.345295,6.959759,9,-1.000000,""
153,w0,python3action_facedetection_SampleVideo_30mb,0.000000,1,-1.000000,1,COMPLETED_SUCCESSFULLY,1117.342395,0.000010,1117.342405,1117.342395,1117.342405,111734240.523907,9,-1.000000,""
142_updated,w0,python3action_facedetection_SampleVideo_50mb_taurus,0.997085,1,2000.000000,1,COMPLETED_SUCCESSFULLY,986.076822,134.600046,1120.676868,985.079737,1119.679783,8.318569,12,-1.000000,""
142,w0,python3action_facedetection_SampleVideo_50mb,0.000000,1,-1.000000,1,COMPLETED_SUCCESSFULLY,1120.676883,0.000010,1120.676893,1120.676883,1120.676893,112067689.314283,12,-1.000000,""
147_updated,w0,python3action_pyaes_3000_troll,0.997085,1,2000.000000,1,COMPLETED_SUCCESSFULLY,1073.204120,57.166677,1130.370797,1072.207035,1129.373712,19.755805,4,-1.000000,""
147,w0,python3action_pyaes_3000,0.000000,1,-1.000000,1,COMPLETED_SUCCESSFULLY,1130.370812,0.000010,1130.370822,1130.370812,1130.370822,113037082.200201,4,-1.000000,""
132_updated,w0,python3action_facedetection_SampleVideo_30mb_nova,0.997085,1,2000.000000,1,COMPLETED_SUCCESSFULLY,980.037268,160.399990,1140.437258,979.040183,1139.440173,7.103742,10,-1.000000,""
132,w0,python3action_facedetection_SampleVideo_30mb,0.000000,1,-1.000000,1,COMPLETED_SUCCESSFULLY,1140.437273,0.000010,1140.437283,1140.437273,1140.437283,114043728.348014,10,-1.000000,""
151_updated,w0,python3action_pyaes_4000_nova,0.997085,1,2000.000000,1,COMPLETED_SUCCESSFULLY,1002.477213,139.600010,1142.077223,1001.480128,1141.080138,8.173926,8,-1.000000,""
151,w0,python3action_pyaes_4000,0.000000,1,-1.000000,1,COMPLETED_SUCCESSFULLY,1142.077238,0.000010,1142.077248,1142.077238,1142.077248,114207724.824509,8,-1.000000,""
159_updated,w0,python3action_linpack_5000_taurus,0.997085,1,2000.000000,1,COMPLETED_SUCCESSFULLY,1120.676913,38.500058,1159.176971,1119.679828,1158.179886,30.082549,12,-1.000000,""
159,w0,python3action_linpack_5000,0.000000,1,-1.000000,1,COMPLETED_SUCCESSFULLY,1159.176986,0.000010,1159.176996,1159.176986,1159.176996,115917699.600201,12,-1.000000,""
140_updated,w0,python3action_videoprocessing_SampleVideo_30mb_nova,0.997085,1,2000.000000,1,COMPLETED_SUCCESSFULLY,1072.677313,106.799980,1179.477294,1071.680228,1178.480209,11.034461,7,-1.000000,""
140,w0,python3action_videoprocessing_SampleVideo_30mb,0.000000,1,-1.000000,1,COMPLETED_SUCCESSFULLY,1179.477309,0.000010,1179.477319,1179.477309,1179.477319,117947731.900201,7,-1.000000,""
148_updated,w0,python3action_pyaes_3000_troll,0.997085,1,2000.000000,1,COMPLETED_SUCCESSFULLY,1130.370842,57.166677,1187.537519,1129.373757,1186.540434,20.755806,4,-1.000000,""
148,w0,python3action_pyaes_3000,0.000000,1,-1.000000,1,COMPLETED_SUCCESSFULLY,1187.537534,0.000010,1187.537544,1187.537534,1187.537544,118753754.400201,4,-1.000000,""
164_updated,w0,python3action_linpack_5000_taurus,0.997085,1,2000.000000,1,COMPLETED_SUCCESSFULLY,1159.177016,38.500058,1197.677074,1158.179931,1196.679989,31.082551,12,-1.000000,""
164,w0,python3action_linpack_5000,0.000000,1,-1.000000,1,COMPLETED_SUCCESSFULLY,1197.677089,0.000010,1197.677099,1197.677089,1197.677099,119767709.900201,12,-1.000000,""
181_updated,w0,python3action_linpack_6000_orion,0.997085,1,2000.000000,1,COMPLETED_SUCCESSFULLY,1102.963664,106.000000,1208.963664,1101.966579,1207.966579,11.395911,11,-1.000000,""
181,w0,python3action_linpack_6000,0.000000,1,-1.000000,1,COMPLETED_SUCCESSFULLY,1208.963679,0.000010,1208.963689,1208.963679,1208.963689,120896368.925567,11,-1.000000,""
162_updated,w0,python3action_videoprocessing_SampleVideo_30mb_nova,0.997085,1,2000.000000,1,COMPLETED_SUCCESSFULLY,1117.342425,106.799980,1224.142406,1116.345340,1223.145321,11.452674,9,-1.000000,""
162,w0,python3action_videoprocessing_SampleVideo_30mb,0.000000,1,-1.000000,1,COMPLETED_SUCCESSFULLY,1224.142421,0.000010,1224.142431,1224.142421,1224.142431,122414243.100201,9,-1.000000,""
179_updated,w0,python3action_linpack_5000_taurus,0.997085,1,2000.000000,1,COMPLETED_SUCCESSFULLY,1197.677119,38.500058,1236.177177,1196.680034,1235.180092,32.082552,12,-1.000000,""
179,w0,python3action_linpack_5000,0.000000,1,-1.000000,1,COMPLETED_SUCCESSFULLY,1236.177192,0.000010,1236.177202,1236.177192,1236.177202,123617720.200201,12,-1.000000,""
155_updated,w0,python3action_floatoperation_200000000_nova,0.997085,1,2000.000000,1,COMPLETED_SUCCESSFULLY,1112.077317,135.399990,1247.477307,1111.080232,1246.480222,9.205911,6,-1.000000,""
155,w0,python3action_floatoperation_200000000,0.000000,1,-1.000000,1,COMPLETED_SUCCESSFULLY,1247.477322,0.000010,1247.477332,1247.477322,1247.477332,124747733.225111,6,-1.000000,""
109_updated,w0,python3action_videoprocessing_SampleVideo_50mb_taurus,0.997085,1,2000.000000,1,COMPLETED_SUCCESSFULLY,1093.426663,154.250029,1247.676692,1092.429578,1246.679607,8.082200,13,-1.000000,""
109,w0,python3action_videoprocessing_SampleVideo_50mb,0.000000,1,-1.000000,1,COMPLETED_SUCCESSFULLY,1247.676707,0.000010,1247.676717,1247.676707,1247.676717,124767671.700201,13,-1.000000,""
157_updated,w0,python3action_videoprocessing_SampleVideo_30mb_nova,0.997085,1,2000.000000,1,COMPLETED_SUCCESSFULLY,1142.077268,106.799980,1248.877249,1141.080183,1247.880164,11.684273,8,-1.000000,""
157,w0,python3action_videoprocessing_SampleVideo_30mb,0.000000,1,-1.000000,1,COMPLETED_SUCCESSFULLY,1248.877264,0.000010,1248.877274,1248.877264,1248.877274,124887727.400201,8,-1.000000,""
154_updated,w0,python3action_pyaes_4000_nova,0.997085,1,2000.000000,1,COMPLETED_SUCCESSFULLY,1140.437303,139.600010,1280.037313,1139.440218,1279.040228,9.162179,10,-1.000000,""
154,w0,python3action_pyaes_4000,0.000000,1,-1.000000,1,COMPLETED_SUCCESSFULLY,1280.037328,0.000010,1280.037338,1280.037328,1280.037338,128003733.825513,10,-1.000000,""
python3action_floatoperation_job167_10,w0,python3action_floatoperation,0.997085,1,2000.000000,1,COMPLETED_SUCCESSFULLY,1280.037358,2.439945,1282.477304,1279.040273,1281.480219,525.208586,10,-1.000000,""
126_updated,w0,python3action_linpack_5000_taurus,0.997085,1,2000.000000,1,COMPLETED_SUCCESSFULLY,1247.676737,38.500058,1286.176795,1246.679652,1285.179710,33.381241,13,-1.000000,""
126,w0,python3action_linpack_5000,0.000000,1,-1.000000,1,COMPLETED_SUCCESSFULLY,1286.176810,0.000010,1286.176820,1286.176810,1286.176820,128617682.000201,13,-1.000000,""
165_updated,w0,python3action_pyaes_4000_troll,0.997085,1,2000.000000,1,COMPLETED_SUCCESSFULLY,1187.537564,102.333333,1289.870897,1186.540479,1288.873812,12.594858,4,-1.000000,""
165,w0,python3action_pyaes_4000,0.000000,1,-1.000000,1,COMPLETED_SUCCESSFULLY,1289.870912,0.000010,1289.870922,1289.870912,1289.870922,128987092.234136,4,-1.000000,""
156_updated,w0,python3action_floatoperation_200000000_nova,0.997085,1,2000.000000,1,COMPLETED_SUCCESSFULLY,1179.477339,135.399990,1314.877329,1178.480254,1313.880244,9.703695,7,-1.000000,""
156,w0,python3action_floatoperation_200000000,0.000000,1,-1.000000,1,COMPLETED_SUCCESSFULLY,1314.877344,0.000010,1314.877354,1314.877344,1314.877354,131487735.423907,7,-1.000000,""
python3action_modeltraining_job175_7,w0,python3action_modeltraining_reduced_1.94,0.997085,1,2000.000000,1,COMPLETED_SUCCESSFULLY,1314.877374,0.000000,1314.877374,1313.880289,1313.880289,26876774986577.078125,7,-1.000000,""
186_updated,w0,python3action_linpack_6000_orion,0.997085,1,2000.000000,1,COMPLETED_SUCCESSFULLY,1208.963709,106.000000,1314.963709,1207.966624,1313.966624,12.395912,11,-1.000000,""
186,w0,python3action_linpack_6000,0.000000,1,-1.000000,1,COMPLETED_SUCCESSFULLY,1314.963724,0.000010,1314.963734,1314.963724,1314.963734,131496373.426169,11,-1.000000,""
170_updated,w0,python3action_pyaes_3000_troll,0.997085,1,2000.000000,1,COMPLETED_SUCCESSFULLY,1289.870942,57.166677,1347.037619,1288.873857,1346.040534,23.545894,4,-1.000000,""
170,w0,python3action_pyaes_3000,0.000000,1,-1.000000,1,COMPLETED_SUCCESSFULLY,1347.037634,0.000010,1347.037644,1347.037634,1347.037644,134703764.400201,4,-1.000000,""
173_updated,w0,python3action_videoprocessing_SampleVideo_30mb_nova,0.997085,1,2000.000000,1,COMPLETED_SUCCESSFULLY,1247.477352,106.799980,1354.277333,1246.480267,1353.280248,12.671166,6,-1.000000,""
173,w0,python3action_videoprocessing_SampleVideo_30mb,0.000000,1,-1.000000,1,COMPLETED_SUCCESSFULLY,1354.277348,0.000010,1354.277358,1354.277348,1354.277358,135427735.800201,6,-1.000000,""
192_updated,w0,python3action_floatoperation_200000000_nova,0.997085,1,2000.000000,1,COMPLETED_SUCCESSFULLY,1248.877294,135.399990,1384.277284,1247.880209,1383.280199,10.216250,8,-1.000000,""
192,w0,python3action_floatoperation_200000000,0.000000,1,-1.000000,1,COMPLETED_SUCCESSFULLY,1384.277299,0.000010,1384.277309,1384.277299,1384.277309,138427730.923907,8,-1.000000,""
193_updated,w0,python3action_facedetection_SampleVideo_30mb_nova,0.997085,1,2000.000000,1,COMPLETED_SUCCESSFULLY,1224.142451,160.399990,1384.542441,1223.145366,1383.545356,8.625595,9,-1.000000,""
193,w0,python3action_facedetection_SampleVideo_30mb,0.000000,1,-1.000000,1,COMPLETED_SUCCESSFULLY,1384.542456,0.000010,1384.542466,1384.542456,1384.542466,138454246.623907,9,-1.000000,""
194_updated,w0,python3action_videoprocessing_SampleVideo_50mb_taurus,0.997085,1,2000.000000,1,COMPLETED_SUCCESSFULLY,1236.177222,154.250029,1390.427251,1235.180137,1389.430166,9.007649,12,-1.000000,""
194,w0,python3action_videoprocessing_SampleVideo_50mb,0.000000,1,-1.000000,1,COMPLETED_SUCCESSFULLY,1390.427266,0.000010,1390.427276,1390.427266,1390.427276,139042727.600201,12,-1.000000,""
175_updated,w0,python3action_modeltraining_reviews100mb_nova,0.997085,1,2000.000000,1,COMPLETED_SUCCESSFULLY,1314.877404,79.600010,1394.477414,1313.880319,1393.480329,17.506032,7,-1.000000,""
175,w0,python3action_modeltraining_reviews100mb,0.000000,1,-1.000000,1,COMPLETED_SUCCESSFULLY,1394.477429,0.000010,1394.477439,1394.477429,1394.477439,139447743.901807,7,-1.000000,""
178_updated,w0,python3action_pyaes_3000_troll,0.997085,1,2000.000000,1,COMPLETED_SUCCESSFULLY,1347.037664,57.166677,1404.204341,1346.040579,1403.207256,24.545895,4,-1.000000,""
178,w0,python3action_pyaes_3000,0.000000,1,-1.000000,1,COMPLETED_SUCCESSFULLY,1404.204356,0.000010,1404.204366,1404.204356,1404.204366,140420436.600201,4,-1.000000,""
167_updated,w0,python3action_floatoperation_200000000_nova,0.997085,1,2000.000000,1,COMPLETED_SUCCESSFULLY,1282.477319,135.399990,1417.877309,1281.480234,1416.880224,10.464404,10,-1.000000,""
167,w0,python3action_floatoperation_200000000,0.000000,1,-1.000000,1,COMPLETED_SUCCESSFULLY,1417.877324,0.000010,1417.877334,1417.877324,1417.877334,141787733.423505,10,-1.000000,""
196_updated,w0,python3action_floatoperation_100000000_nova,0.997085,1,2000.000000,1,COMPLETED_SUCCESSFULLY,1354.277378,66.200020,1420.477398,1353.280293,1419.480313,21.442294,6,-1.000000,""
196,w0,python3action_floatoperation_100000000,0.000000,1,-1.000000,1,COMPLETED_SUCCESSFULLY,1420.477413,0.000010,1420.477423,1420.477413,1420.477423,142047742.300201,6,-1.000000,""
189_updated,w0,python3action_linpack_6000_orion,0.997085,1,2000.000000,1,COMPLETED_SUCCESSFULLY,1314.963754,106.000000,1420.963754,1313.966669,1419.966669,13.395912,11,-1.000000,""
189,w0,python3action_linpack_6000,0.000000,1,-1.000000,1,COMPLETED_SUCCESSFULLY,1420.963769,0.000010,1420.963779,1420.963769,1420.963779,142096377.926772,11,-1.000000,""
146_updated,w0,python3action_videoprocessing_SampleVideo_50mb_taurus,0.997085,1,2000.000000,1,COMPLETED_SUCCESSFULLY,1286.176840,154.250029,1440.426869,1285.179755,1439.429784,9.331796,13,-1.000000,""
146,w0,python3action_videoprocessing_SampleVideo_50mb,0.000000,1,-1.000000,1,COMPLETED_SUCCESSFULLY,1440.426884,0.000010,1440.426894,1440.426884,1440.426894,144042689.400201,13,-1.000000,""
182_updated,w0,python3action_pyaes_3000_troll,0.997085,1,2000.000000,1,COMPLETED_SUCCESSFULLY,1404.204386,57.166677,1461.371063,1403.207301,1460.373978,25.545896,4,-1.000000,""
182,w0,python3action_pyaes_3000,0.000000,1,-1.000000,1,COMPLETED_SUCCESSFULLY,1461.371078,0.000010,1461.371088,1461.371078,1461.371088,146137108.800201,4,-1.000000,""
199_updated,w0,python3action_videoprocessing_SampleVideo_30mb_nova,0.997085,1,2000.000000,1,COMPLETED_SUCCESSFULLY,1384.277329,106.799980,1491.077310,1383.280244,1490.080225,13.952065,8,-1.000000,""
199,w0,python3action_videoprocessing_SampleVideo_30mb,0.000000,1,-1.000000,1,COMPLETED_SUCCESSFULLY,1491.077325,0.000010,1491.077335,1491.077325,1491.077335,149107733.500201,8,-1.000000,""
198_updated,w0,python3action_videoprocessing_SampleVideo_30mb_nova,0.997085,1,2000.000000,1,COMPLETED_SUCCESSFULLY,1394.477459,106.799980,1501.277439,1393.480374,1500.280354,14.047571,7,-1.000000,""
198,w0,python3action_videoprocessing_SampleVideo_30mb,0.000000,1,-1.000000,1,COMPLETED_SUCCESSFULLY,1501.277454,0.000010,1501.277464,1501.277454,1501.277464,150127746.448617,7,-1.000000,""
160_updated,w0,python3action_facedetection_SampleVideo_50mb_taurus,0.997085,1,2000.000000,1,COMPLETED_SUCCESSFULLY,1440.426914,134.600046,1575.026960,1439.429829,1574.029875,11.694126,13,-1.000000,""
160,w0,python3action_facedetection_SampleVideo_50mb,0.000000,1,-1.000000,1,COMPLETED_SUCCESSFULLY,1575.026975,0.000010,1575.026985,1575.026975,1575.026985,157502698.513881,13,-1.000000,""
195_updated,w0,python3action_facedetection_SampleVideo_30mb_nova,0.997085,1,2000.000000,1,COMPLETED_SUCCESSFULLY,1417.877354,160.399990,1578.277344,1416.880269,1577.280259,9.833419,10,-1.000000,""
195,w0,python3action_facedetection_SampleVideo_30mb,0.000000,1,-1.000000,1,COMPLETED_SUCCESSFULLY,1578.277359,0.000010,1578.277369,1578.277359,1578.277369,157827736.947211,10,-1.000000,""
169_updated,w0,python3action_facedetection_SampleVideo_50mb_taurus,0.997085,1,2000.000000,1,COMPLETED_SUCCESSFULLY,1575.027005,134.600046,1709.627051,1574.029920,1708.629966,12.694126,13,-1.000000,""
169,w0,python3action_facedetection_SampleVideo_50mb,0.000000,1,-1.000000,1,COMPLETED_SUCCESSFULLY,1709.627066,0.000010,1709.627076,1709.627066,1709.627076,170962707.627562,13,-1.000000,""
188_updated,w0,python3action_facedetection_SampleVideo_50mb_taurus,0.997085,1,2000.000000,1,COMPLETED_SUCCESSFULLY,1709.627096,134.600046,1844.227142,1708.630011,1843.230057,13.694126,13,-1.000000,""
188,w0,python3action_facedetection_SampleVideo_50mb,0.000000,1,-1.000000,1,COMPLETED_SUCCESSFULLY,1844.227157,0.000010,1844.227167,1844.227157,1844.227167,184422716.741242,13,-1.000000,""
