job_id,workload_name,profile,submission_time,requested_number_of_resources,requested_time,success,final_state,starting_time,execution_time,finish_time,waiting_time,turnaround_time,stretch,allocated_resources,consumed_energy,metadata
python3action_chameleon_job7_37,w0,python3action_chameleon,0.997085,1,2000.000000,1,COMPLETED_SUCCESSFULLY,1.002786,0.867914,1.870699,0.005701,0.873614,1.006568,44,-1.000000,""
python3action_chameleon_job14_38,w0,python3action_chameleon,0.997085,1,2000.000000,1,COMPLETED_SUCCESSFULLY,1.002801,0.867914,1.870714,0.005716,0.873629,1.006586,46,-1.000000,""
python3action_chameleon_job21_39,w0,python3action_chameleon,0.997085,1,2000.000000,1,COMPLETED_SUCCESSFULLY,1.002816,0.867914,1.870729,0.005731,0.873644,1.006603,47,-1.000000,""
python3action_chameleon_job31_40,w0,python3action_chameleon,0.997085,1,2000.000000,1,COMPLETED_SUCCESSFULLY,1.002831,0.867914,1.870744,0.005746,0.873659,1.006620,48,-1.000000,""
python3action_chameleon_job70_41,w0,python3action_chameleon,0.997085,1,2000.000000,1,COMPLETED_SUCCESSFULLY,1.002846,0.892694,1.895540,0.005761,0.898455,1.006453,49,-1.000000,""
python3action_chameleon_job92_42,w0,python3action_chameleon,0.997085,1,2000.000000,1,COMPLETED_SUCCESSFULLY,1.002861,0.892694,1.895555,0.005776,0.898470,1.006470,50,-1.000000,""
python3action_chameleon_job159_43,w0,python3action_chameleon,0.997085,1,2000.000000,1,COMPLETED_SUCCESSFULLY,1.002876,0.892694,1.895570,0.005791,0.898485,1.006487,51,-1.000000,""
python3action_pyaes_job1_1,w0,python3action_pyaes,0.997085,1,2000.000000,1,COMPLETED_SUCCESSFULLY,1.002246,2.134958,3.137204,0.005161,2.140119,1.002417,3,-1.000000,""
python3action_pyaes_job3_3,w0,python3action_pyaes,0.997085,1,2000.000000,1,COMPLETED_SUCCESSFULLY,1.002276,2.134958,3.137234,0.005191,2.140149,1.002431,5,-1.000000,""
python3action_pyaes_job4_4,w0,python3action_pyaes,0.997085,1,2000.000000,1,COMPLETED_SUCCESSFULLY,1.002291,2.134958,3.137249,0.005206,2.140164,1.002438,6,-1.000000,""
python3action_pyaes_job6_5,w0,python3action_pyaes,0.997085,1,2000.000000,1,COMPLETED_SUCCESSFULLY,1.002306,2.134958,3.137264,0.005221,2.140179,1.002445,7,-1.000000,""
python3action_pyaes_job11_7,w0,python3action_pyaes,0.997085,1,2000.000000,1,COMPLETED_SUCCESSFULLY,1.002336,2.134958,3.137294,0.005251,2.140209,1.002459,9,-1.000000,""
python3action_pyaes_job18_11,w0,python3action_pyaes,0.997085,1,2000.000000,1,COMPLETED_SUCCESSFULLY,1.002396,2.134958,3.137354,0.005311,2.140269,1.002488,14,-1.000000,""
python3action_pyaes_job23_14,w0,python3action_pyaes,0.997085,1,2000.000000,1,COMPLETED_SUCCESSFULLY,1.002441,2.134958,3.137399,0.005356,2.140314,1.002509,17,-1.000000,""
python3action_linpack_job0_0,w0,python3action_linpack,0.997085,1,2000.000000,1,COMPLETED_SUCCESSFULLY,1.002231,2.439945,3.442176,0.005146,2.445091,1.002109,2,-1.000000,""
python3action_floatoperation_job12_8,w0,python3action_floatoperation,0.997085,1,2000.000000,1,COMPLETED_SUCCESSFULLY,1.002351,2.439945,3.442296,0.005266,2.445211,1.002158,10,-1.000000,""
python3action_floatoperation_job25_16,w0,python3action_floatoperation,0.997085,1,2000.000000,1,COMPLETED_SUCCESSFULLY,1.002471,2.439945,3.442416,0.005386,2.445331,1.002207,19,-1.000000,""
python3action_floatoperation_job26_17,w0,python3action_floatoperation,0.997085,1,2000.000000,1,COMPLETED_SUCCESSFULLY,1.002486,2.439945,3.442431,0.005401,2.445346,1.002213,20,-1.000000,""
python3action_floatoperation_job27_18,w0,python3action_floatoperation,0.997085,1,2000.000000,1,COMPLETED_SUCCESSFULLY,1.002501,2.439945,3.442446,0.005416,2.445361,1.002220,21,-1.000000,""
python3action_linpack_job29_20,w0,python3action_linpack,0.997085,1,2000.000000,1,COMPLETED_SUCCESSFULLY,1.002531,2.439945,3.442476,0.005446,2.445391,1.002232,24,-1.000000,""
python3action_floatoperation_job34_21,w0,python3action_floatoperation,0.997085,1,2000.000000,1,COMPLETED_SUCCESSFULLY,1.002546,2.439945,3.442491,0.005461,2.445406,1.002238,25,-1.000000,""
python3action_chameleon_job5_25,w0,python3action_chameleon,0.997085,1,2000.000000,1,COMPLETED_SUCCESSFULLY,1.002606,5.040826,6.043431,0.005521,5.046346,1.001095,29,-1.000000,""
python3action_chameleon_job13_28,w0,python3action_chameleon,0.997085,1,2000.000000,1,COMPLETED_SUCCESSFULLY,1.002651,5.040826,6.043476,0.005566,5.046391,1.001104,32,-1.000000,""
python3action_chameleon_job33_33,w0,python3action_chameleon,0.997085,1,2000.000000,1,COMPLETED_SUCCESSFULLY,1.002726,5.040826,6.043551,0.005641,5.046466,1.001119,38,-1.000000,""
python3action_linpack_job36_22,w0,python3action_linpack,0.997085,1,2000.000000,1,COMPLETED_SUCCESSFULLY,1.002561,5.760927,6.763488,0.005476,5.766403,1.000950,26,-1.000000,""
python3action_facedetection_job2_2,w0,python3action_facedetection,0.997085,1,2000.000000,1,COMPLETED_SUCCESSFULLY,1.002261,30.499683,31.501943,0.005176,30.504858,1.000170,4,-1.000000,""
python3action_modeltraining_job9_6,w0,python3action_modeltraining,0.997085,1,2000.000000,1,COMPLETED_SUCCESSFULLY,1.002321,30.499683,31.502003,0.005236,30.504918,1.000172,8,-1.000000,""
python3action_modeltraining_job15_9,w0,python3action_modeltraining,0.997085,1,2000.000000,1,COMPLETED_SUCCESSFULLY,1.002366,30.499683,31.502048,0.005281,30.504963,1.000173,11,-1.000000,""
python3action_video_processing_job16_10,w0,python3action_video_processing,0.997085,1,2000.000000,1,COMPLETED_SUCCESSFULLY,1.002381,30.499683,31.502063,0.005296,30.504978,1.000174,13,-1.000000,""
python3action_modeltraining_job19_12,w0,python3action_modeltraining,0.997085,1,2000.000000,1,COMPLETED_SUCCESSFULLY,1.002411,30.499683,31.502093,0.005326,30.505008,1.000175,15,-1.000000,""
python3action_modeltraining_job20_13,w0,python3action_modeltraining,0.997085,1,2000.000000,1,COMPLETED_SUCCESSFULLY,1.002426,30.499683,31.502108,0.005341,30.505023,1.000175,16,-1.000000,""
python3action_video_processing_job24_15,w0,python3action_video_processing,0.997085,1,2000.000000,1,COMPLETED_SUCCESSFULLY,1.002456,30.499683,31.502138,0.005371,30.505053,1.000176,18,-1.000000,""
python3action_modeltraining_job28_19,w0,python3action_modeltraining,0.997085,1,2000.000000,1,COMPLETED_SUCCESSFULLY,1.002516,30.499683,31.502198,0.005431,30.505113,1.000178,22,-1.000000,""
0_updated,w0,python3action_linpack_5000_nova,0.997085,1,2000.000000,1,COMPLETED_SUCCESSFULLY,3.442191,34.600010,38.042201,2.445106,37.045116,1.070668,2,-1.000000,""
0,w0,python3action_linpack_5000,0.000000,1,-1.000000,1,COMPLETED_SUCCESSFULLY,38.042216,0.000010,38.042226,38.042216,38.042226,3804222.600201,2,-1.000000,""
29_updated,w0,python3action_linpack_5000_nova,0.997085,1,2000.000000,1,COMPLETED_SUCCESSFULLY,3.442521,34.600010,38.042531,2.445436,37.045446,1.070677,24,-1.000000,""
29,w0,python3action_linpack_5000,0.000000,1,-1.000000,1,COMPLETED_SUCCESSFULLY,38.042546,0.000010,38.042556,38.042546,38.042556,3804255.600201,24,-1.000000,""
python3action_floatoperation_job39_1,w0,python3action_floatoperation,0.997085,1,2000.000000,1,COMPLETED_SUCCESSFULLY,38.042246,2.439945,40.482191,37.045161,39.485106,16.182783,2,-1.000000,""
python3action_facedetection_job83_21,w0,python3action_facedetection,0.997085,1,2000.000000,1,COMPLETED_SUCCESSFULLY,38.042576,30.499683,68.542259,37.045491,67.545174,2.214619,24,-1.000000,""
12_updated,w0,python3action_floatoperation_100000000_nova,0.997085,1,2000.000000,1,COMPLETED_SUCCESSFULLY,3.442311,66.200020,69.642331,2.445226,68.645246,1.036937,10,-1.000000,""
12,w0,python3action_floatoperation_100000000,0.000000,1,-1.000000,1,COMPLETED_SUCCESSFULLY,69.642346,0.000010,69.642356,69.642346,69.642356,6964235.600201,10,-1.000000,""
27_updated,w0,python3action_floatoperation_100000000_nova,0.997085,1,2000.000000,1,COMPLETED_SUCCESSFULLY,3.442491,66.200020,69.642511,2.445406,68.645426,1.036940,21,-1.000000,""
27,w0,python3action_floatoperation_100000000,0.000000,1,-1.000000,1,COMPLETED_SUCCESSFULLY,69.642526,0.000010,69.642536,69.642526,69.642536,6964253.600201,21,-1.000000,""
5_updated,w0,python3action_chameleon_2000_taurus,0.997085,1,2000.000000,1,COMPLETED_SUCCESSFULLY,6.043446,64.199977,70.243423,5.046361,69.246338,1.078604,29,-1.000000,""
5,w0,python3action_chameleon_2000,0.000000,1,-1.000000,1,COMPLETED_SUCCESSFULLY,70.243438,0.000010,70.243448,70.243438,70.243448,7024344.841856,29,-1.000000,""
13_updated,w0,python3action_chameleon_2000_taurus,0.997085,1,2000.000000,1,COMPLETED_SUCCESSFULLY,6.043491,64.199977,70.243468,5.046406,69.246383,1.078604,32,-1.000000,""
13,w0,python3action_chameleon_2000,0.000000,1,-1.000000,1,COMPLETED_SUCCESSFULLY,70.243498,0.000010,70.243508,70.243498,70.243508,7024350.842659,32,-1.000000,""
33_updated,w0,python3action_chameleon_2000_taurus,0.997085,1,2000.000000,1,COMPLETED_SUCCESSFULLY,6.043566,64.199977,70.243543,5.046481,69.246458,1.078606,38,-1.000000,""
33,w0,python3action_chameleon_2000,0.000000,1,-1.000000,1,COMPLETED_SUCCESSFULLY,70.243558,0.000010,70.243568,70.243558,70.243568,7024356.843462,38,-1.000000,""
python3action_image_processing_job52_23,w0,python3action_image_processing,0.997085,1,2000.000000,1,COMPLETED_SUCCESSFULLY,1.002576,72.012455,73.015031,0.005491,72.017946,1.000076,27,-1.000000,""
python3action_image_processing_job58_24,w0,python3action_image_processing,0.997085,1,2000.000000,1,COMPLETED_SUCCESSFULLY,1.002591,72.012455,73.015046,0.005506,72.017961,1.000076,28,-1.000000,""
python3action_modeltraining_job8_26,w0,python3action_modeltraining,0.997085,1,2000.000000,1,COMPLETED_SUCCESSFULLY,1.002621,72.012455,73.015076,0.005536,72.017991,1.000077,30,-1.000000,""
python3action_facedetection_job10_27,w0,python3action_facedetection,0.997085,1,2000.000000,1,COMPLETED_SUCCESSFULLY,1.002636,72.012455,73.015091,0.005551,72.018006,1.000077,31,-1.000000,""
python3action_facedetection_job17_29,w0,python3action_facedetection,0.997085,1,2000.000000,1,COMPLETED_SUCCESSFULLY,1.002666,72.012455,73.015121,0.005581,72.018036,1.000077,33,-1.000000,""
python3action_video_processing_job22_30,w0,python3action_video_processing,0.997085,1,2000.000000,1,COMPLETED_SUCCESSFULLY,1.002681,72.012455,73.015136,0.005596,72.018051,1.000078,35,-1.000000,""
python3action_video_processing_job30_31,w0,python3action_video_processing,0.997085,1,2000.000000,1,COMPLETED_SUCCESSFULLY,1.002696,72.012455,73.015151,0.005611,72.018066,1.000078,36,-1.000000,""
python3action_image_processing_job32_32,w0,python3action_image_processing,0.997085,1,2000.000000,1,COMPLETED_SUCCESSFULLY,1.002711,72.012455,73.015166,0.005626,72.018081,1.000078,37,-1.000000,""
python3action_modeltraining_job35_34,w0,python3action_modeltraining,0.997085,1,2000.000000,1,COMPLETED_SUCCESSFULLY,1.002741,72.012455,73.015196,0.005656,72.018111,1.000079,39,-1.000000,""
python3action_facedetection_job37_35,w0,python3action_facedetection,0.997085,1,2000.000000,1,COMPLETED_SUCCESSFULLY,1.002756,72.012455,73.015211,0.005671,72.018126,1.000079,40,-1.000000,""
python3action_video_processing_job38_36,w0,python3action_video_processing,0.997085,1,2000.000000,1,COMPLETED_SUCCESSFULLY,1.002771,72.012455,73.015226,0.005686,72.018141,1.000079,41,-1.000000,""
15_updated,w0,python3action_modeltraining_reviews50mb_nova,0.997085,1,2000.000000,1,COMPLETED_SUCCESSFULLY,31.502063,42.399990,73.902053,30.504978,72.904968,1.719457,11,-1.000000,""
15,w0,python3action_modeltraining_reviews50mb,0.000000,1,-1.000000,1,COMPLETED_SUCCESSFULLY,73.902068,0.000010,73.902078,73.902068,73.902078,7390207.845055,11,-1.000000,""
19_updated,w0,python3action_modeltraining_reviews50mb_nova,0.997085,1,2000.000000,1,COMPLETED_SUCCESSFULLY,31.502123,42.399990,73.902113,30.505038,72.905028,1.719459,15,-1.000000,""
19,w0,python3action_modeltraining_reviews50mb,0.000000,1,-1.000000,1,COMPLETED_SUCCESSFULLY,73.902128,0.000010,73.902138,73.902128,73.902138,7390213.845858,15,-1.000000,""
python3action_floatoperation_job67_13,w0,python3action_floatoperation,0.997085,1,2000.000000,1,COMPLETED_SUCCESSFULLY,73.902158,2.439945,76.342104,72.905073,75.345019,30.879798,15,-1.000000,""
4_updated,w0,python3action_pyaes_3000_nova,0.997085,1,2000.000000,1,COMPLETED_SUCCESSFULLY,3.137279,78.200020,81.337299,2.140194,80.340214,1.027368,6,-1.000000,""
4,w0,python3action_pyaes_3000,0.000000,1,-1.000000,1,COMPLETED_SUCCESSFULLY,81.337314,0.000010,81.337324,81.337314,81.337324,8133732.400201,6,-1.000000,""
11_updated,w0,python3action_pyaes_3000_nova,0.997085,1,2000.000000,1,COMPLETED_SUCCESSFULLY,3.137324,78.200020,81.337344,2.140239,80.340259,1.027369,9,-1.000000,""
11,w0,python3action_pyaes_3000,0.000000,1,-1.000000,1,COMPLETED_SUCCESSFULLY,81.337374,0.000010,81.337384,81.337374,81.337384,8133738.400201,9,-1.000000,""
18_updated,w0,python3action_pyaes_3000_nova,0.997085,1,2000.000000,1,COMPLETED_SUCCESSFULLY,3.137369,78.200020,81.337389,2.140284,80.340304,1.027369,14,-1.000000,""
18,w0,python3action_pyaes_3000,0.000000,1,-1.000000,1,COMPLETED_SUCCESSFULLY,81.337419,0.000010,81.337429,81.337419,81.337429,8133742.900402,14,-1.000000,""
23_updated,w0,python3action_pyaes_3000_nova,0.997085,1,2000.000000,1,COMPLETED_SUCCESSFULLY,3.137414,78.200020,81.337434,2.140329,80.340349,1.027370,17,-1.000000,""
23,w0,python3action_pyaes_3000,0.000000,1,-1.000000,1,COMPLETED_SUCCESSFULLY,81.337464,0.000010,81.337474,81.337464,81.337474,8133747.400402,17,-1.000000,""
python3action_floatoperation_job59_8,w0,python3action_floatoperation,0.997085,1,2000.000000,1,COMPLETED_SUCCESSFULLY,81.337404,2.439945,83.777349,80.340319,82.780264,33.927098,9,-1.000000,""
python3action_floatoperation_job64_12,w0,python3action_floatoperation,0.997085,1,2000.000000,1,COMPLETED_SUCCESSFULLY,81.337449,2.439945,83.777394,80.340364,82.780309,33.927117,14,-1.000000,""
70_updated,w0,python3action_chameleon_3000_yeti,0.997085,1,2000.000000,1,COMPLETED_SUCCESSFULLY,1.895555,93.000000,94.895555,0.898470,93.898470,1.009661,49,-1.000000,""
70,w0,python3action_chameleon_3000,0.000000,1,-1.000000,1,COMPLETED_SUCCESSFULLY,94.895570,0.000010,94.895580,94.895570,94.895580,9489558.025869,49,-1.000000,""
92_updated,w0,python3action_chameleon_3000_yeti,0.997085,1,2000.000000,1,COMPLETED_SUCCESSFULLY,1.895585,93.000000,94.895585,0.898500,93.898500,1.009661,50,-1.000000,""
92,w0,python3action_chameleon_3000,0.000000,1,-1.000000,1,COMPLETED_SUCCESSFULLY,94.895600,0.000010,94.895610,94.895600,94.895610,9489561.026271,50,-1.000000,""
159_updated,w0,python3action_chameleon_3000_yeti,0.997085,1,2000.000000,1,COMPLETED_SUCCESSFULLY,1.895615,93.000000,94.895615,0.898530,93.898530,1.009662,51,-1.000000,""
159,w0,python3action_chameleon_3000,0.000000,1,-1.000000,1,COMPLETED_SUCCESSFULLY,94.895630,0.000010,94.895640,94.895630,94.895640,9489564.026672,51,-1.000000,""
7_updated,w0,python3action_chameleon_3000_troll,0.997085,1,2000.000000,1,COMPLETED_SUCCESSFULLY,1.870714,94.000000,95.870714,0.873629,94.873629,1.009294,44,-1.000000,""
7,w0,python3action_chameleon_3000,0.000000,1,-1.000000,1,COMPLETED_SUCCESSFULLY,95.870729,0.000010,95.870739,95.870729,95.870739,9587073.943042,44,-1.000000,""
14_updated,w0,python3action_chameleon_3000_troll,0.997085,1,2000.000000,1,COMPLETED_SUCCESSFULLY,1.870744,94.000000,95.870744,0.873659,94.873659,1.009294,46,-1.000000,""
21_updated,w0,python3action_chameleon_3000_troll,0.997085,1,2000.000000,1,COMPLETED_SUCCESSFULLY,1.870759,94.000000,95.870759,0.873674,94.873674,1.009294,47,-1.000000,""
14,w0,python3action_chameleon_3000,0.000000,1,-1.000000,1,COMPLETED_SUCCESSFULLY,95.870774,0.000010,95.870784,95.870774,95.870784,9587078.443644,46,-1.000000,""
31_updated,w0,python3action_chameleon_3000_troll,0.997085,1,2000.000000,1,COMPLETED_SUCCESSFULLY,1.870789,94.000000,95.870789,0.873704,94.873704,1.009295,48,-1.000000,""
21,w0,python3action_chameleon_3000,0.000000,1,-1.000000,1,COMPLETED_SUCCESSFULLY,95.870804,0.000010,95.870814,95.870804,95.870814,9587081.444046,47,-1.000000,""
31,w0,python3action_chameleon_3000,0.000000,1,-1.000000,1,COMPLETED_SUCCESSFULLY,95.870834,0.000010,95.870844,95.870834,95.870844,9587084.444448,48,-1.000000,""
python3action_modeltraining_job75_19,w0,python3action_modeltraining,0.997085,1,2000.000000,1,COMPLETED_SUCCESSFULLY,69.642556,30.499683,100.142239,68.645471,99.145154,3.250695,21,-1.000000,""
32_updated,w0,python3action_imageprocessing_SampleImage_40mb_taurus,0.997085,1,2000.000000,1,COMPLETED_SUCCESSFULLY,73.015211,32.600046,105.615257,72.018126,104.618172,3.209142,37,-1.000000,""
32,w0,python3action_imageprocessing_SampleImage_40mb,0.000000,1,-1.000000,1,COMPLETED_SUCCESSFULLY,105.615272,0.000010,105.615282,105.615272,105.615282,10561528.220263,37,-1.000000,""
python3action_image_processing_job44_40,w0,python3action_image_processing,0.997085,1,2000.000000,1,COMPLETED_SUCCESSFULLY,95.870864,12.398880,108.269745,94.873779,107.272660,8.651802,47,-1.000000,""
python3action_image_processing_job47_41,w0,python3action_image_processing,0.997085,1,2000.000000,1,COMPLETED_SUCCESSFULLY,95.870879,12.398880,108.269760,94.873794,107.272675,8.651804,48,-1.000000,""
python3action_chameleon_job76_33,w0,python3action_chameleon,0.997085,1,2000.000000,1,COMPLETED_SUCCESSFULLY,105.615302,5.040826,110.656128,104.618217,109.659043,21.754182,37,-1.000000,""
9_updated,w0,python3action_modeltraining_reviews100mb_nova,0.997085,1,2000.000000,1,COMPLETED_SUCCESSFULLY,31.502018,79.600010,111.102028,30.504933,110.104943,1.383228,8,-1.000000,""
9,w0,python3action_modeltraining_reviews100mb,0.000000,1,-1.000000,1,COMPLETED_SUCCESSFULLY,111.102043,0.000010,111.102053,111.102043,111.102053,11110205.300201,8,-1.000000,""
python3action_video_processing_job57_7,w0,python3action_video_processing_reduced_0.97,0.997085,1,2000.000000,1,COMPLETED_SUCCESSFULLY,111.102073,0.000010,111.102083,110.104988,110.104998,11010499.800602,8,-1.000000,""
20_updated,w0,python3action_modeltraining_reviews100mb_nova,0.997085,1,2000.000000,1,COMPLETED_SUCCESSFULLY,31.502138,79.600010,111.102148,30.505053,110.105063,1.383229,16,-1.000000,""
20,w0,python3action_modeltraining_reviews100mb,0.000000,1,-1.000000,1,COMPLETED_SUCCESSFULLY,111.102163,0.000010,111.102173,111.102163,111.102173,11110217.300201,16,-1.000000,""
28_updated,w0,python3action_modeltraining_reviews100mb_nova,0.997085,1,2000.000000,1,COMPLETED_SUCCESSFULLY,31.502213,79.600010,111.102223,30.505128,110.105138,1.383230,22,-1.000000,""
28,w0,python3action_modeltraining_reviews100mb,0.000000,1,-1.000000,1,COMPLETED_SUCCESSFULLY,111.102238,0.000010,111.102248,111.102238,111.102248,11110224.800856,22,-1.000000,""
python3action_facedetection_job82_20,w0,python3action_facedetection_reduced_0.91,0.997085,1,2000.000000,1,COMPLETED_SUCCESSFULLY,111.102268,0.000000,111.102268,110.105183,110.105183,2254280900800.169922,22,-1.000000,""
python3action_facedetection_job53_5,w0,python3action_facedetection,0.997085,1,2000.000000,1,COMPLETED_SUCCESSFULLY,81.337344,30.499683,111.837026,80.340259,110.839941,3.634134,6,-1.000000,""
python3action_facedetection_job71_15,w0,python3action_facedetection,0.997085,1,2000.000000,1,COMPLETED_SUCCESSFULLY,81.337494,30.499683,111.837177,80.340409,110.840092,3.634139,17,-1.000000,""
36_updated,w0,python3action_linpack_6000_orion,0.997085,1,2000.000000,1,COMPLETED_SUCCESSFULLY,6.763503,106.000000,112.763503,5.766418,111.766418,1.054400,26,-1.000000,""
36,w0,python3action_linpack_6000,0.000000,1,-1.000000,1,COMPLETED_SUCCESSFULLY,112.763518,0.000010,112.763528,112.763518,112.763528,11276352.800402,26,-1.000000,""
python3action_floatoperation_job69_14,w0,python3action_floatoperation,0.997085,1,2000.000000,1,COMPLETED_SUCCESSFULLY,111.102193,2.439945,113.542138,110.105108,112.545053,46.126056,16,-1.000000,""
40_updated,w0,python3action_chameleon_2000_troll,0.997085,1,2000.000000,1,COMPLETED_SUCCESSFULLY,95.870759,39.500010,135.370769,94.873674,134.373684,3.401865,44,-1.000000,""
40,w0,python3action_chameleon_2000,0.000000,1,-1.000000,1,COMPLETED_SUCCESSFULLY,135.370784,0.000010,135.370794,135.370784,135.370794,13537079.436476,44,-1.000000,""
60_updated,w0,python3action_floatoperation_100000000_nova,0.997085,1,2000.000000,1,COMPLETED_SUCCESSFULLY,69.642376,66.200020,135.842396,68.645291,134.845311,2.036938,10,-1.000000,""
60,w0,python3action_floatoperation_100000000,0.000000,1,-1.000000,1,COMPLETED_SUCCESSFULLY,135.842411,0.000010,135.842421,135.842411,135.842421,13584242.100201,10,-1.000000,""
16_updated,w0,python3action_videoprocessing_SampleVideo_30mb_nova,0.997085,1,2000.000000,1,COMPLETED_SUCCESSFULLY,31.502093,106.799980,138.302074,30.505008,137.304989,1.285627,13,-1.000000,""
16,w0,python3action_videoprocessing_SampleVideo_30mb,0.000000,1,-1.000000,1,COMPLETED_SUCCESSFULLY,138.302089,0.000010,138.302099,138.302089,138.302099,13830209.900201,13,-1.000000,""
24_updated,w0,python3action_videoprocessing_SampleVideo_30mb_nova,0.997085,1,2000.000000,1,COMPLETED_SUCCESSFULLY,31.502168,106.799980,138.302149,30.505083,137.305064,1.285628,18,-1.000000,""
24,w0,python3action_videoprocessing_SampleVideo_30mb,0.000000,1,-1.000000,1,COMPLETED_SUCCESSFULLY,138.302164,0.000010,138.302174,138.302164,138.302174,13830217.400201,18,-1.000000,""
python3action_facedetection_job72_16,w0,python3action_facedetection_reduced_0.91,0.997085,1,2000.000000,1,COMPLETED_SUCCESSFULLY,138.302194,0.000000,138.302194,137.305109,137.305109,2810351393232.871582,18,-1.000000,""
25_updated,w0,python3action_floatoperation_200000000_nova,0.997085,1,2000.000000,1,COMPLETED_SUCCESSFULLY,3.442431,135.399990,138.842421,2.445346,137.845336,1.018060,19,-1.000000,""
25,w0,python3action_floatoperation_200000000,0.000000,1,-1.000000,1,COMPLETED_SUCCESSFULLY,138.842436,0.000010,138.842446,138.842436,138.842446,13884244.624974,19,-1.000000,""
26_updated,w0,python3action_floatoperation_200000000_nova,0.997085,1,2000.000000,1,COMPLETED_SUCCESSFULLY,3.442461,135.399990,138.842451,2.445376,137.845366,1.018060,20,-1.000000,""
26,w0,python3action_floatoperation_200000000,0.000000,1,-1.000000,1,COMPLETED_SUCCESSFULLY,138.842481,0.000010,138.842491,138.842481,138.842491,13884249.125576,20,-1.000000,""
34_updated,w0,python3action_floatoperation_200000000_nova,0.997085,1,2000.000000,1,COMPLETED_SUCCESSFULLY,3.442536,135.399990,138.842526,2.445451,137.845441,1.018061,25,-1.000000,""
34,w0,python3action_floatoperation_200000000,0.000000,1,-1.000000,1,COMPLETED_SUCCESSFULLY,138.842541,0.000010,138.842551,138.842541,138.842551,13884255.126379,25,-1.000000,""
python3action_linpack_job62_11,w0,python3action_linpack,0.997085,1,2000.000000,1,COMPLETED_SUCCESSFULLY,138.302119,2.439945,140.742064,137.305034,139.744979,57.273817,13,-1.000000,""
python3action_pyaes_job74_18,w0,python3action_pyaes,0.997085,1,2000.000000,1,COMPLETED_SUCCESSFULLY,138.842511,2.134958,140.977469,137.845426,139.980384,65.565865,20,-1.000000,""
python3action_linpack_job73_17,w0,python3action_linpack,0.997085,1,2000.000000,1,COMPLETED_SUCCESSFULLY,138.842466,2.439945,141.282412,137.845381,140.285327,57.495275,19,-1.000000,""
python3action_video_processing_job43_26,w0,python3action_video_processing,0.997085,1,2000.000000,1,COMPLETED_SUCCESSFULLY,70.243468,72.012455,142.255924,69.246383,141.258839,1.961589,29,-1.000000,""
python3action_facedetection_job49_29,w0,python3action_facedetection,0.997085,1,2000.000000,1,COMPLETED_SUCCESSFULLY,70.243528,72.012455,142.255984,69.246443,141.258899,1.961590,32,-1.000000,""
python3action_image_processing_job79_34,w0,python3action_image_processing,0.997085,1,2000.000000,1,COMPLETED_SUCCESSFULLY,70.243588,72.012455,142.256044,69.246503,141.258959,1.961591,38,-1.000000,""
1_updated,w0,python3action_pyaes_4000_nova,0.997085,1,2000.000000,1,COMPLETED_SUCCESSFULLY,3.137219,139.600010,142.737229,2.140134,141.740144,1.015330,3,-1.000000,""
1,w0,python3action_pyaes_4000,0.000000,1,-1.000000,1,COMPLETED_SUCCESSFULLY,142.737244,0.000010,142.737254,142.737244,142.737254,14273725.400201,3,-1.000000,""
3_updated,w0,python3action_pyaes_4000_nova,0.997085,1,2000.000000,1,COMPLETED_SUCCESSFULLY,3.137249,139.600010,142.737259,2.140164,141.740174,1.015331,5,-1.000000,""
3,w0,python3action_pyaes_4000,0.000000,1,-1.000000,1,COMPLETED_SUCCESSFULLY,142.737289,0.000010,142.737299,142.737289,142.737299,14273729.900402,5,-1.000000,""
6_updated,w0,python3action_pyaes_4000_nova,0.997085,1,2000.000000,1,COMPLETED_SUCCESSFULLY,3.137294,139.600010,142.737304,2.140209,141.740219,1.015331,7,-1.000000,""
6,w0,python3action_pyaes_4000,0.000000,1,-1.000000,1,COMPLETED_SUCCESSFULLY,142.737334,0.000010,142.737344,142.737334,142.737344,14273734.400402,7,-1.000000,""
python3action_image_processing_job51_38,w0,python3action_image_processing,0.997085,1,2000.000000,1,COMPLETED_SUCCESSFULLY,135.370814,12.398880,147.769694,134.373729,146.772609,11.837570,44,-1.000000,""
59_updated,w0,python3action_floatoperation_100000000_nova,0.997085,1,2000.000000,1,COMPLETED_SUCCESSFULLY,83.777364,66.200020,149.977384,82.780279,148.980299,2.250457,9,-1.000000,""
59,w0,python3action_floatoperation_100000000,0.000000,1,-1.000000,1,COMPLETED_SUCCESSFULLY,149.977399,0.000010,149.977409,149.977399,149.977409,14997740.900201,9,-1.000000,""
python3action_linpack_job99_8,w0,python3action_linpack_reduced_0.85,0.997085,1,2000.000000,1,COMPLETED_SUCCESSFULLY,149.977429,0.365992,150.343421,148.980344,149.346336,408.059247,9,-1.000000,""
61_updated,w0,python3action_modeltraining_reviews100mb_nova,0.997085,1,2000.000000,1,COMPLETED_SUCCESSFULLY,73.902098,79.600010,153.502108,72.905013,152.505023,1.915892,11,-1.000000,""
61,w0,python3action_modeltraining_reviews100mb,0.000000,1,-1.000000,1,COMPLETED_SUCCESSFULLY,153.502123,0.000010,153.502133,153.502123,153.502133,15350213.322554,11,-1.000000,""
python3action_floatoperation_job102_10,w0,python3action_floatoperation,0.997085,1,2000.000000,1,COMPLETED_SUCCESSFULLY,153.502153,2.439945,155.942099,152.505068,154.945014,63.503479,11,-1.000000,""
52_updated,w0,python3action_imageprocessing_SampleImage_60mb_orion,0.997085,1,2000.000000,1,COMPLETED_SUCCESSFULLY,73.015046,88.000000,161.015046,72.017961,160.017961,1.818386,27,-1.000000,""
52,w0,python3action_imageprocessing_SampleImage_60mb,0.000000,1,-1.000000,1,COMPLETED_SUCCESSFULLY,161.015061,0.000010,161.015071,161.015061,161.015071,16101507.104976,27,-1.000000,""
58_updated,w0,python3action_imageprocessing_SampleImage_60mb_orion,0.997085,1,2000.000000,1,COMPLETED_SUCCESSFULLY,73.015076,88.000000,161.015076,72.017991,160.017991,1.818386,28,-1.000000,""
58,w0,python3action_imageprocessing_SampleImage_60mb,0.000000,1,-1.000000,1,COMPLETED_SUCCESSFULLY,161.015106,0.000010,161.015116,161.015106,161.015116,16101511.605579,28,-1.000000,""
8_updated,w0,python3action_modeltraining_reviews100mb_taurus,0.997085,1,2000.000000,1,COMPLETED_SUCCESSFULLY,73.015106,88.199977,161.215083,72.018021,160.217998,1.816531,30,-1.000000,""
8,w0,python3action_modeltraining_reviews100mb,0.000000,1,-1.000000,1,COMPLETED_SUCCESSFULLY,161.215098,0.000010,161.215108,161.215098,161.215108,16121510.800201,30,-1.000000,""
python3action_video_processing_job45_27,w0,python3action_video_processing_reduced_0.97,0.997085,1,2000.000000,1,COMPLETED_SUCCESSFULLY,161.215128,0.000010,161.215138,160.218043,160.218053,16021805.300602,30,-1.000000,""
35_updated,w0,python3action_modeltraining_reviews100mb_taurus,0.997085,1,2000.000000,1,COMPLETED_SUCCESSFULLY,73.015241,88.199977,161.215218,72.018156,160.218133,1.816533,39,-1.000000,""
35,w0,python3action_modeltraining_reviews100mb,0.000000,1,-1.000000,1,COMPLETED_SUCCESSFULLY,161.215233,0.000010,161.215243,161.215233,161.215243,16121524.301048,39,-1.000000,""
python3action_image_processing_job84_35,w0,python3action_image_processing_reduced_0.86,0.997085,1,2000.000000,1,COMPLETED_SUCCESSFULLY,161.215263,0.000000,161.215263,160.218178,160.218178,1389151303760.637451,39,-1.000000,""
python3action_modeltraining_job100_9,w0,python3action_modeltraining,0.997085,1,2000.000000,1,COMPLETED_SUCCESSFULLY,135.842441,30.499683,166.342124,134.845356,165.345039,5.421205,10,-1.000000,""
python3action_linpack_job106_24,w0,python3action_linpack,0.997085,1,2000.000000,1,COMPLETED_SUCCESSFULLY,161.015091,5.760927,166.776018,160.018006,165.778933,28.776432,27,-1.000000,""
python3action_linpack_job118_25,w0,python3action_linpack,0.997085,1,2000.000000,1,COMPLETED_SUCCESSFULLY,161.015136,5.760927,166.776063,160.018051,165.778978,28.776440,28,-1.000000,""
python3action_modeltraining_job86_22,w0,python3action_modeltraining,0.997085,1,2000.000000,1,COMPLETED_SUCCESSFULLY,138.842571,30.499683,169.342254,137.845486,168.345169,5.519571,25,-1.000000,""
44_updated,w0,python3action_imageprocessing_SampleImage_60mb_troll,0.997085,1,2000.000000,1,COMPLETED_SUCCESSFULLY,108.269760,62.000000,170.269760,107.272675,169.272675,2.730204,47,-1.000000,""
44,w0,python3action_imageprocessing_SampleImage_60mb,0.000000,1,-1.000000,1,COMPLETED_SUCCESSFULLY,170.269775,0.000010,170.269785,170.269775,170.269785,17026978.500201,47,-1.000000,""
47_updated,w0,python3action_imageprocessing_SampleImage_60mb_troll,0.997085,1,2000.000000,1,COMPLETED_SUCCESSFULLY,108.269790,62.000000,170.269790,107.272705,169.272705,2.730205,48,-1.000000,""
47,w0,python3action_imageprocessing_SampleImage_60mb,0.000000,1,-1.000000,1,COMPLETED_SUCCESSFULLY,170.269820,0.000010,170.269830,170.269820,170.269830,17026983.000803,48,-1.000000,""
python3action_modeltraining_job42_2,w0,python3action_modeltraining,0.997085,1,2000.000000,1,COMPLETED_SUCCESSFULLY,142.737274,30.499683,173.236957,141.740189,172.239872,5.647268,3,-1.000000,""
python3action_modeltraining_job50_4,w0,python3action_modeltraining,0.997085,1,2000.000000,1,COMPLETED_SUCCESSFULLY,142.737319,30.499683,173.237002,141.740234,172.239917,5.647269,5,-1.000000,""
python3action_modeltraining_job54_6,w0,python3action_modeltraining,0.997085,1,2000.000000,1,COMPLETED_SUCCESSFULLY,142.737364,30.499683,173.237047,141.740279,172.239962,5.647271,7,-1.000000,""
79_updated,w0,python3action_imageprocessing_SampleImage_40mb_taurus,0.997085,1,2000.000000,1,COMPLETED_SUCCESSFULLY,142.256059,32.600046,174.856105,141.258974,173.859020,5.333091,38,-1.000000,""
76_updated,w0,python3action_chameleon_2000_taurus,0.997085,1,2000.000000,1,COMPLETED_SUCCESSFULLY,110.656143,64.199977,174.856120,109.659058,173.859035,2.708086,37,-1.000000,""
79,w0,python3action_imageprocessing_SampleImage_40mb,0.000000,1,-1.000000,1,COMPLETED_SUCCESSFULLY,174.856120,0.000010,174.856130,174.856120,174.856130,17485612.993862,38,-1.000000,""
76,w0,python3action_chameleon_2000,0.000000,1,-1.000000,1,COMPLETED_SUCCESSFULLY,174.856150,0.000010,174.856160,174.856150,174.856160,17485616.000201,37,-1.000000,""
python3action_modeltraining_job117_33,w0,python3action_modeltraining_reduced_0.94,0.997085,1,2000.000000,1,COMPLETED_SUCCESSFULLY,174.856195,0.000000,174.856195,173.859110,173.859110,1507423267018.194336,37,-1.000000,""
62_updated,w0,python3action_linpack_5000_nova,0.997085,1,2000.000000,1,COMPLETED_SUCCESSFULLY,140.742079,34.600010,175.342089,139.744994,174.345004,5.038872,13,-1.000000,""
62,w0,python3action_linpack_5000,0.000000,1,-1.000000,1,COMPLETED_SUCCESSFULLY,175.342104,0.000010,175.342114,175.342104,175.342114,17534211.407280,13,-1.000000,""
python3action_pyaes_job103_11,w0,python3action_pyaes_reduced_0.85,0.997085,1,2000.000000,1,COMPLETED_SUCCESSFULLY,175.342134,0.320244,175.662378,174.345049,174.665293,545.413613,13,-1.000000,""
39_updated,w0,python3action_floatoperation_200000000_nova,0.997085,1,2000.000000,1,COMPLETED_SUCCESSFULLY,40.482206,135.399990,175.882197,39.485121,174.885112,1.291618,2,-1.000000,""
39,w0,python3action_floatoperation_200000000,0.000000,1,-1.000000,1,COMPLETED_SUCCESSFULLY,175.882212,0.000010,175.882222,175.882212,175.882222,17588222.200201,2,-1.000000,""
73_updated,w0,python3action_linpack_5000_nova,0.997085,1,2000.000000,1,COMPLETED_SUCCESSFULLY,141.282427,34.600010,175.882437,140.285342,174.885352,5.054489,19,-1.000000,""
73,w0,python3action_linpack_5000,0.000000,1,-1.000000,1,COMPLETED_SUCCESSFULLY,175.882452,0.000010,175.882462,175.882452,175.882462,17588246.200201,19,-1.000000,""
python3action_pyaes_job87_1,w0,python3action_pyaes_reduced_0.85,0.997085,1,2000.000000,1,COMPLETED_SUCCESSFULLY,175.882242,0.320244,176.202486,174.885157,175.205401,547.100165,2,-1.000000,""
75_updated,w0,python3action_modeltraining_reviews100mb_nova,0.997085,1,2000.000000,1,COMPLETED_SUCCESSFULLY,100.142254,79.600010,179.742264,99.145169,178.745179,2.245542,21,-1.000000,""
75,w0,python3action_modeltraining_reviews100mb,0.000000,1,-1.000000,1,COMPLETED_SUCCESSFULLY,179.742279,0.000010,179.742289,179.742279,179.742289,17974228.900201,21,-1.000000,""
99_updated,w0,python3action_linpack_5000_nova,0.997085,1,2000.000000,1,COMPLETED_SUCCESSFULLY,150.343436,34.600010,184.943446,149.346351,183.946361,5.316367,9,-1.000000,""
99,w0,python3action_linpack_5000,0.000000,1,-1.000000,1,COMPLETED_SUCCESSFULLY,184.943461,0.000010,184.943471,184.943461,184.943471,18494347.100201,9,-1.000000,""
41_updated,w0,python3action_chameleon_3000_troll,0.997085,1,2000.000000,1,COMPLETED_SUCCESSFULLY,95.870819,94.000000,189.870819,94.873734,188.873734,2.009295,46,-1.000000,""
41,w0,python3action_chameleon_3000,0.000000,1,-1.000000,1,COMPLETED_SUCCESSFULLY,189.870834,0.000010,189.870844,189.870834,189.870844,18987084.444447,46,-1.000000,""
2_updated,w0,python3action_facedetection_SampleVideo_30mb_nova,0.997085,1,2000.000000,1,COMPLETED_SUCCESSFULLY,31.501958,160.399990,191.901948,30.504873,190.904863,1.190180,4,-1.000000,""
2,w0,python3action_facedetection_SampleVideo_30mb,0.000000,1,-1.000000,1,COMPLETED_SUCCESSFULLY,191.901963,0.000010,191.901973,191.901963,191.901973,19190197.343649,4,-1.000000,""
python3action_modeltraining_job48_3,w0,python3action_modeltraining_reduced_0.94,0.997085,1,2000.000000,1,COMPLETED_SUCCESSFULLY,191.901993,0.000000,191.901993,190.904908,190.904908,3907428349131.429688,4,-1.000000,""
84_updated,w0,python3action_imageprocessing_SampleImage_40mb_taurus,0.997085,1,2000.000000,1,COMPLETED_SUCCESSFULLY,161.215293,32.600046,193.815339,160.218208,192.818254,5.914662,39,-1.000000,""
84,w0,python3action_imageprocessing_SampleImage_40mb,0.000000,1,-1.000000,1,COMPLETED_SUCCESSFULLY,193.815354,0.000010,193.815364,193.815354,193.815364,19381536.415130,39,-1.000000,""
python3action_chameleon_job135_35,w0,python3action_chameleon,0.997085,1,2000.000000,1,COMPLETED_SUCCESSFULLY,193.815384,5.040826,198.856210,192.818299,197.859125,39.251332,39,-1.000000,""
python3action_video_processing_job115_17,w0,python3action_video_processing,0.997085,1,2000.000000,1,COMPLETED_SUCCESSFULLY,175.882482,30.499683,206.382165,174.885397,205.385080,6.734007,19,-1.000000,""
127_updated,w0,python3action_imageprocessing_SampleImage_40mb_taurus,0.997085,1,2000.000000,1,COMPLETED_SUCCESSFULLY,174.856165,32.600046,207.456211,173.859080,206.459126,6.333093,38,-1.000000,""
127,w0,python3action_imageprocessing_SampleImage_40mb,0.000000,1,-1.000000,1,COMPLETED_SUCCESSFULLY,207.456226,0.000010,207.456236,207.456226,207.456236,20745623.613680,38,-1.000000,""
10_updated,w0,python3action_facedetection_SampleVideo_50mb_taurus,0.997085,1,2000.000000,1,COMPLETED_SUCCESSFULLY,73.015121,134.600046,207.615167,72.018036,206.618082,1.535052,31,-1.000000,""
10,w0,python3action_facedetection_SampleVideo_50mb,0.000000,1,-1.000000,1,COMPLETED_SUCCESSFULLY,207.615182,0.000010,207.615192,207.615182,207.615192,20761519.219058,31,-1.000000,""
17_updated,w0,python3action_facedetection_SampleVideo_50mb_taurus,0.997085,1,2000.000000,1,COMPLETED_SUCCESSFULLY,73.015151,134.600046,207.615197,72.018066,206.618112,1.535052,33,-1.000000,""
python3action_video_processing_job46_28,w0,python3action_video_processing_reduced_0.91,0.997085,1,2000.000000,1,COMPLETED_SUCCESSFULLY,207.615212,0.000010,207.615222,206.618127,206.618137,20661813.719460,31,-1.000000,""
17,w0,python3action_facedetection_SampleVideo_50mb,0.000000,1,-1.000000,1,COMPLETED_SUCCESSFULLY,207.615227,0.000010,207.615237,207.615227,207.615237,20761523.719660,33,-1.000000,""
python3action_image_processing_job63_30,w0,python3action_image_processing_reduced_0.86,0.997085,1,2000.000000,1,COMPLETED_SUCCESSFULLY,207.615272,0.000000,207.615272,206.618187,206.618187,1791456672957.441162,33,-1.000000,""
37_updated,w0,python3action_facedetection_SampleVideo_50mb_taurus,0.997085,1,2000.000000,1,COMPLETED_SUCCESSFULLY,73.015256,134.600046,207.615302,72.018171,206.618217,1.535053,40,-1.000000,""
37,w0,python3action_facedetection_SampleVideo_50mb,0.000000,1,-1.000000,1,COMPLETED_SUCCESSFULLY,207.615332,0.000010,207.615342,207.615332,207.615342,20761534.221066,40,-1.000000,""
python3action_modeltraining_job85_36,w0,python3action_modeltraining_reduced_0.94,0.997085,1,2000.000000,1,COMPLETED_SUCCESSFULLY,207.615362,0.000000,207.615362,206.618277,206.618277,1791457453395.438477,40,-1.000000,""
51_updated,w0,python3action_imageprocessing_SampleImage_60mb_troll,0.997085,1,2000.000000,1,COMPLETED_SUCCESSFULLY,147.769709,62.000000,209.769709,146.772624,208.772624,3.367300,44,-1.000000,""
51,w0,python3action_imageprocessing_SampleImage_60mb,0.000000,1,-1.000000,1,COMPLETED_SUCCESSFULLY,209.769724,0.000010,209.769734,209.769724,209.769734,20976973.445857,44,-1.000000,""
67_updated,w0,python3action_floatoperation_200000000_nova,0.997085,1,2000.000000,1,COMPLETED_SUCCESSFULLY,76.342119,135.399990,211.742109,75.345034,210.745024,1.556463,15,-1.000000,""
67,w0,python3action_floatoperation_200000000,0.000000,1,-1.000000,1,COMPLETED_SUCCESSFULLY,211.742124,0.000010,211.742134,211.742124,211.742134,21174213.423505,15,-1.000000,""
python3action_video_processing_job107_13,w0,python3action_video_processing_reduced_0.97,0.997085,1,2000.000000,1,COMPLETED_SUCCESSFULLY,211.742154,0.000010,211.742164,210.745069,210.745079,21074507.923907,15,-1.000000,""
86_updated,w0,python3action_modeltraining_reviews50mb_nova,0.997085,1,2000.000000,1,COMPLETED_SUCCESSFULLY,169.342269,42.399990,211.742259,168.345184,210.745174,4.970406,25,-1.000000,""
86,w0,python3action_modeltraining_reviews50mb,0.000000,1,-1.000000,1,COMPLETED_SUCCESSFULLY,211.742274,0.000010,211.742284,211.742274,211.742284,21174228.423505,25,-1.000000,""
54_updated,w0,python3action_modeltraining_reviews50mb_nova,0.997085,1,2000.000000,1,COMPLETED_SUCCESSFULLY,173.237062,42.399990,215.637052,172.239977,214.639967,5.062265,7,-1.000000,""
54,w0,python3action_modeltraining_reviews50mb,0.000000,1,-1.000000,1,COMPLETED_SUCCESSFULLY,215.637067,0.000010,215.637077,215.637067,215.637077,21563707.723505,7,-1.000000,""
python3action_linpack_job97_6,w0,python3action_linpack_reduced_0.85,0.997085,1,2000.000000,1,COMPLETED_SUCCESSFULLY,215.637097,0.365992,216.003089,214.640012,215.006004,587.461270,7,-1.000000,""
57_updated,w0,python3action_videoprocessing_SampleVideo_30mb_nova,0.997085,1,2000.000000,1,COMPLETED_SUCCESSFULLY,111.102103,106.799980,217.902083,110.105018,216.904998,2.030946,8,-1.000000,""
57,w0,python3action_videoprocessing_SampleVideo_30mb,0.000000,1,-1.000000,1,COMPLETED_SUCCESSFULLY,217.902098,0.000010,217.902108,217.902098,217.902108,21790210.847412,8,-1.000000,""
66_updated,w0,python3action_linpack_6000_orion,0.997085,1,2000.000000,1,COMPLETED_SUCCESSFULLY,112.763548,106.000000,218.763548,111.766463,217.766463,2.054401,26,-1.000000,""
66,w0,python3action_linpack_6000,0.000000,1,-1.000000,1,COMPLETED_SUCCESSFULLY,218.763563,0.000010,218.763573,218.763563,218.763573,21876357.301004,26,-1.000000,""
64_updated,w0,python3action_floatoperation_200000000_nova,0.997085,1,2000.000000,1,COMPLETED_SUCCESSFULLY,83.777409,135.399990,219.177400,82.780324,218.180315,1.611376,14,-1.000000,""
64,w0,python3action_floatoperation_200000000,0.000000,1,-1.000000,1,COMPLETED_SUCCESSFULLY,219.177415,0.000010,219.177425,219.177415,219.177425,21917742.500201,14,-1.000000,""
python3action_linpack_job98_7,w0,python3action_linpack,0.997085,1,2000.000000,1,COMPLETED_SUCCESSFULLY,217.902128,2.439945,220.342074,216.905043,219.344989,89.897503,8,-1.000000,""
22_updated,w0,python3action_videoprocessing_SampleVideo_50mb_taurus,0.997085,1,2000.000000,1,COMPLETED_SUCCESSFULLY,73.015166,154.250029,227.265195,72.018081,226.268110,1.466892,35,-1.000000,""
22,w0,python3action_videoprocessing_SampleVideo_50mb,0.000000,1,-1.000000,1,COMPLETED_SUCCESSFULLY,227.265210,0.000010,227.265220,227.265210,227.265220,22726522.000201,35,-1.000000,""
30_updated,w0,python3action_videoprocessing_SampleVideo_50mb_taurus,0.997085,1,2000.000000,1,COMPLETED_SUCCESSFULLY,73.015196,154.250029,227.265225,72.018111,226.268140,1.466892,36,-1.000000,""
30,w0,python3action_videoprocessing_SampleVideo_50mb,0.000000,1,-1.000000,1,COMPLETED_SUCCESSFULLY,227.265255,0.000010,227.265265,227.265255,227.265265,22726526.500402,36,-1.000000,""
python3action_facedetection_job68_32,w0,python3action_facedetection_reduced_0.91,0.997085,1,2000.000000,1,COMPLETED_SUCCESSFULLY,227.265285,0.000000,227.265285,226.268200,226.268200,1961829605952.912109,36,-1.000000,""
38_updated,w0,python3action_videoprocessing_SampleVideo_50mb_taurus,0.997085,1,2000.000000,1,COMPLETED_SUCCESSFULLY,73.015271,154.250029,227.265300,72.018186,226.268215,1.466893,41,-1.000000,""
38,w0,python3action_videoprocessing_SampleVideo_50mb,0.000000,1,-1.000000,1,COMPLETED_SUCCESSFULLY,227.265330,0.000010,227.265340,227.265330,227.265340,22726534.000402,41,-1.000000,""
python3action_facedetection_job91_37,w0,python3action_facedetection_reduced_0.91,0.997085,1,2000.000000,1,COMPLETED_SUCCESSFULLY,227.265360,0.000000,227.265360,226.268275,226.268275,1961830256230.858643,41,-1.000000,""
83_updated,w0,python3action_facedetection_SampleVideo_30mb_nova,0.997085,1,2000.000000,1,COMPLETED_SUCCESSFULLY,68.542274,160.399990,228.942264,67.545189,227.945179,1.421105,24,-1.000000,""
83,w0,python3action_facedetection_SampleVideo_30mb,0.000000,1,-1.000000,1,COMPLETED_SUCCESSFULLY,228.942279,0.000010,228.942289,228.942279,228.942289,22894228.923505,24,-1.000000,""
python3action_floatoperation_job124_21,w0,python3action_floatoperation,0.997085,1,2000.000000,1,COMPLETED_SUCCESSFULLY,228.942309,2.439945,231.382255,227.945224,230.385170,94.422268,24,-1.000000,""
56_updated,w0,python3action_imageprocessing_SampleImage_60mb_troll,0.997085,1,2000.000000,1,COMPLETED_SUCCESSFULLY,170.269805,62.000000,232.269805,169.272720,231.272720,3.730205,47,-1.000000,""
56,w0,python3action_imageprocessing_SampleImage_60mb,0.000000,1,-1.000000,1,COMPLETED_SUCCESSFULLY,232.269820,0.000010,232.269830,232.269820,232.269830,23226983.000803,47,-1.000000,""
186_updated,w0,python3action_imageprocessing_SampleImage_40mb_taurus,0.997085,1,2000.000000,1,COMPLETED_SUCCESSFULLY,207.456256,32.600046,240.056302,206.459171,239.059217,7.333094,38,-1.000000,""
186,w0,python3action_imageprocessing_SampleImage_40mb,0.000000,1,-1.000000,1,COMPLETED_SUCCESSFULLY,240.056317,0.000010,240.056327,240.056317,240.056327,24005632.727361,38,-1.000000,""
63_updated,w0,python3action_imageprocessing_SampleImage_40mb_taurus,0.997085,1,2000.000000,1,COMPLETED_SUCCESSFULLY,207.615302,32.600046,240.215348,206.618217,239.218263,7.337973,33,-1.000000,""
63,w0,python3action_imageprocessing_SampleImage_40mb,0.000000,1,-1.000000,1,COMPLETED_SUCCESSFULLY,240.215363,0.000010,240.215373,240.215363,240.215373,24021537.333943,33,-1.000000,""
python3action_chameleon_job110_30,w0,python3action_chameleon,0.997085,1,2000.000000,1,COMPLETED_SUCCESSFULLY,240.215393,5.040826,245.256219,239.218308,244.259134,48.456175,33,-1.000000,""
100_updated,w0,python3action_modeltraining_reviews100mb_nova,0.997085,1,2000.000000,1,COMPLETED_SUCCESSFULLY,166.342139,79.600010,245.942149,165.345054,244.945064,3.077199,10,-1.000000,""
100,w0,python3action_modeltraining_reviews100mb,0.000000,1,-1.000000,1,COMPLETED_SUCCESSFULLY,245.942164,0.000010,245.942174,245.942164,245.942174,24594217.400201,10,-1.000000,""
69_updated,w0,python3action_floatoperation_200000000_nova,0.997085,1,2000.000000,1,COMPLETED_SUCCESSFULLY,113.542153,135.399990,248.942144,112.545068,247.945059,1.831204,16,-1.000000,""
69,w0,python3action_floatoperation_200000000,0.000000,1,-1.000000,1,COMPLETED_SUCCESSFULLY,248.942159,0.000010,248.942169,248.942159,248.942169,24894216.900201,16,-1.000000,""
python3action_video_processing_job108_14,w0,python3action_video_processing_reduced_0.97,0.997085,1,2000.000000,1,COMPLETED_SUCCESSFULLY,248.942189,0.000010,248.942199,247.945104,247.945114,24794511.400602,16,-1.000000,""
python3action_facedetection_job104_12,w0,python3action_facedetection,0.997085,1,2000.000000,1,COMPLETED_SUCCESSFULLY,219.177445,30.499683,249.677128,218.180360,248.680043,8.153529,14,-1.000000,""
97_updated,w0,python3action_linpack_5000_nova,0.997085,1,2000.000000,1,COMPLETED_SUCCESSFULLY,216.003104,34.600010,250.603114,215.006019,249.606029,7.214045,7,-1.000000,""
97,w0,python3action_linpack_5000,0.000000,1,-1.000000,1,COMPLETED_SUCCESSFULLY,250.603129,0.000010,250.603139,250.603129,250.603139,25060313.900201,7,-1.000000,""
42_updated,w0,python3action_modeltraining_reviews100mb_nova,0.997085,1,2000.000000,1,COMPLETED_SUCCESSFULLY,173.236972,79.600010,252.836982,172.239887,251.839897,3.163817,3,-1.000000,""
42,w0,python3action_modeltraining_reviews100mb,0.000000,1,-1.000000,1,COMPLETED_SUCCESSFULLY,252.836997,0.000010,252.837007,252.836997,252.837007,25283700.700201,3,-1.000000,""
50_updated,w0,python3action_modeltraining_reviews100mb_nova,0.997085,1,2000.000000,1,COMPLETED_SUCCESSFULLY,173.237017,79.600010,252.837027,172.239932,251.839942,3.163818,5,-1.000000,""
50,w0,python3action_modeltraining_reviews100mb,0.000000,1,-1.000000,1,COMPLETED_SUCCESSFULLY,252.837057,0.000010,252.837067,252.837057,252.837067,25283706.700201,5,-1.000000,""
98_updated,w0,python3action_linpack_5000_nova,0.997085,1,2000.000000,1,COMPLETED_SUCCESSFULLY,220.342089,34.600010,254.942099,219.345004,253.945014,7.339449,8,-1.000000,""
98,w0,python3action_linpack_5000,0.000000,1,-1.000000,1,COMPLETED_SUCCESSFULLY,254.942114,0.000010,254.942124,254.942114,254.942124,25494212.400201,8,-1.000000,""
python3action_pyaes_job137_7,w0,python3action_pyaes_reduced_0.85,0.997085,1,2000.000000,1,COMPLETED_SUCCESSFULLY,254.942144,0.320244,255.262388,253.945059,254.265303,793.974322,8,-1.000000,""
python3action_floatoperation_job90_4,w0,python3action_floatoperation,0.997085,1,2000.000000,1,COMPLETED_SUCCESSFULLY,252.837087,2.439945,255.277032,251.840002,254.279947,104.215430,5,-1.000000,""
135_updated,w0,python3action_chameleon_2000_taurus,0.997085,1,2000.000000,1,COMPLETED_SUCCESSFULLY,198.856225,64.199977,263.056202,197.859140,262.059117,4.081919,39,-1.000000,""
117_updated,w0,python3action_modeltraining_reviews100mb_taurus,0.997085,1,2000.000000,1,COMPLETED_SUCCESSFULLY,174.856225,88.199977,263.056202,173.859140,262.059117,2.971193,37,-1.000000,""
135,w0,python3action_chameleon_2000,0.000000,1,-1.000000,1,COMPLETED_SUCCESSFULLY,263.056217,0.000010,263.056227,263.056217,263.056227,26305622.694866,39,-1.000000,""
117,w0,python3action_modeltraining_reviews100mb,0.000000,1,-1.000000,1,COMPLETED_SUCCESSFULLY,263.056247,0.000010,263.056257,263.056247,263.056257,26305625.700201,37,-1.000000,""
python3action_facedetection_job192_35,w0,python3action_facedetection_reduced_1.83,0.997085,1,2000.000000,1,COMPLETED_SUCCESSFULLY,263.056262,0.000000,263.056262,262.059177,262.059177,2272150712914.354004,39,-1.000000,""
77_updated,w0,python3action_chameleon_3000_troll,0.997085,1,2000.000000,1,COMPLETED_SUCCESSFULLY,170.269850,94.000000,264.269850,169.272765,263.272765,2.800774,48,-1.000000,""
77,w0,python3action_chameleon_3000,0.000000,1,-1.000000,1,COMPLETED_SUCCESSFULLY,264.269865,0.000010,264.269875,264.269865,264.269875,26426987.501405,48,-1.000000,""
48_updated,w0,python3action_modeltraining_reviews100mb_nova,0.997085,1,2000.000000,1,COMPLETED_SUCCESSFULLY,191.902023,79.600010,271.502033,190.904938,270.504948,3.398303,4,-1.000000,""
48,w0,python3action_modeltraining_reviews100mb,0.000000,1,-1.000000,1,COMPLETED_SUCCESSFULLY,271.502048,0.000010,271.502058,271.502048,271.502058,27150205.821549,4,-1.000000,""
82_updated,w0,python3action_facedetection_SampleVideo_30mb_nova,0.997085,1,2000.000000,1,COMPLETED_SUCCESSFULLY,111.102298,160.399990,271.502288,110.105213,270.505203,1.686442,22,-1.000000,""
82,w0,python3action_facedetection_SampleVideo_30mb,0.000000,1,-1.000000,1,COMPLETED_SUCCESSFULLY,271.502303,0.000010,271.502313,271.502303,271.502313,27150231.324963,22,-1.000000,""
78_updated,w0,python3action_imageprocessing_SampleImage_60mb_troll,0.997085,1,2000.000000,1,COMPLETED_SUCCESSFULLY,209.769754,62.000000,271.769754,208.772669,270.772669,4.367301,44,-1.000000,""
78,w0,python3action_imageprocessing_SampleImage_60mb,0.000000,1,-1.000000,1,COMPLETED_SUCCESSFULLY,271.769769,0.000010,271.769779,271.769769,271.769779,27176977.946459,44,-1.000000,""
53_updated,w0,python3action_facedetection_SampleVideo_30mb_nova,0.997085,1,2000.000000,1,COMPLETED_SUCCESSFULLY,111.837041,160.399990,272.237031,110.839956,271.239946,1.691022,6,-1.000000,""
53,w0,python3action_facedetection_SampleVideo_30mb,0.000000,1,-1.000000,1,COMPLETED_SUCCESSFULLY,272.237046,0.000010,272.237056,272.237046,272.237056,27223705.628566,6,-1.000000,""
71_updated,w0,python3action_facedetection_SampleVideo_30mb_nova,0.997085,1,2000.000000,1,COMPLETED_SUCCESSFULLY,111.837192,160.399990,272.237182,110.840107,271.240097,1.691023,17,-1.000000,""
71,w0,python3action_facedetection_SampleVideo_30mb,0.000000,1,-1.000000,1,COMPLETED_SUCCESSFULLY,272.237197,0.000010,272.237207,272.237197,272.237207,27223720.723505,17,-1.000000,""
106_updated,w0,python3action_linpack_6000_orion,0.997085,1,2000.000000,1,COMPLETED_SUCCESSFULLY,166.776033,106.000000,272.776033,165.778948,271.778948,2.563952,27,-1.000000,""
106,w0,python3action_linpack_6000,0.000000,1,-1.000000,1,COMPLETED_SUCCESSFULLY,272.776048,0.000010,272.776058,272.776048,272.776058,27277605.828649,27,-1.000000,""
118_updated,w0,python3action_linpack_6000_orion,0.997085,1,2000.000000,1,COMPLETED_SUCCESSFULLY,166.776078,106.000000,272.776078,165.778993,271.778993,2.563953,28,-1.000000,""
118,w0,python3action_linpack_6000,0.000000,1,-1.000000,1,COMPLETED_SUCCESSFULLY,272.776108,0.000010,272.776118,272.776108,272.776118,27277611.829452,28,-1.000000,""
python3action_floatoperation_job89_3,w0,python3action_floatoperation,0.997085,1,2000.000000,1,COMPLETED_SUCCESSFULLY,271.502078,2.439945,273.942024,270.504993,272.944939,111.865188,4,-1.000000,""
python3action_floatoperation_job120_20,w0,python3action_floatoperation,0.997085,1,2000.000000,1,COMPLETED_SUCCESSFULLY,271.502333,2.439945,273.942279,270.505248,272.945194,111.865292,22,-1.000000,""
python3action_floatoperation_job109_15,w0,python3action_floatoperation,0.997085,1,2000.000000,1,COMPLETED_SUCCESSFULLY,272.237227,2.439945,274.677173,271.240142,273.680088,112.166485,17,-1.000000,""
49_updated,w0,python3action_facedetection_SampleVideo_50mb_taurus,0.997085,1,2000.000000,1,COMPLETED_SUCCESSFULLY,142.255999,134.600046,276.856045,141.258914,275.858960,2.049472,32,-1.000000,""
49,w0,python3action_facedetection_SampleVideo_50mb,0.000000,1,-1.000000,1,COMPLETED_SUCCESSFULLY,276.856060,0.000010,276.856070,276.856060,276.856070,27685607.013479,32,-1.000000,""
python3action_modeltraining_job105_29,w0,python3action_modeltraining_reduced_0.94,0.997085,1,2000.000000,1,COMPLETED_SUCCESSFULLY,276.856090,0.000000,276.856090,275.859005,275.859005,2391800364924.335449,32,-1.000000,""
74_updated,w0,python3action_pyaes_4000_nova,0.997085,1,2000.000000,1,COMPLETED_SUCCESSFULLY,140.977484,139.600010,280.577494,139.980399,279.580409,2.002725,20,-1.000000,""
74,w0,python3action_pyaes_4000,0.000000,1,-1.000000,1,COMPLETED_SUCCESSFULLY,280.577509,0.000010,280.577519,280.577509,280.577519,28057751.927043,20,-1.000000,""
55_updated,w0,python3action_chameleon_3000_troll,0.997085,1,2000.000000,1,COMPLETED_SUCCESSFULLY,189.870864,94.000000,283.870864,188.873779,282.873779,3.009296,46,-1.000000,""
55,w0,python3action_chameleon_3000,0.000000,1,-1.000000,1,COMPLETED_SUCCESSFULLY,283.870879,0.000010,283.870889,283.870879,283.870889,28387088.945050,46,-1.000000,""
python3action_image_processing_job123_23,w0,python3action_image_processing,0.997085,1,2000.000000,1,COMPLETED_SUCCESSFULLY,218.763593,72.012455,290.776048,217.766508,289.778963,4.024012,26,-1.000000,""
102_updated,w0,python3action_floatoperation_200000000_nova,0.997085,1,2000.000000,1,COMPLETED_SUCCESSFULLY,155.942114,135.399990,291.342104,154.945029,290.345019,2.144350,11,-1.000000,""
102,w0,python3action_floatoperation_200000000,0.000000,1,-1.000000,1,COMPLETED_SUCCESSFULLY,291.342119,0.000010,291.342129,291.342119,291.342129,29134212.923505,11,-1.000000,""
81_updated,w0,python3action_imageprocessing_SampleImage_60mb_troll,0.997085,1,2000.000000,1,COMPLETED_SUCCESSFULLY,232.269850,62.000000,294.269850,231.272765,293.272765,4.730206,47,-1.000000,""
81,w0,python3action_imageprocessing_SampleImage_60mb,0.000000,1,-1.000000,1,COMPLETED_SUCCESSFULLY,294.269865,0.000010,294.269875,294.269865,294.269875,29426987.501405,47,-1.000000,""
88_updated,w0,python3action_modeltraining_reviews50mb_nova,0.997085,1,2000.000000,1,COMPLETED_SUCCESSFULLY,252.837027,42.399990,295.237017,251.839942,294.239932,6.939623,3,-1.000000,""
88,w0,python3action_modeltraining_reviews50mb,0.000000,1,-1.000000,1,COMPLETED_SUCCESSFULLY,295.237032,0.000010,295.237042,295.237032,295.237042,29523704.200602,3,-1.000000,""
85_updated,w0,python3action_modeltraining_reviews100mb_taurus,0.997085,1,2000.000000,1,COMPLETED_SUCCESSFULLY,207.615392,88.199977,295.815369,206.618307,294.818284,3.342612,40,-1.000000,""
85,w0,python3action_modeltraining_reviews100mb,0.000000,1,-1.000000,1,COMPLETED_SUCCESSFULLY,295.815384,0.000010,295.815394,295.815384,295.815394,29581539.415531,40,-1.000000,""
43_updated,w0,python3action_videoprocessing_SampleVideo_50mb_taurus,0.997085,1,2000.000000,1,COMPLETED_SUCCESSFULLY,142.255939,154.250029,296.505968,141.258854,295.508883,1.915778,29,-1.000000,""
43,w0,python3action_videoprocessing_SampleVideo_50mb,0.000000,1,-1.000000,1,COMPLETED_SUCCESSFULLY,296.505983,0.000010,296.505993,296.505983,296.505993,29650599.300201,29,-1.000000,""
python3action_facedetection_job94_26,w0,python3action_facedetection_reduced_0.91,0.997085,1,2000.000000,1,COMPLETED_SUCCESSFULLY,296.506013,0.000000,296.506013,295.508928,295.508928,2562172518122.198242,29,-1.000000,""
72_updated,w0,python3action_facedetection_SampleVideo_30mb_nova,0.997085,1,2000.000000,1,COMPLETED_SUCCESSFULLY,138.302224,160.399990,298.702214,137.305139,297.705129,1.856017,18,-1.000000,""
72,w0,python3action_facedetection_SampleVideo_30mb,0.000000,1,-1.000000,1,COMPLETED_SUCCESSFULLY,298.702229,0.000010,298.702239,298.702229,298.702239,29870223.924308,18,-1.000000,""
110_updated,w0,python3action_chameleon_2000_taurus,0.997085,1,2000.000000,1,COMPLETED_SUCCESSFULLY,245.256234,64.199977,309.456211,244.259149,308.459126,4.804661,33,-1.000000,""
110,w0,python3action_chameleon_2000,0.000000,1,-1.000000,1,COMPLETED_SUCCESSFULLY,309.456226,0.000010,309.456236,309.456226,309.456236,30945623.602305,33,-1.000000,""
111_updated,w0,python3action_chameleon_2000_troll,0.997085,1,2000.000000,1,COMPLETED_SUCCESSFULLY,271.769799,39.500010,311.269809,270.772714,310.272724,7.855004,44,-1.000000,""
111,w0,python3action_chameleon_2000,0.000000,1,-1.000000,1,COMPLETED_SUCCESSFULLY,311.269824,0.000010,311.269834,311.269824,311.269834,31126983.439894,44,-1.000000,""
115_updated,w0,python3action_videoprocessing_SampleVideo_30mb_nova,0.997085,1,2000.000000,1,COMPLETED_SUCCESSFULLY,206.382180,106.799980,313.182160,205.385095,312.185075,2.923082,19,-1.000000,""
115,w0,python3action_videoprocessing_SampleVideo_30mb,0.000000,1,-1.000000,1,COMPLETED_SUCCESSFULLY,313.182175,0.000010,313.182185,313.182175,313.182185,31318218.546609,19,-1.000000,""
python3action_pyaes_job156_17,w0,python3action_pyaes_reduced_0.85,0.997085,1,2000.000000,1,COMPLETED_SUCCESSFULLY,313.182205,0.320244,313.502449,312.185120,312.505364,975.835994,19,-1.000000,""
119_updated,w0,python3action_floatoperation_200000000_nova,0.997085,1,2000.000000,1,COMPLETED_SUCCESSFULLY,179.742309,135.399990,315.142299,178.745224,314.145214,2.320127,21,-1.000000,""
119,w0,python3action_floatoperation_200000000,0.000000,1,-1.000000,1,COMPLETED_SUCCESSFULLY,315.142314,0.000010,315.142324,315.142314,315.142324,31514232.423907,21,-1.000000,""
103_updated,w0,python3action_pyaes_4000_nova,0.997085,1,2000.000000,1,COMPLETED_SUCCESSFULLY,175.662393,139.600010,315.262403,174.665308,314.265318,2.251184,13,-1.000000,""
103,w0,python3action_pyaes_4000,0.000000,1,-1.000000,1,COMPLETED_SUCCESSFULLY,315.262418,0.000010,315.262428,315.262418,315.262428,31526242.800201,13,-1.000000,""
45_updated,w0,python3action_videoprocessing_SampleVideo_50mb_taurus,0.997085,1,2000.000000,1,COMPLETED_SUCCESSFULLY,161.215158,154.250029,315.465187,160.218073,314.468102,2.038691,30,-1.000000,""
45,w0,python3action_videoprocessing_SampleVideo_50mb,0.000000,1,-1.000000,1,COMPLETED_SUCCESSFULLY,315.465202,0.000010,315.465212,315.465202,315.465212,31546521.200201,30,-1.000000,""
python3action_facedetection_job95_27,w0,python3action_facedetection_reduced_1.83,0.997085,1,2000.000000,1,COMPLETED_SUCCESSFULLY,315.465232,0.000000,315.465232,314.468147,314.468147,2726556011421.768066,30,-1.000000,""
87_updated,w0,python3action_pyaes_4000_nova,0.997085,1,2000.000000,1,COMPLETED_SUCCESSFULLY,176.202501,139.600010,315.802511,175.205416,314.805426,2.255053,2,-1.000000,""
87,w0,python3action_pyaes_4000,0.000000,1,-1.000000,1,COMPLETED_SUCCESSFULLY,315.802526,0.000010,315.802536,315.802526,315.802536,31580253.600201,2,-1.000000,""
python3action_pyaes_job162_19,w0,python3action_pyaes,0.997085,1,2000.000000,1,COMPLETED_SUCCESSFULLY,315.142344,2.134958,317.277302,314.145259,316.280217,148.143515,21,-1.000000,""
107_updated,w0,python3action_videoprocessing_SampleVideo_30mb_nova,0.997085,1,2000.000000,1,COMPLETED_SUCCESSFULLY,211.742184,106.799980,318.542165,210.745099,317.545080,2.973269,15,-1.000000,""
107,w0,python3action_videoprocessing_SampleVideo_30mb,0.000000,1,-1.000000,1,COMPLETED_SUCCESSFULLY,318.542180,0.000010,318.542190,318.542180,318.542190,31854219.000201,15,-1.000000,""
138_updated,w0,python3action_pyaes_4000_nova,0.997085,1,2000.000000,1,COMPLETED_SUCCESSFULLY,184.943491,139.600010,324.543501,183.946406,323.546416,2.317668,9,-1.000000,""
138,w0,python3action_pyaes_4000,0.000000,1,-1.000000,1,COMPLETED_SUCCESSFULLY,324.543516,0.000010,324.543526,324.543516,324.543526,32454352.600201,9,-1.000000,""
139_updated,w0,python3action_modeltraining_reviews100mb_nova,0.997085,1,2000.000000,1,COMPLETED_SUCCESSFULLY,245.942194,79.600010,325.542204,244.945109,324.545119,4.077199,10,-1.000000,""
139,w0,python3action_modeltraining_reviews100mb,0.000000,1,-1.000000,1,COMPLETED_SUCCESSFULLY,325.542219,0.000010,325.542229,325.542219,325.542229,32554222.900201,10,-1.000000,""
101_updated,w0,python3action_imageprocessing_SampleImage_60mb_troll,0.997085,1,2000.000000,1,COMPLETED_SUCCESSFULLY,264.269895,62.000000,326.269895,263.272810,325.272810,5.246336,48,-1.000000,""
101,w0,python3action_imageprocessing_SampleImage_60mb,0.000000,1,-1.000000,1,COMPLETED_SUCCESSFULLY,326.269910,0.000010,326.269920,326.269910,326.269920,32626992.002008,48,-1.000000,""
python3action_pyaes_job179_9,w0,python3action_pyaes,0.997085,1,2000.000000,1,COMPLETED_SUCCESSFULLY,325.542249,2.134958,327.677207,324.545164,326.680122,153.014760,10,-1.000000,""
134_updated,w0,python3action_modeltraining_reviews100mb_nova,0.997085,1,2000.000000,1,COMPLETED_SUCCESSFULLY,250.603159,79.600010,330.203169,249.606074,329.206084,4.135754,7,-1.000000,""
134,w0,python3action_modeltraining_reviews100mb,0.000000,1,-1.000000,1,COMPLETED_SUCCESSFULLY,330.203184,0.000010,330.203194,330.203184,330.203194,33020319.400201,7,-1.000000,""
137_updated,w0,python3action_pyaes_3000_nova,0.997085,1,2000.000000,1,COMPLETED_SUCCESSFULLY,255.262403,78.200020,333.462423,254.265318,332.465338,4.251474,8,-1.000000,""
137,w0,python3action_pyaes_3000,0.000000,1,-1.000000,1,COMPLETED_SUCCESSFULLY,333.462438,0.000010,333.462448,333.462438,333.462448,33346244.800201,8,-1.000000,""
python3action_floatoperation_job177_7,w0,python3action_floatoperation,0.997085,1,2000.000000,1,COMPLETED_SUCCESSFULLY,333.462468,2.439945,335.902413,332.465383,334.905328,137.259360,8,-1.000000,""
120_updated,w0,python3action_floatoperation_100000000_nova,0.997085,1,2000.000000,1,COMPLETED_SUCCESSFULLY,273.942294,66.200020,340.142314,272.945209,339.145229,5.123038,22,-1.000000,""
120,w0,python3action_floatoperation_100000000,0.000000,1,-1.000000,1,COMPLETED_SUCCESSFULLY,340.142329,0.000010,340.142339,340.142329,340.142339,34014233.900201,22,-1.000000,""
109_updated,w0,python3action_floatoperation_100000000_nova,0.997085,1,2000.000000,1,COMPLETED_SUCCESSFULLY,274.677188,66.200020,340.877208,273.680103,339.880123,5.134139,17,-1.000000,""
109,w0,python3action_floatoperation_100000000,0.000000,1,-1.000000,1,COMPLETED_SUCCESSFULLY,340.877223,0.000010,340.877233,340.877223,340.877233,34087723.300201,17,-1.000000,""
python3action_video_processing_job150_15,w0,python3action_video_processing_reduced_0.91,0.997085,1,2000.000000,1,COMPLETED_SUCCESSFULLY,340.877253,0.000010,340.877263,339.880168,339.880178,33988017.800602,17,-1.000000,""
python3action_facedetection_job126_1,w0,python3action_facedetection,0.997085,1,2000.000000,1,COMPLETED_SUCCESSFULLY,315.802556,30.499683,346.302239,314.805471,345.305154,11.321598,2,-1.000000,""
125_updated,w0,python3action_floatoperation_200000000_nova,0.997085,1,2000.000000,1,COMPLETED_SUCCESSFULLY,211.742304,135.399990,347.142294,210.745219,346.145209,2.556464,25,-1.000000,""
125,w0,python3action_floatoperation_200000000,0.000000,1,-1.000000,1,COMPLETED_SUCCESSFULLY,347.142309,0.000010,347.142319,347.142309,347.142319,34714231.947212,25,-1.000000,""
python3action_facedetection_job167_22,w0,python3action_facedetection_reduced_0.91,0.997085,1,2000.000000,1,COMPLETED_SUCCESSFULLY,347.142339,0.000000,347.142339,346.145254,346.145254,7089000832522.346680,25,-1.000000,""
142_updated,w0,python3action_linpack_5000_nova,0.997085,1,2000.000000,1,COMPLETED_SUCCESSFULLY,315.262448,34.600010,349.862458,314.265363,348.865373,10.082811,13,-1.000000,""
142,w0,python3action_linpack_5000,0.000000,1,-1.000000,1,COMPLETED_SUCCESSFULLY,349.862473,0.000010,349.862483,349.862473,349.862483,34986248.300201,13,-1.000000,""
185_updated,w0,python3action_modeltraining_reviews100mb_taurus,0.997085,1,2000.000000,1,COMPLETED_SUCCESSFULLY,263.056292,88.199977,351.256269,262.059207,350.259184,3.971194,37,-1.000000,""
185,w0,python3action_modeltraining_reviews100mb,0.000000,1,-1.000000,1,COMPLETED_SUCCESSFULLY,351.256284,0.000010,351.256294,351.256284,351.256294,35125629.400201,37,-1.000000,""
108_updated,w0,python3action_videoprocessing_SampleVideo_30mb_nova,0.997085,1,2000.000000,1,COMPLETED_SUCCESSFULLY,248.942219,106.799980,355.742199,247.945134,354.745114,3.321584,16,-1.000000,""
108,w0,python3action_videoprocessing_SampleVideo_30mb,0.000000,1,-1.000000,1,COMPLETED_SUCCESSFULLY,355.742214,0.000010,355.742224,355.742214,355.742224,35574222.447413,16,-1.000000,""
46_updated,w0,python3action_videoprocessing_SampleVideo_50mb_taurus,0.997085,1,2000.000000,1,COMPLETED_SUCCESSFULLY,207.615257,154.250029,361.865286,206.618172,360.868201,2.339502,31,-1.000000,""
46,w0,python3action_videoprocessing_SampleVideo_50mb,0.000000,1,-1.000000,1,COMPLETED_SUCCESSFULLY,361.865301,0.000010,361.865311,361.865301,361.865311,36186531.103437,31,-1.000000,""
68_updated,w0,python3action_facedetection_SampleVideo_50mb_taurus,0.997085,1,2000.000000,1,COMPLETED_SUCCESSFULLY,227.265315,134.600046,361.865361,226.268230,360.868276,2.681041,36,-1.000000,""
68,w0,python3action_facedetection_SampleVideo_50mb,0.000000,1,-1.000000,1,COMPLETED_SUCCESSFULLY,361.865376,0.000010,361.865386,361.865376,361.865386,36186538.613480,36,-1.000000,""
91_updated,w0,python3action_facedetection_SampleVideo_50mb_taurus,0.997085,1,2000.000000,1,COMPLETED_SUCCESSFULLY,227.265390,134.600046,361.865436,226.268305,360.868351,2.681042,41,-1.000000,""
91,w0,python3action_facedetection_SampleVideo_50mb,0.000000,1,-1.000000,1,COMPLETED_SUCCESSFULLY,361.865451,0.000010,361.865461,361.865451,361.865461,36186546.114484,41,-1.000000,""
python3action_modeltraining_job152_37,w0,python3action_modeltraining_reduced_1.94,0.997085,1,2000.000000,1,COMPLETED_SUCCESSFULLY,361.865481,0.000000,361.865481,360.868396,360.868396,3128863461115.209473,41,-1.000000,""
176_updated,w0,python3action_linpack_5000_nova,0.997085,1,2000.000000,1,COMPLETED_SUCCESSFULLY,330.203214,34.600010,364.803224,329.206129,363.806139,10.514625,7,-1.000000,""
176,w0,python3action_linpack_5000,0.000000,1,-1.000000,1,COMPLETED_SUCCESSFULLY,364.803239,0.000010,364.803249,364.803239,364.803249,36480324.900201,7,-1.000000,""
105_updated,w0,python3action_modeltraining_reviews100mb_taurus,0.997085,1,2000.000000,1,COMPLETED_SUCCESSFULLY,276.856120,88.199977,365.056097,275.859035,364.059012,4.127654,32,-1.000000,""
105,w0,python3action_modeltraining_reviews100mb,0.000000,1,-1.000000,1,COMPLETED_SUCCESSFULLY,365.056112,0.000010,365.056122,365.056112,365.056122,36505612.207945,32,-1.000000,""
124_updated,w0,python3action_floatoperation_200000000_nova,0.997085,1,2000.000000,1,COMPLETED_SUCCESSFULLY,231.382270,135.399990,366.782260,230.385185,365.785175,2.701516,24,-1.000000,""
124,w0,python3action_floatoperation_200000000,0.000000,1,-1.000000,1,COMPLETED_SUCCESSFULLY,366.782275,0.000010,366.782285,366.782275,366.782285,36678228.523506,24,-1.000000,""
140_updated,w0,python3action_modeltraining_reviews100mb_nova,0.997085,1,2000.000000,1,COMPLETED_SUCCESSFULLY,291.342149,79.600010,370.942159,290.345064,369.945074,4.647551,11,-1.000000,""
140,w0,python3action_modeltraining_reviews100mb,0.000000,1,-1.000000,1,COMPLETED_SUCCESSFULLY,370.942174,0.000010,370.942184,370.942174,370.942184,37094218.401005,11,-1.000000,""
python3action_pyaes_job180_10,w0,python3action_pyaes,0.997085,1,2000.000000,1,COMPLETED_SUCCESSFULLY,370.942204,2.134958,373.077162,369.945119,372.080077,174.279792,11,-1.000000,""
141_updated,w0,python3action_imageprocessing_SampleImage_60mb_troll,0.997085,1,2000.000000,1,COMPLETED_SUCCESSFULLY,311.269854,62.000000,373.269854,310.272769,372.272769,6.004400,44,-1.000000,""
141,w0,python3action_imageprocessing_SampleImage_60mb,0.000000,1,-1.000000,1,COMPLETED_SUCCESSFULLY,373.269869,0.000010,373.269879,373.269869,373.269879,37326987.940497,44,-1.000000,""
128_updated,w0,python3action_pyaes_3000_nova,0.997085,1,2000.000000,1,COMPLETED_SUCCESSFULLY,295.237062,78.200020,373.437082,294.239977,372.439997,4.762659,3,-1.000000,""
128,w0,python3action_pyaes_3000,0.000000,1,-1.000000,1,COMPLETED_SUCCESSFULLY,373.437097,0.000010,373.437107,373.437097,373.437107,37343710.700201,3,-1.000000,""
python3action_floatoperation_job171_2,w0,python3action_floatoperation,0.997085,1,2000.000000,1,COMPLETED_SUCCESSFULLY,373.437127,2.439945,375.877072,372.440042,374.879987,153.642784,3,-1.000000,""
80_updated,w0,python3action_chameleon_3000_troll,0.997085,1,2000.000000,1,COMPLETED_SUCCESSFULLY,283.870909,94.000000,377.870909,282.873824,376.873824,4.009296,46,-1.000000,""
80,w0,python3action_chameleon_3000,0.000000,1,-1.000000,1,COMPLETED_SUCCESSFULLY,377.870924,0.000010,377.870934,377.870924,377.870934,37787093.445653,46,-1.000000,""
123_updated,w0,python3action_imageprocessing_SampleImage_60mb_orion,0.997085,1,2000.000000,1,COMPLETED_SUCCESSFULLY,290.776063,88.000000,378.776063,289.778978,377.778978,4.292943,26,-1.000000,""
130_updated,w0,python3action_linpack_6000_orion,0.997085,1,2000.000000,1,COMPLETED_SUCCESSFULLY,272.776078,106.000000,378.776078,271.778993,377.778993,3.563953,27,-1.000000,""
123,w0,python3action_imageprocessing_SampleImage_60mb,0.000000,1,-1.000000,1,COMPLETED_SUCCESSFULLY,378.776078,0.000010,378.776088,378.776078,378.776088,37877608.829252,26,-1.000000,""
130,w0,python3action_linpack_6000,0.000000,1,-1.000000,1,COMPLETED_SUCCESSFULLY,378.776108,0.000010,378.776118,378.776108,378.776118,37877611.829653,27,-1.000000,""
132_updated,w0,python3action_linpack_6000_orion,0.997085,1,2000.000000,1,COMPLETED_SUCCESSFULLY,272.776138,106.000000,378.776138,271.779053,377.779053,3.563953,28,-1.000000,""
132,w0,python3action_linpack_6000,0.000000,1,-1.000000,1,COMPLETED_SUCCESSFULLY,378.776168,0.000010,378.776178,378.776168,378.776178,37877617.830456,28,-1.000000,""
65_updated,w0,python3action_videoprocessing_SampleVideo_50mb_taurus,0.997085,1,2000.000000,1,COMPLETED_SUCCESSFULLY,227.265240,154.250029,381.515269,226.268155,380.518184,2.466892,35,-1.000000,""
65,w0,python3action_videoprocessing_SampleVideo_50mb,0.000000,1,-1.000000,1,COMPLETED_SUCCESSFULLY,381.515284,0.000010,381.515294,381.515284,381.515294,38151529.400201,35,-1.000000,""
python3action_modeltraining_job112_31,w0,python3action_modeltraining_reduced_1.0,0.997085,1,2000.000000,1,COMPLETED_SUCCESSFULLY,381.515314,0.000000,381.515314,380.518229,380.518229,3299234833892.409668,35,-1.000000,""
148_updated,w0,python3action_modeltraining_reviews100mb_taurus,0.997085,1,2000.000000,1,COMPLETED_SUCCESSFULLY,295.815414,88.199977,384.015391,294.818329,383.018306,4.342612,40,-1.000000,""
148,w0,python3action_modeltraining_reviews100mb,0.000000,1,-1.000000,1,COMPLETED_SUCCESSFULLY,384.015406,0.000010,384.015416,384.015406,384.015416,38401541.609595,40,-1.000000,""
122_updated,w0,python3action_chameleon_3000_troll,0.997085,1,2000.000000,1,COMPLETED_SUCCESSFULLY,294.269895,94.000000,388.269895,293.272810,387.272810,4.119924,47,-1.000000,""
122,w0,python3action_chameleon_3000,0.000000,1,-1.000000,1,COMPLETED_SUCCESSFULLY,388.269910,0.000010,388.269920,388.269910,388.269920,38826992.002008,47,-1.000000,""
python3action_image_processing_job121_39,w0,python3action_image_processing,0.997085,1,2000.000000,1,COMPLETED_SUCCESSFULLY,377.870954,12.398880,390.269835,376.873869,389.272750,31.395799,46,-1.000000,""
90_updated,w0,python3action_floatoperation_200000000_nova,0.997085,1,2000.000000,1,COMPLETED_SUCCESSFULLY,255.277047,135.399990,390.677038,254.279962,389.679953,2.877991,5,-1.000000,""
90,w0,python3action_floatoperation_200000000,0.000000,1,-1.000000,1,COMPLETED_SUCCESSFULLY,390.677053,0.000010,390.677063,390.677053,390.677063,39067706.300201,5,-1.000000,""
178_updated,w0,python3action_floatoperation_100000000_nova,0.997085,1,2000.000000,1,COMPLETED_SUCCESSFULLY,324.543546,66.200020,390.743566,323.546461,389.746481,5.887407,9,-1.000000,""
178,w0,python3action_floatoperation_100000000,0.000000,1,-1.000000,1,COMPLETED_SUCCESSFULLY,390.743581,0.000010,390.743591,390.743581,390.743591,39074359.100201,9,-1.000000,""
python3action_linpack_job131_4,w0,python3action_linpack_reduced_0.85,0.997085,1,2000.000000,1,COMPLETED_SUCCESSFULLY,390.677083,0.365992,391.043075,389.679998,390.045990,1065.723320,5,-1.000000,""
192_updated,w0,python3action_facedetection_SampleVideo_50mb_taurus,0.997085,1,2000.000000,1,COMPLETED_SUCCESSFULLY,263.056307,134.600046,397.656353,262.059222,396.659268,2.946947,39,-1.000000,""
192,w0,python3action_facedetection_SampleVideo_50mb,0.000000,1,-1.000000,1,COMPLETED_SUCCESSFULLY,397.656368,0.000010,397.656378,397.656368,397.656378,39765637.814284,39,-1.000000,""
177_updated,w0,python3action_floatoperation_100000000_nova,0.997085,1,2000.000000,1,COMPLETED_SUCCESSFULLY,335.902428,66.200020,402.102448,334.905343,401.105363,6.058992,8,-1.000000,""
177,w0,python3action_floatoperation_100000000,0.000000,1,-1.000000,1,COMPLETED_SUCCESSFULLY,402.102463,0.000010,402.102473,402.102463,402.102473,40210247.300201,8,-1.000000,""
114_updated,w0,python3action_videoprocessing_SampleVideo_30mb_nova,0.997085,1,2000.000000,1,COMPLETED_SUCCESSFULLY,298.702259,106.799980,405.502240,297.705174,404.505155,3.787502,18,-1.000000,""
114,w0,python3action_videoprocessing_SampleVideo_30mb,0.000000,1,-1.000000,1,COMPLETED_SUCCESSFULLY,405.502255,0.000010,405.502265,405.502255,405.502265,40550226.500201,18,-1.000000,""
179_updated,w0,python3action_pyaes_3000_nova,0.997085,1,2000.000000,1,COMPLETED_SUCCESSFULLY,327.677222,78.200020,405.877242,326.680137,404.880157,5.177494,10,-1.000000,""
179,w0,python3action_pyaes_3000,0.000000,1,-1.000000,1,COMPLETED_SUCCESSFULLY,405.877257,0.000010,405.877267,405.877257,405.877267,40587726.700201,10,-1.000000,""
python3action_floatoperation_job153_16,w0,python3action_floatoperation,0.997085,1,2000.000000,1,COMPLETED_SUCCESSFULLY,405.502285,2.439945,407.942230,404.505200,406.945145,166.784537,18,-1.000000,""
89_updated,w0,python3action_floatoperation_200000000_nova,0.997085,1,2000.000000,1,COMPLETED_SUCCESSFULLY,273.942039,135.399990,409.342029,272.944954,408.344944,3.015842,4,-1.000000,""
89,w0,python3action_floatoperation_200000000,0.000000,1,-1.000000,1,COMPLETED_SUCCESSFULLY,409.342044,0.000010,409.342054,409.342044,409.342054,40934205.423506,4,-1.000000,""
104_updated,w0,python3action_facedetection_SampleVideo_30mb_nova,0.997085,1,2000.000000,1,COMPLETED_SUCCESSFULLY,249.677143,160.399990,410.077133,248.680058,409.080048,2.550375,14,-1.000000,""
104,w0,python3action_facedetection_SampleVideo_30mb,0.000000,1,-1.000000,1,COMPLETED_SUCCESSFULLY,410.077148,0.000010,410.077158,410.077148,410.077158,41007715.823506,14,-1.000000,""
python3action_linpack_job129_3,w0,python3action_linpack,0.997085,1,2000.000000,1,COMPLETED_SUCCESSFULLY,409.342074,2.439945,411.782020,408.344989,410.784935,168.358256,4,-1.000000,""
116_updated,w0,python3action_floatoperation_200000000_nova,0.997085,1,2000.000000,1,COMPLETED_SUCCESSFULLY,280.577539,135.399990,415.977530,279.580454,414.980445,3.064848,20,-1.000000,""
116,w0,python3action_floatoperation_200000000,0.000000,1,-1.000000,1,COMPLETED_SUCCESSFULLY,415.977545,0.000010,415.977555,415.977545,415.977555,41597755.500201,20,-1.000000,""
136_updated,w0,python3action_chameleon_3000_troll,0.997085,1,2000.000000,1,COMPLETED_SUCCESSFULLY,326.269940,94.000000,420.269940,325.272855,419.272855,4.460350,48,-1.000000,""
136,w0,python3action_chameleon_3000,0.000000,1,-1.000000,1,COMPLETED_SUCCESSFULLY,420.269955,0.000010,420.269965,420.269955,420.269965,42026996.502611,48,-1.000000,""
131_updated,w0,python3action_linpack_5000_nova,0.997085,1,2000.000000,1,COMPLETED_SUCCESSFULLY,391.043090,34.600010,425.643100,390.046005,424.646015,12.273003,5,-1.000000,""
131,w0,python3action_linpack_5000,0.000000,1,-1.000000,1,COMPLETED_SUCCESSFULLY,425.643115,0.000010,425.643125,425.643115,425.643125,42564312.500201,5,-1.000000,""
181_updated,w0,python3action_pyaes_3000_nova,0.997085,1,2000.000000,1,COMPLETED_SUCCESSFULLY,349.862503,78.200020,428.062523,348.865418,427.065438,5.461193,13,-1.000000,""
181,w0,python3action_pyaes_3000,0.000000,1,-1.000000,1,COMPLETED_SUCCESSFULLY,428.062538,0.000010,428.062548,428.062538,428.062548,42806254.800201,13,-1.000000,""
94_updated,w0,python3action_facedetection_SampleVideo_50mb_taurus,0.997085,1,2000.000000,1,COMPLETED_SUCCESSFULLY,296.506043,134.600046,431.106089,295.508958,430.109004,3.195460,29,-1.000000,""
94,w0,python3action_facedetection_SampleVideo_50mb,0.000000,1,-1.000000,1,COMPLETED_SUCCESSFULLY,431.106104,0.000010,431.106114,431.106104,431.106114,43110611.414284,29,-1.000000,""
93_updated,w0,python3action_facedetection_SampleVideo_30mb_nova,0.997085,1,2000.000000,1,COMPLETED_SUCCESSFULLY,272.237076,160.399990,432.637067,271.239991,431.639982,2.691022,6,-1.000000,""
93,w0,python3action_facedetection_SampleVideo_30mb,0.000000,1,-1.000000,1,COMPLETED_SUCCESSFULLY,432.637082,0.000010,432.637092,432.637082,432.637092,43263709.200201,6,-1.000000,""
165_updated,w0,python3action_floatoperation_100000000_nova,0.997085,1,2000.000000,1,COMPLETED_SUCCESSFULLY,366.782305,66.200020,432.982325,365.785220,431.985240,6.525455,24,-1.000000,""
165,w0,python3action_floatoperation_100000000,0.000000,1,-1.000000,1,COMPLETED_SUCCESSFULLY,432.982340,0.000010,432.982350,432.982340,432.982350,43298235.000201,24,-1.000000,""
python3action_floatoperation_job133_5,w0,python3action_floatoperation,0.997085,1,2000.000000,1,COMPLETED_SUCCESSFULLY,432.637112,2.439945,435.077057,431.640027,434.079972,177.905617,6,-1.000000,""
163_updated,w0,python3action_imageprocessing_SampleImage_60mb_troll,0.997085,1,2000.000000,1,COMPLETED_SUCCESSFULLY,373.269899,62.000000,435.269899,372.272814,434.272814,7.004400,44,-1.000000,""
163,w0,python3action_imageprocessing_SampleImage_60mb,0.000000,1,-1.000000,1,COMPLETED_SUCCESSFULLY,435.269914,0.000010,435.269924,435.269914,435.269924,43526992.441100,44,-1.000000,""
170_updated,w0,python3action_facedetection_SampleVideo_50mb_taurus,0.997085,1,2000.000000,1,COMPLETED_SUCCESSFULLY,309.456256,134.600046,444.056302,308.459171,443.059217,3.291672,33,-1.000000,""
170,w0,python3action_facedetection_SampleVideo_50mb,0.000000,1,-1.000000,1,COMPLETED_SUCCESSFULLY,444.056317,0.000010,444.056327,444.056317,444.056327,44405632.715987,33,-1.000000,""
129_updated,w0,python3action_linpack_5000_nova,0.997085,1,2000.000000,1,COMPLETED_SUCCESSFULLY,411.782035,34.600010,446.382045,410.784950,445.384960,12.872394,4,-1.000000,""
129,w0,python3action_linpack_5000,0.000000,1,-1.000000,1,COMPLETED_SUCCESSFULLY,446.382060,0.000010,446.382070,446.382060,446.382070,44638207.000201,4,-1.000000,""
python3action_video_processing_job172_3,w0,python3action_video_processing_reduced_1.89,0.997085,1,2000.000000,1,COMPLETED_SUCCESSFULLY,446.382090,0.000010,446.382100,445.385005,445.385015,44538501.500602,4,-1.000000,""
python3action_video_processing_job160_18,w0,python3action_video_processing,0.997085,1,2000.000000,1,COMPLETED_SUCCESSFULLY,415.977575,30.499683,446.477258,414.980490,445.480173,14.606059,20,-1.000000,""
150_updated,w0,python3action_videoprocessing_SampleVideo_30mb_nova,0.997085,1,2000.000000,1,COMPLETED_SUCCESSFULLY,340.877283,106.799980,447.677263,339.880198,446.680178,4.182399,17,-1.000000,""
150,w0,python3action_videoprocessing_SampleVideo_30mb,0.000000,1,-1.000000,1,COMPLETED_SUCCESSFULLY,447.677278,0.000010,447.677288,447.677278,447.677288,44767728.847413,17,-1.000000,""
95_updated,w0,python3action_facedetection_SampleVideo_50mb_taurus,0.997085,1,2000.000000,1,COMPLETED_SUCCESSFULLY,315.465262,134.600046,450.065308,314.468177,449.068223,3.336316,30,-1.000000,""
95,w0,python3action_facedetection_SampleVideo_50mb,0.000000,1,-1.000000,1,COMPLETED_SUCCESSFULLY,450.065323,0.000010,450.065333,450.065323,450.065333,45006533.314284,30,-1.000000,""
152_updated,w0,python3action_modeltraining_reviews100mb_taurus,0.997085,1,2000.000000,1,COMPLETED_SUCCESSFULLY,361.865511,88.199977,450.065488,360.868426,449.068403,5.091480,41,-1.000000,""
152,w0,python3action_modeltraining_reviews100mb,0.000000,1,-1.000000,1,COMPLETED_SUCCESSFULLY,450.065503,0.000010,450.065513,450.065503,450.065513,45006551.308950,41,-1.000000,""
python3action_image_processing_job199_37,w0,python3action_image_processing_reduced_2.59,0.997085,1,2000.000000,1,COMPLETED_SUCCESSFULLY,450.065533,0.000000,450.065533,449.068448,449.068448,3893590776510.739258,41,-1.000000,""
151_updated,w0,python3action_imageprocessing_SampleImage_60mb_troll,0.997085,1,2000.000000,1,COMPLETED_SUCCESSFULLY,388.269940,62.000000,450.269940,387.272855,449.272855,7.246336,47,-1.000000,""
151,w0,python3action_imageprocessing_SampleImage_60mb,0.000000,1,-1.000000,1,COMPLETED_SUCCESSFULLY,450.269955,0.000010,450.269965,450.269955,450.269965,45026996.502611,47,-1.000000,""
180_updated,w0,python3action_pyaes_3000_nova,0.997085,1,2000.000000,1,COMPLETED_SUCCESSFULLY,373.077177,78.200020,451.277197,372.080092,450.280112,5.758056,11,-1.000000,""
180,w0,python3action_pyaes_3000,0.000000,1,-1.000000,1,COMPLETED_SUCCESSFULLY,451.277212,0.000010,451.277222,451.277212,451.277222,45127722.200201,11,-1.000000,""
121_updated,w0,python3action_imageprocessing_SampleImage_60mb_troll,0.997085,1,2000.000000,1,COMPLETED_SUCCESSFULLY,390.269850,62.000000,452.269850,389.272765,451.272765,7.278593,46,-1.000000,""
121,w0,python3action_imageprocessing_SampleImage_60mb,0.000000,1,-1.000000,1,COMPLETED_SUCCESSFULLY,452.269865,0.000010,452.269875,452.269865,452.269875,45226987.500402,46,-1.000000,""
156_updated,w0,python3action_pyaes_4000_nova,0.997085,1,2000.000000,1,COMPLETED_SUCCESSFULLY,313.502464,139.600010,453.102474,312.505379,452.105389,3.238577,19,-1.000000,""
156,w0,python3action_pyaes_4000,0.000000,1,-1.000000,1,COMPLETED_SUCCESSFULLY,453.102489,0.000010,453.102499,453.102489,453.102499,45310249.900201,19,-1.000000,""
146_updated,w0,python3action_floatoperation_200000000_nova,0.997085,1,2000.000000,1,COMPLETED_SUCCESSFULLY,318.542210,135.399990,453.942200,317.545125,452.945115,3.345237,15,-1.000000,""
146,w0,python3action_floatoperation_200000000,0.000000,1,-1.000000,1,COMPLETED_SUCCESSFULLY,453.942215,0.000010,453.942225,453.942215,453.942225,45394222.523908,15,-1.000000,""
python3action_chameleon_job157_27,w0,python3action_chameleon,0.997085,1,2000.000000,1,COMPLETED_SUCCESSFULLY,450.065353,5.040826,455.106179,449.068268,454.109094,90.086251,30,-1.000000,""
162_updated,w0,python3action_pyaes_4000_nova,0.997085,1,2000.000000,1,COMPLETED_SUCCESSFULLY,317.277317,139.600010,456.877327,316.280232,455.880242,3.265618,21,-1.000000,""
162,w0,python3action_pyaes_4000,0.000000,1,-1.000000,1,COMPLETED_SUCCESSFULLY,456.877342,0.000010,456.877352,456.877342,456.877352,45687735.225375,21,-1.000000,""
173_updated,w0,python3action_linpack_5000_nova,0.997085,1,2000.000000,1,COMPLETED_SUCCESSFULLY,425.643145,34.600010,460.243155,424.646060,459.246070,13.273004,5,-1.000000,""
173,w0,python3action_linpack_5000,0.000000,1,-1.000000,1,COMPLETED_SUCCESSFULLY,460.243170,0.000010,460.243180,460.243170,460.243180,46024318.000201,5,-1.000000,""
149_updated,w0,python3action_videoprocessing_SampleVideo_30mb_nova,0.997085,1,2000.000000,1,COMPLETED_SUCCESSFULLY,355.742244,106.799980,462.542225,354.745159,461.545140,4.321584,16,-1.000000,""
149,w0,python3action_videoprocessing_SampleVideo_30mb,0.000000,1,-1.000000,1,COMPLETED_SUCCESSFULLY,462.542240,0.000010,462.542250,462.542240,462.542250,46254225.000201,16,-1.000000,""
python3action_pyaes_job188_14,w0,python3action_pyaes,0.997085,1,2000.000000,1,COMPLETED_SUCCESSFULLY,462.542270,2.134958,464.677228,461.545185,463.680143,217.184643,16,-1.000000,""
145_updated,w0,python3action_imageprocessing_SampleImage_60mb_orion,0.997085,1,2000.000000,1,COMPLETED_SUCCESSFULLY,378.776153,88.000000,466.776153,377.779068,465.779068,5.292944,27,-1.000000,""
145,w0,python3action_imageprocessing_SampleImage_60mb,0.000000,1,-1.000000,1,COMPLETED_SUCCESSFULLY,466.776168,0.000010,466.776178,466.776168,466.776178,46677617.830457,27,-1.000000,""
112_updated,w0,python3action_modeltraining_reviews100mb_taurus,0.997085,1,2000.000000,1,COMPLETED_SUCCESSFULLY,381.515344,88.199977,469.715321,380.518259,468.718236,5.314267,35,-1.000000,""
112,w0,python3action_modeltraining_reviews100mb,0.000000,1,-1.000000,1,COMPLETED_SUCCESSFULLY,469.715336,0.000010,469.715346,469.715336,469.715346,46971534.600201,35,-1.000000,""
153_updated,w0,python3action_floatoperation_100000000_nova,0.997085,1,2000.000000,1,COMPLETED_SUCCESSFULLY,407.942245,66.200020,474.142265,406.945160,473.145180,7.147206,18,-1.000000,""
153,w0,python3action_floatoperation_100000000,0.000000,1,-1.000000,1,COMPLETED_SUCCESSFULLY,474.142280,0.000010,474.142290,474.142280,474.142290,47414229.000201,18,-1.000000,""
164_updated,w0,python3action_floatoperation_200000000_nova,0.997085,1,2000.000000,1,COMPLETED_SUCCESSFULLY,340.142359,135.399990,475.542349,339.145274,474.545264,3.504766,22,-1.000000,""
164,w0,python3action_floatoperation_200000000,0.000000,1,-1.000000,1,COMPLETED_SUCCESSFULLY,475.542364,0.000010,475.542374,475.542364,475.542374,47554237.423908,22,-1.000000,""
python3action_linpack_job190_16,w0,python3action_linpack,0.997085,1,2000.000000,1,COMPLETED_SUCCESSFULLY,474.142310,2.439945,476.582255,473.145225,475.585170,194.916325,18,-1.000000,""
158_updated,w0,python3action_imageprocessing_SampleImage_60mb_troll,0.997085,1,2000.000000,1,COMPLETED_SUCCESSFULLY,420.269985,62.000000,482.269985,419.272900,481.272900,7.762466,48,-1.000000,""
158,w0,python3action_imageprocessing_SampleImage_60mb,0.000000,1,-1.000000,1,COMPLETED_SUCCESSFULLY,482.270000,0.000010,482.270010,482.270000,482.270010,48227001.003214,48,-1.000000,""
199_updated,w0,python3action_imageprocessing_SampleImage_40mb_taurus,0.997085,1,2000.000000,1,COMPLETED_SUCCESSFULLY,450.065563,32.600046,482.665609,449.068478,481.668524,14.775087,41,-1.000000,""
199,w0,python3action_imageprocessing_SampleImage_40mb,0.000000,1,-1.000000,1,COMPLETED_SUCCESSFULLY,482.665624,0.000010,482.665634,482.665624,482.665634,48266563.423032,41,-1.000000,""
144_updated,w0,python3action_linpack_6000_orion,0.997085,1,2000.000000,1,COMPLETED_SUCCESSFULLY,378.776123,106.000000,484.776123,377.779038,483.779038,4.563953,26,-1.000000,""
144,w0,python3action_linpack_6000,0.000000,1,-1.000000,1,COMPLETED_SUCCESSFULLY,484.776138,0.000010,484.776148,484.776138,484.776148,48477614.830056,26,-1.000000,""
155_updated,w0,python3action_linpack_6000_orion,0.997085,1,2000.000000,1,COMPLETED_SUCCESSFULLY,378.776198,106.000000,484.776198,377.779113,483.779113,4.563954,28,-1.000000,""
155,w0,python3action_linpack_6000,0.000000,1,-1.000000,1,COMPLETED_SUCCESSFULLY,484.776213,0.000010,484.776223,484.776213,484.776223,48477622.331060,28,-1.000000,""
143_updated,w0,python3action_pyaes_3000_nova,0.997085,1,2000.000000,1,COMPLETED_SUCCESSFULLY,410.077178,78.200020,488.277198,409.080093,487.280113,6.231202,14,-1.000000,""
143,w0,python3action_pyaes_3000,0.000000,1,-1.000000,1,COMPLETED_SUCCESSFULLY,488.277213,0.000010,488.277223,488.277213,488.277223,48827722.300201,14,-1.000000,""
python3action_video_processing_job184_12,w0,python3action_video_processing_reduced_0.91,0.997085,1,2000.000000,1,COMPLETED_SUCCESSFULLY,488.277243,0.000010,488.277253,487.280158,487.280168,48728016.800602,14,-1.000000,""
113_updated,w0,python3action_facedetection_SampleVideo_50mb_taurus,0.997085,1,2000.000000,1,COMPLETED_SUCCESSFULLY,361.865406,134.600046,496.465452,360.868321,495.468367,3.681042,36,-1.000000,""
113,w0,python3action_facedetection_SampleVideo_50mb,0.000000,1,-1.000000,1,COMPLETED_SUCCESSFULLY,496.465467,0.000010,496.465477,496.465467,496.465477,49646547.727161,36,-1.000000,""
196_updated,w0,python3action_modeltraining_reviews50mb_nova,0.997085,1,2000.000000,1,COMPLETED_SUCCESSFULLY,456.877372,42.399990,499.277362,455.880287,498.280277,11.751896,21,-1.000000,""
196,w0,python3action_modeltraining_reviews50mb,0.000000,1,-1.000000,1,COMPLETED_SUCCESSFULLY,499.277377,0.000010,499.277387,499.277377,499.277387,49927738.749082,21,-1.000000,""
169_updated,w0,python3action_facedetection_SampleVideo_50mb_taurus,0.997085,1,2000.000000,1,COMPLETED_SUCCESSFULLY,365.056142,134.600046,499.656188,364.059057,498.659103,3.704747,32,-1.000000,""
169,w0,python3action_facedetection_SampleVideo_50mb,0.000000,1,-1.000000,1,COMPLETED_SUCCESSFULLY,499.656203,0.000010,499.656213,499.656203,499.656213,49965621.321626,32,-1.000000,""
133_updated,w0,python3action_floatoperation_100000000_nova,0.997085,1,2000.000000,1,COMPLETED_SUCCESSFULLY,435.077072,66.200020,501.277092,434.079987,500.280007,7.557098,6,-1.000000,""
133,w0,python3action_floatoperation_100000000,0.000000,1,-1.000000,1,COMPLETED_SUCCESSFULLY,501.277107,0.000010,501.277117,501.277107,501.277117,50127711.700201,6,-1.000000,""
126_updated,w0,python3action_facedetection_SampleVideo_30mb_nova,0.997085,1,2000.000000,1,COMPLETED_SUCCESSFULLY,346.302254,160.399990,506.702244,345.305169,505.705159,3.152775,2,-1.000000,""
126,w0,python3action_facedetection_SampleVideo_30mb,0.000000,1,-1.000000,1,COMPLETED_SUCCESSFULLY,506.702259,0.000010,506.702269,506.702259,506.702269,50670226.923506,2,-1.000000,""
167_updated,w0,python3action_facedetection_SampleVideo_30mb_nova,0.997085,1,2000.000000,1,COMPLETED_SUCCESSFULLY,347.142369,160.399990,507.542360,346.145284,506.545275,3.158013,25,-1.000000,""
167,w0,python3action_facedetection_SampleVideo_30mb,0.000000,1,-1.000000,1,COMPLETED_SUCCESSFULLY,507.542375,0.000010,507.542385,507.542375,507.542385,50754238.500201,25,-1.000000,""
190_updated,w0,python3action_linpack_5000_nova,0.997085,1,2000.000000,1,COMPLETED_SUCCESSFULLY,476.582270,34.600010,511.182280,475.585185,510.185195,14.745233,18,-1.000000,""
190,w0,python3action_linpack_5000,0.000000,1,-1.000000,1,COMPLETED_SUCCESSFULLY,511.182295,0.000010,511.182305,511.182295,511.182305,51118230.507281,18,-1.000000,""
171_updated,w0,python3action_floatoperation_200000000_nova,0.997085,1,2000.000000,1,COMPLETED_SUCCESSFULLY,375.877087,135.399990,511.277078,374.880002,510.279993,3.768686,3,-1.000000,""
171,w0,python3action_floatoperation_200000000,0.000000,1,-1.000000,1,COMPLETED_SUCCESSFULLY,511.277093,0.000010,511.277103,511.277093,511.277103,51127710.300201,3,-1.000000,""
195_updated,w0,python3action_imageprocessing_SampleImage_60mb_troll,0.997085,1,2000.000000,1,COMPLETED_SUCCESSFULLY,450.269985,62.000000,512.269985,449.272900,511.272900,8.246337,47,-1.000000,""
195,w0,python3action_imageprocessing_SampleImage_60mb,0.000000,1,-1.000000,1,COMPLETED_SUCCESSFULLY,512.270000,0.000010,512.270010,512.270000,512.270010,51227001.003214,47,-1.000000,""
189_updated,w0,python3action_floatoperation_100000000_nova,0.997085,1,2000.000000,1,COMPLETED_SUCCESSFULLY,447.677308,66.200020,513.877328,446.680223,512.880243,7.747433,17,-1.000000,""
189,w0,python3action_floatoperation_100000000,0.000000,1,-1.000000,1,COMPLETED_SUCCESSFULLY,513.877343,0.000010,513.877353,513.877343,513.877353,51387735.301808,17,-1.000000,""
147_updated,w0,python3action_imageprocessing_SampleImage_60mb_troll,0.997085,1,2000.000000,1,COMPLETED_SUCCESSFULLY,452.269895,62.000000,514.269895,451.272810,513.272810,8.278594,46,-1.000000,""
147,w0,python3action_imageprocessing_SampleImage_60mb,0.000000,1,-1.000000,1,COMPLETED_SUCCESSFULLY,514.269910,0.000010,514.269920,514.269910,514.269920,51426992.001005,46,-1.000000,""
96_updated,w0,python3action_videoprocessing_SampleVideo_50mb_taurus,0.997085,1,2000.000000,1,COMPLETED_SUCCESSFULLY,361.865331,154.250029,516.115360,360.868246,515.118275,3.339502,31,-1.000000,""
96,w0,python3action_videoprocessing_SampleVideo_50mb,0.000000,1,-1.000000,1,COMPLETED_SUCCESSFULLY,516.115375,0.000010,516.115385,516.115375,516.115385,51611538.500201,31,-1.000000,""
194_updated,w0,python3action_facedetection_SampleVideo_50mb_taurus,0.997085,1,2000.000000,1,COMPLETED_SUCCESSFULLY,384.015436,134.600046,518.615482,383.018351,517.618397,3.845603,40,-1.000000,""
194,w0,python3action_facedetection_SampleVideo_50mb,0.000000,1,-1.000000,1,COMPLETED_SUCCESSFULLY,518.615497,0.000010,518.615507,518.615497,518.615507,51861550.723276,40,-1.000000,""
157_updated,w0,python3action_chameleon_2000_taurus,0.997085,1,2000.000000,1,COMPLETED_SUCCESSFULLY,455.106194,64.199977,519.306171,454.109109,518.309086,8.073353,30,-1.000000,""
157,w0,python3action_chameleon_2000,0.000000,1,-1.000000,1,COMPLETED_SUCCESSFULLY,519.306186,0.000010,519.306196,519.306186,519.306196,51930619.600201,30,-1.000000,""
python3action_chameleon_job161_28,w0,python3action_chameleon,0.997085,1,2000.000000,1,COMPLETED_SUCCESSFULLY,516.115405,5.040826,521.156231,515.118320,520.159146,103.189273,31,-1.000000,""
168_updated,w0,python3action_linpack_5000_nova,0.997085,1,2000.000000,1,COMPLETED_SUCCESSFULLY,506.702289,34.600010,541.302299,505.705204,540.305214,15.615753,2,-1.000000,""
168,w0,python3action_linpack_5000,0.000000,1,-1.000000,1,COMPLETED_SUCCESSFULLY,541.302314,0.000010,541.302324,541.302314,541.302324,54130232.401005,2,-1.000000,""
188_updated,w0,python3action_pyaes_3000_nova,0.997085,1,2000.000000,1,COMPLETED_SUCCESSFULLY,464.677243,78.200020,542.877263,463.680158,541.880178,6.929412,16,-1.000000,""
188,w0,python3action_pyaes_3000,0.000000,1,-1.000000,1,COMPLETED_SUCCESSFULLY,542.877278,0.000010,542.877288,542.877278,542.877288,54287728.800201,16,-1.000000,""
172_updated,w0,python3action_videoprocessing_SampleVideo_30mb_nova,0.997085,1,2000.000000,1,COMPLETED_SUCCESSFULLY,446.382120,106.799980,553.182100,445.385035,552.185015,5.170273,4,-1.000000,""
172,w0,python3action_videoprocessing_SampleVideo_30mb,0.000000,1,-1.000000,1,COMPLETED_SUCCESSFULLY,553.182115,0.000010,553.182125,553.182115,553.182125,55318212.547412,4,-1.000000,""
160_updated,w0,python3action_videoprocessing_SampleVideo_30mb_nova,0.997085,1,2000.000000,1,COMPLETED_SUCCESSFULLY,446.477273,106.799980,553.277253,445.480188,552.280168,5.171164,20,-1.000000,""
160,w0,python3action_videoprocessing_SampleVideo_30mb,0.000000,1,-1.000000,1,COMPLETED_SUCCESSFULLY,553.277268,0.000010,553.277278,553.277268,553.277278,55327727.846609,20,-1.000000,""
python3action_modeltraining_job193_18,w0,python3action_modeltraining_reduced_1.0,0.997085,1,2000.000000,1,COMPLETED_SUCCESSFULLY,553.277298,0.000000,553.277298,552.280213,552.280213,11297460772112.513672,20,-1.000000,""
174_updated,w0,python3action_floatoperation_100000000_nova,0.997085,1,2000.000000,1,COMPLETED_SUCCESSFULLY,501.277137,66.200020,567.477157,500.280052,566.480072,8.557098,6,-1.000000,""
174,w0,python3action_floatoperation_100000000,0.000000,1,-1.000000,1,COMPLETED_SUCCESSFULLY,567.477172,0.000010,567.477182,567.477172,567.477182,56747718.200201,6,-1.000000,""
183_updated,w0,python3action_imageprocessing_SampleImage_60mb_troll,0.997085,1,2000.000000,1,COMPLETED_SUCCESSFULLY,514.269940,62.000000,576.269940,513.272855,575.272855,9.278594,46,-1.000000,""
183,w0,python3action_imageprocessing_SampleImage_60mb,0.000000,1,-1.000000,1,COMPLETED_SUCCESSFULLY,576.269955,0.000010,576.269965,576.269955,576.269965,57626996.501607,46,-1.000000,""
154_updated,w0,python3action_videoprocessing_SampleVideo_50mb_taurus,0.997085,1,2000.000000,1,COMPLETED_SUCCESSFULLY,431.106134,154.250029,585.356163,430.109049,584.359078,3.788389,29,-1.000000,""
154,w0,python3action_videoprocessing_SampleVideo_50mb,0.000000,1,-1.000000,1,COMPLETED_SUCCESSFULLY,585.356178,0.000010,585.356188,585.356178,585.356188,58535618.800201,29,-1.000000,""
161_updated,w0,python3action_chameleon_2000_taurus,0.997085,1,2000.000000,1,COMPLETED_SUCCESSFULLY,521.156246,64.199977,585.356223,520.159161,584.359138,9.102171,31,-1.000000,""
161,w0,python3action_chameleon_2000,0.000000,1,-1.000000,1,COMPLETED_SUCCESSFULLY,585.356238,0.000010,585.356248,585.356238,585.356248,58535624.800201,31,-1.000000,""
191_updated,w0,python3action_floatoperation_200000000_nova,0.997085,1,2000.000000,1,COMPLETED_SUCCESSFULLY,453.102519,135.399990,588.502509,452.105434,587.505424,4.339036,19,-1.000000,""
191,w0,python3action_floatoperation_200000000,0.000000,1,-1.000000,1,COMPLETED_SUCCESSFULLY,588.502524,0.000010,588.502534,588.502524,588.502534,58850253.423907,19,-1.000000,""
187_updated,w0,python3action_floatoperation_200000000_nova,0.997085,1,2000.000000,1,COMPLETED_SUCCESSFULLY,453.942245,135.399990,589.342235,452.945160,588.345150,4.345238,15,-1.000000,""
187,w0,python3action_floatoperation_200000000,0.000000,1,-1.000000,1,COMPLETED_SUCCESSFULLY,589.342250,0.000010,589.342260,589.342250,589.342260,58934226.047614,15,-1.000000,""
166_updated,w0,python3action_linpack_6000_orion,0.997085,1,2000.000000,1,COMPLETED_SUCCESSFULLY,484.776168,106.000000,590.776168,483.779083,589.779083,5.563954,26,-1.000000,""
166,w0,python3action_linpack_6000,0.000000,1,-1.000000,1,COMPLETED_SUCCESSFULLY,590.776183,0.000010,590.776193,590.776183,590.776193,59077619.330658,26,-1.000000,""
198_updated,w0,python3action_facedetection_SampleVideo_30mb_nova,0.997085,1,2000.000000,1,COMPLETED_SUCCESSFULLY,432.982370,160.399990,593.382360,431.985285,592.385275,3.693175,24,-1.000000,""
198,w0,python3action_facedetection_SampleVideo_30mb,0.000000,1,-1.000000,1,COMPLETED_SUCCESSFULLY,593.382375,0.000010,593.382385,593.382375,593.382385,59338238.523907,24,-1.000000,""
184_updated,w0,python3action_videoprocessing_SampleVideo_30mb_nova,0.997085,1,2000.000000,1,COMPLETED_SUCCESSFULLY,488.277273,106.799980,595.077253,487.280188,594.080168,5.562549,14,-1.000000,""
184,w0,python3action_videoprocessing_SampleVideo_30mb,0.000000,1,-1.000000,1,COMPLETED_SUCCESSFULLY,595.077268,0.000010,595.077278,595.077268,595.077278,59507727.847412,14,-1.000000,""
193_updated,w0,python3action_modeltraining_reviews50mb_nova,0.997085,1,2000.000000,1,COMPLETED_SUCCESSFULLY,553.277328,42.399990,595.677319,552.280243,594.680234,14.025480,20,-1.000000,""
193,w0,python3action_modeltraining_reviews50mb,0.000000,1,-1.000000,1,COMPLETED_SUCCESSFULLY,595.677334,0.000010,595.677344,595.677334,595.677344,59567734.400201,20,-1.000000,""
175_updated,w0,python3action_videoprocessing_SampleVideo_50mb_taurus,0.997085,1,2000.000000,1,COMPLETED_SUCCESSFULLY,469.715366,154.250029,623.965395,468.718281,622.968310,4.038692,35,-1.000000,""
175,w0,python3action_videoprocessing_SampleVideo_50mb,0.000000,1,-1.000000,1,COMPLETED_SUCCESSFULLY,623.965410,0.000010,623.965420,623.965410,623.965420,62396542.000201,35,-1.000000,""
197_updated,w0,python3action_facedetection_SampleVideo_30mb_nova,0.997085,1,2000.000000,1,COMPLETED_SUCCESSFULLY,475.542394,160.399990,635.942384,474.545309,634.945299,3.958512,22,-1.000000,""
197,w0,python3action_facedetection_SampleVideo_30mb,0.000000,1,-1.000000,1,COMPLETED_SUCCESSFULLY,635.942399,0.000010,635.942409,635.942399,635.942409,63594240.947614,22,-1.000000,""
182_updated,w0,python3action_videoprocessing_SampleVideo_50mb_taurus,0.997085,1,2000.000000,1,COMPLETED_SUCCESSFULLY,496.465497,154.250029,650.715526,495.468412,649.718441,4.212112,36,-1.000000,""
182,w0,python3action_videoprocessing_SampleVideo_50mb,0.000000,1,-1.000000,1,COMPLETED_SUCCESSFULLY,650.715541,0.000010,650.715551,650.715541,650.715551,65071555.110938,36,-1.000000,""
