job_id,workload_name,profile,submission_time,requested_number_of_resources,requested_time,success,final_state,starting_time,execution_time,finish_time,waiting_time,turnaround_time,stretch,allocated_resources,consumed_energy,metadata
python3action_chameleon_job19_39,w0,python3action_chameleon,0.997085,1,2000.000000,1,COMPLETED_SUCCESSFULLY,1.002846,0.867914,1.870759,0.005761,0.873674,1.006637,47,-1.000000,""
python3action_pyaes_job7_2,w0,python3action_pyaes,0.997085,1,2000.000000,1,COMPLETED_SUCCESSFULLY,1.002291,2.134958,3.137249,0.005206,2.140164,1.002438,4,-1.000000,""
python3action_pyaes_job10_3,w0,python3action_pyaes,0.997085,1,2000.000000,1,COMPLETED_SUCCESSFULLY,1.002306,2.134958,3.137264,0.005221,2.140179,1.002445,5,-1.000000,""
python3action_pyaes_job14_5,w0,python3action_pyaes,0.997085,1,2000.000000,1,COMPLETED_SUCCESSFULLY,1.002336,2.134958,3.137294,0.005251,2.140209,1.002459,7,-1.000000,""
python3action_pyaes_job29_14,w0,python3action_pyaes,0.997085,1,2000.000000,1,COMPLETED_SUCCESSFULLY,1.002471,2.134958,3.137429,0.005386,2.140344,1.002523,17,-1.000000,""
python3action_pyaes_job30_15,w0,python3action_pyaes,0.997085,1,2000.000000,1,COMPLETED_SUCCESSFULLY,1.002486,2.134958,3.137444,0.005401,2.140359,1.002530,18,-1.000000,""
python3action_pyaes_job35_17,w0,python3action_pyaes,0.997085,1,2000.000000,1,COMPLETED_SUCCESSFULLY,1.002516,2.134958,3.137474,0.005431,2.140389,1.002544,20,-1.000000,""
python3action_pyaes_job42_19,w0,python3action_pyaes,0.997085,1,2000.000000,1,COMPLETED_SUCCESSFULLY,1.002546,2.134958,3.137504,0.005461,2.140419,1.002558,22,-1.000000,""
python3action_floatoperation_job13_4,w0,python3action_floatoperation,0.997085,1,2000.000000,1,COMPLETED_SUCCESSFULLY,1.002321,2.439945,3.442266,0.005236,2.445181,1.002146,6,-1.000000,""
python3action_floatoperation_job15_6,w0,python3action_floatoperation,0.997085,1,2000.000000,1,COMPLETED_SUCCESSFULLY,1.002351,2.439945,3.442296,0.005266,2.445211,1.002158,8,-1.000000,""
python3action_floatoperation_job17_8,w0,python3action_floatoperation,0.997085,1,2000.000000,1,COMPLETED_SUCCESSFULLY,1.002381,2.439945,3.442326,0.005296,2.445241,1.002170,10,-1.000000,""
python3action_floatoperation_job18_9,w0,python3action_floatoperation,0.997085,1,2000.000000,1,COMPLETED_SUCCESSFULLY,1.002396,2.439945,3.442341,0.005311,2.445256,1.002177,11,-1.000000,""
python3action_floatoperation_job22_10,w0,python3action_floatoperation,0.997085,1,2000.000000,1,COMPLETED_SUCCESSFULLY,1.002411,2.439945,3.442356,0.005326,2.445271,1.002183,13,-1.000000,""
python3action_linpack_job28_13,w0,python3action_linpack,0.997085,1,2000.000000,1,COMPLETED_SUCCESSFULLY,1.002456,2.439945,3.442401,0.005371,2.445316,1.002201,16,-1.000000,""
python3action_floatoperation_job31_16,w0,python3action_floatoperation,0.997085,1,2000.000000,1,COMPLETED_SUCCESSFULLY,1.002501,2.439945,3.442446,0.005416,2.445361,1.002220,19,-1.000000,""
python3action_linpack_job38_18,w0,python3action_linpack,0.997085,1,2000.000000,1,COMPLETED_SUCCESSFULLY,1.002531,2.439945,3.442476,0.005446,2.445391,1.002232,21,-1.000000,""
python3action_chameleon_job9_28,w0,python3action_chameleon,0.997085,1,2000.000000,1,COMPLETED_SUCCESSFULLY,1.002681,5.040826,6.043506,0.005596,5.046421,1.001110,32,-1.000000,""
python3action_chameleon_job12_30,w0,python3action_chameleon,0.997085,1,2000.000000,1,COMPLETED_SUCCESSFULLY,1.002711,5.040826,6.043536,0.005626,5.046451,1.001116,35,-1.000000,""
python3action_chameleon_job39_36,w0,python3action_chameleon,0.997085,1,2000.000000,1,COMPLETED_SUCCESSFULLY,1.002801,5.040826,6.043627,0.005716,5.046542,1.001134,41,-1.000000,""
python3action_linpack_job26_24,w0,python3action_linpack,0.997085,1,2000.000000,1,COMPLETED_SUCCESSFULLY,1.002621,5.760927,6.763548,0.005536,5.766463,1.000961,28,-1.000000,""
python3action_image_processing_job4_37,w0,python3action_image_processing,0.997085,1,2000.000000,1,COMPLETED_SUCCESSFULLY,1.002816,12.398880,13.401696,0.005731,12.404611,1.000462,44,-1.000000,""
python3action_image_processing_job6_38,w0,python3action_image_processing,0.997085,1,2000.000000,1,COMPLETED_SUCCESSFULLY,1.002831,12.398880,13.401711,0.005746,12.404626,1.000463,46,-1.000000,""
python3action_image_processing_job21_40,w0,python3action_image_processing,0.997085,1,2000.000000,1,COMPLETED_SUCCESSFULLY,1.002861,12.398880,13.401741,0.005776,12.404656,1.000466,48,-1.000000,""
python3action_facedetection_job0_0,w0,python3action_facedetection,0.997085,1,2000.000000,1,COMPLETED_SUCCESSFULLY,1.002261,30.499683,31.501943,0.005176,30.504858,1.000170,2,-1.000000,""
python3action_modeltraining_job2_1,w0,python3action_modeltraining,0.997085,1,2000.000000,1,COMPLETED_SUCCESSFULLY,1.002276,30.499683,31.501958,0.005191,30.504873,1.000170,3,-1.000000,""
python3action_video_processing_job16_7,w0,python3action_video_processing,0.997085,1,2000.000000,1,COMPLETED_SUCCESSFULLY,1.002366,30.499683,31.502048,0.005281,30.504963,1.000173,9,-1.000000,""
python3action_facedetection_job24_11,w0,python3action_facedetection,0.997085,1,2000.000000,1,COMPLETED_SUCCESSFULLY,1.002426,30.499683,31.502108,0.005341,30.505023,1.000175,14,-1.000000,""
python3action_facedetection_job25_12,w0,python3action_facedetection,0.997085,1,2000.000000,1,COMPLETED_SUCCESSFULLY,1.002441,30.499683,31.502123,0.005356,30.505038,1.000176,15,-1.000000,""
python3action_video_processing_job43_20,w0,python3action_video_processing,0.997085,1,2000.000000,1,COMPLETED_SUCCESSFULLY,1.002561,30.499683,31.502243,0.005476,30.505158,1.000180,24,-1.000000,""
python3action_facedetection_job45_21,w0,python3action_facedetection,0.997085,1,2000.000000,1,COMPLETED_SUCCESSFULLY,1.002576,30.499683,31.502258,0.005491,30.505173,1.000180,25,-1.000000,""
28_updated,w0,python3action_linpack_5000_nova,0.997085,1,2000.000000,1,COMPLETED_SUCCESSFULLY,3.442416,34.600010,38.042426,2.445331,37.045341,1.070674,16,-1.000000,""
28,w0,python3action_linpack_5000,0.000000,1,-1.000000,1,COMPLETED_SUCCESSFULLY,38.042441,0.000010,38.042451,38.042441,38.042451,3804245.100201,16,-1.000000,""
38_updated,w0,python3action_linpack_5000_nova,0.997085,1,2000.000000,1,COMPLETED_SUCCESSFULLY,3.442491,34.600010,38.042501,2.445406,37.045416,1.070676,21,-1.000000,""
38,w0,python3action_linpack_5000,0.000000,1,-1.000000,1,COMPLETED_SUCCESSFULLY,38.042516,0.000010,38.042526,38.042516,38.042526,3804252.600201,21,-1.000000,""
python3action_floatoperation_job69_14,w0,python3action_floatoperation,0.997085,1,2000.000000,1,COMPLETED_SUCCESSFULLY,38.042471,2.439945,40.482416,37.045386,39.485331,16.182876,16,-1.000000,""
python3action_floatoperation_job76_19,w0,python3action_floatoperation,0.997085,1,2000.000000,1,COMPLETED_SUCCESSFULLY,38.042546,2.439945,40.482491,37.045461,39.485406,16.182906,21,-1.000000,""
19_updated,w0,python3action_chameleon_2000_troll,0.997085,1,2000.000000,1,COMPLETED_SUCCESSFULLY,1.870774,39.500010,41.370784,0.873689,40.373699,1.022119,47,-1.000000,""
19,w0,python3action_chameleon_2000,0.000000,1,-1.000000,1,COMPLETED_SUCCESSFULLY,41.370799,0.000010,41.370809,41.370799,41.370809,4137080.936677,47,-1.000000,""
python3action_image_processing_job41_40,w0,python3action_image_processing,0.997085,1,2000.000000,1,COMPLETED_SUCCESSFULLY,41.370829,12.398880,53.769709,40.373744,52.772624,4.256241,47,-1.000000,""
13_updated,w0,python3action_floatoperation_100000000_nova,0.997085,1,2000.000000,1,COMPLETED_SUCCESSFULLY,3.442281,66.200020,69.642301,2.445196,68.645216,1.036936,6,-1.000000,""
13,w0,python3action_floatoperation_100000000,0.000000,1,-1.000000,1,COMPLETED_SUCCESSFULLY,69.642316,0.000010,69.642326,69.642316,69.642326,6964232.600201,6,-1.000000,""
18_updated,w0,python3action_floatoperation_100000000_nova,0.997085,1,2000.000000,1,COMPLETED_SUCCESSFULLY,3.442371,66.200020,69.642391,2.445286,68.645306,1.036938,11,-1.000000,""
22_updated,w0,python3action_floatoperation_100000000_nova,0.997085,1,2000.000000,1,COMPLETED_SUCCESSFULLY,3.442386,66.200020,69.642406,2.445301,68.645321,1.036938,13,-1.000000,""
18,w0,python3action_floatoperation_100000000,0.000000,1,-1.000000,1,COMPLETED_SUCCESSFULLY,69.642406,0.000010,69.642416,69.642406,69.642416,6964241.555261,11,-1.000000,""
22,w0,python3action_floatoperation_100000000,0.000000,1,-1.000000,1,COMPLETED_SUCCESSFULLY,69.642436,0.000010,69.642446,69.642436,69.642446,6964244.600201,13,-1.000000,""
9_updated,w0,python3action_chameleon_2000_taurus,0.997085,1,2000.000000,1,COMPLETED_SUCCESSFULLY,6.043521,64.199977,70.243498,5.046436,69.246413,1.078605,32,-1.000000,""
9,w0,python3action_chameleon_2000,0.000000,1,-1.000000,1,COMPLETED_SUCCESSFULLY,70.243513,0.000010,70.243523,70.243513,70.243523,7024352.342860,32,-1.000000,""
12_updated,w0,python3action_chameleon_2000_taurus,0.997085,1,2000.000000,1,COMPLETED_SUCCESSFULLY,6.043551,64.199977,70.243528,5.046466,69.246443,1.078605,35,-1.000000,""
12,w0,python3action_chameleon_2000,0.000000,1,-1.000000,1,COMPLETED_SUCCESSFULLY,70.243558,0.000010,70.243568,70.243558,70.243568,7024356.843462,35,-1.000000,""
39_updated,w0,python3action_chameleon_2000_taurus,0.997085,1,2000.000000,1,COMPLETED_SUCCESSFULLY,6.043642,64.199977,70.243619,5.046557,69.246534,1.078607,41,-1.000000,""
39,w0,python3action_chameleon_2000,0.000000,1,-1.000000,1,COMPLETED_SUCCESSFULLY,70.243634,0.000010,70.243644,70.243634,70.243644,7024364.400201,41,-1.000000,""
python3action_pyaes_job55_5,w0,python3action_pyaes,0.997085,1,2000.000000,1,COMPLETED_SUCCESSFULLY,69.642346,2.134958,71.777304,68.645261,70.780219,33.152976,6,-1.000000,""
python3action_image_processing_job3_22,w0,python3action_image_processing,0.997085,1,2000.000000,1,COMPLETED_SUCCESSFULLY,1.002591,72.012455,73.015046,0.005506,72.017961,1.000076,26,-1.000000,""
python3action_image_processing_job20_23,w0,python3action_image_processing,0.997085,1,2000.000000,1,COMPLETED_SUCCESSFULLY,1.002606,72.012455,73.015061,0.005521,72.017976,1.000077,27,-1.000000,""
python3action_modeltraining_job1_25,w0,python3action_modeltraining,0.997085,1,2000.000000,1,COMPLETED_SUCCESSFULLY,1.002636,72.012455,73.015091,0.005551,72.018006,1.000077,29,-1.000000,""
python3action_modeltraining_job5_26,w0,python3action_modeltraining,0.997085,1,2000.000000,1,COMPLETED_SUCCESSFULLY,1.002651,72.012455,73.015106,0.005566,72.018021,1.000077,30,-1.000000,""
python3action_modeltraining_job8_27,w0,python3action_modeltraining,0.997085,1,2000.000000,1,COMPLETED_SUCCESSFULLY,1.002666,72.012455,73.015121,0.005581,72.018036,1.000077,31,-1.000000,""
python3action_modeltraining_job11_29,w0,python3action_modeltraining,0.997085,1,2000.000000,1,COMPLETED_SUCCESSFULLY,1.002696,72.012455,73.015151,0.005611,72.018066,1.000078,33,-1.000000,""
python3action_image_processing_job27_31,w0,python3action_image_processing,0.997085,1,2000.000000,1,COMPLETED_SUCCESSFULLY,1.002726,72.012455,73.015181,0.005641,72.018096,1.000078,36,-1.000000,""
python3action_facedetection_job32_32,w0,python3action_facedetection,0.997085,1,2000.000000,1,COMPLETED_SUCCESSFULLY,1.002741,72.012455,73.015196,0.005656,72.018111,1.000079,37,-1.000000,""
python3action_facedetection_job33_33,w0,python3action_facedetection,0.997085,1,2000.000000,1,COMPLETED_SUCCESSFULLY,1.002756,72.012455,73.015211,0.005671,72.018126,1.000079,38,-1.000000,""
python3action_image_processing_job36_34,w0,python3action_image_processing,0.997085,1,2000.000000,1,COMPLETED_SUCCESSFULLY,1.002771,72.012455,73.015226,0.005686,72.018141,1.000079,39,-1.000000,""
python3action_video_processing_job37_35,w0,python3action_video_processing,0.997085,1,2000.000000,1,COMPLETED_SUCCESSFULLY,1.002786,72.012455,73.015241,0.005701,72.018156,1.000079,40,-1.000000,""
2_updated,w0,python3action_modeltraining_reviews50mb_nova,0.997085,1,2000.000000,1,COMPLETED_SUCCESSFULLY,31.501988,42.399990,73.901978,30.504903,72.904893,1.719455,3,-1.000000,""
2,w0,python3action_modeltraining_reviews50mb,0.000000,1,-1.000000,1,COMPLETED_SUCCESSFULLY,73.901993,0.000010,73.902003,73.901993,73.902003,7390200.344051,3,-1.000000,""
4_updated,w0,python3action_imageprocessing_SampleImage_60mb_troll,0.997085,1,2000.000000,1,COMPLETED_SUCCESSFULLY,13.401711,62.000000,75.401711,12.404626,74.404626,1.200075,44,-1.000000,""
4,w0,python3action_imageprocessing_SampleImage_60mb,0.000000,1,-1.000000,1,COMPLETED_SUCCESSFULLY,75.401726,0.000010,75.401736,75.401726,75.401736,7540173.600201,44,-1.000000,""
6_updated,w0,python3action_imageprocessing_SampleImage_60mb_troll,0.997085,1,2000.000000,1,COMPLETED_SUCCESSFULLY,13.401741,62.000000,75.401741,12.404656,74.404656,1.200075,46,-1.000000,""
21_updated,w0,python3action_imageprocessing_SampleImage_60mb_troll,0.997085,1,2000.000000,1,COMPLETED_SUCCESSFULLY,13.401771,62.000000,75.401771,12.404686,74.404686,1.200076,48,-1.000000,""
6,w0,python3action_imageprocessing_SampleImage_60mb,0.000000,1,-1.000000,1,COMPLETED_SUCCESSFULLY,75.401771,0.000010,75.401781,75.401771,75.401781,7540178.100402,46,-1.000000,""
21,w0,python3action_imageprocessing_SampleImage_60mb,0.000000,1,-1.000000,1,COMPLETED_SUCCESSFULLY,75.401801,0.000010,75.401811,75.401801,75.401811,7540181.100803,48,-1.000000,""
python3action_pyaes_job50_2,w0,python3action_pyaes,0.997085,1,2000.000000,1,COMPLETED_SUCCESSFULLY,73.902023,2.134958,76.036982,72.904938,75.039897,35.148180,3,-1.000000,""
python3action_chameleon_job23_38,w0,python3action_chameleon,0.997085,1,2000.000000,1,COMPLETED_SUCCESSFULLY,75.401756,0.867914,76.269670,74.404671,75.272585,86.728194,44,-1.000000,""
python3action_chameleon_job44_41,w0,python3action_chameleon,0.997085,1,2000.000000,1,COMPLETED_SUCCESSFULLY,75.401846,0.867914,76.269760,74.404761,75.272675,86.728298,48,-1.000000,""
10_updated,w0,python3action_pyaes_3000_nova,0.997085,1,2000.000000,1,COMPLETED_SUCCESSFULLY,3.137294,78.200020,81.337313,2.140209,80.340228,1.027368,5,-1.000000,""
10,w0,python3action_pyaes_3000,0.000000,1,-1.000000,1,COMPLETED_SUCCESSFULLY,81.337328,0.000010,81.337338,81.337328,81.337338,8133733.848243,5,-1.000000,""
42_updated,w0,python3action_pyaes_3000_nova,0.997085,1,2000.000000,1,COMPLETED_SUCCESSFULLY,3.137534,78.200020,81.337554,2.140449,80.340469,1.027371,22,-1.000000,""
42,w0,python3action_pyaes_3000,0.000000,1,-1.000000,1,COMPLETED_SUCCESSFULLY,81.337569,0.000010,81.337579,81.337569,81.337579,8133757.900201,22,-1.000000,""
python3action_linpack_job54_4,w0,python3action_linpack_reduced_0.85,0.997085,1,2000.000000,1,COMPLETED_SUCCESSFULLY,81.337358,0.365992,81.703350,80.340273,80.706265,220.513866,5,-1.000000,""
python3action_video_processing_job64_10,w0,python3action_video_processing,0.997085,1,2000.000000,1,COMPLETED_SUCCESSFULLY,69.642451,30.499683,100.142134,68.645366,99.145049,3.250691,11,-1.000000,""
27_updated,w0,python3action_imageprocessing_SampleImage_40mb_taurus,0.997085,1,2000.000000,1,COMPLETED_SUCCESSFULLY,73.015211,32.600046,105.615257,72.018126,104.618172,3.209142,36,-1.000000,""
27,w0,python3action_imageprocessing_SampleImage_40mb,0.000000,1,-1.000000,1,COMPLETED_SUCCESSFULLY,105.615272,0.000010,105.615282,105.615272,105.615282,10561528.220263,36,-1.000000,""
python3action_video_processing_job66_32,w0,python3action_video_processing_reduced_0.91,0.997085,1,2000.000000,1,COMPLETED_SUCCESSFULLY,105.615302,0.000000,105.615302,104.618217,104.618217,907190703998.278687,36,-1.000000,""
36_updated,w0,python3action_imageprocessing_SampleImage_40mb_taurus,0.997085,1,2000.000000,1,COMPLETED_SUCCESSFULLY,73.015271,32.600046,105.615317,72.018186,104.618232,3.209144,39,-1.000000,""
36,w0,python3action_imageprocessing_SampleImage_40mb,0.000000,1,-1.000000,1,COMPLETED_SUCCESSFULLY,105.615347,0.000010,105.615357,105.615347,105.615357,10561535.721267,39,-1.000000,""
69_updated,w0,python3action_floatoperation_100000000_nova,0.997085,1,2000.000000,1,COMPLETED_SUCCESSFULLY,40.482431,66.200020,106.682451,39.485346,105.685366,1.596455,16,-1.000000,""
69,w0,python3action_floatoperation_100000000,0.000000,1,-1.000000,1,COMPLETED_SUCCESSFULLY,106.682466,0.000010,106.682476,106.682466,106.682476,10668247.600201,16,-1.000000,""
python3action_modeltraining_job77_20,w0,python3action_modeltraining,0.997085,1,2000.000000,1,COMPLETED_SUCCESSFULLY,81.337599,30.499683,111.837282,80.340514,110.840197,3.634143,22,-1.000000,""
26_updated,w0,python3action_linpack_6000_orion,0.997085,1,2000.000000,1,COMPLETED_SUCCESSFULLY,6.763563,106.000000,112.763563,5.766478,111.766478,1.054401,28,-1.000000,""
26,w0,python3action_linpack_6000,0.000000,1,-1.000000,1,COMPLETED_SUCCESSFULLY,112.763578,0.000010,112.763588,112.763578,112.763588,11276358.800402,28,-1.000000,""
41_updated,w0,python3action_imageprocessing_SampleImage_60mb_troll,0.997085,1,2000.000000,1,COMPLETED_SUCCESSFULLY,53.769724,62.000000,115.769724,52.772639,114.772639,1.851172,47,-1.000000,""
41,w0,python3action_imageprocessing_SampleImage_60mb,0.000000,1,-1.000000,1,COMPLETED_SUCCESSFULLY,115.769739,0.000010,115.769749,115.769739,115.769749,11576974.946058,47,-1.000000,""
54_updated,w0,python3action_linpack_5000_nova,0.997085,1,2000.000000,1,COMPLETED_SUCCESSFULLY,81.703365,34.600010,116.303375,80.706280,115.306290,3.332551,5,-1.000000,""
54,w0,python3action_linpack_5000,0.000000,1,-1.000000,1,COMPLETED_SUCCESSFULLY,116.303390,0.000010,116.303400,116.303390,116.303400,11630340.005350,5,-1.000000,""
34_updated,w0,python3action_imageprocessing_SampleImage_60mb_troll,0.997085,1,2000.000000,1,COMPLETED_SUCCESSFULLY,75.401816,62.000000,137.401816,74.404731,136.404731,2.200076,46,-1.000000,""
34,w0,python3action_imageprocessing_SampleImage_60mb,0.000000,1,-1.000000,1,COMPLETED_SUCCESSFULLY,137.401831,0.000010,137.401841,137.401831,137.401841,13740184.101205,46,-1.000000,""
84_updated,w0,python3action_imageprocessing_SampleImage_40mb_taurus,0.997085,1,2000.000000,1,COMPLETED_SUCCESSFULLY,105.615377,32.600046,138.215423,104.618292,137.218338,4.209146,39,-1.000000,""
84,w0,python3action_imageprocessing_SampleImage_40mb,0.000000,1,-1.000000,1,COMPLETED_SUCCESSFULLY,138.215438,0.000010,138.215448,138.215438,138.215448,13821544.834948,39,-1.000000,""
python3action_video_processing_job133_35,w0,python3action_video_processing_reduced_0.91,0.997085,1,2000.000000,1,COMPLETED_SUCCESSFULLY,138.215468,0.000000,138.215468,137.218383,137.218383,1189734513884.021729,39,-1.000000,""
python3action_chameleon_job52_39,w0,python3action_chameleon,0.997085,1,2000.000000,1,COMPLETED_SUCCESSFULLY,137.401861,0.867914,138.269775,136.404776,137.272690,158.163992,46,-1.000000,""
16_updated,w0,python3action_videoprocessing_SampleVideo_30mb_nova,0.997085,1,2000.000000,1,COMPLETED_SUCCESSFULLY,31.502063,106.799980,138.302044,30.504978,137.304959,1.285627,9,-1.000000,""
16,w0,python3action_videoprocessing_SampleVideo_30mb,0.000000,1,-1.000000,1,COMPLETED_SUCCESSFULLY,138.302059,0.000010,138.302069,138.302059,138.302069,13830206.900201,9,-1.000000,""
python3action_facedetection_job58_8,w0,python3action_facedetection_reduced_0.91,0.997085,1,2000.000000,1,COMPLETED_SUCCESSFULLY,138.302089,0.000000,138.302089,137.305004,137.305004,2810349244100.195801,9,-1.000000,""
43_updated,w0,python3action_videoprocessing_SampleVideo_30mb_nova,0.997085,1,2000.000000,1,COMPLETED_SUCCESSFULLY,31.502258,106.799980,138.302239,30.505173,137.305154,1.285629,24,-1.000000,""
43,w0,python3action_videoprocessing_SampleVideo_30mb,0.000000,1,-1.000000,1,COMPLETED_SUCCESSFULLY,138.302254,0.000010,138.302264,138.302254,138.302264,13830226.400201,24,-1.000000,""
python3action_facedetection_job78_21,w0,python3action_facedetection_reduced_0.91,0.997085,1,2000.000000,1,COMPLETED_SUCCESSFULLY,138.302284,0.000000,138.302284,137.305199,137.305199,2810353235346.593262,24,-1.000000,""
15_updated,w0,python3action_floatoperation_200000000_nova,0.997085,1,2000.000000,1,COMPLETED_SUCCESSFULLY,3.442311,135.399990,138.842301,2.445226,137.845216,1.018059,8,-1.000000,""
15,w0,python3action_floatoperation_200000000,0.000000,1,-1.000000,1,COMPLETED_SUCCESSFULLY,138.842316,0.000010,138.842326,138.842316,138.842326,13884232.623568,8,-1.000000,""
17_updated,w0,python3action_floatoperation_200000000_nova,0.997085,1,2000.000000,1,COMPLETED_SUCCESSFULLY,3.442341,135.399990,138.842331,2.445256,137.845246,1.018059,10,-1.000000,""
17,w0,python3action_floatoperation_200000000,0.000000,1,-1.000000,1,COMPLETED_SUCCESSFULLY,138.842361,0.000010,138.842371,138.842361,138.842371,13884237.124171,10,-1.000000,""
31_updated,w0,python3action_floatoperation_200000000_nova,0.997085,1,2000.000000,1,COMPLETED_SUCCESSFULLY,3.442461,135.399990,138.842451,2.445376,137.845366,1.018060,19,-1.000000,""
31,w0,python3action_floatoperation_200000000,0.000000,1,-1.000000,1,COMPLETED_SUCCESSFULLY,138.842466,0.000010,138.842476,138.842466,138.842476,13884247.625375,19,-1.000000,""
python3action_pyaes_job57_7,w0,python3action_pyaes,0.997085,1,2000.000000,1,COMPLETED_SUCCESSFULLY,138.842346,2.134958,140.977304,137.845261,139.980219,65.565788,8,-1.000000,""
python3action_pyaes_job61_9,w0,python3action_pyaes,0.997085,1,2000.000000,1,COMPLETED_SUCCESSFULLY,138.842391,2.134958,140.977349,137.845306,139.980264,65.565809,10,-1.000000,""
python3action_modeltraining_job51_29,w0,python3action_modeltraining,0.997085,1,2000.000000,1,COMPLETED_SUCCESSFULLY,70.243543,72.012455,142.255999,69.246458,141.258914,1.961590,32,-1.000000,""
python3action_image_processing_job63_31,w0,python3action_image_processing,0.997085,1,2000.000000,1,COMPLETED_SUCCESSFULLY,70.243588,72.012455,142.256044,69.246503,141.258959,1.961591,35,-1.000000,""
python3action_modeltraining_job91_37,w0,python3action_modeltraining,0.997085,1,2000.000000,1,COMPLETED_SUCCESSFULLY,70.243664,72.012455,142.256119,69.246579,141.259034,1.961592,41,-1.000000,""
7_updated,w0,python3action_pyaes_4000_nova,0.997085,1,2000.000000,1,COMPLETED_SUCCESSFULLY,3.137264,139.600010,142.737274,2.140179,141.740189,1.015331,4,-1.000000,""
7,w0,python3action_pyaes_4000,0.000000,1,-1.000000,1,COMPLETED_SUCCESSFULLY,142.737289,0.000010,142.737299,142.737289,142.737299,14273729.900201,4,-1.000000,""
14_updated,w0,python3action_pyaes_4000_nova,0.997085,1,2000.000000,1,COMPLETED_SUCCESSFULLY,3.137324,139.600010,142.737334,2.140239,141.740249,1.015331,7,-1.000000,""
14,w0,python3action_pyaes_4000,0.000000,1,-1.000000,1,COMPLETED_SUCCESSFULLY,142.737349,0.000010,142.737359,142.737349,142.737359,14273735.900201,7,-1.000000,""
29_updated,w0,python3action_pyaes_4000_nova,0.997085,1,2000.000000,1,COMPLETED_SUCCESSFULLY,3.137444,139.600010,142.737454,2.140359,141.740369,1.015332,17,-1.000000,""
29,w0,python3action_pyaes_4000,0.000000,1,-1.000000,1,COMPLETED_SUCCESSFULLY,142.737469,0.000010,142.737479,142.737469,142.737479,14273747.900201,17,-1.000000,""
30_updated,w0,python3action_pyaes_4000_nova,0.997085,1,2000.000000,1,COMPLETED_SUCCESSFULLY,3.137474,139.600010,142.737484,2.140389,141.740399,1.015332,18,-1.000000,""
35_updated,w0,python3action_pyaes_4000_nova,0.997085,1,2000.000000,1,COMPLETED_SUCCESSFULLY,3.137504,139.600010,142.737514,2.140419,141.740429,1.015333,20,-1.000000,""
30,w0,python3action_pyaes_4000,0.000000,1,-1.000000,1,COMPLETED_SUCCESSFULLY,142.737514,0.000010,142.737524,142.737514,142.737524,14273752.374158,18,-1.000000,""
35,w0,python3action_pyaes_4000,0.000000,1,-1.000000,1,COMPLETED_SUCCESSFULLY,142.737544,0.000010,142.737554,142.737544,142.737554,14273755.400201,20,-1.000000,""
python3action_linpack_job53_3,w0,python3action_linpack_reduced_0.85,0.997085,1,2000.000000,1,COMPLETED_SUCCESSFULLY,142.737319,0.365992,143.103311,141.740234,142.106226,388.277082,4,-1.000000,""
python3action_linpack_job74_18,w0,python3action_linpack_reduced_0.85,0.997085,1,2000.000000,1,COMPLETED_SUCCESSFULLY,142.737589,0.365992,143.103581,141.740504,142.106496,388.277820,20,-1.000000,""
python3action_floatoperation_job56_6,w0,python3action_floatoperation,0.997085,1,2000.000000,1,COMPLETED_SUCCESSFULLY,142.737379,2.439945,145.177324,141.740294,144.180239,59.091587,7,-1.000000,""
87_updated,w0,python3action_linpack_5000_nova,0.997085,1,2000.000000,1,COMPLETED_SUCCESSFULLY,116.303420,34.600010,150.903430,115.306335,149.906345,4.332552,5,-1.000000,""
87,w0,python3action_linpack_5000,0.000000,1,-1.000000,1,COMPLETED_SUCCESSFULLY,150.903445,0.000010,150.903455,150.903445,150.903455,15090345.500201,5,-1.000000,""
50_updated,w0,python3action_pyaes_3000_nova,0.997085,1,2000.000000,1,COMPLETED_SUCCESSFULLY,76.036997,78.200020,154.237017,75.039912,153.239932,1.959589,3,-1.000000,""
50,w0,python3action_pyaes_3000,0.000000,1,-1.000000,1,COMPLETED_SUCCESSFULLY,154.237032,0.000010,154.237042,154.237032,154.237042,15423704.200201,3,-1.000000,""
3_updated,w0,python3action_imageprocessing_SampleImage_60mb_orion,0.997085,1,2000.000000,1,COMPLETED_SUCCESSFULLY,73.015061,88.000000,161.015061,72.017976,160.017976,1.818386,26,-1.000000,""
3,w0,python3action_imageprocessing_SampleImage_60mb,0.000000,1,-1.000000,1,COMPLETED_SUCCESSFULLY,161.015076,0.000010,161.015086,161.015076,161.015086,16101508.605177,26,-1.000000,""
20_updated,w0,python3action_imageprocessing_SampleImage_60mb_orion,0.997085,1,2000.000000,1,COMPLETED_SUCCESSFULLY,73.015091,88.000000,161.015091,72.018006,160.018006,1.818386,27,-1.000000,""
20,w0,python3action_imageprocessing_SampleImage_60mb,0.000000,1,-1.000000,1,COMPLETED_SUCCESSFULLY,161.015121,0.000010,161.015131,161.015121,161.015131,16101513.105779,27,-1.000000,""
1_updated,w0,python3action_modeltraining_reviews100mb_taurus,0.997085,1,2000.000000,1,COMPLETED_SUCCESSFULLY,73.015121,88.199977,161.215098,72.018036,160.218013,1.816531,29,-1.000000,""
5_updated,w0,python3action_modeltraining_reviews100mb_taurus,0.997085,1,2000.000000,1,COMPLETED_SUCCESSFULLY,73.015136,88.199977,161.215113,72.018051,160.218028,1.816531,30,-1.000000,""
1,w0,python3action_modeltraining_reviews100mb,0.000000,1,-1.000000,1,COMPLETED_SUCCESSFULLY,161.215113,0.000010,161.215123,161.215113,161.215123,16121512.299642,29,-1.000000,""
8_updated,w0,python3action_modeltraining_reviews100mb_taurus,0.997085,1,2000.000000,1,COMPLETED_SUCCESSFULLY,73.015166,88.199977,161.215143,72.018081,160.218058,1.816532,31,-1.000000,""
5,w0,python3action_modeltraining_reviews100mb,0.000000,1,-1.000000,1,COMPLETED_SUCCESSFULLY,161.215143,0.000010,161.215153,161.215143,161.215153,16121515.300044,30,-1.000000,""
11_updated,w0,python3action_modeltraining_reviews100mb_taurus,0.997085,1,2000.000000,1,COMPLETED_SUCCESSFULLY,73.015181,88.199977,161.215158,72.018096,160.218073,1.816532,33,-1.000000,""
python3action_video_processing_job40_26,w0,python3action_video_processing_reduced_0.97,0.997085,1,2000.000000,1,COMPLETED_SUCCESSFULLY,161.215158,0.000000,161.215158,160.218073,160.218073,1389150393267.046631,29,-1.000000,""
8,w0,python3action_modeltraining_reviews100mb,0.000000,1,-1.000000,1,COMPLETED_SUCCESSFULLY,161.215188,0.000010,161.215198,161.215188,161.215198,16121519.800646,31,-1.000000,""
python3action_image_processing_job46_27,w0,python3action_image_processing_reduced_0.86,0.997085,1,2000.000000,1,COMPLETED_SUCCESSFULLY,161.215203,0.000000,161.215203,160.218118,160.218118,9924601900321.974609,30,-1.000000,""
11,w0,python3action_modeltraining_reviews100mb,0.000000,1,-1.000000,1,COMPLETED_SUCCESSFULLY,161.215218,0.000010,161.215228,161.215218,161.215228,16121522.801048,33,-1.000000,""
python3action_video_processing_job47_28,w0,python3action_video_processing_reduced_0.97,0.997085,1,2000.000000,1,COMPLETED_SUCCESSFULLY,161.215263,0.000000,161.215263,160.218178,160.218178,1389151303778.043457,31,-1.000000,""
python3action_video_processing_job60_30,w0,python3action_video_processing_reduced_0.97,0.997085,1,2000.000000,1,COMPLETED_SUCCESSFULLY,161.215293,0.000000,161.215293,160.218208,160.218208,1389151563924.042725,33,-1.000000,""
python3action_linpack_job62_23,w0,python3action_linpack,0.997085,1,2000.000000,1,COMPLETED_SUCCESSFULLY,161.015106,5.760927,166.776033,160.018021,165.778948,28.776435,26,-1.000000,""
python3action_linpack_job75_24,w0,python3action_linpack,0.997085,1,2000.000000,1,COMPLETED_SUCCESSFULLY,161.015151,5.760927,166.776078,160.018066,165.778993,28.776443,27,-1.000000,""
23_updated,w0,python3action_chameleon_3000_troll,0.997085,1,2000.000000,1,COMPLETED_SUCCESSFULLY,76.269685,94.000000,170.269685,75.272600,169.272600,1.800772,44,-1.000000,""
23,w0,python3action_chameleon_3000,0.000000,1,-1.000000,1,COMPLETED_SUCCESSFULLY,170.269700,0.000010,170.269710,170.269700,170.269710,17026971.000401,44,-1.000000,""
44_updated,w0,python3action_chameleon_3000_troll,0.997085,1,2000.000000,1,COMPLETED_SUCCESSFULLY,76.269775,94.000000,170.269775,75.272690,169.272690,1.800773,48,-1.000000,""
44,w0,python3action_chameleon_3000,0.000000,1,-1.000000,1,COMPLETED_SUCCESSFULLY,170.269790,0.000010,170.269800,170.269790,170.269800,17026980.000401,48,-1.000000,""
108_updated,w0,python3action_floatoperation_100000000_nova,0.997085,1,2000.000000,1,COMPLETED_SUCCESSFULLY,106.682496,66.200020,172.882516,105.685411,171.885431,2.596456,16,-1.000000,""
108,w0,python3action_floatoperation_100000000,0.000000,1,-1.000000,1,COMPLETED_SUCCESSFULLY,172.882531,0.000010,172.882541,172.882531,172.882541,17288254.100201,16,-1.000000,""
python3action_modeltraining_job71_15,w0,python3action_modeltraining,0.997085,1,2000.000000,1,COMPLETED_SUCCESSFULLY,142.737499,30.499683,173.237182,141.740414,172.240097,5.647275,17,-1.000000,""
python3action_modeltraining_job72_16,w0,python3action_modeltraining,0.997085,1,2000.000000,1,COMPLETED_SUCCESSFULLY,142.737559,30.499683,173.237242,141.740474,172.240157,5.647277,18,-1.000000,""
63_updated,w0,python3action_imageprocessing_SampleImage_40mb_taurus,0.997085,1,2000.000000,1,COMPLETED_SUCCESSFULLY,142.256059,32.600046,174.856105,141.258974,173.859020,5.333091,35,-1.000000,""
63,w0,python3action_imageprocessing_SampleImage_40mb,0.000000,1,-1.000000,1,COMPLETED_SUCCESSFULLY,174.856120,0.000010,174.856130,174.856120,174.856130,17485613.013480,35,-1.000000,""
76_updated,w0,python3action_floatoperation_200000000_nova,0.997085,1,2000.000000,1,COMPLETED_SUCCESSFULLY,40.482506,135.399990,175.882497,39.485421,174.885412,1.291621,21,-1.000000,""
76,w0,python3action_floatoperation_200000000,0.000000,1,-1.000000,1,COMPLETED_SUCCESSFULLY,175.882512,0.000010,175.882522,175.882512,175.882522,17588252.200201,21,-1.000000,""
53_updated,w0,python3action_linpack_5000_nova,0.997085,1,2000.000000,1,COMPLETED_SUCCESSFULLY,143.103326,34.600010,177.703336,142.106241,176.706251,5.107116,4,-1.000000,""
53,w0,python3action_linpack_5000,0.000000,1,-1.000000,1,COMPLETED_SUCCESSFULLY,177.703351,0.000010,177.703361,177.703351,177.703361,17770336.100201,4,-1.000000,""
74_updated,w0,python3action_linpack_5000_nova,0.997085,1,2000.000000,1,COMPLETED_SUCCESSFULLY,143.103596,34.600010,177.703606,142.106511,176.706521,5.107123,20,-1.000000,""
74,w0,python3action_linpack_5000,0.000000,1,-1.000000,1,COMPLETED_SUCCESSFULLY,177.703621,0.000010,177.703631,177.703621,177.703631,17770363.100201,20,-1.000000,""
59_updated,w0,python3action_imageprocessing_SampleImage_60mb_troll,0.997085,1,2000.000000,1,COMPLETED_SUCCESSFULLY,115.769769,62.000000,177.769769,114.772684,176.772684,2.851172,47,-1.000000,""
59,w0,python3action_imageprocessing_SampleImage_60mb,0.000000,1,-1.000000,1,COMPLETED_SUCCESSFULLY,177.769784,0.000010,177.769794,177.769784,177.769794,17776979.446660,47,-1.000000,""
python3action_modeltraining_job129_4,w0,python3action_modeltraining,0.997085,1,2000.000000,1,COMPLETED_SUCCESSFULLY,150.903475,30.499683,181.403158,149.906390,180.406073,5.915015,5,-1.000000,""
77_updated,w0,python3action_modeltraining_reviews100mb_nova,0.997085,1,2000.000000,1,COMPLETED_SUCCESSFULLY,111.837297,79.600010,191.437307,110.840212,190.440222,2.392465,22,-1.000000,""
77,w0,python3action_modeltraining_reviews100mb,0.000000,1,-1.000000,1,COMPLETED_SUCCESSFULLY,191.437322,0.000010,191.437332,191.437322,191.437332,19143733.200201,22,-1.000000,""
python3action_linpack_job115_20,w0,python3action_linpack_reduced_0.85,0.997085,1,2000.000000,1,COMPLETED_SUCCESSFULLY,191.437352,0.365992,191.803344,190.440267,190.806259,521.340265,22,-1.000000,""
0_updated,w0,python3action_facedetection_SampleVideo_30mb_nova,0.997085,1,2000.000000,1,COMPLETED_SUCCESSFULLY,31.501958,160.399990,191.901948,30.504873,190.904863,1.190180,2,-1.000000,""
0,w0,python3action_facedetection_SampleVideo_30mb,0.000000,1,-1.000000,1,COMPLETED_SUCCESSFULLY,191.901963,0.000010,191.901973,191.901963,191.901973,19190197.343649,2,-1.000000,""
24_updated,w0,python3action_facedetection_SampleVideo_30mb_nova,0.997085,1,2000.000000,1,COMPLETED_SUCCESSFULLY,31.502123,160.399990,191.902113,30.505038,190.905028,1.190181,14,-1.000000,""
24,w0,python3action_facedetection_SampleVideo_30mb,0.000000,1,-1.000000,1,COMPLETED_SUCCESSFULLY,191.902128,0.000010,191.902138,191.902128,191.902138,19190213.845858,14,-1.000000,""
25_updated,w0,python3action_facedetection_SampleVideo_30mb_nova,0.997085,1,2000.000000,1,COMPLETED_SUCCESSFULLY,31.502153,160.399990,191.902143,30.505068,190.905058,1.190181,15,-1.000000,""
python3action_modeltraining_job67_12,w0,python3action_modeltraining_reduced_0.94,0.997085,1,2000.000000,1,COMPLETED_SUCCESSFULLY,191.902158,0.000000,191.902158,190.905073,190.905073,3907431726792.015625,14,-1.000000,""
25,w0,python3action_facedetection_SampleVideo_30mb,0.000000,1,-1.000000,1,COMPLETED_SUCCESSFULLY,191.902173,0.000010,191.902183,191.902173,191.902183,19190218.346460,15,-1.000000,""
45_updated,w0,python3action_facedetection_SampleVideo_30mb_nova,0.997085,1,2000.000000,1,COMPLETED_SUCCESSFULLY,31.502288,160.399990,191.902278,30.505203,190.905193,1.190182,25,-1.000000,""
45,w0,python3action_facedetection_SampleVideo_30mb,0.000000,1,-1.000000,1,COMPLETED_SUCCESSFULLY,191.902293,0.000010,191.902303,191.902293,191.902303,19190230.348067,25,-1.000000,""
python3action_video_processing_job81_22,w0,python3action_video_processing_reduced_0.91,0.997085,1,2000.000000,1,COMPLETED_SUCCESSFULLY,191.902323,0.000000,191.902323,190.905238,190.905238,3907435104452.606934,25,-1.000000,""
46_updated,w0,python3action_imageprocessing_SampleImage_40mb_taurus,0.997085,1,2000.000000,1,COMPLETED_SUCCESSFULLY,161.215278,32.600046,193.815324,160.218193,192.818239,5.914662,30,-1.000000,""
46,w0,python3action_imageprocessing_SampleImage_40mb,0.000000,1,-1.000000,1,COMPLETED_SUCCESSFULLY,193.815339,0.000010,193.815349,193.815339,193.815349,19381534.915130,30,-1.000000,""
python3action_facedetection_job101_27,w0,python3action_facedetection_reduced_1.83,0.997085,1,2000.000000,1,COMPLETED_SUCCESSFULLY,193.815369,0.000000,193.815369,192.818284,192.818284,1671806371427.960693,30,-1.000000,""
python3action_pyaes_job49_1,w0,python3action_pyaes,0.997085,1,2000.000000,1,COMPLETED_SUCCESSFULLY,191.901993,2.134958,194.036952,190.904908,193.039867,90.418568,2,-1.000000,""
python3action_floatoperation_job68_13,w0,python3action_floatoperation,0.997085,1,2000.000000,1,COMPLETED_SUCCESSFULLY,191.902218,2.439945,194.342164,190.905133,193.345079,79.241563,15,-1.000000,""
85_updated,w0,python3action_modeltraining_reviews50mb_nova,0.997085,1,2000.000000,1,COMPLETED_SUCCESSFULLY,154.237062,42.399990,196.637052,153.239977,195.639967,4.614151,3,-1.000000,""
85,w0,python3action_modeltraining_reviews50mb,0.000000,1,-1.000000,1,COMPLETED_SUCCESSFULLY,196.637067,0.000010,196.637077,196.637067,196.637077,19663707.723907,3,-1.000000,""
python3action_floatoperation_job125_2,w0,python3action_floatoperation,0.997085,1,2000.000000,1,COMPLETED_SUCCESSFULLY,196.637097,2.439945,199.077043,195.640012,198.079958,81.182131,3,-1.000000,""
python3action_video_processing_job148_14,w0,python3action_video_processing,0.997085,1,2000.000000,1,COMPLETED_SUCCESSFULLY,172.882561,30.499683,203.382244,171.885476,202.385159,6.635648,16,-1.000000,""
65_updated,w0,python3action_floatoperation_200000000_nova,0.997085,1,2000.000000,1,COMPLETED_SUCCESSFULLY,69.642481,135.399990,205.042471,68.645396,204.045386,1.506982,13,-1.000000,""
65,w0,python3action_floatoperation_200000000,0.000000,1,-1.000000,1,COMPLETED_SUCCESSFULLY,205.042486,0.000010,205.042496,205.042486,205.042496,20504249.624107,13,-1.000000,""
64_updated,w0,python3action_videoprocessing_SampleVideo_30mb_nova,0.997085,1,2000.000000,1,COMPLETED_SUCCESSFULLY,100.142149,106.799980,206.942129,99.145064,205.945044,1.928325,11,-1.000000,""
64,w0,python3action_videoprocessing_SampleVideo_30mb,0.000000,1,-1.000000,1,COMPLETED_SUCCESSFULLY,206.942144,0.000010,206.942154,206.942144,206.942154,20694215.446608,11,-1.000000,""
124_updated,w0,python3action_imageprocessing_SampleImage_40mb_taurus,0.997085,1,2000.000000,1,COMPLETED_SUCCESSFULLY,174.856150,32.600046,207.456196,173.859065,206.459111,6.333093,35,-1.000000,""
124,w0,python3action_imageprocessing_SampleImage_40mb,0.000000,1,-1.000000,1,COMPLETED_SUCCESSFULLY,207.456211,0.000010,207.456221,207.456211,207.456221,20745622.127160,35,-1.000000,""
python3action_linpack_job104_11,w0,python3action_linpack,0.997085,1,2000.000000,1,COMPLETED_SUCCESSFULLY,205.042516,2.439945,207.482462,204.045431,206.485377,84.627052,13,-1.000000,""
32_updated,w0,python3action_facedetection_SampleVideo_50mb_taurus,0.997085,1,2000.000000,1,COMPLETED_SUCCESSFULLY,73.015226,134.600046,207.615272,72.018141,206.618187,1.535053,37,-1.000000,""
32,w0,python3action_facedetection_SampleVideo_50mb,0.000000,1,-1.000000,1,COMPLETED_SUCCESSFULLY,207.615287,0.000010,207.615297,207.615287,207.615297,20761529.720464,37,-1.000000,""
33_updated,w0,python3action_facedetection_SampleVideo_50mb_taurus,0.997085,1,2000.000000,1,COMPLETED_SUCCESSFULLY,73.015256,134.600046,207.615302,72.018171,206.618217,1.535053,38,-1.000000,""
python3action_image_processing_job79_33,w0,python3action_image_processing_reduced_0.86,0.997085,1,2000.000000,1,COMPLETED_SUCCESSFULLY,207.615317,0.000000,207.615317,206.618232,206.618232,12798825285856.482422,37,-1.000000,""
33,w0,python3action_facedetection_SampleVideo_50mb,0.000000,1,-1.000000,1,COMPLETED_SUCCESSFULLY,207.615332,0.000010,207.615342,207.615332,207.615342,20761534.221066,38,-1.000000,""
python3action_facedetection_job86_3,w0,python3action_facedetection,0.997085,1,2000.000000,1,COMPLETED_SUCCESSFULLY,177.703381,30.499683,208.203064,176.706296,207.205979,6.793709,4,-1.000000,""
55_updated,w0,python3action_pyaes_4000_nova,0.997085,1,2000.000000,1,COMPLETED_SUCCESSFULLY,71.777319,139.600010,211.377329,70.780234,210.380244,1.507022,6,-1.000000,""
55,w0,python3action_pyaes_4000,0.000000,1,-1.000000,1,COMPLETED_SUCCESSFULLY,211.377344,0.000010,211.377354,211.377344,211.377354,21137735.401668,6,-1.000000,""
56_updated,w0,python3action_floatoperation_100000000_nova,0.997085,1,2000.000000,1,COMPLETED_SUCCESSFULLY,145.177339,66.200020,211.377359,144.180254,210.380274,3.177949,7,-1.000000,""
56,w0,python3action_floatoperation_100000000,0.000000,1,-1.000000,1,COMPLETED_SUCCESSFULLY,211.377389,0.000010,211.377399,211.377389,211.377399,21137739.900402,7,-1.000000,""
71_updated,w0,python3action_modeltraining_reviews50mb_nova,0.997085,1,2000.000000,1,COMPLETED_SUCCESSFULLY,173.237197,42.399990,215.637187,172.240112,214.640102,5.062268,17,-1.000000,""
71,w0,python3action_modeltraining_reviews50mb,0.000000,1,-1.000000,1,COMPLETED_SUCCESSFULLY,215.637202,0.000010,215.637212,215.637202,215.637212,21563721.223505,17,-1.000000,""
python3action_linpack_job109_15,w0,python3action_linpack_reduced_0.85,0.997085,1,2000.000000,1,COMPLETED_SUCCESSFULLY,215.637232,0.365992,216.003224,214.640147,215.006139,587.461639,17,-1.000000,""
94_updated,w0,python3action_chameleon_2000_troll,0.997085,1,2000.000000,1,COMPLETED_SUCCESSFULLY,177.769814,39.500010,217.269824,176.772729,216.272739,5.475258,47,-1.000000,""
94,w0,python3action_chameleon_2000,0.000000,1,-1.000000,1,COMPLETED_SUCCESSFULLY,217.269839,0.000010,217.269849,217.269839,217.269849,21726984.940094,47,-1.000000,""
95_updated,w0,python3action_linpack_6000_orion,0.997085,1,2000.000000,1,COMPLETED_SUCCESSFULLY,112.763608,106.000000,218.763608,111.766523,217.766523,2.054401,28,-1.000000,""
95,w0,python3action_linpack_6000,0.000000,1,-1.000000,1,COMPLETED_SUCCESSFULLY,218.763623,0.000010,218.763633,218.763623,218.763633,21876363.301004,28,-1.000000,""
57_updated,w0,python3action_pyaes_3000_nova,0.997085,1,2000.000000,1,COMPLETED_SUCCESSFULLY,140.977319,78.200020,219.177339,139.980234,218.180254,2.790028,8,-1.000000,""
57,w0,python3action_pyaes_3000,0.000000,1,-1.000000,1,COMPLETED_SUCCESSFULLY,219.177354,0.000010,219.177364,219.177354,219.177364,21917736.401932,8,-1.000000,""
129_updated,w0,python3action_modeltraining_reviews50mb_nova,0.997085,1,2000.000000,1,COMPLETED_SUCCESSFULLY,181.403173,42.399990,223.803163,180.406088,222.806078,5.254862,5,-1.000000,""
129,w0,python3action_modeltraining_reviews50mb,0.000000,1,-1.000000,1,COMPLETED_SUCCESSFULLY,223.803178,0.000010,223.803188,223.803178,223.803188,22380318.823505,5,-1.000000,""
python3action_facedetection_job176_4,w0,python3action_facedetection_reduced_0.91,0.997085,1,2000.000000,1,COMPLETED_SUCCESSFULLY,223.803208,0.000000,223.803208,222.806123,222.806123,4560380188315.994141,5,-1.000000,""
115_updated,w0,python3action_linpack_5000_nova,0.997085,1,2000.000000,1,COMPLETED_SUCCESSFULLY,191.803359,34.600010,226.403369,190.806274,225.406284,6.514631,22,-1.000000,""
115,w0,python3action_linpack_5000,0.000000,1,-1.000000,1,COMPLETED_SUCCESSFULLY,226.403384,0.000010,226.403394,226.403384,226.403394,22640339.400201,22,-1.000000,""
python3action_facedetection_job158_20,w0,python3action_facedetection_reduced_0.91,0.997085,1,2000.000000,1,COMPLETED_SUCCESSFULLY,226.403414,0.000000,226.403414,225.406329,225.406329,4613601018573.213867,22,-1.000000,""
37_updated,w0,python3action_videoprocessing_SampleVideo_50mb_taurus,0.997085,1,2000.000000,1,COMPLETED_SUCCESSFULLY,73.015286,154.250029,227.265315,72.018201,226.268230,1.466893,40,-1.000000,""
37,w0,python3action_videoprocessing_SampleVideo_50mb,0.000000,1,-1.000000,1,COMPLETED_SUCCESSFULLY,227.265330,0.000010,227.265340,227.265330,227.265340,22726534.000201,40,-1.000000,""
python3action_facedetection_job89_36,w0,python3action_facedetection_reduced_0.91,0.997085,1,2000.000000,1,COMPLETED_SUCCESSFULLY,227.265360,0.000000,227.265360,226.268275,226.268275,1961830256213.448242,40,-1.000000,""
51_updated,w0,python3action_modeltraining_reviews100mb_taurus,0.997085,1,2000.000000,1,COMPLETED_SUCCESSFULLY,142.256014,88.199977,230.455991,141.258929,229.458906,2.601576,32,-1.000000,""
51,w0,python3action_modeltraining_reviews100mb,0.000000,1,-1.000000,1,COMPLETED_SUCCESSFULLY,230.456006,0.000010,230.456016,230.456006,230.456016,23045601.600201,32,-1.000000,""
python3action_image_processing_job121_29,w0,python3action_image_processing_reduced_0.86,0.997085,1,2000.000000,1,COMPLETED_SUCCESSFULLY,230.456036,0.000000,230.456036,229.458951,229.458951,14213678012868.996094,32,-1.000000,""
91_updated,w0,python3action_modeltraining_reviews100mb_taurus,0.997085,1,2000.000000,1,COMPLETED_SUCCESSFULLY,142.256134,88.199977,230.456111,141.259049,229.459026,2.601577,41,-1.000000,""
91,w0,python3action_modeltraining_reviews100mb,0.000000,1,-1.000000,1,COMPLETED_SUCCESSFULLY,230.456126,0.000010,230.456136,230.456126,230.456136,23045613.625545,41,-1.000000,""
python3action_facedetection_job142_37,w0,python3action_facedetection_reduced_0.91,0.997085,1,2000.000000,1,COMPLETED_SUCCESSFULLY,230.456156,0.000000,230.456156,229.459071,229.459071,1989495648682.850586,41,-1.000000,""
48_updated,w0,python3action_imageprocessing_SampleImage_60mb_troll,0.997085,1,2000.000000,1,COMPLETED_SUCCESSFULLY,170.269730,62.000000,232.269730,169.272645,231.272645,3.730204,44,-1.000000,""
48,w0,python3action_imageprocessing_SampleImage_60mb,0.000000,1,-1.000000,1,COMPLETED_SUCCESSFULLY,232.269745,0.000010,232.269755,232.269745,232.269755,23226975.501004,44,-1.000000,""
52_updated,w0,python3action_chameleon_3000_troll,0.997085,1,2000.000000,1,COMPLETED_SUCCESSFULLY,138.269790,94.000000,232.269790,137.272705,231.272705,2.460348,46,-1.000000,""
52,w0,python3action_chameleon_3000,0.000000,1,-1.000000,1,COMPLETED_SUCCESSFULLY,232.269805,0.000010,232.269815,232.269805,232.269815,23226981.500602,46,-1.000000,""
67_updated,w0,python3action_modeltraining_reviews50mb_nova,0.997085,1,2000.000000,1,COMPLETED_SUCCESSFULLY,191.902203,42.399990,234.302194,190.905118,233.305109,5.502480,14,-1.000000,""
67,w0,python3action_modeltraining_reviews50mb,0.000000,1,-1.000000,1,COMPLETED_SUCCESSFULLY,234.302209,0.000010,234.302219,234.302209,234.302219,23430221.900201,14,-1.000000,""
python3action_floatoperation_job106_12,w0,python3action_floatoperation,0.997085,1,2000.000000,1,COMPLETED_SUCCESSFULLY,234.302239,2.439945,236.742184,233.305154,235.745099,96.619010,14,-1.000000,""
79_updated,w0,python3action_imageprocessing_SampleImage_40mb_taurus,0.997085,1,2000.000000,1,COMPLETED_SUCCESSFULLY,207.615362,32.600046,240.215408,206.618277,239.218323,7.337975,37,-1.000000,""
79,w0,python3action_imageprocessing_SampleImage_40mb,0.000000,1,-1.000000,1,COMPLETED_SUCCESSFULLY,240.215423,0.000010,240.215433,240.215423,240.215433,24021543.334746,37,-1.000000,""
python3action_modeltraining_job92_6,w0,python3action_modeltraining,0.997085,1,2000.000000,1,COMPLETED_SUCCESSFULLY,211.377419,30.499683,241.877102,210.380334,240.880017,7.897788,7,-1.000000,""
104_updated,w0,python3action_linpack_5000_nova,0.997085,1,2000.000000,1,COMPLETED_SUCCESSFULLY,207.482477,34.600010,242.082487,206.485392,241.085402,6.967784,13,-1.000000,""
104,w0,python3action_linpack_5000,0.000000,1,-1.000000,1,COMPLETED_SUCCESSFULLY,242.082502,0.000010,242.082512,242.082502,242.082512,24208251.200201,13,-1.000000,""
114_updated,w0,python3action_floatoperation_100000000_nova,0.997085,1,2000.000000,1,COMPLETED_SUCCESSFULLY,175.882542,66.200020,242.082562,174.885457,241.085477,3.641773,21,-1.000000,""
114,w0,python3action_floatoperation_100000000,0.000000,1,-1.000000,1,COMPLETED_SUCCESSFULLY,242.082577,0.000010,242.082587,242.082577,242.082587,24208258.700201,21,-1.000000,""
109_updated,w0,python3action_linpack_5000_nova,0.997085,1,2000.000000,1,COMPLETED_SUCCESSFULLY,216.003239,34.600010,250.603249,215.006154,249.606164,7.214049,17,-1.000000,""
109,w0,python3action_linpack_5000,0.000000,1,-1.000000,1,COMPLETED_SUCCESSFULLY,250.603264,0.000010,250.603274,250.603264,250.603274,25060327.400201,17,-1.000000,""
72_updated,w0,python3action_modeltraining_reviews100mb_nova,0.997085,1,2000.000000,1,COMPLETED_SUCCESSFULLY,173.237257,79.600010,252.837267,172.240172,251.840182,3.163821,18,-1.000000,""
72,w0,python3action_modeltraining_reviews100mb,0.000000,1,-1.000000,1,COMPLETED_SUCCESSFULLY,252.837282,0.000010,252.837292,252.837282,252.837292,25283729.200201,18,-1.000000,""
python3action_video_processing_job110_16,w0,python3action_video_processing_reduced_0.97,0.997085,1,2000.000000,1,COMPLETED_SUCCESSFULLY,252.837312,0.000000,252.837312,251.840227,251.840227,5154648198904.936523,18,-1.000000,""
python3action_floatoperation_job150_15,w0,python3action_floatoperation,0.997085,1,2000.000000,1,COMPLETED_SUCCESSFULLY,250.603294,2.439945,253.043239,249.606209,252.046154,103.299920,17,-1.000000,""
66_updated,w0,python3action_videoprocessing_SampleVideo_50mb_taurus,0.997085,1,2000.000000,1,COMPLETED_SUCCESSFULLY,105.615332,154.250029,259.865361,104.618247,258.868276,1.678238,36,-1.000000,""
66,w0,python3action_videoprocessing_SampleVideo_50mb,0.000000,1,-1.000000,1,COMPLETED_SUCCESSFULLY,259.865376,0.000010,259.865386,259.865376,259.865386,25986538.604441,36,-1.000000,""
121_updated,w0,python3action_imageprocessing_SampleImage_40mb_taurus,0.997085,1,2000.000000,1,COMPLETED_SUCCESSFULLY,230.456066,32.600046,263.056112,229.458981,262.059027,8.038609,32,-1.000000,""
121,w0,python3action_imageprocessing_SampleImage_40mb,0.000000,1,-1.000000,1,COMPLETED_SUCCESSFULLY,263.056127,0.000010,263.056137,263.056127,263.056137,26305613.714283,32,-1.000000,""
python3action_facedetection_job154_29,w0,python3action_facedetection_reduced_1.83,0.997085,1,2000.000000,1,COMPLETED_SUCCESSFULLY,263.056157,0.000000,263.056157,262.059072,262.059072,2272149803763.603027,32,-1.000000,""
70_updated,w0,python3action_chameleon_3000_troll,0.997085,1,2000.000000,1,COMPLETED_SUCCESSFULLY,170.269820,94.000000,264.269820,169.272735,263.272735,2.800774,48,-1.000000,""
70,w0,python3action_chameleon_3000,0.000000,1,-1.000000,1,COMPLETED_SUCCESSFULLY,264.269835,0.000010,264.269845,264.269835,264.269845,26426984.501004,48,-1.000000,""
python3action_chameleon_job126_32,w0,python3action_chameleon,0.997085,1,2000.000000,1,COMPLETED_SUCCESSFULLY,259.865406,5.040826,264.906232,258.868321,263.909147,52.354348,36,-1.000000,""
125_updated,w0,python3action_floatoperation_100000000_nova,0.997085,1,2000.000000,1,COMPLETED_SUCCESSFULLY,199.077058,66.200020,265.277078,198.079973,264.279993,3.992144,3,-1.000000,""
125,w0,python3action_floatoperation_100000000,0.000000,1,-1.000000,1,COMPLETED_SUCCESSFULLY,265.277093,0.000010,265.277103,265.277093,265.277103,26527710.300201,3,-1.000000,""
159_updated,w0,python3action_chameleon_2000_taurus,0.997085,1,2000.000000,1,COMPLETED_SUCCESSFULLY,207.456241,64.199977,271.656218,206.459156,270.659133,4.215876,35,-1.000000,""
159,w0,python3action_chameleon_2000,0.000000,1,-1.000000,1,COMPLETED_SUCCESSFULLY,271.656233,0.000010,271.656243,271.656233,271.656243,27165624.321223,35,-1.000000,""
python3action_facedetection_job189_31,w0,python3action_facedetection_reduced_0.91,0.997085,1,2000.000000,1,COMPLETED_SUCCESSFULLY,271.656263,0.000000,271.656263,270.659178,270.659178,2346715927950.225586,35,-1.000000,""
python3action_facedetection_job144_11,w0,python3action_facedetection,0.997085,1,2000.000000,1,COMPLETED_SUCCESSFULLY,242.082532,30.499683,272.582215,241.085447,271.585130,8.904523,13,-1.000000,""
python3action_video_processing_job157_19,w0,python3action_video_processing,0.997085,1,2000.000000,1,COMPLETED_SUCCESSFULLY,242.082607,30.499683,272.582290,241.085522,271.585205,8.904526,21,-1.000000,""
62_updated,w0,python3action_linpack_6000_orion,0.997085,1,2000.000000,1,COMPLETED_SUCCESSFULLY,166.776048,106.000000,272.776048,165.778963,271.778963,2.563952,26,-1.000000,""
62,w0,python3action_linpack_6000,0.000000,1,-1.000000,1,COMPLETED_SUCCESSFULLY,272.776063,0.000010,272.776073,272.776063,272.776073,27277607.328849,26,-1.000000,""
75_updated,w0,python3action_linpack_6000_orion,0.997085,1,2000.000000,1,COMPLETED_SUCCESSFULLY,166.776093,106.000000,272.776093,165.779008,271.779008,2.563953,27,-1.000000,""
75,w0,python3action_linpack_6000,0.000000,1,-1.000000,1,COMPLETED_SUCCESSFULLY,272.776123,0.000010,272.776133,272.776123,272.776133,27277613.329652,27,-1.000000,""
127_updated,w0,python3action_imageprocessing_SampleImage_40mb_taurus,0.997085,1,2000.000000,1,COMPLETED_SUCCESSFULLY,240.215453,32.600046,272.815499,239.218368,271.818414,8.337976,37,-1.000000,""
127,w0,python3action_imageprocessing_SampleImage_40mb,0.000000,1,-1.000000,1,COMPLETED_SUCCESSFULLY,272.815514,0.000010,272.815524,272.815514,272.815524,27281552.448427,37,-1.000000,""
python3action_video_processing_job164_33,w0,python3action_video_processing_reduced_1.83,0.997085,1,2000.000000,1,COMPLETED_SUCCESSFULLY,272.815544,0.000000,272.815544,271.818459,271.818459,2356767328549.289062,37,-1.000000,""
103_updated,w0,python3action_floatoperation_100000000_nova,0.997085,1,2000.000000,1,COMPLETED_SUCCESSFULLY,206.942174,66.200020,273.142194,205.945089,272.145109,4.110952,11,-1.000000,""
103,w0,python3action_floatoperation_100000000,0.000000,1,-1.000000,1,COMPLETED_SUCCESSFULLY,273.142209,0.000010,273.142219,273.142209,273.142219,27314221.901004,11,-1.000000,""
73_updated,w0,python3action_floatoperation_200000000_nova,0.997085,1,2000.000000,1,COMPLETED_SUCCESSFULLY,138.842496,135.399990,274.242486,137.845411,273.245401,2.018061,19,-1.000000,""
73,w0,python3action_floatoperation_200000000,0.000000,1,-1.000000,1,COMPLETED_SUCCESSFULLY,274.242501,0.000010,274.242511,274.242501,274.242511,27424251.149081,19,-1.000000,""
61_updated,w0,python3action_pyaes_4000_nova,0.997085,1,2000.000000,1,COMPLETED_SUCCESSFULLY,140.977364,139.600010,280.577374,139.980279,279.580289,2.002724,10,-1.000000,""
61,w0,python3action_pyaes_4000,0.000000,1,-1.000000,1,COMPLETED_SUCCESSFULLY,280.577389,0.000010,280.577399,280.577389,280.577399,28057739.925638,10,-1.000000,""
92_updated,w0,python3action_modeltraining_reviews50mb_nova,0.997085,1,2000.000000,1,COMPLETED_SUCCESSFULLY,241.877117,42.399990,284.277107,240.880032,283.280022,6.681134,7,-1.000000,""
92,w0,python3action_modeltraining_reviews50mb,0.000000,1,-1.000000,1,COMPLETED_SUCCESSFULLY,284.277122,0.000010,284.277132,284.277122,284.277132,28427713.223505,7,-1.000000,""
133_updated,w0,python3action_videoprocessing_SampleVideo_50mb_taurus,0.997085,1,2000.000000,1,COMPLETED_SUCCESSFULLY,138.215498,154.250029,292.465527,137.218413,291.468442,1.889584,39,-1.000000,""
133,w0,python3action_videoprocessing_SampleVideo_50mb,0.000000,1,-1.000000,1,COMPLETED_SUCCESSFULLY,292.465542,0.000010,292.465552,292.465542,292.465552,29246555.219125,39,-1.000000,""
90_updated,w0,python3action_imageprocessing_SampleImage_60mb_troll,0.997085,1,2000.000000,1,COMPLETED_SUCCESSFULLY,232.269835,62.000000,294.269835,231.272750,293.272750,4.730206,46,-1.000000,""
90,w0,python3action_imageprocessing_SampleImage_60mb,0.000000,1,-1.000000,1,COMPLETED_SUCCESSFULLY,294.269850,0.000010,294.269860,294.269850,294.269860,29426986.001205,46,-1.000000,""
58_updated,w0,python3action_facedetection_SampleVideo_30mb_nova,0.997085,1,2000.000000,1,COMPLETED_SUCCESSFULLY,138.302119,160.399990,298.702109,137.305034,297.705024,1.856016,9,-1.000000,""
58,w0,python3action_facedetection_SampleVideo_30mb,0.000000,1,-1.000000,1,COMPLETED_SUCCESSFULLY,298.702124,0.000010,298.702134,298.702124,298.702134,29870213.424308,9,-1.000000,""
78_updated,w0,python3action_facedetection_SampleVideo_30mb_nova,0.997085,1,2000.000000,1,COMPLETED_SUCCESSFULLY,138.302314,160.399990,298.702304,137.305229,297.705219,1.856018,24,-1.000000,""
78,w0,python3action_facedetection_SampleVideo_30mb,0.000000,1,-1.000000,1,COMPLETED_SUCCESSFULLY,298.702319,0.000010,298.702329,298.702319,298.702329,29870232.924308,24,-1.000000,""
81_updated,w0,python3action_videoprocessing_SampleVideo_30mb_nova,0.997085,1,2000.000000,1,COMPLETED_SUCCESSFULLY,191.902353,106.799980,298.702334,190.905268,297.705249,2.787503,25,-1.000000,""
81,w0,python3action_videoprocessing_SampleVideo_30mb,0.000000,1,-1.000000,1,COMPLETED_SUCCESSFULLY,298.702364,0.000010,298.702374,298.702364,298.702374,29870237.400402,25,-1.000000,""
python3action_pyaes_job118_22,w0,python3action_pyaes,0.997085,1,2000.000000,1,COMPLETED_SUCCESSFULLY,298.702394,2.134958,300.837352,297.705309,299.840267,140.443153,25,-1.000000,""
python3action_linpack_job116_21,w0,python3action_linpack,0.997085,1,2000.000000,1,COMPLETED_SUCCESSFULLY,298.702349,2.439945,301.142294,297.705264,300.145209,123.013090,24,-1.000000,""
python3action_facedetection_job111_17,w0,python3action_facedetection,0.997085,1,2000.000000,1,COMPLETED_SUCCESSFULLY,274.242531,30.499683,304.742214,273.245446,303.745129,9.958960,19,-1.000000,""
148_updated,w0,python3action_videoprocessing_SampleVideo_30mb_nova,0.997085,1,2000.000000,1,COMPLETED_SUCCESSFULLY,203.382259,106.799980,310.182239,202.385174,309.185154,2.894993,16,-1.000000,""
148,w0,python3action_videoprocessing_SampleVideo_30mb,0.000000,1,-1.000000,1,COMPLETED_SUCCESSFULLY,310.182254,0.000010,310.182264,310.182254,310.182264,31018226.446609,16,-1.000000,""
python3action_facedetection_job99_9,w0,python3action_facedetection,0.997085,1,2000.000000,1,COMPLETED_SUCCESSFULLY,280.577419,30.499683,311.077102,279.580334,310.080017,10.166664,10,-1.000000,""
105_updated,w0,python3action_chameleon_3000_troll,0.997085,1,2000.000000,1,COMPLETED_SUCCESSFULLY,217.269869,94.000000,311.269869,216.272784,310.272784,3.300774,47,-1.000000,""
105,w0,python3action_chameleon_3000,0.000000,1,-1.000000,1,COMPLETED_SUCCESSFULLY,311.269884,0.000010,311.269894,311.269884,311.269894,31126989.440697,47,-1.000000,""
40_updated,w0,python3action_videoprocessing_SampleVideo_50mb_taurus,0.997085,1,2000.000000,1,COMPLETED_SUCCESSFULLY,161.215233,154.250029,315.465262,160.218148,314.468177,2.038691,29,-1.000000,""
40,w0,python3action_videoprocessing_SampleVideo_50mb,0.000000,1,-1.000000,1,COMPLETED_SUCCESSFULLY,315.465277,0.000010,315.465287,315.465277,315.465287,31546528.700201,29,-1.000000,""
python3action_image_processing_job100_26,w0,python3action_image_processing_reduced_1.73,0.997085,1,2000.000000,1,COMPLETED_SUCCESSFULLY,315.465307,0.000000,315.465307,314.468222,314.468222,19479519248545.687500,29,-1.000000,""
47_updated,w0,python3action_videoprocessing_SampleVideo_50mb_taurus,0.997085,1,2000.000000,1,COMPLETED_SUCCESSFULLY,161.215323,154.250029,315.465352,160.218238,314.468267,2.038692,31,-1.000000,""
60_updated,w0,python3action_videoprocessing_SampleVideo_50mb_taurus,0.997085,1,2000.000000,1,COMPLETED_SUCCESSFULLY,161.215338,154.250029,315.465367,160.218253,314.468282,2.038692,33,-1.000000,""
47,w0,python3action_videoprocessing_SampleVideo_50mb,0.000000,1,-1.000000,1,COMPLETED_SUCCESSFULLY,315.465367,0.000010,315.465377,315.465367,315.465377,31546537.686029,31,-1.000000,""
60,w0,python3action_videoprocessing_SampleVideo_50mb,0.000000,1,-1.000000,1,COMPLETED_SUCCESSFULLY,315.465397,0.000010,315.465407,315.465397,315.465407,31546540.700201,33,-1.000000,""
python3action_image_processing_job122_30,w0,python3action_image_processing_reduced_1.73,0.997085,1,2000.000000,1,COMPLETED_SUCCESSFULLY,315.465442,0.000000,315.465442,314.468357,314.468357,19479527611152.878906,33,-1.000000,""
112_updated,w0,python3action_pyaes_4000_nova,0.997085,1,2000.000000,1,COMPLETED_SUCCESSFULLY,177.703651,139.600010,317.303661,176.706566,316.306576,2.265806,20,-1.000000,""
112,w0,python3action_pyaes_4000,0.000000,1,-1.000000,1,COMPLETED_SUCCESSFULLY,317.303676,0.000010,317.303686,317.303676,317.303686,31730368.600201,20,-1.000000,""
150_updated,w0,python3action_floatoperation_100000000_nova,0.997085,1,2000.000000,1,COMPLETED_SUCCESSFULLY,253.043254,66.200020,319.243274,252.046169,318.246189,4.807343,17,-1.000000,""
150,w0,python3action_floatoperation_100000000,0.000000,1,-1.000000,1,COMPLETED_SUCCESSFULLY,319.243289,0.000010,319.243299,319.243289,319.243299,31924329.900201,17,-1.000000,""
136_updated,w0,python3action_linpack_6000_orion,0.997085,1,2000.000000,1,COMPLETED_SUCCESSFULLY,218.763653,106.000000,324.763653,217.766568,323.766568,3.054402,28,-1.000000,""
136,w0,python3action_linpack_6000,0.000000,1,-1.000000,1,COMPLETED_SUCCESSFULLY,324.763668,0.000010,324.763678,324.763668,324.763678,32476367.801606,28,-1.000000,""
167_updated,w0,python3action_imageprocessing_SampleImage_40mb_taurus,0.997085,1,2000.000000,1,COMPLETED_SUCCESSFULLY,292.465572,32.600046,325.065618,291.468487,324.068533,9.940738,39,-1.000000,""
167,w0,python3action_imageprocessing_SampleImage_40mb,0.000000,1,-1.000000,1,COMPLETED_SUCCESSFULLY,325.065633,0.000010,325.065643,325.065633,325.065643,32506564.332806,39,-1.000000,""
82_updated,w0,python3action_chameleon_3000_troll,0.997085,1,2000.000000,1,COMPLETED_SUCCESSFULLY,232.269775,94.000000,326.269775,231.272690,325.272690,3.460348,44,-1.000000,""
82,w0,python3action_chameleon_3000,0.000000,1,-1.000000,1,COMPLETED_SUCCESSFULLY,326.269790,0.000010,326.269800,326.269790,326.269800,32626980.001606,44,-1.000000,""
96_updated,w0,python3action_imageprocessing_SampleImage_60mb_troll,0.997085,1,2000.000000,1,COMPLETED_SUCCESSFULLY,264.269865,62.000000,326.269865,263.272780,325.272780,5.246335,48,-1.000000,""
96,w0,python3action_imageprocessing_SampleImage_60mb,0.000000,1,-1.000000,1,COMPLETED_SUCCESSFULLY,326.269880,0.000010,326.269890,326.269880,326.269890,32626989.001606,48,-1.000000,""
134_updated,w0,python3action_modeltraining_reviews50mb_nova,0.997085,1,2000.000000,1,COMPLETED_SUCCESSFULLY,284.277152,42.399990,326.677142,283.280067,325.680057,7.681135,7,-1.000000,""
134,w0,python3action_modeltraining_reviews50mb,0.000000,1,-1.000000,1,COMPLETED_SUCCESSFULLY,326.677157,0.000010,326.677167,326.677157,326.677167,32667716.747212,7,-1.000000,""
python3action_linpack_job178_6,w0,python3action_linpack_reduced_0.85,0.997085,1,2000.000000,1,COMPLETED_SUCCESSFULLY,326.677187,0.365992,327.043179,325.680102,326.046094,890.856297,7,-1.000000,""
101_updated,w0,python3action_facedetection_SampleVideo_50mb_taurus,0.997085,1,2000.000000,1,COMPLETED_SUCCESSFULLY,193.815399,134.600046,328.415445,192.818314,327.418360,2.432528,30,-1.000000,""
101,w0,python3action_facedetection_SampleVideo_50mb,0.000000,1,-1.000000,1,COMPLETED_SUCCESSFULLY,328.415460,0.000010,328.415470,328.415460,328.415470,32841547.029212,30,-1.000000,""
126_updated,w0,python3action_chameleon_2000_taurus,0.997085,1,2000.000000,1,COMPLETED_SUCCESSFULLY,264.906247,64.199977,329.106224,263.909162,328.109139,5.110736,36,-1.000000,""
126,w0,python3action_chameleon_2000,0.000000,1,-1.000000,1,COMPLETED_SUCCESSFULLY,329.106239,0.000010,329.106249,329.106239,329.106249,32910624.900201,36,-1.000000,""
python3action_modeltraining_job161_32,w0,python3action_modeltraining_reduced_1.94,0.997085,1,2000.000000,1,COMPLETED_SUCCESSFULLY,329.106269,0.000000,329.106269,328.109184,328.109184,2844828885124.459961,36,-1.000000,""
68_updated,w0,python3action_floatoperation_200000000_nova,0.997085,1,2000.000000,1,COMPLETED_SUCCESSFULLY,194.342179,135.399990,329.742169,193.345094,328.745084,2.427955,15,-1.000000,""
68,w0,python3action_floatoperation_200000000,0.000000,1,-1.000000,1,COMPLETED_SUCCESSFULLY,329.742184,0.000010,329.742194,329.742184,329.742194,32974219.423506,15,-1.000000,""
173_updated,w0,python3action_floatoperation_100000000_nova,0.997085,1,2000.000000,1,COMPLETED_SUCCESSFULLY,265.277123,66.200020,331.477143,264.280038,330.480058,4.992144,3,-1.000000,""
173,w0,python3action_floatoperation_100000000,0.000000,1,-1.000000,1,COMPLETED_SUCCESSFULLY,331.477158,0.000010,331.477168,331.477158,331.477168,33147716.800201,3,-1.000000,""
49_updated,w0,python3action_pyaes_4000_nova,0.997085,1,2000.000000,1,COMPLETED_SUCCESSFULLY,194.036967,139.600010,333.636977,193.039882,332.639892,2.382807,2,-1.000000,""
49,w0,python3action_pyaes_4000,0.000000,1,-1.000000,1,COMPLETED_SUCCESSFULLY,333.636992,0.000010,333.637002,333.636992,333.637002,33363700.200201,2,-1.000000,""
116_updated,w0,python3action_linpack_5000_nova,0.997085,1,2000.000000,1,COMPLETED_SUCCESSFULLY,301.142309,34.600010,335.742319,300.145224,334.745234,9.674715,24,-1.000000,""
116,w0,python3action_linpack_5000,0.000000,1,-1.000000,1,COMPLETED_SUCCESSFULLY,335.742334,0.000010,335.742344,335.742334,335.742344,33574234.406879,24,-1.000000,""
python3action_floatoperation_job83_1,w0,python3action_floatoperation,0.997085,1,2000.000000,1,COMPLETED_SUCCESSFULLY,333.637022,2.439945,336.076967,332.639937,335.079882,137.330900,2,-1.000000,""
python3action_floatoperation_job166_21,w0,python3action_floatoperation,0.997085,1,2000.000000,1,COMPLETED_SUCCESSFULLY,335.742364,2.439945,338.182309,334.745279,337.185224,138.193764,24,-1.000000,""
80_updated,w0,python3action_facedetection_SampleVideo_50mb_taurus,0.997085,1,2000.000000,1,COMPLETED_SUCCESSFULLY,207.615377,134.600046,342.215423,206.618292,341.218338,2.535054,38,-1.000000,""
80,w0,python3action_facedetection_SampleVideo_50mb,0.000000,1,-1.000000,1,COMPLETED_SUCCESSFULLY,342.215438,0.000010,342.215448,342.215438,342.215448,34221544.834948,38,-1.000000,""
python3action_modeltraining_job130_34,w0,python3action_modeltraining_reduced_0.94,0.997085,1,2000.000000,1,COMPLETED_SUCCESSFULLY,342.215468,0.000000,342.215468,341.218383,341.218383,2958490528206.769531,38,-1.000000,""
191_updated,w0,python3action_linpack_5000_nova,0.997085,1,2000.000000,1,COMPLETED_SUCCESSFULLY,310.182284,34.600010,344.782294,309.185199,343.785209,9.935986,16,-1.000000,""
191,w0,python3action_linpack_5000,0.000000,1,-1.000000,1,COMPLETED_SUCCESSFULLY,344.782309,0.000010,344.782319,344.782309,344.782319,34478231.924108,16,-1.000000,""
python3action_modeltraining_job156_18,w0,python3action_modeltraining,0.997085,1,2000.000000,1,COMPLETED_SUCCESSFULLY,317.303706,30.499683,347.803389,316.306621,346.806304,11.370817,20,-1.000000,""
100_updated,w0,python3action_imageprocessing_SampleImage_40mb_taurus,0.997085,1,2000.000000,1,COMPLETED_SUCCESSFULLY,315.465337,32.600046,348.065383,314.468252,347.068298,10.646252,29,-1.000000,""
100,w0,python3action_imageprocessing_SampleImage_40mb,0.000000,1,-1.000000,1,COMPLETED_SUCCESSFULLY,348.065398,0.000010,348.065408,348.065398,348.065408,34806540.814283,29,-1.000000,""
python3action_facedetection_job143_26,w0,python3action_facedetection_reduced_2.74,0.997085,1,2000.000000,1,COMPLETED_SUCCESSFULLY,348.065428,0.000000,348.065428,347.068343,347.068343,3009211859422.669922,29,-1.000000,""
122_updated,w0,python3action_imageprocessing_SampleImage_40mb_taurus,0.997085,1,2000.000000,1,COMPLETED_SUCCESSFULLY,315.465472,32.600046,348.065518,314.468387,347.068433,10.646256,33,-1.000000,""
122,w0,python3action_imageprocessing_SampleImage_40mb,0.000000,1,-1.000000,1,COMPLETED_SUCCESSFULLY,348.065533,0.000010,348.065543,348.065533,348.065543,34806554.314484,33,-1.000000,""
88_updated,w0,python3action_pyaes_4000_nova,0.997085,1,2000.000000,1,COMPLETED_SUCCESSFULLY,211.377374,139.600010,350.977384,210.380289,349.980299,2.507022,6,-1.000000,""
88,w0,python3action_pyaes_4000,0.000000,1,-1.000000,1,COMPLETED_SUCCESSFULLY,350.977399,0.000010,350.977409,350.977399,350.977409,35097740.900201,6,-1.000000,""
python3action_chameleon_job155_30,w0,python3action_chameleon,0.997085,1,2000.000000,1,COMPLETED_SUCCESSFULLY,348.065563,5.040826,353.106389,347.068478,352.109304,69.851513,33,-1.000000,""
192_updated,w0,python3action_linpack_5000_nova,0.997085,1,2000.000000,1,COMPLETED_SUCCESSFULLY,319.243319,34.600010,353.843329,318.246234,352.846244,10.197865,17,-1.000000,""
192,w0,python3action_linpack_5000,0.000000,1,-1.000000,1,COMPLETED_SUCCESSFULLY,353.843344,0.000010,353.843354,353.843344,353.843354,35384335.400201,17,-1.000000,""
102_updated,w0,python3action_imageprocessing_SampleImage_60mb_troll,0.997085,1,2000.000000,1,COMPLETED_SUCCESSFULLY,294.269880,62.000000,356.269880,293.272795,355.272795,5.730206,46,-1.000000,""
102,w0,python3action_imageprocessing_SampleImage_60mb,0.000000,1,-1.000000,1,COMPLETED_SUCCESSFULLY,356.269895,0.000010,356.269905,356.269895,356.269905,35626990.501807,46,-1.000000,""
93_updated,w0,python3action_pyaes_4000_nova,0.997085,1,2000.000000,1,COMPLETED_SUCCESSFULLY,219.177384,139.600010,358.777394,218.180299,357.780309,2.562896,8,-1.000000,""
93,w0,python3action_pyaes_4000,0.000000,1,-1.000000,1,COMPLETED_SUCCESSFULLY,358.777409,0.000010,358.777419,358.777409,358.777419,35877741.900201,8,-1.000000,""
110_updated,w0,python3action_videoprocessing_SampleVideo_30mb_nova,0.997085,1,2000.000000,1,COMPLETED_SUCCESSFULLY,252.837342,106.799980,359.637322,251.840257,358.640237,3.358055,18,-1.000000,""
110,w0,python3action_videoprocessing_SampleVideo_30mb,0.000000,1,-1.000000,1,COMPLETED_SUCCESSFULLY,359.637337,0.000010,359.637347,359.637337,359.637347,35963734.747413,18,-1.000000,""
python3action_linpack_job151_16,w0,python3action_linpack_reduced_0.85,0.997085,1,2000.000000,1,COMPLETED_SUCCESSFULLY,359.637367,0.365992,360.003359,358.640282,359.006274,980.913452,18,-1.000000,""
145_updated,w0,python3action_imageprocessing_SampleImage_40mb_taurus,0.997085,1,2000.000000,1,COMPLETED_SUCCESSFULLY,328.415490,32.600046,361.015536,327.418405,360.018451,11.043495,30,-1.000000,""
145,w0,python3action_imageprocessing_SampleImage_40mb,0.000000,1,-1.000000,1,COMPLETED_SUCCESSFULLY,361.015551,0.000010,361.015561,361.015551,361.015561,36101556.142893,30,-1.000000,""
178_updated,w0,python3action_linpack_5000_nova,0.997085,1,2000.000000,1,COMPLETED_SUCCESSFULLY,327.043194,34.600010,361.643204,326.046109,360.646119,10.423295,7,-1.000000,""
178,w0,python3action_linpack_5000,0.000000,1,-1.000000,1,COMPLETED_SUCCESSFULLY,361.643219,0.000010,361.643229,361.643219,361.643229,36164322.904319,7,-1.000000,""
89_updated,w0,python3action_facedetection_SampleVideo_50mb_taurus,0.997085,1,2000.000000,1,COMPLETED_SUCCESSFULLY,227.265390,134.600046,361.865436,226.268305,360.868351,2.681042,40,-1.000000,""
89,w0,python3action_facedetection_SampleVideo_50mb,0.000000,1,-1.000000,1,COMPLETED_SUCCESSFULLY,361.865451,0.000010,361.865461,361.865451,361.865461,36186546.114284,40,-1.000000,""
python3action_image_processing_job138_36,w0,python3action_image_processing_reduced_1.73,0.997085,1,2000.000000,1,COMPLETED_SUCCESSFULLY,361.865481,0.000000,361.865481,360.868396,360.868396,22353746347062.359375,40,-1.000000,""
142_updated,w0,python3action_facedetection_SampleVideo_50mb_taurus,0.997085,1,2000.000000,1,COMPLETED_SUCCESSFULLY,230.456186,134.600046,365.056232,229.459101,364.059147,2.704748,41,-1.000000,""
142,w0,python3action_facedetection_SampleVideo_50mb,0.000000,1,-1.000000,1,COMPLETED_SUCCESSFULLY,365.056247,0.000010,365.056257,365.056247,365.056257,36505625.739628,41,-1.000000,""
python3action_video_processing_job171_37,w0,python3action_video_processing_reduced_1.89,0.997085,1,2000.000000,1,COMPLETED_SUCCESSFULLY,365.056277,0.000000,365.056277,364.059192,364.059192,3156528853567.216309,41,-1.000000,""
86_updated,w0,python3action_facedetection_SampleVideo_30mb_nova,0.997085,1,2000.000000,1,COMPLETED_SUCCESSFULLY,208.203079,160.399990,368.603069,207.205994,367.605984,2.291808,4,-1.000000,""
86,w0,python3action_facedetection_SampleVideo_30mb,0.000000,1,-1.000000,1,COMPLETED_SUCCESSFULLY,368.603084,0.000010,368.603094,368.603084,368.603094,36860309.423506,4,-1.000000,""
python3action_modeltraining_job128_3,w0,python3action_modeltraining_reduced_0.94,0.997085,1,2000.000000,1,COMPLETED_SUCCESSFULLY,368.603114,0.000000,368.603114,367.606029,367.606029,7528514152996.146484,4,-1.000000,""
106_updated,w0,python3action_floatoperation_200000000_nova,0.997085,1,2000.000000,1,COMPLETED_SUCCESSFULLY,236.742199,135.399990,372.142190,235.745114,371.145105,2.741101,14,-1.000000,""
106,w0,python3action_floatoperation_200000000,0.000000,1,-1.000000,1,COMPLETED_SUCCESSFULLY,372.142205,0.000010,372.142215,372.142205,372.142215,37214221.500201,14,-1.000000,""
152_updated,w0,python3action_imageprocessing_SampleImage_60mb_troll,0.997085,1,2000.000000,1,COMPLETED_SUCCESSFULLY,311.269914,62.000000,373.269914,310.272829,372.272829,6.004400,47,-1.000000,""
152,w0,python3action_imageprocessing_SampleImage_60mb,0.000000,1,-1.000000,1,COMPLETED_SUCCESSFULLY,373.269929,0.000010,373.269939,373.269929,373.269939,37326993.941300,47,-1.000000,""
123_updated,w0,python3action_linpack_6000_orion,0.997085,1,2000.000000,1,COMPLETED_SUCCESSFULLY,272.776093,106.000000,378.776093,271.779008,377.779008,3.563953,26,-1.000000,""
123,w0,python3action_linpack_6000,0.000000,1,-1.000000,1,COMPLETED_SUCCESSFULLY,378.776108,0.000010,378.776118,378.776108,378.776118,37877611.829452,26,-1.000000,""
131_updated,w0,python3action_linpack_6000_orion,0.997085,1,2000.000000,1,COMPLETED_SUCCESSFULLY,272.776153,106.000000,378.776153,271.779068,377.779068,3.563953,27,-1.000000,""
131,w0,python3action_linpack_6000,0.000000,1,-1.000000,1,COMPLETED_SUCCESSFULLY,378.776168,0.000010,378.776178,378.776168,378.776178,37877617.830256,27,-1.000000,""
118_updated,w0,python3action_pyaes_3000_nova,0.997085,1,2000.000000,1,COMPLETED_SUCCESSFULLY,300.837367,78.200020,379.037387,299.840282,378.040302,4.834274,25,-1.000000,""
118,w0,python3action_pyaes_3000,0.000000,1,-1.000000,1,COMPLETED_SUCCESSFULLY,379.037402,0.000010,379.037412,379.037402,379.037412,37903741.200201,25,-1.000000,""
157_updated,w0,python3action_videoprocessing_SampleVideo_30mb_nova,0.997085,1,2000.000000,1,COMPLETED_SUCCESSFULLY,272.582305,106.799980,379.382285,271.585220,378.385200,3.542933,21,-1.000000,""
157,w0,python3action_videoprocessing_SampleVideo_30mb,0.000000,1,-1.000000,1,COMPLETED_SUCCESSFULLY,379.382300,0.000010,379.382310,379.382300,379.382310,37938231.046610,21,-1.000000,""
python3action_video_processing_job132_5,w0,python3action_video_processing,0.997085,1,2000.000000,1,COMPLETED_SUCCESSFULLY,350.977429,30.499683,381.477112,349.980344,380.480027,12.474885,6,-1.000000,""
176_updated,w0,python3action_facedetection_SampleVideo_30mb_nova,0.997085,1,2000.000000,1,COMPLETED_SUCCESSFULLY,223.803238,160.399990,384.203228,222.806153,383.206143,2.389066,5,-1.000000,""
176,w0,python3action_facedetection_SampleVideo_30mb,0.000000,1,-1.000000,1,COMPLETED_SUCCESSFULLY,384.203243,0.000010,384.203253,384.203243,384.203253,38420325.347613,5,-1.000000,""
158_updated,w0,python3action_facedetection_SampleVideo_30mb_nova,0.997085,1,2000.000000,1,COMPLETED_SUCCESSFULLY,226.403444,160.399990,386.803434,225.406359,385.806349,2.405277,22,-1.000000,""
158,w0,python3action_facedetection_SampleVideo_30mb,0.000000,1,-1.000000,1,COMPLETED_SUCCESSFULLY,386.803449,0.000010,386.803459,386.803449,386.803459,38680345.924309,22,-1.000000,""
python3action_floatoperation_job199_20,w0,python3action_floatoperation,0.997085,1,2000.000000,1,COMPLETED_SUCCESSFULLY,386.803479,2.439945,389.243425,385.806394,388.246340,159.120920,22,-1.000000,""
138_updated,w0,python3action_imageprocessing_SampleImage_40mb_taurus,0.997085,1,2000.000000,1,COMPLETED_SUCCESSFULLY,361.865511,32.600046,394.465557,360.868426,393.468472,12.069568,40,-1.000000,""
138,w0,python3action_imageprocessing_SampleImage_40mb,0.000000,1,-1.000000,1,COMPLETED_SUCCESSFULLY,394.465572,0.000010,394.465582,394.465572,394.465582,39446558.228366,40,-1.000000,""
151_updated,w0,python3action_linpack_5000_nova,0.997085,1,2000.000000,1,COMPLETED_SUCCESSFULLY,360.003374,34.600010,394.603384,359.006289,393.606299,11.375901,18,-1.000000,""
151,w0,python3action_linpack_5000,0.000000,1,-1.000000,1,COMPLETED_SUCCESSFULLY,394.603399,0.000010,394.603409,394.603399,394.603409,39460340.904520,18,-1.000000,""
107_updated,w0,python3action_floatoperation_100000000_nova,0.997085,1,2000.000000,1,COMPLETED_SUCCESSFULLY,329.742214,66.200020,395.942234,328.745129,394.945149,5.965937,15,-1.000000,""
107,w0,python3action_floatoperation_100000000,0.000000,1,-1.000000,1,COMPLETED_SUCCESSFULLY,395.942249,0.000010,395.942259,395.942249,395.942259,39594225.900201,15,-1.000000,""
154_updated,w0,python3action_facedetection_SampleVideo_50mb_taurus,0.997085,1,2000.000000,1,COMPLETED_SUCCESSFULLY,263.056187,134.600046,397.656233,262.059102,396.659148,2.946947,32,-1.000000,""
154,w0,python3action_facedetection_SampleVideo_50mb,0.000000,1,-1.000000,1,COMPLETED_SUCCESSFULLY,397.656248,0.000010,397.656258,397.656248,397.656258,39765625.828366,32,-1.000000,""
83_updated,w0,python3action_floatoperation_100000000_nova,0.997085,1,2000.000000,1,COMPLETED_SUCCESSFULLY,336.076982,66.200020,402.277002,335.079897,401.279917,6.061628,2,-1.000000,""
83,w0,python3action_floatoperation_100000000,0.000000,1,-1.000000,1,COMPLETED_SUCCESSFULLY,402.277017,0.000010,402.277027,402.277017,402.277027,40227702.700201,2,-1.000000,""
166_updated,w0,python3action_floatoperation_100000000_nova,0.997085,1,2000.000000,1,COMPLETED_SUCCESSFULLY,338.182324,66.200020,404.382344,337.185239,403.385259,6.093431,24,-1.000000,""
166,w0,python3action_floatoperation_100000000,0.000000,1,-1.000000,1,COMPLETED_SUCCESSFULLY,404.382359,0.000010,404.382369,404.382359,404.382369,40438236.900201,24,-1.000000,""
189_updated,w0,python3action_facedetection_SampleVideo_50mb_taurus,0.997085,1,2000.000000,1,COMPLETED_SUCCESSFULLY,271.656293,134.600046,406.256339,270.659208,405.259254,3.010840,35,-1.000000,""
189,w0,python3action_facedetection_SampleVideo_50mb,0.000000,1,-1.000000,1,COMPLETED_SUCCESSFULLY,406.256354,0.000010,406.256364,406.256354,406.256364,40625636.435306,35,-1.000000,""
141_updated,w0,python3action_floatoperation_200000000_nova,0.997085,1,2000.000000,1,COMPLETED_SUCCESSFULLY,273.142239,135.399990,408.542229,272.145154,407.545144,3.009935,11,-1.000000,""
141,w0,python3action_floatoperation_200000000,0.000000,1,-1.000000,1,COMPLETED_SUCCESSFULLY,408.542244,0.000010,408.542254,408.542244,408.542254,40854225.424711,11,-1.000000,""
python3action_pyaes_job184_10,w0,python3action_pyaes,0.997085,1,2000.000000,1,COMPLETED_SUCCESSFULLY,408.542274,2.134958,410.677232,407.545189,409.680147,191.891410,11,-1.000000,""
197_updated,w0,python3action_linpack_5000_nova,0.997085,1,2000.000000,1,COMPLETED_SUCCESSFULLY,379.382330,34.600010,413.982340,378.385245,412.985255,11.935987,21,-1.000000,""
197,w0,python3action_linpack_5000,0.000000,1,-1.000000,1,COMPLETED_SUCCESSFULLY,413.982355,0.000010,413.982365,413.982355,413.982365,41398236.524109,21,-1.000000,""
146_updated,w0,python3action_modeltraining_reviews50mb_nova,0.997085,1,2000.000000,1,COMPLETED_SUCCESSFULLY,372.142235,42.399990,414.542225,371.145150,413.545140,9.753425,14,-1.000000,""
146,w0,python3action_modeltraining_reviews50mb,0.000000,1,-1.000000,1,COMPLETED_SUCCESSFULLY,414.542240,0.000010,414.542250,414.542240,414.542250,41454225.023907,14,-1.000000,""
161_updated,w0,python3action_modeltraining_reviews100mb_taurus,0.997085,1,2000.000000,1,COMPLETED_SUCCESSFULLY,329.106299,88.199977,417.306276,328.109214,416.309191,4.720060,36,-1.000000,""
161,w0,python3action_modeltraining_reviews100mb,0.000000,1,-1.000000,1,COMPLETED_SUCCESSFULLY,417.306291,0.000010,417.306301,417.306291,417.306301,41730630.100201,36,-1.000000,""
155_updated,w0,python3action_chameleon_2000_taurus,0.997085,1,2000.000000,1,COMPLETED_SUCCESSFULLY,353.106404,64.199977,417.306381,352.109319,416.309296,6.484571,33,-1.000000,""
155,w0,python3action_chameleon_2000,0.000000,1,-1.000000,1,COMPLETED_SUCCESSFULLY,417.306396,0.000010,417.306406,417.306396,417.306406,41730640.600201,33,-1.000000,""
97_updated,w0,python3action_chameleon_3000_troll,0.997085,1,2000.000000,1,COMPLETED_SUCCESSFULLY,326.269820,94.000000,420.269820,325.272735,419.272735,4.460348,44,-1.000000,""
97,w0,python3action_chameleon_3000,0.000000,1,-1.000000,1,COMPLETED_SUCCESSFULLY,420.269835,0.000010,420.269845,420.269835,420.269845,42026984.502210,44,-1.000000,""
117_updated,w0,python3action_chameleon_3000_troll,0.997085,1,2000.000000,1,COMPLETED_SUCCESSFULLY,326.269910,94.000000,420.269910,325.272825,419.272825,4.460349,48,-1.000000,""
117,w0,python3action_chameleon_3000,0.000000,1,-1.000000,1,COMPLETED_SUCCESSFULLY,420.269925,0.000010,420.269935,420.269925,420.269935,42026993.502210,48,-1.000000,""
164_updated,w0,python3action_videoprocessing_SampleVideo_50mb_taurus,0.997085,1,2000.000000,1,COMPLETED_SUCCESSFULLY,272.815574,154.250029,427.065603,271.818489,426.068518,2.762194,37,-1.000000,""
164,w0,python3action_videoprocessing_SampleVideo_50mb,0.000000,1,-1.000000,1,COMPLETED_SUCCESSFULLY,427.065618,0.000010,427.065628,427.065618,427.065628,42706562.832606,37,-1.000000,""
156_updated,w0,python3action_modeltraining_reviews100mb_nova,0.997085,1,2000.000000,1,COMPLETED_SUCCESSFULLY,347.803404,79.600010,427.403414,346.806319,426.406329,5.356863,20,-1.000000,""
156,w0,python3action_modeltraining_reviews100mb,0.000000,1,-1.000000,1,COMPLETED_SUCCESSFULLY,427.403429,0.000010,427.403439,427.403429,427.403439,42740343.900201,20,-1.000000,""
130_updated,w0,python3action_modeltraining_reviews100mb_taurus,0.997085,1,2000.000000,1,COMPLETED_SUCCESSFULLY,342.215498,88.199977,430.415475,341.218413,429.418390,4.868691,38,-1.000000,""
130,w0,python3action_modeltraining_reviews100mb,0.000000,1,-1.000000,1,COMPLETED_SUCCESSFULLY,430.415490,0.000010,430.415500,430.415490,430.415500,43041550.029413,38,-1.000000,""
182_updated,w0,python3action_linpack_6000_orion,0.997085,1,2000.000000,1,COMPLETED_SUCCESSFULLY,324.763698,106.000000,430.763698,323.766613,429.766613,4.054402,28,-1.000000,""
182,w0,python3action_linpack_6000,0.000000,1,-1.000000,1,COMPLETED_SUCCESSFULLY,430.763713,0.000010,430.763723,430.763713,430.763723,43076372.302210,28,-1.000000,""
144_updated,w0,python3action_facedetection_SampleVideo_30mb_nova,0.997085,1,2000.000000,1,COMPLETED_SUCCESSFULLY,272.582230,160.399990,432.982220,271.585145,431.985135,2.693174,13,-1.000000,""
144,w0,python3action_facedetection_SampleVideo_30mb,0.000000,1,-1.000000,1,COMPLETED_SUCCESSFULLY,432.982235,0.000010,432.982245,432.982235,432.982245,43298224.523506,13,-1.000000,""
python3action_modeltraining_job186_11,w0,python3action_modeltraining_reduced_0.94,0.997085,1,2000.000000,1,COMPLETED_SUCCESSFULLY,432.982265,0.000000,432.982265,431.985180,431.985180,8846989125957.304688,13,-1.000000,""
python3action_chameleon_job165_34,w0,python3action_chameleon,0.997085,1,2000.000000,1,COMPLETED_SUCCESSFULLY,430.415520,5.040826,435.456346,429.418435,434.459261,86.188113,38,-1.000000,""
128_updated,w0,python3action_modeltraining_reviews100mb_nova,0.997085,1,2000.000000,1,COMPLETED_SUCCESSFULLY,368.603144,79.600010,448.203154,367.606059,447.206069,5.618166,4,-1.000000,""
128,w0,python3action_modeltraining_reviews100mb,0.000000,1,-1.000000,1,COMPLETED_SUCCESSFULLY,448.203169,0.000010,448.203179,448.203169,448.203179,44820317.901407,4,-1.000000,""
188_updated,w0,python3action_imageprocessing_SampleImage_40mb_taurus,0.997085,1,2000.000000,1,COMPLETED_SUCCESSFULLY,417.306426,32.600046,449.906472,416.309341,448.909387,13.770207,33,-1.000000,""
188,w0,python3action_imageprocessing_SampleImage_40mb,0.000000,1,-1.000000,1,COMPLETED_SUCCESSFULLY,449.906487,0.000010,449.906497,449.906487,449.906497,44990649.713881,33,-1.000000,""
140_updated,w0,python3action_chameleon_3000_troll,0.997085,1,2000.000000,1,COMPLETED_SUCCESSFULLY,356.269925,94.000000,450.269925,355.272840,449.272840,4.779498,46,-1.000000,""
140,w0,python3action_chameleon_3000,0.000000,1,-1.000000,1,COMPLETED_SUCCESSFULLY,450.269940,0.000010,450.269950,450.269940,450.269950,45026995.002411,46,-1.000000,""
python3action_floatoperation_job174_3,w0,python3action_floatoperation,0.997085,1,2000.000000,1,COMPLETED_SUCCESSFULLY,448.203199,2.439945,450.643144,447.206114,449.646059,184.285304,4,-1.000000,""
187_updated,w0,python3action_modeltraining_reviews50mb_nova,0.997085,1,2000.000000,1,COMPLETED_SUCCESSFULLY,414.542270,42.399990,456.942260,413.545185,455.945175,10.753426,14,-1.000000,""
187,w0,python3action_modeltraining_reviews50mb,0.000000,1,-1.000000,1,COMPLETED_SUCCESSFULLY,456.942275,0.000010,456.942285,456.942275,456.942285,45694228.547613,14,-1.000000,""
98_updated,w0,python3action_facedetection_SampleVideo_30mb_nova,0.997085,1,2000.000000,1,COMPLETED_SUCCESSFULLY,298.702154,160.399990,459.102144,297.705069,458.105059,2.856017,9,-1.000000,""
98,w0,python3action_facedetection_SampleVideo_30mb,0.000000,1,-1.000000,1,COMPLETED_SUCCESSFULLY,459.102159,0.000010,459.102169,459.102159,459.102169,45910216.948015,9,-1.000000,""
python3action_pyaes_job137_8,w0,python3action_pyaes,0.997085,1,2000.000000,1,COMPLETED_SUCCESSFULLY,459.102189,2.134958,461.237148,458.105104,460.240063,215.573333,9,-1.000000,""
185_updated,w0,python3action_chameleon_2000_taurus,0.997085,1,2000.000000,1,COMPLETED_SUCCESSFULLY,397.656278,64.199977,461.856255,396.659193,460.859170,7.178494,32,-1.000000,""
185,w0,python3action_chameleon_2000,0.000000,1,-1.000000,1,COMPLETED_SUCCESSFULLY,461.856270,0.000010,461.856280,461.856270,461.856280,46185628.022430,32,-1.000000,""
111_updated,w0,python3action_facedetection_SampleVideo_30mb_nova,0.997085,1,2000.000000,1,COMPLETED_SUCCESSFULLY,304.742229,160.399990,465.142219,303.745144,464.145134,2.893673,19,-1.000000,""
111,w0,python3action_facedetection_SampleVideo_30mb,0.000000,1,-1.000000,1,COMPLETED_SUCCESSFULLY,465.142234,0.000010,465.142244,465.142234,465.142244,46514224.423856,19,-1.000000,""
python3action_pyaes_job153_17,w0,python3action_pyaes,0.997085,1,2000.000000,1,COMPLETED_SUCCESSFULLY,465.142264,2.134958,467.277222,464.145179,466.280137,218.402463,19,-1.000000,""
113_updated,w0,python3action_videoprocessing_SampleVideo_50mb_taurus,0.997085,1,2000.000000,1,COMPLETED_SUCCESSFULLY,315.465412,154.250029,469.715441,314.468327,468.718356,3.038692,31,-1.000000,""
113,w0,python3action_videoprocessing_SampleVideo_50mb,0.000000,1,-1.000000,1,COMPLETED_SUCCESSFULLY,469.715456,0.000010,469.715466,469.715456,469.715466,46971546.600201,31,-1.000000,""
195_updated,w0,python3action_modeltraining_reviews50mb_nova,0.997085,1,2000.000000,1,COMPLETED_SUCCESSFULLY,427.403459,42.399990,469.803449,426.406374,468.806364,11.056756,20,-1.000000,""
195,w0,python3action_modeltraining_reviews50mb,0.000000,1,-1.000000,1,COMPLETED_SUCCESSFULLY,469.803464,0.000010,469.803474,469.803464,469.803474,46980347.423907,20,-1.000000,""
99_updated,w0,python3action_facedetection_SampleVideo_30mb_nova,0.997085,1,2000.000000,1,COMPLETED_SUCCESSFULLY,311.077117,160.399990,471.477107,310.080032,470.480022,2.933167,10,-1.000000,""
99,w0,python3action_facedetection_SampleVideo_30mb,0.000000,1,-1.000000,1,COMPLETED_SUCCESSFULLY,471.477122,0.000010,471.477132,471.477122,471.477132,47147713.223506,10,-1.000000,""
python3action_video_processing_job139_9,w0,python3action_video_processing_reduced_0.91,0.997085,1,2000.000000,1,COMPLETED_SUCCESSFULLY,471.477152,0.000000,471.477152,470.480067,470.480067,9635358408684.613281,10,-1.000000,""
193_updated,w0,python3action_pyaes_3000_nova,0.997085,1,2000.000000,1,COMPLETED_SUCCESSFULLY,394.603429,78.200020,472.803449,393.606344,471.806364,6.033328,18,-1.000000,""
193,w0,python3action_pyaes_3000,0.000000,1,-1.000000,1,COMPLETED_SUCCESSFULLY,472.803464,0.000010,472.803474,472.803464,472.803474,47280347.400201,18,-1.000000,""
python3action_chameleon_job149_28,w0,python3action_chameleon,0.997085,1,2000.000000,1,COMPLETED_SUCCESSFULLY,469.715486,5.040826,474.756312,468.718401,473.759227,93.984448,31,-1.000000,""
196_updated,w0,python3action_chameleon_2000_taurus,0.997085,1,2000.000000,1,COMPLETED_SUCCESSFULLY,417.306321,64.199977,481.506298,416.309236,480.509213,7.484570,36,-1.000000,""
196,w0,python3action_chameleon_2000,0.000000,1,-1.000000,1,COMPLETED_SUCCESSFULLY,481.506313,0.000010,481.506323,481.506313,481.506323,48150632.300201,36,-1.000000,""
163_updated,w0,python3action_imageprocessing_SampleImage_60mb_troll,0.997085,1,2000.000000,1,COMPLETED_SUCCESSFULLY,420.269955,62.000000,482.269955,419.272870,481.272870,7.762466,48,-1.000000,""
163,w0,python3action_imageprocessing_SampleImage_60mb,0.000000,1,-1.000000,1,COMPLETED_SUCCESSFULLY,482.269970,0.000010,482.269980,482.269970,482.269980,48226998.002812,48,-1.000000,""
143_updated,w0,python3action_facedetection_SampleVideo_50mb_taurus,0.997085,1,2000.000000,1,COMPLETED_SUCCESSFULLY,348.065458,134.600046,482.665504,347.068373,481.668419,3.578516,29,-1.000000,""
143,w0,python3action_facedetection_SampleVideo_50mb,0.000000,1,-1.000000,1,COMPLETED_SUCCESSFULLY,482.665519,0.000010,482.665529,482.665519,482.665529,48266552.928366,29,-1.000000,""
160_updated,w0,python3action_linpack_6000_orion,0.997085,1,2000.000000,1,COMPLETED_SUCCESSFULLY,378.776138,106.000000,484.776138,377.779053,483.779053,4.563953,26,-1.000000,""
160,w0,python3action_linpack_6000,0.000000,1,-1.000000,1,COMPLETED_SUCCESSFULLY,484.776153,0.000010,484.776163,484.776153,484.776163,48477616.330055,26,-1.000000,""
162_updated,w0,python3action_linpack_6000_orion,0.997085,1,2000.000000,1,COMPLETED_SUCCESSFULLY,378.776198,106.000000,484.776198,377.779113,483.779113,4.563954,27,-1.000000,""
162,w0,python3action_linpack_6000,0.000000,1,-1.000000,1,COMPLETED_SUCCESSFULLY,484.776213,0.000010,484.776223,484.776213,484.776223,48477622.330859,27,-1.000000,""
132_updated,w0,python3action_videoprocessing_SampleVideo_30mb_nova,0.997085,1,2000.000000,1,COMPLETED_SUCCESSFULLY,381.477127,106.799980,488.277107,380.480042,487.280022,4.562548,6,-1.000000,""
132,w0,python3action_videoprocessing_SampleVideo_30mb,0.000000,1,-1.000000,1,COMPLETED_SUCCESSFULLY,488.277122,0.000010,488.277132,488.277122,488.277132,48827713.246609,6,-1.000000,""
184_updated,w0,python3action_pyaes_3000_nova,0.997085,1,2000.000000,1,COMPLETED_SUCCESSFULLY,410.677247,78.200020,488.877267,409.680162,487.880182,6.238875,11,-1.000000,""
184,w0,python3action_pyaes_3000,0.000000,1,-1.000000,1,COMPLETED_SUCCESSFULLY,488.877282,0.000010,488.877292,488.877282,488.877292,48887729.203075,11,-1.000000,""
175_updated,w0,python3action_facedetection_SampleVideo_50mb_taurus,0.997085,1,2000.000000,1,COMPLETED_SUCCESSFULLY,361.015581,134.600046,495.615628,360.018496,494.618543,3.674728,30,-1.000000,""
175,w0,python3action_facedetection_SampleVideo_50mb,0.000000,1,-1.000000,1,COMPLETED_SUCCESSFULLY,495.615643,0.000010,495.615653,495.615643,495.615653,49561565.300201,30,-1.000000,""
135_updated,w0,python3action_pyaes_4000_nova,0.997085,1,2000.000000,1,COMPLETED_SUCCESSFULLY,358.777439,139.600010,498.377449,357.780354,497.380364,3.562896,8,-1.000000,""
135,w0,python3action_pyaes_4000,0.000000,1,-1.000000,1,COMPLETED_SUCCESSFULLY,498.377464,0.000010,498.377474,498.377464,498.377474,49837747.400201,8,-1.000000,""
python3action_linpack_job179_7,w0,python3action_linpack_reduced_0.85,0.997085,1,2000.000000,1,COMPLETED_SUCCESSFULLY,498.377494,0.365992,498.743486,497.380409,497.746401,1359.993336,8,-1.000000,""
165_updated,w0,python3action_chameleon_2000_taurus,0.997085,1,2000.000000,1,COMPLETED_SUCCESSFULLY,435.456361,64.199977,499.656338,434.459276,498.659253,7.767281,38,-1.000000,""
165,w0,python3action_chameleon_2000,0.000000,1,-1.000000,1,COMPLETED_SUCCESSFULLY,499.656353,0.000010,499.656363,499.656353,499.656363,49965636.300201,38,-1.000000,""
186_updated,w0,python3action_modeltraining_reviews100mb_nova,0.997085,1,2000.000000,1,COMPLETED_SUCCESSFULLY,432.982295,79.600010,512.582305,431.985210,511.585220,6.426949,13,-1.000000,""
186,w0,python3action_modeltraining_reviews100mb,0.000000,1,-1.000000,1,COMPLETED_SUCCESSFULLY,512.582320,0.000010,512.582330,512.582320,512.582330,51258233.001407,13,-1.000000,""
119_updated,w0,python3action_chameleon_3000_troll,0.997085,1,2000.000000,1,COMPLETED_SUCCESSFULLY,420.269865,94.000000,514.269865,419.272780,513.272780,5.460349,44,-1.000000,""
119,w0,python3action_chameleon_3000,0.000000,1,-1.000000,1,COMPLETED_SUCCESSFULLY,514.269880,0.000010,514.269890,514.269880,514.269890,51426989.002812,44,-1.000000,""
174_updated,w0,python3action_floatoperation_100000000_nova,0.997085,1,2000.000000,1,COMPLETED_SUCCESSFULLY,450.643159,66.200020,516.843179,449.646074,515.846094,7.792235,4,-1.000000,""
174,w0,python3action_floatoperation_100000000,0.000000,1,-1.000000,1,COMPLETED_SUCCESSFULLY,516.843194,0.000010,516.843204,516.843194,516.843204,51684320.400201,4,-1.000000,""
171_updated,w0,python3action_videoprocessing_SampleVideo_50mb_taurus,0.997085,1,2000.000000,1,COMPLETED_SUCCESSFULLY,365.056307,154.250029,519.306336,364.059222,518.309251,3.360189,41,-1.000000,""
171,w0,python3action_videoprocessing_SampleVideo_50mb,0.000000,1,-1.000000,1,COMPLETED_SUCCESSFULLY,519.306351,0.000010,519.306361,519.306351,519.306361,51930636.123807,41,-1.000000,""
199_updated,w0,python3action_floatoperation_200000000_nova,0.997085,1,2000.000000,1,COMPLETED_SUCCESSFULLY,389.243440,135.399990,524.643430,388.246355,523.646345,3.867403,22,-1.000000,""
199,w0,python3action_floatoperation_200000000,0.000000,1,-1.000000,1,COMPLETED_SUCCESSFULLY,524.643445,0.000010,524.643455,524.643445,524.643455,52464345.523506,22,-1.000000,""
168_updated,w0,python3action_facedetection_SampleVideo_50mb_taurus,0.997085,1,2000.000000,1,COMPLETED_SUCCESSFULLY,394.465602,134.600046,529.065648,393.468517,528.068563,3.923242,40,-1.000000,""
168,w0,python3action_facedetection_SampleVideo_50mb,0.000000,1,-1.000000,1,COMPLETED_SUCCESSFULLY,529.065663,0.000010,529.065673,529.065663,529.065673,52906567.342047,40,-1.000000,""
147_updated,w0,python3action_floatoperation_200000000_nova,0.997085,1,2000.000000,1,COMPLETED_SUCCESSFULLY,395.942279,135.399990,531.342269,394.945194,530.345184,3.916878,15,-1.000000,""
147,w0,python3action_floatoperation_200000000,0.000000,1,-1.000000,1,COMPLETED_SUCCESSFULLY,531.342284,0.000010,531.342294,531.342284,531.342294,53134229.423907,15,-1.000000,""
179_updated,w0,python3action_linpack_5000_nova,0.997085,1,2000.000000,1,COMPLETED_SUCCESSFULLY,498.743501,34.600010,533.343511,497.746416,532.346426,15.385731,8,-1.000000,""
179,w0,python3action_linpack_5000,0.000000,1,-1.000000,1,COMPLETED_SUCCESSFULLY,533.343526,0.000010,533.343536,533.343526,533.343536,53334353.600201,8,-1.000000,""
149_updated,w0,python3action_chameleon_2000_taurus,0.997085,1,2000.000000,1,COMPLETED_SUCCESSFULLY,474.756327,64.199977,538.956304,473.759242,537.959219,8.379430,31,-1.000000,""
149,w0,python3action_chameleon_2000,0.000000,1,-1.000000,1,COMPLETED_SUCCESSFULLY,538.956319,0.000010,538.956329,538.956319,538.956329,53895632.900201,31,-1.000000,""
169_updated,w0,python3action_facedetection_SampleVideo_30mb_nova,0.997085,1,2000.000000,1,COMPLETED_SUCCESSFULLY,379.037432,160.399990,539.437422,378.040347,538.440337,3.356860,25,-1.000000,""
169,w0,python3action_facedetection_SampleVideo_30mb,0.000000,1,-1.000000,1,COMPLETED_SUCCESSFULLY,539.437437,0.000010,539.437447,539.437437,539.437447,53943744.723907,25,-1.000000,""
120_updated,w0,python3action_facedetection_SampleVideo_30mb_nova,0.997085,1,2000.000000,1,COMPLETED_SUCCESSFULLY,402.277047,160.399990,562.677037,401.279962,561.679952,3.501746,2,-1.000000,""
120,w0,python3action_facedetection_SampleVideo_30mb,0.000000,1,-1.000000,1,COMPLETED_SUCCESSFULLY,562.677052,0.000010,562.677062,562.677052,562.677062,56267706.223907,2,-1.000000,""
python3action_linpack_job170_1,w0,python3action_linpack_reduced_0.85,0.997085,1,2000.000000,1,COMPLETED_SUCCESSFULLY,562.677082,0.365992,563.043074,561.679997,562.045989,1535.679210,2,-1.000000,""
198_updated,w0,python3action_imageprocessing_SampleImage_60mb_troll,0.997085,1,2000.000000,1,COMPLETED_SUCCESSFULLY,514.269910,62.000000,576.269910,513.272825,575.272825,9.278594,44,-1.000000,""
198,w0,python3action_imageprocessing_SampleImage_60mb,0.000000,1,-1.000000,1,COMPLETED_SUCCESSFULLY,576.269925,0.000010,576.269935,576.269925,576.269935,57626993.503415,44,-1.000000,""
139_updated,w0,python3action_videoprocessing_SampleVideo_30mb_nova,0.997085,1,2000.000000,1,COMPLETED_SUCCESSFULLY,471.477182,106.799980,578.277163,470.480097,577.280078,5.405245,10,-1.000000,""
139,w0,python3action_videoprocessing_SampleVideo_30mb,0.000000,1,-1.000000,1,COMPLETED_SUCCESSFULLY,578.277178,0.000010,578.277188,578.277178,578.277188,57827718.800201,10,-1.000000,""
python3action_modeltraining_job183_9,w0,python3action_modeltraining_reduced_1.94,0.997085,1,2000.000000,1,COMPLETED_SUCCESSFULLY,578.277208,0.000000,578.277208,577.280123,577.280123,11808859678681.613281,10,-1.000000,""
170_updated,w0,python3action_linpack_5000_nova,0.997085,1,2000.000000,1,COMPLETED_SUCCESSFULLY,563.043089,34.600010,597.643099,562.046004,596.646014,17.244100,2,-1.000000,""
170,w0,python3action_linpack_5000,0.000000,1,-1.000000,1,COMPLETED_SUCCESSFULLY,597.643114,0.000010,597.643124,597.643114,597.643124,59764312.400201,2,-1.000000,""
137_updated,w0,python3action_pyaes_4000_nova,0.997085,1,2000.000000,1,COMPLETED_SUCCESSFULLY,461.237163,139.600010,600.837173,460.240078,599.840088,4.296848,9,-1.000000,""
137,w0,python3action_pyaes_4000,0.000000,1,-1.000000,1,COMPLETED_SUCCESSFULLY,600.837188,0.000010,600.837198,600.837188,600.837198,60083719.800201,9,-1.000000,""
153_updated,w0,python3action_pyaes_4000_nova,0.997085,1,2000.000000,1,COMPLETED_SUCCESSFULLY,467.277237,139.600010,606.877247,466.280152,605.880162,4.340115,19,-1.000000,""
153,w0,python3action_pyaes_4000,0.000000,1,-1.000000,1,COMPLETED_SUCCESSFULLY,606.877262,0.000010,606.877272,606.877262,606.877272,60687727.225324,19,-1.000000,""
python3action_linpack_job194_17,w0,python3action_linpack_reduced_0.85,0.997085,1,2000.000000,1,COMPLETED_SUCCESSFULLY,606.877292,0.365992,607.243284,605.880207,606.246199,1656.447518,19,-1.000000,""
183_updated,w0,python3action_modeltraining_reviews50mb_nova,0.997085,1,2000.000000,1,COMPLETED_SUCCESSFULLY,578.277238,42.399990,620.677228,577.280153,619.680143,14.615101,10,-1.000000,""
183,w0,python3action_modeltraining_reviews50mb,0.000000,1,-1.000000,1,COMPLETED_SUCCESSFULLY,620.677243,0.000010,620.677253,620.677243,620.677253,62067725.324308,10,-1.000000,""
177_updated,w0,python3action_floatoperation_200000000_nova,0.997085,1,2000.000000,1,COMPLETED_SUCCESSFULLY,488.277152,135.399990,623.677143,487.280067,622.680058,4.598819,6,-1.000000,""
177,w0,python3action_floatoperation_200000000,0.000000,1,-1.000000,1,COMPLETED_SUCCESSFULLY,623.677158,0.000010,623.677168,623.677158,623.677168,62367716.800201,6,-1.000000,""
181_updated,w0,python3action_modeltraining_reviews100mb_taurus,0.997085,1,2000.000000,1,COMPLETED_SUCCESSFULLY,538.956349,88.199977,627.156326,537.959264,626.159241,7.099313,31,-1.000000,""
181,w0,python3action_modeltraining_reviews100mb,0.000000,1,-1.000000,1,COMPLETED_SUCCESSFULLY,627.156341,0.000010,627.156351,627.156341,627.156351,62715635.100201,31,-1.000000,""
172_updated,w0,python3action_videoprocessing_SampleVideo_50mb_taurus,0.997085,1,2000.000000,1,COMPLETED_SUCCESSFULLY,482.665549,154.250029,636.915578,481.668464,635.918493,4.122647,29,-1.000000,""
172,w0,python3action_videoprocessing_SampleVideo_50mb,0.000000,1,-1.000000,1,COMPLETED_SUCCESSFULLY,636.915593,0.000010,636.915603,636.915593,636.915603,63691560.312142,29,-1.000000,""
194_updated,w0,python3action_linpack_5000_nova,0.997085,1,2000.000000,1,COMPLETED_SUCCESSFULLY,607.243299,34.600010,641.843309,606.246214,640.846224,18.521562,19,-1.000000,""
194,w0,python3action_linpack_5000,0.000000,1,-1.000000,1,COMPLETED_SUCCESSFULLY,641.843324,0.000010,641.843334,641.843324,641.843334,64184333.400201,19,-1.000000,""
190_updated,w0,python3action_floatoperation_200000000_nova,0.997085,1,2000.000000,1,COMPLETED_SUCCESSFULLY,531.342314,135.399990,666.742304,530.345229,665.745219,4.916878,15,-1.000000,""
190,w0,python3action_floatoperation_200000000,0.000000,1,-1.000000,1,COMPLETED_SUCCESSFULLY,666.742319,0.000010,666.742329,666.742319,666.742329,66674232.947613,15,-1.000000,""
180_updated,w0,python3action_pyaes_4000_nova,0.997085,1,2000.000000,1,COMPLETED_SUCCESSFULLY,600.837218,139.600010,740.437228,599.840133,739.440143,5.296849,9,-1.000000,""
180,w0,python3action_pyaes_4000,0.000000,1,-1.000000,1,COMPLETED_SUCCESSFULLY,740.437243,0.000010,740.437253,740.437243,740.437253,74043725.300201,9,-1.000000,""
