job_id,workload_name,profile,submission_time,requested_number_of_resources,requested_time,success,final_state,starting_time,execution_time,finish_time,waiting_time,turnaround_time,stretch,allocated_resources,consumed_energy,metadata
python3action_chameleon_job3_38,w0,python3action_chameleon,0.997085,1,2000.000000,1,COMPLETED_SUCCESSFULLY,1.002670,0.867914,1.870584,0.005585,0.873499,1.006435,46,-1.000000,""
python3action_chameleon_job16_41,w0,python3action_chameleon,0.997085,1,2000.000000,1,COMPLETED_SUCCESSFULLY,1.002715,0.892694,1.895410,0.005630,0.898325,1.006307,49,-1.000000,""
python3action_chameleon_job139_42,w0,python3action_chameleon,0.997085,1,2000.000000,1,COMPLETED_SUCCESSFULLY,1.002730,0.892694,1.895425,0.005645,0.898340,1.006324,50,-1.000000,""
python3action_chameleon_job168_43,w0,python3action_chameleon,0.997085,1,2000.000000,1,COMPLETED_SUCCESSFULLY,1.002745,0.892694,1.895440,0.005660,0.898355,1.006340,51,-1.000000,""
python3action_chameleon_job186_44,w0,python3action_chameleon,0.997085,1,2000.000000,1,COMPLETED_SUCCESSFULLY,1.002760,0.892694,1.895455,0.005675,0.898370,1.006357,52,-1.000000,""
python3action_pyaes_job24_5,w0,python3action_pyaes,0.997085,1,2000.000000,1,COMPLETED_SUCCESSFULLY,1.002175,2.134958,3.137133,0.005090,2.140048,1.002384,7,-1.000000,""
python3action_pyaes_job48_20,w0,python3action_pyaes,0.997085,1,2000.000000,1,COMPLETED_SUCCESSFULLY,1.002400,2.134958,3.137358,0.005315,2.140273,1.002490,24,-1.000000,""
python3action_pyaes_job50_21,w0,python3action_pyaes,0.997085,1,2000.000000,1,COMPLETED_SUCCESSFULLY,1.002415,2.134958,3.137373,0.005330,2.140288,1.002497,25,-1.000000,""
python3action_floatoperation_job10_1,w0,python3action_floatoperation,0.997085,1,2000.000000,1,COMPLETED_SUCCESSFULLY,1.002115,2.439945,3.442060,0.005030,2.444975,1.002062,3,-1.000000,""
python3action_linpack_job12_2,w0,python3action_linpack,0.997085,1,2000.000000,1,COMPLETED_SUCCESSFULLY,1.002130,2.439945,3.442075,0.005045,2.444990,1.002068,4,-1.000000,""
python3action_linpack_job29_8,w0,python3action_linpack,0.997085,1,2000.000000,1,COMPLETED_SUCCESSFULLY,1.002220,2.439945,3.442165,0.005135,2.445080,1.002105,10,-1.000000,""
python3action_floatoperation_job34_12,w0,python3action_floatoperation,0.997085,1,2000.000000,1,COMPLETED_SUCCESSFULLY,1.002280,2.439945,3.442225,0.005195,2.445140,1.002129,15,-1.000000,""
python3action_linpack_job37_14,w0,python3action_linpack,0.997085,1,2000.000000,1,COMPLETED_SUCCESSFULLY,1.002310,2.439945,3.442255,0.005225,2.445170,1.002141,17,-1.000000,""
python3action_linpack_job39_16,w0,python3action_linpack,0.997085,1,2000.000000,1,COMPLETED_SUCCESSFULLY,1.002340,2.439945,3.442285,0.005255,2.445200,1.002154,19,-1.000000,""
python3action_floatoperation_job42_18,w0,python3action_floatoperation,0.997085,1,2000.000000,1,COMPLETED_SUCCESSFULLY,1.002370,2.439945,3.442315,0.005285,2.445230,1.002166,21,-1.000000,""
python3action_floatoperation_job47_19,w0,python3action_floatoperation,0.997085,1,2000.000000,1,COMPLETED_SUCCESSFULLY,1.002385,2.439945,3.442330,0.005300,2.445245,1.002172,22,-1.000000,""
python3action_chameleon_job8_29,w0,python3action_chameleon,0.997085,1,2000.000000,1,COMPLETED_SUCCESSFULLY,1.002535,5.040826,6.043361,0.005450,5.046276,1.001081,33,-1.000000,""
python3action_linpack_job6_22,w0,python3action_linpack,0.997085,1,2000.000000,1,COMPLETED_SUCCESSFULLY,1.002430,5.760927,6.763357,0.005345,5.766272,1.000928,26,-1.000000,""
python3action_linpack_job9_23,w0,python3action_linpack,0.997085,1,2000.000000,1,COMPLETED_SUCCESSFULLY,1.002445,5.760927,6.763372,0.005360,5.766287,1.000930,27,-1.000000,""
python3action_linpack_job17_24,w0,python3action_linpack,0.997085,1,2000.000000,1,COMPLETED_SUCCESSFULLY,1.002460,5.760927,6.763387,0.005375,5.766302,1.000933,28,-1.000000,""
python3action_image_processing_job2_37,w0,python3action_image_processing,0.997085,1,2000.000000,1,COMPLETED_SUCCESSFULLY,1.002655,12.398880,13.401535,0.005570,12.404450,1.000449,44,-1.000000,""
python3action_image_processing_job11_39,w0,python3action_image_processing,0.997085,1,2000.000000,1,COMPLETED_SUCCESSFULLY,1.002685,12.398880,13.401565,0.005600,12.404480,1.000452,47,-1.000000,""
python3action_image_processing_job13_40,w0,python3action_image_processing,0.997085,1,2000.000000,1,COMPLETED_SUCCESSFULLY,1.002700,12.398880,13.401580,0.005615,12.404495,1.000453,48,-1.000000,""
python3action_facedetection_job1_0,w0,python3action_facedetection,0.997085,1,2000.000000,1,COMPLETED_SUCCESSFULLY,1.002100,30.499683,31.501783,0.005015,30.504698,1.000164,2,-1.000000,""
python3action_modeltraining_job19_3,w0,python3action_modeltraining,0.997085,1,2000.000000,1,COMPLETED_SUCCESSFULLY,1.002145,30.499683,31.501828,0.005060,30.504743,1.000166,5,-1.000000,""
python3action_modeltraining_job23_4,w0,python3action_modeltraining,0.997085,1,2000.000000,1,COMPLETED_SUCCESSFULLY,1.002160,30.499683,31.501843,0.005075,30.504758,1.000166,6,-1.000000,""
python3action_facedetection_job27_6,w0,python3action_facedetection,0.997085,1,2000.000000,1,COMPLETED_SUCCESSFULLY,1.002190,30.499683,31.501873,0.005105,30.504788,1.000167,8,-1.000000,""
python3action_modeltraining_job28_7,w0,python3action_modeltraining,0.997085,1,2000.000000,1,COMPLETED_SUCCESSFULLY,1.002205,30.499683,31.501888,0.005120,30.504803,1.000168,9,-1.000000,""
python3action_video_processing_job31_9,w0,python3action_video_processing,0.997085,1,2000.000000,1,COMPLETED_SUCCESSFULLY,1.002235,30.499683,31.501918,0.005150,30.504833,1.000169,11,-1.000000,""
python3action_facedetection_job32_10,w0,python3action_facedetection,0.997085,1,2000.000000,1,COMPLETED_SUCCESSFULLY,1.002250,30.499683,31.501933,0.005165,30.504848,1.000169,13,-1.000000,""
python3action_video_processing_job33_11,w0,python3action_video_processing,0.997085,1,2000.000000,1,COMPLETED_SUCCESSFULLY,1.002265,30.499683,31.501948,0.005180,30.504863,1.000170,14,-1.000000,""
python3action_facedetection_job35_13,w0,python3action_facedetection,0.997085,1,2000.000000,1,COMPLETED_SUCCESSFULLY,1.002295,30.499683,31.501978,0.005210,30.504893,1.000171,16,-1.000000,""
python3action_modeltraining_job38_15,w0,python3action_modeltraining,0.997085,1,2000.000000,1,COMPLETED_SUCCESSFULLY,1.002325,30.499683,31.502008,0.005240,30.504923,1.000172,18,-1.000000,""
python3action_modeltraining_job41_17,w0,python3action_modeltraining,0.997085,1,2000.000000,1,COMPLETED_SUCCESSFULLY,1.002355,30.499683,31.502038,0.005270,30.504953,1.000173,20,-1.000000,""
12_updated,w0,python3action_linpack_5000_nova,0.997085,1,2000.000000,1,COMPLETED_SUCCESSFULLY,3.442105,34.600010,38.042115,2.445020,37.045030,1.070665,4,-1.000000,""
12,w0,python3action_linpack_5000,0.000000,1,-1.000000,1,COMPLETED_SUCCESSFULLY,38.042130,0.000010,38.042140,38.042130,38.042140,3804214.007481,4,-1.000000,""
29_updated,w0,python3action_linpack_5000_nova,0.997085,1,2000.000000,1,COMPLETED_SUCCESSFULLY,3.442180,34.600010,38.042190,2.445095,37.045105,1.070667,10,-1.000000,""
29,w0,python3action_linpack_5000,0.000000,1,-1.000000,1,COMPLETED_SUCCESSFULLY,38.042205,0.000010,38.042215,38.042205,38.042215,3804221.508485,10,-1.000000,""
37_updated,w0,python3action_linpack_5000_nova,0.997085,1,2000.000000,1,COMPLETED_SUCCESSFULLY,3.442270,34.600010,38.042280,2.445185,37.045195,1.070670,17,-1.000000,""
37,w0,python3action_linpack_5000,0.000000,1,-1.000000,1,COMPLETED_SUCCESSFULLY,38.042295,0.000010,38.042305,38.042295,38.042305,3804230.509690,17,-1.000000,""
39_updated,w0,python3action_linpack_5000_nova,0.997085,1,2000.000000,1,COMPLETED_SUCCESSFULLY,3.442300,34.600010,38.042310,2.445215,37.045225,1.070671,19,-1.000000,""
39,w0,python3action_linpack_5000,0.000000,1,-1.000000,1,COMPLETED_SUCCESSFULLY,38.042340,0.000010,38.042350,38.042340,38.042350,3804235.010293,19,-1.000000,""
python3action_pyaes_job76_17,w0,python3action_pyaes_reduced_0.85,0.997085,1,2000.000000,1,COMPLETED_SUCCESSFULLY,38.042370,0.320244,38.362614,37.045285,37.365529,116.678407,19,-1.000000,""
3_updated,w0,python3action_chameleon_2000_troll,0.997085,1,2000.000000,1,COMPLETED_SUCCESSFULLY,1.870599,39.500010,41.370609,0.873514,40.373524,1.022114,46,-1.000000,""
3,w0,python3action_chameleon_2000,0.000000,1,-1.000000,1,COMPLETED_SUCCESSFULLY,41.370624,0.000010,41.370634,41.370624,41.370634,4137063.400201,46,-1.000000,""
python3action_facedetection_job65_9,w0,python3action_facedetection,0.997085,1,2000.000000,1,COMPLETED_SUCCESSFULLY,38.042235,30.499683,68.541918,37.045150,67.544833,2.214608,10,-1.000000,""
8_updated,w0,python3action_chameleon_2000_taurus,0.997085,1,2000.000000,1,COMPLETED_SUCCESSFULLY,6.043376,64.199977,70.243353,5.046291,69.246268,1.078603,33,-1.000000,""
8,w0,python3action_chameleon_2000,0.000000,1,-1.000000,1,COMPLETED_SUCCESSFULLY,70.243368,0.000010,70.243378,70.243368,70.243378,7024337.800201,33,-1.000000,""
55_updated,w0,python3action_linpack_5000_nova,0.997085,1,2000.000000,1,COMPLETED_SUCCESSFULLY,38.042160,34.600010,72.642170,37.045075,71.645085,2.070667,4,-1.000000,""
55,w0,python3action_linpack_5000,0.000000,1,-1.000000,1,COMPLETED_SUCCESSFULLY,72.642185,0.000010,72.642195,72.642185,72.642195,7264219.500201,4,-1.000000,""
73_updated,w0,python3action_linpack_5000_nova,0.997085,1,2000.000000,1,COMPLETED_SUCCESSFULLY,38.042325,34.600010,72.642335,37.045240,71.645250,2.070671,17,-1.000000,""
73,w0,python3action_linpack_5000,0.000000,1,-1.000000,1,COMPLETED_SUCCESSFULLY,72.642350,0.000010,72.642360,72.642350,72.642360,7264236.000201,17,-1.000000,""
python3action_pyaes_job112_15,w0,python3action_pyaes_reduced_0.85,0.997085,1,2000.000000,1,COMPLETED_SUCCESSFULLY,72.642380,0.320244,72.962624,71.645295,71.965539,224.721144,17,-1.000000,""
python3action_video_processing_job0_25,w0,python3action_video_processing,0.997085,1,2000.000000,1,COMPLETED_SUCCESSFULLY,1.002475,72.012455,73.014930,0.005390,72.017845,1.000075,29,-1.000000,""
python3action_video_processing_job4_26,w0,python3action_video_processing,0.997085,1,2000.000000,1,COMPLETED_SUCCESSFULLY,1.002490,72.012455,73.014945,0.005405,72.017860,1.000075,30,-1.000000,""
python3action_image_processing_job5_27,w0,python3action_image_processing,0.997085,1,2000.000000,1,COMPLETED_SUCCESSFULLY,1.002505,72.012455,73.014960,0.005420,72.017875,1.000075,31,-1.000000,""
python3action_image_processing_job7_28,w0,python3action_image_processing,0.997085,1,2000.000000,1,COMPLETED_SUCCESSFULLY,1.002520,72.012455,73.014975,0.005435,72.017890,1.000075,32,-1.000000,""
python3action_image_processing_job14_30,w0,python3action_image_processing,0.997085,1,2000.000000,1,COMPLETED_SUCCESSFULLY,1.002550,72.012455,73.015005,0.005465,72.017920,1.000076,35,-1.000000,""
python3action_image_processing_job18_31,w0,python3action_image_processing,0.997085,1,2000.000000,1,COMPLETED_SUCCESSFULLY,1.002565,72.012455,73.015020,0.005480,72.017935,1.000076,36,-1.000000,""
python3action_image_processing_job22_32,w0,python3action_image_processing,0.997085,1,2000.000000,1,COMPLETED_SUCCESSFULLY,1.002580,72.012455,73.015035,0.005495,72.017950,1.000076,37,-1.000000,""
python3action_image_processing_job26_33,w0,python3action_image_processing,0.997085,1,2000.000000,1,COMPLETED_SUCCESSFULLY,1.002595,72.012455,73.015050,0.005510,72.017965,1.000077,38,-1.000000,""
python3action_video_processing_job40_34,w0,python3action_video_processing,0.997085,1,2000.000000,1,COMPLETED_SUCCESSFULLY,1.002610,72.012455,73.015065,0.005525,72.017980,1.000077,39,-1.000000,""
python3action_video_processing_job43_35,w0,python3action_video_processing,0.997085,1,2000.000000,1,COMPLETED_SUCCESSFULLY,1.002625,72.012455,73.015080,0.005540,72.017995,1.000077,40,-1.000000,""
python3action_facedetection_job44_36,w0,python3action_facedetection,0.997085,1,2000.000000,1,COMPLETED_SUCCESSFULLY,1.002640,72.012455,73.015095,0.005555,72.018010,1.000077,41,-1.000000,""
19_updated,w0,python3action_modeltraining_reviews50mb_nova,0.997085,1,2000.000000,1,COMPLETED_SUCCESSFULLY,31.501843,42.399990,73.901833,30.504758,72.904748,1.719452,5,-1.000000,""
19,w0,python3action_modeltraining_reviews50mb,0.000000,1,-1.000000,1,COMPLETED_SUCCESSFULLY,73.901848,0.000010,73.901858,73.901848,73.901858,7390185.800201,5,-1.000000,""
23_updated,w0,python3action_modeltraining_reviews50mb_nova,0.997085,1,2000.000000,1,COMPLETED_SUCCESSFULLY,31.501873,42.399990,73.901863,30.504788,72.904778,1.719453,6,-1.000000,""
23,w0,python3action_modeltraining_reviews50mb,0.000000,1,-1.000000,1,COMPLETED_SUCCESSFULLY,73.901893,0.000010,73.901903,73.901893,73.901903,7390190.300402,6,-1.000000,""
28_updated,w0,python3action_modeltraining_reviews50mb_nova,0.997085,1,2000.000000,1,COMPLETED_SUCCESSFULLY,31.501918,42.399990,73.901908,30.504833,72.904823,1.719454,9,-1.000000,""
python3action_facedetection_job57_5,w0,python3action_facedetection_reduced_0.91,0.997085,1,2000.000000,1,COMPLETED_SUCCESSFULLY,73.901923,0.000000,73.901923,72.904838,72.904838,1492645299587.075439,6,-1.000000,""
28,w0,python3action_modeltraining_reviews50mb,0.000000,1,-1.000000,1,COMPLETED_SUCCESSFULLY,73.901938,0.000010,73.901948,73.901938,73.901948,7390194.800402,9,-1.000000,""
38_updated,w0,python3action_modeltraining_reviews50mb_nova,0.997085,1,2000.000000,1,COMPLETED_SUCCESSFULLY,31.502038,42.399990,73.902028,30.504953,72.904943,1.719457,18,-1.000000,""
38,w0,python3action_modeltraining_reviews50mb,0.000000,1,-1.000000,1,COMPLETED_SUCCESSFULLY,73.902043,0.000010,73.902053,73.902043,73.902053,7390205.300201,18,-1.000000,""
41_updated,w0,python3action_modeltraining_reviews50mb_nova,0.997085,1,2000.000000,1,COMPLETED_SUCCESSFULLY,31.502068,42.399990,73.902058,30.504983,72.904973,1.719457,20,-1.000000,""
41,w0,python3action_modeltraining_reviews50mb,0.000000,1,-1.000000,1,COMPLETED_SUCCESSFULLY,73.902103,0.000010,73.902113,73.902103,73.902113,7390211.301004,20,-1.000000,""
python3action_video_processing_job78_18,w0,python3action_video_processing_reduced_0.97,0.997085,1,2000.000000,1,COMPLETED_SUCCESSFULLY,73.902133,0.000000,73.902133,72.905048,72.905048,1492649599349.687012,20,-1.000000,""
python3action_floatoperation_job93_3,w0,python3action_floatoperation,0.997085,1,2000.000000,1,COMPLETED_SUCCESSFULLY,72.642215,2.439945,75.082160,71.645130,74.085075,30.363417,4,-1.000000,""
2_updated,w0,python3action_imageprocessing_SampleImage_60mb_troll,0.997085,1,2000.000000,1,COMPLETED_SUCCESSFULLY,13.401550,62.000000,75.401550,12.404465,74.404465,1.200072,44,-1.000000,""
2,w0,python3action_imageprocessing_SampleImage_60mb,0.000000,1,-1.000000,1,COMPLETED_SUCCESSFULLY,75.401565,0.000010,75.401575,75.401565,75.401575,7540157.516610,44,-1.000000,""
11_updated,w0,python3action_imageprocessing_SampleImage_60mb_troll,0.997085,1,2000.000000,1,COMPLETED_SUCCESSFULLY,13.401580,62.000000,75.401580,12.404495,74.404495,1.200073,47,-1.000000,""
13_updated,w0,python3action_imageprocessing_SampleImage_60mb_troll,0.997085,1,2000.000000,1,COMPLETED_SUCCESSFULLY,13.401610,62.000000,75.401610,12.404525,74.404525,1.200073,48,-1.000000,""
11,w0,python3action_imageprocessing_SampleImage_60mb,0.000000,1,-1.000000,1,COMPLETED_SUCCESSFULLY,75.401610,0.000010,75.401620,75.401610,75.401620,7540162.017213,47,-1.000000,""
13,w0,python3action_imageprocessing_SampleImage_60mb,0.000000,1,-1.000000,1,COMPLETED_SUCCESSFULLY,75.401640,0.000010,75.401650,75.401640,75.401650,7540165.017614,48,-1.000000,""
python3action_pyaes_job62_8,w0,python3action_pyaes,0.997085,1,2000.000000,1,COMPLETED_SUCCESSFULLY,73.901983,2.134958,76.036941,72.904898,75.039856,35.148161,9,-1.000000,""
python3action_pyaes_job75_16,w0,python3action_pyaes,0.997085,1,2000.000000,1,COMPLETED_SUCCESSFULLY,73.902073,2.134958,76.037031,72.904988,75.039946,35.148203,18,-1.000000,""
python3action_chameleon_job15_38,w0,python3action_chameleon,0.997085,1,2000.000000,1,COMPLETED_SUCCESSFULLY,75.401595,0.867914,76.269509,74.404510,75.272424,86.728009,44,-1.000000,""
python3action_chameleon_job30_40,w0,python3action_chameleon,0.997085,1,2000.000000,1,COMPLETED_SUCCESSFULLY,75.401655,0.867914,76.269569,74.404570,75.272484,86.728078,47,-1.000000,""
python3action_chameleon_job36_41,w0,python3action_chameleon,0.997085,1,2000.000000,1,COMPLETED_SUCCESSFULLY,75.401685,0.867914,76.269599,74.404600,75.272514,86.728113,48,-1.000000,""
python3action_floatoperation_job56_4,w0,python3action_floatoperation,0.997085,1,2000.000000,1,COMPLETED_SUCCESSFULLY,73.901878,2.439945,76.341823,72.904793,75.344738,30.879683,5,-1.000000,""
25_updated,w0,python3action_chameleon_2000_troll,0.997085,1,2000.000000,1,COMPLETED_SUCCESSFULLY,41.370654,39.500010,80.870664,40.373569,79.873579,2.022115,46,-1.000000,""
25,w0,python3action_chameleon_2000,0.000000,1,-1.000000,1,COMPLETED_SUCCESSFULLY,80.870679,0.000010,80.870689,80.870679,80.870689,8087068.900201,46,-1.000000,""
python3action_image_processing_job49_39,w0,python3action_image_processing,0.997085,1,2000.000000,1,COMPLETED_SUCCESSFULLY,80.870709,12.398880,93.269589,79.873624,92.272504,7.442003,46,-1.000000,""
16_updated,w0,python3action_chameleon_3000_yeti,0.997085,1,2000.000000,1,COMPLETED_SUCCESSFULLY,1.895425,93.000000,94.895425,0.898340,93.898340,1.009660,49,-1.000000,""
16,w0,python3action_chameleon_3000,0.000000,1,-1.000000,1,COMPLETED_SUCCESSFULLY,94.895440,0.000010,94.895450,94.895440,94.895450,9489545.000201,49,-1.000000,""
139_updated,w0,python3action_chameleon_3000_yeti,0.997085,1,2000.000000,1,COMPLETED_SUCCESSFULLY,1.895455,93.000000,94.895455,0.898370,93.898370,1.009660,50,-1.000000,""
168_updated,w0,python3action_chameleon_3000_yeti,0.997085,1,2000.000000,1,COMPLETED_SUCCESSFULLY,1.895470,93.000000,94.895470,0.898385,93.898385,1.009660,51,-1.000000,""
139,w0,python3action_chameleon_3000,0.000000,1,-1.000000,1,COMPLETED_SUCCESSFULLY,94.895470,0.000010,94.895480,94.895470,94.895480,9489547.957998,50,-1.000000,""
186_updated,w0,python3action_chameleon_3000_yeti,0.997085,1,2000.000000,1,COMPLETED_SUCCESSFULLY,1.895500,93.000000,94.895500,0.898415,93.898415,1.009660,52,-1.000000,""
168,w0,python3action_chameleon_3000,0.000000,1,-1.000000,1,COMPLETED_SUCCESSFULLY,94.895500,0.000010,94.895510,94.895500,94.895510,9489551.000201,51,-1.000000,""
186,w0,python3action_chameleon_3000,0.000000,1,-1.000000,1,COMPLETED_SUCCESSFULLY,94.895530,0.000010,94.895540,94.895530,94.895540,9489554.000602,52,-1.000000,""
5_updated,w0,python3action_imageprocessing_SampleImage_40mb_taurus,0.997085,1,2000.000000,1,COMPLETED_SUCCESSFULLY,73.014990,32.600046,105.615037,72.017905,104.617952,3.209135,31,-1.000000,""
5,w0,python3action_imageprocessing_SampleImage_40mb,0.000000,1,-1.000000,1,COMPLETED_SUCCESSFULLY,105.615052,0.000010,105.615062,105.615052,105.615062,10561506.200201,31,-1.000000,""
7_updated,w0,python3action_imageprocessing_SampleImage_40mb_taurus,0.997085,1,2000.000000,1,COMPLETED_SUCCESSFULLY,73.015020,32.600046,105.615067,72.017935,104.617982,3.209136,32,-1.000000,""
14_updated,w0,python3action_imageprocessing_SampleImage_40mb_taurus,0.997085,1,2000.000000,1,COMPLETED_SUCCESSFULLY,73.015035,32.600046,105.615082,72.017950,104.617997,3.209136,35,-1.000000,""
python3action_video_processing_job70_28,w0,python3action_video_processing_reduced_0.91,0.997085,1,2000.000000,1,COMPLETED_SUCCESSFULLY,105.615082,0.000000,105.615082,104.617997,104.617997,907188790239.099243,31,-1.000000,""
7,w0,python3action_imageprocessing_SampleImage_40mb,0.000000,1,-1.000000,1,COMPLETED_SUCCESSFULLY,105.615097,0.000010,105.615107,105.615097,105.615107,10561510.651187,32,-1.000000,""
18_updated,w0,python3action_imageprocessing_SampleImage_40mb_taurus,0.997085,1,2000.000000,1,COMPLETED_SUCCESSFULLY,73.015065,32.600046,105.615112,72.017980,104.618027,3.209137,36,-1.000000,""
22_updated,w0,python3action_imageprocessing_SampleImage_40mb_taurus,0.997085,1,2000.000000,1,COMPLETED_SUCCESSFULLY,73.015080,32.600046,105.615127,72.017995,104.618042,3.209138,37,-1.000000,""
14,w0,python3action_imageprocessing_SampleImage_40mb,0.000000,1,-1.000000,1,COMPLETED_SUCCESSFULLY,105.615127,0.000010,105.615137,105.615127,105.615137,10561513.651589,35,-1.000000,""
26_updated,w0,python3action_imageprocessing_SampleImage_40mb_taurus,0.997085,1,2000.000000,1,COMPLETED_SUCCESSFULLY,73.015095,32.600046,105.615142,72.018010,104.618057,3.209138,38,-1.000000,""
python3action_facedetection_job80_29,w0,python3action_facedetection_reduced_0.91,0.997085,1,2000.000000,1,COMPLETED_SUCCESSFULLY,105.615157,0.000000,105.615157,104.618072,104.618072,907189440684.240967,32,-1.000000,""
18,w0,python3action_imageprocessing_SampleImage_40mb,0.000000,1,-1.000000,1,COMPLETED_SUCCESSFULLY,105.615172,0.000010,105.615182,105.615172,105.615182,10561518.152191,36,-1.000000,""
22,w0,python3action_imageprocessing_SampleImage_40mb,0.000000,1,-1.000000,1,COMPLETED_SUCCESSFULLY,105.615202,0.000010,105.615212,105.615202,105.615212,10561521.200201,37,-1.000000,""
python3action_video_processing_job83_31,w0,python3action_video_processing_reduced_0.91,0.997085,1,2000.000000,1,COMPLETED_SUCCESSFULLY,105.615217,0.000000,105.615217,104.618132,104.618132,907189965168.676025,35,-1.000000,""
26,w0,python3action_imageprocessing_SampleImage_40mb,0.000000,1,-1.000000,1,COMPLETED_SUCCESSFULLY,105.615232,0.000010,105.615242,105.615232,105.615242,10561524.200602,38,-1.000000,""
python3action_facedetection_job85_32,w0,python3action_facedetection_reduced_0.91,0.997085,1,2000.000000,1,COMPLETED_SUCCESSFULLY,105.615262,0.000000,105.615262,104.618177,104.618177,907190355435.761353,36,-1.000000,""
python3action_facedetection_job97_34,w0,python3action_facedetection_reduced_0.91,0.997085,1,2000.000000,1,COMPLETED_SUCCESSFULLY,105.615322,0.000000,105.615322,104.618237,104.618237,907190875791.875000,38,-1.000000,""
python3action_linpack_job90_33,w0,python3action_linpack,0.997085,1,2000.000000,1,COMPLETED_SUCCESSFULLY,105.615292,5.760927,111.376219,104.618207,110.379134,19.159960,37,-1.000000,""
6_updated,w0,python3action_linpack_6000_orion,0.997085,1,2000.000000,1,COMPLETED_SUCCESSFULLY,6.763372,106.000000,112.763372,5.766287,111.766287,1.054399,26,-1.000000,""
6,w0,python3action_linpack_6000,0.000000,1,-1.000000,1,COMPLETED_SUCCESSFULLY,112.763387,0.000010,112.763397,112.763387,112.763397,11276339.727890,26,-1.000000,""
9_updated,w0,python3action_linpack_6000_orion,0.997085,1,2000.000000,1,COMPLETED_SUCCESSFULLY,6.763402,106.000000,112.763402,5.766317,111.766317,1.054399,27,-1.000000,""
17_updated,w0,python3action_linpack_6000_orion,0.997085,1,2000.000000,1,COMPLETED_SUCCESSFULLY,6.763432,106.000000,112.763432,5.766347,111.766347,1.054400,28,-1.000000,""
9,w0,python3action_linpack_6000,0.000000,1,-1.000000,1,COMPLETED_SUCCESSFULLY,112.763432,0.000010,112.763442,112.763432,112.763442,11276344.228492,27,-1.000000,""
17,w0,python3action_linpack_6000,0.000000,1,-1.000000,1,COMPLETED_SUCCESSFULLY,112.763462,0.000010,112.763472,112.763462,112.763472,11276347.228894,28,-1.000000,""
15_updated,w0,python3action_chameleon_2000_troll,0.997085,1,2000.000000,1,COMPLETED_SUCCESSFULLY,76.269524,39.500010,115.769534,75.272439,114.772449,2.905631,44,-1.000000,""
15,w0,python3action_chameleon_2000,0.000000,1,-1.000000,1,COMPLETED_SUCCESSFULLY,115.769549,0.000010,115.769559,115.769549,115.769559,11576955.900201,44,-1.000000,""
31_updated,w0,python3action_videoprocessing_SampleVideo_30mb_nova,0.997085,1,2000.000000,1,COMPLETED_SUCCESSFULLY,31.501948,106.799980,138.301928,30.504863,137.304843,1.285626,11,-1.000000,""
31,w0,python3action_videoprocessing_SampleVideo_30mb,0.000000,1,-1.000000,1,COMPLETED_SUCCESSFULLY,138.301943,0.000010,138.301953,138.301943,138.301953,13830195.300201,11,-1.000000,""
python3action_modeltraining_job66_10,w0,python3action_modeltraining_reduced_1.0,0.997085,1,2000.000000,1,COMPLETED_SUCCESSFULLY,138.301973,0.000000,138.301973,137.304888,137.304888,2810346869820.288086,11,-1.000000,""
33_updated,w0,python3action_videoprocessing_SampleVideo_30mb_nova,0.997085,1,2000.000000,1,COMPLETED_SUCCESSFULLY,31.501993,106.799980,138.301973,30.504908,137.304888,1.285627,14,-1.000000,""
33,w0,python3action_videoprocessing_SampleVideo_30mb,0.000000,1,-1.000000,1,COMPLETED_SUCCESSFULLY,138.302018,0.000010,138.302028,138.302018,138.302028,13830202.801205,14,-1.000000,""
python3action_modeltraining_job68_12,w0,python3action_modeltraining_reduced_1.0,0.997085,1,2000.000000,1,COMPLETED_SUCCESSFULLY,138.302048,0.000000,138.302048,137.304963,137.304963,2810348405120.555664,14,-1.000000,""
10_updated,w0,python3action_floatoperation_200000000_nova,0.997085,1,2000.000000,1,COMPLETED_SUCCESSFULLY,3.442075,135.399990,138.842066,2.444990,137.844981,1.018058,3,-1.000000,""
10,w0,python3action_floatoperation_200000000,0.000000,1,-1.000000,1,COMPLETED_SUCCESSFULLY,138.842081,0.000010,138.842091,138.842081,138.842091,13884209.100201,3,-1.000000,""
34_updated,w0,python3action_floatoperation_200000000_nova,0.997085,1,2000.000000,1,COMPLETED_SUCCESSFULLY,3.442240,135.399990,138.842231,2.445155,137.845146,1.018059,15,-1.000000,""
34,w0,python3action_floatoperation_200000000,0.000000,1,-1.000000,1,COMPLETED_SUCCESSFULLY,138.842246,0.000010,138.842256,138.842246,138.842256,13884225.600201,15,-1.000000,""
42_updated,w0,python3action_floatoperation_200000000_nova,0.997085,1,2000.000000,1,COMPLETED_SUCCESSFULLY,3.442330,135.399990,138.842321,2.445245,137.845236,1.018059,21,-1.000000,""
42,w0,python3action_floatoperation_200000000,0.000000,1,-1.000000,1,COMPLETED_SUCCESSFULLY,138.842336,0.000010,138.842346,138.842336,138.842346,13884234.600201,21,-1.000000,""
47_updated,w0,python3action_floatoperation_200000000_nova,0.997085,1,2000.000000,1,COMPLETED_SUCCESSFULLY,3.442360,135.399990,138.842351,2.445275,137.845266,1.018060,22,-1.000000,""
47,w0,python3action_floatoperation_200000000,0.000000,1,-1.000000,1,COMPLETED_SUCCESSFULLY,138.842381,0.000010,138.842391,138.842381,138.842391,13884239.100402,22,-1.000000,""
python3action_pyaes_job79_19,w0,python3action_pyaes,0.997085,1,2000.000000,1,COMPLETED_SUCCESSFULLY,138.842366,2.134958,140.977324,137.845281,139.980239,65.565797,21,-1.000000,""
python3action_image_processing_job81_30,w0,python3action_image_processing,0.997085,1,2000.000000,1,COMPLETED_SUCCESSFULLY,70.243398,72.012455,142.255853,69.246313,141.258768,1.961588,33,-1.000000,""
24_updated,w0,python3action_pyaes_4000_nova,0.997085,1,2000.000000,1,COMPLETED_SUCCESSFULLY,3.137148,139.600010,142.737158,2.140063,141.740073,1.015330,7,-1.000000,""
24,w0,python3action_pyaes_4000,0.000000,1,-1.000000,1,COMPLETED_SUCCESSFULLY,142.737173,0.000010,142.737183,142.737173,142.737183,14273718.302271,7,-1.000000,""
48_updated,w0,python3action_pyaes_4000_nova,0.997085,1,2000.000000,1,COMPLETED_SUCCESSFULLY,3.137373,139.600010,142.737383,2.140288,141.740298,1.015332,24,-1.000000,""
48,w0,python3action_pyaes_4000,0.000000,1,-1.000000,1,COMPLETED_SUCCESSFULLY,142.737398,0.000010,142.737408,142.737398,142.737408,14273740.805283,24,-1.000000,""
50_updated,w0,python3action_pyaes_4000_nova,0.997085,1,2000.000000,1,COMPLETED_SUCCESSFULLY,3.137403,139.600010,142.737413,2.140318,141.740328,1.015332,25,-1.000000,""
50,w0,python3action_pyaes_4000,0.000000,1,-1.000000,1,COMPLETED_SUCCESSFULLY,142.737443,0.000010,142.737453,142.737443,142.737453,14273745.305885,25,-1.000000,""
python3action_linpack_job89_22,w0,python3action_linpack_reduced_0.85,0.997085,1,2000.000000,1,COMPLETED_SUCCESSFULLY,142.737473,0.365992,143.103465,141.740388,142.106380,388.277503,25,-1.000000,""
62_updated,w0,python3action_pyaes_3000_nova,0.997085,1,2000.000000,1,COMPLETED_SUCCESSFULLY,76.036956,78.200020,154.236976,75.039871,153.239891,1.959589,9,-1.000000,""
62,w0,python3action_pyaes_3000,0.000000,1,-1.000000,1,COMPLETED_SUCCESSFULLY,154.236991,0.000010,154.237001,154.236991,154.237001,15423700.100201,9,-1.000000,""
75_updated,w0,python3action_pyaes_3000_nova,0.997085,1,2000.000000,1,COMPLETED_SUCCESSFULLY,76.037046,78.200020,154.237066,75.039961,153.239981,1.959590,18,-1.000000,""
75,w0,python3action_pyaes_3000,0.000000,1,-1.000000,1,COMPLETED_SUCCESSFULLY,154.237081,0.000010,154.237091,154.237081,154.237091,15423709.100201,18,-1.000000,""
49_updated,w0,python3action_imageprocessing_SampleImage_60mb_troll,0.997085,1,2000.000000,1,COMPLETED_SUCCESSFULLY,93.269604,62.000000,155.269604,92.272519,154.272519,2.488266,46,-1.000000,""
49,w0,python3action_imageprocessing_SampleImage_60mb,0.000000,1,-1.000000,1,COMPLETED_SUCCESSFULLY,155.269619,0.000010,155.269629,155.269619,155.269629,15526962.909582,46,-1.000000,""
python3action_floatoperation_job100_8,w0,python3action_floatoperation,0.997085,1,2000.000000,1,COMPLETED_SUCCESSFULLY,154.237021,2.439945,156.676966,153.239936,155.679881,63.804661,9,-1.000000,""
python3action_modeltraining_job69_13,w0,python3action_modeltraining,0.997085,1,2000.000000,1,COMPLETED_SUCCESSFULLY,138.842276,30.499683,169.341959,137.845191,168.344874,5.519562,15,-1.000000,""
30_updated,w0,python3action_chameleon_3000_troll,0.997085,1,2000.000000,1,COMPLETED_SUCCESSFULLY,76.269584,94.000000,170.269584,75.272499,169.272499,1.800771,47,-1.000000,""
30,w0,python3action_chameleon_3000,0.000000,1,-1.000000,1,COMPLETED_SUCCESSFULLY,170.269599,0.000010,170.269609,170.269599,170.269609,17026960.900402,47,-1.000000,""
36_updated,w0,python3action_chameleon_3000_troll,0.997085,1,2000.000000,1,COMPLETED_SUCCESSFULLY,76.269614,94.000000,170.269614,75.272529,169.272529,1.800772,48,-1.000000,""
36,w0,python3action_chameleon_3000,0.000000,1,-1.000000,1,COMPLETED_SUCCESSFULLY,170.269644,0.000010,170.269654,170.269644,170.269654,17026965.400803,48,-1.000000,""
python3action_modeltraining_job58_6,w0,python3action_modeltraining,0.997085,1,2000.000000,1,COMPLETED_SUCCESSFULLY,142.737203,30.499683,173.236886,141.740118,172.239801,5.647265,7,-1.000000,""
python3action_modeltraining_job87_21,w0,python3action_modeltraining,0.997085,1,2000.000000,1,COMPLETED_SUCCESSFULLY,142.737428,30.499683,173.237111,141.740343,172.240026,5.647273,24,-1.000000,""
81_updated,w0,python3action_imageprocessing_SampleImage_40mb_taurus,0.997085,1,2000.000000,1,COMPLETED_SUCCESSFULLY,142.255868,32.600046,174.855914,141.258783,173.858829,5.333085,33,-1.000000,""
81,w0,python3action_imageprocessing_SampleImage_40mb,0.000000,1,-1.000000,1,COMPLETED_SUCCESSFULLY,174.855929,0.000010,174.855939,174.855929,174.855939,17485593.945163,33,-1.000000,""
python3action_facedetection_job120_30,w0,python3action_facedetection_reduced_0.91,0.997085,1,2000.000000,1,COMPLETED_SUCCESSFULLY,174.855959,0.000000,174.855959,173.858874,173.858874,1507421224691.212891,33,-1.000000,""
89_updated,w0,python3action_linpack_5000_nova,0.997085,1,2000.000000,1,COMPLETED_SUCCESSFULLY,143.103480,34.600010,177.703490,142.106395,176.706405,5.107120,25,-1.000000,""
89,w0,python3action_linpack_5000,0.000000,1,-1.000000,1,COMPLETED_SUCCESSFULLY,177.703505,0.000010,177.703515,177.703505,177.703515,17770351.500201,25,-1.000000,""
46_updated,w0,python3action_imageprocessing_SampleImage_60mb_troll,0.997085,1,2000.000000,1,COMPLETED_SUCCESSFULLY,115.769579,62.000000,177.769579,114.772494,176.772494,2.851169,44,-1.000000,""
46,w0,python3action_imageprocessing_SampleImage_60mb,0.000000,1,-1.000000,1,COMPLETED_SUCCESSFULLY,177.769594,0.000010,177.769604,177.769594,177.769604,17776960.400803,44,-1.000000,""
76_updated,w0,python3action_pyaes_4000_nova,0.997085,1,2000.000000,1,COMPLETED_SUCCESSFULLY,38.362629,139.600010,177.962639,37.365544,176.965554,1.267661,19,-1.000000,""
76,w0,python3action_pyaes_4000,0.000000,1,-1.000000,1,COMPLETED_SUCCESSFULLY,177.962654,0.000010,177.962664,177.962654,177.962664,17796266.400201,19,-1.000000,""
66_updated,w0,python3action_modeltraining_reviews50mb_nova,0.997085,1,2000.000000,1,COMPLETED_SUCCESSFULLY,138.302003,42.399990,180.701993,137.304918,179.704908,4.238324,11,-1.000000,""
66,w0,python3action_modeltraining_reviews50mb,0.000000,1,-1.000000,1,COMPLETED_SUCCESSFULLY,180.702008,0.000010,180.702018,180.702008,180.702018,18070201.824308,11,-1.000000,""
68_updated,w0,python3action_modeltraining_reviews50mb_nova,0.997085,1,2000.000000,1,COMPLETED_SUCCESSFULLY,138.302078,42.399990,180.702068,137.304993,179.704983,4.238326,14,-1.000000,""
68,w0,python3action_modeltraining_reviews50mb,0.000000,1,-1.000000,1,COMPLETED_SUCCESSFULLY,180.702083,0.000010,180.702093,180.702083,180.702093,18070209.325312,14,-1.000000,""
78_updated,w0,python3action_videoprocessing_SampleVideo_30mb_nova,0.997085,1,2000.000000,1,COMPLETED_SUCCESSFULLY,73.902163,106.799980,180.702143,72.905078,179.705058,1.682632,20,-1.000000,""
78,w0,python3action_videoprocessing_SampleVideo_30mb,0.000000,1,-1.000000,1,COMPLETED_SUCCESSFULLY,180.702158,0.000010,180.702168,180.702158,180.702168,18070216.848215,20,-1.000000,""
python3action_pyaes_job104_10,w0,python3action_pyaes,0.997085,1,2000.000000,1,COMPLETED_SUCCESSFULLY,180.702038,2.134958,182.836996,179.704953,181.839911,85.172585,11,-1.000000,""
python3action_floatoperation_job118_18,w0,python3action_floatoperation,0.997085,1,2000.000000,1,COMPLETED_SUCCESSFULLY,180.702188,2.439945,183.142134,179.705103,182.145049,74.651284,20,-1.000000,""
1_updated,w0,python3action_facedetection_SampleVideo_30mb_nova,0.997085,1,2000.000000,1,COMPLETED_SUCCESSFULLY,31.501798,160.399990,191.901788,30.504713,190.904703,1.190179,2,-1.000000,""
1,w0,python3action_facedetection_SampleVideo_30mb,0.000000,1,-1.000000,1,COMPLETED_SUCCESSFULLY,191.901803,0.000010,191.901813,191.901803,191.901813,19190181.323505,2,-1.000000,""
python3action_modeltraining_job51_1,w0,python3action_modeltraining_reduced_0.94,0.997085,1,2000.000000,1,COMPLETED_SUCCESSFULLY,191.901833,0.000000,191.901833,190.904748,190.904748,3907425070139.520020,2,-1.000000,""
27_updated,w0,python3action_facedetection_SampleVideo_30mb_nova,0.997085,1,2000.000000,1,COMPLETED_SUCCESSFULLY,31.501903,160.399990,191.901893,30.504818,190.904808,1.190180,8,-1.000000,""
27,w0,python3action_facedetection_SampleVideo_30mb,0.000000,1,-1.000000,1,COMPLETED_SUCCESSFULLY,191.901908,0.000010,191.901918,191.901908,191.901918,19190191.823505,8,-1.000000,""
32_updated,w0,python3action_facedetection_SampleVideo_30mb_nova,0.997085,1,2000.000000,1,COMPLETED_SUCCESSFULLY,31.501963,160.399990,191.901953,30.504878,190.904868,1.190180,13,-1.000000,""
32,w0,python3action_facedetection_SampleVideo_30mb,0.000000,1,-1.000000,1,COMPLETED_SUCCESSFULLY,191.901968,0.000010,191.901978,191.901968,191.901978,19190197.800201,13,-1.000000,""
35_updated,w0,python3action_facedetection_SampleVideo_30mb_nova,0.997085,1,2000.000000,1,COMPLETED_SUCCESSFULLY,31.502008,160.399990,191.901998,30.504923,190.904913,1.190180,16,-1.000000,""
python3action_video_processing_job67_11,w0,python3action_video_processing_reduced_0.91,0.997085,1,2000.000000,1,COMPLETED_SUCCESSFULLY,191.901998,0.000000,191.901998,190.904913,190.904913,3907428437866.900879,13,-1.000000,""
35,w0,python3action_facedetection_SampleVideo_30mb,0.000000,1,-1.000000,1,COMPLETED_SUCCESSFULLY,191.902028,0.000010,191.902038,191.902028,191.902038,19190203.800201,16,-1.000000,""
python3action_modeltraining_job72_14,w0,python3action_modeltraining_reduced_0.94,0.997085,1,2000.000000,1,COMPLETED_SUCCESSFULLY,191.902073,0.000000,191.902073,190.904988,190.904988,3907429977713.979004,16,-1.000000,""
python3action_pyaes_job61_7,w0,python3action_pyaes,0.997085,1,2000.000000,1,COMPLETED_SUCCESSFULLY,191.901938,2.134958,194.036896,190.904853,193.039811,90.418542,8,-1.000000,""
54_updated,w0,python3action_floatoperation_100000000_nova,0.997085,1,2000.000000,1,COMPLETED_SUCCESSFULLY,138.842111,66.200020,205.042131,137.845026,204.045046,3.082251,3,-1.000000,""
54,w0,python3action_floatoperation_100000000,0.000000,1,-1.000000,1,COMPLETED_SUCCESSFULLY,205.042146,0.000010,205.042156,205.042146,205.042156,20504215.600201,3,-1.000000,""
86_updated,w0,python3action_floatoperation_100000000_nova,0.997085,1,2000.000000,1,COMPLETED_SUCCESSFULLY,138.842411,66.200020,205.042431,137.845326,204.045346,3.082255,22,-1.000000,""
86,w0,python3action_floatoperation_100000000,0.000000,1,-1.000000,1,COMPLETED_SUCCESSFULLY,205.042446,0.000010,205.042456,205.042446,205.042456,20504245.600201,22,-1.000000,""
python3action_linpack_job122_20,w0,python3action_linpack,0.997085,1,2000.000000,1,COMPLETED_SUCCESSFULLY,205.042476,2.439945,207.482421,204.045391,206.485336,84.627035,22,-1.000000,""
44_updated,w0,python3action_facedetection_SampleVideo_50mb_taurus,0.997085,1,2000.000000,1,COMPLETED_SUCCESSFULLY,73.015155,134.600046,207.615202,72.018070,206.618117,1.535052,41,-1.000000,""
44,w0,python3action_facedetection_SampleVideo_50mb,0.000000,1,-1.000000,1,COMPLETED_SUCCESSFULLY,207.615217,0.000010,207.615227,207.615217,207.615227,20761522.700201,41,-1.000000,""
python3action_video_processing_job106_37,w0,python3action_video_processing_reduced_0.91,0.997085,1,2000.000000,1,COMPLETED_SUCCESSFULLY,207.615247,0.000000,207.615247,206.618162,206.618162,1791456454493.489258,41,-1.000000,""
python3action_facedetection_job125_22,w0,python3action_facedetection,0.997085,1,2000.000000,1,COMPLETED_SUCCESSFULLY,177.703535,30.499683,208.203218,176.706450,207.206133,6.793714,25,-1.000000,""
53_updated,w0,python3action_chameleon_2000_troll,0.997085,1,2000.000000,1,COMPLETED_SUCCESSFULLY,170.269629,39.500010,209.769639,169.272544,208.772554,5.285380,47,-1.000000,""
53,w0,python3action_chameleon_2000,0.000000,1,-1.000000,1,COMPLETED_SUCCESSFULLY,209.769654,0.000010,209.769664,209.769654,209.769664,20976966.400201,47,-1.000000,""
59_updated,w0,python3action_chameleon_2000_troll,0.997085,1,2000.000000,1,COMPLETED_SUCCESSFULLY,170.269674,39.500010,209.769684,169.272589,208.772599,5.285381,48,-1.000000,""
59,w0,python3action_chameleon_2000,0.000000,1,-1.000000,1,COMPLETED_SUCCESSFULLY,209.769714,0.000010,209.769724,209.769714,209.769724,20976972.400201,48,-1.000000,""
93_updated,w0,python3action_floatoperation_200000000_nova,0.997085,1,2000.000000,1,COMPLETED_SUCCESSFULLY,75.082175,135.399990,210.482166,74.085090,209.485081,1.547157,4,-1.000000,""
93,w0,python3action_floatoperation_200000000,0.000000,1,-1.000000,1,COMPLETED_SUCCESSFULLY,210.482181,0.000010,210.482191,210.482181,210.482191,21048219.100201,4,-1.000000,""
python3action_pyaes_job129_3,w0,python3action_pyaes_reduced_0.85,0.997085,1,2000.000000,1,COMPLETED_SUCCESSFULLY,210.482211,0.320244,210.802455,209.485126,209.805370,655.142775,4,-1.000000,""
56_updated,w0,python3action_floatoperation_200000000_nova,0.997085,1,2000.000000,1,COMPLETED_SUCCESSFULLY,76.341838,135.399990,211.741829,75.344753,210.744744,1.556461,5,-1.000000,""
56,w0,python3action_floatoperation_200000000,0.000000,1,-1.000000,1,COMPLETED_SUCCESSFULLY,211.741844,0.000010,211.741854,211.741844,211.741854,21174185.400201,5,-1.000000,""
112_updated,w0,python3action_pyaes_4000_nova,0.997085,1,2000.000000,1,COMPLETED_SUCCESSFULLY,72.962639,139.600010,212.562649,71.965554,211.565564,1.515513,17,-1.000000,""
112,w0,python3action_pyaes_4000,0.000000,1,-1.000000,1,COMPLETED_SUCCESSFULLY,212.562664,0.000010,212.562674,212.562664,212.562674,21256267.400201,17,-1.000000,""
python3action_pyaes_job94_4,w0,python3action_pyaes,0.997085,1,2000.000000,1,COMPLETED_SUCCESSFULLY,211.741874,2.134958,213.876832,210.744789,212.879747,99.711434,5,-1.000000,""
python3action_floatoperation_job153_15,w0,python3action_floatoperation,0.997085,1,2000.000000,1,COMPLETED_SUCCESSFULLY,212.562694,2.439945,215.002639,211.565609,214.005554,87.709161,17,-1.000000,""
87_updated,w0,python3action_modeltraining_reviews50mb_nova,0.997085,1,2000.000000,1,COMPLETED_SUCCESSFULLY,173.237126,42.399990,215.637116,172.240041,214.640031,5.062266,24,-1.000000,""
87,w0,python3action_modeltraining_reviews50mb,0.000000,1,-1.000000,1,COMPLETED_SUCCESSFULLY,215.637131,0.000010,215.637141,215.637131,215.637141,21563714.123505,24,-1.000000,""
64_updated,w0,python3action_chameleon_2000_troll,0.997085,1,2000.000000,1,COMPLETED_SUCCESSFULLY,177.769624,39.500010,217.269634,176.772539,216.272549,5.475253,44,-1.000000,""
64,w0,python3action_chameleon_2000,0.000000,1,-1.000000,1,COMPLETED_SUCCESSFULLY,217.269649,0.000010,217.269659,217.269649,217.269659,21726965.900201,44,-1.000000,""
74_updated,w0,python3action_imageprocessing_SampleImage_60mb_troll,0.997085,1,2000.000000,1,COMPLETED_SUCCESSFULLY,155.269649,62.000000,217.269649,154.272564,216.272564,3.488267,46,-1.000000,""
74,w0,python3action_imageprocessing_SampleImage_60mb,0.000000,1,-1.000000,1,COMPLETED_SUCCESSFULLY,217.269694,0.000010,217.269704,217.269694,217.269704,21726970.400803,46,-1.000000,""
20_updated,w0,python3action_linpack_6000_orion,0.997085,1,2000.000000,1,COMPLETED_SUCCESSFULLY,112.763417,106.000000,218.763417,111.766332,217.766332,2.054399,26,-1.000000,""
20,w0,python3action_linpack_6000,0.000000,1,-1.000000,1,COMPLETED_SUCCESSFULLY,218.763432,0.000010,218.763442,218.763432,218.763442,21876344.228492,26,-1.000000,""
21_updated,w0,python3action_linpack_6000_orion,0.997085,1,2000.000000,1,COMPLETED_SUCCESSFULLY,112.763477,106.000000,218.763477,111.766392,217.766392,2.054400,27,-1.000000,""
21,w0,python3action_linpack_6000,0.000000,1,-1.000000,1,COMPLETED_SUCCESSFULLY,218.763492,0.000010,218.763502,218.763492,218.763502,21876350.229295,27,-1.000000,""
45_updated,w0,python3action_linpack_6000_orion,0.997085,1,2000.000000,1,COMPLETED_SUCCESSFULLY,112.763507,106.000000,218.763507,111.766422,217.766422,2.054400,28,-1.000000,""
45,w0,python3action_linpack_6000,0.000000,1,-1.000000,1,COMPLETED_SUCCESSFULLY,218.763537,0.000010,218.763547,218.763537,218.763547,21876354.729897,28,-1.000000,""
100_updated,w0,python3action_floatoperation_100000000_nova,0.997085,1,2000.000000,1,COMPLETED_SUCCESSFULLY,156.676981,66.200020,222.877001,155.679896,221.879916,3.351659,9,-1.000000,""
100,w0,python3action_floatoperation_100000000,0.000000,1,-1.000000,1,COMPLETED_SUCCESSFULLY,222.877016,0.000010,222.877026,222.877016,222.877026,22287702.600201,9,-1.000000,""
0_updated,w0,python3action_videoprocessing_SampleVideo_50mb_taurus,0.997085,1,2000.000000,1,COMPLETED_SUCCESSFULLY,73.014945,154.250029,227.264974,72.017860,226.267889,1.466890,29,-1.000000,""
0,w0,python3action_videoprocessing_SampleVideo_50mb,0.000000,1,-1.000000,1,COMPLETED_SUCCESSFULLY,227.264989,0.000010,227.264999,227.264989,227.264999,22726499.919877,29,-1.000000,""
4_updated,w0,python3action_videoprocessing_SampleVideo_50mb_taurus,0.997085,1,2000.000000,1,COMPLETED_SUCCESSFULLY,73.014975,154.250029,227.265004,72.017890,226.267919,1.466891,30,-1.000000,""
4,w0,python3action_videoprocessing_SampleVideo_50mb,0.000000,1,-1.000000,1,COMPLETED_SUCCESSFULLY,227.265034,0.000010,227.265044,227.265034,227.265044,22726504.420479,30,-1.000000,""
40_updated,w0,python3action_videoprocessing_SampleVideo_50mb_taurus,0.997085,1,2000.000000,1,COMPLETED_SUCCESSFULLY,73.015125,154.250029,227.265154,72.018040,226.268069,1.466892,39,-1.000000,""
43_updated,w0,python3action_videoprocessing_SampleVideo_50mb_taurus,0.997085,1,2000.000000,1,COMPLETED_SUCCESSFULLY,73.015140,154.250029,227.265169,72.018055,226.268084,1.466892,40,-1.000000,""
40,w0,python3action_videoprocessing_SampleVideo_50mb,0.000000,1,-1.000000,1,COMPLETED_SUCCESSFULLY,227.265169,0.000010,227.265179,227.265169,227.265179,22726517.922286,39,-1.000000,""
43,w0,python3action_videoprocessing_SampleVideo_50mb,0.000000,1,-1.000000,1,COMPLETED_SUCCESSFULLY,227.265199,0.000010,227.265209,227.265199,227.265209,22726520.922688,40,-1.000000,""
python3action_facedetection_job103_36,w0,python3action_facedetection_reduced_0.91,0.997085,1,2000.000000,1,COMPLETED_SUCCESSFULLY,227.265244,0.000000,227.265244,226.268159,226.268159,1961829252417.353760,40,-1.000000,""
65_updated,w0,python3action_facedetection_SampleVideo_30mb_nova,0.997085,1,2000.000000,1,COMPLETED_SUCCESSFULLY,68.541933,160.399990,228.941923,67.544848,227.944838,1.421103,10,-1.000000,""
65,w0,python3action_facedetection_SampleVideo_30mb,0.000000,1,-1.000000,1,COMPLETED_SUCCESSFULLY,228.941938,0.000010,228.941948,228.941938,228.941948,22894194.823505,10,-1.000000,""
python3action_pyaes_job101_9,w0,python3action_pyaes_reduced_0.85,0.997085,1,2000.000000,1,COMPLETED_SUCCESSFULLY,228.941968,0.320244,229.262212,227.944883,228.265127,712.785612,10,-1.000000,""
python3action_chameleon_job102_35,w0,python3action_chameleon,0.997085,1,2000.000000,1,COMPLETED_SUCCESSFULLY,227.265214,5.040826,232.306040,226.268129,231.308955,45.887116,39,-1.000000,""
115_updated,w0,python3action_modeltraining_reviews100mb_nova,0.997085,1,2000.000000,1,COMPLETED_SUCCESSFULLY,154.237111,79.600010,233.837121,153.240026,232.840036,2.925126,18,-1.000000,""
115,w0,python3action_modeltraining_reviews100mb,0.000000,1,-1.000000,1,COMPLETED_SUCCESSFULLY,233.837136,0.000010,233.837146,233.837136,233.837146,23383714.600201,18,-1.000000,""
51_updated,w0,python3action_modeltraining_reviews50mb_nova,0.997085,1,2000.000000,1,COMPLETED_SUCCESSFULLY,191.901863,42.399990,234.301853,190.904778,233.304768,5.502472,2,-1.000000,""
51,w0,python3action_modeltraining_reviews50mb,0.000000,1,-1.000000,1,COMPLETED_SUCCESSFULLY,234.301868,0.000010,234.301878,234.301868,234.301878,23430187.847612,2,-1.000000,""
57_updated,w0,python3action_facedetection_SampleVideo_30mb_nova,0.997085,1,2000.000000,1,COMPLETED_SUCCESSFULLY,73.901968,160.399990,234.301958,72.904883,233.304873,1.454519,6,-1.000000,""
57,w0,python3action_facedetection_SampleVideo_30mb,0.000000,1,-1.000000,1,COMPLETED_SUCCESSFULLY,234.301973,0.000010,234.301983,234.301973,234.301983,23430198.324107,6,-1.000000,""
python3action_pyaes_job91_1,w0,python3action_pyaes,0.997085,1,2000.000000,1,COMPLETED_SUCCESSFULLY,234.301898,2.134958,236.436857,233.304813,235.439772,110.278397,2,-1.000000,""
python3action_floatoperation_job95_5,w0,python3action_floatoperation,0.997085,1,2000.000000,1,COMPLETED_SUCCESSFULLY,234.302003,2.439945,236.741949,233.304918,235.744864,96.618914,6,-1.000000,""
python3action_image_processing_job60_27,w0,python3action_image_processing_reduced_0.86,0.997085,1,2000.000000,1,COMPLETED_SUCCESSFULLY,227.265064,9.731413,236.996477,226.267979,235.999392,24.251298,30,-1.000000,""
80_updated,w0,python3action_facedetection_SampleVideo_50mb_taurus,0.997085,1,2000.000000,1,COMPLETED_SUCCESSFULLY,105.615247,134.600046,240.215293,104.618162,239.218208,1.777252,32,-1.000000,""
80,w0,python3action_facedetection_SampleVideo_50mb,0.000000,1,-1.000000,1,COMPLETED_SUCCESSFULLY,240.215308,0.000010,240.215318,240.215308,240.215318,24021531.814082,32,-1.000000,""
python3action_video_processing_job119_29,w0,python3action_video_processing_reduced_1.83,0.997085,1,2000.000000,1,COMPLETED_SUCCESSFULLY,240.215338,0.000000,240.215338,239.218253,239.218253,2074111392087.787354,32,-1.000000,""
85_updated,w0,python3action_facedetection_SampleVideo_50mb_taurus,0.997085,1,2000.000000,1,COMPLETED_SUCCESSFULLY,105.615337,134.600046,240.215383,104.618252,239.218298,1.777253,36,-1.000000,""
85,w0,python3action_facedetection_SampleVideo_50mb,0.000000,1,-1.000000,1,COMPLETED_SUCCESSFULLY,240.215398,0.000010,240.215408,240.215398,240.215408,24021540.815286,36,-1.000000,""
97_updated,w0,python3action_facedetection_SampleVideo_50mb_taurus,0.997085,1,2000.000000,1,COMPLETED_SUCCESSFULLY,105.615367,134.600046,240.215413,104.618282,239.218328,1.777253,38,-1.000000,""
97,w0,python3action_facedetection_SampleVideo_50mb,0.000000,1,-1.000000,1,COMPLETED_SUCCESSFULLY,240.215443,0.000010,240.215453,240.215443,240.215453,24021545.315889,38,-1.000000,""
122_updated,w0,python3action_linpack_5000_nova,0.997085,1,2000.000000,1,COMPLETED_SUCCESSFULLY,207.482436,34.600010,242.082446,206.485351,241.085361,6.967783,22,-1.000000,""
122,w0,python3action_linpack_5000,0.000000,1,-1.000000,1,COMPLETED_SUCCESSFULLY,242.082461,0.000010,242.082471,242.082461,242.082471,24208247.107280,22,-1.000000,""
69_updated,w0,python3action_modeltraining_reviews100mb_nova,0.997085,1,2000.000000,1,COMPLETED_SUCCESSFULLY,169.341974,79.600010,248.941984,168.344889,247.944899,3.114885,15,-1.000000,""
69,w0,python3action_modeltraining_reviews100mb,0.000000,1,-1.000000,1,COMPLETED_SUCCESSFULLY,248.941999,0.000010,248.942009,248.941999,248.942009,24894200.900201,15,-1.000000,""
58_updated,w0,python3action_modeltraining_reviews100mb_nova,0.997085,1,2000.000000,1,COMPLETED_SUCCESSFULLY,173.236901,79.600010,252.836911,172.239816,251.839826,3.163817,7,-1.000000,""
58,w0,python3action_modeltraining_reviews100mb,0.000000,1,-1.000000,1,COMPLETED_SUCCESSFULLY,252.836926,0.000010,252.836936,252.836926,252.836936,25283693.600201,7,-1.000000,""
117_updated,w0,python3action_pyaes_3000_nova,0.997085,1,2000.000000,1,COMPLETED_SUCCESSFULLY,177.962684,78.200020,256.162704,176.965599,255.165619,3.262987,19,-1.000000,""
117,w0,python3action_pyaes_3000,0.000000,1,-1.000000,1,COMPLETED_SUCCESSFULLY,256.162719,0.000010,256.162729,256.162719,256.162729,25616272.900201,19,-1.000000,""
70_updated,w0,python3action_videoprocessing_SampleVideo_50mb_taurus,0.997085,1,2000.000000,1,COMPLETED_SUCCESSFULLY,105.615142,154.250029,259.865170,104.618057,258.868085,1.678237,31,-1.000000,""
70,w0,python3action_videoprocessing_SampleVideo_50mb,0.000000,1,-1.000000,1,COMPLETED_SUCCESSFULLY,259.865185,0.000010,259.865195,259.865185,259.865195,25986519.535164,31,-1.000000,""
83_updated,w0,python3action_videoprocessing_SampleVideo_50mb_taurus,0.997085,1,2000.000000,1,COMPLETED_SUCCESSFULLY,105.615307,154.250029,259.865336,104.618222,258.868251,1.678238,35,-1.000000,""
83,w0,python3action_videoprocessing_SampleVideo_50mb,0.000000,1,-1.000000,1,COMPLETED_SUCCESSFULLY,259.865351,0.000010,259.865361,259.865351,259.865361,25986536.100201,35,-1.000000,""
107_updated,w0,python3action_modeltraining_reviews100mb_nova,0.997085,1,2000.000000,1,COMPLETED_SUCCESSFULLY,180.702113,79.600010,260.302123,179.705028,259.305038,3.257601,14,-1.000000,""
107,w0,python3action_modeltraining_reviews100mb,0.000000,1,-1.000000,1,COMPLETED_SUCCESSFULLY,260.302138,0.000010,260.302148,260.302138,260.302148,26030214.802811,14,-1.000000,""
90_updated,w0,python3action_linpack_6000_taurus,0.997085,1,2000.000000,1,COMPLETED_SUCCESSFULLY,111.376234,157.600046,268.976280,110.379149,267.979195,1.700375,37,-1.000000,""
90,w0,python3action_linpack_6000,0.000000,1,-1.000000,1,COMPLETED_SUCCESSFULLY,268.976295,0.000010,268.976305,268.976295,268.976305,26897630.537754,37,-1.000000,""
python3action_video_processing_job132_33,w0,python3action_video_processing_reduced_0.91,0.997085,1,2000.000000,1,COMPLETED_SUCCESSFULLY,268.976325,0.000000,268.976325,267.979240,267.979240,2323479868327.096191,37,-1.000000,""
60_updated,w0,python3action_imageprocessing_SampleImage_40mb_taurus,0.997085,1,2000.000000,1,COMPLETED_SUCCESSFULLY,236.996492,32.600046,269.596538,235.999407,268.599453,8.239235,30,-1.000000,""
60,w0,python3action_imageprocessing_SampleImage_40mb,0.000000,1,-1.000000,1,COMPLETED_SUCCESSFULLY,269.596553,0.000010,269.596563,269.596553,269.596563,26959656.322344,30,-1.000000,""
92_updated,w0,python3action_floatoperation_100000000_nova,0.997085,1,2000.000000,1,COMPLETED_SUCCESSFULLY,205.042176,66.200020,271.242196,204.045091,270.245111,4.082251,3,-1.000000,""
92,w0,python3action_floatoperation_100000000,0.000000,1,-1.000000,1,COMPLETED_SUCCESSFULLY,271.242211,0.000010,271.242221,271.242211,271.242221,27124222.100201,3,-1.000000,""
72_updated,w0,python3action_modeltraining_reviews100mb_nova,0.997085,1,2000.000000,1,COMPLETED_SUCCESSFULLY,191.902103,79.600010,271.502113,190.905018,270.505028,3.398304,16,-1.000000,""
72,w0,python3action_modeltraining_reviews100mb,0.000000,1,-1.000000,1,COMPLETED_SUCCESSFULLY,271.502128,0.000010,271.502138,271.502128,271.502138,27150213.800201,16,-1.000000,""
82_updated,w0,python3action_imageprocessing_SampleImage_60mb_troll,0.997085,1,2000.000000,1,COMPLETED_SUCCESSFULLY,209.769684,62.000000,271.769684,208.772599,270.772599,4.367300,47,-1.000000,""
82,w0,python3action_imageprocessing_SampleImage_60mb,0.000000,1,-1.000000,1,COMPLETED_SUCCESSFULLY,271.769699,0.000010,271.769709,271.769699,271.769709,27176970.900201,47,-1.000000,""
61_updated,w0,python3action_pyaes_3000_nova,0.997085,1,2000.000000,1,COMPLETED_SUCCESSFULLY,194.036911,78.200020,272.236931,193.039826,271.239846,3.468539,8,-1.000000,""
61,w0,python3action_pyaes_3000,0.000000,1,-1.000000,1,COMPLETED_SUCCESSFULLY,272.236946,0.000010,272.236956,272.236946,272.236956,27223695.601869,8,-1.000000,""
python3action_linpack_job127_2,w0,python3action_linpack,0.997085,1,2000.000000,1,COMPLETED_SUCCESSFULLY,271.242241,2.439945,273.682186,270.245156,272.685101,111.758695,3,-1.000000,""
python3action_floatoperation_job110_14,w0,python3action_floatoperation,0.997085,1,2000.000000,1,COMPLETED_SUCCESSFULLY,271.502158,2.439945,273.942103,270.505073,272.945018,111.865221,16,-1.000000,""
154_updated,w0,python3action_modeltraining_reviews50mb_nova,0.997085,1,2000.000000,1,COMPLETED_SUCCESSFULLY,233.837166,42.399990,276.237156,232.840081,275.240071,6.491513,18,-1.000000,""
154,w0,python3action_modeltraining_reviews50mb,0.000000,1,-1.000000,1,COMPLETED_SUCCESSFULLY,276.237171,0.000010,276.237181,276.237171,276.237181,27623718.123907,18,-1.000000,""
161_updated,w0,python3action_linpack_5000_nova,0.997085,1,2000.000000,1,COMPLETED_SUCCESSFULLY,242.082491,34.600010,276.682501,241.085406,275.685416,7.967784,22,-1.000000,""
161,w0,python3action_linpack_5000,0.000000,1,-1.000000,1,COMPLETED_SUCCESSFULLY,276.682516,0.000010,276.682526,276.682516,276.682526,27668252.600201,22,-1.000000,""
98_updated,w0,python3action_imageprocessing_SampleImage_60mb_troll,0.997085,1,2000.000000,1,COMPLETED_SUCCESSFULLY,217.269679,62.000000,279.269679,216.272594,278.272594,4.488268,44,-1.000000,""
98,w0,python3action_imageprocessing_SampleImage_60mb,0.000000,1,-1.000000,1,COMPLETED_SUCCESSFULLY,279.269694,0.000010,279.269704,279.269694,279.269704,27926970.400803,44,-1.000000,""
109_updated,w0,python3action_imageprocessing_SampleImage_60mb_troll,0.997085,1,2000.000000,1,COMPLETED_SUCCESSFULLY,217.269724,62.000000,279.269724,216.272639,278.272639,4.488268,46,-1.000000,""
109,w0,python3action_imageprocessing_SampleImage_60mb,0.000000,1,-1.000000,1,COMPLETED_SUCCESSFULLY,279.269754,0.000010,279.269764,279.269754,279.269764,27926976.401606,46,-1.000000,""
79_updated,w0,python3action_pyaes_4000_nova,0.997085,1,2000.000000,1,COMPLETED_SUCCESSFULLY,140.977339,139.600010,280.577349,139.980254,279.580264,2.002724,21,-1.000000,""
79,w0,python3action_pyaes_4000,0.000000,1,-1.000000,1,COMPLETED_SUCCESSFULLY,280.577364,0.000010,280.577374,280.577364,280.577374,28057737.401266,21,-1.000000,""
153_updated,w0,python3action_floatoperation_100000000_nova,0.997085,1,2000.000000,1,COMPLETED_SUCCESSFULLY,215.002654,66.200020,281.202674,214.005569,280.205589,4.232712,17,-1.000000,""
153,w0,python3action_floatoperation_100000000,0.000000,1,-1.000000,1,COMPLETED_SUCCESSFULLY,281.202689,0.000010,281.202699,281.202689,281.202699,28120269.900201,17,-1.000000,""
python3action_video_processing_job156_17,w0,python3action_video_processing,0.997085,1,2000.000000,1,COMPLETED_SUCCESSFULLY,256.162749,30.499683,286.662432,255.165664,285.665347,9.366174,19,-1.000000,""
108_updated,w0,python3action_modeltraining_reviews50mb_nova,0.997085,1,2000.000000,1,COMPLETED_SUCCESSFULLY,248.942029,42.399990,291.342019,247.944944,290.344934,6.847759,15,-1.000000,""
108,w0,python3action_modeltraining_reviews50mb,0.000000,1,-1.000000,1,COMPLETED_SUCCESSFULLY,291.342034,0.000010,291.342044,291.342034,291.342044,29134204.423907,15,-1.000000,""
94_updated,w0,python3action_pyaes_3000_nova,0.997085,1,2000.000000,1,COMPLETED_SUCCESSFULLY,213.876847,78.200020,292.076867,212.879762,291.079782,3.722247,5,-1.000000,""
94,w0,python3action_pyaes_3000,0.000000,1,-1.000000,1,COMPLETED_SUCCESSFULLY,292.076882,0.000010,292.076892,292.076882,292.076892,29207689.200201,5,-1.000000,""
python3action_linpack_job130_4,w0,python3action_linpack_reduced_0.85,0.997085,1,2000.000000,1,COMPLETED_SUCCESSFULLY,292.076912,0.365992,292.442904,291.079827,291.445819,796.317905,5,-1.000000,""
116_updated,w0,python3action_imageprocessing_SampleImage_40mb_taurus,0.997085,1,2000.000000,1,COMPLETED_SUCCESSFULLY,259.865215,32.600046,292.465261,258.868130,291.468176,8.940729,31,-1.000000,""
116,w0,python3action_imageprocessing_SampleImage_40mb,0.000000,1,-1.000000,1,COMPLETED_SUCCESSFULLY,292.465276,0.000010,292.465286,292.465276,292.465286,29246528.648844,31,-1.000000,""
123_updated,w0,python3action_imageprocessing_SampleImage_40mb_taurus,0.997085,1,2000.000000,1,COMPLETED_SUCCESSFULLY,259.865381,32.600046,292.465427,258.868296,291.468342,8.940734,35,-1.000000,""
123,w0,python3action_imageprocessing_SampleImage_40mb,0.000000,1,-1.000000,1,COMPLETED_SUCCESSFULLY,292.465442,0.000010,292.465452,292.465442,292.465452,29246545.213882,35,-1.000000,""
python3action_facedetection_job170_31,w0,python3action_facedetection_reduced_1.83,0.997085,1,2000.000000,1,COMPLETED_SUCCESSFULLY,292.465472,0.000000,292.465472,291.468387,291.468387,2527139523255.100586,35,-1.000000,""
python3action_pyaes_job150_13,w0,python3action_pyaes,0.997085,1,2000.000000,1,COMPLETED_SUCCESSFULLY,291.342064,2.134958,293.477022,290.344979,292.479937,136.995625,15,-1.000000,""
124_updated,w0,python3action_modeltraining_reviews100mb_nova,0.997085,1,2000.000000,1,COMPLETED_SUCCESSFULLY,215.637161,79.600010,295.237171,214.640076,294.240086,3.696483,24,-1.000000,""
124,w0,python3action_modeltraining_reviews100mb,0.000000,1,-1.000000,1,COMPLETED_SUCCESSFULLY,295.237186,0.000010,295.237196,295.237186,295.237196,29523719.601004,24,-1.000000,""
102_updated,w0,python3action_chameleon_2000_taurus,0.997085,1,2000.000000,1,COMPLETED_SUCCESSFULLY,232.306055,64.199977,296.506032,231.308970,295.508947,4.602945,39,-1.000000,""
102,w0,python3action_chameleon_2000,0.000000,1,-1.000000,1,COMPLETED_SUCCESSFULLY,296.506047,0.000010,296.506057,296.506047,296.506057,29650605.700201,39,-1.000000,""
python3action_floatoperation_job162_21,w0,python3action_floatoperation,0.997085,1,2000.000000,1,COMPLETED_SUCCESSFULLY,295.237216,2.439945,297.677161,294.240131,296.680076,121.592921,24,-1.000000,""
67_updated,w0,python3action_videoprocessing_SampleVideo_30mb_nova,0.997085,1,2000.000000,1,COMPLETED_SUCCESSFULLY,191.902043,106.799980,298.702023,190.904958,297.704938,2.787500,13,-1.000000,""
67,w0,python3action_videoprocessing_SampleVideo_30mb,0.000000,1,-1.000000,1,COMPLETED_SUCCESSFULLY,298.702038,0.000010,298.702048,298.702038,298.702048,29870204.846810,13,-1.000000,""
143_updated,w0,python3action_pyaes_3000_nova,0.997085,1,2000.000000,1,COMPLETED_SUCCESSFULLY,222.877046,78.200020,301.077066,221.879961,300.079981,3.837339,9,-1.000000,""
143,w0,python3action_pyaes_3000,0.000000,1,-1.000000,1,COMPLETED_SUCCESSFULLY,301.077081,0.000010,301.077091,301.077081,301.077091,30107709.100201,9,-1.000000,""
python3action_video_processing_job182_8,w0,python3action_video_processing_reduced_0.97,0.997085,1,2000.000000,1,COMPLETED_SUCCESSFULLY,301.077111,0.000000,301.077111,300.080026,300.080026,6145592137033.792969,9,-1.000000,""
python3action_floatoperation_job105_11,w0,python3action_floatoperation,0.997085,1,2000.000000,1,COMPLETED_SUCCESSFULLY,298.702068,2.439945,301.142014,297.704983,300.144929,123.012975,13,-1.000000,""
114_updated,w0,python3action_imageprocessing_SampleImage_40mb_taurus,0.997085,1,2000.000000,1,COMPLETED_SUCCESSFULLY,269.596583,32.600046,302.196629,268.599498,301.199544,9.239237,30,-1.000000,""
114,w0,python3action_imageprocessing_SampleImage_40mb,0.000000,1,-1.000000,1,COMPLETED_SUCCESSFULLY,302.196644,0.000010,302.196654,302.196644,302.196654,30219665.436025,30,-1.000000,""
python3action_facedetection_job159_27,w0,python3action_facedetection_reduced_1.83,0.997085,1,2000.000000,1,COMPLETED_SUCCESSFULLY,302.196674,0.000000,302.196674,301.199589,301.199589,2611512672548.012207,30,-1.000000,""
88_updated,w0,python3action_chameleon_3000_troll,0.997085,1,2000.000000,1,COMPLETED_SUCCESSFULLY,209.769744,94.000000,303.769744,208.772659,302.772659,3.220986,48,-1.000000,""
88,w0,python3action_chameleon_3000,0.000000,1,-1.000000,1,COMPLETED_SUCCESSFULLY,303.769759,0.000010,303.769769,303.769759,303.769769,30376976.900803,48,-1.000000,""
101_updated,w0,python3action_pyaes_3000_nova,0.997085,1,2000.000000,1,COMPLETED_SUCCESSFULLY,229.262227,78.200020,307.462247,228.265142,306.465162,3.918991,10,-1.000000,""
101,w0,python3action_pyaes_3000,0.000000,1,-1.000000,1,COMPLETED_SUCCESSFULLY,307.462262,0.000010,307.462272,307.462262,307.462272,30746227.200201,10,-1.000000,""
127_updated,w0,python3action_linpack_5000_nova,0.997085,1,2000.000000,1,COMPLETED_SUCCESSFULLY,273.682201,34.600010,308.282211,272.685116,307.285126,8.881071,3,-1.000000,""
127,w0,python3action_linpack_5000,0.000000,1,-1.000000,1,COMPLETED_SUCCESSFULLY,308.282226,0.000010,308.282236,308.282226,308.282236,30828223.607281,3,-1.000000,""
120_updated,w0,python3action_facedetection_SampleVideo_50mb_taurus,0.997085,1,2000.000000,1,COMPLETED_SUCCESSFULLY,174.855989,134.600046,309.456036,173.858904,308.458951,2.291670,33,-1.000000,""
120,w0,python3action_facedetection_SampleVideo_50mb,0.000000,1,-1.000000,1,COMPLETED_SUCCESSFULLY,309.456051,0.000010,309.456061,309.456051,309.456061,30945606.100201,33,-1.000000,""
python3action_video_processing_job169_30,w0,python3action_video_processing_reduced_1.83,0.997085,1,2000.000000,1,COMPLETED_SUCCESSFULLY,309.456081,0.000000,309.456081,308.458996,308.458996,2674454433126.554199,33,-1.000000,""
python3action_floatoperation_job145_9,w0,python3action_floatoperation,0.997085,1,2000.000000,1,COMPLETED_SUCCESSFULLY,307.462292,2.439945,309.902237,306.465207,308.905152,126.603311,10,-1.000000,""
111_updated,w0,python3action_chameleon_2000_troll,0.997085,1,2000.000000,1,COMPLETED_SUCCESSFULLY,271.769729,39.500010,311.269739,270.772644,310.272654,7.855002,47,-1.000000,""
111,w0,python3action_chameleon_2000,0.000000,1,-1.000000,1,COMPLETED_SUCCESSFULLY,311.269754,0.000010,311.269764,311.269754,311.269764,31126976.400201,47,-1.000000,""
python3action_modeltraining_job194_15,w0,python3action_modeltraining,0.997085,1,2000.000000,1,COMPLETED_SUCCESSFULLY,281.202719,30.499683,311.702402,280.205634,310.705317,10.187166,17,-1.000000,""
118_updated,w0,python3action_floatoperation_200000000_nova,0.997085,1,2000.000000,1,COMPLETED_SUCCESSFULLY,183.142149,135.399990,318.542139,182.145064,317.545054,2.345237,20,-1.000000,""
118,w0,python3action_floatoperation_200000000,0.000000,1,-1.000000,1,COMPLETED_SUCCESSFULLY,318.542154,0.000010,318.542164,318.542154,318.542164,31854216.423506,20,-1.000000,""
140_updated,w0,python3action_chameleon_2000_troll,0.997085,1,2000.000000,1,COMPLETED_SUCCESSFULLY,279.269724,39.500010,318.769734,278.272639,317.772649,8.044875,44,-1.000000,""
140,w0,python3action_chameleon_2000,0.000000,1,-1.000000,1,COMPLETED_SUCCESSFULLY,318.769749,0.000010,318.769759,318.769749,318.769759,31876975.900201,44,-1.000000,""
142_updated,w0,python3action_chameleon_2000_troll,0.997085,1,2000.000000,1,COMPLETED_SUCCESSFULLY,279.269784,39.500010,318.769794,278.272699,317.772709,8.044877,46,-1.000000,""
142,w0,python3action_chameleon_2000,0.000000,1,-1.000000,1,COMPLETED_SUCCESSFULLY,318.769809,0.000010,318.769819,318.769809,318.769819,31876981.900201,46,-1.000000,""
104_updated,w0,python3action_pyaes_4000_nova,0.997085,1,2000.000000,1,COMPLETED_SUCCESSFULLY,182.837011,139.600010,322.437021,181.839926,321.439936,2.302578,11,-1.000000,""
104,w0,python3action_pyaes_4000,0.000000,1,-1.000000,1,COMPLETED_SUCCESSFULLY,322.437036,0.000010,322.437046,322.437036,322.437046,32243704.625776,11,-1.000000,""
python3action_linpack_job147_10,w0,python3action_linpack_reduced_0.85,0.997085,1,2000.000000,1,COMPLETED_SUCCESSFULLY,322.437066,0.365992,322.803058,321.439981,321.805973,879.271006,11,-1.000000,""
63_updated,w0,python3action_linpack_6000_orion,0.997085,1,2000.000000,1,COMPLETED_SUCCESSFULLY,218.763462,106.000000,324.763462,217.766377,323.766377,3.054400,26,-1.000000,""
63,w0,python3action_linpack_6000,0.000000,1,-1.000000,1,COMPLETED_SUCCESSFULLY,324.763477,0.000010,324.763487,324.763477,324.763487,32476348.729094,26,-1.000000,""
71_updated,w0,python3action_linpack_6000_orion,0.997085,1,2000.000000,1,COMPLETED_SUCCESSFULLY,218.763522,106.000000,324.763522,217.766437,323.766437,3.054400,27,-1.000000,""
71,w0,python3action_linpack_6000,0.000000,1,-1.000000,1,COMPLETED_SUCCESSFULLY,324.763537,0.000010,324.763547,324.763537,324.763547,32476354.729898,27,-1.000000,""
77_updated,w0,python3action_linpack_6000_orion,0.997085,1,2000.000000,1,COMPLETED_SUCCESSFULLY,218.763567,106.000000,324.763567,217.766482,323.766482,3.054401,28,-1.000000,""
77,w0,python3action_linpack_6000,0.000000,1,-1.000000,1,COMPLETED_SUCCESSFULLY,324.763597,0.000010,324.763607,324.763597,324.763607,32476360.730701,28,-1.000000,""
130_updated,w0,python3action_linpack_5000_nova,0.997085,1,2000.000000,1,COMPLETED_SUCCESSFULLY,292.442919,34.600010,327.042929,291.445834,326.045844,9.423288,5,-1.000000,""
130,w0,python3action_linpack_5000,0.000000,1,-1.000000,1,COMPLETED_SUCCESSFULLY,327.042944,0.000010,327.042954,327.042944,327.042954,32704295.400201,5,-1.000000,""
python3action_video_processing_job171_2,w0,python3action_video_processing,0.997085,1,2000.000000,1,COMPLETED_SUCCESSFULLY,308.282256,30.499683,338.781939,307.285171,337.784854,11.075029,3,-1.000000,""
149_updated,w0,python3action_modeltraining_reviews100mb_nova,0.997085,1,2000.000000,1,COMPLETED_SUCCESSFULLY,260.302168,79.600010,339.902178,259.305083,338.905093,4.257601,14,-1.000000,""
149,w0,python3action_modeltraining_reviews100mb,0.000000,1,-1.000000,1,COMPLETED_SUCCESSFULLY,339.902193,0.000010,339.902203,339.902193,339.902203,33990220.300201,14,-1.000000,""
136_updated,w0,python3action_chameleon_2000_troll,0.997085,1,2000.000000,1,COMPLETED_SUCCESSFULLY,303.769789,39.500010,343.269799,302.772704,342.272714,8.665130,48,-1.000000,""
136,w0,python3action_chameleon_2000,0.000000,1,-1.000000,1,COMPLETED_SUCCESSFULLY,343.269814,0.000010,343.269824,343.269814,343.269824,34326982.400201,48,-1.000000,""
129_updated,w0,python3action_pyaes_4000_nova,0.997085,1,2000.000000,1,COMPLETED_SUCCESSFULLY,210.802470,139.600010,350.402480,209.805385,349.405395,2.502904,4,-1.000000,""
129,w0,python3action_pyaes_4000,0.000000,1,-1.000000,1,COMPLETED_SUCCESSFULLY,350.402495,0.000010,350.402505,350.402495,350.402505,35040250.500201,4,-1.000000,""
146_updated,w0,python3action_chameleon_2000_troll,0.997085,1,2000.000000,1,COMPLETED_SUCCESSFULLY,311.269784,39.500010,350.769794,310.272699,349.772709,8.855003,47,-1.000000,""
146,w0,python3action_chameleon_2000,0.000000,1,-1.000000,1,COMPLETED_SUCCESSFULLY,350.769809,0.000010,350.769819,350.769809,350.769819,35076981.900201,47,-1.000000,""
147_updated,w0,python3action_linpack_5000_nova,0.997085,1,2000.000000,1,COMPLETED_SUCCESSFULLY,322.803073,34.600010,357.403083,321.805988,356.405998,10.300748,11,-1.000000,""
147,w0,python3action_linpack_5000,0.000000,1,-1.000000,1,COMPLETED_SUCCESSFULLY,357.403098,0.000010,357.403108,357.403098,357.403108,35740310.800201,11,-1.000000,""
python3action_facedetection_job184_10,w0,python3action_facedetection_reduced_1.83,0.997085,1,2000.000000,1,COMPLETED_SUCCESSFULLY,357.403128,0.000000,357.403128,356.406043,356.406043,7299140181509.856445,11,-1.000000,""
167_updated,w0,python3action_chameleon_2000_troll,0.997085,1,2000.000000,1,COMPLETED_SUCCESSFULLY,318.769839,39.500010,358.269849,317.772754,357.272764,9.044878,46,-1.000000,""
167,w0,python3action_chameleon_2000,0.000000,1,-1.000000,1,COMPLETED_SUCCESSFULLY,358.269864,0.000010,358.269874,358.269864,358.269874,35826987.400201,46,-1.000000,""
138_updated,w0,python3action_chameleon_2000_taurus,0.997085,1,2000.000000,1,COMPLETED_SUCCESSFULLY,296.506077,64.199977,360.706054,295.508992,359.708969,5.602945,39,-1.000000,""
138,w0,python3action_chameleon_2000,0.000000,1,-1.000000,1,COMPLETED_SUCCESSFULLY,360.706069,0.000010,360.706079,360.706069,360.706079,36070607.900201,39,-1.000000,""
106_updated,w0,python3action_videoprocessing_SampleVideo_50mb_taurus,0.997085,1,2000.000000,1,COMPLETED_SUCCESSFULLY,207.615277,154.250029,361.865306,206.618192,360.868221,2.339502,41,-1.000000,""
103_updated,w0,python3action_facedetection_SampleVideo_50mb_taurus,0.997085,1,2000.000000,1,COMPLETED_SUCCESSFULLY,227.265274,134.600046,361.865320,226.268189,360.868235,2.681041,40,-1.000000,""
106,w0,python3action_videoprocessing_SampleVideo_50mb,0.000000,1,-1.000000,1,COMPLETED_SUCCESSFULLY,361.865320,0.000010,361.865330,361.865320,361.865330,36186533.036971,41,-1.000000,""
103,w0,python3action_facedetection_SampleVideo_50mb,0.000000,1,-1.000000,1,COMPLETED_SUCCESSFULLY,361.865350,0.000010,361.865360,361.865350,361.865360,36186536.037373,40,-1.000000,""
162_updated,w0,python3action_floatoperation_100000000_nova,0.997085,1,2000.000000,1,COMPLETED_SUCCESSFULLY,297.677176,66.200020,363.877196,296.680091,362.880111,5.481571,24,-1.000000,""
162,w0,python3action_floatoperation_100000000,0.000000,1,-1.000000,1,COMPLETED_SUCCESSFULLY,363.877211,0.000010,363.877221,363.877211,363.877221,36387722.100201,24,-1.000000,""
125_updated,w0,python3action_facedetection_SampleVideo_30mb_nova,0.997085,1,2000.000000,1,COMPLETED_SUCCESSFULLY,208.203233,160.399990,368.603223,207.206148,367.606138,2.291809,25,-1.000000,""
125,w0,python3action_facedetection_SampleVideo_30mb,0.000000,1,-1.000000,1,COMPLETED_SUCCESSFULLY,368.603238,0.000010,368.603248,368.603238,368.603248,36860324.823506,25,-1.000000,""
python3action_floatoperation_job163_22,w0,python3action_floatoperation,0.997085,1,2000.000000,1,COMPLETED_SUCCESSFULLY,368.603268,2.439945,371.043214,367.606183,370.046129,151.661650,25,-1.000000,""
95_updated,w0,python3action_floatoperation_200000000_nova,0.997085,1,2000.000000,1,COMPLETED_SUCCESSFULLY,236.741964,135.399990,372.141954,235.744879,371.144869,2.741100,6,-1.000000,""
95,w0,python3action_floatoperation_200000000,0.000000,1,-1.000000,1,COMPLETED_SUCCESSFULLY,372.141969,0.000010,372.141979,372.141969,372.141979,37214197.923506,6,-1.000000,""
python3action_video_processing_job133_5,w0,python3action_video_processing_reduced_1.89,0.997085,1,2000.000000,1,COMPLETED_SUCCESSFULLY,372.141999,0.000000,372.141999,371.144914,371.144914,7600989965929.596680,6,-1.000000,""
131_updated,w0,python3action_facedetection_SampleVideo_50mb_taurus,0.997085,1,2000.000000,1,COMPLETED_SUCCESSFULLY,240.215428,134.600046,374.815474,239.218343,373.818389,2.777253,36,-1.000000,""
131,w0,python3action_facedetection_SampleVideo_50mb,0.000000,1,-1.000000,1,COMPLETED_SUCCESSFULLY,374.815489,0.000010,374.815499,374.815489,374.815499,37481549.928968,36,-1.000000,""
135_updated,w0,python3action_facedetection_SampleVideo_50mb_taurus,0.997085,1,2000.000000,1,COMPLETED_SUCCESSFULLY,240.215473,134.600046,374.815519,239.218388,373.818434,2.777253,38,-1.000000,""
python3action_video_processing_job185_32,w0,python3action_video_processing_reduced_1.83,0.997085,1,2000.000000,1,COMPLETED_SUCCESSFULLY,374.815519,0.000000,374.815519,373.818434,373.818434,3241145117264.153809,36,-1.000000,""
135,w0,python3action_facedetection_SampleVideo_50mb,0.000000,1,-1.000000,1,COMPLETED_SUCCESSFULLY,374.815549,0.000010,374.815559,374.815549,374.815559,37481555.929771,38,-1.000000,""
91_updated,w0,python3action_pyaes_4000_nova,0.997085,1,2000.000000,1,COMPLETED_SUCCESSFULLY,236.436872,139.600010,376.036882,235.439787,375.039797,2.686531,2,-1.000000,""
91,w0,python3action_pyaes_4000,0.000000,1,-1.000000,1,COMPLETED_SUCCESSFULLY,376.036897,0.000010,376.036907,376.036897,376.036907,37603690.700201,2,-1.000000,""
145_updated,w0,python3action_floatoperation_100000000_nova,0.997085,1,2000.000000,1,COMPLETED_SUCCESSFULLY,309.902252,66.200020,376.102272,308.905167,375.105187,5.666240,10,-1.000000,""
145,w0,python3action_floatoperation_100000000,0.000000,1,-1.000000,1,COMPLETED_SUCCESSFULLY,376.102287,0.000010,376.102297,376.102287,376.102297,37610229.700201,10,-1.000000,""
python3action_linpack_job126_1,w0,python3action_linpack_reduced_0.85,0.997085,1,2000.000000,1,COMPLETED_SUCCESSFULLY,376.036927,0.365992,376.402919,375.039842,375.405834,1025.721997,2,-1.000000,""
52_updated,w0,python3action_videoprocessing_SampleVideo_50mb_taurus,0.997085,1,2000.000000,1,COMPLETED_SUCCESSFULLY,227.265019,154.250029,381.515048,226.267934,380.517963,2.466891,29,-1.000000,""
52,w0,python3action_videoprocessing_SampleVideo_50mb,0.000000,1,-1.000000,1,COMPLETED_SUCCESSFULLY,381.515063,0.000010,381.515073,381.515063,381.515073,38151507.303654,29,-1.000000,""
python3action_facedetection_job113_26,w0,python3action_facedetection_reduced_0.91,0.997085,1,2000.000000,1,COMPLETED_SUCCESSFULLY,381.515093,0.000000,381.515093,380.518008,380.518008,3299232918039.446777,29,-1.000000,""
155_updated,w0,python3action_chameleon_2000_troll,0.997085,1,2000.000000,1,COMPLETED_SUCCESSFULLY,343.269844,39.500010,382.769854,342.272759,381.772769,9.665131,48,-1.000000,""
155,w0,python3action_chameleon_2000,0.000000,1,-1.000000,1,COMPLETED_SUCCESSFULLY,382.769869,0.000010,382.769879,382.769869,382.769879,38276987.900201,48,-1.000000,""
172_updated,w0,python3action_linpack_5000_nova,0.997085,1,2000.000000,1,COMPLETED_SUCCESSFULLY,350.402525,34.600010,385.002535,349.405440,384.005450,11.098420,4,-1.000000,""
172,w0,python3action_linpack_5000,0.000000,1,-1.000000,1,COMPLETED_SUCCESSFULLY,385.002550,0.000010,385.002560,385.002550,385.002560,38500256.000201,4,-1.000000,""
194_updated,w0,python3action_modeltraining_reviews100mb_nova,0.997085,1,2000.000000,1,COMPLETED_SUCCESSFULLY,311.702417,79.600010,391.302427,310.705332,390.305342,4.903333,17,-1.000000,""
194,w0,python3action_modeltraining_reviews100mb,0.000000,1,-1.000000,1,COMPLETED_SUCCESSFULLY,391.302442,0.000010,391.302452,391.302442,391.302452,39130245.200201,17,-1.000000,""
96_updated,w0,python3action_pyaes_4000_nova,0.997085,1,2000.000000,1,COMPLETED_SUCCESSFULLY,252.836956,139.600010,392.436966,251.839871,391.439881,2.804010,7,-1.000000,""
96,w0,python3action_pyaes_4000,0.000000,1,-1.000000,1,COMPLETED_SUCCESSFULLY,392.436981,0.000010,392.436991,392.436981,392.436991,39243699.100201,7,-1.000000,""
python3action_facedetection_job134_6,w0,python3action_facedetection_reduced_0.91,0.997085,1,2000.000000,1,COMPLETED_SUCCESSFULLY,392.437011,0.000000,392.437011,391.439926,391.439926,8016628642038.730469,7,-1.000000,""
119_updated,w0,python3action_videoprocessing_SampleVideo_50mb_taurus,0.997085,1,2000.000000,1,COMPLETED_SUCCESSFULLY,240.215368,154.250029,394.465397,239.218283,393.468312,2.550848,32,-1.000000,""
119,w0,python3action_videoprocessing_SampleVideo_50mb,0.000000,1,-1.000000,1,COMPLETED_SUCCESSFULLY,394.465412,0.000010,394.465422,394.465412,394.465422,39446542.200201,32,-1.000000,""
179_updated,w0,python3action_chameleon_2000_troll,0.997085,1,2000.000000,1,COMPLETED_SUCCESSFULLY,358.269894,39.500010,397.769904,357.272809,396.772819,10.044879,46,-1.000000,""
179,w0,python3action_chameleon_2000,0.000000,1,-1.000000,1,COMPLETED_SUCCESSFULLY,397.769919,0.000010,397.769929,397.769919,397.769929,39776992.900201,46,-1.000000,""
157_updated,w0,python3action_modeltraining_reviews100mb_nova,0.997085,1,2000.000000,1,COMPLETED_SUCCESSFULLY,318.542184,79.600010,398.142194,317.545099,397.145109,4.989260,20,-1.000000,""
157,w0,python3action_modeltraining_reviews100mb,0.000000,1,-1.000000,1,COMPLETED_SUCCESSFULLY,398.142209,0.000010,398.142219,398.142209,398.142219,39814221.901005,20,-1.000000,""
174_updated,w0,python3action_pyaes_3000_nova,0.997085,1,2000.000000,1,COMPLETED_SUCCESSFULLY,327.042974,78.200020,405.242994,326.045889,404.245909,5.169384,5,-1.000000,""
174,w0,python3action_pyaes_3000,0.000000,1,-1.000000,1,COMPLETED_SUCCESSFULLY,405.243009,0.000010,405.243019,405.243009,405.243019,40524301.900201,5,-1.000000,""
182_updated,w0,python3action_videoprocessing_SampleVideo_30mb_nova,0.997085,1,2000.000000,1,COMPLETED_SUCCESSFULLY,301.077141,106.799980,407.877121,300.080056,406.880036,3.809739,9,-1.000000,""
182,w0,python3action_videoprocessing_SampleVideo_30mb,0.000000,1,-1.000000,1,COMPLETED_SUCCESSFULLY,407.877136,0.000010,407.877146,407.877136,407.877146,40787714.647413,9,-1.000000,""
110_updated,w0,python3action_floatoperation_200000000_nova,0.997085,1,2000.000000,1,COMPLETED_SUCCESSFULLY,273.942118,135.399990,409.342109,272.945033,408.345024,3.015842,16,-1.000000,""
110,w0,python3action_floatoperation_200000000,0.000000,1,-1.000000,1,COMPLETED_SUCCESSFULLY,409.342124,0.000010,409.342134,409.342124,409.342134,40934213.400201,16,-1.000000,""
183_updated,w0,python3action_linpack_5000_nova,0.997085,1,2000.000000,1,COMPLETED_SUCCESSFULLY,376.102317,34.600010,410.702327,375.105232,409.705242,11.841189,10,-1.000000,""
183,w0,python3action_linpack_5000,0.000000,1,-1.000000,1,COMPLETED_SUCCESSFULLY,410.702342,0.000010,410.702352,410.702342,410.702352,41070235.200201,10,-1.000000,""
126_updated,w0,python3action_linpack_5000_nova,0.997085,1,2000.000000,1,COMPLETED_SUCCESSFULLY,376.402934,34.600010,411.002944,375.405849,410.005859,11.849877,2,-1.000000,""
126,w0,python3action_linpack_5000,0.000000,1,-1.000000,1,COMPLETED_SUCCESSFULLY,411.002959,0.000010,411.002969,411.002959,411.002969,41100296.900201,2,-1.000000,""
python3action_linpack_job152_14,w0,python3action_linpack,0.997085,1,2000.000000,1,COMPLETED_SUCCESSFULLY,409.342154,2.439945,411.782099,408.345069,410.785014,168.358289,16,-1.000000,""
99_updated,w0,python3action_pyaes_4000_nova,0.997085,1,2000.000000,1,COMPLETED_SUCCESSFULLY,272.236976,139.600010,411.836986,271.239891,410.839901,2.942979,8,-1.000000,""
99,w0,python3action_pyaes_4000,0.000000,1,-1.000000,1,COMPLETED_SUCCESSFULLY,411.837001,0.000010,411.837011,411.837001,411.837011,41183701.100201,8,-1.000000,""
165_updated,w0,python3action_chameleon_3000_troll,0.997085,1,2000.000000,1,COMPLETED_SUCCESSFULLY,318.769779,94.000000,412.769779,317.772694,411.772694,4.380561,44,-1.000000,""
165,w0,python3action_chameleon_3000,0.000000,1,-1.000000,1,COMPLETED_SUCCESSFULLY,412.769794,0.000010,412.769804,412.769794,412.769804,41276980.400804,44,-1.000000,""
195_updated,w0,python3action_pyaes_4000_nova,0.997085,1,2000.000000,1,COMPLETED_SUCCESSFULLY,276.237201,139.600010,415.837211,275.240116,414.840126,2.971634,18,-1.000000,""
195,w0,python3action_pyaes_4000,0.000000,1,-1.000000,1,COMPLETED_SUCCESSFULLY,415.837226,0.000010,415.837236,415.837226,415.837236,41583723.601407,18,-1.000000,""
121_updated,w0,python3action_floatoperation_200000000_nova,0.997085,1,2000.000000,1,COMPLETED_SUCCESSFULLY,280.577394,135.399990,415.977384,279.580309,414.980299,3.064847,21,-1.000000,""
121,w0,python3action_floatoperation_200000000,0.000000,1,-1.000000,1,COMPLETED_SUCCESSFULLY,415.977399,0.000010,415.977409,415.977399,415.977409,41597740.924973,21,-1.000000,""
189_updated,w0,python3action_modeltraining_reviews100mb_nova,0.997085,1,2000.000000,1,COMPLETED_SUCCESSFULLY,339.902223,79.600010,419.502233,338.905138,418.505148,5.257602,14,-1.000000,""
189,w0,python3action_modeltraining_reviews100mb,0.000000,1,-1.000000,1,COMPLETED_SUCCESSFULLY,419.502248,0.000010,419.502258,419.502248,419.502258,41950225.800201,14,-1.000000,""
132_updated,w0,python3action_videoprocessing_SampleVideo_50mb_taurus,0.997085,1,2000.000000,1,COMPLETED_SUCCESSFULLY,268.976355,154.250029,423.226384,267.979270,422.229299,2.737305,37,-1.000000,""
132,w0,python3action_videoprocessing_SampleVideo_50mb,0.000000,1,-1.000000,1,COMPLETED_SUCCESSFULLY,423.226399,0.000010,423.226409,423.226399,423.226409,42322640.921933,37,-1.000000,""
156_updated,w0,python3action_videoprocessing_SampleVideo_50mb_nova,0.997085,1,2000.000000,1,COMPLETED_SUCCESSFULLY,286.662447,139.600010,426.262457,285.665362,425.265372,3.046313,19,-1.000000,""
156,w0,python3action_videoprocessing_SampleVideo_50mb,0.000000,1,-1.000000,1,COMPLETED_SUCCESSFULLY,426.262472,0.000010,426.262482,426.262472,426.262482,42626248.200201,19,-1.000000,""
164_updated,w0,python3action_imageprocessing_SampleImage_40mb_taurus,0.997085,1,2000.000000,1,COMPLETED_SUCCESSFULLY,394.465442,32.600046,427.065488,393.468357,426.068403,13.069564,32,-1.000000,""
164,w0,python3action_imageprocessing_SampleImage_40mb,0.000000,1,-1.000000,1,COMPLETED_SUCCESSFULLY,427.065503,0.000010,427.065513,427.065503,427.065513,42706551.313881,32,-1.000000,""
170_updated,w0,python3action_facedetection_SampleVideo_50mb_taurus,0.997085,1,2000.000000,1,COMPLETED_SUCCESSFULLY,292.465502,134.600046,427.065548,291.468417,426.068463,3.165441,35,-1.000000,""
170,w0,python3action_facedetection_SampleVideo_50mb,0.000000,1,-1.000000,1,COMPLETED_SUCCESSFULLY,427.065563,0.000010,427.065573,427.065563,427.065573,42706557.327964,35,-1.000000,""
84_updated,w0,python3action_linpack_6000_orion,0.997085,1,2000.000000,1,COMPLETED_SUCCESSFULLY,324.763507,106.000000,430.763507,323.766422,429.766422,4.054400,26,-1.000000,""
84,w0,python3action_linpack_6000,0.000000,1,-1.000000,1,COMPLETED_SUCCESSFULLY,430.763522,0.000010,430.763532,430.763522,430.763532,43076353.229697,26,-1.000000,""
128_updated,w0,python3action_linpack_6000_orion,0.997085,1,2000.000000,1,COMPLETED_SUCCESSFULLY,324.763567,106.000000,430.763567,323.766482,429.766482,4.054401,27,-1.000000,""
128,w0,python3action_linpack_6000,0.000000,1,-1.000000,1,COMPLETED_SUCCESSFULLY,430.763582,0.000010,430.763592,430.763582,430.763592,43076359.230501,27,-1.000000,""
178_updated,w0,python3action_linpack_6000_orion,0.997085,1,2000.000000,1,COMPLETED_SUCCESSFULLY,324.763627,106.000000,430.763627,323.766542,429.766542,4.054401,28,-1.000000,""
178,w0,python3action_linpack_6000,0.000000,1,-1.000000,1,COMPLETED_SUCCESSFULLY,430.763642,0.000010,430.763652,430.763642,430.763652,43076365.231304,28,-1.000000,""
150_updated,w0,python3action_pyaes_4000_nova,0.997085,1,2000.000000,1,COMPLETED_SUCCESSFULLY,293.477037,139.600010,433.077047,292.479952,432.079962,3.095128,15,-1.000000,""
150,w0,python3action_pyaes_4000,0.000000,1,-1.000000,1,COMPLETED_SUCCESSFULLY,433.077062,0.000010,433.077072,433.077062,433.077072,43307707.225376,15,-1.000000,""
105_updated,w0,python3action_floatoperation_200000000_nova,0.997085,1,2000.000000,1,COMPLETED_SUCCESSFULLY,301.142029,135.399990,436.542019,300.144944,435.544934,3.216728,13,-1.000000,""
105,w0,python3action_floatoperation_200000000,0.000000,1,-1.000000,1,COMPLETED_SUCCESSFULLY,436.542034,0.000010,436.542044,436.542034,436.542044,43654204.423506,13,-1.000000,""
159_updated,w0,python3action_facedetection_SampleVideo_50mb_taurus,0.997085,1,2000.000000,1,COMPLETED_SUCCESSFULLY,302.196704,134.600046,436.796750,301.199619,435.799665,3.237738,30,-1.000000,""
159,w0,python3action_facedetection_SampleVideo_50mb,0.000000,1,-1.000000,1,COMPLETED_SUCCESSFULLY,436.796766,0.000010,436.796776,436.796766,436.796776,43679677.550108,30,-1.000000,""
163_updated,w0,python3action_floatoperation_100000000_nova,0.997085,1,2000.000000,1,COMPLETED_SUCCESSFULLY,371.043229,66.200020,437.243249,370.046144,436.246164,6.589819,25,-1.000000,""
163,w0,python3action_floatoperation_100000000,0.000000,1,-1.000000,1,COMPLETED_SUCCESSFULLY,437.243264,0.000010,437.243274,437.243264,437.243274,43724327.400201,25,-1.000000,""
173_updated,w0,python3action_chameleon_3000_troll,0.997085,1,2000.000000,1,COMPLETED_SUCCESSFULLY,350.769839,94.000000,444.769839,349.772754,443.772754,4.720987,47,-1.000000,""
173,w0,python3action_chameleon_3000,0.000000,1,-1.000000,1,COMPLETED_SUCCESSFULLY,444.769854,0.000010,444.769864,444.769854,444.769864,44476986.400804,47,-1.000000,""
175_updated,w0,python3action_imageprocessing_SampleImage_60mb_troll,0.997085,1,2000.000000,1,COMPLETED_SUCCESSFULLY,382.769899,62.000000,444.769899,381.772814,443.772814,7.157626,48,-1.000000,""
175,w0,python3action_imageprocessing_SampleImage_60mb,0.000000,1,-1.000000,1,COMPLETED_SUCCESSFULLY,444.769914,0.000010,444.769924,444.769914,444.769924,44476992.401004,48,-1.000000,""
171_updated,w0,python3action_videoprocessing_SampleVideo_30mb_nova,0.997085,1,2000.000000,1,COMPLETED_SUCCESSFULLY,338.781954,106.799980,445.581934,337.784869,444.584849,4.162780,3,-1.000000,""
171,w0,python3action_videoprocessing_SampleVideo_30mb,0.000000,1,-1.000000,1,COMPLETED_SUCCESSFULLY,445.581949,0.000010,445.581959,445.581949,445.581959,44558195.946609,3,-1.000000,""
152_updated,w0,python3action_linpack_5000_nova,0.997085,1,2000.000000,1,COMPLETED_SUCCESSFULLY,411.782114,34.600010,446.382124,410.785029,445.385039,12.872396,16,-1.000000,""
152,w0,python3action_linpack_5000,0.000000,1,-1.000000,1,COMPLETED_SUCCESSFULLY,446.382139,0.000010,446.382149,446.382139,446.382149,44638214.907281,16,-1.000000,""
160_updated,w0,python3action_videoprocessing_SampleVideo_50mb_taurus,0.997085,1,2000.000000,1,COMPLETED_SUCCESSFULLY,292.465306,154.250029,446.715335,291.468221,445.718250,2.889583,31,-1.000000,""
160,w0,python3action_videoprocessing_SampleVideo_50mb,0.000000,1,-1.000000,1,COMPLETED_SUCCESSFULLY,446.715350,0.000010,446.715360,446.715350,446.715360,44671536.032622,31,-1.000000,""
199_updated,w0,python3action_imageprocessing_SampleImage_40mb_taurus,0.997085,1,2000.000000,1,COMPLETED_SUCCESSFULLY,423.226429,32.600046,455.826475,422.229344,454.829390,13.951802,37,-1.000000,""
199,w0,python3action_imageprocessing_SampleImage_40mb,0.000000,1,-1.000000,1,COMPLETED_SUCCESSFULLY,455.826490,0.000010,455.826500,455.826490,455.826500,45582650.035614,37,-1.000000,""
169_updated,w0,python3action_videoprocessing_SampleVideo_50mb_taurus,0.997085,1,2000.000000,1,COMPLETED_SUCCESSFULLY,309.456111,154.250029,463.706140,308.459026,462.709055,2.999734,33,-1.000000,""
169,w0,python3action_videoprocessing_SampleVideo_50mb,0.000000,1,-1.000000,1,COMPLETED_SUCCESSFULLY,463.706155,0.000010,463.706165,463.706155,463.706165,46370616.500201,33,-1.000000,""
197_updated,w0,python3action_modeltraining_reviews100mb_nova,0.997085,1,2000.000000,1,COMPLETED_SUCCESSFULLY,398.142239,79.600010,477.742249,397.145154,476.745164,5.989260,20,-1.000000,""
197,w0,python3action_modeltraining_reviews100mb,0.000000,1,-1.000000,1,COMPLETED_SUCCESSFULLY,477.742264,0.000010,477.742274,477.742264,477.742274,47774227.400201,20,-1.000000,""
133_updated,w0,python3action_videoprocessing_SampleVideo_30mb_nova,0.997085,1,2000.000000,1,COMPLETED_SUCCESSFULLY,372.142029,106.799980,478.942010,371.144944,477.944925,4.475141,6,-1.000000,""
133,w0,python3action_videoprocessing_SampleVideo_30mb,0.000000,1,-1.000000,1,COMPLETED_SUCCESSFULLY,478.942025,0.000010,478.942035,478.942025,478.942035,47894203.500201,6,-1.000000,""
191_updated,w0,python3action_linpack_5000_nova,0.997085,1,2000.000000,1,COMPLETED_SUCCESSFULLY,446.382169,34.600010,480.982179,445.385084,479.985094,13.872398,16,-1.000000,""
191,w0,python3action_linpack_5000,0.000000,1,-1.000000,1,COMPLETED_SUCCESSFULLY,480.982194,0.000010,480.982204,480.982194,480.982204,48098220.400201,16,-1.000000,""
python3action_pyaes_job176_5,w0,python3action_pyaes,0.997085,1,2000.000000,1,COMPLETED_SUCCESSFULLY,478.942055,2.134958,481.077013,477.944970,480.079928,224.866192,6,-1.000000,""
158_updated,w0,python3action_pyaes_3000_nova,0.997085,1,2000.000000,1,COMPLETED_SUCCESSFULLY,415.977429,78.200020,494.177449,414.980344,493.180364,6.306653,21,-1.000000,""
158,w0,python3action_pyaes_3000,0.000000,1,-1.000000,1,COMPLETED_SUCCESSFULLY,494.177464,0.000010,494.177474,494.177464,494.177474,49417747.400201,21,-1.000000,""
141_updated,w0,python3action_facedetection_SampleVideo_50mb_taurus,0.997085,1,2000.000000,1,COMPLETED_SUCCESSFULLY,361.865395,134.600046,496.465442,360.868310,495.468357,3.681042,40,-1.000000,""
141,w0,python3action_facedetection_SampleVideo_50mb,0.000000,1,-1.000000,1,COMPLETED_SUCCESSFULLY,496.465457,0.000010,496.465467,496.465457,496.465467,49646546.700201,40,-1.000000,""
196_updated,w0,python3action_pyaes_3000_nova,0.997085,1,2000.000000,1,COMPLETED_SUCCESSFULLY,426.262502,78.200020,504.462522,425.265417,503.465437,6.438175,19,-1.000000,""
196,w0,python3action_pyaes_3000,0.000000,1,-1.000000,1,COMPLETED_SUCCESSFULLY,504.462537,0.000010,504.462547,504.462537,504.462547,50446254.700201,19,-1.000000,""
177_updated,w0,python3action_chameleon_3000_troll,0.997085,1,2000.000000,1,COMPLETED_SUCCESSFULLY,412.769824,94.000000,506.769824,411.772739,505.772739,5.380561,44,-1.000000,""
177,w0,python3action_chameleon_3000,0.000000,1,-1.000000,1,COMPLETED_SUCCESSFULLY,506.769839,0.000010,506.769849,506.769839,506.769849,50676984.901407,44,-1.000000,""
188_updated,w0,python3action_imageprocessing_SampleImage_60mb_troll,0.997085,1,2000.000000,1,COMPLETED_SUCCESSFULLY,444.769884,62.000000,506.769884,443.772799,505.772799,8.157626,47,-1.000000,""
188,w0,python3action_imageprocessing_SampleImage_60mb,0.000000,1,-1.000000,1,COMPLETED_SUCCESSFULLY,506.769899,0.000010,506.769909,506.769899,506.769909,50676990.901406,47,-1.000000,""
193_updated,w0,python3action_imageprocessing_SampleImage_60mb_troll,0.997085,1,2000.000000,1,COMPLETED_SUCCESSFULLY,444.769944,62.000000,506.769944,443.772859,505.772859,8.157627,48,-1.000000,""
193,w0,python3action_imageprocessing_SampleImage_60mb,0.000000,1,-1.000000,1,COMPLETED_SUCCESSFULLY,506.769959,0.000010,506.769969,506.769959,506.769969,50676996.901607,48,-1.000000,""
190_updated,w0,python3action_pyaes_3000_nova,0.997085,1,2000.000000,1,COMPLETED_SUCCESSFULLY,433.077092,78.200020,511.277112,432.080007,510.280027,6.525318,15,-1.000000,""
190,w0,python3action_pyaes_3000,0.000000,1,-1.000000,1,COMPLETED_SUCCESSFULLY,511.277127,0.000010,511.277137,511.277127,511.277137,51127713.700201,15,-1.000000,""
113_updated,w0,python3action_facedetection_SampleVideo_50mb_taurus,0.997085,1,2000.000000,1,COMPLETED_SUCCESSFULLY,381.515123,134.600046,516.115169,380.518038,515.118084,3.827028,29,-1.000000,""
113,w0,python3action_facedetection_SampleVideo_50mb,0.000000,1,-1.000000,1,COMPLETED_SUCCESSFULLY,516.115184,0.000010,516.115194,516.115184,516.115194,51611519.417736,29,-1.000000,""
144_updated,w0,python3action_videoprocessing_SampleVideo_50mb_taurus,0.997085,1,2000.000000,1,COMPLETED_SUCCESSFULLY,361.865365,154.250029,516.115394,360.868280,515.118309,3.339502,41,-1.000000,""
144,w0,python3action_videoprocessing_SampleVideo_50mb,0.000000,1,-1.000000,1,COMPLETED_SUCCESSFULLY,516.115409,0.000010,516.115419,516.115409,516.115419,51611541.920949,41,-1.000000,""
184_updated,w0,python3action_facedetection_SampleVideo_30mb_nova,0.997085,1,2000.000000,1,COMPLETED_SUCCESSFULLY,357.403158,160.399990,517.803148,356.406073,516.806063,3.221983,11,-1.000000,""
184,w0,python3action_facedetection_SampleVideo_30mb,0.000000,1,-1.000000,1,COMPLETED_SUCCESSFULLY,517.803163,0.000010,517.803173,517.803163,517.803173,51780317.324309,11,-1.000000,""
python3action_video_processing_job198_19,w0,python3action_video_processing,0.997085,1,2000.000000,1,COMPLETED_SUCCESSFULLY,494.177494,30.499683,524.677177,493.180409,523.680092,17.170018,21,-1.000000,""
185_updated,w0,python3action_videoprocessing_SampleVideo_50mb_taurus,0.997085,1,2000.000000,1,COMPLETED_SUCCESSFULLY,374.815564,154.250029,529.065593,373.818479,528.068508,3.423458,36,-1.000000,""
185,w0,python3action_videoprocessing_SampleVideo_50mb,0.000000,1,-1.000000,1,COMPLETED_SUCCESSFULLY,529.065608,0.000010,529.065618,529.065608,529.065618,52906561.813347,36,-1.000000,""
192_updated,w0,python3action_linpack_6000_orion,0.997085,1,2000.000000,1,COMPLETED_SUCCESSFULLY,430.763552,106.000000,536.763552,429.766467,535.766467,5.054401,26,-1.000000,""
192,w0,python3action_linpack_6000,0.000000,1,-1.000000,1,COMPLETED_SUCCESSFULLY,536.763567,0.000010,536.763577,536.763567,536.763577,53676357.730300,26,-1.000000,""
166_updated,w0,python3action_pyaes_4000_nova,0.997085,1,2000.000000,1,COMPLETED_SUCCESSFULLY,411.002989,139.600010,550.602999,410.005904,549.605914,3.937005,2,-1.000000,""
166,w0,python3action_pyaes_4000,0.000000,1,-1.000000,1,COMPLETED_SUCCESSFULLY,550.603014,0.000010,550.603024,550.603014,550.603024,55060302.400201,2,-1.000000,""
134_updated,w0,python3action_facedetection_SampleVideo_30mb_nova,0.997085,1,2000.000000,1,COMPLETED_SUCCESSFULLY,392.437041,160.399990,552.837031,391.439956,551.839946,3.440399,7,-1.000000,""
134,w0,python3action_facedetection_SampleVideo_30mb,0.000000,1,-1.000000,1,COMPLETED_SUCCESSFULLY,552.837046,0.000010,552.837056,552.837046,552.837056,55283705.624309,7,-1.000000,""
python3action_floatoperation_job180_6,w0,python3action_floatoperation,0.997085,1,2000.000000,1,COMPLETED_SUCCESSFULLY,552.837076,2.439945,555.277022,551.839991,554.279937,227.169002,7,-1.000000,""
137_updated,w0,python3action_facedetection_SampleVideo_30mb_nova,0.997085,1,2000.000000,1,COMPLETED_SUCCESSFULLY,411.837031,160.399990,572.237021,410.839946,571.239936,3.561346,8,-1.000000,""
137,w0,python3action_facedetection_SampleVideo_30mb,0.000000,1,-1.000000,1,COMPLETED_SUCCESSFULLY,572.237036,0.000010,572.237046,572.237036,572.237046,57223704.623907,8,-1.000000,""
python3action_linpack_job181_7,w0,python3action_linpack_reduced_0.85,0.997085,1,2000.000000,1,COMPLETED_SUCCESSFULLY,572.237066,0.365992,572.603058,571.239981,571.605973,1561.799970,8,-1.000000,""
148_updated,w0,python3action_facedetection_SampleVideo_30mb_nova,0.997085,1,2000.000000,1,COMPLETED_SUCCESSFULLY,436.542064,160.399990,596.942054,435.544979,595.944969,3.715368,13,-1.000000,""
148,w0,python3action_facedetection_SampleVideo_30mb,0.000000,1,-1.000000,1,COMPLETED_SUCCESSFULLY,596.942069,0.000010,596.942079,596.942069,596.942079,59694207.947212,13,-1.000000,""
181_updated,w0,python3action_linpack_5000_nova,0.997085,1,2000.000000,1,COMPLETED_SUCCESSFULLY,572.603073,34.600010,607.203083,571.605988,606.205998,17.520400,8,-1.000000,""
181,w0,python3action_linpack_5000,0.000000,1,-1.000000,1,COMPLETED_SUCCESSFULLY,607.203098,0.000010,607.203108,607.203098,607.203108,60720310.800201,8,-1.000000,""
176_updated,w0,python3action_pyaes_4000_nova,0.997085,1,2000.000000,1,COMPLETED_SUCCESSFULLY,481.077028,139.600010,620.677038,480.079943,619.679953,4.438968,6,-1.000000,""
176,w0,python3action_pyaes_4000,0.000000,1,-1.000000,1,COMPLETED_SUCCESSFULLY,620.677053,0.000010,620.677063,620.677053,620.677063,62067706.301668,6,-1.000000,""
151_updated,w0,python3action_facedetection_SampleVideo_50mb_taurus,0.997085,1,2000.000000,1,COMPLETED_SUCCESSFULLY,516.115214,134.600046,650.715260,515.118129,649.718175,4.827028,29,-1.000000,""
151,w0,python3action_facedetection_SampleVideo_50mb,0.000000,1,-1.000000,1,COMPLETED_SUCCESSFULLY,650.715275,0.000010,650.715285,650.715275,650.715285,65071528.531417,29,-1.000000,""
187_updated,w0,python3action_floatoperation_100000000_nova,0.997085,1,2000.000000,1,COMPLETED_SUCCESSFULLY,596.942099,66.200020,663.142119,595.945014,662.145034,10.002188,13,-1.000000,""
187,w0,python3action_floatoperation_100000000,0.000000,1,-1.000000,1,COMPLETED_SUCCESSFULLY,663.142134,0.000010,663.142144,663.142134,663.142144,66314214.401608,13,-1.000000,""
198_updated,w0,python3action_videoprocessing_SampleVideo_50mb_nova,0.997085,1,2000.000000,1,COMPLETED_SUCCESSFULLY,524.677192,139.600010,664.277202,523.680107,663.280117,4.751290,21,-1.000000,""
198,w0,python3action_videoprocessing_SampleVideo_50mb,0.000000,1,-1.000000,1,COMPLETED_SUCCESSFULLY,664.277217,0.000010,664.277227,664.277217,664.277227,66427722.700201,21,-1.000000,""
180_updated,w0,python3action_floatoperation_200000000_nova,0.997085,1,2000.000000,1,COMPLETED_SUCCESSFULLY,555.277037,135.399990,690.677027,554.279952,689.679942,5.093648,7,-1.000000,""
180,w0,python3action_floatoperation_200000000,0.000000,1,-1.000000,1,COMPLETED_SUCCESSFULLY,690.677042,0.000010,690.677052,690.677042,690.677052,69067705.223505,7,-1.000000,""
