job_id,workload_name,profile,submission_time,requested_number_of_resources,requested_time,success,final_state,starting_time,execution_time,finish_time,waiting_time,turnaround_time,stretch,allocated_resources,consumed_energy,metadata
python3action_chameleon_job4_0,w0,python3action_chameleon,0.997085,1,2000.000000,1,COMPLETED_SUCCESSFULLY,1.002100,0.243006,1.245106,0.005015,0.248021,1.020637,0,-1.000000,""
python3action_pyaes_job2_3,w0,python3action_pyaes,0.997085,1,2000.000000,1,COMPLETED_SUCCESSFULLY,1.002145,0.867914,1.870059,0.005060,0.872974,1.005830,4,-1.000000,""
python3action_chameleon_job0_4,w0,python3action_chameleon,0.997085,1,2000.000000,1,COMPLETED_SUCCESSFULLY,1.002160,0.892694,1.894854,0.005075,0.897769,1.005685,5,-1.000000,""
python3action_pyaes_job1_5,w0,python3action_pyaes,0.997085,1,2000.000000,1,COMPLETED_SUCCESSFULLY,1.002175,2.134958,3.137133,0.005090,2.140048,1.002384,6,-1.000000,""
python3action_floatoperation_job3_6,w0,python3action_floatoperation,0.997085,1,2000.000000,1,COMPLETED_SUCCESSFULLY,1.002190,2.439945,3.442135,0.005105,2.445050,1.002092,7,-1.000000,""
python3action_floatoperation_job7_7,w0,python3action_floatoperation,0.997085,1,2000.000000,1,COMPLETED_SUCCESSFULLY,1.002205,2.439945,3.442150,0.005120,2.445065,1.002098,8,-1.000000,""
python3action_image_processing_job8_1,w0,python3action_image_processing,0.997085,1,2000.000000,1,COMPLETED_SUCCESSFULLY,1.002115,3.471546,4.473661,0.005030,3.476576,1.001449,1,-1.000000,""
python3action_linpack_job10_2,w0,python3action_linpack,0.997085,1,2000.000000,1,COMPLETED_SUCCESSFULLY,1.002130,5.760927,6.763057,0.005045,5.765972,1.000876,2,-1.000000,""
python3action_linpack_job29_10,w0,python3action_linpack,0.997085,1,2000.000000,1,COMPLETED_SUCCESSFULLY,1.002250,5.760927,6.763177,0.005165,5.766092,1.000897,11,-1.000000,""
4_updated,w0,python3action_chameleon_2000_neowise,0.997085,1,2000.000000,1,COMPLETED_SUCCESSFULLY,1.245121,24.200002,25.445123,0.248036,24.448038,1.010249,0,-1.000000,""
4,w0,python3action_chameleon_2000,0.000000,1,-1.000000,1,COMPLETED_SUCCESSFULLY,25.445138,0.000010,25.445148,25.445138,25.445148,2544514.822787,0,-1.000000,""
python3action_video_processing_job12_8,w0,python3action_video_processing,0.997085,1,2000.000000,1,COMPLETED_SUCCESSFULLY,1.002220,30.499683,31.501903,0.005135,30.504818,1.000168,9,-1.000000,""
python3action_facedetection_job14_9,w0,python3action_facedetection,0.997085,1,2000.000000,1,COMPLETED_SUCCESSFULLY,1.002235,30.499683,31.501918,0.005150,30.504833,1.000169,10,-1.000000,""
8_updated,w0,python3action_imageprocessing_SampleImage_60mb_neowise,0.997085,1,2000.000000,1,COMPLETED_SUCCESSFULLY,4.473676,37.500000,41.973676,3.476591,40.976591,1.092709,1,-1.000000,""
8,w0,python3action_imageprocessing_SampleImage_60mb,0.000000,1,-1.000000,1,COMPLETED_SUCCESSFULLY,41.973691,0.000010,41.973701,41.973691,41.973701,4197370.100402,1,-1.000000,""
10_updated,w0,python3action_linpack_5000_taurus,0.997085,1,2000.000000,1,COMPLETED_SUCCESSFULLY,6.763072,38.500058,45.263130,5.765987,44.266045,1.149766,2,-1.000000,""
10,w0,python3action_linpack_5000,0.000000,1,-1.000000,1,COMPLETED_SUCCESSFULLY,45.263145,0.000010,45.263155,45.263145,45.263155,4526315.500201,2,-1.000000,""
9_updated,w0,python3action_chameleon_2000_neowise,0.997085,1,2000.000000,1,COMPLETED_SUCCESSFULLY,25.445168,24.200002,49.645170,24.448083,48.648085,2.010251,0,-1.000000,""
9,w0,python3action_chameleon_2000,0.000000,1,-1.000000,1,COMPLETED_SUCCESSFULLY,49.645185,0.000010,49.645195,49.645185,49.645195,4964519.545775,0,-1.000000,""
python3action_image_processing_job17_1,w0,python3action_image_processing,0.997085,1,2000.000000,1,COMPLETED_SUCCESSFULLY,49.645215,3.471546,53.116761,48.648130,52.119676,15.013392,0,-1.000000,""
2_updated,w0,python3action_pyaes_3000_troll,0.997085,1,2000.000000,1,COMPLETED_SUCCESSFULLY,1.870074,57.166677,59.036751,0.872989,58.039666,1.015271,4,-1.000000,""
2,w0,python3action_pyaes_3000,0.000000,1,-1.000000,1,COMPLETED_SUCCESSFULLY,59.036766,0.000010,59.036776,59.036766,59.036776,5903677.600201,4,-1.000000,""
3_updated,w0,python3action_floatoperation_100000000_nova,0.997085,1,2000.000000,1,COMPLETED_SUCCESSFULLY,3.442150,66.200020,69.642170,2.445065,68.645085,1.036935,7,-1.000000,""
3,w0,python3action_floatoperation_100000000,0.000000,1,-1.000000,1,COMPLETED_SUCCESSFULLY,69.642185,0.000010,69.642195,69.642185,69.642195,6964219.500201,7,-1.000000,""
python3action_image_processing_job11_11,w0,python3action_image_processing,0.997085,1,2000.000000,1,COMPLETED_SUCCESSFULLY,1.002265,72.012455,73.014720,0.005180,72.017635,1.000072,12,-1.000000,""
python3action_image_processing_job21_12,w0,python3action_image_processing,0.997085,1,2000.000000,1,COMPLETED_SUCCESSFULLY,1.002280,72.012455,73.014735,0.005195,72.017650,1.000072,13,-1.000000,""
13_updated,w0,python3action_imageprocessing_SampleImage_60mb_neowise,0.997085,1,2000.000000,1,COMPLETED_SUCCESSFULLY,41.973721,37.500000,79.473721,40.976636,78.476636,2.092710,1,-1.000000,""
13,w0,python3action_imageprocessing_SampleImage_60mb,0.000000,1,-1.000000,1,COMPLETED_SUCCESSFULLY,79.473736,0.000010,79.473746,79.473736,79.473746,7947374.601004,1,-1.000000,""
python3action_chameleon_job18_2,w0,python3action_chameleon,0.997085,1,2000.000000,1,COMPLETED_SUCCESSFULLY,79.473766,0.243006,79.716772,78.476681,78.719687,323.941354,1,-1.000000,""
17_updated,w0,python3action_imageprocessing_SampleImage_60mb_neowise,0.997085,1,2000.000000,1,COMPLETED_SUCCESSFULLY,53.116776,37.500000,90.616776,52.119691,89.619691,2.389858,0,-1.000000,""
17,w0,python3action_imageprocessing_SampleImage_60mb,0.000000,1,-1.000000,1,COMPLETED_SUCCESSFULLY,90.616791,0.000010,90.616801,90.616791,90.616801,9061680.126603,0,-1.000000,""
0_updated,w0,python3action_chameleon_3000_yeti,0.997085,1,2000.000000,1,COMPLETED_SUCCESSFULLY,1.894869,93.000000,94.894869,0.897784,93.897784,1.009654,5,-1.000000,""
0,w0,python3action_chameleon_3000,0.000000,1,-1.000000,1,COMPLETED_SUCCESSFULLY,94.894884,0.000010,94.894894,94.894884,94.894894,9489489.449765,5,-1.000000,""
python3action_facedetection_job16_7,w0,python3action_facedetection,0.997085,1,2000.000000,1,COMPLETED_SUCCESSFULLY,69.642215,30.499683,100.141898,68.645130,99.144813,3.250683,7,-1.000000,""
18_updated,w0,python3action_chameleon_2000_neowise,0.997085,1,2000.000000,1,COMPLETED_SUCCESSFULLY,79.716787,24.200002,103.916789,78.719702,102.919704,4.252880,1,-1.000000,""
18,w0,python3action_chameleon_2000,0.000000,1,-1.000000,1,COMPLETED_SUCCESSFULLY,103.916804,0.000010,103.916814,103.916804,103.916814,10391681.422787,1,-1.000000,""
11_updated,w0,python3action_imageprocessing_SampleImage_40mb_taurus,0.997085,1,2000.000000,1,COMPLETED_SUCCESSFULLY,73.014735,32.600046,105.614781,72.017650,104.617696,3.209127,12,-1.000000,""
11,w0,python3action_imageprocessing_SampleImage_40mb,0.000000,1,-1.000000,1,COMPLETED_SUCCESSFULLY,105.614796,0.000010,105.614806,105.614796,105.614806,10561480.646970,12,-1.000000,""
21_updated,w0,python3action_imageprocessing_SampleImage_40mb_taurus,0.997085,1,2000.000000,1,COMPLETED_SUCCESSFULLY,73.014765,32.600046,105.614811,72.017680,104.617726,3.209128,13,-1.000000,""
python3action_video_processing_job28_12,w0,python3action_video_processing_reduced_0.91,0.997085,1,2000.000000,1,COMPLETED_SUCCESSFULLY,105.614826,0.000000,105.614826,104.617741,104.617741,907186578708.195801,12,-1.000000,""
21,w0,python3action_imageprocessing_SampleImage_40mb,0.000000,1,-1.000000,1,COMPLETED_SUCCESSFULLY,105.614841,0.000010,105.614851,105.614841,105.614851,10561485.147572,13,-1.000000,""
29_updated,w0,python3action_linpack_6000_orion,0.997085,1,2000.000000,1,COMPLETED_SUCCESSFULLY,6.763192,106.000000,112.763192,5.766107,111.766107,1.054397,11,-1.000000,""
29,w0,python3action_linpack_6000,0.000000,1,-1.000000,1,COMPLETED_SUCCESSFULLY,112.763207,0.000010,112.763217,112.763207,112.763217,11276321.725480,11,-1.000000,""
python3action_facedetection_job23_3,w0,python3action_facedetection,0.997085,1,2000.000000,1,COMPLETED_SUCCESSFULLY,45.263175,72.012455,117.275630,44.266090,116.278545,1.614700,2,-1.000000,""
20_updated,w0,python3action_imageprocessing_SampleImage_60mb_neowise,0.997085,1,2000.000000,1,COMPLETED_SUCCESSFULLY,90.616821,37.500000,128.116821,89.619736,127.119736,3.389860,0,-1.000000,""
20,w0,python3action_imageprocessing_SampleImage_60mb,0.000000,1,-1.000000,1,COMPLETED_SUCCESSFULLY,128.116836,0.000010,128.116846,128.116836,128.116846,12811684.627206,0,-1.000000,""
22_updated,w0,python3action_chameleon_2000_neowise,0.997085,1,2000.000000,1,COMPLETED_SUCCESSFULLY,103.916834,24.200002,128.116836,102.919749,127.119751,5.252882,1,-1.000000,""
python3action_modeltraining_job24_1,w0,python3action_modeltraining_reduced_0.94,0.997085,1,2000.000000,1,COMPLETED_SUCCESSFULLY,128.116866,0.000000,128.116866,127.119781,127.119781,22819539205451.335938,0,-1.000000,""
22,w0,python3action_chameleon_2000,0.000000,1,-1.000000,1,COMPLETED_SUCCESSFULLY,128.116881,0.000010,128.116891,128.116881,128.116891,12811689.127808,1,-1.000000,""
33_updated,w0,python3action_imageprocessing_SampleImage_40mb_taurus,0.997085,1,2000.000000,1,COMPLETED_SUCCESSFULLY,105.614886,32.600046,138.214933,104.617801,137.217848,4.209130,13,-1.000000,""
33,w0,python3action_imageprocessing_SampleImage_40mb,0.000000,1,-1.000000,1,COMPLETED_SUCCESSFULLY,138.214948,0.000010,138.214958,138.214948,138.214958,13821495.800201,13,-1.000000,""
python3action_video_processing_job44_13,w0,python3action_video_processing_reduced_0.91,0.997085,1,2000.000000,1,COMPLETED_SUCCESSFULLY,138.214978,0.000000,138.214978,137.217893,137.217893,1189730262388.749512,13,-1.000000,""
12_updated,w0,python3action_videoprocessing_SampleVideo_30mb_nova,0.997085,1,2000.000000,1,COMPLETED_SUCCESSFULLY,31.501918,106.799980,138.301898,30.504833,137.304813,1.285626,9,-1.000000,""
12,w0,python3action_videoprocessing_SampleVideo_30mb,0.000000,1,-1.000000,1,COMPLETED_SUCCESSFULLY,138.301913,0.000010,138.301923,138.301913,138.301923,13830192.300201,9,-1.000000,""
7_updated,w0,python3action_floatoperation_200000000_nova,0.997085,1,2000.000000,1,COMPLETED_SUCCESSFULLY,3.442180,135.399990,138.842171,2.445095,137.845086,1.018058,8,-1.000000,""
7,w0,python3action_floatoperation_200000000,0.000000,1,-1.000000,1,COMPLETED_SUCCESSFULLY,138.842186,0.000010,138.842196,138.842186,138.842196,13884219.600201,8,-1.000000,""
1_updated,w0,python3action_pyaes_4000_nova,0.997085,1,2000.000000,1,COMPLETED_SUCCESSFULLY,3.137148,139.600010,142.737158,2.140063,141.740073,1.015330,6,-1.000000,""
1,w0,python3action_pyaes_4000,0.000000,1,-1.000000,1,COMPLETED_SUCCESSFULLY,142.737173,0.000010,142.737183,142.737173,142.737183,14273718.302271,6,-1.000000,""
24_updated,w0,python3action_modeltraining_reviews50mb_neowise,0.997085,1,2000.000000,1,COMPLETED_SUCCESSFULLY,128.116911,22.799998,150.916909,127.119826,149.919824,6.575432,0,-1.000000,""
24,w0,python3action_modeltraining_reviews50mb,0.000000,1,-1.000000,1,COMPLETED_SUCCESSFULLY,150.916924,0.000010,150.916934,150.916924,150.916934,15091693.406025,0,-1.000000,""
25_updated,w0,python3action_chameleon_2000_neowise,0.997085,1,2000.000000,1,COMPLETED_SUCCESSFULLY,128.116926,24.200002,152.316929,127.119841,151.319844,6.252886,1,-1.000000,""
25,w0,python3action_chameleon_2000,0.000000,1,-1.000000,1,COMPLETED_SUCCESSFULLY,152.316944,0.000010,152.316954,152.316944,152.316954,15231695.400201,1,-1.000000,""
5_updated,w0,python3action_pyaes_4000_troll,0.997085,1,2000.000000,1,COMPLETED_SUCCESSFULLY,59.036796,102.333333,161.370129,58.039711,160.373044,1.567163,4,-1.000000,""
5,w0,python3action_pyaes_4000,0.000000,1,-1.000000,1,COMPLETED_SUCCESSFULLY,161.370144,0.000010,161.370154,161.370144,161.370154,16137015.434137,4,-1.000000,""
python3action_video_processing_job26_8,w0,python3action_video_processing,0.997085,1,2000.000000,1,COMPLETED_SUCCESSFULLY,138.842216,30.499683,169.341899,137.845131,168.344814,5.519560,8,-1.000000,""
python3action_modeltraining_job15_6,w0,python3action_modeltraining,0.997085,1,2000.000000,1,COMPLETED_SUCCESSFULLY,142.737203,30.499683,173.236886,141.740118,172.239801,5.647265,6,-1.000000,""
27_updated,w0,python3action_modeltraining_reviews50mb_neowise,0.997085,1,2000.000000,1,COMPLETED_SUCCESSFULLY,150.916954,22.799998,173.716952,149.919869,172.719867,7.575433,0,-1.000000,""
27,w0,python3action_modeltraining_reviews50mb,0.000000,1,-1.000000,1,COMPLETED_SUCCESSFULLY,173.716967,0.000010,173.716977,173.716967,173.716977,17371697.700201,0,-1.000000,""
19_updated,w0,python3action_chameleon_3000_yeti,0.997085,1,2000.000000,1,COMPLETED_SUCCESSFULLY,94.894915,93.000000,187.894915,93.897830,186.897830,2.009654,5,-1.000000,""
19,w0,python3action_chameleon_3000,0.000000,1,-1.000000,1,COMPLETED_SUCCESSFULLY,187.894930,0.000010,187.894940,187.894930,187.894940,18789494.000201,5,-1.000000,""
31_updated,w0,python3action_imageprocessing_SampleImage_60mb_neowise,0.997085,1,2000.000000,1,COMPLETED_SUCCESSFULLY,152.316974,37.500000,189.816974,151.319889,188.819889,5.035197,1,-1.000000,""
31,w0,python3action_imageprocessing_SampleImage_60mb,0.000000,1,-1.000000,1,COMPLETED_SUCCESSFULLY,189.816989,0.000010,189.816999,189.816989,189.816999,18981699.900803,1,-1.000000,""
python3action_modeltraining_job53_2,w0,python3action_modeltraining_reduced_0.94,0.997085,1,2000.000000,1,COMPLETED_SUCCESSFULLY,189.817019,0.000000,189.817019,188.819934,188.819934,33895463347289.734375,1,-1.000000,""
14_updated,w0,python3action_facedetection_SampleVideo_30mb_nova,0.997085,1,2000.000000,1,COMPLETED_SUCCESSFULLY,31.501948,160.399990,191.901938,30.504863,190.904853,1.190180,10,-1.000000,""
14,w0,python3action_facedetection_SampleVideo_30mb,0.000000,1,-1.000000,1,COMPLETED_SUCCESSFULLY,191.901953,0.000010,191.901963,191.901953,191.901963,19190196.323505,10,-1.000000,""
python3action_video_processing_job32_10,w0,python3action_video_processing_reduced_0.91,0.997085,1,2000.000000,1,COMPLETED_SUCCESSFULLY,191.901983,0.000000,191.901983,190.904898,190.904898,3907428140329.066895,10,-1.000000,""
35_updated,w0,python3action_modeltraining_reviews100mb_neowise,0.997085,1,2000.000000,1,COMPLETED_SUCCESSFULLY,173.716997,43.399999,217.116996,172.719912,216.119911,4.979722,0,-1.000000,""
35,w0,python3action_modeltraining_reviews100mb,0.000000,1,-1.000000,1,COMPLETED_SUCCESSFULLY,217.117011,0.000010,217.117021,217.117011,217.117021,21711702.100201,0,-1.000000,""
6_updated,w0,python3action_pyaes_3000_troll,0.997085,1,2000.000000,1,COMPLETED_SUCCESSFULLY,161.370174,57.166677,218.536851,160.373089,217.539766,3.805360,4,-1.000000,""
6,w0,python3action_pyaes_3000,0.000000,1,-1.000000,1,COMPLETED_SUCCESSFULLY,218.536866,0.000010,218.536876,218.536866,218.536876,21853687.600201,4,-1.000000,""
36_updated,w0,python3action_linpack_6000_orion,0.997085,1,2000.000000,1,COMPLETED_SUCCESSFULLY,112.763237,106.000000,218.763237,111.766152,217.766152,2.054398,11,-1.000000,""
36,w0,python3action_linpack_6000,0.000000,1,-1.000000,1,COMPLETED_SUCCESSFULLY,218.763252,0.000010,218.763262,218.763252,218.763262,21876326.226082,11,-1.000000,""
53_updated,w0,python3action_modeltraining_reviews100mb_neowise,0.997085,1,2000.000000,1,COMPLETED_SUCCESSFULLY,189.817049,43.399999,233.217048,188.819964,232.219963,5.350691,1,-1.000000,""
53,w0,python3action_modeltraining_reviews100mb,0.000000,1,-1.000000,1,COMPLETED_SUCCESSFULLY,233.217063,0.000010,233.217073,233.217063,233.217073,23321707.300201,1,-1.000000,""
54_updated,w0,python3action_chameleon_2000_neowise,0.997085,1,2000.000000,1,COMPLETED_SUCCESSFULLY,217.117041,24.200002,241.317043,216.119956,240.319958,9.930576,0,-1.000000,""
54,w0,python3action_chameleon_2000,0.000000,1,-1.000000,1,COMPLETED_SUCCESSFULLY,241.317058,0.000010,241.317068,241.317058,241.317068,24131706.823188,0,-1.000000,""
30_updated,w0,python3action_videoprocessing_SampleVideo_30mb_nova,0.997085,1,2000.000000,1,COMPLETED_SUCCESSFULLY,138.301943,106.799980,245.101923,137.304858,244.104838,2.285626,9,-1.000000,""
30,w0,python3action_videoprocessing_SampleVideo_30mb,0.000000,1,-1.000000,1,COMPLETED_SUCCESSFULLY,245.101938,0.000010,245.101948,245.101938,245.101948,24510194.847010,9,-1.000000,""
python3action_floatoperation_job41_9,w0,python3action_floatoperation,0.997085,1,2000.000000,1,COMPLETED_SUCCESSFULLY,245.101968,2.439945,247.541914,244.104883,246.544829,101.045228,9,-1.000000,""
23_updated,w0,python3action_facedetection_SampleVideo_50mb_taurus,0.997085,1,2000.000000,1,COMPLETED_SUCCESSFULLY,117.275645,134.600046,251.875691,116.278560,250.878606,1.863882,2,-1.000000,""
23,w0,python3action_facedetection_SampleVideo_50mb,0.000000,1,-1.000000,1,COMPLETED_SUCCESSFULLY,251.875706,0.000010,251.875716,251.875706,251.875716,25187571.645163,2,-1.000000,""
python3action_video_processing_job37_3,w0,python3action_video_processing_reduced_0.91,0.997085,1,2000.000000,1,COMPLETED_SUCCESSFULLY,251.875736,0.000000,251.875736,250.878651,250.878651,2175211390331.135498,2,-1.000000,""
15_updated,w0,python3action_modeltraining_reviews100mb_nova,0.997085,1,2000.000000,1,COMPLETED_SUCCESSFULLY,173.236901,79.600010,252.836911,172.239816,251.839826,3.163817,6,-1.000000,""
15,w0,python3action_modeltraining_reviews100mb,0.000000,1,-1.000000,1,COMPLETED_SUCCESSFULLY,252.836926,0.000010,252.836936,252.836926,252.836936,25283693.600201,6,-1.000000,""
python3action_video_processing_job34_6,w0,python3action_video_processing_reduced_0.97,0.997085,1,2000.000000,1,COMPLETED_SUCCESSFULLY,252.836956,0.000000,252.836956,251.839871,251.839871,5154640912321.769531,6,-1.000000,""
46_updated,w0,python3action_linpack_5000_orion,0.997085,1,2000.000000,1,COMPLETED_SUCCESSFULLY,218.763282,36.199977,254.963259,217.766197,253.966174,7.015645,11,-1.000000,""
46,w0,python3action_linpack_5000,0.000000,1,-1.000000,1,COMPLETED_SUCCESSFULLY,254.963274,0.000010,254.963284,254.963274,254.963284,25496328.420145,11,-1.000000,""
28_updated,w0,python3action_videoprocessing_SampleVideo_50mb_taurus,0.997085,1,2000.000000,1,COMPLETED_SUCCESSFULLY,105.614871,154.250029,259.864900,104.617786,258.867815,1.678235,12,-1.000000,""
28,w0,python3action_videoprocessing_SampleVideo_50mb,0.000000,1,-1.000000,1,COMPLETED_SUCCESSFULLY,259.864915,0.000010,259.864925,259.864915,259.864925,25986492.531348,12,-1.000000,""
python3action_facedetection_job43_12,w0,python3action_facedetection_reduced_1.83,0.997085,1,2000.000000,1,COMPLETED_SUCCESSFULLY,259.864945,0.000000,259.864945,258.867860,258.867860,24885527648227.019531,12,-1.000000,""
16_updated,w0,python3action_facedetection_SampleVideo_30mb_nova,0.997085,1,2000.000000,1,COMPLETED_SUCCESSFULLY,100.141913,160.399990,260.541903,99.144828,259.544818,1.618110,7,-1.000000,""
16,w0,python3action_facedetection_SampleVideo_30mb,0.000000,1,-1.000000,1,COMPLETED_SUCCESSFULLY,260.541918,0.000010,260.541928,260.541918,260.541928,26054192.823505,7,-1.000000,""
python3action_pyaes_job38_7,w0,python3action_pyaes,0.997085,1,2000.000000,1,COMPLETED_SUCCESSFULLY,260.541948,2.134958,262.676906,259.544863,261.679821,122.569059,7,-1.000000,""
58_updated,w0,python3action_chameleon_2000_neowise,0.997085,1,2000.000000,1,COMPLETED_SUCCESSFULLY,241.317088,24.200002,265.517090,240.320003,264.520005,10.930578,0,-1.000000,""
58,w0,python3action_chameleon_2000,0.000000,1,-1.000000,1,COMPLETED_SUCCESSFULLY,265.517105,0.000010,265.517115,265.517105,265.517115,26551711.546176,0,-1.000000,""
56_updated,w0,python3action_imageprocessing_SampleImage_60mb_neowise,0.997085,1,2000.000000,1,COMPLETED_SUCCESSFULLY,233.217093,37.500000,270.717093,232.220008,269.720008,7.192534,1,-1.000000,""
56,w0,python3action_imageprocessing_SampleImage_60mb,0.000000,1,-1.000000,1,COMPLETED_SUCCESSFULLY,270.717108,0.000010,270.717118,270.717108,270.717118,27071711.800803,1,-1.000000,""
49_updated,w0,python3action_pyaes_3000_troll,0.997085,1,2000.000000,1,COMPLETED_SUCCESSFULLY,218.536896,57.166677,275.703573,217.539811,274.706488,4.805360,4,-1.000000,""
49,w0,python3action_pyaes_3000,0.000000,1,-1.000000,1,COMPLETED_SUCCESSFULLY,275.703588,0.000010,275.703598,275.703588,275.703598,27570359.800201,4,-1.000000,""
26_updated,w0,python3action_videoprocessing_SampleVideo_30mb_nova,0.997085,1,2000.000000,1,COMPLETED_SUCCESSFULLY,169.341914,106.799980,276.141894,168.344829,275.144809,2.576263,8,-1.000000,""
26,w0,python3action_videoprocessing_SampleVideo_30mb,0.000000,1,-1.000000,1,COMPLETED_SUCCESSFULLY,276.141909,0.000010,276.141919,276.141909,276.141919,27614191.946609,8,-1.000000,""
39_updated,w0,python3action_chameleon_3000_yeti,0.997085,1,2000.000000,1,COMPLETED_SUCCESSFULLY,187.894960,93.000000,280.894960,186.897875,279.897875,3.009655,5,-1.000000,""
39,w0,python3action_chameleon_3000,0.000000,1,-1.000000,1,COMPLETED_SUCCESSFULLY,280.894975,0.000010,280.894985,280.894975,280.894985,28089498.500803,5,-1.000000,""
93_updated,w0,python3action_chameleon_2000_neowise,0.997085,1,2000.000000,1,COMPLETED_SUCCESSFULLY,265.517135,24.200002,289.717138,264.520050,288.720053,11.930580,0,-1.000000,""
93,w0,python3action_chameleon_2000,0.000000,1,-1.000000,1,COMPLETED_SUCCESSFULLY,289.717153,0.000010,289.717163,289.717153,289.717163,28971716.300201,0,-1.000000,""
44_updated,w0,python3action_videoprocessing_SampleVideo_50mb_taurus,0.997085,1,2000.000000,1,COMPLETED_SUCCESSFULLY,138.215008,154.250029,292.465037,137.217923,291.467952,1.889581,13,-1.000000,""
44,w0,python3action_videoprocessing_SampleVideo_50mb,0.000000,1,-1.000000,1,COMPLETED_SUCCESSFULLY,292.465052,0.000010,292.465062,292.465052,292.465062,29246506.200201,13,-1.000000,""
python3action_facedetection_job59_13,w0,python3action_facedetection_reduced_1.83,0.997085,1,2000.000000,1,COMPLETED_SUCCESSFULLY,292.465082,0.000000,292.465082,291.467997,291.467997,28019449340565.281250,13,-1.000000,""
32_updated,w0,python3action_videoprocessing_SampleVideo_30mb_nova,0.997085,1,2000.000000,1,COMPLETED_SUCCESSFULLY,191.902013,106.799980,298.701994,190.904928,297.704909,2.787500,10,-1.000000,""
32,w0,python3action_videoprocessing_SampleVideo_30mb,0.000000,1,-1.000000,1,COMPLETED_SUCCESSFULLY,298.702009,0.000010,298.702019,298.702009,298.702019,29870201.900201,10,-1.000000,""
python3action_pyaes_job42_10,w0,python3action_pyaes,0.997085,1,2000.000000,1,COMPLETED_SUCCESSFULLY,298.702039,2.134958,300.836997,297.704954,299.839912,140.442987,10,-1.000000,""
101_updated,w0,python3action_modeltraining_reviews50mb_neowise,0.997085,1,2000.000000,1,COMPLETED_SUCCESSFULLY,289.717183,22.799998,312.517181,288.720098,311.520096,13.663163,0,-1.000000,""
101,w0,python3action_modeltraining_reviews50mb,0.000000,1,-1.000000,1,COMPLETED_SUCCESSFULLY,312.517196,0.000010,312.517206,312.517196,312.517206,31251720.600201,0,-1.000000,""
41_updated,w0,python3action_floatoperation_100000000_nova,0.997085,1,2000.000000,1,COMPLETED_SUCCESSFULLY,247.541929,66.200020,313.741949,246.544844,312.744864,4.724241,9,-1.000000,""
41,w0,python3action_floatoperation_100000000,0.000000,1,-1.000000,1,COMPLETED_SUCCESSFULLY,313.741964,0.000010,313.741974,313.741964,313.741974,31374197.400201,9,-1.000000,""
63_updated,w0,python3action_modeltraining_reviews100mb_neowise,0.997085,1,2000.000000,1,COMPLETED_SUCCESSFULLY,270.717138,43.399999,314.117137,269.720053,313.120052,7.214748,1,-1.000000,""
63,w0,python3action_modeltraining_reviews100mb,0.000000,1,-1.000000,1,COMPLETED_SUCCESSFULLY,314.117152,0.000010,314.117162,314.117152,314.117162,31411716.200201,1,-1.000000,""
108_updated,w0,python3action_modeltraining_reviews50mb_neowise,0.997085,1,2000.000000,1,COMPLETED_SUCCESSFULLY,312.517226,22.799998,335.317224,311.520141,334.320139,14.663165,0,-1.000000,""
108,w0,python3action_modeltraining_reviews50mb,0.000000,1,-1.000000,1,COMPLETED_SUCCESSFULLY,335.317239,0.000010,335.317249,335.317239,335.317249,33531724.900201,0,-1.000000,""
100_updated,w0,python3action_modeltraining_reviews100mb_neowise,0.997085,1,2000.000000,1,COMPLETED_SUCCESSFULLY,314.117182,43.399999,357.517181,313.120097,356.520096,8.214749,1,-1.000000,""
100,w0,python3action_modeltraining_reviews100mb,0.000000,1,-1.000000,1,COMPLETED_SUCCESSFULLY,357.517196,0.000010,357.517206,357.517196,357.517206,35751720.600201,1,-1.000000,""
34_updated,w0,python3action_videoprocessing_SampleVideo_30mb_nova,0.997085,1,2000.000000,1,COMPLETED_SUCCESSFULLY,252.836986,106.799980,359.636966,251.839901,358.639881,3.358052,6,-1.000000,""
34,w0,python3action_videoprocessing_SampleVideo_30mb,0.000000,1,-1.000000,1,COMPLETED_SUCCESSFULLY,359.636981,0.000010,359.636991,359.636981,359.636991,35963699.147412,6,-1.000000,""
50_updated,w0,python3action_linpack_6000_orion,0.997085,1,2000.000000,1,COMPLETED_SUCCESSFULLY,254.963304,106.000000,360.963304,253.966219,359.966219,3.395908,11,-1.000000,""
50,w0,python3action_linpack_6000,0.000000,1,-1.000000,1,COMPLETED_SUCCESSFULLY,360.963319,0.000010,360.963329,360.963319,360.963329,36096332.920748,11,-1.000000,""
python3action_floatoperation_job45_6,w0,python3action_floatoperation,0.997085,1,2000.000000,1,COMPLETED_SUCCESSFULLY,359.637011,2.439945,362.076957,358.639926,361.079872,147.986872,6,-1.000000,""
147_updated,w0,python3action_chameleon_3000_yeti,0.997085,1,2000.000000,1,COMPLETED_SUCCESSFULLY,280.895005,93.000000,373.895005,279.897920,372.897920,4.009655,5,-1.000000,""
147,w0,python3action_chameleon_3000,0.000000,1,-1.000000,1,COMPLETED_SUCCESSFULLY,373.895020,0.000010,373.895030,373.895020,373.895030,37389503.001406,5,-1.000000,""
75_updated,w0,python3action_pyaes_4000_troll,0.997085,1,2000.000000,1,COMPLETED_SUCCESSFULLY,275.703618,102.333333,378.036951,274.706533,377.039866,3.684429,4,-1.000000,""
75,w0,python3action_pyaes_4000,0.000000,1,-1.000000,1,COMPLETED_SUCCESSFULLY,378.036966,0.000010,378.036976,378.036966,378.036976,37803697.634137,4,-1.000000,""
112_updated,w0,python3action_modeltraining_reviews100mb_neowise,0.997085,1,2000.000000,1,COMPLETED_SUCCESSFULLY,335.317269,43.399999,378.717268,334.320184,377.720183,8.703230,0,-1.000000,""
112,w0,python3action_modeltraining_reviews100mb,0.000000,1,-1.000000,1,COMPLETED_SUCCESSFULLY,378.717283,0.000010,378.717293,378.717283,378.717293,37871729.300201,0,-1.000000,""
55_updated,w0,python3action_floatoperation_100000000_nova,0.997085,1,2000.000000,1,COMPLETED_SUCCESSFULLY,313.741994,66.200020,379.942014,312.744909,378.944929,5.724242,9,-1.000000,""
55,w0,python3action_floatoperation_100000000,0.000000,1,-1.000000,1,COMPLETED_SUCCESSFULLY,379.942029,0.000010,379.942039,379.942029,379.942039,37994203.900201,9,-1.000000,""
python3action_modeltraining_job73_9,w0,python3action_modeltraining_reduced_1.0,0.997085,1,2000.000000,1,COMPLETED_SUCCESSFULLY,379.942059,0.000000,379.942059,378.944974,378.944974,7760733973586.986328,9,-1.000000,""
43_updated,w0,python3action_facedetection_SampleVideo_50mb_taurus,0.997085,1,2000.000000,1,COMPLETED_SUCCESSFULLY,259.864975,134.600046,394.465021,258.867890,393.467936,2.923238,12,-1.000000,""
43,w0,python3action_facedetection_SampleVideo_50mb,0.000000,1,-1.000000,1,COMPLETED_SUCCESSFULLY,394.465036,0.000010,394.465046,394.465036,394.465046,39446504.645431,12,-1.000000,""
102_updated,w0,python3action_imageprocessing_SampleImage_60mb_neowise,0.997085,1,2000.000000,1,COMPLETED_SUCCESSFULLY,357.517226,37.500000,395.017226,356.520141,394.020141,10.507204,1,-1.000000,""
102,w0,python3action_imageprocessing_SampleImage_60mb,0.000000,1,-1.000000,1,COMPLETED_SUCCESSFULLY,395.017241,0.000010,395.017251,395.017241,395.017251,39501725.100803,1,-1.000000,""
38_updated,w0,python3action_pyaes_4000_nova,0.997085,1,2000.000000,1,COMPLETED_SUCCESSFULLY,262.676921,139.600010,402.276931,261.679836,401.279846,2.874497,7,-1.000000,""
38,w0,python3action_pyaes_4000,0.000000,1,-1.000000,1,COMPLETED_SUCCESSFULLY,402.276946,0.000010,402.276956,402.276946,402.276956,40227695.624973,7,-1.000000,""
python3action_modeltraining_job48_7,w0,python3action_modeltraining_reduced_0.94,0.997085,1,2000.000000,1,COMPLETED_SUCCESSFULLY,402.276976,0.000000,402.276976,401.279891,401.279891,8218149595832.089844,7,-1.000000,""
120_updated,w0,python3action_chameleon_2000_neowise,0.997085,1,2000.000000,1,COMPLETED_SUCCESSFULLY,378.717313,24.200002,402.917315,377.720228,401.920230,16.608272,0,-1.000000,""
120,w0,python3action_chameleon_2000,0.000000,1,-1.000000,1,COMPLETED_SUCCESSFULLY,402.917330,0.000010,402.917340,402.917330,402.917340,40291734.023189,0,-1.000000,""
37_updated,w0,python3action_videoprocessing_SampleVideo_50mb_taurus,0.997085,1,2000.000000,1,COMPLETED_SUCCESSFULLY,251.875766,154.250029,406.125795,250.878681,405.128710,2.626442,2,-1.000000,""
37,w0,python3action_videoprocessing_SampleVideo_50mb,0.000000,1,-1.000000,1,COMPLETED_SUCCESSFULLY,406.125810,0.000010,406.125820,406.125810,406.125820,40612582.029341,2,-1.000000,""
40_updated,w0,python3action_floatoperation_200000000_nova,0.997085,1,2000.000000,1,COMPLETED_SUCCESSFULLY,276.141939,135.399990,411.541930,275.144854,410.544845,3.032089,8,-1.000000,""
40,w0,python3action_floatoperation_200000000,0.000000,1,-1.000000,1,COMPLETED_SUCCESSFULLY,411.541945,0.000010,411.541955,411.541945,411.541955,41154195.500201,8,-1.000000,""
59_updated,w0,python3action_facedetection_SampleVideo_50mb_taurus,0.997085,1,2000.000000,1,COMPLETED_SUCCESSFULLY,292.465112,134.600046,427.065158,291.468027,426.068073,3.165438,13,-1.000000,""
59,w0,python3action_facedetection_SampleVideo_50mb,0.000000,1,-1.000000,1,COMPLETED_SUCCESSFULLY,427.065173,0.000010,427.065183,427.065173,427.065183,42706518.314283,13,-1.000000,""
126_updated,w0,python3action_chameleon_2000_neowise,0.997085,1,2000.000000,1,COMPLETED_SUCCESSFULLY,402.917360,24.200002,427.117362,401.920275,426.120277,17.608274,0,-1.000000,""
126,w0,python3action_chameleon_2000,0.000000,1,-1.000000,1,COMPLETED_SUCCESSFULLY,427.117377,0.000010,427.117387,427.117377,427.117387,42711738.746176,0,-1.000000,""
111_updated,w0,python3action_imageprocessing_SampleImage_60mb_neowise,0.997085,1,2000.000000,1,COMPLETED_SUCCESSFULLY,395.017271,37.500000,432.517271,394.020186,431.520186,11.507205,1,-1.000000,""
111,w0,python3action_imageprocessing_SampleImage_60mb,0.000000,1,-1.000000,1,COMPLETED_SUCCESSFULLY,432.517286,0.000010,432.517296,432.517286,432.517296,43251729.601406,1,-1.000000,""
80_updated,w0,python3action_pyaes_3000_troll,0.997085,1,2000.000000,1,COMPLETED_SUCCESSFULLY,378.036996,57.166677,435.203673,377.039911,434.206588,7.595449,4,-1.000000,""
80,w0,python3action_pyaes_3000,0.000000,1,-1.000000,1,COMPLETED_SUCCESSFULLY,435.203688,0.000010,435.203698,435.203688,435.203698,43520369.800201,4,-1.000000,""
42_updated,w0,python3action_pyaes_4000_nova,0.997085,1,2000.000000,1,COMPLETED_SUCCESSFULLY,300.837012,139.600010,440.437022,299.839927,439.439937,3.147850,10,-1.000000,""
42,w0,python3action_pyaes_4000,0.000000,1,-1.000000,1,COMPLETED_SUCCESSFULLY,440.437037,0.000010,440.437047,440.437037,440.437047,44043704.701669,10,-1.000000,""
python3action_floatoperation_job61_10,w0,python3action_floatoperation,0.997085,1,2000.000000,1,COMPLETED_SUCCESSFULLY,440.437067,2.439945,442.877012,439.439982,441.879927,181.102391,10,-1.000000,""
47_updated,w0,python3action_linpack_5000_taurus,0.997085,1,2000.000000,1,COMPLETED_SUCCESSFULLY,406.125840,38.500058,444.625898,405.128755,443.628813,11.522809,2,-1.000000,""
47,w0,python3action_linpack_5000,0.000000,1,-1.000000,1,COMPLETED_SUCCESSFULLY,444.625913,0.000010,444.625923,444.625913,444.625923,44462592.300201,2,-1.000000,""
116_updated,w0,python3action_chameleon_2000_neowise,0.997085,1,2000.000000,1,COMPLETED_SUCCESSFULLY,432.517316,24.200002,456.717318,431.520231,455.720233,18.831413,1,-1.000000,""
116,w0,python3action_chameleon_2000,0.000000,1,-1.000000,1,COMPLETED_SUCCESSFULLY,456.717333,0.000010,456.717343,456.717333,456.717343,45671734.324394,1,-1.000000,""
73_updated,w0,python3action_modeltraining_reviews100mb_nova,0.997085,1,2000.000000,1,COMPLETED_SUCCESSFULLY,379.942089,79.600010,459.542099,378.945004,458.545014,5.760615,9,-1.000000,""
73,w0,python3action_modeltraining_reviews100mb,0.000000,1,-1.000000,1,COMPLETED_SUCCESSFULLY,459.542114,0.000010,459.542124,459.542114,459.542124,45954212.400201,9,-1.000000,""
149_updated,w0,python3action_imageprocessing_SampleImage_60mb_neowise,0.997085,1,2000.000000,1,COMPLETED_SUCCESSFULLY,427.117407,37.500000,464.617407,426.120322,463.620322,12.363209,0,-1.000000,""
149,w0,python3action_imageprocessing_SampleImage_60mb,0.000000,1,-1.000000,1,COMPLETED_SUCCESSFULLY,464.617422,0.000010,464.617432,464.617422,464.617432,46461743.246779,0,-1.000000,""
167_updated,w0,python3action_chameleon_3000_yeti,0.997085,1,2000.000000,1,COMPLETED_SUCCESSFULLY,373.895050,93.000000,466.895050,372.897965,465.897965,5.009656,5,-1.000000,""
167,w0,python3action_chameleon_3000,0.000000,1,-1.000000,1,COMPLETED_SUCCESSFULLY,466.895065,0.000010,466.895075,466.895065,466.895075,46689507.502009,5,-1.000000,""
57_updated,w0,python3action_linpack_6000_orion,0.997085,1,2000.000000,1,COMPLETED_SUCCESSFULLY,360.963349,106.000000,466.963349,359.966264,465.966264,4.395908,11,-1.000000,""
57,w0,python3action_linpack_6000,0.000000,1,-1.000000,1,COMPLETED_SUCCESSFULLY,466.963364,0.000010,466.963374,466.963364,466.963374,46696337.421351,11,-1.000000,""
48_updated,w0,python3action_modeltraining_reviews100mb_nova,0.997085,1,2000.000000,1,COMPLETED_SUCCESSFULLY,402.277006,79.600010,481.877016,401.279921,480.879931,6.041204,7,-1.000000,""
48,w0,python3action_modeltraining_reviews100mb,0.000000,1,-1.000000,1,COMPLETED_SUCCESSFULLY,481.877031,0.000010,481.877041,481.877031,481.877041,48187704.102874,7,-1.000000,""
151_updated,w0,python3action_chameleon_2000_neowise,0.997085,1,2000.000000,1,COMPLETED_SUCCESSFULLY,464.617452,24.200002,488.817455,463.620367,487.820370,20.157865,0,-1.000000,""
151,w0,python3action_chameleon_2000,0.000000,1,-1.000000,1,COMPLETED_SUCCESSFULLY,488.817470,0.000010,488.817480,488.817470,488.817480,48881748.000201,0,-1.000000,""
82_updated,w0,python3action_pyaes_3000_troll,0.997085,1,2000.000000,1,COMPLETED_SUCCESSFULLY,435.203718,57.166677,492.370395,434.206633,491.373310,8.595450,4,-1.000000,""
82,w0,python3action_pyaes_3000,0.000000,1,-1.000000,1,COMPLETED_SUCCESSFULLY,492.370410,0.000010,492.370420,492.370410,492.370420,49237042.000201,4,-1.000000,""
125_updated,w0,python3action_imageprocessing_SampleImage_60mb_neowise,0.997085,1,2000.000000,1,COMPLETED_SUCCESSFULLY,456.717363,37.500000,494.217363,455.720278,493.220278,13.152541,1,-1.000000,""
125,w0,python3action_imageprocessing_SampleImage_60mb,0.000000,1,-1.000000,1,COMPLETED_SUCCESSFULLY,494.217378,0.000010,494.217388,494.217378,494.217388,49421738.824996,1,-1.000000,""
45_updated,w0,python3action_floatoperation_200000000_nova,0.997085,1,2000.000000,1,COMPLETED_SUCCESSFULLY,362.076972,135.399990,497.476962,361.079887,496.479877,3.666764,6,-1.000000,""
45,w0,python3action_floatoperation_200000000,0.000000,1,-1.000000,1,COMPLETED_SUCCESSFULLY,497.476977,0.000010,497.476987,497.476977,497.476987,49747698.723506,6,-1.000000,""
61_updated,w0,python3action_floatoperation_100000000_nova,0.997085,1,2000.000000,1,COMPLETED_SUCCESSFULLY,442.877027,66.200020,509.077047,441.879942,508.079962,7.674922,10,-1.000000,""
61,w0,python3action_floatoperation_100000000,0.000000,1,-1.000000,1,COMPLETED_SUCCESSFULLY,509.077062,0.000010,509.077072,509.077062,509.077072,50907707.200201,10,-1.000000,""
python3action_modeltraining_job74_10,w0,python3action_modeltraining_reduced_1.94,0.997085,1,2000.000000,1,COMPLETED_SUCCESSFULLY,509.077092,0.000000,509.077092,508.080007,508.080007,10405399311640.304688,10,-1.000000,""
51_updated,w0,python3action_videoprocessing_SampleVideo_30mb_nova,0.997085,1,2000.000000,1,COMPLETED_SUCCESSFULLY,411.541975,106.799980,518.341955,410.544890,517.344870,4.844054,8,-1.000000,""
51,w0,python3action_videoprocessing_SampleVideo_30mb,0.000000,1,-1.000000,1,COMPLETED_SUCCESSFULLY,518.341970,0.000010,518.341980,518.341970,518.341980,51834198.047011,8,-1.000000,""
84_updated,w0,python3action_floatoperation_100000000_nova,0.997085,1,2000.000000,1,COMPLETED_SUCCESSFULLY,459.542144,66.200020,525.742164,458.545059,524.745079,7.926660,9,-1.000000,""
84,w0,python3action_floatoperation_100000000,0.000000,1,-1.000000,1,COMPLETED_SUCCESSFULLY,525.742179,0.000010,525.742189,525.742179,525.742189,52574218.900201,9,-1.000000,""
163_updated,w0,python3action_imageprocessing_SampleImage_60mb_neowise,0.997085,1,2000.000000,1,COMPLETED_SUCCESSFULLY,488.817500,37.500000,526.317500,487.820415,525.320415,14.008544,0,-1.000000,""
163,w0,python3action_imageprocessing_SampleImage_60mb,0.000000,1,-1.000000,1,COMPLETED_SUCCESSFULLY,526.317515,0.000010,526.317525,526.317515,526.317525,52631752.500803,0,-1.000000,""
52_updated,w0,python3action_facedetection_SampleVideo_50mb_taurus,0.997085,1,2000.000000,1,COMPLETED_SUCCESSFULLY,394.465066,134.600046,529.065113,393.467981,528.068028,3.923238,12,-1.000000,""
52,w0,python3action_facedetection_SampleVideo_50mb,0.000000,1,-1.000000,1,COMPLETED_SUCCESSFULLY,529.065128,0.000010,529.065138,529.065128,529.065138,52906513.800201,12,-1.000000,""
141_updated,w0,python3action_modeltraining_reviews100mb_neowise,0.997085,1,2000.000000,1,COMPLETED_SUCCESSFULLY,494.217408,43.399999,537.617407,493.220323,536.620322,12.364524,1,-1.000000,""
141,w0,python3action_modeltraining_reviews100mb,0.000000,1,-1.000000,1,COMPLETED_SUCCESSFULLY,537.617422,0.000010,537.617432,537.617422,537.617432,53761743.214406,1,-1.000000,""
88_updated,w0,python3action_pyaes_3000_troll,0.997085,1,2000.000000,1,COMPLETED_SUCCESSFULLY,492.370440,57.166677,549.537117,491.373355,548.540032,9.595451,4,-1.000000,""
88,w0,python3action_pyaes_3000,0.000000,1,-1.000000,1,COMPLETED_SUCCESSFULLY,549.537132,0.000010,549.537142,549.537132,549.537142,54953714.200201,4,-1.000000,""
171_updated,w0,python3action_chameleon_3000_yeti,0.997085,1,2000.000000,1,COMPLETED_SUCCESSFULLY,466.895095,93.000000,559.895095,465.898010,558.898010,6.009656,5,-1.000000,""
171,w0,python3action_chameleon_3000,0.000000,1,-1.000000,1,COMPLETED_SUCCESSFULLY,559.895110,0.000010,559.895120,559.895110,559.895120,55989512.002611,5,-1.000000,""
62_updated,w0,python3action_imageprocessing_SampleImage_40mb_taurus,0.997085,1,2000.000000,1,COMPLETED_SUCCESSFULLY,529.065158,32.600046,561.665204,528.068073,560.668119,17.198384,12,-1.000000,""
62,w0,python3action_imageprocessing_SampleImage_40mb,0.000000,1,-1.000000,1,COMPLETED_SUCCESSFULLY,561.665219,0.000010,561.665229,561.665219,561.665229,56166522.913881,12,-1.000000,""
179_updated,w0,python3action_imageprocessing_SampleImage_60mb_neowise,0.997085,1,2000.000000,1,COMPLETED_SUCCESSFULLY,526.317545,37.500000,563.817545,525.320460,562.820460,15.008546,0,-1.000000,""
179,w0,python3action_imageprocessing_SampleImage_60mb,0.000000,1,-1.000000,1,COMPLETED_SUCCESSFULLY,563.817560,0.000010,563.817570,563.817560,563.817570,56381757.001406,0,-1.000000,""
67_updated,w0,python3action_linpack_6000_orion,0.997085,1,2000.000000,1,COMPLETED_SUCCESSFULLY,466.963394,106.000000,572.963394,465.966309,571.966309,5.395909,11,-1.000000,""
67,w0,python3action_linpack_6000,0.000000,1,-1.000000,1,COMPLETED_SUCCESSFULLY,572.963409,0.000010,572.963419,572.963409,572.963419,57296341.921953,11,-1.000000,""
60_updated,w0,python3action_facedetection_SampleVideo_50mb_taurus,0.997085,1,2000.000000,1,COMPLETED_SUCCESSFULLY,444.625943,134.600046,579.225989,443.628858,578.228904,4.295904,2,-1.000000,""
60,w0,python3action_facedetection_SampleVideo_50mb,0.000000,1,-1.000000,1,COMPLETED_SUCCESSFULLY,579.226004,0.000010,579.226014,579.226004,579.226014,57922601.413881,2,-1.000000,""
python3action_image_processing_job65_3,w0,python3action_image_processing_reduced_1.73,0.997085,1,2000.000000,1,COMPLETED_SUCCESSFULLY,579.226034,0.000000,579.226034,578.228949,578.228949,5015932568831.283203,2,-1.000000,""
150_updated,w0,python3action_modeltraining_reviews100mb_neowise,0.997085,1,2000.000000,1,COMPLETED_SUCCESSFULLY,537.617452,43.399999,581.017451,536.620367,580.020366,13.364525,1,-1.000000,""
150,w0,python3action_modeltraining_reviews100mb,0.000000,1,-1.000000,1,COMPLETED_SUCCESSFULLY,581.017466,0.000010,581.017476,581.017466,581.017476,58101747.603816,1,-1.000000,""
64_updated,w0,python3action_videoprocessing_SampleVideo_50mb_taurus,0.997085,1,2000.000000,1,COMPLETED_SUCCESSFULLY,427.065203,154.250029,581.315232,426.068118,580.318147,3.762191,13,-1.000000,""
64,w0,python3action_videoprocessing_SampleVideo_50mb,0.000000,1,-1.000000,1,COMPLETED_SUCCESSFULLY,581.315247,0.000010,581.315257,581.315247,581.315257,58131525.700201,13,-1.000000,""
181_updated,w0,python3action_chameleon_2000_neowise,0.997085,1,2000.000000,1,COMPLETED_SUCCESSFULLY,563.817590,24.200002,588.017592,562.820505,587.020507,24.257044,0,-1.000000,""
181,w0,python3action_chameleon_2000,0.000000,1,-1.000000,1,COMPLETED_SUCCESSFULLY,588.017607,0.000010,588.017617,588.017607,588.017617,58801761.724393,0,-1.000000,""
74_updated,w0,python3action_modeltraining_reviews100mb_nova,0.997085,1,2000.000000,1,COMPLETED_SUCCESSFULLY,509.077122,79.600010,588.677132,508.080037,587.680047,7.382914,10,-1.000000,""
74,w0,python3action_modeltraining_reviews100mb,0.000000,1,-1.000000,1,COMPLETED_SUCCESSFULLY,588.677147,0.000010,588.677157,588.677147,588.677157,58867715.700201,10,-1.000000,""
157_updated,w0,python3action_modeltraining_reviews50mb_neowise,0.997085,1,2000.000000,1,COMPLETED_SUCCESSFULLY,581.017496,22.799998,603.817494,580.020411,602.820409,26.439494,1,-1.000000,""
157,w0,python3action_modeltraining_reviews50mb,0.000000,1,-1.000000,1,COMPLETED_SUCCESSFULLY,603.817509,0.000010,603.817519,603.817509,603.817519,60381751.900201,1,-1.000000,""
66_updated,w0,python3action_videoprocessing_SampleVideo_30mb_nova,0.997085,1,2000.000000,1,COMPLETED_SUCCESSFULLY,497.477007,106.799980,604.276988,496.479922,603.279903,5.648689,6,-1.000000,""
66,w0,python3action_videoprocessing_SampleVideo_30mb,0.000000,1,-1.000000,1,COMPLETED_SUCCESSFULLY,604.277003,0.000010,604.277013,604.277003,604.277013,60427701.300201,6,-1.000000,""
python3action_facedetection_job76_6,w0,python3action_facedetection_reduced_1.83,0.997085,1,2000.000000,1,COMPLETED_SUCCESSFULLY,604.277033,0.000000,604.277033,603.279948,603.279948,136064270284457.218750,6,-1.000000,""
89_updated,w0,python3action_pyaes_3000_troll,0.997085,1,2000.000000,1,COMPLETED_SUCCESSFULLY,549.537162,57.166677,606.703839,548.540077,605.706754,10.595452,4,-1.000000,""
89,w0,python3action_pyaes_3000,0.000000,1,-1.000000,1,COMPLETED_SUCCESSFULLY,606.703854,0.000010,606.703864,606.703854,606.703864,60670386.400201,4,-1.000000,""
71_updated,w0,python3action_linpack_5000_orion,0.997085,1,2000.000000,1,COMPLETED_SUCCESSFULLY,572.963439,36.199977,609.163416,571.966354,608.166331,16.800186,11,-1.000000,""
71,w0,python3action_linpack_5000,0.000000,1,-1.000000,1,COMPLETED_SUCCESSFULLY,609.163431,0.000010,609.163441,609.163431,609.163441,60916344.116017,11,-1.000000,""
65_updated,w0,python3action_imageprocessing_SampleImage_40mb_taurus,0.997085,1,2000.000000,1,COMPLETED_SUCCESSFULLY,579.226064,32.600046,611.826110,578.228979,610.829025,18.737060,2,-1.000000,""
65,w0,python3action_imageprocessing_SampleImage_40mb,0.000000,1,-1.000000,1,COMPLETED_SUCCESSFULLY,611.826125,0.000010,611.826135,611.826125,611.826135,61182613.527963,2,-1.000000,""
184_updated,w0,python3action_imageprocessing_SampleImage_60mb_neowise,0.997085,1,2000.000000,1,COMPLETED_SUCCESSFULLY,588.017637,37.500000,625.517637,587.020552,624.520552,16.653881,0,-1.000000,""
184,w0,python3action_imageprocessing_SampleImage_60mb,0.000000,1,-1.000000,1,COMPLETED_SUCCESSFULLY,625.517652,0.000010,625.517662,625.517652,625.517662,62551766.224996,0,-1.000000,""
175_updated,w0,python3action_chameleon_2000_neowise,0.997085,1,2000.000000,1,COMPLETED_SUCCESSFULLY,603.817539,24.200002,628.017541,602.820454,627.020456,25.909934,1,-1.000000,""
175,w0,python3action_chameleon_2000,0.000000,1,-1.000000,1,COMPLETED_SUCCESSFULLY,628.017556,0.000010,628.017566,628.017556,628.017566,62801756.623188,1,-1.000000,""
105_updated,w0,python3action_videoprocessing_SampleVideo_30mb_nova,0.997085,1,2000.000000,1,COMPLETED_SUCCESSFULLY,525.742209,106.799980,632.542189,524.745124,631.545104,5.913345,9,-1.000000,""
105,w0,python3action_videoprocessing_SampleVideo_30mb,0.000000,1,-1.000000,1,COMPLETED_SUCCESSFULLY,632.542204,0.000010,632.542214,632.542204,632.542214,63254221.447010,9,-1.000000,""
68_updated,w0,python3action_facedetection_SampleVideo_30mb_nova,0.997085,1,2000.000000,1,COMPLETED_SUCCESSFULLY,481.877061,160.399990,642.277051,480.879976,641.279966,3.998005,7,-1.000000,""
68,w0,python3action_facedetection_SampleVideo_30mb,0.000000,1,-1.000000,1,COMPLETED_SUCCESSFULLY,642.277066,0.000010,642.277076,642.277066,642.277076,64227707.626579,7,-1.000000,""
python3action_video_processing_job81_7,w0,python3action_video_processing_reduced_1.89,0.997085,1,2000.000000,1,COMPLETED_SUCCESSFULLY,642.277096,0.000000,642.277096,641.280011,641.280011,13118043331191.343750,7,-1.000000,""
194_updated,w0,python3action_modeltraining_reviews50mb_neowise,0.997085,1,2000.000000,1,COMPLETED_SUCCESSFULLY,625.517682,22.799998,648.317680,624.520597,647.320595,28.391257,0,-1.000000,""
194,w0,python3action_modeltraining_reviews50mb,0.000000,1,-1.000000,1,COMPLETED_SUCCESSFULLY,648.317695,0.000010,648.317705,648.317695,648.317705,64831770.503213,0,-1.000000,""
180_updated,w0,python3action_modeltraining_reviews50mb_neowise,0.997085,1,2000.000000,1,COMPLETED_SUCCESSFULLY,628.017586,22.799998,650.817584,627.020501,649.820499,28.500902,1,-1.000000,""
180,w0,python3action_modeltraining_reviews50mb,0.000000,1,-1.000000,1,COMPLETED_SUCCESSFULLY,650.817599,0.000010,650.817609,650.817599,650.817609,65081760.901406,1,-1.000000,""
70_updated,w0,python3action_floatoperation_200000000_nova,0.997085,1,2000.000000,1,COMPLETED_SUCCESSFULLY,518.342000,135.399990,653.741991,517.344915,652.744906,4.820864,8,-1.000000,""
70,w0,python3action_floatoperation_200000000,0.000000,1,-1.000000,1,COMPLETED_SUCCESSFULLY,653.742006,0.000010,653.742016,653.742006,653.742016,65374201.600201,8,-1.000000,""
python3action_facedetection_job83_8,w0,python3action_facedetection_reduced_0.91,0.997085,1,2000.000000,1,COMPLETED_SUCCESSFULLY,653.742036,0.000000,653.742036,652.744951,652.744951,147220648944246.906250,8,-1.000000,""
98_updated,w0,python3action_pyaes_3000_troll,0.997085,1,2000.000000,1,COMPLETED_SUCCESSFULLY,606.703884,57.166677,663.870561,605.706799,662.873476,11.595452,4,-1.000000,""
98,w0,python3action_pyaes_3000,0.000000,1,-1.000000,1,COMPLETED_SUCCESSFULLY,663.870576,0.000010,663.870586,663.870576,663.870586,66387058.600201,4,-1.000000,""
182_updated,w0,python3action_modeltraining_reviews50mb_neowise,0.997085,1,2000.000000,1,COMPLETED_SUCCESSFULLY,650.817629,22.799998,673.617627,649.820544,672.620542,29.500904,1,-1.000000,""
182,w0,python3action_modeltraining_reviews50mb,0.000000,1,-1.000000,1,COMPLETED_SUCCESSFULLY,673.617642,0.000010,673.617652,673.617642,673.617652,67361765.200201,1,-1.000000,""
92_updated,w0,python3action_videoprocessing_SampleVideo_30mb_nova,0.997085,1,2000.000000,1,COMPLETED_SUCCESSFULLY,588.677177,106.799980,695.477157,587.680092,694.480072,6.502624,10,-1.000000,""
92,w0,python3action_videoprocessing_SampleVideo_30mb,0.000000,1,-1.000000,1,COMPLETED_SUCCESSFULLY,695.477172,0.000010,695.477182,695.477172,695.477182,69547718.247010,10,-1.000000,""
192_updated,w0,python3action_modeltraining_reviews50mb_neowise,0.997085,1,2000.000000,1,COMPLETED_SUCCESSFULLY,673.617672,22.799998,696.417670,672.620587,695.420585,30.500906,1,-1.000000,""
192,w0,python3action_modeltraining_reviews50mb,0.000000,1,-1.000000,1,COMPLETED_SUCCESSFULLY,696.417685,0.000010,696.417695,696.417685,696.417695,69641769.500201,1,-1.000000,""
131_updated,w0,python3action_modeltraining_reviews100mb_nova,0.997085,1,2000.000000,1,COMPLETED_SUCCESSFULLY,632.542234,79.600010,712.142244,631.545149,711.145159,8.933983,9,-1.000000,""
131,w0,python3action_modeltraining_reviews100mb,0.000000,1,-1.000000,1,COMPLETED_SUCCESSFULLY,712.142259,0.000010,712.142269,712.142259,712.142269,71214226.924509,9,-1.000000,""
77_updated,w0,python3action_linpack_6000_orion,0.997085,1,2000.000000,1,COMPLETED_SUCCESSFULLY,609.163461,106.000000,715.163461,608.166376,714.166376,6.737419,11,-1.000000,""
77,w0,python3action_linpack_6000,0.000000,1,-1.000000,1,COMPLETED_SUCCESSFULLY,715.163476,0.000010,715.163486,715.163476,715.163486,71516348.616619,11,-1.000000,""
69_updated,w0,python3action_videoprocessing_SampleVideo_50mb_taurus,0.997085,1,2000.000000,1,COMPLETED_SUCCESSFULLY,561.665249,154.250029,715.915278,560.668164,714.918193,4.634801,12,-1.000000,""
69,w0,python3action_videoprocessing_SampleVideo_50mb,0.000000,1,-1.000000,1,COMPLETED_SUCCESSFULLY,715.915293,0.000010,715.915303,715.915293,715.915303,71591530.300201,12,-1.000000,""
197_updated,w0,python3action_chameleon_2000_neowise,0.997085,1,2000.000000,1,COMPLETED_SUCCESSFULLY,696.417715,24.200002,720.617717,695.420630,719.620632,29.736387,1,-1.000000,""
197,w0,python3action_chameleon_2000,0.000000,1,-1.000000,1,COMPLETED_SUCCESSFULLY,720.617732,0.000010,720.617742,720.617732,720.617742,72061774.223188,1,-1.000000,""
103_updated,w0,python3action_pyaes_3000_troll,0.997085,1,2000.000000,1,COMPLETED_SUCCESSFULLY,663.870606,57.166677,721.037283,662.873521,720.040198,12.595453,4,-1.000000,""
103,w0,python3action_pyaes_3000,0.000000,1,-1.000000,1,COMPLETED_SUCCESSFULLY,721.037298,0.000010,721.037308,721.037298,721.037308,72103730.800201,4,-1.000000,""
72_updated,w0,python3action_videoprocessing_SampleVideo_50mb_taurus,0.997085,1,2000.000000,1,COMPLETED_SUCCESSFULLY,581.315277,154.250029,735.565306,580.318192,734.568221,4.762192,13,-1.000000,""
72,w0,python3action_videoprocessing_SampleVideo_50mb,0.000000,1,-1.000000,1,COMPLETED_SUCCESSFULLY,735.565321,0.000010,735.565331,735.565321,735.565331,73556533.100201,13,-1.000000,""
78_updated,w0,python3action_facedetection_SampleVideo_50mb_taurus,0.997085,1,2000.000000,1,COMPLETED_SUCCESSFULLY,611.826155,134.600046,746.426201,610.829070,745.429116,5.538104,2,-1.000000,""
78,w0,python3action_facedetection_SampleVideo_50mb,0.000000,1,-1.000000,1,COMPLETED_SUCCESSFULLY,746.426216,0.000010,746.426226,746.426216,746.426226,74642622.641644,2,-1.000000,""
81_updated,w0,python3action_videoprocessing_SampleVideo_30mb_nova,0.997085,1,2000.000000,1,COMPLETED_SUCCESSFULLY,642.277126,106.799980,749.077107,641.280041,748.080022,7.004496,7,-1.000000,""
81,w0,python3action_videoprocessing_SampleVideo_30mb,0.000000,1,-1.000000,1,COMPLETED_SUCCESSFULLY,749.077122,0.000010,749.077132,749.077122,749.077132,74907713.200201,7,-1.000000,""
76_updated,w0,python3action_facedetection_SampleVideo_30mb_nova,0.997085,1,2000.000000,1,COMPLETED_SUCCESSFULLY,604.277063,160.399990,764.677053,603.279978,763.679968,4.761097,6,-1.000000,""
76,w0,python3action_facedetection_SampleVideo_30mb,0.000000,1,-1.000000,1,COMPLETED_SUCCESSFULLY,764.677068,0.000010,764.677078,764.677068,764.677078,76467707.824308,6,-1.000000,""
109_updated,w0,python3action_modeltraining_reviews100mb_nova,0.997085,1,2000.000000,1,COMPLETED_SUCCESSFULLY,695.477202,79.600010,775.077212,694.480117,774.080127,9.724624,10,-1.000000,""
109,w0,python3action_modeltraining_reviews100mb,0.000000,1,-1.000000,1,COMPLETED_SUCCESSFULLY,775.077227,0.000010,775.077237,775.077227,775.077237,77507723.724509,10,-1.000000,""
146_updated,w0,python3action_floatoperation_100000000_nova,0.997085,1,2000.000000,1,COMPLETED_SUCCESSFULLY,712.142289,66.200020,778.342309,711.145204,777.345224,11.742372,9,-1.000000,""
146,w0,python3action_floatoperation_100000000,0.000000,1,-1.000000,1,COMPLETED_SUCCESSFULLY,778.342324,0.000010,778.342334,778.342324,778.342334,77834233.400201,9,-1.000000,""
python3action_facedetection_job159_9,w0,python3action_facedetection_reduced_1.83,0.997085,1,2000.000000,1,COMPLETED_SUCCESSFULLY,778.342354,0.000000,778.342354,777.345269,777.345269,175323110167957.125000,9,-1.000000,""
83_updated,w0,python3action_facedetection_SampleVideo_30mb_nova,0.997085,1,2000.000000,1,COMPLETED_SUCCESSFULLY,653.742066,160.399990,814.142056,652.744981,813.144971,5.069483,8,-1.000000,""
83,w0,python3action_facedetection_SampleVideo_30mb,0.000000,1,-1.000000,1,COMPLETED_SUCCESSFULLY,814.142071,0.000010,814.142081,814.142071,814.142081,81414208.124308,8,-1.000000,""
python3action_pyaes_job97_8,w0,python3action_pyaes,0.997085,1,2000.000000,1,COMPLETED_SUCCESSFULLY,814.142101,2.134958,816.277059,813.145016,815.279974,381.871626,8,-1.000000,""
79_updated,w0,python3action_linpack_6000_orion,0.997085,1,2000.000000,1,COMPLETED_SUCCESSFULLY,715.163506,106.000000,821.163506,714.166421,820.166421,7.737419,11,-1.000000,""
79,w0,python3action_linpack_6000,0.000000,1,-1.000000,1,COMPLETED_SUCCESSFULLY,821.163521,0.000010,821.163531,821.163521,821.163531,82116353.117221,11,-1.000000,""
107_updated,w0,python3action_pyaes_4000_troll,0.997085,1,2000.000000,1,COMPLETED_SUCCESSFULLY,721.037328,102.333333,823.370661,720.040243,822.373576,8.036224,4,-1.000000,""
107,w0,python3action_pyaes_4000,0.000000,1,-1.000000,1,COMPLETED_SUCCESSFULLY,823.370676,0.000010,823.370686,823.370676,823.370686,82337068.634136,4,-1.000000,""
85_updated,w0,python3action_videoprocessing_SampleVideo_50mb_taurus,0.997085,1,2000.000000,1,COMPLETED_SUCCESSFULLY,715.915323,154.250029,870.165352,714.918238,869.168267,5.634801,12,-1.000000,""
85,w0,python3action_videoprocessing_SampleVideo_50mb,0.000000,1,-1.000000,1,COMPLETED_SUCCESSFULLY,870.165367,0.000010,870.165377,870.165367,870.165377,87016537.700201,12,-1.000000,""
94_updated,w0,python3action_videoprocessing_SampleVideo_30mb_nova,0.997085,1,2000.000000,1,COMPLETED_SUCCESSFULLY,764.677098,106.799980,871.477079,763.680013,870.479994,8.150563,6,-1.000000,""
94,w0,python3action_videoprocessing_SampleVideo_30mb,0.000000,1,-1.000000,1,COMPLETED_SUCCESSFULLY,871.477094,0.000010,871.477104,871.477094,871.477104,87147710.400201,6,-1.000000,""
86_updated,w0,python3action_videoprocessing_SampleVideo_50mb_taurus,0.997085,1,2000.000000,1,COMPLETED_SUCCESSFULLY,735.565351,154.250029,889.815380,734.568266,888.818295,5.762192,13,-1.000000,""
86,w0,python3action_videoprocessing_SampleVideo_50mb,0.000000,1,-1.000000,1,COMPLETED_SUCCESSFULLY,889.815395,0.000010,889.815405,889.815395,889.815405,88981540.500201,13,-1.000000,""
87_updated,w0,python3action_videoprocessing_SampleVideo_50mb_taurus,0.997085,1,2000.000000,1,COMPLETED_SUCCESSFULLY,746.426246,154.250029,900.676275,745.429161,899.679190,5.832603,2,-1.000000,""
87,w0,python3action_videoprocessing_SampleVideo_50mb,0.000000,1,-1.000000,1,COMPLETED_SUCCESSFULLY,900.676290,0.000010,900.676300,900.676290,900.676300,90067630.025420,2,-1.000000,""
95_updated,w0,python3action_facedetection_SampleVideo_30mb_nova,0.997085,1,2000.000000,1,COMPLETED_SUCCESSFULLY,749.077152,160.399990,909.477142,748.080067,908.480057,5.663841,7,-1.000000,""
95,w0,python3action_facedetection_SampleVideo_30mb,0.000000,1,-1.000000,1,COMPLETED_SUCCESSFULLY,909.477157,0.000010,909.477167,909.477157,909.477167,90947716.723907,7,-1.000000,""
133_updated,w0,python3action_floatoperation_200000000_nova,0.997085,1,2000.000000,1,COMPLETED_SUCCESSFULLY,775.077257,135.399990,910.477247,774.080172,909.480162,6.716988,10,-1.000000,""
133,w0,python3action_floatoperation_200000000,0.000000,1,-1.000000,1,COMPLETED_SUCCESSFULLY,910.477262,0.000010,910.477272,910.477262,910.477272,91047727.248215,10,-1.000000,""
99_updated,w0,python3action_imageprocessing_SampleImage_40mb_taurus,0.997085,1,2000.000000,1,COMPLETED_SUCCESSFULLY,889.815425,32.600046,922.415471,888.818340,921.418386,28.264328,13,-1.000000,""
99,w0,python3action_imageprocessing_SampleImage_40mb,0.000000,1,-1.000000,1,COMPLETED_SUCCESSFULLY,922.415486,0.000010,922.415496,922.415486,922.415496,92241549.613881,13,-1.000000,""
110_updated,w0,python3action_pyaes_4000_troll,0.997085,1,2000.000000,1,COMPLETED_SUCCESSFULLY,823.370706,102.333333,925.704040,822.373621,924.706955,9.036224,4,-1.000000,""
110,w0,python3action_pyaes_4000,0.000000,1,-1.000000,1,COMPLETED_SUCCESSFULLY,925.704055,0.000010,925.704065,925.704055,925.704065,92570406.500201,4,-1.000000,""
91_updated,w0,python3action_linpack_6000_orion,0.997085,1,2000.000000,1,COMPLETED_SUCCESSFULLY,821.163551,106.000000,927.163551,820.166466,926.166466,8.737419,11,-1.000000,""
91,w0,python3action_linpack_6000,0.000000,1,-1.000000,1,COMPLETED_SUCCESSFULLY,927.163566,0.000010,927.163576,927.163566,927.163576,92716357.617823,11,-1.000000,""
159_updated,w0,python3action_facedetection_SampleVideo_30mb_nova,0.997085,1,2000.000000,1,COMPLETED_SUCCESSFULLY,778.342384,160.399990,938.742374,777.345299,937.745289,5.846293,9,-1.000000,""
159,w0,python3action_facedetection_SampleVideo_30mb,0.000000,1,-1.000000,1,COMPLETED_SUCCESSFULLY,938.742389,0.000010,938.742399,938.742389,938.742399,93874239.924308,9,-1.000000,""
97_updated,w0,python3action_pyaes_4000_nova,0.997085,1,2000.000000,1,COMPLETED_SUCCESSFULLY,816.277074,139.600010,955.877084,815.279989,954.879999,6.840114,8,-1.000000,""
97,w0,python3action_pyaes_4000,0.000000,1,-1.000000,1,COMPLETED_SUCCESSFULLY,955.877099,0.000010,955.877109,955.877099,955.877109,95587710.925776,8,-1.000000,""
114_updated,w0,python3action_floatoperation_200000000_nova,0.997085,1,2000.000000,1,COMPLETED_SUCCESSFULLY,871.477124,135.399990,1006.877114,870.480039,1005.880029,7.428952,6,-1.000000,""
114,w0,python3action_floatoperation_200000000,0.000000,1,-1.000000,1,COMPLETED_SUCCESSFULLY,1006.877129,0.000010,1006.877139,1006.877129,1006.877139,100687713.923907,6,-1.000000,""
153_updated,w0,python3action_videoprocessing_SampleVideo_30mb_nova,0.997085,1,2000.000000,1,COMPLETED_SUCCESSFULLY,910.477292,106.799980,1017.277273,909.480207,1016.280188,9.515734,10,-1.000000,""
153,w0,python3action_videoprocessing_SampleVideo_30mb,0.000000,1,-1.000000,1,COMPLETED_SUCCESSFULLY,1017.277288,0.000010,1017.277298,1017.277288,1017.277298,101727729.800201,10,-1.000000,""
129_updated,w0,python3action_floatoperation_100000000_nova,0.997085,1,2000.000000,1,COMPLETED_SUCCESSFULLY,955.877129,66.200020,1022.077149,954.880044,1021.080064,15.424166,8,-1.000000,""
129,w0,python3action_floatoperation_100000000,0.000000,1,-1.000000,1,COMPLETED_SUCCESSFULLY,1022.077164,0.000010,1022.077174,1022.077164,1022.077174,102207717.400201,8,-1.000000,""
90_updated,w0,python3action_videoprocessing_SampleVideo_50mb_taurus,0.997085,1,2000.000000,1,COMPLETED_SUCCESSFULLY,870.165397,154.250029,1024.415426,869.168312,1023.418341,6.634802,12,-1.000000,""
90,w0,python3action_videoprocessing_SampleVideo_50mb,0.000000,1,-1.000000,1,COMPLETED_SUCCESSFULLY,1024.415441,0.000010,1024.415451,1024.415441,1024.415451,102441545.100201,12,-1.000000,""
113_updated,w0,python3action_pyaes_4000_troll,0.997085,1,2000.000000,1,COMPLETED_SUCCESSFULLY,925.704085,102.333333,1028.037418,924.707000,1027.040333,10.036225,4,-1.000000,""
113,w0,python3action_pyaes_4000,0.000000,1,-1.000000,1,COMPLETED_SUCCESSFULLY,1028.037433,0.000010,1028.037443,1028.037433,1028.037443,102803744.334136,4,-1.000000,""
96_updated,w0,python3action_linpack_6000_orion,0.997085,1,2000.000000,1,COMPLETED_SUCCESSFULLY,927.163596,106.000000,1033.163596,926.166511,1032.166511,9.737420,11,-1.000000,""
96,w0,python3action_linpack_6000,0.000000,1,-1.000000,1,COMPLETED_SUCCESSFULLY,1033.163611,0.000010,1033.163621,1033.163611,1033.163621,103316362.118426,11,-1.000000,""
104_updated,w0,python3action_facedetection_SampleVideo_50mb_taurus,0.997085,1,2000.000000,1,COMPLETED_SUCCESSFULLY,900.676320,134.600046,1035.276366,899.679235,1034.279281,7.684093,2,-1.000000,""
104,w0,python3action_facedetection_SampleVideo_50mb,0.000000,1,-1.000000,1,COMPLETED_SUCCESSFULLY,1035.276381,0.000010,1035.276391,1035.276381,1035.276391,103527639.139100,2,-1.000000,""
118_updated,w0,python3action_imageprocessing_SampleImage_40mb_taurus,0.997085,1,2000.000000,1,COMPLETED_SUCCESSFULLY,1035.276411,32.600046,1067.876458,1034.279326,1066.879373,32.726315,2,-1.000000,""
118,w0,python3action_imageprocessing_SampleImage_40mb,0.000000,1,-1.000000,1,COMPLETED_SUCCESSFULLY,1067.876473,0.000010,1067.876483,1067.876473,1067.876483,106787648.300201,2,-1.000000,""
143_updated,w0,python3action_linpack_5000_orion,0.997085,1,2000.000000,1,COMPLETED_SUCCESSFULLY,1033.163641,36.199977,1069.363618,1032.166556,1068.366533,29.512906,11,-1.000000,""
143,w0,python3action_linpack_5000,0.000000,1,-1.000000,1,COMPLETED_SUCCESSFULLY,1069.363633,0.000010,1069.363643,1069.363633,1069.363643,106936364.312489,11,-1.000000,""
115_updated,w0,python3action_facedetection_SampleVideo_30mb_nova,0.997085,1,2000.000000,1,COMPLETED_SUCCESSFULLY,909.477187,160.399990,1069.877177,908.480102,1068.880092,6.663841,7,-1.000000,""
115,w0,python3action_facedetection_SampleVideo_30mb,0.000000,1,-1.000000,1,COMPLETED_SUCCESSFULLY,1069.877192,0.000010,1069.877202,1069.877192,1069.877202,106987720.247613,7,-1.000000,""
117_updated,w0,python3action_videoprocessing_SampleVideo_50mb_taurus,0.997085,1,2000.000000,1,COMPLETED_SUCCESSFULLY,922.415516,154.250029,1076.665545,921.418431,1075.668460,6.973538,13,-1.000000,""
117,w0,python3action_videoprocessing_SampleVideo_50mb,0.000000,1,-1.000000,1,COMPLETED_SUCCESSFULLY,1076.665560,0.000010,1076.665570,1076.665560,1076.665570,107666557.000201,13,-1.000000,""
170_updated,w0,python3action_facedetection_SampleVideo_30mb_nova,0.997085,1,2000.000000,1,COMPLETED_SUCCESSFULLY,938.742419,160.399990,1099.142409,937.745334,1098.145324,6.846293,9,-1.000000,""
170,w0,python3action_facedetection_SampleVideo_30mb,0.000000,1,-1.000000,1,COMPLETED_SUCCESSFULLY,1099.142424,0.000010,1099.142434,1099.142424,1099.142434,109914243.448014,9,-1.000000,""
152_updated,w0,python3action_linpack_5000_orion,0.997085,1,2000.000000,1,COMPLETED_SUCCESSFULLY,1069.363663,36.199977,1105.563640,1068.366578,1104.566555,30.512908,11,-1.000000,""
152,w0,python3action_linpack_5000,0.000000,1,-1.000000,1,COMPLETED_SUCCESSFULLY,1105.563655,0.000010,1105.563665,1105.563655,1105.563665,110556366.506553,11,-1.000000,""
121_updated,w0,python3action_imageprocessing_SampleImage_40mb_taurus,0.997085,1,2000.000000,1,COMPLETED_SUCCESSFULLY,1076.665590,32.600046,1109.265636,1075.668505,1108.268551,33.995920,13,-1.000000,""
121,w0,python3action_imageprocessing_SampleImage_40mb,0.000000,1,-1.000000,1,COMPLETED_SUCCESSFULLY,1109.265651,0.000010,1109.265661,1109.265651,1109.265661,110926566.113881,13,-1.000000,""
138_updated,w0,python3action_videoprocessing_SampleVideo_30mb_nova,0.997085,1,2000.000000,1,COMPLETED_SUCCESSFULLY,1006.877159,106.799980,1113.677140,1005.880074,1112.680055,10.418354,6,-1.000000,""
138,w0,python3action_videoprocessing_SampleVideo_30mb,0.000000,1,-1.000000,1,COMPLETED_SUCCESSFULLY,1113.677155,0.000010,1113.677165,1113.677155,1113.677165,111367716.500201,6,-1.000000,""
145_updated,w0,python3action_videoprocessing_SampleVideo_30mb_nova,0.997085,1,2000.000000,1,COMPLETED_SUCCESSFULLY,1022.077194,106.799980,1128.877174,1021.080109,1127.880089,10.560677,8,-1.000000,""
145,w0,python3action_videoprocessing_SampleVideo_30mb,0.000000,1,-1.000000,1,COMPLETED_SUCCESSFULLY,1128.877189,0.000010,1128.877199,1128.877189,1128.877199,112887719.947010,8,-1.000000,""
124_updated,w0,python3action_pyaes_4000_troll,0.997085,1,2000.000000,1,COMPLETED_SUCCESSFULLY,1028.037463,102.333333,1130.370797,1027.040378,1129.373712,11.036225,4,-1.000000,""
124,w0,python3action_pyaes_4000,0.000000,1,-1.000000,1,COMPLETED_SUCCESSFULLY,1130.370812,0.000010,1130.370822,1130.370812,1130.370822,113037082.200201,4,-1.000000,""
168_updated,w0,python3action_linpack_5000_orion,0.997085,1,2000.000000,1,COMPLETED_SUCCESSFULLY,1105.563685,36.199977,1141.763662,1104.566600,1140.766577,31.512909,11,-1.000000,""
168,w0,python3action_linpack_5000,0.000000,1,-1.000000,1,COMPLETED_SUCCESSFULLY,1141.763677,0.000010,1141.763687,1141.763677,1141.763687,114176368.700616,11,-1.000000,""
127_updated,w0,python3action_imageprocessing_SampleImage_40mb_taurus,0.997085,1,2000.000000,1,COMPLETED_SUCCESSFULLY,1109.265681,32.600046,1141.865727,1108.268596,1140.868642,34.995921,13,-1.000000,""
127,w0,python3action_imageprocessing_SampleImage_40mb,0.000000,1,-1.000000,1,COMPLETED_SUCCESSFULLY,1141.865742,0.000010,1141.865752,1141.865742,1141.865752,114186575.227562,13,-1.000000,""
161_updated,w0,python3action_floatoperation_200000000_nova,0.997085,1,2000.000000,1,COMPLETED_SUCCESSFULLY,1017.277318,135.399990,1152.677308,1016.280233,1151.680223,8.505763,10,-1.000000,""
161,w0,python3action_floatoperation_200000000,0.000000,1,-1.000000,1,COMPLETED_SUCCESSFULLY,1152.677323,0.000010,1152.677333,1152.677323,1152.677333,115267733.323907,10,-1.000000,""
106_updated,w0,python3action_facedetection_SampleVideo_50mb_taurus,0.997085,1,2000.000000,1,COMPLETED_SUCCESSFULLY,1024.415471,134.600046,1159.015517,1023.418386,1158.018432,8.603403,12,-1.000000,""
106,w0,python3action_facedetection_SampleVideo_50mb,0.000000,1,-1.000000,1,COMPLETED_SUCCESSFULLY,1159.015532,0.000010,1159.015542,1159.015532,1159.015542,115901554.213881,12,-1.000000,""
134_updated,w0,python3action_imageprocessing_SampleImage_40mb_taurus,0.997085,1,2000.000000,1,COMPLETED_SUCCESSFULLY,1141.865772,32.600046,1174.465818,1140.868687,1173.468733,35.995922,13,-1.000000,""
134,w0,python3action_imageprocessing_SampleImage_40mb,0.000000,1,-1.000000,1,COMPLETED_SUCCESSFULLY,1174.465833,0.000010,1174.465843,1174.465833,1174.465843,117446584.341242,13,-1.000000,""
154_updated,w0,python3action_floatoperation_100000000_nova,0.997085,1,2000.000000,1,COMPLETED_SUCCESSFULLY,1113.677185,66.200020,1179.877205,1112.680100,1178.880120,17.807852,6,-1.000000,""
154,w0,python3action_floatoperation_100000000,0.000000,1,-1.000000,1,COMPLETED_SUCCESSFULLY,1179.877220,0.000010,1179.877230,1179.877220,1179.877230,117987723.000201,6,-1.000000,""
128_updated,w0,python3action_pyaes_3000_troll,0.997085,1,2000.000000,1,COMPLETED_SUCCESSFULLY,1130.370842,57.166677,1187.537519,1129.373757,1186.540434,20.755806,4,-1.000000,""
128,w0,python3action_pyaes_3000,0.000000,1,-1.000000,1,COMPLETED_SUCCESSFULLY,1187.537534,0.000010,1187.537544,1187.537534,1187.537544,118753754.400201,4,-1.000000,""
119_updated,w0,python3action_imageprocessing_SampleImage_40mb_taurus,0.997085,1,2000.000000,1,COMPLETED_SUCCESSFULLY,1159.015562,32.600046,1191.615608,1158.018477,1190.618523,36.521989,12,-1.000000,""
119,w0,python3action_imageprocessing_SampleImage_40mb,0.000000,1,-1.000000,1,COMPLETED_SUCCESSFULLY,1191.615623,0.000010,1191.615633,1191.615623,1191.615633,119161563.327562,12,-1.000000,""
144_updated,w0,python3action_floatoperation_200000000_nova,0.997085,1,2000.000000,1,COMPLETED_SUCCESSFULLY,1069.877222,135.399990,1205.277213,1068.880137,1204.280128,8.894241,7,-1.000000,""
144,w0,python3action_floatoperation_200000000,0.000000,1,-1.000000,1,COMPLETED_SUCCESSFULLY,1205.277228,0.000010,1205.277238,1205.277228,1205.277238,120527723.800201,7,-1.000000,""
137_updated,w0,python3action_imageprocessing_SampleImage_40mb_taurus,0.997085,1,2000.000000,1,COMPLETED_SUCCESSFULLY,1174.465863,32.600046,1207.065910,1173.468778,1206.068825,36.995924,13,-1.000000,""
137,w0,python3action_imageprocessing_SampleImage_40mb,0.000000,1,-1.000000,1,COMPLETED_SUCCESSFULLY,1207.065925,0.000010,1207.065935,1207.065925,1207.065935,120706593.500201,13,-1.000000,""
122_updated,w0,python3action_videoprocessing_SampleVideo_50mb_taurus,0.997085,1,2000.000000,1,COMPLETED_SUCCESSFULLY,1067.876503,154.250029,1222.126532,1066.879418,1221.129447,7.916559,2,-1.000000,""
122,w0,python3action_videoprocessing_SampleVideo_50mb,0.000000,1,-1.000000,1,COMPLETED_SUCCESSFULLY,1222.126547,0.000010,1222.126557,1222.126547,1222.126557,122212655.700201,2,-1.000000,""
123_updated,w0,python3action_imageprocessing_SampleImage_40mb_taurus,0.997085,1,2000.000000,1,COMPLETED_SUCCESSFULLY,1191.615653,32.600046,1224.215699,1190.618568,1223.218614,37.521990,12,-1.000000,""
123,w0,python3action_imageprocessing_SampleImage_40mb,0.000000,1,-1.000000,1,COMPLETED_SUCCESSFULLY,1224.215714,0.000010,1224.215724,1224.215714,1224.215724,122421572.441242,12,-1.000000,""
185_updated,w0,python3action_floatoperation_200000000_nova,0.997085,1,2000.000000,1,COMPLETED_SUCCESSFULLY,1099.142454,135.399990,1234.542445,1098.145369,1233.545360,9.110380,9,-1.000000,""
185,w0,python3action_floatoperation_200000000,0.000000,1,-1.000000,1,COMPLETED_SUCCESSFULLY,1234.542460,0.000010,1234.542470,1234.542460,1234.542470,123454247.000201,9,-1.000000,""
148_updated,w0,python3action_imageprocessing_SampleImage_40mb_taurus,0.997085,1,2000.000000,1,COMPLETED_SUCCESSFULLY,1207.065955,32.600046,1239.666001,1206.068870,1238.668916,37.995925,13,-1.000000,""
148,w0,python3action_imageprocessing_SampleImage_40mb,0.000000,1,-1.000000,1,COMPLETED_SUCCESSFULLY,1239.666016,0.000010,1239.666026,1239.666016,1239.666026,123966602.613881,13,-1.000000,""
169_updated,w0,python3action_linpack_6000_orion,0.997085,1,2000.000000,1,COMPLETED_SUCCESSFULLY,1141.763707,106.000000,1247.763707,1140.766622,1246.766622,11.761949,11,-1.000000,""
169,w0,python3action_linpack_6000,0.000000,1,-1.000000,1,COMPLETED_SUCCESSFULLY,1247.763722,0.000010,1247.763732,1247.763722,1247.763732,124776373.201218,11,-1.000000,""
132_updated,w0,python3action_imageprocessing_SampleImage_40mb_taurus,0.997085,1,2000.000000,1,COMPLETED_SUCCESSFULLY,1224.215744,32.600046,1256.815791,1223.218659,1255.818706,38.521992,12,-1.000000,""
132,w0,python3action_imageprocessing_SampleImage_40mb,0.000000,1,-1.000000,1,COMPLETED_SUCCESSFULLY,1256.815806,0.000010,1256.815816,1256.815806,1256.815816,125681581.600201,12,-1.000000,""
173_updated,w0,python3action_videoprocessing_SampleVideo_30mb_nova,0.997085,1,2000.000000,1,COMPLETED_SUCCESSFULLY,1152.677353,106.799980,1259.477334,1151.680268,1258.480249,11.783525,10,-1.000000,""
173,w0,python3action_videoprocessing_SampleVideo_30mb,0.000000,1,-1.000000,1,COMPLETED_SUCCESSFULLY,1259.477349,0.000010,1259.477359,1259.477349,1259.477359,125947735.900201,10,-1.000000,""
130_updated,w0,python3action_linpack_5000_taurus,0.997085,1,2000.000000,1,COMPLETED_SUCCESSFULLY,1222.126577,38.500058,1260.626635,1221.129492,1259.629550,32.717602,2,-1.000000,""
130,w0,python3action_linpack_5000,0.000000,1,-1.000000,1,COMPLETED_SUCCESSFULLY,1260.626650,0.000010,1260.626660,1260.626650,1260.626660,126062666.000201,2,-1.000000,""
158_updated,w0,python3action_pyaes_4000_nova,0.997085,1,2000.000000,1,COMPLETED_SUCCESSFULLY,1128.877219,139.600010,1268.477229,1127.880134,1267.480144,9.079370,8,-1.000000,""
158,w0,python3action_pyaes_4000,0.000000,1,-1.000000,1,COMPLETED_SUCCESSFULLY,1268.477244,0.000010,1268.477254,1268.477244,1268.477254,126847725.424509,8,-1.000000,""
176_updated,w0,python3action_imageprocessing_SampleImage_40mb_taurus,0.997085,1,2000.000000,1,COMPLETED_SUCCESSFULLY,1239.666046,32.600046,1272.266092,1238.668961,1271.269007,38.995927,13,-1.000000,""
176,w0,python3action_imageprocessing_SampleImage_40mb,0.000000,1,-1.000000,1,COMPLETED_SUCCESSFULLY,1272.266107,0.000010,1272.266117,1272.266107,1272.266117,127226611.727562,13,-1.000000,""
136_updated,w0,python3action_imageprocessing_SampleImage_40mb_taurus,0.997085,1,2000.000000,1,COMPLETED_SUCCESSFULLY,1256.815836,32.600046,1289.415882,1255.818751,1288.418797,39.521993,12,-1.000000,""
136,w0,python3action_imageprocessing_SampleImage_40mb,0.000000,1,-1.000000,1,COMPLETED_SUCCESSFULLY,1289.415897,0.000010,1289.415907,1289.415897,1289.415907,128941590.713881,12,-1.000000,""
142_updated,w0,python3action_pyaes_4000_troll,0.997085,1,2000.000000,1,COMPLETED_SUCCESSFULLY,1187.537564,102.333333,1289.870897,1186.540479,1288.873812,12.594858,4,-1.000000,""
142,w0,python3action_pyaes_4000,0.000000,1,-1.000000,1,COMPLETED_SUCCESSFULLY,1289.870912,0.000010,1289.870922,1289.870912,1289.870922,128987092.234136,4,-1.000000,""
python3action_linpack_job140_12,w0,python3action_linpack,0.997085,1,2000.000000,1,COMPLETED_SUCCESSFULLY,1289.415927,5.760927,1295.176854,1288.418842,1294.179769,224.647825,12,-1.000000,""
135_updated,w0,python3action_linpack_5000_taurus,0.997085,1,2000.000000,1,COMPLETED_SUCCESSFULLY,1260.626680,38.500058,1299.126738,1259.629595,1298.129653,33.717603,2,-1.000000,""
135,w0,python3action_linpack_5000,0.000000,1,-1.000000,1,COMPLETED_SUCCESSFULLY,1299.126753,0.000010,1299.126763,1299.126753,1299.126763,129912676.300201,2,-1.000000,""
156_updated,w0,python3action_videoprocessing_SampleVideo_30mb_nova,0.997085,1,2000.000000,1,COMPLETED_SUCCESSFULLY,1205.277258,106.799980,1312.077238,1204.280173,1311.080153,12.276034,7,-1.000000,""
156,w0,python3action_videoprocessing_SampleVideo_30mb,0.000000,1,-1.000000,1,COMPLETED_SUCCESSFULLY,1312.077253,0.000010,1312.077263,1312.077253,1312.077263,131207726.347010,7,-1.000000,""
186_updated,w0,python3action_floatoperation_100000000_nova,0.997085,1,2000.000000,1,COMPLETED_SUCCESSFULLY,1259.477379,66.200020,1325.677399,1258.480294,1324.680314,20.010271,10,-1.000000,""
186,w0,python3action_floatoperation_100000000,0.000000,1,-1.000000,1,COMPLETED_SUCCESSFULLY,1325.677414,0.000010,1325.677424,1325.677414,1325.677424,132567742.400201,10,-1.000000,""
140_updated,w0,python3action_linpack_5000_taurus,0.997085,1,2000.000000,1,COMPLETED_SUCCESSFULLY,1295.176869,38.500058,1333.676927,1294.179784,1332.679842,34.615009,12,-1.000000,""
140,w0,python3action_linpack_5000,0.000000,1,-1.000000,1,COMPLETED_SUCCESSFULLY,1333.676942,0.000010,1333.676952,1333.676942,1333.676952,133367695.203901,12,-1.000000,""
162_updated,w0,python3action_facedetection_SampleVideo_30mb_nova,0.997085,1,2000.000000,1,COMPLETED_SUCCESSFULLY,1179.877250,160.399990,1340.277240,1178.880165,1339.280155,8.349627,6,-1.000000,""
162,w0,python3action_facedetection_SampleVideo_30mb,0.000000,1,-1.000000,1,COMPLETED_SUCCESSFULLY,1340.277255,0.000010,1340.277265,1340.277255,1340.277265,134027726.523907,6,-1.000000,""
165_updated,w0,python3action_pyaes_3000_troll,0.997085,1,2000.000000,1,COMPLETED_SUCCESSFULLY,1289.870942,57.166677,1347.037619,1288.873857,1346.040534,23.545894,4,-1.000000,""
165,w0,python3action_pyaes_3000,0.000000,1,-1.000000,1,COMPLETED_SUCCESSFULLY,1347.037634,0.000010,1347.037644,1347.037634,1347.037644,134703764.400201,4,-1.000000,""
172_updated,w0,python3action_linpack_6000_orion,0.997085,1,2000.000000,1,COMPLETED_SUCCESSFULLY,1247.763752,106.000000,1353.763752,1246.766667,1352.766667,12.761950,11,-1.000000,""
172,w0,python3action_linpack_6000,0.000000,1,-1.000000,1,COMPLETED_SUCCESSFULLY,1353.763767,0.000010,1353.763777,1353.763767,1353.763777,135376377.701820,11,-1.000000,""
160_updated,w0,python3action_imageprocessing_SampleImage_40mb_taurus,0.997085,1,2000.000000,1,COMPLETED_SUCCESSFULLY,1333.676972,32.600046,1366.277018,1332.679887,1365.279933,41.879693,12,-1.000000,""
160,w0,python3action_imageprocessing_SampleImage_40mb,0.000000,1,-1.000000,1,COMPLETED_SUCCESSFULLY,1366.277033,0.000010,1366.277043,1366.277033,1366.277043,136627704.317582,12,-1.000000,""
166_updated,w0,python3action_videoprocessing_SampleVideo_30mb_nova,0.997085,1,2000.000000,1,COMPLETED_SUCCESSFULLY,1268.477274,106.799980,1375.277255,1267.480189,1374.280170,12.867794,8,-1.000000,""
166,w0,python3action_videoprocessing_SampleVideo_30mb,0.000000,1,-1.000000,1,COMPLETED_SUCCESSFULLY,1375.277270,0.000010,1375.277280,1375.277270,1375.277280,137527728.000201,8,-1.000000,""
164_updated,w0,python3action_floatoperation_100000000_nova,0.997085,1,2000.000000,1,COMPLETED_SUCCESSFULLY,1312.077283,66.200020,1378.277303,1311.080198,1377.280218,20.804831,7,-1.000000,""
164,w0,python3action_floatoperation_100000000,0.000000,1,-1.000000,1,COMPLETED_SUCCESSFULLY,1378.277318,0.000010,1378.277328,1378.277318,1378.277328,137827732.801405,7,-1.000000,""
195_updated,w0,python3action_facedetection_SampleVideo_30mb_nova,0.997085,1,2000.000000,1,COMPLETED_SUCCESSFULLY,1234.542490,160.399990,1394.942480,1233.545405,1393.945395,8.690433,9,-1.000000,""
195,w0,python3action_facedetection_SampleVideo_30mb,0.000000,1,-1.000000,1,COMPLETED_SUCCESSFULLY,1394.942495,0.000010,1394.942505,1394.942495,1394.942505,139494250.523907,9,-1.000000,""
178_updated,w0,python3action_pyaes_3000_troll,0.997085,1,2000.000000,1,COMPLETED_SUCCESSFULLY,1347.037664,57.166677,1404.204341,1346.040579,1403.207256,24.545895,4,-1.000000,""
178,w0,python3action_pyaes_3000,0.000000,1,-1.000000,1,COMPLETED_SUCCESSFULLY,1404.204356,0.000010,1404.204366,1404.204356,1404.204366,140420436.600201,4,-1.000000,""
174_updated,w0,python3action_floatoperation_100000000_nova,0.997085,1,2000.000000,1,COMPLETED_SUCCESSFULLY,1340.277285,66.200020,1406.477305,1339.280200,1405.480220,21.230813,6,-1.000000,""
174,w0,python3action_floatoperation_100000000,0.000000,1,-1.000000,1,COMPLETED_SUCCESSFULLY,1406.477320,0.000010,1406.477330,1406.477320,1406.477330,140647733.000201,6,-1.000000,""
196_updated,w0,python3action_videoprocessing_SampleVideo_30mb_nova,0.997085,1,2000.000000,1,COMPLETED_SUCCESSFULLY,1325.677444,106.799980,1432.477424,1324.680359,1431.480339,13.403376,10,-1.000000,""
196,w0,python3action_videoprocessing_SampleVideo_30mb,0.000000,1,-1.000000,1,COMPLETED_SUCCESSFULLY,1432.477439,0.000010,1432.477449,1432.477439,1432.477449,143247744.947010,10,-1.000000,""
183_updated,w0,python3action_floatoperation_100000000_nova,0.997085,1,2000.000000,1,COMPLETED_SUCCESSFULLY,1375.277300,66.200020,1441.477320,1374.280215,1440.480235,21.759514,8,-1.000000,""
183,w0,python3action_floatoperation_100000000,0.000000,1,-1.000000,1,COMPLETED_SUCCESSFULLY,1441.477335,0.000010,1441.477345,1441.477335,1441.477345,144147734.500201,8,-1.000000,""
177_updated,w0,python3action_floatoperation_100000000_nova,0.997085,1,2000.000000,1,COMPLETED_SUCCESSFULLY,1378.277348,66.200020,1444.477368,1377.280263,1443.480283,21.804832,7,-1.000000,""
177,w0,python3action_floatoperation_100000000,0.000000,1,-1.000000,1,COMPLETED_SUCCESSFULLY,1444.477383,0.000010,1444.477393,1444.477383,1444.477393,144447739.300201,7,-1.000000,""
139_updated,w0,python3action_videoprocessing_SampleVideo_50mb_taurus,0.997085,1,2000.000000,1,COMPLETED_SUCCESSFULLY,1299.126783,154.250029,1453.376812,1298.129698,1452.379727,9.415750,2,-1.000000,""
139,w0,python3action_videoprocessing_SampleVideo_50mb,0.000000,1,-1.000000,1,COMPLETED_SUCCESSFULLY,1453.376827,0.000010,1453.376837,1453.376827,1453.376837,145337683.700201,2,-1.000000,""
193_updated,w0,python3action_linpack_6000_orion,0.997085,1,2000.000000,1,COMPLETED_SUCCESSFULLY,1353.763797,106.000000,1459.763797,1352.766712,1458.766712,13.761950,11,-1.000000,""
193,w0,python3action_linpack_6000,0.000000,1,-1.000000,1,COMPLETED_SUCCESSFULLY,1459.763812,0.000010,1459.763822,1459.763812,1459.763822,145976382.202423,11,-1.000000,""
155_updated,w0,python3action_imageprocessing_SampleImage_40mb_taurus,0.997085,1,2000.000000,1,COMPLETED_SUCCESSFULLY,1453.376857,32.600046,1485.976903,1452.379772,1484.979818,45.551464,2,-1.000000,""
155,w0,python3action_imageprocessing_SampleImage_40mb,0.000000,1,-1.000000,1,COMPLETED_SUCCESSFULLY,1485.976918,0.000010,1485.976928,1485.976918,1485.976928,148597692.813881,2,-1.000000,""
198_updated,w0,python3action_pyaes_4000_troll,0.997085,1,2000.000000,1,COMPLETED_SUCCESSFULLY,1404.204386,102.333333,1506.537719,1403.207301,1505.540634,14.712123,4,-1.000000,""
198,w0,python3action_pyaes_4000,0.000000,1,-1.000000,1,COMPLETED_SUCCESSFULLY,1506.537734,0.000010,1506.537744,1506.537734,1506.537744,150653774.434137,4,-1.000000,""
191_updated,w0,python3action_floatoperation_100000000_nova,0.997085,1,2000.000000,1,COMPLETED_SUCCESSFULLY,1441.477365,66.200020,1507.677385,1440.480280,1506.680300,22.759514,8,-1.000000,""
191,w0,python3action_floatoperation_100000000,0.000000,1,-1.000000,1,COMPLETED_SUCCESSFULLY,1507.677400,0.000010,1507.677410,1507.677400,1507.677410,150767741.000201,8,-1.000000,""
189_updated,w0,python3action_videoprocessing_SampleVideo_30mb_nova,0.997085,1,2000.000000,1,COMPLETED_SUCCESSFULLY,1406.477350,106.799980,1513.277330,1405.480265,1512.280245,14.159930,6,-1.000000,""
189,w0,python3action_videoprocessing_SampleVideo_30mb,0.000000,1,-1.000000,1,COMPLETED_SUCCESSFULLY,1513.277345,0.000010,1513.277355,1513.277345,1513.277355,151327735.547010,6,-1.000000,""
188_updated,w0,python3action_videoprocessing_SampleVideo_50mb_taurus,0.997085,1,2000.000000,1,COMPLETED_SUCCESSFULLY,1366.277063,154.250029,1520.527092,1365.279978,1519.530007,9.851084,12,-1.000000,""
188,w0,python3action_videoprocessing_SampleVideo_50mb,0.000000,1,-1.000000,1,COMPLETED_SUCCESSFULLY,1520.527107,0.000010,1520.527117,1520.527107,1520.527117,152052711.701358,12,-1.000000,""
190_updated,w0,python3action_videoprocessing_SampleVideo_30mb_nova,0.997085,1,2000.000000,1,COMPLETED_SUCCESSFULLY,1444.477413,106.799980,1551.277393,1443.480328,1550.280308,14.515736,7,-1.000000,""
190,w0,python3action_videoprocessing_SampleVideo_30mb,0.000000,1,-1.000000,1,COMPLETED_SUCCESSFULLY,1551.277408,0.000010,1551.277418,1551.277408,1551.277418,155127741.847010,7,-1.000000,""
199_updated,w0,python3action_videoprocessing_SampleVideo_30mb_nova,0.997085,1,2000.000000,1,COMPLETED_SUCCESSFULLY,1513.277375,106.799980,1620.077356,1512.280290,1619.080271,15.159930,6,-1.000000,""
199,w0,python3action_videoprocessing_SampleVideo_30mb,0.000000,1,-1.000000,1,COMPLETED_SUCCESSFULLY,1620.077371,0.000010,1620.077381,1620.077371,1620.077381,162007738.100201,6,-1.000000,""
187_updated,w0,python3action_videoprocessing_SampleVideo_50mb_taurus,0.997085,1,2000.000000,1,COMPLETED_SUCCESSFULLY,1485.976948,154.250029,1640.226977,1484.979863,1639.229892,10.627096,2,-1.000000,""
187,w0,python3action_videoprocessing_SampleVideo_50mb,0.000000,1,-1.000000,1,COMPLETED_SUCCESSFULLY,1640.226992,0.000010,1640.227002,1640.226992,1640.227002,164022700.200201,2,-1.000000,""
