job_id,workload_name,profile,submission_time,requested_number_of_resources,requested_time,success,final_state,starting_time,execution_time,finish_time,waiting_time,turnaround_time,stretch,allocated_resources,consumed_energy,metadata
python3action_chameleon_job34_15,w0,python3action_chameleon,0.997085,1,2000.000000,1,COMPLETED_SUCCESSFULLY,1.002325,0.867914,1.870239,0.005240,0.873154,1.006038,20,-1.000000,""
python3action_pyaes_job7_2,w0,python3action_pyaes,0.997085,1,2000.000000,1,COMPLETED_SUCCESSFULLY,1.002130,2.134958,3.137088,0.005045,2.140003,1.002363,4,-1.000000,""
python3action_pyaes_job20_20,w0,python3action_pyaes,0.997085,1,2000.000000,1,COMPLETED_SUCCESSFULLY,1.002400,2.134958,3.137358,0.005315,2.140273,1.002490,29,-1.000000,""
python3action_floatoperation_job3_0,w0,python3action_floatoperation,0.997085,1,2000.000000,1,COMPLETED_SUCCESSFULLY,1.002100,2.439945,3.442045,0.005015,2.444960,1.002055,2,-1.000000,""
python3action_floatoperation_job5_1,w0,python3action_floatoperation,0.997085,1,2000.000000,1,COMPLETED_SUCCESSFULLY,1.002115,2.439945,3.442060,0.005030,2.444975,1.002062,3,-1.000000,""
python3action_floatoperation_job9_3,w0,python3action_floatoperation,0.997085,1,2000.000000,1,COMPLETED_SUCCESSFULLY,1.002145,2.439945,3.442090,0.005060,2.445005,1.002074,5,-1.000000,""
python3action_linpack_job12_5,w0,python3action_linpack,0.997085,1,2000.000000,1,COMPLETED_SUCCESSFULLY,1.002175,2.439945,3.442120,0.005090,2.445035,1.002086,7,-1.000000,""
python3action_floatoperation_job15_17,w0,python3action_floatoperation,0.997085,1,2000.000000,1,COMPLETED_SUCCESSFULLY,1.002355,2.439945,3.442300,0.005270,2.445215,1.002160,26,-1.000000,""
python3action_floatoperation_job17_18,w0,python3action_floatoperation,0.997085,1,2000.000000,1,COMPLETED_SUCCESSFULLY,1.002370,2.439945,3.442315,0.005285,2.445230,1.002166,27,-1.000000,""
python3action_floatoperation_job19_19,w0,python3action_floatoperation,0.997085,1,2000.000000,1,COMPLETED_SUCCESSFULLY,1.002385,2.439945,3.442330,0.005300,2.445245,1.002172,28,-1.000000,""
python3action_chameleon_job0_8,w0,python3action_chameleon,0.997085,1,2000.000000,1,COMPLETED_SUCCESSFULLY,1.002220,5.040826,6.043046,0.005135,5.045961,1.001019,10,-1.000000,""
python3action_chameleon_job1_9,w0,python3action_chameleon,0.997085,1,2000.000000,1,COMPLETED_SUCCESSFULLY,1.002235,5.040826,6.043061,0.005150,5.045976,1.001022,11,-1.000000,""
python3action_linpack_job8_6,w0,python3action_linpack,0.997085,1,2000.000000,1,COMPLETED_SUCCESSFULLY,1.002190,5.760927,6.763117,0.005105,5.766032,1.000886,8,-1.000000,""
python3action_linpack_job26_7,w0,python3action_linpack,0.997085,1,2000.000000,1,COMPLETED_SUCCESSFULLY,1.002205,5.760927,6.763132,0.005120,5.766047,1.000889,9,-1.000000,""
python3action_image_processing_job4_14,w0,python3action_image_processing,0.997085,1,2000.000000,1,COMPLETED_SUCCESSFULLY,1.002310,12.398880,13.401190,0.005225,12.404105,1.000421,19,-1.000000,""
python3action_modeltraining_job11_4,w0,python3action_modeltraining,0.997085,1,2000.000000,1,COMPLETED_SUCCESSFULLY,1.002160,30.499683,31.501843,0.005075,30.504758,1.000166,6,-1.000000,""
python3action_facedetection_job13_16,w0,python3action_facedetection,0.997085,1,2000.000000,1,COMPLETED_SUCCESSFULLY,1.002340,30.499683,31.502023,0.005255,30.504938,1.000172,25,-1.000000,""
12_updated,w0,python3action_linpack_5000_nova,0.997085,1,2000.000000,1,COMPLETED_SUCCESSFULLY,3.442150,34.600010,38.042160,2.445065,37.045075,1.070667,7,-1.000000,""
12,w0,python3action_linpack_5000,0.000000,1,-1.000000,1,COMPLETED_SUCCESSFULLY,38.042175,0.000010,38.042185,38.042175,38.042185,3804218.508084,7,-1.000000,""
python3action_pyaes_job27_6,w0,python3action_pyaes_reduced_0.85,0.997085,1,2000.000000,1,COMPLETED_SUCCESSFULLY,38.042205,0.320244,38.362449,37.045120,37.365364,116.677891,7,-1.000000,""
3_updated,w0,python3action_floatoperation_100000000_nova,0.997085,1,2000.000000,1,COMPLETED_SUCCESSFULLY,3.442060,66.200020,69.642080,2.444975,68.644995,1.036933,2,-1.000000,""
3,w0,python3action_floatoperation_100000000,0.000000,1,-1.000000,1,COMPLETED_SUCCESSFULLY,69.642095,0.000010,69.642105,69.642095,69.642105,6964210.500201,2,-1.000000,""
15_updated,w0,python3action_floatoperation_100000000_nova,0.997085,1,2000.000000,1,COMPLETED_SUCCESSFULLY,3.442315,66.200020,69.642335,2.445230,68.645250,1.036937,26,-1.000000,""
15,w0,python3action_floatoperation_100000000,0.000000,1,-1.000000,1,COMPLETED_SUCCESSFULLY,69.642350,0.000010,69.642360,69.642350,69.642360,6964236.000201,26,-1.000000,""
17_updated,w0,python3action_floatoperation_100000000_nova,0.997085,1,2000.000000,1,COMPLETED_SUCCESSFULLY,3.442345,66.200020,69.642365,2.445260,68.645280,1.036937,27,-1.000000,""
17,w0,python3action_floatoperation_100000000,0.000000,1,-1.000000,1,COMPLETED_SUCCESSFULLY,69.642395,0.000010,69.642405,69.642395,69.642405,6964240.500402,27,-1.000000,""
0_updated,w0,python3action_chameleon_2000_taurus,0.997085,1,2000.000000,1,COMPLETED_SUCCESSFULLY,6.043061,64.199977,70.243038,5.045976,69.245953,1.078598,10,-1.000000,""
0,w0,python3action_chameleon_2000,0.000000,1,-1.000000,1,COMPLETED_SUCCESSFULLY,70.243053,0.000010,70.243063,70.243053,70.243063,7024306.300201,10,-1.000000,""
1_updated,w0,python3action_chameleon_2000_taurus,0.997085,1,2000.000000,1,COMPLETED_SUCCESSFULLY,6.043091,64.199977,70.243068,5.046006,69.245983,1.078598,11,-1.000000,""
1,w0,python3action_chameleon_2000,0.000000,1,-1.000000,1,COMPLETED_SUCCESSFULLY,70.243098,0.000010,70.243108,70.243098,70.243108,7024310.800402,11,-1.000000,""
python3action_facedetection_job2_10,w0,python3action_facedetection,0.997085,1,2000.000000,1,COMPLETED_SUCCESSFULLY,1.002250,72.012455,73.014705,0.005165,72.017620,1.000072,13,-1.000000,""
python3action_facedetection_job6_11,w0,python3action_facedetection,0.997085,1,2000.000000,1,COMPLETED_SUCCESSFULLY,1.002265,72.012455,73.014720,0.005180,72.017635,1.000072,14,-1.000000,""
python3action_video_processing_job10_12,w0,python3action_video_processing,0.997085,1,2000.000000,1,COMPLETED_SUCCESSFULLY,1.002280,72.012455,73.014735,0.005195,72.017650,1.000072,15,-1.000000,""
python3action_facedetection_job14_13,w0,python3action_facedetection,0.997085,1,2000.000000,1,COMPLETED_SUCCESSFULLY,1.002295,72.012455,73.014750,0.005210,72.017665,1.000072,16,-1.000000,""
11_updated,w0,python3action_modeltraining_reviews50mb_nova,0.997085,1,2000.000000,1,COMPLETED_SUCCESSFULLY,31.501858,42.399990,73.901848,30.504773,72.904763,1.719452,6,-1.000000,""
11,w0,python3action_modeltraining_reviews50mb,0.000000,1,-1.000000,1,COMPLETED_SUCCESSFULLY,73.901863,0.000010,73.901873,73.901863,73.901873,7390187.323505,6,-1.000000,""
4_updated,w0,python3action_imageprocessing_SampleImage_60mb_troll,0.997085,1,2000.000000,1,COMPLETED_SUCCESSFULLY,13.401205,62.000000,75.401205,12.404120,74.404120,1.200066,19,-1.000000,""
4,w0,python3action_imageprocessing_SampleImage_60mb,0.000000,1,-1.000000,1,COMPLETED_SUCCESSFULLY,75.401220,0.000010,75.401230,75.401220,75.401230,7540123.011992,19,-1.000000,""
python3action_floatoperation_job25_5,w0,python3action_floatoperation,0.997085,1,2000.000000,1,COMPLETED_SUCCESSFULLY,73.901893,2.439945,76.341839,72.904808,75.344754,30.879690,6,-1.000000,""
20_updated,w0,python3action_pyaes_3000_nova,0.997085,1,2000.000000,1,COMPLETED_SUCCESSFULLY,3.137373,78.200020,81.337393,2.140288,80.340308,1.027369,29,-1.000000,""
20,w0,python3action_pyaes_3000,0.000000,1,-1.000000,1,COMPLETED_SUCCESSFULLY,81.337408,0.000010,81.337418,81.337408,81.337418,8133741.800201,29,-1.000000,""
python3action_linpack_job35_21,w0,python3action_linpack_reduced_0.85,0.997085,1,2000.000000,1,COMPLETED_SUCCESSFULLY,81.337438,0.365992,81.703430,80.340353,80.706345,220.514083,29,-1.000000,""
34_updated,w0,python3action_chameleon_3000_troll,0.997085,1,2000.000000,1,COMPLETED_SUCCESSFULLY,1.870254,94.000000,95.870254,0.873169,94.873169,1.009289,20,-1.000000,""
34,w0,python3action_chameleon_3000,0.000000,1,-1.000000,1,COMPLETED_SUCCESSFULLY,95.870269,0.000010,95.870279,95.870269,95.870279,9587027.900402,20,-1.000000,""
python3action_facedetection_job21_1,w0,python3action_facedetection,0.997085,1,2000.000000,1,COMPLETED_SUCCESSFULLY,69.642125,30.499683,100.141808,68.645040,99.144723,3.250680,2,-1.000000,""
python3action_modeltraining_job30_18,w0,python3action_modeltraining,0.997085,1,2000.000000,1,COMPLETED_SUCCESSFULLY,69.642380,30.499683,100.142063,68.645295,99.144978,3.250689,26,-1.000000,""
python3action_video_processing_job31_19,w0,python3action_video_processing,0.997085,1,2000.000000,1,COMPLETED_SUCCESSFULLY,69.642425,30.499683,100.142108,68.645340,99.145023,3.250690,27,-1.000000,""
python3action_image_processing_job59_16,w0,python3action_image_processing,0.997085,1,2000.000000,1,COMPLETED_SUCCESSFULLY,95.870299,12.398880,108.269179,94.873214,107.272094,8.651757,20,-1.000000,""
8_updated,w0,python3action_linpack_6000_orion,0.997085,1,2000.000000,1,COMPLETED_SUCCESSFULLY,6.763132,106.000000,112.763132,5.766047,111.766047,1.054397,8,-1.000000,""
8,w0,python3action_linpack_6000,0.000000,1,-1.000000,1,COMPLETED_SUCCESSFULLY,112.763147,0.000010,112.763157,112.763147,112.763157,11276315.724677,8,-1.000000,""
26_updated,w0,python3action_linpack_6000_orion,0.997085,1,2000.000000,1,COMPLETED_SUCCESSFULLY,6.763162,106.000000,112.763162,5.766077,111.766077,1.054397,9,-1.000000,""
26,w0,python3action_linpack_6000,0.000000,1,-1.000000,1,COMPLETED_SUCCESSFULLY,112.763192,0.000010,112.763202,112.763192,112.763202,11276320.225279,9,-1.000000,""
35_updated,w0,python3action_linpack_5000_nova,0.997085,1,2000.000000,1,COMPLETED_SUCCESSFULLY,81.703445,34.600010,116.303455,80.706360,115.306370,3.332553,29,-1.000000,""
35,w0,python3action_linpack_5000,0.000000,1,-1.000000,1,COMPLETED_SUCCESSFULLY,116.303470,0.000010,116.303480,116.303470,116.303480,11630348.000201,29,-1.000000,""
27_updated,w0,python3action_pyaes_3000_nova,0.997085,1,2000.000000,1,COMPLETED_SUCCESSFULLY,38.362464,78.200020,116.562484,37.365379,115.565399,1.477818,7,-1.000000,""
27,w0,python3action_pyaes_3000,0.000000,1,-1.000000,1,COMPLETED_SUCCESSFULLY,116.562499,0.000010,116.562509,116.562499,116.562509,11656250.900201,7,-1.000000,""
python3action_floatoperation_job55_21,w0,python3action_floatoperation,0.997085,1,2000.000000,1,COMPLETED_SUCCESSFULLY,116.303500,2.439945,118.743445,115.306415,117.746360,48.257787,29,-1.000000,""
49_updated,w0,python3action_imageprocessing_SampleImage_60mb_troll,0.997085,1,2000.000000,1,COMPLETED_SUCCESSFULLY,75.401250,62.000000,137.401250,74.404165,136.404165,2.200067,19,-1.000000,""
49,w0,python3action_imageprocessing_SampleImage_60mb,0.000000,1,-1.000000,1,COMPLETED_SUCCESSFULLY,137.401265,0.000010,137.401275,137.401265,137.401275,13740127.512594,19,-1.000000,""
5_updated,w0,python3action_floatoperation_200000000_nova,0.997085,1,2000.000000,1,COMPLETED_SUCCESSFULLY,3.442090,135.399990,138.842081,2.445005,137.844996,1.018058,3,-1.000000,""
5,w0,python3action_floatoperation_200000000,0.000000,1,-1.000000,1,COMPLETED_SUCCESSFULLY,138.842096,0.000010,138.842106,138.842096,138.842106,13884210.600201,3,-1.000000,""
9_updated,w0,python3action_floatoperation_200000000_nova,0.997085,1,2000.000000,1,COMPLETED_SUCCESSFULLY,3.442120,135.399990,138.842111,2.445035,137.845026,1.018058,5,-1.000000,""
9,w0,python3action_floatoperation_200000000,0.000000,1,-1.000000,1,COMPLETED_SUCCESSFULLY,138.842141,0.000010,138.842151,138.842141,138.842151,13884215.100402,5,-1.000000,""
19_updated,w0,python3action_floatoperation_200000000_nova,0.997085,1,2000.000000,1,COMPLETED_SUCCESSFULLY,3.442375,135.399990,138.842366,2.445290,137.845281,1.018060,28,-1.000000,""
19,w0,python3action_floatoperation_200000000,0.000000,1,-1.000000,1,COMPLETED_SUCCESSFULLY,138.842381,0.000010,138.842391,138.842381,138.842391,13884239.100201,28,-1.000000,""
python3action_pyaes_job32_20,w0,python3action_pyaes,0.997085,1,2000.000000,1,COMPLETED_SUCCESSFULLY,138.842411,2.134958,140.977369,137.845326,139.980284,65.565818,28,-1.000000,""
python3action_video_processing_job16_9,w0,python3action_video_processing,0.997085,1,2000.000000,1,COMPLETED_SUCCESSFULLY,70.243083,72.012455,142.255538,69.245998,141.258453,1.961584,10,-1.000000,""
python3action_video_processing_job18_10,w0,python3action_video_processing,0.997085,1,2000.000000,1,COMPLETED_SUCCESSFULLY,70.243128,72.012455,142.255583,69.246043,141.258498,1.961584,11,-1.000000,""
25_updated,w0,python3action_floatoperation_100000000_nova,0.997085,1,2000.000000,1,COMPLETED_SUCCESSFULLY,76.341854,66.200020,142.541874,75.344769,141.544789,2.138138,6,-1.000000,""
25,w0,python3action_floatoperation_100000000,0.000000,1,-1.000000,1,COMPLETED_SUCCESSFULLY,142.541889,0.000010,142.541899,142.541889,142.541899,14254189.900201,6,-1.000000,""
python3action_facedetection_job46_5,w0,python3action_facedetection_reduced_0.91,0.997085,1,2000.000000,1,COMPLETED_SUCCESSFULLY,142.541919,0.000000,142.541919,141.544834,141.544834,2897129788785.125000,6,-1.000000,""
7_updated,w0,python3action_pyaes_4000_nova,0.997085,1,2000.000000,1,COMPLETED_SUCCESSFULLY,3.137103,139.600010,142.737113,2.140018,141.740028,1.015330,4,-1.000000,""
7,w0,python3action_pyaes_4000,0.000000,1,-1.000000,1,COMPLETED_SUCCESSFULLY,142.737128,0.000010,142.737138,142.737128,142.737138,14273713.801668,4,-1.000000,""
python3action_video_processing_job47_6,w0,python3action_video_processing,0.997085,1,2000.000000,1,COMPLETED_SUCCESSFULLY,116.562529,30.499683,147.062212,115.565444,146.065127,4.789070,7,-1.000000,""
python3action_modeltraining_job22_2,w0,python3action_modeltraining,0.997085,1,2000.000000,1,COMPLETED_SUCCESSFULLY,138.842126,30.499683,169.341809,137.845041,168.344724,5.519557,3,-1.000000,""
59_updated,w0,python3action_imageprocessing_SampleImage_60mb_troll,0.997085,1,2000.000000,1,COMPLETED_SUCCESSFULLY,108.269194,62.000000,170.269194,107.272109,169.272109,2.730195,20,-1.000000,""
59,w0,python3action_imageprocessing_SampleImage_60mb,0.000000,1,-1.000000,1,COMPLETED_SUCCESSFULLY,170.269209,0.000010,170.269219,170.269209,170.269219,17026921.909783,20,-1.000000,""
30_updated,w0,python3action_modeltraining_reviews100mb_nova,0.997085,1,2000.000000,1,COMPLETED_SUCCESSFULLY,100.142078,79.600010,179.742088,99.144993,178.745003,2.245540,26,-1.000000,""
30,w0,python3action_modeltraining_reviews100mb,0.000000,1,-1.000000,1,COMPLETED_SUCCESSFULLY,179.742103,0.000010,179.742113,179.742103,179.742113,17974211.300201,26,-1.000000,""
python3action_pyaes_job52_18,w0,python3action_pyaes,0.997085,1,2000.000000,1,COMPLETED_SUCCESSFULLY,179.742133,2.134958,181.877091,178.745048,180.880006,84.722972,26,-1.000000,""
55_updated,w0,python3action_floatoperation_100000000_nova,0.997085,1,2000.000000,1,COMPLETED_SUCCESSFULLY,118.743460,66.200020,184.943480,117.746375,183.946395,2.778646,29,-1.000000,""
55,w0,python3action_floatoperation_100000000,0.000000,1,-1.000000,1,COMPLETED_SUCCESSFULLY,184.943495,0.000010,184.943505,184.943495,184.943505,18494350.500201,29,-1.000000,""
13_updated,w0,python3action_facedetection_SampleVideo_30mb_nova,0.997085,1,2000.000000,1,COMPLETED_SUCCESSFULLY,31.502038,160.399990,191.902028,30.504953,190.904943,1.190181,25,-1.000000,""
13,w0,python3action_facedetection_SampleVideo_30mb,0.000000,1,-1.000000,1,COMPLETED_SUCCESSFULLY,191.902043,0.000010,191.902053,191.902043,191.902053,19190205.323505,25,-1.000000,""
python3action_modeltraining_job28_17,w0,python3action_modeltraining_reduced_0.94,0.997085,1,2000.000000,1,COMPLETED_SUCCESSFULLY,191.902073,0.000000,191.902073,190.904988,190.904988,3907429982442.796875,25,-1.000000,""
65_updated,w0,python3action_imageprocessing_SampleImage_60mb_troll,0.997085,1,2000.000000,1,COMPLETED_SUCCESSFULLY,137.401295,62.000000,199.401295,136.404210,198.404210,3.200068,19,-1.000000,""
65,w0,python3action_imageprocessing_SampleImage_60mb,0.000000,1,-1.000000,1,COMPLETED_SUCCESSFULLY,199.401310,0.000010,199.401320,199.401310,199.401320,19940132.013196,19,-1.000000,""
python3action_chameleon_job75_15,w0,python3action_chameleon,0.997085,1,2000.000000,1,COMPLETED_SUCCESSFULLY,199.401340,0.867914,200.269254,198.404255,199.272169,229.599069,19,-1.000000,""
24_updated,w0,python3action_floatoperation_100000000_nova,0.997085,1,2000.000000,1,COMPLETED_SUCCESSFULLY,138.842171,66.200020,205.042191,137.845086,204.045106,3.082251,5,-1.000000,""
24,w0,python3action_floatoperation_100000000,0.000000,1,-1.000000,1,COMPLETED_SUCCESSFULLY,205.042206,0.000010,205.042216,205.042206,205.042216,20504221.600201,5,-1.000000,""
31_updated,w0,python3action_videoprocessing_SampleVideo_30mb_nova,0.997085,1,2000.000000,1,COMPLETED_SUCCESSFULLY,100.142123,106.799980,206.942103,99.145038,205.945018,1.928324,27,-1.000000,""
31,w0,python3action_videoprocessing_SampleVideo_30mb,0.000000,1,-1.000000,1,COMPLETED_SUCCESSFULLY,206.942118,0.000010,206.942128,206.942118,206.942128,20694212.846609,27,-1.000000,""
python3action_modeltraining_job53_19,w0,python3action_modeltraining_reduced_1.0,0.997085,1,2000.000000,1,COMPLETED_SUCCESSFULLY,206.942148,0.000000,206.942148,205.945063,205.945063,4215269193130.848633,27,-1.000000,""
2_updated,w0,python3action_facedetection_SampleVideo_50mb_taurus,0.997085,1,2000.000000,1,COMPLETED_SUCCESSFULLY,73.014720,134.600046,207.614766,72.017635,206.617681,1.535049,13,-1.000000,""
2,w0,python3action_facedetection_SampleVideo_50mb,0.000000,1,-1.000000,1,COMPLETED_SUCCESSFULLY,207.614781,0.000010,207.614791,207.614781,207.614791,20761479.146769,13,-1.000000,""
6_updated,w0,python3action_facedetection_SampleVideo_50mb_taurus,0.997085,1,2000.000000,1,COMPLETED_SUCCESSFULLY,73.014750,134.600046,207.614796,72.017665,206.617711,1.535049,14,-1.000000,""
python3action_video_processing_job33_11,w0,python3action_video_processing_reduced_0.91,0.997085,1,2000.000000,1,COMPLETED_SUCCESSFULLY,207.614811,0.000000,207.614811,206.617726,206.617726,1791452678248.666504,13,-1.000000,""
6,w0,python3action_facedetection_SampleVideo_50mb,0.000000,1,-1.000000,1,COMPLETED_SUCCESSFULLY,207.614826,0.000010,207.614836,207.614826,207.614836,20761483.647371,14,-1.000000,""
14_updated,w0,python3action_facedetection_SampleVideo_50mb_taurus,0.997085,1,2000.000000,1,COMPLETED_SUCCESSFULLY,73.014795,134.600046,207.614841,72.017710,206.617756,1.535050,16,-1.000000,""
python3action_image_processing_job36_12,w0,python3action_image_processing_reduced_0.86,0.997085,1,2000.000000,1,COMPLETED_SUCCESSFULLY,207.614871,0.000000,207.614871,206.617786,206.617786,1791453198540.664795,14,-1.000000,""
14,w0,python3action_facedetection_SampleVideo_50mb,0.000000,1,-1.000000,1,COMPLETED_SUCCESSFULLY,207.614886,0.000010,207.614896,207.614886,207.614896,20761489.648175,16,-1.000000,""
22_updated,w0,python3action_modeltraining_reviews50mb_nova,0.997085,1,2000.000000,1,COMPLETED_SUCCESSFULLY,169.341824,42.399990,211.741814,168.344739,210.744729,4.970396,3,-1.000000,""
22,w0,python3action_modeltraining_reviews50mb,0.000000,1,-1.000000,1,COMPLETED_SUCCESSFULLY,211.741829,0.000010,211.741839,211.741829,211.741839,21174183.923505,3,-1.000000,""
python3action_chameleon_job41_14,w0,python3action_chameleon,0.997085,1,2000.000000,1,COMPLETED_SUCCESSFULLY,207.614931,5.040826,212.655757,206.617846,211.658672,41.988889,16,-1.000000,""
python3action_pyaes_job39_2,w0,python3action_pyaes,0.997085,1,2000.000000,1,COMPLETED_SUCCESSFULLY,211.741859,2.134958,213.876817,210.744774,212.879732,99.711427,3,-1.000000,""
python3action_video_processing_job74_21,w0,python3action_video_processing,0.997085,1,2000.000000,1,COMPLETED_SUCCESSFULLY,184.943525,30.499683,215.443208,183.946440,214.446123,7.031094,29,-1.000000,""
29_updated,w0,python3action_linpack_6000_orion,0.997085,1,2000.000000,1,COMPLETED_SUCCESSFULLY,112.763177,106.000000,218.763177,111.766092,217.766092,2.054397,8,-1.000000,""
29,w0,python3action_linpack_6000,0.000000,1,-1.000000,1,COMPLETED_SUCCESSFULLY,218.763192,0.000010,218.763202,218.763192,218.763202,21876320.225279,8,-1.000000,""
50_updated,w0,python3action_linpack_6000_orion,0.997085,1,2000.000000,1,COMPLETED_SUCCESSFULLY,112.763222,106.000000,218.763222,111.766137,217.766137,2.054398,9,-1.000000,""
50,w0,python3action_linpack_6000,0.000000,1,-1.000000,1,COMPLETED_SUCCESSFULLY,218.763252,0.000010,218.763262,218.763252,218.763262,21876326.226082,9,-1.000000,""
32_updated,w0,python3action_pyaes_3000_nova,0.997085,1,2000.000000,1,COMPLETED_SUCCESSFULLY,140.977384,78.200020,219.177404,139.980299,218.180319,2.790029,28,-1.000000,""
32,w0,python3action_pyaes_3000,0.000000,1,-1.000000,1,COMPLETED_SUCCESSFULLY,219.177419,0.000010,219.177429,219.177419,219.177429,21917742.900201,28,-1.000000,""
10_updated,w0,python3action_videoprocessing_SampleVideo_50mb_taurus,0.997085,1,2000.000000,1,COMPLETED_SUCCESSFULLY,73.014765,154.250029,227.264794,72.017680,226.267709,1.466889,15,-1.000000,""
10,w0,python3action_videoprocessing_SampleVideo_50mb,0.000000,1,-1.000000,1,COMPLETED_SUCCESSFULLY,227.264809,0.000010,227.264819,227.264809,227.264819,22726481.917467,15,-1.000000,""
python3action_chameleon_job38_13,w0,python3action_chameleon,0.997085,1,2000.000000,1,COMPLETED_SUCCESSFULLY,227.264839,5.040826,232.305665,226.267754,231.308580,45.887041,15,-1.000000,""
28_updated,w0,python3action_modeltraining_reviews50mb_nova,0.997085,1,2000.000000,1,COMPLETED_SUCCESSFULLY,191.902103,42.399990,234.302093,190.905018,233.305008,5.502478,25,-1.000000,""
28,w0,python3action_modeltraining_reviews50mb,0.000000,1,-1.000000,1,COMPLETED_SUCCESSFULLY,234.302108,0.000010,234.302118,234.302108,234.302118,23430211.847613,25,-1.000000,""
python3action_modeltraining_job45_4,w0,python3action_modeltraining,0.997085,1,2000.000000,1,COMPLETED_SUCCESSFULLY,205.042236,30.499683,235.541919,204.045151,234.544834,7.690075,5,-1.000000,""
python3action_linpack_job51_17,w0,python3action_linpack,0.997085,1,2000.000000,1,COMPLETED_SUCCESSFULLY,234.302138,2.439945,236.742084,233.305053,235.744999,96.618969,25,-1.000000,""
53_updated,w0,python3action_modeltraining_reviews50mb_nova,0.997085,1,2000.000000,1,COMPLETED_SUCCESSFULLY,206.942178,42.399990,249.342169,205.945093,248.345084,5.857197,27,-1.000000,""
53,w0,python3action_modeltraining_reviews50mb,0.000000,1,-1.000000,1,COMPLETED_SUCCESSFULLY,249.342184,0.000010,249.342194,249.342184,249.342194,24934219.400201,27,-1.000000,""
python3action_facedetection_job54_20,w0,python3action_facedetection,0.997085,1,2000.000000,1,COMPLETED_SUCCESSFULLY,219.177449,30.499683,249.677132,218.180364,248.680047,8.153529,28,-1.000000,""
python3action_linpack_job69_19,w0,python3action_linpack,0.997085,1,2000.000000,1,COMPLETED_SUCCESSFULLY,249.342214,2.439945,251.782159,248.345129,250.785074,102.783073,27,-1.000000,""
47_updated,w0,python3action_videoprocessing_SampleVideo_30mb_nova,0.997085,1,2000.000000,1,COMPLETED_SUCCESSFULLY,147.062227,106.799980,253.862207,146.065142,252.865122,2.367651,7,-1.000000,""
47,w0,python3action_videoprocessing_SampleVideo_30mb,0.000000,1,-1.000000,1,COMPLETED_SUCCESSFULLY,253.862222,0.000010,253.862232,253.862222,253.862232,25386223.246609,7,-1.000000,""
52_updated,w0,python3action_pyaes_3000_nova,0.997085,1,2000.000000,1,COMPLETED_SUCCESSFULLY,181.877106,78.200020,260.077126,180.880021,259.080041,3.313043,26,-1.000000,""
52,w0,python3action_pyaes_3000,0.000000,1,-1.000000,1,COMPLETED_SUCCESSFULLY,260.077141,0.000010,260.077151,260.077141,260.077151,26007715.100201,26,-1.000000,""
21_updated,w0,python3action_facedetection_SampleVideo_30mb_nova,0.997085,1,2000.000000,1,COMPLETED_SUCCESSFULLY,100.141823,160.399990,260.541813,99.144738,259.544728,1.618109,2,-1.000000,""
21,w0,python3action_facedetection_SampleVideo_30mb,0.000000,1,-1.000000,1,COMPLETED_SUCCESSFULLY,260.541828,0.000010,260.541838,260.541828,260.541838,26054183.823505,2,-1.000000,""
python3action_modeltraining_job37_1,w0,python3action_modeltraining_reduced_0.94,0.997085,1,2000.000000,1,COMPLETED_SUCCESSFULLY,260.541858,0.000000,260.541858,259.544773,259.544773,5315436481581.222656,2,-1.000000,""
72_updated,w0,python3action_chameleon_3000_troll,0.997085,1,2000.000000,1,COMPLETED_SUCCESSFULLY,170.269239,94.000000,264.269239,169.272154,263.272154,2.800768,20,-1.000000,""
72,w0,python3action_chameleon_3000,0.000000,1,-1.000000,1,COMPLETED_SUCCESSFULLY,264.269254,0.000010,264.269264,264.269254,264.269264,26426926.410385,20,-1.000000,""
51_updated,w0,python3action_linpack_5000_nova,0.997085,1,2000.000000,1,COMPLETED_SUCCESSFULLY,236.742099,34.600010,271.342109,235.745014,270.345024,7.813438,25,-1.000000,""
51,w0,python3action_linpack_5000,0.000000,1,-1.000000,1,COMPLETED_SUCCESSFULLY,271.342124,0.000010,271.342134,271.342124,271.342134,27134213.400201,25,-1.000000,""
41_updated,w0,python3action_chameleon_2000_taurus,0.997085,1,2000.000000,1,COMPLETED_SUCCESSFULLY,212.655772,64.199977,276.855749,211.658687,275.858664,4.296865,16,-1.000000,""
41,w0,python3action_chameleon_2000,0.000000,1,-1.000000,1,COMPLETED_SUCCESSFULLY,276.855764,0.000010,276.855774,276.855764,276.855774,27685577.416737,16,-1.000000,""
23_updated,w0,python3action_pyaes_4000_nova,0.997085,1,2000.000000,1,COMPLETED_SUCCESSFULLY,142.737158,139.600010,282.337168,141.740073,281.340083,2.015330,4,-1.000000,""
23,w0,python3action_pyaes_4000,0.000000,1,-1.000000,1,COMPLETED_SUCCESSFULLY,282.337183,0.000010,282.337193,282.337183,282.337193,28233719.300201,4,-1.000000,""
69_updated,w0,python3action_linpack_5000_nova,0.997085,1,2000.000000,1,COMPLETED_SUCCESSFULLY,251.782174,34.600010,286.382184,250.785089,285.385099,8.248122,27,-1.000000,""
69,w0,python3action_linpack_5000,0.000000,1,-1.000000,1,COMPLETED_SUCCESSFULLY,286.382199,0.000010,286.382209,286.382199,286.382209,28638220.907281,27,-1.000000,""
python3action_facedetection_job88_19,w0,python3action_facedetection_reduced_1.83,0.997085,1,2000.000000,1,COMPLETED_SUCCESSFULLY,286.382229,0.000000,286.382229,285.385144,285.385144,5844643246697.076172,27,-1.000000,""
63_updated,w0,python3action_linpack_5000_nova,0.997085,1,2000.000000,1,COMPLETED_SUCCESSFULLY,253.862252,34.600010,288.462262,252.865167,287.465177,8.308240,7,-1.000000,""
63,w0,python3action_linpack_5000,0.000000,1,-1.000000,1,COMPLETED_SUCCESSFULLY,288.462277,0.000010,288.462287,288.462277,288.462287,28846228.724108,7,-1.000000,""
python3action_modeltraining_job83_6,w0,python3action_modeltraining_reduced_1.0,0.997085,1,2000.000000,1,COMPLETED_SUCCESSFULLY,288.462307,0.000000,288.462307,287.465222,287.465222,5887242923208.265625,7,-1.000000,""
75_updated,w0,python3action_chameleon_3000_troll,0.997085,1,2000.000000,1,COMPLETED_SUCCESSFULLY,200.269269,94.000000,294.269269,199.272184,293.272184,3.119917,19,-1.000000,""
75,w0,python3action_chameleon_3000,0.000000,1,-1.000000,1,COMPLETED_SUCCESSFULLY,294.269284,0.000010,294.269294,294.269284,294.269294,29426929.400402,19,-1.000000,""
16_updated,w0,python3action_videoprocessing_SampleVideo_50mb_taurus,0.997085,1,2000.000000,1,COMPLETED_SUCCESSFULLY,142.255553,154.250029,296.505582,141.258468,295.508497,1.915776,10,-1.000000,""
16,w0,python3action_videoprocessing_SampleVideo_50mb,0.000000,1,-1.000000,1,COMPLETED_SUCCESSFULLY,296.505597,0.000010,296.505607,296.505597,296.505607,29650560.714857,10,-1.000000,""
18_updated,w0,python3action_videoprocessing_SampleVideo_50mb_taurus,0.997085,1,2000.000000,1,COMPLETED_SUCCESSFULLY,142.255598,154.250029,296.505627,141.258513,295.508542,1.915776,11,-1.000000,""
python3action_image_processing_job42_9,w0,python3action_image_processing_reduced_0.86,0.997085,1,2000.000000,1,COMPLETED_SUCCESSFULLY,296.505627,0.000000,296.505627,295.508542,295.508542,2562169172629.098145,10,-1.000000,""
38_updated,w0,python3action_chameleon_2000_taurus,0.997085,1,2000.000000,1,COMPLETED_SUCCESSFULLY,232.305680,64.199977,296.505657,231.308595,295.508572,4.602939,15,-1.000000,""
18,w0,python3action_videoprocessing_SampleVideo_50mb,0.000000,1,-1.000000,1,COMPLETED_SUCCESSFULLY,296.505657,0.000010,296.505667,296.505657,296.505667,29650566.693863,11,-1.000000,""
38,w0,python3action_chameleon_2000,0.000000,1,-1.000000,1,COMPLETED_SUCCESSFULLY,296.505702,0.000010,296.505712,296.505702,296.505712,29650571.200201,15,-1.000000,""
python3action_facedetection_job62_13,w0,python3action_facedetection_reduced_0.91,0.997085,1,2000.000000,1,COMPLETED_SUCCESSFULLY,296.505747,0.000000,296.505747,295.508662,295.508662,2562170211820.492676,15,-1.000000,""
37_updated,w0,python3action_modeltraining_reviews50mb_nova,0.997085,1,2000.000000,1,COMPLETED_SUCCESSFULLY,260.541888,42.399990,302.941878,259.544803,301.944793,7.121341,2,-1.000000,""
37,w0,python3action_modeltraining_reviews50mb,0.000000,1,-1.000000,1,COMPLETED_SUCCESSFULLY,302.941893,0.000010,302.941903,302.941893,302.941903,30294190.347613,2,-1.000000,""
python3action_video_processing_job56_1,w0,python3action_video_processing_reduced_1.89,0.997085,1,2000.000000,1,COMPLETED_SUCCESSFULLY,302.941923,0.000000,302.941923,301.944838,301.944838,6183783205698.125977,2,-1.000000,""
46_updated,w0,python3action_facedetection_SampleVideo_30mb_nova,0.997085,1,2000.000000,1,COMPLETED_SUCCESSFULLY,142.541949,160.399990,302.941939,141.544864,301.944854,1.882449,6,-1.000000,""
46,w0,python3action_facedetection_SampleVideo_30mb,0.000000,1,-1.000000,1,COMPLETED_SUCCESSFULLY,302.941983,0.000010,302.941993,302.941983,302.941993,30294199.348818,6,-1.000000,""
36_updated,w0,python3action_imageprocessing_SampleImage_60mb_taurus,0.997085,1,2000.000000,1,COMPLETED_SUCCESSFULLY,207.614916,101.500058,309.114974,206.617831,308.117889,3.035643,14,-1.000000,""
36,w0,python3action_imageprocessing_SampleImage_60mb,0.000000,1,-1.000000,1,COMPLETED_SUCCESSFULLY,309.114989,0.000010,309.114999,309.114989,309.114999,30911499.915125,14,-1.000000,""
python3action_modeltraining_job40_3,w0,python3action_modeltraining,0.997085,1,2000.000000,1,COMPLETED_SUCCESSFULLY,282.337213,30.499683,312.836896,281.340128,311.839811,10.224363,4,-1.000000,""
45_updated,w0,python3action_modeltraining_reviews100mb_nova,0.997085,1,2000.000000,1,COMPLETED_SUCCESSFULLY,235.541934,79.600010,315.141944,234.544849,314.144859,3.946543,5,-1.000000,""
45,w0,python3action_modeltraining_reviews100mb,0.000000,1,-1.000000,1,COMPLETED_SUCCESSFULLY,315.141959,0.000010,315.141969,315.141959,315.141969,31514196.900201,5,-1.000000,""
74_updated,w0,python3action_videoprocessing_SampleVideo_30mb_nova,0.997085,1,2000.000000,1,COMPLETED_SUCCESSFULLY,215.443223,106.799980,322.243203,214.446138,321.246118,3.007923,29,-1.000000,""
74,w0,python3action_videoprocessing_SampleVideo_30mb,0.000000,1,-1.000000,1,COMPLETED_SUCCESSFULLY,322.243218,0.000010,322.243228,322.243218,322.243228,32224322.846609,29,-1.000000,""
python3action_modeltraining_job93_21,w0,python3action_modeltraining_reduced_1.0,0.997085,1,2000.000000,1,COMPLETED_SUCCESSFULLY,322.243248,0.000000,322.243248,321.246163,321.246163,6579071331573.724609,29,-1.000000,""
73_updated,w0,python3action_linpack_6000_orion,0.997085,1,2000.000000,1,COMPLETED_SUCCESSFULLY,218.763222,106.000000,324.763222,217.766137,323.766137,3.054398,8,-1.000000,""
73,w0,python3action_linpack_6000,0.000000,1,-1.000000,1,COMPLETED_SUCCESSFULLY,324.763237,0.000010,324.763247,324.763237,324.763247,32476324.725881,8,-1.000000,""
96_updated,w0,python3action_linpack_6000_orion,0.997085,1,2000.000000,1,COMPLETED_SUCCESSFULLY,218.763282,106.000000,324.763282,217.766197,323.766197,3.054398,9,-1.000000,""
96,w0,python3action_linpack_6000,0.000000,1,-1.000000,1,COMPLETED_SUCCESSFULLY,324.763297,0.000010,324.763307,324.763297,324.763307,32476330.726685,9,-1.000000,""
42_updated,w0,python3action_imageprocessing_SampleImage_40mb_taurus,0.997085,1,2000.000000,1,COMPLETED_SUCCESSFULLY,296.505672,32.600046,329.105718,295.508587,328.108633,10.064668,10,-1.000000,""
42,w0,python3action_imageprocessing_SampleImage_40mb,0.000000,1,-1.000000,1,COMPLETED_SUCCESSFULLY,329.105733,0.000010,329.105743,329.105733,329.105743,32910574.307343,10,-1.000000,""
83_updated,w0,python3action_modeltraining_reviews50mb_nova,0.997085,1,2000.000000,1,COMPLETED_SUCCESSFULLY,288.462337,42.399990,330.862327,287.465252,329.865242,7.779842,7,-1.000000,""
83,w0,python3action_modeltraining_reviews50mb,0.000000,1,-1.000000,1,COMPLETED_SUCCESSFULLY,330.862342,0.000010,330.862352,330.862342,330.862352,33086235.248215,7,-1.000000,""
64_updated,w0,python3action_chameleon_2000_taurus,0.997085,1,2000.000000,1,COMPLETED_SUCCESSFULLY,276.855794,64.199977,341.055771,275.858709,340.058686,5.296866,16,-1.000000,""
64,w0,python3action_chameleon_2000,0.000000,1,-1.000000,1,COMPLETED_SUCCESSFULLY,341.055786,0.000010,341.055796,341.055786,341.055796,34105579.610801,16,-1.000000,""
67_updated,w0,python3action_modeltraining_reviews100mb_nova,0.997085,1,2000.000000,1,COMPLETED_SUCCESSFULLY,271.342154,79.600010,350.942164,270.345069,349.945079,4.396294,25,-1.000000,""
67,w0,python3action_modeltraining_reviews100mb,0.000000,1,-1.000000,1,COMPLETED_SUCCESSFULLY,350.942179,0.000010,350.942189,350.942179,350.942189,35094218.900201,25,-1.000000,""
python3action_video_processing_job86_17,w0,python3action_video_processing_reduced_1.89,0.997085,1,2000.000000,1,COMPLETED_SUCCESSFULLY,350.942209,0.000000,350.942209,349.945124,349.945124,7166821567929.062500,25,-1.000000,""
39_updated,w0,python3action_pyaes_4000_nova,0.997085,1,2000.000000,1,COMPLETED_SUCCESSFULLY,213.876832,139.600010,353.476842,212.879747,352.479757,2.524926,3,-1.000000,""
39,w0,python3action_pyaes_4000,0.000000,1,-1.000000,1,COMPLETED_SUCCESSFULLY,353.476857,0.000010,353.476867,353.476857,353.476867,35347686.724973,3,-1.000000,""
40_updated,w0,python3action_modeltraining_reviews50mb_nova,0.997085,1,2000.000000,1,COMPLETED_SUCCESSFULLY,312.836911,42.399990,355.236901,311.839826,354.239816,8.354715,4,-1.000000,""
40,w0,python3action_modeltraining_reviews50mb,0.000000,1,-1.000000,1,COMPLETED_SUCCESSFULLY,355.236916,0.000010,355.236926,355.236916,355.236926,35523692.623505,4,-1.000000,""
python3action_video_processing_job58_3,w0,python3action_video_processing_reduced_0.97,0.997085,1,2000.000000,1,COMPLETED_SUCCESSFULLY,355.236946,0.000000,355.236946,354.239861,354.239861,7254777116724.893555,4,-1.000000,""
60_updated,w0,python3action_modeltraining_reviews50mb_nova,0.997085,1,2000.000000,1,COMPLETED_SUCCESSFULLY,315.141989,42.399990,357.541979,314.144904,356.544894,8.409080,5,-1.000000,""
60,w0,python3action_modeltraining_reviews50mb,0.000000,1,-1.000000,1,COMPLETED_SUCCESSFULLY,357.541994,0.000010,357.542004,357.541994,357.542004,35754200.423907,5,-1.000000,""
python3action_video_processing_job81_4,w0,python3action_video_processing_reduced_0.97,0.997085,1,2000.000000,1,COMPLETED_SUCCESSFULLY,357.542024,0.000000,357.542024,356.544939,356.544939,7301984754784.896484,5,-1.000000,""
84_updated,w0,python3action_chameleon_3000_troll,0.997085,1,2000.000000,1,COMPLETED_SUCCESSFULLY,264.269284,94.000000,358.269284,263.272199,357.272199,3.800768,20,-1.000000,""
84,w0,python3action_chameleon_3000,0.000000,1,-1.000000,1,COMPLETED_SUCCESSFULLY,358.269299,0.000010,358.269309,358.269299,358.269309,35826930.910988,20,-1.000000,""
66_updated,w0,python3action_imageprocessing_SampleImage_40mb_taurus,0.997085,1,2000.000000,1,COMPLETED_SUCCESSFULLY,329.105763,32.600046,361.705809,328.108678,360.708724,11.064669,10,-1.000000,""
66,w0,python3action_imageprocessing_SampleImage_40mb,0.000000,1,-1.000000,1,COMPLETED_SUCCESSFULLY,361.705824,0.000010,361.705834,361.705824,361.705834,36170583.421023,10,-1.000000,""
33_updated,w0,python3action_videoprocessing_SampleVideo_50mb_taurus,0.997085,1,2000.000000,1,COMPLETED_SUCCESSFULLY,207.614856,154.250029,361.864885,206.617771,360.867800,2.339499,13,-1.000000,""
33,w0,python3action_videoprocessing_SampleVideo_50mb,0.000000,1,-1.000000,1,COMPLETED_SUCCESSFULLY,361.864900,0.000010,361.864910,361.864900,361.864910,36186491.031148,13,-1.000000,""
93_updated,w0,python3action_modeltraining_reviews50mb_nova,0.997085,1,2000.000000,1,COMPLETED_SUCCESSFULLY,322.243278,42.399990,364.643269,321.246193,363.646184,8.576563,29,-1.000000,""
93,w0,python3action_modeltraining_reviews50mb,0.000000,1,-1.000000,1,COMPLETED_SUCCESSFULLY,364.643284,0.000010,364.643294,364.643284,364.643294,36464329.400201,29,-1.000000,""
python3action_chameleon_job44_11,w0,python3action_chameleon,0.997085,1,2000.000000,1,COMPLETED_SUCCESSFULLY,361.864930,5.040826,366.905756,360.867845,365.908671,72.589034,13,-1.000000,""
61_updated,w0,python3action_floatoperation_100000000_nova,0.997085,1,2000.000000,1,COMPLETED_SUCCESSFULLY,302.942013,66.200020,369.142033,301.944928,368.144948,5.561100,6,-1.000000,""
61,w0,python3action_floatoperation_100000000,0.000000,1,-1.000000,1,COMPLETED_SUCCESSFULLY,369.142048,0.000010,369.142058,369.142048,369.142058,36914205.803213,6,-1.000000,""
85_updated,w0,python3action_chameleon_3000_troll,0.997085,1,2000.000000,1,COMPLETED_SUCCESSFULLY,294.269314,94.000000,388.269314,293.272229,387.272229,4.119917,19,-1.000000,""
85,w0,python3action_chameleon_3000,0.000000,1,-1.000000,1,COMPLETED_SUCCESSFULLY,388.269329,0.000010,388.269339,388.269329,388.269339,38826933.901004,19,-1.000000,""
68_updated,w0,python3action_pyaes_4000_nova,0.997085,1,2000.000000,1,COMPLETED_SUCCESSFULLY,260.077171,139.600010,399.677181,259.080086,398.680096,2.855874,26,-1.000000,""
68,w0,python3action_pyaes_4000,0.000000,1,-1.000000,1,COMPLETED_SUCCESSFULLY,399.677196,0.000010,399.677206,399.677196,399.677206,39967720.600201,26,-1.000000,""
python3action_video_processing_job87_18,w0,python3action_video_processing_reduced_0.97,0.997085,1,2000.000000,1,COMPLETED_SUCCESSFULLY,399.677226,0.000000,399.677226,398.680141,398.680141,8164907116173.273438,26,-1.000000,""
90_updated,w0,python3action_chameleon_2000_taurus,0.997085,1,2000.000000,1,COMPLETED_SUCCESSFULLY,341.055816,64.199977,405.255793,340.058731,404.258708,6.296867,16,-1.000000,""
90,w0,python3action_chameleon_2000,0.000000,1,-1.000000,1,COMPLETED_SUCCESSFULLY,405.255808,0.000010,405.255818,405.255808,405.255818,40525581.804864,16,-1.000000,""
python3action_video_processing_job118_14,w0,python3action_video_processing_reduced_0.91,0.997085,1,2000.000000,1,COMPLETED_SUCCESSFULLY,405.255838,0.000000,405.255838,404.258753,404.258753,3505074023552.513184,16,-1.000000,""
110_updated,w0,python3action_modeltraining_reviews50mb_nova,0.997085,1,2000.000000,1,COMPLETED_SUCCESSFULLY,364.643314,42.399990,407.043304,363.646229,406.046219,9.576564,29,-1.000000,""
110,w0,python3action_modeltraining_reviews50mb,0.000000,1,-1.000000,1,COMPLETED_SUCCESSFULLY,407.043319,0.000010,407.043329,407.043319,407.043329,40704332.923907,29,-1.000000,""
56_updated,w0,python3action_videoprocessing_SampleVideo_30mb_nova,0.997085,1,2000.000000,1,COMPLETED_SUCCESSFULLY,302.941953,106.799980,409.741934,301.944868,408.744849,3.827200,2,-1.000000,""
56,w0,python3action_videoprocessing_SampleVideo_30mb,0.000000,1,-1.000000,1,COMPLETED_SUCCESSFULLY,409.741949,0.000010,409.741959,409.741949,409.741959,40974195.900201,2,-1.000000,""
54_updated,w0,python3action_facedetection_SampleVideo_30mb_nova,0.997085,1,2000.000000,1,COMPLETED_SUCCESSFULLY,249.677147,160.399990,410.077137,248.680062,409.080052,2.550375,28,-1.000000,""
54,w0,python3action_facedetection_SampleVideo_30mb,0.000000,1,-1.000000,1,COMPLETED_SUCCESSFULLY,410.077152,0.000010,410.077162,410.077152,410.077162,41007716.223506,28,-1.000000,""
82_updated,w0,python3action_modeltraining_reviews50mb_nova,0.997085,1,2000.000000,1,COMPLETED_SUCCESSFULLY,369.142078,42.399990,411.542068,368.144993,410.544983,9.682667,6,-1.000000,""
82,w0,python3action_modeltraining_reviews50mb,0.000000,1,-1.000000,1,COMPLETED_SUCCESSFULLY,411.542083,0.000010,411.542093,411.542083,411.542093,41154209.326919,6,-1.000000,""
python3action_video_processing_job102_5,w0,python3action_video_processing_reduced_1.89,0.997085,1,2000.000000,1,COMPLETED_SUCCESSFULLY,411.542113,0.000000,411.542113,410.545028,410.545028,8407898157151.530273,6,-1.000000,""
57_updated,w0,python3action_floatoperation_100000000_nova,0.997085,1,2000.000000,1,COMPLETED_SUCCESSFULLY,353.476887,66.200020,419.676907,352.479802,418.679822,6.324467,3,-1.000000,""
57,w0,python3action_floatoperation_100000000,0.000000,1,-1.000000,1,COMPLETED_SUCCESSFULLY,419.676922,0.000010,419.676932,419.676922,419.676932,41967693.200201,3,-1.000000,""
python3action_facedetection_job78_2,w0,python3action_facedetection_reduced_0.91,0.997085,1,2000.000000,1,COMPLETED_SUCCESSFULLY,419.676952,0.000000,419.676952,418.679867,418.679867,8574498385823.265625,3,-1.000000,""
97_updated,w0,python3action_imageprocessing_SampleImage_60mb_troll,0.997085,1,2000.000000,1,COMPLETED_SUCCESSFULLY,358.269329,62.000000,420.269329,357.272244,419.272244,6.762456,20,-1.000000,""
97,w0,python3action_imageprocessing_SampleImage_60mb,0.000000,1,-1.000000,1,COMPLETED_SUCCESSFULLY,420.269344,0.000010,420.269354,420.269344,420.269354,42026935.411591,20,-1.000000,""
99_updated,w0,python3action_linpack_6000_orion,0.997085,1,2000.000000,1,COMPLETED_SUCCESSFULLY,324.763267,106.000000,430.763267,323.766182,429.766182,4.054398,8,-1.000000,""
99,w0,python3action_linpack_6000,0.000000,1,-1.000000,1,COMPLETED_SUCCESSFULLY,430.763282,0.000010,430.763292,430.763282,430.763292,43076329.226484,8,-1.000000,""
111_updated,w0,python3action_linpack_6000_orion,0.997085,1,2000.000000,1,COMPLETED_SUCCESSFULLY,324.763327,106.000000,430.763327,323.766242,429.766242,4.054399,9,-1.000000,""
111,w0,python3action_linpack_6000,0.000000,1,-1.000000,1,COMPLETED_SUCCESSFULLY,430.763342,0.000010,430.763352,430.763342,430.763352,43076335.227287,9,-1.000000,""
44_updated,w0,python3action_chameleon_2000_taurus,0.997085,1,2000.000000,1,COMPLETED_SUCCESSFULLY,366.905771,64.199977,431.105748,365.908686,430.108663,6.699514,13,-1.000000,""
44,w0,python3action_chameleon_2000,0.000000,1,-1.000000,1,COMPLETED_SUCCESSFULLY,431.105763,0.000010,431.105773,431.105763,431.105773,43110577.300201,13,-1.000000,""
python3action_image_processing_job77_11,w0,python3action_image_processing_reduced_1.73,0.997085,1,2000.000000,1,COMPLETED_SUCCESSFULLY,431.105793,0.000000,431.105793,430.108708,430.108708,3729202765188.469238,13,-1.000000,""
62_updated,w0,python3action_facedetection_SampleVideo_50mb_taurus,0.997085,1,2000.000000,1,COMPLETED_SUCCESSFULLY,296.505777,134.600046,431.105823,295.508692,430.108738,3.195458,15,-1.000000,""
62,w0,python3action_facedetection_SampleVideo_50mb,0.000000,1,-1.000000,1,COMPLETED_SUCCESSFULLY,431.105853,0.000010,431.105863,431.105853,431.105863,43110586.301406,15,-1.000000,""
python3action_image_processing_job89_13,w0,python3action_image_processing_reduced_1.73,0.997085,1,2000.000000,1,COMPLETED_SUCCESSFULLY,431.105883,0.000000,431.105883,430.108798,430.108798,3729203545626.468750,15,-1.000000,""
103_updated,w0,python3action_videoprocessing_SampleVideo_30mb_nova,0.997085,1,2000.000000,1,COMPLETED_SUCCESSFULLY,330.862372,106.799980,437.662353,329.865287,436.665268,4.088627,7,-1.000000,""
103,w0,python3action_videoprocessing_SampleVideo_30mb,0.000000,1,-1.000000,1,COMPLETED_SUCCESSFULLY,437.662368,0.000010,437.662378,437.662368,437.662378,43766237.800201,7,-1.000000,""
48_updated,w0,python3action_facedetection_SampleVideo_50mb_taurus,0.997085,1,2000.000000,1,COMPLETED_SUCCESSFULLY,309.115019,134.600046,443.715065,308.117934,442.717980,3.289137,14,-1.000000,""
48,w0,python3action_facedetection_SampleVideo_50mb,0.000000,1,-1.000000,1,COMPLETED_SUCCESSFULLY,443.715080,0.000010,443.715090,443.715080,443.715090,44371509.028806,14,-1.000000,""
88_updated,w0,python3action_facedetection_SampleVideo_30mb_nova,0.997085,1,2000.000000,1,COMPLETED_SUCCESSFULLY,286.382259,160.399990,446.782249,285.385174,445.785164,2.779209,27,-1.000000,""
88,w0,python3action_facedetection_SampleVideo_30mb,0.000000,1,-1.000000,1,COMPLETED_SUCCESSFULLY,446.782264,0.000010,446.782274,446.782264,446.782274,44678227.431389,27,-1.000000,""
43_updated,w0,python3action_videoprocessing_SampleVideo_50mb_taurus,0.997085,1,2000.000000,1,COMPLETED_SUCCESSFULLY,296.505717,154.250029,450.755746,295.508632,449.758661,2.915777,11,-1.000000,""
43,w0,python3action_videoprocessing_SampleVideo_50mb,0.000000,1,-1.000000,1,COMPLETED_SUCCESSFULLY,450.755761,0.000010,450.755771,450.755761,450.755771,45075577.100201,11,-1.000000,""
86_updated,w0,python3action_videoprocessing_SampleVideo_30mb_nova,0.997085,1,2000.000000,1,COMPLETED_SUCCESSFULLY,350.942239,106.799980,457.742219,349.945154,456.745134,4.276641,25,-1.000000,""
86,w0,python3action_videoprocessing_SampleVideo_30mb,0.000000,1,-1.000000,1,COMPLETED_SUCCESSFULLY,457.742234,0.000010,457.742244,457.742234,457.742244,45774224.447412,25,-1.000000,""
python3action_floatoperation_job104_17,w0,python3action_floatoperation,0.997085,1,2000.000000,1,COMPLETED_SUCCESSFULLY,457.742264,2.439945,460.182210,456.745179,459.185125,188.194844,25,-1.000000,""
58_updated,w0,python3action_videoprocessing_SampleVideo_30mb_nova,0.997085,1,2000.000000,1,COMPLETED_SUCCESSFULLY,355.236976,106.799980,462.036957,354.239891,461.039872,4.316854,4,-1.000000,""
58,w0,python3action_videoprocessing_SampleVideo_30mb,0.000000,1,-1.000000,1,COMPLETED_SUCCESSFULLY,462.036972,0.000010,462.036982,462.036972,462.036982,46203698.200201,4,-1.000000,""
python3action_facedetection_job79_3,w0,python3action_facedetection_reduced_1.83,0.997085,1,2000.000000,1,COMPLETED_SUCCESSFULLY,462.037002,0.000000,462.037002,461.039917,461.039917,9442025604043.013672,4,-1.000000,""
89_updated,w0,python3action_imageprocessing_SampleImage_40mb_taurus,0.997085,1,2000.000000,1,COMPLETED_SUCCESSFULLY,431.105913,32.600046,463.705959,430.108828,462.708874,14.193504,15,-1.000000,""
89,w0,python3action_imageprocessing_SampleImage_40mb,0.000000,1,-1.000000,1,COMPLETED_SUCCESSFULLY,463.705974,0.000010,463.705984,463.705974,463.705984,46370598.415488,15,-1.000000,""
81_updated,w0,python3action_videoprocessing_SampleVideo_30mb_nova,0.997085,1,2000.000000,1,COMPLETED_SUCCESSFULLY,357.542054,106.799980,464.342035,356.544969,463.344950,4.338437,5,-1.000000,""
81,w0,python3action_videoprocessing_SampleVideo_30mb,0.000000,1,-1.000000,1,COMPLETED_SUCCESSFULLY,464.342050,0.000010,464.342060,464.342050,464.342060,46434206.000201,5,-1.000000,""
71_updated,w0,python3action_floatoperation_100000000_nova,0.997085,1,2000.000000,1,COMPLETED_SUCCESSFULLY,410.077182,66.200020,476.277202,409.080097,475.280117,7.179456,28,-1.000000,""
71,w0,python3action_floatoperation_100000000,0.000000,1,-1.000000,1,COMPLETED_SUCCESSFULLY,476.277217,0.000010,476.277227,476.277217,476.277227,47627722.700201,28,-1.000000,""
80_updated,w0,python3action_imageprocessing_SampleImage_40mb_taurus,0.997085,1,2000.000000,1,COMPLETED_SUCCESSFULLY,443.715110,32.600046,476.315156,442.718025,475.318071,14.580288,14,-1.000000,""
80,w0,python3action_imageprocessing_SampleImage_40mb,0.000000,1,-1.000000,1,COMPLETED_SUCCESSFULLY,476.315171,0.000010,476.315181,476.315171,476.315181,47631518.142486,14,-1.000000,""
119_updated,w0,python3action_chameleon_3000_troll,0.997085,1,2000.000000,1,COMPLETED_SUCCESSFULLY,388.269359,94.000000,482.269359,387.272274,481.272274,5.119918,19,-1.000000,""
119,w0,python3action_chameleon_3000,0.000000,1,-1.000000,1,COMPLETED_SUCCESSFULLY,482.269374,0.000010,482.269384,482.269374,482.269384,48226938.401607,19,-1.000000,""
117_updated,w0,python3action_imageprocessing_SampleImage_40mb_taurus,0.997085,1,2000.000000,1,COMPLETED_SUCCESSFULLY,463.706004,32.600046,496.306050,462.708919,495.308965,15.193505,15,-1.000000,""
117,w0,python3action_imageprocessing_SampleImage_40mb,0.000000,1,-1.000000,1,COMPLETED_SUCCESSFULLY,496.306065,0.000010,496.306075,496.306065,496.306075,49630607.529168,15,-1.000000,""
87_updated,w0,python3action_videoprocessing_SampleVideo_30mb_nova,0.997085,1,2000.000000,1,COMPLETED_SUCCESSFULLY,399.677256,106.799980,506.477236,398.680171,505.480151,4.732961,26,-1.000000,""
87,w0,python3action_videoprocessing_SampleVideo_30mb,0.000000,1,-1.000000,1,COMPLETED_SUCCESSFULLY,506.477251,0.000010,506.477261,506.477251,506.477261,50647726.147412,26,-1.000000,""
128_updated,w0,python3action_videoprocessing_SampleVideo_30mb_nova,0.997085,1,2000.000000,1,COMPLETED_SUCCESSFULLY,407.043349,106.799980,513.843330,406.046264,512.846245,4.801932,29,-1.000000,""
128,w0,python3action_videoprocessing_SampleVideo_30mb,0.000000,1,-1.000000,1,COMPLETED_SUCCESSFULLY,513.843345,0.000010,513.843355,513.843345,513.843355,51384335.500201,29,-1.000000,""
125_updated,w0,python3action_chameleon_3000_troll,0.997085,1,2000.000000,1,COMPLETED_SUCCESSFULLY,420.269374,94.000000,514.269374,419.272289,513.272289,5.460344,20,-1.000000,""
125,w0,python3action_chameleon_3000,0.000000,1,-1.000000,1,COMPLETED_SUCCESSFULLY,514.269389,0.000010,514.269399,514.269389,514.269399,51426939.912193,20,-1.000000,""
70_updated,w0,python3action_chameleon_2000_taurus,0.997085,1,2000.000000,1,COMPLETED_SUCCESSFULLY,450.755791,64.199977,514.955768,449.758706,513.958683,8.005590,11,-1.000000,""
70,w0,python3action_chameleon_2000,0.000000,1,-1.000000,1,COMPLETED_SUCCESSFULLY,514.955783,0.000010,514.955793,514.955783,514.955793,51495579.300201,11,-1.000000,""
92_updated,w0,python3action_videoprocessing_SampleVideo_50mb_taurus,0.997085,1,2000.000000,1,COMPLETED_SUCCESSFULLY,361.705854,154.250029,515.955883,360.708769,514.958798,3.338468,10,-1.000000,""
92,w0,python3action_videoprocessing_SampleVideo_50mb,0.000000,1,-1.000000,1,COMPLETED_SUCCESSFULLY,515.955898,0.000010,515.955908,515.955898,515.955908,51595590.804800,10,-1.000000,""
python3action_facedetection_job123_9,w0,python3action_facedetection_reduced_1.83,0.997085,1,2000.000000,1,COMPLETED_SUCCESSFULLY,515.955928,0.000000,515.955928,514.958843,514.958843,4467086672677.653320,10,-1.000000,""
102_updated,w0,python3action_videoprocessing_SampleVideo_30mb_nova,0.997085,1,2000.000000,1,COMPLETED_SUCCESSFULLY,411.542143,106.799980,518.342124,410.545058,517.345039,4.844056,6,-1.000000,""
102,w0,python3action_videoprocessing_SampleVideo_30mb,0.000000,1,-1.000000,1,COMPLETED_SUCCESSFULLY,518.342139,0.000010,518.342149,518.342139,518.342149,51834214.900201,6,-1.000000,""
104_updated,w0,python3action_floatoperation_100000000_nova,0.997085,1,2000.000000,1,COMPLETED_SUCCESSFULLY,460.182225,66.200020,526.382245,459.185140,525.385160,7.936329,25,-1.000000,""
104,w0,python3action_floatoperation_100000000,0.000000,1,-1.000000,1,COMPLETED_SUCCESSFULLY,526.382260,0.000010,526.382270,526.382260,526.382270,52638227.000201,25,-1.000000,""
107_updated,w0,python3action_modeltraining_reviews100mb_nova,0.997085,1,2000.000000,1,COMPLETED_SUCCESSFULLY,446.782294,79.600010,526.382304,445.785209,525.385219,6.600316,27,-1.000000,""
107,w0,python3action_modeltraining_reviews100mb,0.000000,1,-1.000000,1,COMPLETED_SUCCESSFULLY,526.382319,0.000010,526.382329,526.382319,526.382329,52638232.909089,27,-1.000000,""
python3action_pyaes_job121_17,w0,python3action_pyaes_reduced_0.85,0.997085,1,2000.000000,1,COMPLETED_SUCCESSFULLY,526.382290,0.320244,526.702534,525.385205,525.705449,1641.579179,25,-1.000000,""
101_updated,w0,python3action_floatoperation_100000000_nova,0.997085,1,2000.000000,1,COMPLETED_SUCCESSFULLY,464.342080,66.200020,530.542100,463.344995,529.545015,7.999167,5,-1.000000,""
101,w0,python3action_floatoperation_100000000,0.000000,1,-1.000000,1,COMPLETED_SUCCESSFULLY,530.542115,0.000010,530.542125,530.542115,530.542125,53054212.500201,5,-1.000000,""
77_updated,w0,python3action_imageprocessing_SampleImage_60mb_taurus,0.997085,1,2000.000000,1,COMPLETED_SUCCESSFULLY,431.105823,101.500058,532.605881,430.108738,531.608796,5.237522,13,-1.000000,""
77,w0,python3action_imageprocessing_SampleImage_60mb,0.000000,1,-1.000000,1,COMPLETED_SUCCESSFULLY,532.605896,0.000010,532.605906,532.605896,532.605906,53260590.600201,13,-1.000000,""
python3action_pyaes_job115_4,w0,python3action_pyaes,0.997085,1,2000.000000,1,COMPLETED_SUCCESSFULLY,530.542145,2.134958,532.677103,529.545060,531.680018,249.035325,5,-1.000000,""
127_updated,w0,python3action_linpack_6000_orion,0.997085,1,2000.000000,1,COMPLETED_SUCCESSFULLY,430.763312,106.000000,536.763312,429.766227,535.766227,5.054398,8,-1.000000,""
127,w0,python3action_linpack_6000,0.000000,1,-1.000000,1,COMPLETED_SUCCESSFULLY,536.763327,0.000010,536.763337,536.763327,536.763337,53676333.727087,8,-1.000000,""
133_updated,w0,python3action_linpack_6000_orion,0.997085,1,2000.000000,1,COMPLETED_SUCCESSFULLY,430.763372,106.000000,536.763372,429.766287,535.766287,5.054399,9,-1.000000,""
133,w0,python3action_linpack_6000,0.000000,1,-1.000000,1,COMPLETED_SUCCESSFULLY,536.763387,0.000010,536.763397,536.763387,536.763397,53676339.727890,9,-1.000000,""
151_updated,w0,python3action_linpack_5000_nova,0.997085,1,2000.000000,1,COMPLETED_SUCCESSFULLY,513.843375,34.600010,548.443385,512.846290,547.446300,15.822143,29,-1.000000,""
151,w0,python3action_linpack_5000,0.000000,1,-1.000000,1,COMPLETED_SUCCESSFULLY,548.443400,0.000010,548.443410,548.443400,548.443410,54844341.000201,29,-1.000000,""
91_updated,w0,python3action_pyaes_3000_nova,0.997085,1,2000.000000,1,COMPLETED_SUCCESSFULLY,476.277247,78.200020,554.477267,475.280162,553.480182,7.077750,28,-1.000000,""
91,w0,python3action_pyaes_3000,0.000000,1,-1.000000,1,COMPLETED_SUCCESSFULLY,554.477282,0.000010,554.477292,554.477282,554.477292,55447729.200201,28,-1.000000,""
python3action_modeltraining_job108_20,w0,python3action_modeltraining_reduced_0.94,0.997085,1,2000.000000,1,COMPLETED_SUCCESSFULLY,554.477312,0.000000,554.477312,553.480227,553.480227,11322008285344.693359,28,-1.000000,""
118_updated,w0,python3action_videoprocessing_SampleVideo_50mb_taurus,0.997085,1,2000.000000,1,COMPLETED_SUCCESSFULLY,405.255868,154.250029,559.505897,404.258783,558.508812,3.620802,16,-1.000000,""
118,w0,python3action_videoprocessing_SampleVideo_50mb,0.000000,1,-1.000000,1,COMPLETED_SUCCESSFULLY,559.505912,0.000010,559.505922,559.505912,559.505922,55950592.200201,16,-1.000000,""
137_updated,w0,python3action_chameleon_2000_taurus,0.997085,1,2000.000000,1,COMPLETED_SUCCESSFULLY,496.306095,64.199977,560.506072,495.309010,559.508987,8.715096,15,-1.000000,""
137,w0,python3action_chameleon_2000,0.000000,1,-1.000000,1,COMPLETED_SUCCESSFULLY,560.506087,0.000010,560.506097,560.506087,560.506097,56050609.723232,15,-1.000000,""
76_updated,w0,python3action_facedetection_SampleVideo_30mb_nova,0.997085,1,2000.000000,1,COMPLETED_SUCCESSFULLY,409.741979,160.399990,570.141969,408.744894,569.144884,3.548285,2,-1.000000,""
76,w0,python3action_facedetection_SampleVideo_30mb,0.000000,1,-1.000000,1,COMPLETED_SUCCESSFULLY,570.141984,0.000010,570.141994,570.141984,570.141994,57014199.423907,2,-1.000000,""
129_updated,w0,python3action_chameleon_3000_troll,0.997085,1,2000.000000,1,COMPLETED_SUCCESSFULLY,482.269404,94.000000,576.269404,481.272319,575.272319,6.119918,19,-1.000000,""
129,w0,python3action_chameleon_3000,0.000000,1,-1.000000,1,COMPLETED_SUCCESSFULLY,576.269419,0.000010,576.269429,576.269419,576.269429,57626942.902210,19,-1.000000,""
120_updated,w0,python3action_pyaes_4000_nova,0.997085,1,2000.000000,1,COMPLETED_SUCCESSFULLY,437.662398,139.600010,577.262408,436.665313,576.265323,4.127975,7,-1.000000,""
120,w0,python3action_pyaes_4000,0.000000,1,-1.000000,1,COMPLETED_SUCCESSFULLY,577.262423,0.000010,577.262433,577.262423,577.262433,57726243.300201,7,-1.000000,""
109_updated,w0,python3action_imageprocessing_SampleImage_60mb_taurus,0.997085,1,2000.000000,1,COMPLETED_SUCCESSFULLY,476.315201,101.500058,577.815259,475.318116,576.818174,5.682934,14,-1.000000,""
109,w0,python3action_imageprocessing_SampleImage_60mb,0.000000,1,-1.000000,1,COMPLETED_SUCCESSFULLY,577.815274,0.000010,577.815284,577.815274,577.815284,57781528.409436,14,-1.000000,""
python3action_video_processing_job135_12,w0,python3action_video_processing_reduced_1.83,0.997085,1,2000.000000,1,COMPLETED_SUCCESSFULLY,577.815304,0.000000,577.815304,576.818219,576.818219,5003694982341.925781,14,-1.000000,""
98_updated,w0,python3action_chameleon_2000_taurus,0.997085,1,2000.000000,1,COMPLETED_SUCCESSFULLY,514.955813,64.199977,579.155790,513.958728,578.158705,9.005591,11,-1.000000,""
98,w0,python3action_chameleon_2000,0.000000,1,-1.000000,1,COMPLETED_SUCCESSFULLY,579.155805,0.000010,579.155815,579.155805,579.155815,57915581.500201,11,-1.000000,""
78_updated,w0,python3action_facedetection_SampleVideo_30mb_nova,0.997085,1,2000.000000,1,COMPLETED_SUCCESSFULLY,419.676982,160.399990,580.076972,418.679897,579.079887,3.610224,3,-1.000000,""
78,w0,python3action_facedetection_SampleVideo_30mb,0.000000,1,-1.000000,1,COMPLETED_SUCCESSFULLY,580.076987,0.000010,580.076997,580.076987,580.076997,58007699.724309,3,-1.000000,""
105_updated,w0,python3action_pyaes_3000_nova,0.997085,1,2000.000000,1,COMPLETED_SUCCESSFULLY,506.477281,78.200020,584.677301,505.480196,583.680216,7.463940,26,-1.000000,""
105,w0,python3action_pyaes_3000,0.000000,1,-1.000000,1,COMPLETED_SUCCESSFULLY,584.677316,0.000010,584.677326,584.677316,584.677326,58467732.601807,26,-1.000000,""
python3action_linpack_job122_18,w0,python3action_linpack_reduced_0.85,0.997085,1,2000.000000,1,COMPLETED_SUCCESSFULLY,584.677346,0.365992,585.043338,583.680261,584.046253,1595.790568,26,-1.000000,""
108_updated,w0,python3action_modeltraining_reviews50mb_nova,0.997085,1,2000.000000,1,COMPLETED_SUCCESSFULLY,554.477342,42.399990,596.877332,553.480257,595.880247,14.053783,28,-1.000000,""
108,w0,python3action_modeltraining_reviews50mb,0.000000,1,-1.000000,1,COMPLETED_SUCCESSFULLY,596.877347,0.000010,596.877357,596.877347,596.877357,59687735.724308,28,-1.000000,""
python3action_video_processing_job126_20,w0,python3action_video_processing_reduced_1.89,0.997085,1,2000.000000,1,COMPLETED_SUCCESSFULLY,596.877377,0.000000,596.877377,595.880292,595.880292,12189345303968.382812,28,-1.000000,""
121_updated,w0,python3action_pyaes_3000_nova,0.997085,1,2000.000000,1,COMPLETED_SUCCESSFULLY,526.702549,78.200020,604.902569,525.705464,603.905484,7.722575,25,-1.000000,""
121,w0,python3action_pyaes_3000,0.000000,1,-1.000000,1,COMPLETED_SUCCESSFULLY,604.902584,0.000010,604.902594,604.902584,604.902594,60490259.400201,25,-1.000000,""
142_updated,w0,python3action_chameleon_3000_troll,0.997085,1,2000.000000,1,COMPLETED_SUCCESSFULLY,514.269419,94.000000,608.269419,513.272334,607.272334,6.460344,20,-1.000000,""
142,w0,python3action_chameleon_3000,0.000000,1,-1.000000,1,COMPLETED_SUCCESSFULLY,608.269434,0.000010,608.269444,608.269434,608.269444,60826944.412796,20,-1.000000,""
122_updated,w0,python3action_linpack_5000_nova,0.997085,1,2000.000000,1,COMPLETED_SUCCESSFULLY,585.043353,34.600010,619.643363,584.046268,618.646278,17.879945,26,-1.000000,""
122,w0,python3action_linpack_5000,0.000000,1,-1.000000,1,COMPLETED_SUCCESSFULLY,619.643378,0.000010,619.643388,619.643378,619.643388,61964338.800201,26,-1.000000,""
79_updated,w0,python3action_facedetection_SampleVideo_30mb_nova,0.997085,1,2000.000000,1,COMPLETED_SUCCESSFULLY,462.037032,160.399990,622.437022,461.039947,621.439937,3.874314,4,-1.000000,""
79,w0,python3action_facedetection_SampleVideo_30mb,0.000000,1,-1.000000,1,COMPLETED_SUCCESSFULLY,622.437037,0.000010,622.437047,622.437037,622.437047,62243704.724308,4,-1.000000,""
139_updated,w0,python3action_chameleon_2000_taurus,0.997085,1,2000.000000,1,COMPLETED_SUCCESSFULLY,559.505942,64.199977,623.705919,558.508857,622.708834,9.699518,16,-1.000000,""
139,w0,python3action_chameleon_2000,0.000000,1,-1.000000,1,COMPLETED_SUCCESSFULLY,623.705934,0.000010,623.705944,623.705934,623.705944,62370594.400201,16,-1.000000,""
python3action_image_processing_job162_14,w0,python3action_image_processing_reduced_1.73,0.997085,1,2000.000000,1,COMPLETED_SUCCESSFULLY,623.705964,0.000000,623.705964,622.708879,622.708879,5401780301275.017578,16,-1.000000,""
166_updated,w0,python3action_modeltraining_reviews100mb_nova,0.997085,1,2000.000000,1,COMPLETED_SUCCESSFULLY,548.443430,79.600010,628.043440,547.446345,627.046355,7.877466,29,-1.000000,""
166,w0,python3action_modeltraining_reviews100mb,0.000000,1,-1.000000,1,COMPLETED_SUCCESSFULLY,628.043455,0.000010,628.043465,628.043455,628.043465,62804346.500201,29,-1.000000,""
124_updated,w0,python3action_videoprocessing_SampleVideo_30mb_nova,0.997085,1,2000.000000,1,COMPLETED_SUCCESSFULLY,526.382349,106.799980,633.182330,525.385264,632.185245,5.919339,27,-1.000000,""
124,w0,python3action_videoprocessing_SampleVideo_30mb,0.000000,1,-1.000000,1,COMPLETED_SUCCESSFULLY,633.182345,0.000010,633.182355,633.182345,633.182355,63318235.500201,27,-1.000000,""
148_updated,w0,python3action_linpack_6000_orion,0.997085,1,2000.000000,1,COMPLETED_SUCCESSFULLY,536.763357,106.000000,642.763357,535.766272,641.766272,6.054399,8,-1.000000,""
148,w0,python3action_linpack_6000,0.000000,1,-1.000000,1,COMPLETED_SUCCESSFULLY,642.763372,0.000010,642.763382,642.763372,642.763382,64276338.227689,8,-1.000000,""
164_updated,w0,python3action_linpack_6000_orion,0.997085,1,2000.000000,1,COMPLETED_SUCCESSFULLY,536.763417,106.000000,642.763417,535.766332,641.766332,6.054399,9,-1.000000,""
164,w0,python3action_linpack_6000,0.000000,1,-1.000000,1,COMPLETED_SUCCESSFULLY,642.763432,0.000010,642.763442,642.763432,642.763442,64276344.228492,9,-1.000000,""
132_updated,w0,python3action_chameleon_2000_taurus,0.997085,1,2000.000000,1,COMPLETED_SUCCESSFULLY,579.155835,64.199977,643.355812,578.158750,642.358727,10.005591,11,-1.000000,""
132,w0,python3action_chameleon_2000,0.000000,1,-1.000000,1,COMPLETED_SUCCESSFULLY,643.355827,0.000010,643.355837,643.355827,643.355837,64335583.700201,11,-1.000000,""
95_updated,w0,python3action_floatoperation_100000000_nova,0.997085,1,2000.000000,1,COMPLETED_SUCCESSFULLY,580.077017,66.200020,646.277037,579.079932,645.279952,9.747428,3,-1.000000,""
95,w0,python3action_floatoperation_100000000,0.000000,1,-1.000000,1,COMPLETED_SUCCESSFULLY,646.277052,0.000010,646.277062,646.277052,646.277062,64627706.200201,3,-1.000000,""
123_updated,w0,python3action_facedetection_SampleVideo_50mb_taurus,0.997085,1,2000.000000,1,COMPLETED_SUCCESSFULLY,515.955958,134.600046,650.556004,514.958873,649.558919,4.825845,10,-1.000000,""
123,w0,python3action_facedetection_SampleVideo_50mb,0.000000,1,-1.000000,1,COMPLETED_SUCCESSFULLY,650.556019,0.000010,650.556029,650.556019,650.556029,65055602.918882,10,-1.000000,""
116_updated,w0,python3action_floatoperation_200000000_nova,0.997085,1,2000.000000,1,COMPLETED_SUCCESSFULLY,518.342169,135.399990,653.742159,517.345084,652.745074,4.820865,6,-1.000000,""
116,w0,python3action_floatoperation_200000000,0.000000,1,-1.000000,1,COMPLETED_SUCCESSFULLY,653.742174,0.000010,653.742184,653.742174,653.742184,65374218.423907,6,-1.000000,""
167_updated,w0,python3action_chameleon_3000_troll,0.997085,1,2000.000000,1,COMPLETED_SUCCESSFULLY,576.269449,94.000000,670.269449,575.272364,669.272364,7.119919,19,-1.000000,""
167,w0,python3action_chameleon_3000,0.000000,1,-1.000000,1,COMPLETED_SUCCESSFULLY,670.269464,0.000010,670.269474,670.269464,670.269474,67026947.402812,19,-1.000000,""
115_updated,w0,python3action_pyaes_4000_nova,0.997085,1,2000.000000,1,COMPLETED_SUCCESSFULLY,532.677118,139.600010,672.277128,531.680033,671.280043,4.808596,5,-1.000000,""
115,w0,python3action_pyaes_4000,0.000000,1,-1.000000,1,COMPLETED_SUCCESSFULLY,672.277143,0.000010,672.277153,672.277143,672.277153,67227715.301668,5,-1.000000,""
147_updated,w0,python3action_modeltraining_reviews50mb_nova,0.997085,1,2000.000000,1,COMPLETED_SUCCESSFULLY,633.182375,42.399990,675.582365,632.185290,674.585280,15.910034,27,-1.000000,""
147,w0,python3action_modeltraining_reviews50mb,0.000000,1,-1.000000,1,COMPLETED_SUCCESSFULLY,675.582380,0.000010,675.582390,675.582380,675.582390,67558239.023907,27,-1.000000,""
94_updated,w0,python3action_videoprocessing_SampleVideo_30mb_nova,0.997085,1,2000.000000,1,COMPLETED_SUCCESSFULLY,570.142014,106.799980,676.941995,569.144929,675.944910,6.329073,2,-1.000000,""
94,w0,python3action_videoprocessing_SampleVideo_30mb,0.000000,1,-1.000000,1,COMPLETED_SUCCESSFULLY,676.942010,0.000010,676.942020,676.942010,676.942020,67694202.000201,2,-1.000000,""
python3action_linpack_job112_1,w0,python3action_linpack,0.997085,1,2000.000000,1,COMPLETED_SUCCESSFULLY,676.942040,2.439945,679.381985,675.944955,678.384900,278.032832,2,-1.000000,""
106_updated,w0,python3action_videoprocessing_SampleVideo_50mb_taurus,0.997085,1,2000.000000,1,COMPLETED_SUCCESSFULLY,532.605926,154.250029,686.855955,531.608841,685.858870,4.446410,13,-1.000000,""
106,w0,python3action_videoprocessing_SampleVideo_50mb,0.000000,1,-1.000000,1,COMPLETED_SUCCESSFULLY,686.855970,0.000010,686.855980,686.855970,686.855980,68685598.000201,13,-1.000000,""
113_updated,w0,python3action_modeltraining_reviews50mb_nova,0.997085,1,2000.000000,1,COMPLETED_SUCCESSFULLY,646.277082,42.399990,688.677072,645.279997,687.679987,16.218871,3,-1.000000,""
113,w0,python3action_modeltraining_reviews50mb,0.000000,1,-1.000000,1,COMPLETED_SUCCESSFULLY,688.677087,0.000010,688.677097,688.677087,688.677097,68867709.723907,3,-1.000000,""
python3action_video_processing_job131_2,w0,python3action_video_processing_reduced_1.89,0.997085,1,2000.000000,1,COMPLETED_SUCCESSFULLY,688.677117,0.000000,688.677117,687.680032,687.680032,14067203565408.343750,3,-1.000000,""
160_updated,w0,python3action_facedetection_SampleVideo_50mb_taurus,0.997085,1,2000.000000,1,COMPLETED_SUCCESSFULLY,560.506117,134.600046,695.106163,559.509032,694.109078,5.156826,15,-1.000000,""
160,w0,python3action_facedetection_SampleVideo_50mb,0.000000,1,-1.000000,1,COMPLETED_SUCCESSFULLY,695.106178,0.000010,695.106188,695.106178,695.106188,69510618.836912,15,-1.000000,""
141_updated,w0,python3action_modeltraining_reviews50mb_nova,0.997085,1,2000.000000,1,COMPLETED_SUCCESSFULLY,653.742204,42.399990,696.142194,652.745119,695.145109,16.394936,6,-1.000000,""
141,w0,python3action_modeltraining_reviews50mb,0.000000,1,-1.000000,1,COMPLETED_SUCCESSFULLY,696.142209,0.000010,696.142219,696.142209,696.142219,69614221.947613,6,-1.000000,""
100_updated,w0,python3action_modeltraining_reviews100mb_nova,0.997085,1,2000.000000,1,COMPLETED_SUCCESSFULLY,622.437067,79.600010,702.037077,621.439982,701.039992,8.807034,4,-1.000000,""
100,w0,python3action_modeltraining_reviews100mb,0.000000,1,-1.000000,1,COMPLETED_SUCCESSFULLY,702.037092,0.000010,702.037102,702.037092,702.037102,70203710.201807,4,-1.000000,""
174_updated,w0,python3action_chameleon_3000_troll,0.997085,1,2000.000000,1,COMPLETED_SUCCESSFULLY,608.269464,94.000000,702.269464,607.272379,701.272379,7.460344,20,-1.000000,""
174,w0,python3action_chameleon_3000,0.000000,1,-1.000000,1,COMPLETED_SUCCESSFULLY,702.269479,0.000010,702.269489,702.269479,702.269489,70226948.913398,20,-1.000000,""
126_updated,w0,python3action_videoprocessing_SampleVideo_30mb_nova,0.997085,1,2000.000000,1,COMPLETED_SUCCESSFULLY,596.877407,106.799980,703.677388,595.880322,702.680303,6.579405,28,-1.000000,""
126,w0,python3action_videoprocessing_SampleVideo_30mb,0.000000,1,-1.000000,1,COMPLETED_SUCCESSFULLY,703.677403,0.000010,703.677413,703.677403,703.677413,70367741.300201,28,-1.000000,""
163_updated,w0,python3action_linpack_5000_nova,0.997085,1,2000.000000,1,COMPLETED_SUCCESSFULLY,675.582410,34.600010,710.182420,674.585325,709.185335,20.496680,27,-1.000000,""
163,w0,python3action_linpack_5000,0.000000,1,-1.000000,1,COMPLETED_SUCCESSFULLY,710.182435,0.000010,710.182445,710.182435,710.182445,71018244.501405,27,-1.000000,""
145_updated,w0,python3action_videoprocessing_SampleVideo_30mb_nova,0.997085,1,2000.000000,1,COMPLETED_SUCCESSFULLY,604.902614,106.799980,711.702594,603.905529,710.705509,6.654547,25,-1.000000,""
145,w0,python3action_videoprocessing_SampleVideo_30mb,0.000000,1,-1.000000,1,COMPLETED_SUCCESSFULLY,711.702609,0.000010,711.702619,711.702609,711.702619,71170261.947010,25,-1.000000,""
112_updated,w0,python3action_linpack_5000_nova,0.997085,1,2000.000000,1,COMPLETED_SUCCESSFULLY,679.382000,34.600010,713.982010,678.384915,712.984925,20.606495,2,-1.000000,""
112,w0,python3action_linpack_5000,0.000000,1,-1.000000,1,COMPLETED_SUCCESSFULLY,713.982025,0.000010,713.982035,713.982025,713.982035,71398203.507280,2,-1.000000,""
python3action_pyaes_job130_1,w0,python3action_pyaes_reduced_0.85,0.997085,1,2000.000000,1,COMPLETED_SUCCESSFULLY,713.982055,0.320244,714.302299,712.984970,713.305214,2227.382254,2,-1.000000,""
143_updated,w0,python3action_pyaes_4000_nova,0.997085,1,2000.000000,1,COMPLETED_SUCCESSFULLY,577.262453,139.600010,716.862463,576.265368,715.865378,5.127975,7,-1.000000,""
143,w0,python3action_pyaes_4000,0.000000,1,-1.000000,1,COMPLETED_SUCCESSFULLY,716.862478,0.000010,716.862488,716.862478,716.862488,71686248.800201,7,-1.000000,""
162_updated,w0,python3action_imageprocessing_SampleImage_60mb_taurus,0.997085,1,2000.000000,1,COMPLETED_SUCCESSFULLY,623.705994,101.500058,725.206052,622.708909,724.208967,7.135060,16,-1.000000,""
162,w0,python3action_imageprocessing_SampleImage_60mb,0.000000,1,-1.000000,1,COMPLETED_SUCCESSFULLY,725.206067,0.000010,725.206077,725.206067,725.206077,72520607.700201,16,-1.000000,""
135_updated,w0,python3action_videoprocessing_SampleVideo_50mb_taurus,0.997085,1,2000.000000,1,COMPLETED_SUCCESSFULLY,577.815334,154.250029,732.065363,576.818249,731.068278,4.739502,14,-1.000000,""
135,w0,python3action_videoprocessing_SampleVideo_50mb,0.000000,1,-1.000000,1,COMPLETED_SUCCESSFULLY,732.065378,0.000010,732.065388,732.065378,732.065388,73206538.800201,14,-1.000000,""
python3action_chameleon_job153_12,w0,python3action_chameleon,0.997085,1,2000.000000,1,COMPLETED_SUCCESSFULLY,732.065408,5.040826,737.106234,731.068323,736.109149,146.029477,14,-1.000000,""
171_updated,w0,python3action_linpack_6000_orion,0.997085,1,2000.000000,1,COMPLETED_SUCCESSFULLY,642.763402,106.000000,748.763402,641.766317,747.766317,7.054399,8,-1.000000,""
171,w0,python3action_linpack_6000,0.000000,1,-1.000000,1,COMPLETED_SUCCESSFULLY,748.763417,0.000010,748.763427,748.763417,748.763427,74876342.728291,8,-1.000000,""
178_updated,w0,python3action_linpack_6000_orion,0.997085,1,2000.000000,1,COMPLETED_SUCCESSFULLY,642.763462,106.000000,748.763462,641.766377,747.766377,7.054400,9,-1.000000,""
178,w0,python3action_linpack_6000,0.000000,1,-1.000000,1,COMPLETED_SUCCESSFULLY,748.763477,0.000010,748.763487,748.763477,748.763487,74876348.729094,9,-1.000000,""
138_updated,w0,python3action_modeltraining_reviews100mb_nova,0.997085,1,2000.000000,1,COMPLETED_SUCCESSFULLY,672.277173,79.600010,751.877183,671.280088,750.880098,9.433166,5,-1.000000,""
138,w0,python3action_modeltraining_reviews100mb,0.000000,1,-1.000000,1,COMPLETED_SUCCESSFULLY,751.877198,0.000010,751.877208,751.877198,751.877208,75187720.800201,5,-1.000000,""
146_updated,w0,python3action_pyaes_4000_nova,0.997085,1,2000.000000,1,COMPLETED_SUCCESSFULLY,619.643408,139.600010,759.243418,618.646323,758.246333,5.431564,26,-1.000000,""
146,w0,python3action_pyaes_4000,0.000000,1,-1.000000,1,COMPLETED_SUCCESSFULLY,759.243433,0.000010,759.243443,759.243433,759.243443,75924344.300201,26,-1.000000,""
186_updated,w0,python3action_chameleon_3000_troll,0.997085,1,2000.000000,1,COMPLETED_SUCCESSFULLY,670.269494,94.000000,764.269494,669.272409,763.272409,8.119919,19,-1.000000,""
186,w0,python3action_chameleon_3000,0.000000,1,-1.000000,1,COMPLETED_SUCCESSFULLY,764.269509,0.000010,764.269519,764.269509,764.269519,76426951.903414,19,-1.000000,""
198_updated,w0,python3action_pyaes_4000_nova,0.997085,1,2000.000000,1,COMPLETED_SUCCESSFULLY,628.043485,139.600010,767.643495,627.046400,766.646410,5.491736,29,-1.000000,""
198,w0,python3action_pyaes_4000,0.000000,1,-1.000000,1,COMPLETED_SUCCESSFULLY,767.643510,0.000010,767.643520,767.643510,767.643520,76764352.000201,29,-1.000000,""
149_updated,w0,python3action_floatoperation_100000000_nova,0.997085,1,2000.000000,1,COMPLETED_SUCCESSFULLY,703.677433,66.200020,769.877453,702.680348,768.880368,11.614504,28,-1.000000,""
149,w0,python3action_floatoperation_100000000,0.000000,1,-1.000000,1,COMPLETED_SUCCESSFULLY,769.877468,0.000010,769.877478,769.877468,769.877478,76987747.800201,28,-1.000000,""
194_updated,w0,python3action_modeltraining_reviews100mb_nova,0.997085,1,2000.000000,1,COMPLETED_SUCCESSFULLY,710.182465,79.600010,789.782475,709.185380,788.785390,9.909363,27,-1.000000,""
194,w0,python3action_modeltraining_reviews100mb,0.000000,1,-1.000000,1,COMPLETED_SUCCESSFULLY,789.782490,0.000010,789.782500,789.782490,789.782500,78978250.000201,27,-1.000000,""
130_updated,w0,python3action_pyaes_3000_nova,0.997085,1,2000.000000,1,COMPLETED_SUCCESSFULLY,714.302314,78.200020,792.502334,713.305229,791.505249,10.121548,2,-1.000000,""
130,w0,python3action_pyaes_3000,0.000000,1,-1.000000,1,COMPLETED_SUCCESSFULLY,792.502349,0.000010,792.502359,792.502349,792.502359,79250235.900201,2,-1.000000,""
158_updated,w0,python3action_pyaes_3000_nova,0.997085,1,2000.000000,1,COMPLETED_SUCCESSFULLY,716.862508,78.200020,795.062528,715.865423,794.065443,10.154287,7,-1.000000,""
158,w0,python3action_pyaes_3000,0.000000,1,-1.000000,1,COMPLETED_SUCCESSFULLY,795.062543,0.000010,795.062553,795.062543,795.062553,79506255.300201,7,-1.000000,""
131_updated,w0,python3action_videoprocessing_SampleVideo_30mb_nova,0.997085,1,2000.000000,1,COMPLETED_SUCCESSFULLY,688.677147,106.799980,795.477128,687.680062,794.480043,7.438953,3,-1.000000,""
131,w0,python3action_videoprocessing_SampleVideo_30mb,0.000000,1,-1.000000,1,COMPLETED_SUCCESSFULLY,795.477143,0.000010,795.477153,795.477143,795.477153,79547715.300201,3,-1.000000,""
187_updated,w0,python3action_chameleon_3000_troll,0.997085,1,2000.000000,1,COMPLETED_SUCCESSFULLY,702.269509,94.000000,796.269509,701.272424,795.272424,8.460345,20,-1.000000,""
187,w0,python3action_chameleon_3000,0.000000,1,-1.000000,1,COMPLETED_SUCCESSFULLY,796.269524,0.000010,796.269534,796.269524,796.269534,79626953.414000,20,-1.000000,""
python3action_floatoperation_job185_6,w0,python3action_floatoperation,0.997085,1,2000.000000,1,COMPLETED_SUCCESSFULLY,795.062573,2.439945,797.502518,794.065488,796.505433,326.443972,7,-1.000000,""
144_updated,w0,python3action_videoprocessing_SampleVideo_50mb_taurus,0.997085,1,2000.000000,1,COMPLETED_SUCCESSFULLY,643.355857,154.250029,797.605886,642.358772,796.608801,5.164400,11,-1.000000,""
144,w0,python3action_videoprocessing_SampleVideo_50mb,0.000000,1,-1.000000,1,COMPLETED_SUCCESSFULLY,797.605901,0.000010,797.605911,797.605901,797.605911,79760591.100201,11,-1.000000,""
153_updated,w0,python3action_chameleon_2000_taurus,0.997085,1,2000.000000,1,COMPLETED_SUCCESSFULLY,737.106249,64.199977,801.306226,736.109164,800.309141,12.465879,14,-1.000000,""
153,w0,python3action_chameleon_2000,0.000000,1,-1.000000,1,COMPLETED_SUCCESSFULLY,801.306241,0.000010,801.306251,801.306241,801.306251,80130625.100201,14,-1.000000,""
157_updated,w0,python3action_videoprocessing_SampleVideo_30mb_nova,0.997085,1,2000.000000,1,COMPLETED_SUCCESSFULLY,696.142239,106.799980,802.942220,695.145154,801.945135,7.508851,6,-1.000000,""
157,w0,python3action_videoprocessing_SampleVideo_30mb,0.000000,1,-1.000000,1,COMPLETED_SUCCESSFULLY,802.942235,0.000010,802.942245,802.942235,802.942245,80294224.500201,6,-1.000000,""
140_updated,w0,python3action_videoprocessing_SampleVideo_50mb_taurus,0.997085,1,2000.000000,1,COMPLETED_SUCCESSFULLY,650.556049,154.250029,804.806078,649.558964,803.808993,5.211078,10,-1.000000,""
140,w0,python3action_videoprocessing_SampleVideo_50mb,0.000000,1,-1.000000,1,COMPLETED_SUCCESSFULLY,804.806093,0.000010,804.806103,804.806093,804.806103,80480610.302658,10,-1.000000,""
165_updated,w0,python3action_modeltraining_reviews50mb_nova,0.997085,1,2000.000000,1,COMPLETED_SUCCESSFULLY,769.877498,42.399990,812.277488,768.880413,811.280403,19.133976,28,-1.000000,""
165,w0,python3action_modeltraining_reviews50mb,0.000000,1,-1.000000,1,COMPLETED_SUCCESSFULLY,812.277503,0.000010,812.277513,812.277503,812.277513,81227751.323907,28,-1.000000,""
134_updated,w0,python3action_facedetection_SampleVideo_50mb_taurus,0.997085,1,2000.000000,1,COMPLETED_SUCCESSFULLY,686.856000,134.600046,821.456046,685.858915,820.458961,6.095533,13,-1.000000,""
134,w0,python3action_facedetection_SampleVideo_50mb,0.000000,1,-1.000000,1,COMPLETED_SUCCESSFULLY,821.456061,0.000010,821.456071,821.456061,821.456071,82145607.113881,13,-1.000000,""
156_updated,w0,python3action_pyaes_3000_nova,0.997085,1,2000.000000,1,COMPLETED_SUCCESSFULLY,751.877228,78.200020,830.077248,750.880143,829.080163,10.602045,5,-1.000000,""
156,w0,python3action_pyaes_3000,0.000000,1,-1.000000,1,COMPLETED_SUCCESSFULLY,830.077263,0.000010,830.077273,830.077263,830.077273,83007727.300201,5,-1.000000,""
168_updated,w0,python3action_imageprocessing_SampleImage_40mb_taurus,0.997085,1,2000.000000,1,COMPLETED_SUCCESSFULLY,804.806123,32.600046,837.406169,803.809038,836.409084,25.656684,10,-1.000000,""
168,w0,python3action_imageprocessing_SampleImage_40mb,0.000000,1,-1.000000,1,COMPLETED_SUCCESSFULLY,837.406184,0.000010,837.406194,837.406184,837.406194,83740619.416338,10,-1.000000,""
154_updated,w0,python3action_modeltraining_reviews50mb_nova,0.997085,1,2000.000000,1,COMPLETED_SUCCESSFULLY,795.477173,42.399990,837.877163,794.480088,836.880078,19.737742,3,-1.000000,""
154,w0,python3action_modeltraining_reviews50mb,0.000000,1,-1.000000,1,COMPLETED_SUCCESSFULLY,837.877178,0.000010,837.877188,837.877178,837.877188,83787718.823907,3,-1.000000,""
114_updated,w0,python3action_pyaes_4000_nova,0.997085,1,2000.000000,1,COMPLETED_SUCCESSFULLY,702.037122,139.600010,841.637132,701.040037,840.640047,6.021776,4,-1.000000,""
114,w0,python3action_pyaes_4000,0.000000,1,-1.000000,1,COMPLETED_SUCCESSFULLY,841.637147,0.000010,841.637157,841.637147,841.637157,84163715.700201,4,-1.000000,""
python3action_floatoperation_job136_3,w0,python3action_floatoperation,0.997085,1,2000.000000,1,COMPLETED_SUCCESSFULLY,841.637177,2.439945,844.077122,840.640092,843.080037,345.532352,4,-1.000000,""
175_updated,w0,python3action_videoprocessing_SampleVideo_50mb_taurus,0.997085,1,2000.000000,1,COMPLETED_SUCCESSFULLY,695.106208,154.250029,849.356237,694.109123,848.359152,5.499896,15,-1.000000,""
175,w0,python3action_videoprocessing_SampleVideo_50mb,0.000000,1,-1.000000,1,COMPLETED_SUCCESSFULLY,849.356252,0.000010,849.356262,849.356252,849.356262,84935626.220688,15,-1.000000,""
150_updated,w0,python3action_imageprocessing_SampleImage_40mb_taurus,0.997085,1,2000.000000,1,COMPLETED_SUCCESSFULLY,821.456091,32.600046,854.056137,820.459006,853.059052,26.167419,13,-1.000000,""
150,w0,python3action_imageprocessing_SampleImage_40mb,0.000000,1,-1.000000,1,COMPLETED_SUCCESSFULLY,854.056152,0.000010,854.056162,854.056152,854.056162,85405616.227561,13,-1.000000,""
191_updated,w0,python3action_chameleon_3000_troll,0.997085,1,2000.000000,1,COMPLETED_SUCCESSFULLY,764.269539,94.000000,858.269539,763.272454,857.272454,9.119920,19,-1.000000,""
191,w0,python3action_chameleon_3000,0.000000,1,-1.000000,1,COMPLETED_SUCCESSFULLY,858.269554,0.000010,858.269564,858.269554,858.269564,85826956.404016,19,-1.000000,""
195_updated,w0,python3action_imageprocessing_SampleImage_60mb_troll,0.997085,1,2000.000000,1,COMPLETED_SUCCESSFULLY,796.269554,62.000000,858.269554,795.272469,857.272469,13.826975,20,-1.000000,""
195,w0,python3action_imageprocessing_SampleImage_60mb,0.000000,1,-1.000000,1,COMPLETED_SUCCESSFULLY,858.269599,0.000010,858.269609,858.269599,858.269609,85826960.904619,20,-1.000000,""
170_updated,w0,python3action_chameleon_2000_taurus,0.997085,1,2000.000000,1,COMPLETED_SUCCESSFULLY,797.605931,64.199977,861.805908,796.608846,860.808823,13.408242,11,-1.000000,""
170,w0,python3action_chameleon_2000,0.000000,1,-1.000000,1,COMPLETED_SUCCESSFULLY,861.805923,0.000010,861.805933,861.805923,861.805933,86180593.300201,11,-1.000000,""
173_updated,w0,python3action_chameleon_2000_taurus,0.997085,1,2000.000000,1,COMPLETED_SUCCESSFULLY,801.306271,64.199977,865.506248,800.309186,864.509163,13.465880,14,-1.000000,""
173,w0,python3action_chameleon_2000,0.000000,1,-1.000000,1,COMPLETED_SUCCESSFULLY,865.506263,0.000010,865.506273,865.506263,865.506273,86550627.300201,14,-1.000000,""
152_updated,w0,python3action_pyaes_3000_nova,0.997085,1,2000.000000,1,COMPLETED_SUCCESSFULLY,792.502379,78.200020,870.702399,791.505294,869.705314,11.121549,2,-1.000000,""
152,w0,python3action_pyaes_3000,0.000000,1,-1.000000,1,COMPLETED_SUCCESSFULLY,870.702414,0.000010,870.702424,870.702414,870.702424,87070242.400201,2,-1.000000,""
159_updated,w0,python3action_facedetection_SampleVideo_30mb_nova,0.997085,1,2000.000000,1,COMPLETED_SUCCESSFULLY,711.702639,160.399990,872.102630,710.705554,871.105545,5.430833,25,-1.000000,""
159,w0,python3action_facedetection_SampleVideo_30mb,0.000000,1,-1.000000,1,COMPLETED_SUCCESSFULLY,872.102645,0.000010,872.102655,872.102645,872.102655,87210265.500201,25,-1.000000,""
176_updated,w0,python3action_videoprocessing_SampleVideo_50mb_taurus,0.997085,1,2000.000000,1,COMPLETED_SUCCESSFULLY,725.206097,154.250029,879.456126,724.209012,878.459041,5.695033,16,-1.000000,""
176,w0,python3action_videoprocessing_SampleVideo_50mb,0.000000,1,-1.000000,1,COMPLETED_SUCCESSFULLY,879.456141,0.000010,879.456151,879.456141,879.456151,87945615.100201,16,-1.000000,""
183_updated,w0,python3action_modeltraining_reviews100mb_nova,0.997085,1,2000.000000,1,COMPLETED_SUCCESSFULLY,802.942265,79.600010,882.542275,801.945180,881.545190,11.074687,6,-1.000000,""
183,w0,python3action_modeltraining_reviews100mb,0.000000,1,-1.000000,1,COMPLETED_SUCCESSFULLY,882.542290,0.000010,882.542300,882.542290,882.542300,88254230.000201,6,-1.000000,""
172_updated,w0,python3action_imageprocessing_SampleImage_40mb_taurus,0.997085,1,2000.000000,1,COMPLETED_SUCCESSFULLY,854.056182,32.600046,886.656228,853.059097,885.659143,27.167420,13,-1.000000,""
172,w0,python3action_imageprocessing_SampleImage_40mb,0.000000,1,-1.000000,1,COMPLETED_SUCCESSFULLY,886.656243,0.000010,886.656253,886.656243,886.656253,88665625.341242,13,-1.000000,""
188_updated,w0,python3action_imageprocessing_SampleImage_40mb_taurus,0.997085,1,2000.000000,1,COMPLETED_SUCCESSFULLY,865.506293,32.600046,898.106339,864.509208,897.109254,27.518650,14,-1.000000,""
188,w0,python3action_imageprocessing_SampleImage_40mb,0.000000,1,-1.000000,1,COMPLETED_SUCCESSFULLY,898.106354,0.000010,898.106364,898.106354,898.106364,89810636.413881,14,-1.000000,""
161_updated,w0,python3action_pyaes_4000_nova,0.997085,1,2000.000000,1,COMPLETED_SUCCESSFULLY,759.243463,139.600010,898.843473,758.246378,897.846388,6.431564,26,-1.000000,""
161,w0,python3action_pyaes_4000,0.000000,1,-1.000000,1,COMPLETED_SUCCESSFULLY,898.843488,0.000010,898.843498,898.843488,898.843498,89884349.800201,26,-1.000000,""
181_updated,w0,python3action_chameleon_2000_taurus,0.997085,1,2000.000000,1,COMPLETED_SUCCESSFULLY,837.406214,64.199977,901.606191,836.409129,900.609106,14.028184,10,-1.000000,""
181,w0,python3action_chameleon_2000,0.000000,1,-1.000000,1,COMPLETED_SUCCESSFULLY,901.606206,0.000010,901.606216,901.606206,901.606216,90160621.610401,10,-1.000000,""
136_updated,w0,python3action_floatoperation_100000000_nova,0.997085,1,2000.000000,1,COMPLETED_SUCCESSFULLY,844.077137,66.200020,910.277157,843.080052,909.280072,13.735344,4,-1.000000,""
136,w0,python3action_floatoperation_100000000,0.000000,1,-1.000000,1,COMPLETED_SUCCESSFULLY,910.277172,0.000010,910.277182,910.277172,910.277182,91027718.200201,4,-1.000000,""
python3action_linpack_job155_3,w0,python3action_linpack_reduced_0.85,0.997085,1,2000.000000,1,COMPLETED_SUCCESSFULLY,910.277202,0.365992,910.643194,909.280117,909.646109,2485.427607,4,-1.000000,""
197_updated,w0,python3action_videoprocessing_SampleVideo_30mb_nova,0.997085,1,2000.000000,1,COMPLETED_SUCCESSFULLY,812.277533,106.799980,919.077514,811.280448,918.080429,8.596260,28,-1.000000,""
197,w0,python3action_videoprocessing_SampleVideo_30mb,0.000000,1,-1.000000,1,COMPLETED_SUCCESSFULLY,919.077529,0.000010,919.077539,919.077529,919.077539,91907753.900201,28,-1.000000,""
182_updated,w0,python3action_chameleon_2000_taurus,0.997085,1,2000.000000,1,COMPLETED_SUCCESSFULLY,861.805953,64.199977,926.005930,860.808868,925.008845,14.408243,11,-1.000000,""
182,w0,python3action_chameleon_2000,0.000000,1,-1.000000,1,COMPLETED_SUCCESSFULLY,926.005945,0.000010,926.005955,926.005945,926.005955,92600595.500201,11,-1.000000,""
185_updated,w0,python3action_floatoperation_200000000_nova,0.997085,1,2000.000000,1,COMPLETED_SUCCESSFULLY,797.502533,135.399990,932.902524,796.505448,931.905439,6.882611,7,-1.000000,""
185,w0,python3action_floatoperation_200000000,0.000000,1,-1.000000,1,COMPLETED_SUCCESSFULLY,932.902539,0.000010,932.902549,932.902539,932.902549,93290254.900201,7,-1.000000,""
169_updated,w0,python3action_floatoperation_100000000_nova,0.997085,1,2000.000000,1,COMPLETED_SUCCESSFULLY,870.702444,66.200020,936.902464,869.705359,935.905379,14.137539,2,-1.000000,""
169,w0,python3action_floatoperation_100000000,0.000000,1,-1.000000,1,COMPLETED_SUCCESSFULLY,936.902479,0.000010,936.902489,936.902479,936.902489,93690248.900201,2,-1.000000,""
155_updated,w0,python3action_linpack_5000_nova,0.997085,1,2000.000000,1,COMPLETED_SUCCESSFULLY,910.643209,34.600010,945.243219,909.646124,944.246134,27.290343,4,-1.000000,""
155,w0,python3action_linpack_5000,0.000000,1,-1.000000,1,COMPLETED_SUCCESSFULLY,945.243234,0.000010,945.243244,945.243234,945.243244,94524324.400201,4,-1.000000,""
189_updated,w0,python3action_pyaes_3000_nova,0.997085,1,2000.000000,1,COMPLETED_SUCCESSFULLY,872.102675,78.200020,950.302695,871.105590,949.305610,12.139455,25,-1.000000,""
189,w0,python3action_pyaes_3000,0.000000,1,-1.000000,1,COMPLETED_SUCCESSFULLY,950.302710,0.000010,950.302720,950.302710,950.302720,95030272.000201,25,-1.000000,""
184_updated,w0,python3action_chameleon_2000_taurus,0.997085,1,2000.000000,1,COMPLETED_SUCCESSFULLY,886.656273,64.199977,950.856250,885.659188,949.859165,14.795319,13,-1.000000,""
184,w0,python3action_chameleon_2000,0.000000,1,-1.000000,1,COMPLETED_SUCCESSFULLY,950.856265,0.000010,950.856275,950.856265,950.856275,95085627.535305,13,-1.000000,""
196_updated,w0,python3action_chameleon_3000_troll,0.997085,1,2000.000000,1,COMPLETED_SUCCESSFULLY,858.269584,94.000000,952.269584,857.272499,951.272499,10.119920,19,-1.000000,""
196,w0,python3action_chameleon_3000,0.000000,1,-1.000000,1,COMPLETED_SUCCESSFULLY,952.269599,0.000010,952.269609,952.269599,952.269609,95226960.904619,19,-1.000000,""
180_updated,w0,python3action_floatoperation_200000000_nova,0.997085,1,2000.000000,1,COMPLETED_SUCCESSFULLY,830.077293,135.399990,965.477283,829.080208,964.480198,7.123193,5,-1.000000,""
180,w0,python3action_floatoperation_200000000,0.000000,1,-1.000000,1,COMPLETED_SUCCESSFULLY,965.477298,0.000010,965.477308,965.477298,965.477308,96547730.823907,5,-1.000000,""
177_updated,w0,python3action_pyaes_4000_nova,0.997085,1,2000.000000,1,COMPLETED_SUCCESSFULLY,837.877208,139.600010,977.477218,836.880123,976.480133,6.994843,3,-1.000000,""
177,w0,python3action_pyaes_4000,0.000000,1,-1.000000,1,COMPLETED_SUCCESSFULLY,977.477233,0.000010,977.477243,977.477233,977.477243,97747724.301405,3,-1.000000,""
192_updated,w0,python3action_imageprocessing_SampleImage_60mb_taurus,0.997085,1,2000.000000,1,COMPLETED_SUCCESSFULLY,879.456171,101.500058,980.956229,878.459086,979.959144,9.654764,16,-1.000000,""
192,w0,python3action_imageprocessing_SampleImage_60mb,0.000000,1,-1.000000,1,COMPLETED_SUCCESSFULLY,980.956244,0.000010,980.956254,980.956244,980.956254,98095625.400201,16,-1.000000,""
190_updated,w0,python3action_videoprocessing_SampleVideo_50mb_taurus,0.997085,1,2000.000000,1,COMPLETED_SUCCESSFULLY,849.356282,154.250029,1003.606311,848.359197,1002.609226,6.499897,15,-1.000000,""
190,w0,python3action_videoprocessing_SampleVideo_50mb,0.000000,1,-1.000000,1,COMPLETED_SUCCESSFULLY,1003.606326,0.000010,1003.606336,1003.606326,1003.606336,100360633.604464,15,-1.000000,""
199_updated,w0,python3action_pyaes_3000_nova,0.997085,1,2000.000000,1,COMPLETED_SUCCESSFULLY,936.902509,78.200020,1015.102529,935.905424,1014.105444,12.968097,2,-1.000000,""
199,w0,python3action_pyaes_3000,0.000000,1,-1.000000,1,COMPLETED_SUCCESSFULLY,1015.102544,0.000010,1015.102554,1015.102544,1015.102554,101510255.400201,2,-1.000000,""
193_updated,w0,python3action_videoprocessing_SampleVideo_50mb_nova,0.997085,1,2000.000000,1,COMPLETED_SUCCESSFULLY,898.843518,139.600010,1038.443528,897.846433,1037.446443,7.431564,26,-1.000000,""
193,w0,python3action_videoprocessing_SampleVideo_50mb,0.000000,1,-1.000000,1,COMPLETED_SUCCESSFULLY,1038.443543,0.000010,1038.443553,1038.443543,1038.443553,103844355.300201,26,-1.000000,""
179_updated,w0,python3action_pyaes_4000_nova,0.997085,1,2000.000000,1,COMPLETED_SUCCESSFULLY,945.243264,139.600010,1084.843274,944.246179,1083.846189,7.763941,4,-1.000000,""
179,w0,python3action_pyaes_4000,0.000000,1,-1.000000,1,COMPLETED_SUCCESSFULLY,1084.843289,0.000010,1084.843299,1084.843289,1084.843299,108484329.900201,4,-1.000000,""
