job_id,workload_name,profile,submission_time,requested_number_of_resources,requested_time,success,final_state,starting_time,execution_time,finish_time,waiting_time,turnaround_time,stretch,allocated_resources,consumed_energy,metadata
python3action_chameleon_job20_14,w0,python3action_chameleon,0.997085,1,2000.000000,1,COMPLETED_SUCCESSFULLY,1.002310,0.867914,1.870224,0.005225,0.873139,1.006020,19,-1.000000,""
python3action_pyaes_job7_3,w0,python3action_pyaes,0.997085,1,2000.000000,1,COMPLETED_SUCCESSFULLY,1.002145,2.134958,3.137103,0.005060,2.140018,1.002370,5,-1.000000,""
python3action_pyaes_job10_4,w0,python3action_pyaes,0.997085,1,2000.000000,1,COMPLETED_SUCCESSFULLY,1.002160,2.134958,3.137118,0.005075,2.140033,1.002377,6,-1.000000,""
python3action_pyaes_job15_17,w0,python3action_pyaes,0.997085,1,2000.000000,1,COMPLETED_SUCCESSFULLY,1.002355,2.134958,3.137313,0.005270,2.140228,1.002468,26,-1.000000,""
python3action_linpack_job11_5,w0,python3action_linpack,0.997085,1,2000.000000,1,COMPLETED_SUCCESSFULLY,1.002175,2.439945,3.442120,0.005090,2.445035,1.002086,7,-1.000000,""
python3action_linpack_job13_16,w0,python3action_linpack,0.997085,1,2000.000000,1,COMPLETED_SUCCESSFULLY,1.002340,2.439945,3.442285,0.005255,2.445200,1.002154,25,-1.000000,""
python3action_floatoperation_job17_18,w0,python3action_floatoperation,0.997085,1,2000.000000,1,COMPLETED_SUCCESSFULLY,1.002370,2.439945,3.442315,0.005285,2.445230,1.002166,27,-1.000000,""
python3action_floatoperation_job19_20,w0,python3action_floatoperation,0.997085,1,2000.000000,1,COMPLETED_SUCCESSFULLY,1.002400,2.439945,3.442345,0.005315,2.445260,1.002178,29,-1.000000,""
python3action_linpack_job4_6,w0,python3action_linpack,0.997085,1,2000.000000,1,COMPLETED_SUCCESSFULLY,1.002190,5.760927,6.763117,0.005105,5.766032,1.000886,8,-1.000000,""
python3action_linpack_job8_7,w0,python3action_linpack,0.997085,1,2000.000000,1,COMPLETED_SUCCESSFULLY,1.002205,5.760927,6.763132,0.005120,5.766047,1.000889,9,-1.000000,""
python3action_image_processing_job30_15,w0,python3action_image_processing,0.997085,1,2000.000000,1,COMPLETED_SUCCESSFULLY,1.002325,12.398880,13.401205,0.005240,12.404120,1.000423,20,-1.000000,""
python3action_facedetection_job0_0,w0,python3action_facedetection,0.997085,1,2000.000000,1,COMPLETED_SUCCESSFULLY,1.002100,30.499683,31.501783,0.005015,30.504698,1.000164,2,-1.000000,""
python3action_modeltraining_job1_1,w0,python3action_modeltraining,0.997085,1,2000.000000,1,COMPLETED_SUCCESSFULLY,1.002115,30.499683,31.501798,0.005030,30.504713,1.000165,3,-1.000000,""
python3action_facedetection_job3_2,w0,python3action_facedetection,0.997085,1,2000.000000,1,COMPLETED_SUCCESSFULLY,1.002130,30.499683,31.501813,0.005045,30.504728,1.000165,4,-1.000000,""
python3action_facedetection_job18_19,w0,python3action_facedetection,0.997085,1,2000.000000,1,COMPLETED_SUCCESSFULLY,1.002385,30.499683,31.502068,0.005300,30.504983,1.000174,28,-1.000000,""
11_updated,w0,python3action_linpack_5000_nova,0.997085,1,2000.000000,1,COMPLETED_SUCCESSFULLY,3.442135,34.600010,38.042145,2.445050,37.045060,1.070666,7,-1.000000,""
11,w0,python3action_linpack_5000,0.000000,1,-1.000000,1,COMPLETED_SUCCESSFULLY,38.042160,0.000010,38.042170,38.042160,38.042170,3804217.007883,7,-1.000000,""
13_updated,w0,python3action_linpack_5000_nova,0.997085,1,2000.000000,1,COMPLETED_SUCCESSFULLY,3.442300,34.600010,38.042310,2.445215,37.045225,1.070671,25,-1.000000,""
13,w0,python3action_linpack_5000,0.000000,1,-1.000000,1,COMPLETED_SUCCESSFULLY,38.042325,0.000010,38.042335,38.042325,38.042335,3804233.510092,25,-1.000000,""
python3action_floatoperation_job27_6,w0,python3action_floatoperation,0.997085,1,2000.000000,1,COMPLETED_SUCCESSFULLY,38.042190,2.439945,40.482135,37.045105,39.485050,16.182761,7,-1.000000,""
python3action_facedetection_job29_17,w0,python3action_facedetection,0.997085,1,2000.000000,1,COMPLETED_SUCCESSFULLY,38.042355,30.499683,68.542038,37.045270,67.544953,2.214612,25,-1.000000,""
python3action_video_processing_job2_8,w0,python3action_video_processing,0.997085,1,2000.000000,1,COMPLETED_SUCCESSFULLY,1.002220,72.012455,73.014675,0.005135,72.017590,1.000071,10,-1.000000,""
python3action_facedetection_job5_9,w0,python3action_facedetection,0.997085,1,2000.000000,1,COMPLETED_SUCCESSFULLY,1.002235,72.012455,73.014690,0.005150,72.017605,1.000072,11,-1.000000,""
python3action_image_processing_job6_10,w0,python3action_image_processing,0.997085,1,2000.000000,1,COMPLETED_SUCCESSFULLY,1.002250,72.012455,73.014705,0.005165,72.017620,1.000072,13,-1.000000,""
python3action_video_processing_job9_11,w0,python3action_video_processing,0.997085,1,2000.000000,1,COMPLETED_SUCCESSFULLY,1.002265,72.012455,73.014720,0.005180,72.017635,1.000072,14,-1.000000,""
python3action_facedetection_job12_12,w0,python3action_facedetection,0.997085,1,2000.000000,1,COMPLETED_SUCCESSFULLY,1.002280,72.012455,73.014735,0.005195,72.017650,1.000072,15,-1.000000,""
python3action_facedetection_job14_13,w0,python3action_facedetection,0.997085,1,2000.000000,1,COMPLETED_SUCCESSFULLY,1.002295,72.012455,73.014750,0.005210,72.017665,1.000072,16,-1.000000,""
1_updated,w0,python3action_modeltraining_reviews50mb_nova,0.997085,1,2000.000000,1,COMPLETED_SUCCESSFULLY,31.501828,42.399990,73.901818,30.504743,72.904733,1.719452,3,-1.000000,""
1,w0,python3action_modeltraining_reviews50mb,0.000000,1,-1.000000,1,COMPLETED_SUCCESSFULLY,73.901833,0.000010,73.901843,73.901833,73.901843,7390184.323505,3,-1.000000,""
30_updated,w0,python3action_imageprocessing_SampleImage_60mb_troll,0.997085,1,2000.000000,1,COMPLETED_SUCCESSFULLY,13.401220,62.000000,75.401220,12.404135,74.404135,1.200067,20,-1.000000,""
30,w0,python3action_imageprocessing_SampleImage_60mb,0.000000,1,-1.000000,1,COMPLETED_SUCCESSFULLY,75.401235,0.000010,75.401245,75.401235,75.401245,7540124.512193,20,-1.000000,""
python3action_chameleon_job43_16,w0,python3action_chameleon,0.997085,1,2000.000000,1,COMPLETED_SUCCESSFULLY,75.401265,0.867914,76.269179,74.404180,75.272094,86.727629,20,-1.000000,""
15_updated,w0,python3action_pyaes_3000_nova,0.997085,1,2000.000000,1,COMPLETED_SUCCESSFULLY,3.137328,78.200020,81.337348,2.140243,80.340263,1.027369,26,-1.000000,""
15,w0,python3action_pyaes_3000,0.000000,1,-1.000000,1,COMPLETED_SUCCESSFULLY,81.337363,0.000010,81.337373,81.337363,81.337373,8133737.300201,26,-1.000000,""
python3action_linpack_job32_18,w0,python3action_linpack_reduced_0.85,0.997085,1,2000.000000,1,COMPLETED_SUCCESSFULLY,81.337393,0.365992,81.703385,80.340308,80.706300,220.513960,26,-1.000000,""
20_updated,w0,python3action_chameleon_3000_troll,0.997085,1,2000.000000,1,COMPLETED_SUCCESSFULLY,1.870239,94.000000,95.870239,0.873154,94.873154,1.009289,19,-1.000000,""
20,w0,python3action_chameleon_3000,0.000000,1,-1.000000,1,COMPLETED_SUCCESSFULLY,95.870254,0.000010,95.870264,95.870254,95.870264,9587026.400402,19,-1.000000,""
6_updated,w0,python3action_imageprocessing_SampleImage_40mb_taurus,0.997085,1,2000.000000,1,COMPLETED_SUCCESSFULLY,73.014735,32.600046,105.614781,72.017650,104.617696,3.209127,13,-1.000000,""
6,w0,python3action_imageprocessing_SampleImage_40mb,0.000000,1,-1.000000,1,COMPLETED_SUCCESSFULLY,105.614796,0.000010,105.614806,105.614796,105.614806,10561480.646970,13,-1.000000,""
27_updated,w0,python3action_floatoperation_100000000_nova,0.997085,1,2000.000000,1,COMPLETED_SUCCESSFULLY,40.482150,66.200020,106.682170,39.485065,105.685085,1.596451,7,-1.000000,""
27,w0,python3action_floatoperation_100000000,0.000000,1,-1.000000,1,COMPLETED_SUCCESSFULLY,106.682185,0.000010,106.682195,106.682185,106.682195,10668219.500201,7,-1.000000,""
python3action_image_processing_job42_15,w0,python3action_image_processing,0.997085,1,2000.000000,1,COMPLETED_SUCCESSFULLY,95.870284,12.398880,108.269164,94.873199,107.272079,8.651756,19,-1.000000,""
4_updated,w0,python3action_linpack_6000_orion,0.997085,1,2000.000000,1,COMPLETED_SUCCESSFULLY,6.763132,106.000000,112.763132,5.766047,111.766047,1.054397,8,-1.000000,""
4,w0,python3action_linpack_6000,0.000000,1,-1.000000,1,COMPLETED_SUCCESSFULLY,112.763147,0.000010,112.763157,112.763147,112.763157,11276315.724677,8,-1.000000,""
8_updated,w0,python3action_linpack_6000_orion,0.997085,1,2000.000000,1,COMPLETED_SUCCESSFULLY,6.763162,106.000000,112.763162,5.766077,111.766077,1.054397,9,-1.000000,""
8,w0,python3action_linpack_6000,0.000000,1,-1.000000,1,COMPLETED_SUCCESSFULLY,112.763192,0.000010,112.763202,112.763192,112.763202,11276320.225279,9,-1.000000,""
23_updated,w0,python3action_modeltraining_reviews50mb_nova,0.997085,1,2000.000000,1,COMPLETED_SUCCESSFULLY,73.901863,42.399990,116.301853,72.904778,115.304768,2.719453,3,-1.000000,""
23,w0,python3action_modeltraining_reviews50mb,0.000000,1,-1.000000,1,COMPLETED_SUCCESSFULLY,116.301868,0.000010,116.301878,116.301868,116.301878,11630187.847211,3,-1.000000,""
32_updated,w0,python3action_linpack_5000_nova,0.997085,1,2000.000000,1,COMPLETED_SUCCESSFULLY,81.703400,34.600010,116.303410,80.706315,115.306325,3.332552,26,-1.000000,""
32,w0,python3action_linpack_5000,0.000000,1,-1.000000,1,COMPLETED_SUCCESSFULLY,116.303425,0.000010,116.303435,116.303425,116.303435,11630343.500201,26,-1.000000,""
python3action_floatoperation_job45_2,w0,python3action_floatoperation,0.997085,1,2000.000000,1,COMPLETED_SUCCESSFULLY,116.301898,2.439945,118.741844,115.304813,117.744759,48.257131,3,-1.000000,""
36_updated,w0,python3action_imageprocessing_SampleImage_40mb_taurus,0.997085,1,2000.000000,1,COMPLETED_SUCCESSFULLY,105.614826,32.600046,138.214873,104.617741,137.217788,4.209129,13,-1.000000,""
36,w0,python3action_imageprocessing_SampleImage_40mb,0.000000,1,-1.000000,1,COMPLETED_SUCCESSFULLY,138.214888,0.000010,138.214898,138.214888,138.214898,13821489.800201,13,-1.000000,""
python3action_facedetection_job50_11,w0,python3action_facedetection_reduced_0.91,0.997085,1,2000.000000,1,COMPLETED_SUCCESSFULLY,138.214918,0.000000,138.214918,137.217833,137.217833,1189729742166.392578,13,-1.000000,""
17_updated,w0,python3action_floatoperation_200000000_nova,0.997085,1,2000.000000,1,COMPLETED_SUCCESSFULLY,3.442330,135.399990,138.842321,2.445245,137.845236,1.018059,27,-1.000000,""
17,w0,python3action_floatoperation_200000000,0.000000,1,-1.000000,1,COMPLETED_SUCCESSFULLY,138.842336,0.000010,138.842346,138.842336,138.842346,13884234.600201,27,-1.000000,""
19_updated,w0,python3action_floatoperation_200000000_nova,0.997085,1,2000.000000,1,COMPLETED_SUCCESSFULLY,3.442360,135.399990,138.842351,2.445275,137.845266,1.018060,29,-1.000000,""
19,w0,python3action_floatoperation_200000000,0.000000,1,-1.000000,1,COMPLETED_SUCCESSFULLY,138.842381,0.000010,138.842391,138.842381,138.842391,13884239.100402,29,-1.000000,""
7_updated,w0,python3action_pyaes_4000_nova,0.997085,1,2000.000000,1,COMPLETED_SUCCESSFULLY,3.137118,139.600010,142.737128,2.140033,141.740043,1.015330,5,-1.000000,""
7,w0,python3action_pyaes_4000,0.000000,1,-1.000000,1,COMPLETED_SUCCESSFULLY,142.737143,0.000010,142.737153,142.737143,142.737153,14273715.301869,5,-1.000000,""
10_updated,w0,python3action_pyaes_4000_nova,0.997085,1,2000.000000,1,COMPLETED_SUCCESSFULLY,3.137148,139.600010,142.737158,2.140063,141.740073,1.015330,6,-1.000000,""
10,w0,python3action_pyaes_4000,0.000000,1,-1.000000,1,COMPLETED_SUCCESSFULLY,142.737188,0.000010,142.737198,142.737188,142.737198,14273719.802472,6,-1.000000,""
python3action_modeltraining_job33_19,w0,python3action_modeltraining,0.997085,1,2000.000000,1,COMPLETED_SUCCESSFULLY,138.842366,30.499683,169.342049,137.845281,168.344964,5.519564,27,-1.000000,""
python3action_facedetection_job39_21,w0,python3action_facedetection,0.997085,1,2000.000000,1,COMPLETED_SUCCESSFULLY,138.842411,30.499683,169.342094,137.845326,168.345009,5.519566,29,-1.000000,""
42_updated,w0,python3action_imageprocessing_SampleImage_60mb_troll,0.997085,1,2000.000000,1,COMPLETED_SUCCESSFULLY,108.269179,62.000000,170.269179,107.272094,169.272094,2.730195,19,-1.000000,""
43_updated,w0,python3action_chameleon_3000_troll,0.997085,1,2000.000000,1,COMPLETED_SUCCESSFULLY,76.269194,94.000000,170.269194,75.272109,169.272109,1.800767,20,-1.000000,""
42,w0,python3action_imageprocessing_SampleImage_60mb,0.000000,1,-1.000000,1,COMPLETED_SUCCESSFULLY,170.269194,0.000010,170.269204,170.269194,170.269204,17026920.400402,19,-1.000000,""
43,w0,python3action_chameleon_3000,0.000000,1,-1.000000,1,COMPLETED_SUCCESSFULLY,170.269224,0.000010,170.269234,170.269224,170.269234,17026923.400803,20,-1.000000,""
0_updated,w0,python3action_facedetection_SampleVideo_30mb_nova,0.997085,1,2000.000000,1,COMPLETED_SUCCESSFULLY,31.501798,160.399990,191.901788,30.504713,190.904703,1.190179,2,-1.000000,""
0,w0,python3action_facedetection_SampleVideo_30mb,0.000000,1,-1.000000,1,COMPLETED_SUCCESSFULLY,191.901803,0.000010,191.901813,191.901803,191.901813,19190181.300201,2,-1.000000,""
python3action_modeltraining_job21_1,w0,python3action_modeltraining_reduced_0.94,0.997085,1,2000.000000,1,COMPLETED_SUCCESSFULLY,191.901833,0.000000,191.901833,190.904748,190.904748,3907425065369.620605,2,-1.000000,""
3_updated,w0,python3action_facedetection_SampleVideo_30mb_nova,0.997085,1,2000.000000,1,COMPLETED_SUCCESSFULLY,31.501843,160.399990,191.901833,30.504758,190.904748,1.190179,4,-1.000000,""
3,w0,python3action_facedetection_SampleVideo_30mb,0.000000,1,-1.000000,1,COMPLETED_SUCCESSFULLY,191.901878,0.000010,191.901888,191.901878,191.901888,19190188.801205,4,-1.000000,""
18_updated,w0,python3action_facedetection_SampleVideo_30mb_nova,0.997085,1,2000.000000,1,COMPLETED_SUCCESSFULLY,31.502083,160.399990,191.902073,30.504998,190.904988,1.190181,28,-1.000000,""
18,w0,python3action_facedetection_SampleVideo_30mb,0.000000,1,-1.000000,1,COMPLETED_SUCCESSFULLY,191.902088,0.000010,191.902098,191.902088,191.902098,19190209.823505,28,-1.000000,""
python3action_pyaes_job35_20,w0,python3action_pyaes,0.997085,1,2000.000000,1,COMPLETED_SUCCESSFULLY,191.902118,2.134958,194.037076,190.905033,193.039991,90.418626,28,-1.000000,""
python3action_floatoperation_job24_3,w0,python3action_floatoperation,0.997085,1,2000.000000,1,COMPLETED_SUCCESSFULLY,191.901908,2.439945,194.341853,190.904823,193.344768,79.241436,4,-1.000000,""
59_updated,w0,python3action_pyaes_3000_nova,0.997085,1,2000.000000,1,COMPLETED_SUCCESSFULLY,116.303455,78.200020,194.503475,115.306370,193.506390,2.474506,26,-1.000000,""
59,w0,python3action_pyaes_3000,0.000000,1,-1.000000,1,COMPLETED_SUCCESSFULLY,194.503490,0.000010,194.503500,194.503490,194.503500,19450350.000201,26,-1.000000,""
5_updated,w0,python3action_facedetection_SampleVideo_50mb_taurus,0.997085,1,2000.000000,1,COMPLETED_SUCCESSFULLY,73.014720,134.600046,207.614766,72.017635,206.617681,1.535049,11,-1.000000,""
5,w0,python3action_facedetection_SampleVideo_50mb,0.000000,1,-1.000000,1,COMPLETED_SUCCESSFULLY,207.614781,0.000010,207.614791,207.614781,207.614791,20761479.146769,11,-1.000000,""
python3action_image_processing_job31_10,w0,python3action_image_processing_reduced_0.86,0.997085,1,2000.000000,1,COMPLETED_SUCCESSFULLY,207.614811,0.000000,207.614811,206.617726,206.617726,1791452678248.669189,11,-1.000000,""
12_updated,w0,python3action_facedetection_SampleVideo_50mb_taurus,0.997085,1,2000.000000,1,COMPLETED_SUCCESSFULLY,73.014780,134.600046,207.614826,72.017695,206.617741,1.535050,15,-1.000000,""
14_updated,w0,python3action_facedetection_SampleVideo_50mb_taurus,0.997085,1,2000.000000,1,COMPLETED_SUCCESSFULLY,73.014795,134.600046,207.614841,72.017710,206.617756,1.535050,16,-1.000000,""
12,w0,python3action_facedetection_SampleVideo_50mb,0.000000,1,-1.000000,1,COMPLETED_SUCCESSFULLY,207.614856,0.000010,207.614866,207.614856,207.614866,20761486.647773,15,-1.000000,""
14,w0,python3action_facedetection_SampleVideo_50mb,0.000000,1,-1.000000,1,COMPLETED_SUCCESSFULLY,207.614886,0.000010,207.614896,207.614886,207.614896,20761489.648175,16,-1.000000,""
python3action_modeltraining_job38_13,w0,python3action_modeltraining_reduced_0.94,0.997085,1,2000.000000,1,COMPLETED_SUCCESSFULLY,207.614901,0.000000,207.614901,206.617816,206.617816,1791453458686.666504,15,-1.000000,""
python3action_video_processing_job41_14,w0,python3action_video_processing_reduced_0.91,0.997085,1,2000.000000,1,COMPLETED_SUCCESSFULLY,207.614931,0.000000,207.614931,206.617846,206.617846,19917038879504.835938,16,-1.000000,""
33_updated,w0,python3action_modeltraining_reviews50mb_nova,0.997085,1,2000.000000,1,COMPLETED_SUCCESSFULLY,169.342064,42.399990,211.742054,168.344979,210.744969,4.970401,27,-1.000000,""
33,w0,python3action_modeltraining_reviews50mb,0.000000,1,-1.000000,1,COMPLETED_SUCCESSFULLY,211.742069,0.000010,211.742079,211.742069,211.742079,21174207.923505,27,-1.000000,""
python3action_pyaes_job60_19,w0,python3action_pyaes,0.997085,1,2000.000000,1,COMPLETED_SUCCESSFULLY,211.742099,2.134958,213.877057,210.745014,212.879972,99.711539,27,-1.000000,""
16_updated,w0,python3action_linpack_6000_orion,0.997085,1,2000.000000,1,COMPLETED_SUCCESSFULLY,112.763177,106.000000,218.763177,111.766092,217.766092,2.054397,8,-1.000000,""
16,w0,python3action_linpack_6000,0.000000,1,-1.000000,1,COMPLETED_SUCCESSFULLY,218.763192,0.000010,218.763202,218.763192,218.763202,21876320.225279,8,-1.000000,""
22_updated,w0,python3action_linpack_6000_orion,0.997085,1,2000.000000,1,COMPLETED_SUCCESSFULLY,112.763222,106.000000,218.763222,111.766137,217.766137,2.054398,9,-1.000000,""
22,w0,python3action_linpack_6000,0.000000,1,-1.000000,1,COMPLETED_SUCCESSFULLY,218.763252,0.000010,218.763262,218.763252,218.763262,21876326.226082,9,-1.000000,""
25_updated,w0,python3action_pyaes_3000_nova,0.997085,1,2000.000000,1,COMPLETED_SUCCESSFULLY,142.737173,78.200020,220.937193,141.740088,219.940108,2.812533,5,-1.000000,""
25,w0,python3action_pyaes_3000,0.000000,1,-1.000000,1,COMPLETED_SUCCESSFULLY,220.937208,0.000010,220.937218,220.937208,220.937218,22093721.800201,5,-1.000000,""
26_updated,w0,python3action_pyaes_3000_nova,0.997085,1,2000.000000,1,COMPLETED_SUCCESSFULLY,142.737218,78.200020,220.937238,141.740133,219.940153,2.812533,6,-1.000000,""
26,w0,python3action_pyaes_3000,0.000000,1,-1.000000,1,COMPLETED_SUCCESSFULLY,220.937268,0.000010,220.937278,220.937268,220.937278,22093727.800201,6,-1.000000,""
python3action_video_processing_job75_18,w0,python3action_video_processing,0.997085,1,2000.000000,1,COMPLETED_SUCCESSFULLY,194.503520,30.499683,225.003203,193.506435,224.006118,7.344539,26,-1.000000,""
2_updated,w0,python3action_videoprocessing_SampleVideo_50mb_taurus,0.997085,1,2000.000000,1,COMPLETED_SUCCESSFULLY,73.014690,154.250029,227.264719,72.017605,226.267634,1.466889,10,-1.000000,""
2,w0,python3action_videoprocessing_SampleVideo_50mb,0.000000,1,-1.000000,1,COMPLETED_SUCCESSFULLY,227.264734,0.000010,227.264744,227.264734,227.264744,22726474.416463,10,-1.000000,""
python3action_image_processing_job28_9,w0,python3action_image_processing_reduced_0.86,0.997085,1,2000.000000,1,COMPLETED_SUCCESSFULLY,227.264764,0.000000,227.264764,226.267679,226.267679,1961825090081.376221,10,-1.000000,""
9_updated,w0,python3action_videoprocessing_SampleVideo_50mb_taurus,0.997085,1,2000.000000,1,COMPLETED_SUCCESSFULLY,73.014765,154.250029,227.264794,72.017680,226.267709,1.466889,14,-1.000000,""
9,w0,python3action_videoprocessing_SampleVideo_50mb,0.000000,1,-1.000000,1,COMPLETED_SUCCESSFULLY,227.264824,0.000010,227.264834,227.264824,227.264834,22726483.417668,14,-1.000000,""
python3action_image_processing_job37_12,w0,python3action_image_processing_reduced_0.86,0.997085,1,2000.000000,1,COMPLETED_SUCCESSFULLY,227.264854,0.000000,227.264854,226.267769,226.267769,1961825870519.373535,14,-1.000000,""
29_updated,w0,python3action_facedetection_SampleVideo_30mb_nova,0.997085,1,2000.000000,1,COMPLETED_SUCCESSFULLY,68.542053,160.399990,228.942043,67.544968,227.944958,1.421103,25,-1.000000,""
29,w0,python3action_facedetection_SampleVideo_30mb,0.000000,1,-1.000000,1,COMPLETED_SUCCESSFULLY,228.942058,0.000010,228.942068,228.942058,228.942068,22894206.823505,25,-1.000000,""
python3action_video_processing_job56_17,w0,python3action_video_processing_reduced_0.91,0.997085,1,2000.000000,1,COMPLETED_SUCCESSFULLY,228.942088,0.000000,228.942088,227.945003,227.945003,51742592320990.281250,25,-1.000000,""
44_updated,w0,python3action_imageprocessing_SampleImage_60mb_troll,0.997085,1,2000.000000,1,COMPLETED_SUCCESSFULLY,170.269239,62.000000,232.269239,169.272154,231.272154,3.730196,19,-1.000000,""
44,w0,python3action_imageprocessing_SampleImage_60mb,0.000000,1,-1.000000,1,COMPLETED_SUCCESSFULLY,232.269254,0.000010,232.269264,232.269254,232.269264,23226926.401205,19,-1.000000,""
21_updated,w0,python3action_modeltraining_reviews50mb_nova,0.997085,1,2000.000000,1,COMPLETED_SUCCESSFULLY,191.901863,42.399990,234.301853,190.904778,233.304768,5.502472,2,-1.000000,""
21,w0,python3action_modeltraining_reviews50mb,0.000000,1,-1.000000,1,COMPLETED_SUCCESSFULLY,234.301868,0.000010,234.301878,234.301868,234.301878,23430187.824308,2,-1.000000,""
python3action_pyaes_job40_1,w0,python3action_pyaes,0.997085,1,2000.000000,1,COMPLETED_SUCCESSFULLY,234.301898,2.134958,236.436856,233.304813,235.439771,110.278397,2,-1.000000,""
31_updated,w0,python3action_imageprocessing_SampleImage_40mb_taurus,0.997085,1,2000.000000,1,COMPLETED_SUCCESSFULLY,207.614841,32.600046,240.214888,206.617756,239.217803,7.337959,11,-1.000000,""
31,w0,python3action_imageprocessing_SampleImage_40mb,0.000000,1,-1.000000,1,COMPLETED_SUCCESSFULLY,240.214903,0.000010,240.214913,240.214903,240.214913,24021491.300201,11,-1.000000,""
python3action_video_processing_job48_10,w0,python3action_video_processing_reduced_1.83,0.997085,1,2000.000000,1,COMPLETED_SUCCESSFULLY,240.214933,0.000000,240.214933,239.217848,239.217848,23059533628860.199219,11,-1.000000,""
55_updated,w0,python3action_floatoperation_200000000_nova,0.997085,1,2000.000000,1,COMPLETED_SUCCESSFULLY,106.682215,135.399990,242.082205,105.685130,241.085120,1.780540,7,-1.000000,""
55,w0,python3action_floatoperation_200000000,0.000000,1,-1.000000,1,COMPLETED_SUCCESSFULLY,242.082220,0.000010,242.082230,242.082220,242.082230,24208223.023907,7,-1.000000,""
python3action_modeltraining_job49_4,w0,python3action_modeltraining,0.997085,1,2000.000000,1,COMPLETED_SUCCESSFULLY,220.937238,30.499683,251.436920,219.940153,250.439835,8.211228,5,-1.000000,""
python3action_modeltraining_job52_5,w0,python3action_modeltraining,0.997085,1,2000.000000,1,COMPLETED_SUCCESSFULLY,220.937298,30.499683,251.436981,219.940213,250.439896,8.211230,6,-1.000000,""
45_updated,w0,python3action_floatoperation_200000000_nova,0.997085,1,2000.000000,1,COMPLETED_SUCCESSFULLY,118.741859,135.399990,254.141849,117.744774,253.144764,1.869607,3,-1.000000,""
45,w0,python3action_floatoperation_200000000,0.000000,1,-1.000000,1,COMPLETED_SUCCESSFULLY,254.141864,0.000010,254.141874,254.141864,254.141874,25414187.423505,3,-1.000000,""
python3action_facedetection_job67_2,w0,python3action_facedetection_reduced_0.91,0.997085,1,2000.000000,1,COMPLETED_SUCCESSFULLY,254.141894,0.000000,254.141894,253.144809,253.144809,5181350297047.942383,3,-1.000000,""
28_updated,w0,python3action_imageprocessing_SampleImage_40mb_taurus,0.997085,1,2000.000000,1,COMPLETED_SUCCESSFULLY,227.264794,32.600046,259.864840,226.267709,258.867755,7.940717,10,-1.000000,""
28,w0,python3action_imageprocessing_SampleImage_40mb,0.000000,1,-1.000000,1,COMPLETED_SUCCESSFULLY,259.864855,0.000010,259.864865,259.864855,259.864865,25986486.530545,10,-1.000000,""
37_updated,w0,python3action_imageprocessing_SampleImage_40mb_taurus,0.997085,1,2000.000000,1,COMPLETED_SUCCESSFULLY,227.264884,32.600046,259.864930,226.267799,258.867845,7.940720,14,-1.000000,""
37,w0,python3action_imageprocessing_SampleImage_40mb,0.000000,1,-1.000000,1,COMPLETED_SUCCESSFULLY,259.864945,0.000010,259.864955,259.864945,259.864955,25986495.531750,14,-1.000000,""
python3action_modeltraining_job53_12,w0,python3action_modeltraining_reduced_1.94,0.997085,1,2000.000000,1,COMPLETED_SUCCESSFULLY,259.864975,0.000000,259.864975,258.867890,258.867890,2244481068242.298340,14,-1.000000,""
51_updated,w0,python3action_chameleon_3000_troll,0.997085,1,2000.000000,1,COMPLETED_SUCCESSFULLY,170.269269,94.000000,264.269269,169.272184,263.272184,2.800768,20,-1.000000,""
51,w0,python3action_chameleon_3000,0.000000,1,-1.000000,1,COMPLETED_SUCCESSFULLY,264.269284,0.000010,264.269294,264.269284,264.269294,26426929.401606,20,-1.000000,""
python3action_chameleon_job47_9,w0,python3action_chameleon,0.997085,1,2000.000000,1,COMPLETED_SUCCESSFULLY,259.864885,5.040826,264.905711,258.867800,263.908626,52.354245,10,-1.000000,""
python3action_facedetection_job73_6,w0,python3action_facedetection,0.997085,1,2000.000000,1,COMPLETED_SUCCESSFULLY,242.082250,30.499683,272.581933,241.085165,271.584848,8.904514,7,-1.000000,""
50_updated,w0,python3action_facedetection_SampleVideo_50mb_taurus,0.997085,1,2000.000000,1,COMPLETED_SUCCESSFULLY,138.214948,134.600046,272.814994,137.217863,271.817909,2.019449,13,-1.000000,""
50,w0,python3action_facedetection_SampleVideo_50mb,0.000000,1,-1.000000,1,COMPLETED_SUCCESSFULLY,272.815009,0.000010,272.815019,272.815009,272.815019,27281501.914283,13,-1.000000,""
49_updated,w0,python3action_modeltraining_reviews50mb_nova,0.997085,1,2000.000000,1,COMPLETED_SUCCESSFULLY,251.436935,42.399990,293.836925,250.439850,292.839840,6.906602,5,-1.000000,""
49,w0,python3action_modeltraining_reviews50mb,0.000000,1,-1.000000,1,COMPLETED_SUCCESSFULLY,293.836940,0.000010,293.836950,293.836940,293.836950,29383695.031239,5,-1.000000,""
52_updated,w0,python3action_modeltraining_reviews50mb_nova,0.997085,1,2000.000000,1,COMPLETED_SUCCESSFULLY,251.436996,42.399990,293.836986,250.439911,292.839901,6.906603,6,-1.000000,""
52,w0,python3action_modeltraining_reviews50mb,0.000000,1,-1.000000,1,COMPLETED_SUCCESSFULLY,293.837001,0.000010,293.837011,293.837001,293.837011,29383701.123505,6,-1.000000,""
python3action_linpack_job70_4,w0,python3action_linpack_reduced_0.85,0.997085,1,2000.000000,1,COMPLETED_SUCCESSFULLY,293.836970,0.365992,294.202962,292.839885,293.205877,801.126916,5,-1.000000,""
72_updated,w0,python3action_imageprocessing_SampleImage_60mb_troll,0.997085,1,2000.000000,1,COMPLETED_SUCCESSFULLY,232.269284,62.000000,294.269284,231.272199,293.272199,4.730197,19,-1.000000,""
72,w0,python3action_imageprocessing_SampleImage_60mb,0.000000,1,-1.000000,1,COMPLETED_SUCCESSFULLY,294.269299,0.000010,294.269309,294.269299,294.269309,29426930.901807,19,-1.000000,""
38_updated,w0,python3action_modeltraining_reviews100mb_taurus,0.997085,1,2000.000000,1,COMPLETED_SUCCESSFULLY,207.614946,88.199977,295.814923,206.617861,294.817838,3.342607,15,-1.000000,""
38,w0,python3action_modeltraining_reviews100mb,0.000000,1,-1.000000,1,COMPLETED_SUCCESSFULLY,295.814938,0.000010,295.814948,295.814938,295.814948,29581494.842640,15,-1.000000,""
40_updated,w0,python3action_pyaes_3000_nova,0.997085,1,2000.000000,1,COMPLETED_SUCCESSFULLY,236.436871,78.200020,314.636891,235.439786,313.639806,4.010738,2,-1.000000,""
40,w0,python3action_pyaes_3000,0.000000,1,-1.000000,1,COMPLETED_SUCCESSFULLY,314.636906,0.000010,314.636916,314.636906,314.636916,31463691.602672,2,-1.000000,""
34_updated,w0,python3action_linpack_6000_orion,0.997085,1,2000.000000,1,COMPLETED_SUCCESSFULLY,218.763222,106.000000,324.763222,217.766137,323.766137,3.054398,8,-1.000000,""
34,w0,python3action_linpack_6000,0.000000,1,-1.000000,1,COMPLETED_SUCCESSFULLY,324.763237,0.000010,324.763247,324.763237,324.763247,32476324.725881,8,-1.000000,""
57_updated,w0,python3action_linpack_6000_orion,0.997085,1,2000.000000,1,COMPLETED_SUCCESSFULLY,218.763282,106.000000,324.763282,217.766197,323.766197,3.054398,9,-1.000000,""
57,w0,python3action_linpack_6000,0.000000,1,-1.000000,1,COMPLETED_SUCCESSFULLY,324.763297,0.000010,324.763307,324.763297,324.763307,32476330.726685,9,-1.000000,""
70_updated,w0,python3action_linpack_5000_nova,0.997085,1,2000.000000,1,COMPLETED_SUCCESSFULLY,294.202977,34.600010,328.802987,293.205892,327.805902,9.474156,5,-1.000000,""
70,w0,python3action_linpack_5000,0.000000,1,-1.000000,1,COMPLETED_SUCCESSFULLY,328.803002,0.000010,328.803012,328.803002,328.803012,32880301.200201,5,-1.000000,""
47_updated,w0,python3action_chameleon_2000_taurus,0.997085,1,2000.000000,1,COMPLETED_SUCCESSFULLY,264.905726,64.199977,329.105703,263.908641,328.108618,5.110728,10,-1.000000,""
47,w0,python3action_chameleon_2000,0.000000,1,-1.000000,1,COMPLETED_SUCCESSFULLY,329.105718,0.000010,329.105728,329.105718,329.105728,32910572.800201,10,-1.000000,""
python3action_facedetection_job61_9,w0,python3action_facedetection_reduced_1.83,0.997085,1,2000.000000,1,COMPLETED_SUCCESSFULLY,329.105748,0.000000,329.105748,328.108663,328.108663,2844824367860.325684,10,-1.000000,""
24_updated,w0,python3action_floatoperation_200000000_nova,0.997085,1,2000.000000,1,COMPLETED_SUCCESSFULLY,194.341868,135.399990,329.741859,193.344783,328.744774,2.427953,4,-1.000000,""
24,w0,python3action_floatoperation_200000000,0.000000,1,-1.000000,1,COMPLETED_SUCCESSFULLY,329.741874,0.000010,329.741884,329.741874,329.741884,32974188.400201,4,-1.000000,""
39_updated,w0,python3action_facedetection_SampleVideo_30mb_nova,0.997085,1,2000.000000,1,COMPLETED_SUCCESSFULLY,169.342109,160.399990,329.742099,168.345024,328.745014,2.049533,29,-1.000000,""
39,w0,python3action_facedetection_SampleVideo_30mb,0.000000,1,-1.000000,1,COMPLETED_SUCCESSFULLY,329.742114,0.000010,329.742124,329.742114,329.742124,32974212.423505,29,-1.000000,""
python3action_floatoperation_job88_4,w0,python3action_floatoperation,0.997085,1,2000.000000,1,COMPLETED_SUCCESSFULLY,328.803032,2.439945,331.242977,327.805947,330.245892,135.349712,5,-1.000000,""
75_updated,w0,python3action_videoprocessing_SampleVideo_30mb_nova,0.997085,1,2000.000000,1,COMPLETED_SUCCESSFULLY,225.003218,106.799980,331.803198,224.006133,330.806113,3.097436,26,-1.000000,""
75,w0,python3action_videoprocessing_SampleVideo_30mb,0.000000,1,-1.000000,1,COMPLETED_SUCCESSFULLY,331.803213,0.000010,331.803223,331.803213,331.803223,33180322.346609,26,-1.000000,""
python3action_pyaes_job46_3,w0,python3action_pyaes,0.997085,1,2000.000000,1,COMPLETED_SUCCESSFULLY,329.741904,2.134958,331.876862,328.744819,330.879777,154.981850,4,-1.000000,""
35_updated,w0,python3action_pyaes_4000_nova,0.997085,1,2000.000000,1,COMPLETED_SUCCESSFULLY,194.037091,139.600010,333.637101,193.040006,332.640016,2.382808,28,-1.000000,""
35,w0,python3action_pyaes_4000,0.000000,1,-1.000000,1,COMPLETED_SUCCESSFULLY,333.637116,0.000010,333.637126,333.637116,333.637126,33363712.624973,28,-1.000000,""
56_updated,w0,python3action_videoprocessing_SampleVideo_30mb_nova,0.997085,1,2000.000000,1,COMPLETED_SUCCESSFULLY,228.942118,106.799980,335.742099,227.945033,334.745014,3.134317,25,-1.000000,""
56,w0,python3action_videoprocessing_SampleVideo_30mb,0.000000,1,-1.000000,1,COMPLETED_SUCCESSFULLY,335.742114,0.000010,335.742124,335.742114,335.742124,33574212.400201,25,-1.000000,""
python3action_floatoperation_job64_20,w0,python3action_floatoperation,0.997085,1,2000.000000,1,COMPLETED_SUCCESSFULLY,333.637146,2.439945,336.077092,332.640061,335.080007,137.330951,28,-1.000000,""
53_updated,w0,python3action_modeltraining_reviews100mb_taurus,0.997085,1,2000.000000,1,COMPLETED_SUCCESSFULLY,259.865005,88.199977,348.064982,258.867920,347.067897,3.935011,14,-1.000000,""
53,w0,python3action_modeltraining_reviews100mb,0.000000,1,-1.000000,1,COMPLETED_SUCCESSFULLY,348.064997,0.000010,348.065007,348.064997,348.065007,34806500.726215,14,-1.000000,""
60_updated,w0,python3action_pyaes_4000_nova,0.997085,1,2000.000000,1,COMPLETED_SUCCESSFULLY,213.877072,139.600010,353.477082,212.879987,352.479997,2.524928,27,-1.000000,""
60,w0,python3action_pyaes_4000,0.000000,1,-1.000000,1,COMPLETED_SUCCESSFULLY,353.477097,0.000010,353.477107,353.477097,353.477107,35347710.724973,27,-1.000000,""
python3action_facedetection_job78_19,w0,python3action_facedetection_reduced_0.91,0.997085,1,2000.000000,1,COMPLETED_SUCCESSFULLY,353.477127,0.000000,353.477127,352.480042,352.480042,7218736298338.006836,27,-1.000000,""
76_updated,w0,python3action_chameleon_3000_troll,0.997085,1,2000.000000,1,COMPLETED_SUCCESSFULLY,264.269314,94.000000,358.269314,263.272229,357.272229,3.800768,20,-1.000000,""
76,w0,python3action_chameleon_3000,0.000000,1,-1.000000,1,COMPLETED_SUCCESSFULLY,358.269329,0.000010,358.269339,358.269329,358.269339,35826933.902209,20,-1.000000,""
41_updated,w0,python3action_videoprocessing_SampleVideo_50mb_taurus,0.997085,1,2000.000000,1,COMPLETED_SUCCESSFULLY,207.614976,154.250029,361.865005,206.617891,360.867920,2.339500,16,-1.000000,""
41,w0,python3action_videoprocessing_SampleVideo_50mb,0.000000,1,-1.000000,1,COMPLETED_SUCCESSFULLY,361.865020,0.000010,361.865030,361.865020,361.865030,36186503.032754,16,-1.000000,""
python3action_modeltraining_job58_14,w0,python3action_modeltraining_reduced_1.94,0.997085,1,2000.000000,1,COMPLETED_SUCCESSFULLY,361.865050,0.000000,361.865050,360.867965,360.867965,3128859725768.700684,16,-1.000000,""
54_updated,w0,python3action_modeltraining_reviews100mb_taurus,0.997085,1,2000.000000,1,COMPLETED_SUCCESSFULLY,295.814968,88.199977,384.014945,294.817883,383.017860,4.342607,15,-1.000000,""
54,w0,python3action_modeltraining_reviews100mb,0.000000,1,-1.000000,1,COMPLETED_SUCCESSFULLY,384.014960,0.000010,384.014970,384.014960,384.014970,38401497.036703,15,-1.000000,""
python3action_image_processing_job77_13,w0,python3action_image_processing_reduced_1.73,0.997085,1,2000.000000,1,COMPLETED_SUCCESSFULLY,384.014990,0.000000,384.014990,383.017905,383.017905,3320907959404.654785,15,-1.000000,""
89_updated,w0,python3action_chameleon_3000_troll,0.997085,1,2000.000000,1,COMPLETED_SUCCESSFULLY,294.269329,94.000000,388.269329,293.272244,387.272244,4.119917,19,-1.000000,""
89,w0,python3action_chameleon_3000,0.000000,1,-1.000000,1,COMPLETED_SUCCESSFULLY,388.269344,0.000010,388.269354,388.269344,388.269354,38826935.402410,19,-1.000000,""
48_updated,w0,python3action_videoprocessing_SampleVideo_50mb_taurus,0.997085,1,2000.000000,1,COMPLETED_SUCCESSFULLY,240.214963,154.250029,394.464992,239.217878,393.467907,2.550845,11,-1.000000,""
48,w0,python3action_videoprocessing_SampleVideo_50mb,0.000000,1,-1.000000,1,COMPLETED_SUCCESSFULLY,394.465007,0.000010,394.465017,394.465007,394.465017,39446501.700201,11,-1.000000,""
65_updated,w0,python3action_floatoperation_100000000_nova,0.997085,1,2000.000000,1,COMPLETED_SUCCESSFULLY,329.742144,66.200020,395.942164,328.745059,394.945079,5.965936,29,-1.000000,""
65,w0,python3action_floatoperation_100000000,0.000000,1,-1.000000,1,COMPLETED_SUCCESSFULLY,395.942179,0.000010,395.942189,395.942179,395.942189,39594218.900201,29,-1.000000,""
88_updated,w0,python3action_floatoperation_100000000_nova,0.997085,1,2000.000000,1,COMPLETED_SUCCESSFULLY,331.242992,66.200020,397.443012,330.245907,396.445927,5.988607,5,-1.000000,""
88,w0,python3action_floatoperation_100000000,0.000000,1,-1.000000,1,COMPLETED_SUCCESSFULLY,397.443027,0.000010,397.443037,397.443027,397.443037,39744303.700201,5,-1.000000,""
108_updated,w0,python3action_chameleon_2000_troll,0.997085,1,2000.000000,1,COMPLETED_SUCCESSFULLY,358.269359,39.500010,397.769369,357.272274,396.772284,10.044865,20,-1.000000,""
108,w0,python3action_chameleon_2000,0.000000,1,-1.000000,1,COMPLETED_SUCCESSFULLY,397.769384,0.000010,397.769394,397.769384,397.769394,39776939.400201,20,-1.000000,""
64_updated,w0,python3action_floatoperation_100000000_nova,0.997085,1,2000.000000,1,COMPLETED_SUCCESSFULLY,336.077107,66.200020,402.277127,335.080022,401.280042,6.061630,28,-1.000000,""
64,w0,python3action_floatoperation_100000000,0.000000,1,-1.000000,1,COMPLETED_SUCCESSFULLY,402.277142,0.000010,402.277152,402.277142,402.277152,40227715.200201,28,-1.000000,""
63_updated,w0,python3action_facedetection_SampleVideo_50mb_taurus,0.997085,1,2000.000000,1,COMPLETED_SUCCESSFULLY,272.815039,134.600046,407.415085,271.817954,406.418000,3.019449,13,-1.000000,""
63,w0,python3action_facedetection_SampleVideo_50mb,0.000000,1,-1.000000,1,COMPLETED_SUCCESSFULLY,407.415100,0.000010,407.415110,407.415100,407.415110,40741511.027964,13,-1.000000,""
python3action_video_processing_job86_11,w0,python3action_video_processing_reduced_1.83,0.997085,1,2000.000000,1,COMPLETED_SUCCESSFULLY,407.415130,0.000000,407.415130,406.418045,406.418045,39069846253759.984375,13,-1.000000,""
67_updated,w0,python3action_facedetection_SampleVideo_30mb_nova,0.997085,1,2000.000000,1,COMPLETED_SUCCESSFULLY,254.141924,160.399990,414.541914,253.144839,413.544829,2.578210,3,-1.000000,""
67,w0,python3action_facedetection_SampleVideo_30mb,0.000000,1,-1.000000,1,COMPLETED_SUCCESSFULLY,414.541929,0.000010,414.541939,414.541929,414.541939,41454193.947613,3,-1.000000,""
77_updated,w0,python3action_imageprocessing_SampleImage_40mb_taurus,0.997085,1,2000.000000,1,COMPLETED_SUCCESSFULLY,384.015020,32.600046,416.615067,383.017935,415.617982,12.749000,15,-1.000000,""
77,w0,python3action_imageprocessing_SampleImage_40mb,0.000000,1,-1.000000,1,COMPLETED_SUCCESSFULLY,416.615082,0.000010,416.615092,416.615082,416.615092,41661509.200201,15,-1.000000,""
62_updated,w0,python3action_imageprocessing_SampleImage_40mb_taurus,0.997085,1,2000.000000,1,COMPLETED_SUCCESSFULLY,394.465037,32.600046,427.065083,393.467952,426.067998,13.069552,11,-1.000000,""
62,w0,python3action_imageprocessing_SampleImage_40mb,0.000000,1,-1.000000,1,COMPLETED_SUCCESSFULLY,427.065098,0.000010,427.065108,427.065098,427.065108,42706510.813881,11,-1.000000,""
90_updated,w0,python3action_linpack_6000_orion,0.997085,1,2000.000000,1,COMPLETED_SUCCESSFULLY,324.763267,106.000000,430.763267,323.766182,429.766182,4.054398,8,-1.000000,""
90,w0,python3action_linpack_6000,0.000000,1,-1.000000,1,COMPLETED_SUCCESSFULLY,430.763282,0.000010,430.763292,430.763282,430.763292,43076329.226484,8,-1.000000,""
91_updated,w0,python3action_linpack_6000_orion,0.997085,1,2000.000000,1,COMPLETED_SUCCESSFULLY,324.763327,106.000000,430.763327,323.766242,429.766242,4.054399,9,-1.000000,""
91,w0,python3action_linpack_6000,0.000000,1,-1.000000,1,COMPLETED_SUCCESSFULLY,430.763342,0.000010,430.763352,430.763342,430.763352,43076335.227287,9,-1.000000,""
73_updated,w0,python3action_facedetection_SampleVideo_30mb_nova,0.997085,1,2000.000000,1,COMPLETED_SUCCESSFULLY,272.581948,160.399990,432.981938,271.584863,431.984853,2.693173,7,-1.000000,""
73,w0,python3action_facedetection_SampleVideo_30mb,0.000000,1,-1.000000,1,COMPLETED_SUCCESSFULLY,432.981953,0.000010,432.981963,432.981953,432.981963,43298196.323506,7,-1.000000,""
python3action_modeltraining_job94_6,w0,python3action_modeltraining_reduced_0.94,0.997085,1,2000.000000,1,COMPLETED_SUCCESSFULLY,432.981983,0.000000,432.981983,431.984898,431.984898,8846983350641.158203,7,-1.000000,""
71_updated,w0,python3action_pyaes_4000_nova,0.997085,1,2000.000000,1,COMPLETED_SUCCESSFULLY,293.837031,139.600010,433.437041,292.839946,432.439956,3.097707,6,-1.000000,""
71,w0,python3action_pyaes_4000,0.000000,1,-1.000000,1,COMPLETED_SUCCESSFULLY,433.437056,0.000010,433.437066,433.437056,433.437066,43343706.601005,6,-1.000000,""
python3action_floatoperation_job93_5,w0,python3action_floatoperation,0.997085,1,2000.000000,1,COMPLETED_SUCCESSFULLY,433.437086,2.439945,435.877031,432.440001,434.879946,178.233482,6,-1.000000,""
69_updated,w0,python3action_modeltraining_reviews100mb_taurus,0.997085,1,2000.000000,1,COMPLETED_SUCCESSFULLY,348.065027,88.199977,436.265004,347.067942,435.267919,4.935012,14,-1.000000,""
69,w0,python3action_modeltraining_reviews100mb,0.000000,1,-1.000000,1,COMPLETED_SUCCESSFULLY,436.265019,0.000010,436.265029,436.265019,436.265029,43626502.920279,14,-1.000000,""
97_updated,w0,python3action_videoprocessing_SampleVideo_30mb_nova,0.997085,1,2000.000000,1,COMPLETED_SUCCESSFULLY,331.803243,106.799980,438.603224,330.806158,437.606139,4.097437,26,-1.000000,""
97,w0,python3action_videoprocessing_SampleVideo_30mb,0.000000,1,-1.000000,1,COMPLETED_SUCCESSFULLY,438.603239,0.000010,438.603249,438.603239,438.603249,43860324.900201,26,-1.000000,""
115_updated,w0,python3action_modeltraining_reviews50mb_nova,0.997085,1,2000.000000,1,COMPLETED_SUCCESSFULLY,397.443057,42.399990,439.843047,396.445972,438.845962,10.350143,5,-1.000000,""
115,w0,python3action_modeltraining_reviews50mb,0.000000,1,-1.000000,1,COMPLETED_SUCCESSFULLY,439.843062,0.000010,439.843072,439.843062,439.843072,43984307.223907,5,-1.000000,""
python3action_facedetection_job141_4,w0,python3action_facedetection_reduced_0.91,0.997085,1,2000.000000,1,COMPLETED_SUCCESSFULLY,439.843092,0.000000,439.843092,438.846007,438.846007,8987497793097.050781,5,-1.000000,""
74_updated,w0,python3action_videoprocessing_SampleVideo_30mb_nova,0.997085,1,2000.000000,1,COMPLETED_SUCCESSFULLY,335.742144,106.799980,442.542124,334.745059,441.545039,4.134318,25,-1.000000,""
74,w0,python3action_videoprocessing_SampleVideo_30mb,0.000000,1,-1.000000,1,COMPLETED_SUCCESSFULLY,442.542139,0.000010,442.542149,442.542139,442.542149,44254214.947011,25,-1.000000,""
python3action_floatoperation_job95_17,w0,python3action_floatoperation,0.997085,1,2000.000000,1,COMPLETED_SUCCESSFULLY,442.542169,2.439945,444.982115,441.545084,443.985030,181.965158,25,-1.000000,""
58_updated,w0,python3action_modeltraining_reviews100mb_taurus,0.997085,1,2000.000000,1,COMPLETED_SUCCESSFULLY,361.865080,88.199977,450.065057,360.867995,449.067972,5.091475,16,-1.000000,""
58,w0,python3action_modeltraining_reviews100mb,0.000000,1,-1.000000,1,COMPLETED_SUCCESSFULLY,450.065072,0.000010,450.065082,450.065072,450.065082,45006508.227220,16,-1.000000,""
110_updated,w0,python3action_imageprocessing_SampleImage_60mb_troll,0.997085,1,2000.000000,1,COMPLETED_SUCCESSFULLY,388.269374,62.000000,450.269374,387.272289,449.272289,7.246327,19,-1.000000,""
110,w0,python3action_imageprocessing_SampleImage_60mb,0.000000,1,-1.000000,1,COMPLETED_SUCCESSFULLY,450.269389,0.000010,450.269399,450.269389,450.269399,45026939.903013,19,-1.000000,""
66_updated,w0,python3action_pyaes_4000_nova,0.997085,1,2000.000000,1,COMPLETED_SUCCESSFULLY,314.636936,139.600010,454.236946,313.639851,453.239861,3.246704,2,-1.000000,""
66,w0,python3action_pyaes_4000,0.000000,1,-1.000000,1,COMPLETED_SUCCESSFULLY,454.236961,0.000010,454.236971,454.236961,454.236971,45423697.100201,2,-1.000000,""
python3action_chameleon_job79_14,w0,python3action_chameleon,0.997085,1,2000.000000,1,COMPLETED_SUCCESSFULLY,450.065102,5.040826,455.105928,449.068017,454.108843,90.086201,16,-1.000000,""
61_updated,w0,python3action_facedetection_SampleVideo_50mb_taurus,0.997085,1,2000.000000,1,COMPLETED_SUCCESSFULLY,329.105778,134.600046,463.705824,328.108693,462.708739,3.437657,10,-1.000000,""
61,w0,python3action_facedetection_SampleVideo_50mb,0.000000,1,-1.000000,1,COMPLETED_SUCCESSFULLY,463.705839,0.000010,463.705849,463.705839,463.705849,46370584.914283,10,-1.000000,""
46_updated,w0,python3action_pyaes_4000_nova,0.997085,1,2000.000000,1,COMPLETED_SUCCESSFULLY,331.876877,139.600010,471.476887,330.879792,470.479802,3.370199,4,-1.000000,""
46,w0,python3action_pyaes_4000,0.000000,1,-1.000000,1,COMPLETED_SUCCESSFULLY,471.476902,0.000010,471.476912,471.476902,471.476912,47147691.201669,4,-1.000000,""
112_updated,w0,python3action_chameleon_3000_troll,0.997085,1,2000.000000,1,COMPLETED_SUCCESSFULLY,397.769414,94.000000,491.769414,396.772329,490.772329,5.220982,20,-1.000000,""
112,w0,python3action_chameleon_3000,0.000000,1,-1.000000,1,COMPLETED_SUCCESSFULLY,491.769429,0.000010,491.769439,491.769429,491.769439,49176943.900804,20,-1.000000,""
100_updated,w0,python3action_modeltraining_reviews100mb_taurus,0.997085,1,2000.000000,1,COMPLETED_SUCCESSFULLY,416.615112,88.199977,504.815089,415.618027,503.818004,5.712224,15,-1.000000,""
100,w0,python3action_modeltraining_reviews100mb,0.000000,1,-1.000000,1,COMPLETED_SUCCESSFULLY,504.815104,0.000010,504.815114,504.815104,504.815114,50481511.400201,15,-1.000000,""
python3action_chameleon_job119_13,w0,python3action_chameleon,0.997085,1,2000.000000,1,COMPLETED_SUCCESSFULLY,504.815134,5.040826,509.855960,503.818049,508.858875,100.947523,15,-1.000000,""
95_updated,w0,python3action_floatoperation_100000000_nova,0.997085,1,2000.000000,1,COMPLETED_SUCCESSFULLY,444.982130,66.200020,511.182150,443.985045,510.185065,7.706721,25,-1.000000,""
95,w0,python3action_floatoperation_100000000,0.000000,1,-1.000000,1,COMPLETED_SUCCESSFULLY,511.182165,0.000010,511.182175,511.182165,511.182175,51118217.500201,25,-1.000000,""
python3action_pyaes_job118_17,w0,python3action_pyaes_reduced_0.85,0.997085,1,2000.000000,1,COMPLETED_SUCCESSFULLY,511.182195,0.320244,511.502439,510.185110,510.505354,1594.115035,25,-1.000000,""
125_updated,w0,python3action_imageprocessing_SampleImage_60mb_troll,0.997085,1,2000.000000,1,COMPLETED_SUCCESSFULLY,450.269419,62.000000,512.269419,449.272334,511.272334,8.246328,19,-1.000000,""
125,w0,python3action_imageprocessing_SampleImage_60mb,0.000000,1,-1.000000,1,COMPLETED_SUCCESSFULLY,512.269434,0.000010,512.269444,512.269434,512.269444,51226944.403615,19,-1.000000,""
94_updated,w0,python3action_modeltraining_reviews100mb_nova,0.997085,1,2000.000000,1,COMPLETED_SUCCESSFULLY,432.982013,79.600010,512.582023,431.984928,511.584938,6.426946,7,-1.000000,""
94,w0,python3action_modeltraining_reviews100mb,0.000000,1,-1.000000,1,COMPLETED_SUCCESSFULLY,512.582038,0.000010,512.582048,512.582038,512.582048,51258204.801406,7,-1.000000,""
python3action_video_processing_job117_6,w0,python3action_video_processing_reduced_1.89,0.997085,1,2000.000000,1,COMPLETED_SUCCESSFULLY,512.582068,0.000000,512.582068,511.584983,511.584983,115383310240814.656250,7,-1.000000,""
78_updated,w0,python3action_facedetection_SampleVideo_30mb_nova,0.997085,1,2000.000000,1,COMPLETED_SUCCESSFULLY,353.477157,160.399990,513.877147,352.480072,512.880062,3.197507,27,-1.000000,""
78,w0,python3action_facedetection_SampleVideo_30mb,0.000000,1,-1.000000,1,COMPLETED_SUCCESSFULLY,513.877162,0.000010,513.877172,513.877162,513.877172,51387717.249081,27,-1.000000,""
122_updated,w0,python3action_pyaes_3000_nova,0.997085,1,2000.000000,1,COMPLETED_SUCCESSFULLY,438.603269,78.200020,516.803289,437.606184,515.806204,6.595986,26,-1.000000,""
122,w0,python3action_pyaes_3000,0.000000,1,-1.000000,1,COMPLETED_SUCCESSFULLY,516.803304,0.000010,516.803314,516.803304,516.803314,51680331.400201,26,-1.000000,""
python3action_floatoperation_job150_18,w0,python3action_floatoperation,0.997085,1,2000.000000,1,COMPLETED_SUCCESSFULLY,516.803334,2.439945,519.243279,515.806249,518.246194,212.400743,26,-1.000000,""
79_updated,w0,python3action_chameleon_2000_taurus,0.997085,1,2000.000000,1,COMPLETED_SUCCESSFULLY,455.105943,64.199977,519.305920,454.108858,518.308835,8.073349,16,-1.000000,""
79,w0,python3action_chameleon_2000,0.000000,1,-1.000000,1,COMPLETED_SUCCESSFULLY,519.305935,0.000010,519.305945,519.305935,519.305945,51930594.500201,16,-1.000000,""
98_updated,w0,python3action_modeltraining_reviews100mb_taurus,0.997085,1,2000.000000,1,COMPLETED_SUCCESSFULLY,436.265049,88.199977,524.465026,435.267964,523.467941,5.935012,14,-1.000000,""
98,w0,python3action_modeltraining_reviews100mb,0.000000,1,-1.000000,1,COMPLETED_SUCCESSFULLY,524.465041,0.000010,524.465051,524.465041,524.465051,52446505.114343,14,-1.000000,""
80_updated,w0,python3action_chameleon_2000_taurus,0.997085,1,2000.000000,1,COMPLETED_SUCCESSFULLY,463.705869,64.199977,527.905846,462.708784,526.908761,8.207305,10,-1.000000,""
80,w0,python3action_chameleon_2000,0.000000,1,-1.000000,1,COMPLETED_SUCCESSFULLY,527.905861,0.000010,527.905871,527.905861,527.905871,52790587.108347,10,-1.000000,""
python3action_modeltraining_job102_9,w0,python3action_modeltraining_reduced_2.88,0.997085,1,2000.000000,1,COMPLETED_SUCCESSFULLY,527.905891,0.000000,527.905891,526.908806,526.908806,4570748395036.570312,10,-1.000000,""
83_updated,w0,python3action_floatoperation_200000000_nova,0.997085,1,2000.000000,1,COMPLETED_SUCCESSFULLY,395.942209,135.399990,531.342199,394.945124,530.345114,3.916877,29,-1.000000,""
83,w0,python3action_floatoperation_200000000,0.000000,1,-1.000000,1,COMPLETED_SUCCESSFULLY,531.342214,0.000010,531.342224,531.342214,531.342224,53134222.423907,29,-1.000000,""
python3action_pyaes_job104_21,w0,python3action_pyaes,0.997085,1,2000.000000,1,COMPLETED_SUCCESSFULLY,531.342244,2.134958,533.477202,530.345159,532.480117,249.410086,29,-1.000000,""
92_updated,w0,python3action_linpack_6000_orion,0.997085,1,2000.000000,1,COMPLETED_SUCCESSFULLY,430.763312,106.000000,536.763312,429.766227,535.766227,5.054398,8,-1.000000,""
92,w0,python3action_linpack_6000,0.000000,1,-1.000000,1,COMPLETED_SUCCESSFULLY,536.763327,0.000010,536.763337,536.763327,536.763337,53676333.727087,8,-1.000000,""
96_updated,w0,python3action_linpack_6000_orion,0.997085,1,2000.000000,1,COMPLETED_SUCCESSFULLY,430.763372,106.000000,536.763372,429.766287,535.766287,5.054399,9,-1.000000,""
96,w0,python3action_linpack_6000,0.000000,1,-1.000000,1,COMPLETED_SUCCESSFULLY,536.763387,0.000010,536.763397,536.763387,536.763397,53676339.727890,9,-1.000000,""
82_updated,w0,python3action_pyaes_4000_nova,0.997085,1,2000.000000,1,COMPLETED_SUCCESSFULLY,402.277172,139.600010,541.877182,401.280087,540.880097,3.874499,28,-1.000000,""
82,w0,python3action_pyaes_4000,0.000000,1,-1.000000,1,COMPLETED_SUCCESSFULLY,541.877197,0.000010,541.877207,541.877197,541.877207,54187720.700201,28,-1.000000,""
68_updated,w0,python3action_pyaes_3000_nova,0.997085,1,2000.000000,1,COMPLETED_SUCCESSFULLY,471.476932,78.200020,549.676952,470.479847,548.679867,7.016365,4,-1.000000,""
68,w0,python3action_pyaes_3000,0.000000,1,-1.000000,1,COMPLETED_SUCCESSFULLY,549.676967,0.000010,549.676977,549.676967,549.676977,54967697.700201,4,-1.000000,""
python3action_linpack_job87_3,w0,python3action_linpack_reduced_0.85,0.997085,1,2000.000000,1,COMPLETED_SUCCESSFULLY,549.676997,0.365992,550.042989,548.679912,549.045904,1500.159055,4,-1.000000,""
140_updated,w0,python3action_imageprocessing_SampleImage_60mb_troll,0.997085,1,2000.000000,1,COMPLETED_SUCCESSFULLY,491.769459,62.000000,553.769459,490.772374,552.772374,8.915683,20,-1.000000,""
140,w0,python3action_imageprocessing_SampleImage_60mb,0.000000,1,-1.000000,1,COMPLETED_SUCCESSFULLY,553.769474,0.000010,553.769484,553.769474,553.769484,55376948.401406,20,-1.000000,""
86_updated,w0,python3action_videoprocessing_SampleVideo_50mb_taurus,0.997085,1,2000.000000,1,COMPLETED_SUCCESSFULLY,407.415160,154.250029,561.665189,406.418075,560.668104,3.634801,13,-1.000000,""
86,w0,python3action_videoprocessing_SampleVideo_50mb,0.000000,1,-1.000000,1,COMPLETED_SUCCESSFULLY,561.665204,0.000010,561.665214,561.665204,561.665214,56166521.412142,13,-1.000000,""
93_updated,w0,python3action_floatoperation_200000000_nova,0.997085,1,2000.000000,1,COMPLETED_SUCCESSFULLY,435.877046,135.399990,571.277037,434.879961,570.279952,4.211817,6,-1.000000,""
93,w0,python3action_floatoperation_200000000,0.000000,1,-1.000000,1,COMPLETED_SUCCESSFULLY,571.277052,0.000010,571.277062,571.277052,571.277062,57127706.200201,6,-1.000000,""
119_updated,w0,python3action_chameleon_2000_taurus,0.997085,1,2000.000000,1,COMPLETED_SUCCESSFULLY,509.855975,64.199977,574.055952,508.858890,573.058867,8.926154,15,-1.000000,""
119,w0,python3action_chameleon_2000,0.000000,1,-1.000000,1,COMPLETED_SUCCESSFULLY,574.055967,0.000010,574.055977,574.055967,574.055977,57405597.700201,15,-1.000000,""
85_updated,w0,python3action_facedetection_SampleVideo_30mb_nova,0.997085,1,2000.000000,1,COMPLETED_SUCCESSFULLY,414.541959,160.399990,574.941950,413.544874,573.944865,3.578210,3,-1.000000,""
85,w0,python3action_facedetection_SampleVideo_30mb,0.000000,1,-1.000000,1,COMPLETED_SUCCESSFULLY,574.941965,0.000010,574.941975,574.941965,574.941975,57494197.500201,3,-1.000000,""
python3action_video_processing_job111_2,w0,python3action_video_processing_reduced_1.89,0.997085,1,2000.000000,1,COMPLETED_SUCCESSFULLY,574.941995,0.000000,574.941995,573.944910,573.944910,129448020975277.578125,3,-1.000000,""
81_updated,w0,python3action_videoprocessing_SampleVideo_50mb_taurus,0.997085,1,2000.000000,1,COMPLETED_SUCCESSFULLY,427.065128,154.250029,581.315157,426.068043,580.318072,3.762191,11,-1.000000,""
81,w0,python3action_videoprocessing_SampleVideo_50mb,0.000000,1,-1.000000,1,COMPLETED_SUCCESSFULLY,581.315172,0.000010,581.315182,581.315172,581.315182,58131518.200201,11,-1.000000,""
87_updated,w0,python3action_linpack_5000_nova,0.997085,1,2000.000000,1,COMPLETED_SUCCESSFULLY,550.043004,34.600010,584.643014,549.045919,583.645929,16.868375,4,-1.000000,""
87,w0,python3action_linpack_5000,0.000000,1,-1.000000,1,COMPLETED_SUCCESSFULLY,584.643029,0.000010,584.643039,584.643029,584.643039,58464303.900201,4,-1.000000,""
118_updated,w0,python3action_pyaes_3000_nova,0.997085,1,2000.000000,1,COMPLETED_SUCCESSFULLY,511.502454,78.200020,589.702474,510.505369,588.705389,7.528200,25,-1.000000,""
118,w0,python3action_pyaes_3000,0.000000,1,-1.000000,1,COMPLETED_SUCCESSFULLY,589.702489,0.000010,589.702499,589.702489,589.702499,58970249.900201,25,-1.000000,""
python3action_modeltraining_job148_17,w0,python3action_modeltraining_reduced_1.94,0.997085,1,2000.000000,1,COMPLETED_SUCCESSFULLY,589.702519,0.000000,589.702519,588.705434,588.705434,12042576186504.072266,25,-1.000000,""
84_updated,w0,python3action_pyaes_4000_nova,0.997085,1,2000.000000,1,COMPLETED_SUCCESSFULLY,454.236991,139.600010,593.837001,453.239906,592.839916,4.246704,2,-1.000000,""
84,w0,python3action_pyaes_4000,0.000000,1,-1.000000,1,COMPLETED_SUCCESSFULLY,593.837016,0.000010,593.837026,593.837016,593.837026,59383702.600201,2,-1.000000,""
109_updated,w0,python3action_imageprocessing_SampleImage_40mb_taurus,0.997085,1,2000.000000,1,COMPLETED_SUCCESSFULLY,561.665234,32.600046,594.265280,560.668149,593.268195,18.198385,13,-1.000000,""
109,w0,python3action_imageprocessing_SampleImage_40mb,0.000000,1,-1.000000,1,COMPLETED_SUCCESSFULLY,594.265295,0.000010,594.265305,594.265295,594.265305,59426530.525822,13,-1.000000,""
141_updated,w0,python3action_facedetection_SampleVideo_30mb_nova,0.997085,1,2000.000000,1,COMPLETED_SUCCESSFULLY,439.843122,160.399990,600.243112,438.846037,599.246027,3.735948,5,-1.000000,""
141,w0,python3action_facedetection_SampleVideo_30mb,0.000000,1,-1.000000,1,COMPLETED_SUCCESSFULLY,600.243127,0.000010,600.243137,600.243127,600.243137,60024313.748015,5,-1.000000,""
168_updated,w0,python3action_chameleon_3000_troll,0.997085,1,2000.000000,1,COMPLETED_SUCCESSFULLY,512.269464,94.000000,606.269464,511.272379,605.272379,6.439068,19,-1.000000,""
168,w0,python3action_chameleon_3000,0.000000,1,-1.000000,1,COMPLETED_SUCCESSFULLY,606.269479,0.000010,606.269489,606.269479,606.269489,60626948.904217,19,-1.000000,""
101_updated,w0,python3action_modeltraining_reviews100mb_taurus,0.997085,1,2000.000000,1,COMPLETED_SUCCESSFULLY,519.305965,88.199977,607.505942,518.308880,606.508857,6.876519,16,-1.000000,""
101,w0,python3action_modeltraining_reviews100mb,0.000000,1,-1.000000,1,COMPLETED_SUCCESSFULLY,607.505957,0.000010,607.505967,607.505957,607.505967,60750596.700201,16,-1.000000,""
103_updated,w0,python3action_floatoperation_100000000_nova,0.997085,1,2000.000000,1,COMPLETED_SUCCESSFULLY,541.877227,66.200020,608.077247,540.880142,607.080162,9.170392,28,-1.000000,""
103,w0,python3action_floatoperation_100000000,0.000000,1,-1.000000,1,COMPLETED_SUCCESSFULLY,608.077262,0.000010,608.077272,608.077262,608.077272,60807727.200201,28,-1.000000,""
python3action_video_processing_job128_20,w0,python3action_video_processing_reduced_0.91,0.997085,1,2000.000000,1,COMPLETED_SUCCESSFULLY,608.077292,0.000000,608.077292,607.080207,607.080207,136921383917085.015625,28,-1.000000,""
113_updated,w0,python3action_modeltraining_reviews100mb_taurus,0.997085,1,2000.000000,1,COMPLETED_SUCCESSFULLY,524.465071,88.199977,612.665048,523.467986,611.667963,6.935013,14,-1.000000,""
113,w0,python3action_modeltraining_reviews100mb,0.000000,1,-1.000000,1,COMPLETED_SUCCESSFULLY,612.665063,0.000010,612.665073,612.665063,612.665073,61266507.308406,14,-1.000000,""
106_updated,w0,python3action_imageprocessing_SampleImage_40mb_taurus,0.997085,1,2000.000000,1,COMPLETED_SUCCESSFULLY,581.315202,32.600046,613.915248,580.318117,612.918163,18.801144,11,-1.000000,""
106,w0,python3action_imageprocessing_SampleImage_40mb,0.000000,1,-1.000000,1,COMPLETED_SUCCESSFULLY,613.915263,0.000010,613.915273,613.915263,613.915273,61391527.313881,11,-1.000000,""
183_updated,w0,python3action_imageprocessing_SampleImage_60mb_troll,0.997085,1,2000.000000,1,COMPLETED_SUCCESSFULLY,553.769504,62.000000,615.769504,552.772419,614.772419,9.915684,20,-1.000000,""
183,w0,python3action_imageprocessing_SampleImage_60mb,0.000000,1,-1.000000,1,COMPLETED_SUCCESSFULLY,615.769519,0.000010,615.769529,615.769519,615.769529,61576952.902008,20,-1.000000,""
102_updated,w0,python3action_modeltraining_reviews100mb_taurus,0.997085,1,2000.000000,1,COMPLETED_SUCCESSFULLY,527.905921,88.199977,616.105898,526.908836,615.108813,6.974025,10,-1.000000,""
102,w0,python3action_modeltraining_reviews100mb,0.000000,1,-1.000000,1,COMPLETED_SUCCESSFULLY,616.105913,0.000010,616.105923,616.105913,616.105923,61610592.302812,10,-1.000000,""
117_updated,w0,python3action_videoprocessing_SampleVideo_30mb_nova,0.997085,1,2000.000000,1,COMPLETED_SUCCESSFULLY,512.582098,106.799980,619.382078,511.585013,618.384993,5.790123,7,-1.000000,""
117,w0,python3action_videoprocessing_SampleVideo_30mb,0.000000,1,-1.000000,1,COMPLETED_SUCCESSFULLY,619.382093,0.000010,619.382103,619.382093,619.382103,61938210.348617,7,-1.000000,""
python3action_pyaes_job147_6,w0,python3action_pyaes_reduced_0.85,0.997085,1,2000.000000,1,COMPLETED_SUCCESSFULLY,619.382123,0.320244,619.702367,618.385038,618.705282,1931.982466,7,-1.000000,""
127_updated,w0,python3action_imageprocessing_SampleImage_40mb_taurus,0.997085,1,2000.000000,1,COMPLETED_SUCCESSFULLY,594.265325,32.600046,626.865371,593.268240,625.868286,19.198387,13,-1.000000,""
127,w0,python3action_imageprocessing_SampleImage_40mb,0.000000,1,-1.000000,1,COMPLETED_SUCCESSFULLY,626.865386,0.000010,626.865396,626.865386,626.865396,62686539.639502,13,-1.000000,""
python3action_modeltraining_job137_11,w0,python3action_modeltraining_reduced_2.88,0.997085,1,2000.000000,1,COMPLETED_SUCCESSFULLY,626.865416,0.000000,626.865416,625.868331,625.868331,5429187438502.053711,13,-1.000000,""
148_updated,w0,python3action_modeltraining_reviews50mb_nova,0.997085,1,2000.000000,1,COMPLETED_SUCCESSFULLY,589.702549,42.399990,632.102539,588.705464,631.105454,14.884566,25,-1.000000,""
148,w0,python3action_modeltraining_reviews50mb,0.000000,1,-1.000000,1,COMPLETED_SUCCESSFULLY,632.102554,0.000010,632.102564,632.102554,632.102564,63210256.424308,25,-1.000000,""
107_updated,w0,python3action_modeltraining_reviews50mb_nova,0.997085,1,2000.000000,1,COMPLETED_SUCCESSFULLY,593.837046,42.399990,636.237036,592.839961,635.239951,14.982078,2,-1.000000,""
107,w0,python3action_modeltraining_reviews50mb,0.000000,1,-1.000000,1,COMPLETED_SUCCESSFULLY,636.237051,0.000010,636.237061,636.237051,636.237061,63623706.123907,2,-1.000000,""
python3action_video_processing_job132_1,w0,python3action_video_processing_reduced_1.89,0.997085,1,2000.000000,1,COMPLETED_SUCCESSFULLY,636.237081,0.000000,636.237081,635.239996,635.239996,143272566625160.468750,2,-1.000000,""
105_updated,w0,python3action_linpack_6000_orion,0.997085,1,2000.000000,1,COMPLETED_SUCCESSFULLY,536.763357,106.000000,642.763357,535.766272,641.766272,6.054399,8,-1.000000,""
105,w0,python3action_linpack_6000,0.000000,1,-1.000000,1,COMPLETED_SUCCESSFULLY,642.763372,0.000010,642.763382,642.763372,642.763382,64276338.227689,8,-1.000000,""
124_updated,w0,python3action_linpack_6000_orion,0.997085,1,2000.000000,1,COMPLETED_SUCCESSFULLY,536.763417,106.000000,642.763417,535.766332,641.766332,6.054399,9,-1.000000,""
124,w0,python3action_linpack_6000,0.000000,1,-1.000000,1,COMPLETED_SUCCESSFULLY,642.763432,0.000010,642.763442,642.763432,642.763442,64276344.228492,9,-1.000000,""
116_updated,w0,python3action_pyaes_3000_nova,0.997085,1,2000.000000,1,COMPLETED_SUCCESSFULLY,571.277082,78.200020,649.477102,570.279997,648.480017,8.292581,6,-1.000000,""
116,w0,python3action_pyaes_3000,0.000000,1,-1.000000,1,COMPLETED_SUCCESSFULLY,649.477117,0.000010,649.477127,649.477117,649.477127,64947712.700201,6,-1.000000,""
150_updated,w0,python3action_floatoperation_200000000_nova,0.997085,1,2000.000000,1,COMPLETED_SUCCESSFULLY,519.243294,135.399990,654.643285,518.246209,653.646200,4.827520,26,-1.000000,""
150,w0,python3action_floatoperation_200000000,0.000000,1,-1.000000,1,COMPLETED_SUCCESSFULLY,654.643300,0.000010,654.643310,654.643300,654.643310,65464331.000201,26,-1.000000,""
131_updated,w0,python3action_modeltraining_reviews100mb_taurus,0.997085,1,2000.000000,1,COMPLETED_SUCCESSFULLY,574.055997,88.199977,662.255974,573.058912,661.258889,7.497268,15,-1.000000,""
131,w0,python3action_modeltraining_reviews100mb,0.000000,1,-1.000000,1,COMPLETED_SUCCESSFULLY,662.255989,0.000010,662.255999,662.255989,662.255999,66225599.900201,15,-1.000000,""
169_updated,w0,python3action_linpack_5000_nova,0.997085,1,2000.000000,1,COMPLETED_SUCCESSFULLY,632.102584,34.600010,666.702594,631.105499,665.705509,19.240038,25,-1.000000,""
169,w0,python3action_linpack_5000,0.000000,1,-1.000000,1,COMPLETED_SUCCESSFULLY,666.702609,0.000010,666.702619,666.702609,666.702619,66670261.901807,25,-1.000000,""
195_updated,w0,python3action_imageprocessing_SampleImage_60mb_troll,0.997085,1,2000.000000,1,COMPLETED_SUCCESSFULLY,606.269509,62.000000,668.269509,605.272424,667.272424,10.762458,19,-1.000000,""
195,w0,python3action_imageprocessing_SampleImage_60mb,0.000000,1,-1.000000,1,COMPLETED_SUCCESSFULLY,668.269524,0.000010,668.269534,668.269524,668.269534,66826953.404820,19,-1.000000,""
120_updated,w0,python3action_chameleon_2000_taurus,0.997085,1,2000.000000,1,COMPLETED_SUCCESSFULLY,607.505987,64.199977,671.705964,606.508902,670.708879,10.447183,16,-1.000000,""
120,w0,python3action_chameleon_2000,0.000000,1,-1.000000,1,COMPLETED_SUCCESSFULLY,671.705979,0.000010,671.705989,671.705979,671.705989,67170598.900201,16,-1.000000,""
104_updated,w0,python3action_pyaes_4000_nova,0.997085,1,2000.000000,1,COMPLETED_SUCCESSFULLY,533.477217,139.600010,673.077227,532.480132,672.080142,4.814327,29,-1.000000,""
104,w0,python3action_pyaes_4000,0.000000,1,-1.000000,1,COMPLETED_SUCCESSFULLY,673.077242,0.000010,673.077252,673.077242,673.077252,67307725.225374,29,-1.000000,""
99_updated,w0,python3action_facedetection_SampleVideo_30mb_nova,0.997085,1,2000.000000,1,COMPLETED_SUCCESSFULLY,513.877192,160.399990,674.277183,512.880107,673.280098,4.197507,27,-1.000000,""
99,w0,python3action_facedetection_SampleVideo_30mb,0.000000,1,-1.000000,1,COMPLETED_SUCCESSFULLY,674.277198,0.000010,674.277208,674.277198,674.277208,67427720.800201,27,-1.000000,""
121_updated,w0,python3action_chameleon_2000_taurus,0.997085,1,2000.000000,1,COMPLETED_SUCCESSFULLY,616.105943,64.199977,680.305920,615.108858,679.308835,10.581138,10,-1.000000,""
121,w0,python3action_chameleon_2000,0.000000,1,-1.000000,1,COMPLETED_SUCCESSFULLY,680.305935,0.000010,680.305945,680.305935,680.305945,68030594.500201,10,-1.000000,""
111_updated,w0,python3action_videoprocessing_SampleVideo_30mb_nova,0.997085,1,2000.000000,1,COMPLETED_SUCCESSFULLY,574.942025,106.799980,681.742005,573.944940,680.744920,6.374017,3,-1.000000,""
111,w0,python3action_videoprocessing_SampleVideo_30mb,0.000000,1,-1.000000,1,COMPLETED_SUCCESSFULLY,681.742020,0.000010,681.742030,681.742020,681.742030,68174203.047412,3,-1.000000,""
python3action_pyaes_job134_2,w0,python3action_pyaes,0.997085,1,2000.000000,1,COMPLETED_SUCCESSFULLY,681.742050,2.134958,683.877009,680.744965,682.879924,319.856338,3,-1.000000,""
170_updated,w0,python3action_linpack_5000_nova,0.997085,1,2000.000000,1,COMPLETED_SUCCESSFULLY,654.643330,34.600010,689.243340,653.646245,688.246255,19.891505,26,-1.000000,""
170,w0,python3action_linpack_5000,0.000000,1,-1.000000,1,COMPLETED_SUCCESSFULLY,689.243355,0.000010,689.243365,689.243355,689.243365,68924336.500201,26,-1.000000,""
145_updated,w0,python3action_imageprocessing_SampleImage_40mb_taurus,0.997085,1,2000.000000,1,COMPLETED_SUCCESSFULLY,662.256019,32.600046,694.856065,661.258934,693.858980,21.283988,15,-1.000000,""
145,w0,python3action_imageprocessing_SampleImage_40mb,0.000000,1,-1.000000,1,COMPLETED_SUCCESSFULLY,694.856080,0.000010,694.856090,694.856080,694.856090,69485609.013881,15,-1.000000,""
129_updated,w0,python3action_modeltraining_reviews100mb_taurus,0.997085,1,2000.000000,1,COMPLETED_SUCCESSFULLY,612.665093,88.199977,700.865070,611.668008,699.867985,7.935013,14,-1.000000,""
129,w0,python3action_modeltraining_reviews100mb,0.000000,1,-1.000000,1,COMPLETED_SUCCESSFULLY,700.865085,0.000010,700.865095,700.865085,700.865095,70086509.502469,14,-1.000000,""
196_updated,w0,python3action_chameleon_3000_troll,0.997085,1,2000.000000,1,COMPLETED_SUCCESSFULLY,615.769549,94.000000,709.769549,614.772464,708.772464,7.540133,20,-1.000000,""
196,w0,python3action_chameleon_3000,0.000000,1,-1.000000,1,COMPLETED_SUCCESSFULLY,709.769564,0.000010,709.769574,709.769564,709.769574,70976957.402610,20,-1.000000,""
128_updated,w0,python3action_videoprocessing_SampleVideo_30mb_nova,0.997085,1,2000.000000,1,COMPLETED_SUCCESSFULLY,608.077322,106.799980,714.877302,607.080237,713.880217,6.684273,28,-1.000000,""
128,w0,python3action_videoprocessing_SampleVideo_30mb,0.000000,1,-1.000000,1,COMPLETED_SUCCESSFULLY,714.877317,0.000010,714.877327,714.877317,714.877327,71487732.747412,28,-1.000000,""
137_updated,w0,python3action_modeltraining_reviews100mb_taurus,0.997085,1,2000.000000,1,COMPLETED_SUCCESSFULLY,626.865446,88.199977,715.065423,625.868361,714.068338,8.096015,13,-1.000000,""
137,w0,python3action_modeltraining_reviews100mb,0.000000,1,-1.000000,1,COMPLETED_SUCCESSFULLY,715.065438,0.000010,715.065448,715.065438,715.065448,71506544.833967,13,-1.000000,""
python3action_linpack_job153_20,w0,python3action_linpack_reduced_0.85,0.997085,1,2000.000000,1,COMPLETED_SUCCESSFULLY,714.877347,0.365992,715.243339,713.880262,714.246254,1951.536253,28,-1.000000,""
188_updated,w0,python3action_linpack_5000_nova,0.997085,1,2000.000000,1,COMPLETED_SUCCESSFULLY,689.243385,34.600010,723.843395,688.246300,722.846310,20.891506,26,-1.000000,""
188,w0,python3action_linpack_5000,0.000000,1,-1.000000,1,COMPLETED_SUCCESSFULLY,723.843410,0.000010,723.843420,723.843410,723.843420,72384342.000201,26,-1.000000,""
114_updated,w0,python3action_pyaes_4000_nova,0.997085,1,2000.000000,1,COMPLETED_SUCCESSFULLY,584.643059,139.600010,724.243069,583.645974,723.245984,5.180845,4,-1.000000,""
114,w0,python3action_pyaes_4000,0.000000,1,-1.000000,1,COMPLETED_SUCCESSFULLY,724.243084,0.000010,724.243094,724.243084,724.243094,72424309.400201,4,-1.000000,""
161_updated,w0,python3action_floatoperation_200000000_nova,0.997085,1,2000.000000,1,COMPLETED_SUCCESSFULLY,600.243157,135.399990,735.643148,599.246072,734.646063,5.425747,5,-1.000000,""
161,w0,python3action_floatoperation_200000000,0.000000,1,-1.000000,1,COMPLETED_SUCCESSFULLY,735.643163,0.000010,735.643173,735.643163,735.643173,73564317.300201,5,-1.000000,""
132_updated,w0,python3action_videoprocessing_SampleVideo_30mb_nova,0.997085,1,2000.000000,1,COMPLETED_SUCCESSFULLY,636.237111,106.799980,743.037092,635.240026,742.040007,6.947941,2,-1.000000,""
132,w0,python3action_videoprocessing_SampleVideo_30mb,0.000000,1,-1.000000,1,COMPLETED_SUCCESSFULLY,743.037107,0.000010,743.037117,743.037107,743.037117,74303711.700201,2,-1.000000,""
126_updated,w0,python3action_facedetection_SampleVideo_50mb_taurus,0.997085,1,2000.000000,1,COMPLETED_SUCCESSFULLY,613.915293,134.600046,748.515339,612.918208,747.518254,5.553626,11,-1.000000,""
126,w0,python3action_facedetection_SampleVideo_50mb,0.000000,1,-1.000000,1,COMPLETED_SUCCESSFULLY,748.515354,0.000010,748.515364,748.515354,748.515364,74851536.427561,11,-1.000000,""
139_updated,w0,python3action_linpack_6000_orion,0.997085,1,2000.000000,1,COMPLETED_SUCCESSFULLY,642.763402,106.000000,748.763402,641.766317,747.766317,7.054399,8,-1.000000,""
139,w0,python3action_linpack_6000,0.000000,1,-1.000000,1,COMPLETED_SUCCESSFULLY,748.763417,0.000010,748.763427,748.763417,748.763427,74876342.728291,8,-1.000000,""
142_updated,w0,python3action_linpack_6000_orion,0.997085,1,2000.000000,1,COMPLETED_SUCCESSFULLY,642.763462,106.000000,748.763462,641.766377,747.766377,7.054400,9,-1.000000,""
142,w0,python3action_linpack_6000,0.000000,1,-1.000000,1,COMPLETED_SUCCESSFULLY,748.763477,0.000010,748.763487,748.763477,748.763487,74876348.729094,9,-1.000000,""
153_updated,w0,python3action_linpack_5000_nova,0.997085,1,2000.000000,1,COMPLETED_SUCCESSFULLY,715.243354,34.600010,749.843364,714.246269,748.846279,21.642950,28,-1.000000,""
153,w0,python3action_linpack_5000,0.000000,1,-1.000000,1,COMPLETED_SUCCESSFULLY,749.843379,0.000010,749.843389,749.843379,749.843389,74984338.904518,28,-1.000000,""
130_updated,w0,python3action_pyaes_3000_nova,0.997085,1,2000.000000,1,COMPLETED_SUCCESSFULLY,673.077272,78.200020,751.277292,672.080187,750.280207,9.594374,29,-1.000000,""
130,w0,python3action_pyaes_3000,0.000000,1,-1.000000,1,COMPLETED_SUCCESSFULLY,751.277307,0.000010,751.277317,751.277307,751.277317,75127731.700201,29,-1.000000,""
123_updated,w0,python3action_pyaes_3000_nova,0.997085,1,2000.000000,1,COMPLETED_SUCCESSFULLY,674.277228,78.200020,752.477248,673.280143,751.480163,9.609718,27,-1.000000,""
123,w0,python3action_pyaes_3000,0.000000,1,-1.000000,1,COMPLETED_SUCCESSFULLY,752.477263,0.000010,752.477273,752.477263,752.477273,75247727.300201,27,-1.000000,""
python3action_chameleon_job136_10,w0,python3action_chameleon,0.997085,1,2000.000000,1,COMPLETED_SUCCESSFULLY,748.515384,5.040826,753.556210,747.518299,752.559125,149.292827,11,-1.000000,""
147_updated,w0,python3action_pyaes_4000_nova,0.997085,1,2000.000000,1,COMPLETED_SUCCESSFULLY,619.702382,139.600010,759.302392,618.705297,758.305307,5.431986,7,-1.000000,""
147,w0,python3action_pyaes_4000,0.000000,1,-1.000000,1,COMPLETED_SUCCESSFULLY,759.302407,0.000010,759.302417,759.302407,759.302417,75930241.700201,7,-1.000000,""
133_updated,w0,python3action_modeltraining_reviews100mb_taurus,0.997085,1,2000.000000,1,COMPLETED_SUCCESSFULLY,671.706009,88.199977,759.905986,670.708924,758.908901,8.604412,16,-1.000000,""
133,w0,python3action_modeltraining_reviews100mb,0.000000,1,-1.000000,1,COMPLETED_SUCCESSFULLY,759.906001,0.000010,759.906011,759.906001,759.906011,75990601.100201,16,-1.000000,""
134_updated,w0,python3action_pyaes_3000_nova,0.997085,1,2000.000000,1,COMPLETED_SUCCESSFULLY,683.877024,78.200020,762.077044,682.879939,761.079959,9.732478,3,-1.000000,""
134,w0,python3action_pyaes_3000,0.000000,1,-1.000000,1,COMPLETED_SUCCESSFULLY,762.077059,0.000010,762.077069,762.077059,762.077069,76207706.900201,3,-1.000000,""
135_updated,w0,python3action_modeltraining_reviews100mb_taurus,0.997085,1,2000.000000,1,COMPLETED_SUCCESSFULLY,680.305965,88.199977,768.505942,679.308880,767.508857,8.701917,10,-1.000000,""
135,w0,python3action_modeltraining_reviews100mb,0.000000,1,-1.000000,1,COMPLETED_SUCCESSFULLY,768.505957,0.000010,768.505967,768.505957,768.505967,76850596.700201,10,-1.000000,""
163_updated,w0,python3action_modeltraining_reviews100mb_taurus,0.997085,1,2000.000000,1,COMPLETED_SUCCESSFULLY,694.856110,88.199977,783.056087,693.859025,782.059002,8.866884,15,-1.000000,""
163,w0,python3action_modeltraining_reviews100mb,0.000000,1,-1.000000,1,COMPLETED_SUCCESSFULLY,783.056102,0.000010,783.056112,783.056102,783.056112,78305611.207944,15,-1.000000,""
python3action_video_processing_job185_13,w0,python3action_video_processing_reduced_2.8,0.997085,1,2000.000000,1,COMPLETED_SUCCESSFULLY,783.056132,0.000000,783.056132,782.059047,782.059047,75594111285775.328125,15,-1.000000,""
143_updated,w0,python3action_floatoperation_200000000_nova,0.997085,1,2000.000000,1,COMPLETED_SUCCESSFULLY,649.477147,135.399990,784.877137,648.480062,783.880052,5.789366,6,-1.000000,""
143,w0,python3action_floatoperation_200000000,0.000000,1,-1.000000,1,COMPLETED_SUCCESSFULLY,784.877152,0.000010,784.877162,784.877152,784.877162,78487716.223907,6,-1.000000,""
python3action_facedetection_job164_5,w0,python3action_facedetection_reduced_0.91,0.997085,1,2000.000000,1,COMPLETED_SUCCESSFULLY,784.877182,0.000000,784.877182,783.880097,783.880097,16035075008390.769531,6,-1.000000,""
144_updated,w0,python3action_modeltraining_reviews100mb_taurus,0.997085,1,2000.000000,1,COMPLETED_SUCCESSFULLY,700.865115,88.199977,789.065092,699.868030,788.068007,8.935014,14,-1.000000,""
144,w0,python3action_modeltraining_reviews100mb,0.000000,1,-1.000000,1,COMPLETED_SUCCESSFULLY,789.065107,0.000010,789.065117,789.065107,789.065117,78906511.700201,14,-1.000000,""
152_updated,w0,python3action_modeltraining_reviews50mb_nova,0.997085,1,2000.000000,1,COMPLETED_SUCCESSFULLY,752.477293,42.399990,794.877283,751.480208,793.880198,18.723594,27,-1.000000,""
152,w0,python3action_modeltraining_reviews50mb,0.000000,1,-1.000000,1,COMPLETED_SUCCESSFULLY,794.877298,0.000010,794.877308,794.877298,794.877308,79487730.823907,27,-1.000000,""
149_updated,w0,python3action_imageprocessing_SampleImage_40mb_taurus,0.997085,1,2000.000000,1,COMPLETED_SUCCESSFULLY,768.505987,32.600046,801.106033,767.508902,800.108948,24.543185,10,-1.000000,""
149,w0,python3action_imageprocessing_SampleImage_40mb,0.000000,1,-1.000000,1,COMPLETED_SUCCESSFULLY,801.106048,0.000010,801.106058,801.106048,801.106058,80110605.813881,10,-1.000000,""
184_updated,w0,python3action_floatoperation_200000000_nova,0.997085,1,2000.000000,1,COMPLETED_SUCCESSFULLY,666.702639,135.399990,802.102629,665.705554,801.105544,5.916585,25,-1.000000,""
184,w0,python3action_floatoperation_200000000,0.000000,1,-1.000000,1,COMPLETED_SUCCESSFULLY,802.102644,0.000010,802.102654,802.102644,802.102654,80210265.425513,25,-1.000000,""
138_updated,w0,python3action_pyaes_3000_nova,0.997085,1,2000.000000,1,COMPLETED_SUCCESSFULLY,724.243114,78.200020,802.443134,723.246029,801.446049,10.248668,4,-1.000000,""
138,w0,python3action_pyaes_3000,0.000000,1,-1.000000,1,COMPLETED_SUCCESSFULLY,802.443149,0.000010,802.443159,802.443149,802.443159,80244315.900201,4,-1.000000,""
136_updated,w0,python3action_chameleon_2000_taurus,0.997085,1,2000.000000,1,COMPLETED_SUCCESSFULLY,753.556225,64.199977,817.756202,752.559140,816.759117,12.722109,11,-1.000000,""
136,w0,python3action_chameleon_2000,0.000000,1,-1.000000,1,COMPLETED_SUCCESSFULLY,817.756217,0.000010,817.756227,817.756217,817.756227,81775622.700201,11,-1.000000,""
162_updated,w0,python3action_imageprocessing_SampleImage_40mb_taurus,0.997085,1,2000.000000,1,COMPLETED_SUCCESSFULLY,789.065137,32.600046,821.665183,788.068052,820.668098,25.173832,14,-1.000000,""
162,w0,python3action_imageprocessing_SampleImage_40mb,0.000000,1,-1.000000,1,COMPLETED_SUCCESSFULLY,821.665198,0.000010,821.665208,821.665198,821.665208,82166520.813881,14,-1.000000,""
146_updated,w0,python3action_chameleon_2000_taurus,0.997085,1,2000.000000,1,COMPLETED_SUCCESSFULLY,759.906031,64.199977,824.106008,758.908946,823.108923,12.821016,16,-1.000000,""
146,w0,python3action_chameleon_2000,0.000000,1,-1.000000,1,COMPLETED_SUCCESSFULLY,824.106023,0.000010,824.106033,824.106023,824.106033,82410603.300201,16,-1.000000,""
173_updated,w0,python3action_pyaes_3000_nova,0.997085,1,2000.000000,1,COMPLETED_SUCCESSFULLY,749.843409,78.200020,828.043429,748.846324,827.046344,10.576038,28,-1.000000,""
173,w0,python3action_pyaes_3000,0.000000,1,-1.000000,1,COMPLETED_SUCCESSFULLY,828.043444,0.000010,828.043454,828.043444,828.043454,82804345.400201,28,-1.000000,""
159_updated,w0,python3action_facedetection_SampleVideo_50mb_taurus,0.997085,1,2000.000000,1,COMPLETED_SUCCESSFULLY,715.065468,134.600046,849.665514,714.068383,848.668429,6.305112,13,-1.000000,""
159,w0,python3action_facedetection_SampleVideo_50mb,0.000000,1,-1.000000,1,COMPLETED_SUCCESSFULLY,849.665529,0.000010,849.665539,849.665529,849.665539,84966553.947648,13,-1.000000,""
176_updated,w0,python3action_imageprocessing_SampleImage_40mb_taurus,0.997085,1,2000.000000,1,COMPLETED_SUCCESSFULLY,821.665228,32.600046,854.265274,820.668143,853.268189,26.173834,14,-1.000000,""
176,w0,python3action_imageprocessing_SampleImage_40mb,0.000000,1,-1.000000,1,COMPLETED_SUCCESSFULLY,854.265289,0.000010,854.265299,854.265289,854.265299,85426529.927562,14,-1.000000,""
151_updated,w0,python3action_linpack_6000_orion,0.997085,1,2000.000000,1,COMPLETED_SUCCESSFULLY,748.763447,106.000000,854.763447,747.766362,853.766362,8.054400,8,-1.000000,""
151,w0,python3action_linpack_6000,0.000000,1,-1.000000,1,COMPLETED_SUCCESSFULLY,854.763462,0.000010,854.763472,854.763462,854.763472,85476347.228893,8,-1.000000,""
156_updated,w0,python3action_linpack_6000_orion,0.997085,1,2000.000000,1,COMPLETED_SUCCESSFULLY,748.763507,106.000000,854.763507,747.766422,853.766422,8.054400,9,-1.000000,""
156,w0,python3action_linpack_6000,0.000000,1,-1.000000,1,COMPLETED_SUCCESSFULLY,854.763522,0.000010,854.763532,854.763522,854.763532,85476353.229697,9,-1.000000,""
166_updated,w0,python3action_chameleon_2000_taurus,0.997085,1,2000.000000,1,COMPLETED_SUCCESSFULLY,801.106078,64.199977,865.306055,800.108993,864.308970,13.462761,10,-1.000000,""
166,w0,python3action_chameleon_2000,0.000000,1,-1.000000,1,COMPLETED_SUCCESSFULLY,865.306070,0.000010,865.306080,865.306070,865.306080,86530608.007945,10,-1.000000,""
171_updated,w0,python3action_pyaes_3000_nova,0.997085,1,2000.000000,1,COMPLETED_SUCCESSFULLY,794.877328,78.200020,873.077348,793.880243,872.080263,11.151919,27,-1.000000,""
171,w0,python3action_pyaes_3000,0.000000,1,-1.000000,1,COMPLETED_SUCCESSFULLY,873.077363,0.000010,873.077373,873.077363,873.077373,87307737.300201,27,-1.000000,""
155_updated,w0,python3action_chameleon_2000_taurus,0.997085,1,2000.000000,1,COMPLETED_SUCCESSFULLY,817.756247,64.199977,881.956224,816.759162,880.959139,13.722110,11,-1.000000,""
155,w0,python3action_chameleon_2000,0.000000,1,-1.000000,1,COMPLETED_SUCCESSFULLY,881.956239,0.000010,881.956249,881.956239,881.956249,88195624.900201,11,-1.000000,""
175_updated,w0,python3action_imageprocessing_SampleImage_40mb_taurus,0.997085,1,2000.000000,1,COMPLETED_SUCCESSFULLY,849.665559,32.600046,882.265606,848.668474,881.268521,27.032738,13,-1.000000,""
175,w0,python3action_imageprocessing_SampleImage_40mb,0.000000,1,-1.000000,1,COMPLETED_SUCCESSFULLY,882.265621,0.000010,882.265631,882.265621,882.265631,88226563.100201,13,-1.000000,""
157_updated,w0,python3action_pyaes_4000_nova,0.997085,1,2000.000000,1,COMPLETED_SUCCESSFULLY,743.037137,139.600010,882.637147,742.040052,881.640062,6.315473,2,-1.000000,""
157,w0,python3action_pyaes_4000,0.000000,1,-1.000000,1,COMPLETED_SUCCESSFULLY,882.637162,0.000010,882.637172,882.637162,882.637172,88263717.200201,2,-1.000000,""
154_updated,w0,python3action_floatoperation_200000000_nova,0.997085,1,2000.000000,1,COMPLETED_SUCCESSFULLY,751.277337,135.399990,886.677327,750.280252,885.680242,6.541213,29,-1.000000,""
154,w0,python3action_floatoperation_200000000,0.000000,1,-1.000000,1,COMPLETED_SUCCESSFULLY,886.677342,0.000010,886.677352,886.677342,886.677352,88667735.223907,29,-1.000000,""
python3action_modeltraining_job174_21,w0,python3action_modeltraining_reduced_0.94,0.997085,1,2000.000000,1,COMPLETED_SUCCESSFULLY,886.677372,0.000000,886.677372,885.680287,885.680287,18117502777968.570312,29,-1.000000,""
180_updated,w0,python3action_facedetection_SampleVideo_30mb_nova,0.997085,1,2000.000000,1,COMPLETED_SUCCESSFULLY,735.643193,160.399990,896.043183,734.646108,895.046098,5.580088,5,-1.000000,""
180,w0,python3action_facedetection_SampleVideo_30mb,0.000000,1,-1.000000,1,COMPLETED_SUCCESSFULLY,896.043198,0.000010,896.043208,896.043198,896.043208,89604320.823907,5,-1.000000,""
158_updated,w0,python3action_floatoperation_200000000_nova,0.997085,1,2000.000000,1,COMPLETED_SUCCESSFULLY,762.077089,135.399990,897.477079,761.080004,896.479994,6.620975,3,-1.000000,""
158,w0,python3action_floatoperation_200000000,0.000000,1,-1.000000,1,COMPLETED_SUCCESSFULLY,897.477094,0.000010,897.477104,897.477094,897.477104,89747710.423907,3,-1.000000,""
167_updated,w0,python3action_pyaes_4000_nova,0.997085,1,2000.000000,1,COMPLETED_SUCCESSFULLY,759.302437,139.600010,898.902447,758.305352,897.905362,6.431986,7,-1.000000,""
167,w0,python3action_pyaes_4000,0.000000,1,-1.000000,1,COMPLETED_SUCCESSFULLY,898.902462,0.000010,898.902472,898.902462,898.902472,89890247.200201,7,-1.000000,""
165_updated,w0,python3action_modeltraining_reviews100mb_taurus,0.997085,1,2000.000000,1,COMPLETED_SUCCESSFULLY,824.106053,88.199977,912.306030,823.108968,911.308945,10.332304,16,-1.000000,""
165,w0,python3action_modeltraining_reviews100mb,0.000000,1,-1.000000,1,COMPLETED_SUCCESSFULLY,912.306045,0.000010,912.306055,912.306045,912.306055,91230605.500201,16,-1.000000,""
174_updated,w0,python3action_modeltraining_reviews50mb_nova,0.997085,1,2000.000000,1,COMPLETED_SUCCESSFULLY,886.677402,42.399990,929.077392,885.680317,928.080307,21.888692,29,-1.000000,""
174,w0,python3action_modeltraining_reviews50mb,0.000000,1,-1.000000,1,COMPLETED_SUCCESSFULLY,929.077407,0.000010,929.077417,929.077407,929.077417,92907741.748014,29,-1.000000,""
python3action_video_processing_job191_21,w0,python3action_video_processing_reduced_1.89,0.997085,1,2000.000000,1,COMPLETED_SUCCESSFULLY,929.077437,0.000000,929.077437,928.080352,928.080352,209320028526520.156250,29,-1.000000,""
187_updated,w0,python3action_chameleon_2000_taurus,0.997085,1,2000.000000,1,COMPLETED_SUCCESSFULLY,865.306100,64.199977,929.506077,864.309015,928.508992,14.462762,10,-1.000000,""
187,w0,python3action_chameleon_2000,0.000000,1,-1.000000,1,COMPLETED_SUCCESSFULLY,929.506092,0.000010,929.506102,929.506092,929.506102,92950610.202008,10,-1.000000,""
190_updated,w0,python3action_videoprocessing_SampleVideo_30mb_nova,0.997085,1,2000.000000,1,COMPLETED_SUCCESSFULLY,828.043474,106.799980,934.843454,827.046389,933.846369,8.743881,28,-1.000000,""
190,w0,python3action_videoprocessing_SampleVideo_30mb,0.000000,1,-1.000000,1,COMPLETED_SUCCESSFULLY,934.843469,0.000010,934.843479,934.843469,934.843479,93484347.947010,28,-1.000000,""
185_updated,w0,python3action_videoprocessing_SampleVideo_50mb_taurus,0.997085,1,2000.000000,1,COMPLETED_SUCCESSFULLY,783.056162,154.250029,937.306191,782.059077,936.309106,6.070074,15,-1.000000,""
185,w0,python3action_videoprocessing_SampleVideo_50mb,0.000000,1,-1.000000,1,COMPLETED_SUCCESSFULLY,937.306206,0.000010,937.306216,937.306206,937.306216,93730621.600201,15,-1.000000,""
199_updated,w0,python3action_modeltraining_reviews50mb_nova,0.997085,1,2000.000000,1,COMPLETED_SUCCESSFULLY,896.043228,42.399990,938.443218,895.046143,937.446133,22.109584,5,-1.000000,""
199,w0,python3action_modeltraining_reviews50mb,0.000000,1,-1.000000,1,COMPLETED_SUCCESSFULLY,938.443233,0.000010,938.443243,938.443233,938.443243,93844324.347613,5,-1.000000,""
189_updated,w0,python3action_floatoperation_100000000_nova,0.997085,1,2000.000000,1,COMPLETED_SUCCESSFULLY,873.077393,66.200020,939.277413,872.080308,938.280328,14.173415,27,-1.000000,""
189,w0,python3action_floatoperation_100000000,0.000000,1,-1.000000,1,COMPLETED_SUCCESSFULLY,939.277428,0.000010,939.277438,939.277428,939.277438,93927743.800201,27,-1.000000,""
182_updated,w0,python3action_modeltraining_reviews50mb_nova,0.997085,1,2000.000000,1,COMPLETED_SUCCESSFULLY,898.902492,42.399990,941.302482,897.905407,940.305397,22.177019,7,-1.000000,""
182,w0,python3action_modeltraining_reviews50mb,0.000000,1,-1.000000,1,COMPLETED_SUCCESSFULLY,941.302497,0.000010,941.302507,941.302497,941.302507,94130250.723907,7,-1.000000,""
164_updated,w0,python3action_facedetection_SampleVideo_30mb_nova,0.997085,1,2000.000000,1,COMPLETED_SUCCESSFULLY,784.877212,160.399990,945.277202,783.880127,944.280117,5.887034,6,-1.000000,""
164,w0,python3action_facedetection_SampleVideo_30mb,0.000000,1,-1.000000,1,COMPLETED_SUCCESSFULLY,945.277217,0.000010,945.277227,945.277217,945.277227,94527722.748014,6,-1.000000,""
193_updated,w0,python3action_linpack_6000_orion,0.997085,1,2000.000000,1,COMPLETED_SUCCESSFULLY,854.763492,106.000000,960.763492,853.766407,959.766407,9.054400,8,-1.000000,""
193,w0,python3action_linpack_6000,0.000000,1,-1.000000,1,COMPLETED_SUCCESSFULLY,960.763507,0.000010,960.763517,960.763507,960.763517,96076351.729496,8,-1.000000,""
160_updated,w0,python3action_facedetection_SampleVideo_30mb_nova,0.997085,1,2000.000000,1,COMPLETED_SUCCESSFULLY,802.443179,160.399990,962.843169,801.446094,961.846084,5.996547,4,-1.000000,""
160,w0,python3action_facedetection_SampleVideo_30mb,0.000000,1,-1.000000,1,COMPLETED_SUCCESSFULLY,962.843184,0.000010,962.843194,962.843184,962.843194,96284319.423907,4,-1.000000,""
177_updated,w0,python3action_videoprocessing_SampleVideo_30mb_nova,0.997085,1,2000.000000,1,COMPLETED_SUCCESSFULLY,882.637192,106.799980,989.437172,881.640107,988.440087,9.255059,2,-1.000000,""
177,w0,python3action_videoprocessing_SampleVideo_30mb,0.000000,1,-1.000000,1,COMPLETED_SUCCESSFULLY,989.437187,0.000010,989.437197,989.437187,989.437197,98943719.747010,2,-1.000000,""
python3action_linpack_job192_1,w0,python3action_linpack_reduced_0.85,0.997085,1,2000.000000,1,COMPLETED_SUCCESSFULLY,989.437217,0.365992,989.803209,988.440132,988.806124,2701.716651,2,-1.000000,""
192_updated,w0,python3action_linpack_5000_nova,0.997085,1,2000.000000,1,COMPLETED_SUCCESSFULLY,989.803224,34.600010,1024.403234,988.806139,1023.406149,29.578204,2,-1.000000,""
192,w0,python3action_linpack_5000,0.000000,1,-1.000000,1,COMPLETED_SUCCESSFULLY,1024.403249,0.000010,1024.403259,1024.403249,1024.403259,102440325.904117,2,-1.000000,""
191_updated,w0,python3action_videoprocessing_SampleVideo_30mb_nova,0.997085,1,2000.000000,1,COMPLETED_SUCCESSFULLY,929.077467,106.799980,1035.877448,928.080382,1034.880363,9.689893,29,-1.000000,""
191,w0,python3action_videoprocessing_SampleVideo_30mb,0.000000,1,-1.000000,1,COMPLETED_SUCCESSFULLY,1035.877463,0.000010,1035.877473,1035.877463,1035.877473,103587747.300201,29,-1.000000,""
172_updated,w0,python3action_videoprocessing_SampleVideo_50mb_taurus,0.997085,1,2000.000000,1,COMPLETED_SUCCESSFULLY,881.956269,154.250029,1036.206298,880.959184,1035.209213,6.711242,11,-1.000000,""
172,w0,python3action_videoprocessing_SampleVideo_50mb,0.000000,1,-1.000000,1,COMPLETED_SUCCESSFULLY,1036.206313,0.000010,1036.206323,1036.206313,1036.206323,103620632.300201,11,-1.000000,""
186_updated,w0,python3action_facedetection_SampleVideo_50mb_taurus,0.997085,1,2000.000000,1,COMPLETED_SUCCESSFULLY,912.306075,134.600046,1046.906121,911.308990,1045.909036,7.770495,16,-1.000000,""
186,w0,python3action_facedetection_SampleVideo_50mb,0.000000,1,-1.000000,1,COMPLETED_SUCCESSFULLY,1046.906136,0.000010,1046.906146,1046.906136,1046.906146,104690614.613881,16,-1.000000,""
178_updated,w0,python3action_facedetection_SampleVideo_30mb_nova,0.997085,1,2000.000000,1,COMPLETED_SUCCESSFULLY,897.477124,160.399990,1057.877114,896.480039,1056.880029,6.589028,3,-1.000000,""
178,w0,python3action_facedetection_SampleVideo_30mb,0.000000,1,-1.000000,1,COMPLETED_SUCCESSFULLY,1057.877129,0.000010,1057.877139,1057.877129,1057.877139,105787713.947613,3,-1.000000,""
197_updated,w0,python3action_imageprocessing_SampleImage_40mb_taurus,0.997085,1,2000.000000,1,COMPLETED_SUCCESSFULLY,1036.206343,32.600046,1068.806389,1035.209258,1067.809304,32.754840,11,-1.000000,""
197,w0,python3action_imageprocessing_SampleImage_40mb,0.000000,1,-1.000000,1,COMPLETED_SUCCESSFULLY,1068.806404,0.000010,1068.806414,1068.806404,1068.806414,106880641.413881,11,-1.000000,""
181_updated,w0,python3action_pyaes_4000_nova,0.997085,1,2000.000000,1,COMPLETED_SUCCESSFULLY,945.277247,139.600010,1084.877257,944.280162,1083.880172,7.764184,6,-1.000000,""
181,w0,python3action_pyaes_4000,0.000000,1,-1.000000,1,COMPLETED_SUCCESSFULLY,1084.877272,0.000010,1084.877282,1084.877272,1084.877282,108487728.225513,6,-1.000000,""
194_updated,w0,python3action_modeltraining_reviews50mb_nova,0.997085,1,2000.000000,1,COMPLETED_SUCCESSFULLY,1057.877159,42.399990,1100.277150,1056.880074,1099.280065,25.926423,3,-1.000000,""
194,w0,python3action_modeltraining_reviews50mb,0.000000,1,-1.000000,1,COMPLETED_SUCCESSFULLY,1100.277165,0.000010,1100.277175,1100.277165,1100.277175,110027717.500201,3,-1.000000,""
179_updated,w0,python3action_facedetection_SampleVideo_30mb_nova,0.997085,1,2000.000000,1,COMPLETED_SUCCESSFULLY,962.843214,160.399990,1123.243204,961.846129,1122.246119,6.996547,4,-1.000000,""
179,w0,python3action_facedetection_SampleVideo_30mb,0.000000,1,-1.000000,1,COMPLETED_SUCCESSFULLY,1123.243219,0.000010,1123.243229,1123.243219,1123.243229,112324322.947613,4,-1.000000,""
198_updated,w0,python3action_floatoperation_200000000_nova,0.997085,1,2000.000000,1,COMPLETED_SUCCESSFULLY,1123.243249,135.399990,1258.643240,1122.246164,1257.646155,9.288377,4,-1.000000,""
198,w0,python3action_floatoperation_200000000,0.000000,1,-1.000000,1,COMPLETED_SUCCESSFULLY,1258.643255,0.000010,1258.643265,1258.643255,1258.643265,125864326.500201,4,-1.000000,""
