job_id,workload_name,profile,submission_time,requested_number_of_resources,requested_time,success,final_state,starting_time,execution_time,finish_time,waiting_time,turnaround_time,stretch,allocated_resources,consumed_energy,metadata
python3action_chameleon_job6_38,w0,python3action_chameleon,0.997085,1,2000.000000,1,COMPLETED_SUCCESSFULLY,1.002801,0.867914,1.870714,0.005716,0.873629,1.006586,46,-1.000000,""
python3action_chameleon_job8_39,w0,python3action_chameleon,0.997085,1,2000.000000,1,COMPLETED_SUCCESSFULLY,1.002816,0.867914,1.870729,0.005731,0.873644,1.006603,47,-1.000000,""
python3action_chameleon_job11_41,w0,python3action_chameleon,0.997085,1,2000.000000,1,COMPLETED_SUCCESSFULLY,1.002846,0.892694,1.895540,0.005761,0.898455,1.006453,49,-1.000000,""
python3action_chameleon_job54_42,w0,python3action_chameleon,0.997085,1,2000.000000,1,COMPLETED_SUCCESSFULLY,1.002861,0.892694,1.895555,0.005776,0.898470,1.006470,50,-1.000000,""
python3action_chameleon_job108_43,w0,python3action_chameleon,0.997085,1,2000.000000,1,COMPLETED_SUCCESSFULLY,1.002876,0.892694,1.895570,0.005791,0.898485,1.006487,51,-1.000000,""
python3action_chameleon_job116_44,w0,python3action_chameleon,0.997085,1,2000.000000,1,COMPLETED_SUCCESSFULLY,1.002891,0.892694,1.895585,0.005806,0.898500,1.006504,52,-1.000000,""
python3action_pyaes_job4_4,w0,python3action_pyaes,0.997085,1,2000.000000,1,COMPLETED_SUCCESSFULLY,1.002291,2.134958,3.137249,0.005206,2.140164,1.002438,6,-1.000000,""
python3action_pyaes_job13_5,w0,python3action_pyaes,0.997085,1,2000.000000,1,COMPLETED_SUCCESSFULLY,1.002306,2.134958,3.137264,0.005221,2.140179,1.002445,7,-1.000000,""
python3action_pyaes_job15_7,w0,python3action_pyaes,0.997085,1,2000.000000,1,COMPLETED_SUCCESSFULLY,1.002336,2.134958,3.137294,0.005251,2.140209,1.002459,9,-1.000000,""
python3action_pyaes_job18_9,w0,python3action_pyaes,0.997085,1,2000.000000,1,COMPLETED_SUCCESSFULLY,1.002366,2.134958,3.137324,0.005281,2.140239,1.002473,11,-1.000000,""
python3action_pyaes_job26_11,w0,python3action_pyaes,0.997085,1,2000.000000,1,COMPLETED_SUCCESSFULLY,1.002396,2.134958,3.137354,0.005311,2.140269,1.002488,14,-1.000000,""
python3action_floatoperation_job17_8,w0,python3action_floatoperation,0.997085,1,2000.000000,1,COMPLETED_SUCCESSFULLY,1.002351,2.439945,3.442296,0.005266,2.445211,1.002158,10,-1.000000,""
python3action_floatoperation_job27_12,w0,python3action_floatoperation,0.997085,1,2000.000000,1,COMPLETED_SUCCESSFULLY,1.002411,2.439945,3.442356,0.005326,2.445271,1.002183,15,-1.000000,""
python3action_floatoperation_job28_13,w0,python3action_floatoperation,0.997085,1,2000.000000,1,COMPLETED_SUCCESSFULLY,1.002426,2.439945,3.442371,0.005341,2.445286,1.002189,16,-1.000000,""
python3action_floatoperation_job31_14,w0,python3action_floatoperation,0.997085,1,2000.000000,1,COMPLETED_SUCCESSFULLY,1.002441,2.439945,3.442386,0.005356,2.445301,1.002195,17,-1.000000,""
python3action_floatoperation_job32_15,w0,python3action_floatoperation,0.997085,1,2000.000000,1,COMPLETED_SUCCESSFULLY,1.002456,2.439945,3.442401,0.005371,2.445316,1.002201,18,-1.000000,""
python3action_floatoperation_job42_19,w0,python3action_floatoperation,0.997085,1,2000.000000,1,COMPLETED_SUCCESSFULLY,1.002516,2.439945,3.442461,0.005431,2.445376,1.002226,22,-1.000000,""
python3action_floatoperation_job43_20,w0,python3action_floatoperation,0.997085,1,2000.000000,1,COMPLETED_SUCCESSFULLY,1.002531,2.439945,3.442476,0.005446,2.445391,1.002232,24,-1.000000,""
python3action_linpack_job25_23,w0,python3action_linpack,0.997085,1,2000.000000,1,COMPLETED_SUCCESSFULLY,1.002576,5.760927,6.763503,0.005491,5.766418,1.000953,27,-1.000000,""
python3action_linpack_job33_24,w0,python3action_linpack,0.997085,1,2000.000000,1,COMPLETED_SUCCESSFULLY,1.002591,5.760927,6.763518,0.005506,5.766433,1.000956,28,-1.000000,""
python3action_linpack_job10_27,w0,python3action_linpack,0.997085,1,2000.000000,1,COMPLETED_SUCCESSFULLY,1.002636,5.760927,6.763563,0.005551,5.766478,1.000964,31,-1.000000,""
python3action_linpack_job30_34,w0,python3action_linpack,0.997085,1,2000.000000,1,COMPLETED_SUCCESSFULLY,1.002741,5.760927,6.763668,0.005656,5.766583,1.000982,39,-1.000000,""
python3action_linpack_job36_36,w0,python3action_linpack,0.997085,1,2000.000000,1,COMPLETED_SUCCESSFULLY,1.002771,5.760927,6.763698,0.005686,5.766613,1.000987,41,-1.000000,""
python3action_image_processing_job5_37,w0,python3action_image_processing,0.997085,1,2000.000000,1,COMPLETED_SUCCESSFULLY,1.002786,12.398880,13.401666,0.005701,12.404581,1.000460,44,-1.000000,""
python3action_image_processing_job12_40,w0,python3action_image_processing,0.997085,1,2000.000000,1,COMPLETED_SUCCESSFULLY,1.002831,12.398880,13.401711,0.005746,12.404626,1.000463,48,-1.000000,""
python3action_modeltraining_job0_0,w0,python3action_modeltraining,0.997085,1,2000.000000,1,COMPLETED_SUCCESSFULLY,1.002231,30.499683,31.501913,0.005146,30.504828,1.000169,2,-1.000000,""
python3action_facedetection_job1_1,w0,python3action_facedetection,0.997085,1,2000.000000,1,COMPLETED_SUCCESSFULLY,1.002246,30.499683,31.501928,0.005161,30.504843,1.000169,3,-1.000000,""
python3action_video_processing_job2_2,w0,python3action_video_processing,0.997085,1,2000.000000,1,COMPLETED_SUCCESSFULLY,1.002261,30.499683,31.501943,0.005176,30.504858,1.000170,4,-1.000000,""
python3action_video_processing_job3_3,w0,python3action_video_processing,0.997085,1,2000.000000,1,COMPLETED_SUCCESSFULLY,1.002276,30.499683,31.501958,0.005191,30.504873,1.000170,5,-1.000000,""
python3action_modeltraining_job14_6,w0,python3action_modeltraining,0.997085,1,2000.000000,1,COMPLETED_SUCCESSFULLY,1.002321,30.499683,31.502003,0.005236,30.504918,1.000172,8,-1.000000,""
python3action_modeltraining_job20_10,w0,python3action_modeltraining,0.997085,1,2000.000000,1,COMPLETED_SUCCESSFULLY,1.002381,30.499683,31.502063,0.005296,30.504978,1.000174,13,-1.000000,""
python3action_video_processing_job34_16,w0,python3action_video_processing,0.997085,1,2000.000000,1,COMPLETED_SUCCESSFULLY,1.002471,30.499683,31.502153,0.005386,30.505068,1.000177,19,-1.000000,""
python3action_modeltraining_job38_17,w0,python3action_modeltraining,0.997085,1,2000.000000,1,COMPLETED_SUCCESSFULLY,1.002486,30.499683,31.502168,0.005401,30.505083,1.000177,20,-1.000000,""
python3action_modeltraining_job39_18,w0,python3action_modeltraining,0.997085,1,2000.000000,1,COMPLETED_SUCCESSFULLY,1.002501,30.499683,31.502183,0.005416,30.505098,1.000178,21,-1.000000,""
python3action_facedetection_job46_21,w0,python3action_facedetection,0.997085,1,2000.000000,1,COMPLETED_SUCCESSFULLY,1.002546,30.499683,31.502228,0.005461,30.505143,1.000179,25,-1.000000,""
6_updated,w0,python3action_chameleon_2000_troll,0.997085,1,2000.000000,1,COMPLETED_SUCCESSFULLY,1.870729,39.500010,41.370739,0.873644,40.373654,1.022118,46,-1.000000,""
6,w0,python3action_chameleon_2000,0.000000,1,-1.000000,1,COMPLETED_SUCCESSFULLY,41.370754,0.000010,41.370764,41.370754,41.370764,4137076.436074,46,-1.000000,""
8_updated,w0,python3action_chameleon_2000_troll,0.997085,1,2000.000000,1,COMPLETED_SUCCESSFULLY,1.870759,39.500010,41.370769,0.873674,40.373684,1.022118,47,-1.000000,""
8,w0,python3action_chameleon_2000,0.000000,1,-1.000000,1,COMPLETED_SUCCESSFULLY,41.370799,0.000010,41.370809,41.370799,41.370809,4137080.936677,47,-1.000000,""
10_updated,w0,python3action_linpack_5000_taurus,0.997085,1,2000.000000,1,COMPLETED_SUCCESSFULLY,6.763578,38.500058,45.263636,5.766493,44.266551,1.149779,31,-1.000000,""
10,w0,python3action_linpack_5000,0.000000,1,-1.000000,1,COMPLETED_SUCCESSFULLY,45.263651,0.000010,45.263661,45.263651,45.263661,4526366.100201,31,-1.000000,""
30_updated,w0,python3action_linpack_5000_taurus,0.997085,1,2000.000000,1,COMPLETED_SUCCESSFULLY,6.763683,38.500058,45.263741,5.766598,44.266656,1.149782,39,-1.000000,""
30,w0,python3action_linpack_5000,0.000000,1,-1.000000,1,COMPLETED_SUCCESSFULLY,45.263756,0.000010,45.263766,45.263756,45.263766,4526376.600201,39,-1.000000,""
36_updated,w0,python3action_linpack_5000_taurus,0.997085,1,2000.000000,1,COMPLETED_SUCCESSFULLY,6.763713,38.500058,45.263771,5.766628,44.266686,1.149782,41,-1.000000,""
36,w0,python3action_linpack_5000,0.000000,1,-1.000000,1,COMPLETED_SUCCESSFULLY,45.263801,0.000010,45.263811,45.263801,45.263811,4526381.100402,41,-1.000000,""
42_updated,w0,python3action_floatoperation_100000000_nova,0.997085,1,2000.000000,1,COMPLETED_SUCCESSFULLY,3.442476,66.200020,69.642496,2.445391,68.645411,1.036939,22,-1.000000,""
42,w0,python3action_floatoperation_100000000,0.000000,1,-1.000000,1,COMPLETED_SUCCESSFULLY,69.642511,0.000010,69.642521,69.642511,69.642521,6964252.100201,22,-1.000000,""
python3action_image_processing_job16_22,w0,python3action_image_processing,0.997085,1,2000.000000,1,COMPLETED_SUCCESSFULLY,1.002561,72.012455,73.015016,0.005476,72.017931,1.000076,26,-1.000000,""
python3action_image_processing_job7_25,w0,python3action_image_processing,0.997085,1,2000.000000,1,COMPLETED_SUCCESSFULLY,1.002606,72.012455,73.015061,0.005521,72.017976,1.000077,29,-1.000000,""
python3action_image_processing_job9_26,w0,python3action_image_processing,0.997085,1,2000.000000,1,COMPLETED_SUCCESSFULLY,1.002621,72.012455,73.015076,0.005536,72.017991,1.000077,30,-1.000000,""
python3action_video_processing_job19_28,w0,python3action_video_processing,0.997085,1,2000.000000,1,COMPLETED_SUCCESSFULLY,1.002651,72.012455,73.015106,0.005566,72.018021,1.000077,32,-1.000000,""
python3action_image_processing_job21_29,w0,python3action_image_processing,0.997085,1,2000.000000,1,COMPLETED_SUCCESSFULLY,1.002666,72.012455,73.015121,0.005581,72.018036,1.000077,33,-1.000000,""
python3action_video_processing_job22_30,w0,python3action_video_processing,0.997085,1,2000.000000,1,COMPLETED_SUCCESSFULLY,1.002681,72.012455,73.015136,0.005596,72.018051,1.000078,35,-1.000000,""
python3action_modeltraining_job23_31,w0,python3action_modeltraining,0.997085,1,2000.000000,1,COMPLETED_SUCCESSFULLY,1.002696,72.012455,73.015151,0.005611,72.018066,1.000078,36,-1.000000,""
python3action_modeltraining_job24_32,w0,python3action_modeltraining,0.997085,1,2000.000000,1,COMPLETED_SUCCESSFULLY,1.002711,72.012455,73.015166,0.005626,72.018081,1.000078,37,-1.000000,""
python3action_facedetection_job29_33,w0,python3action_facedetection,0.997085,1,2000.000000,1,COMPLETED_SUCCESSFULLY,1.002726,72.012455,73.015181,0.005641,72.018096,1.000078,38,-1.000000,""
python3action_modeltraining_job35_35,w0,python3action_modeltraining,0.997085,1,2000.000000,1,COMPLETED_SUCCESSFULLY,1.002756,72.012455,73.015211,0.005671,72.018126,1.000079,40,-1.000000,""
0_updated,w0,python3action_modeltraining_reviews50mb_nova,0.997085,1,2000.000000,1,COMPLETED_SUCCESSFULLY,31.501928,42.399990,73.901918,30.504843,72.904833,1.719454,2,-1.000000,""
0,w0,python3action_modeltraining_reviews50mb,0.000000,1,-1.000000,1,COMPLETED_SUCCESSFULLY,73.901933,0.000010,73.901943,73.901933,73.901943,7390194.343248,2,-1.000000,""
14_updated,w0,python3action_modeltraining_reviews50mb_nova,0.997085,1,2000.000000,1,COMPLETED_SUCCESSFULLY,31.502033,42.399990,73.902023,30.504948,72.904938,1.719456,8,-1.000000,""
14,w0,python3action_modeltraining_reviews50mb,0.000000,1,-1.000000,1,COMPLETED_SUCCESSFULLY,73.902038,0.000010,73.902048,73.902038,73.902048,7390204.844653,8,-1.000000,""
20_updated,w0,python3action_modeltraining_reviews50mb_nova,0.997085,1,2000.000000,1,COMPLETED_SUCCESSFULLY,31.502078,42.399990,73.902068,30.504993,72.904983,1.719458,13,-1.000000,""
20,w0,python3action_modeltraining_reviews50mb,0.000000,1,-1.000000,1,COMPLETED_SUCCESSFULLY,73.902098,0.000010,73.902108,73.902098,73.902108,7390210.845457,13,-1.000000,""
38_updated,w0,python3action_modeltraining_reviews50mb_nova,0.997085,1,2000.000000,1,COMPLETED_SUCCESSFULLY,31.502198,42.399990,73.902188,30.505113,72.905103,1.719460,20,-1.000000,""
39_updated,w0,python3action_modeltraining_reviews50mb_nova,0.997085,1,2000.000000,1,COMPLETED_SUCCESSFULLY,31.502213,42.399990,73.902203,30.505128,72.905118,1.719461,21,-1.000000,""
38,w0,python3action_modeltraining_reviews50mb,0.000000,1,-1.000000,1,COMPLETED_SUCCESSFULLY,73.902203,0.000010,73.902213,73.902203,73.902213,7390221.346862,20,-1.000000,""
39,w0,python3action_modeltraining_reviews50mb,0.000000,1,-1.000000,1,COMPLETED_SUCCESSFULLY,73.902233,0.000010,73.902243,73.902233,73.902243,7390224.347264,21,-1.000000,""
python3action_video_processing_job75_18,w0,python3action_video_processing_reduced_0.97,0.997085,1,2000.000000,1,COMPLETED_SUCCESSFULLY,73.902248,0.000000,73.902248,72.905163,72.905163,1492651963276.572266,20,-1.000000,""
python3action_facedetection_job76_19,w0,python3action_facedetection_reduced_0.91,0.997085,1,2000.000000,1,COMPLETED_SUCCESSFULLY,73.902278,0.000000,73.902278,72.905193,72.905193,1492652577575.359619,21,-1.000000,""
5_updated,w0,python3action_imageprocessing_SampleImage_60mb_troll,0.997085,1,2000.000000,1,COMPLETED_SUCCESSFULLY,13.401681,62.000000,75.401681,12.404596,74.404596,1.200074,44,-1.000000,""
5,w0,python3action_imageprocessing_SampleImage_60mb,0.000000,1,-1.000000,1,COMPLETED_SUCCESSFULLY,75.401696,0.000010,75.401706,75.401696,75.401706,7540170.600402,44,-1.000000,""
12_updated,w0,python3action_imageprocessing_SampleImage_60mb_troll,0.997085,1,2000.000000,1,COMPLETED_SUCCESSFULLY,13.401726,62.000000,75.401726,12.404641,74.404641,1.200075,48,-1.000000,""
12,w0,python3action_imageprocessing_SampleImage_60mb,0.000000,1,-1.000000,1,COMPLETED_SUCCESSFULLY,75.401756,0.000010,75.401766,75.401756,75.401766,7540176.600803,48,-1.000000,""
python3action_pyaes_job62_11,w0,python3action_pyaes,0.997085,1,2000.000000,1,COMPLETED_SUCCESSFULLY,73.902128,2.134958,76.037087,72.905043,75.040002,35.148229,13,-1.000000,""
python3action_floatoperation_job55_7,w0,python3action_floatoperation,0.997085,1,2000.000000,1,COMPLETED_SUCCESSFULLY,73.902068,2.439945,76.342014,72.904983,75.344929,30.879761,8,-1.000000,""
53_updated,w0,python3action_chameleon_2000_troll,0.997085,1,2000.000000,1,COMPLETED_SUCCESSFULLY,41.370784,39.500010,80.870794,40.373699,79.873709,2.022119,46,-1.000000,""
53,w0,python3action_chameleon_2000,0.000000,1,-1.000000,1,COMPLETED_SUCCESSFULLY,80.870809,0.000010,80.870819,80.870809,80.870819,8087081.929509,46,-1.000000,""
59_updated,w0,python3action_chameleon_2000_troll,0.997085,1,2000.000000,1,COMPLETED_SUCCESSFULLY,41.370829,39.500010,80.870839,40.373744,79.873754,2.022120,47,-1.000000,""
59,w0,python3action_chameleon_2000,0.000000,1,-1.000000,1,COMPLETED_SUCCESSFULLY,80.870869,0.000010,80.870879,80.870869,80.870879,8087087.930312,47,-1.000000,""
26_updated,w0,python3action_pyaes_3000_nova,0.997085,1,2000.000000,1,COMPLETED_SUCCESSFULLY,3.137384,78.200020,81.337404,2.140299,80.340319,1.027370,14,-1.000000,""
26,w0,python3action_pyaes_3000,0.000000,1,-1.000000,1,COMPLETED_SUCCESSFULLY,81.337419,0.000010,81.337429,81.337419,81.337429,8133742.900201,14,-1.000000,""
45_updated,w0,python3action_linpack_5000_taurus,0.997085,1,2000.000000,1,COMPLETED_SUCCESSFULLY,45.263681,38.500058,83.763739,44.266596,82.766654,2.149780,31,-1.000000,""
45,w0,python3action_linpack_5000,0.000000,1,-1.000000,1,COMPLETED_SUCCESSFULLY,83.763754,0.000010,83.763764,83.763754,83.763764,8376376.400201,31,-1.000000,""
python3action_image_processing_job78_39,w0,python3action_image_processing,0.997085,1,2000.000000,1,COMPLETED_SUCCESSFULLY,80.870839,12.398880,93.269719,79.873754,92.272634,7.442014,46,-1.000000,""
11_updated,w0,python3action_chameleon_3000_yeti,0.997085,1,2000.000000,1,COMPLETED_SUCCESSFULLY,1.895555,93.000000,94.895555,0.898470,93.898470,1.009661,49,-1.000000,""
11,w0,python3action_chameleon_3000,0.000000,1,-1.000000,1,COMPLETED_SUCCESSFULLY,94.895570,0.000010,94.895580,94.895570,94.895580,9489558.025869,49,-1.000000,""
54_updated,w0,python3action_chameleon_3000_yeti,0.997085,1,2000.000000,1,COMPLETED_SUCCESSFULLY,1.895585,93.000000,94.895585,0.898500,93.898500,1.009661,50,-1.000000,""
108_updated,w0,python3action_chameleon_3000_yeti,0.997085,1,2000.000000,1,COMPLETED_SUCCESSFULLY,1.895615,93.000000,94.895615,0.898530,93.898530,1.009662,51,-1.000000,""
54,w0,python3action_chameleon_3000,0.000000,1,-1.000000,1,COMPLETED_SUCCESSFULLY,94.895615,0.000010,94.895625,94.895615,94.895625,9489562.526472,50,-1.000000,""
116_updated,w0,python3action_chameleon_3000_yeti,0.997085,1,2000.000000,1,COMPLETED_SUCCESSFULLY,1.895630,93.000000,94.895630,0.898545,93.898545,1.009662,52,-1.000000,""
108,w0,python3action_chameleon_3000,0.000000,1,-1.000000,1,COMPLETED_SUCCESSFULLY,94.895645,0.000010,94.895655,94.895645,94.895655,9489565.526873,51,-1.000000,""
116,w0,python3action_chameleon_3000,0.000000,1,-1.000000,1,COMPLETED_SUCCESSFULLY,94.895675,0.000010,94.895685,94.895675,94.895685,9489568.527275,52,-1.000000,""
7_updated,w0,python3action_imageprocessing_SampleImage_40mb_taurus,0.997085,1,2000.000000,1,COMPLETED_SUCCESSFULLY,73.015076,32.600046,105.615122,72.017991,104.618037,3.209138,29,-1.000000,""
7,w0,python3action_imageprocessing_SampleImage_40mb,0.000000,1,-1.000000,1,COMPLETED_SUCCESSFULLY,105.615137,0.000010,105.615147,105.615137,105.615147,10561514.718456,29,-1.000000,""
9_updated,w0,python3action_imageprocessing_SampleImage_40mb_taurus,0.997085,1,2000.000000,1,COMPLETED_SUCCESSFULLY,73.015106,32.600046,105.615152,72.018021,104.618067,3.209139,30,-1.000000,""
python3action_facedetection_job37_26,w0,python3action_facedetection_reduced_0.91,0.997085,1,2000.000000,1,COMPLETED_SUCCESSFULLY,105.615167,0.000000,105.615167,104.618082,104.618082,907189533197.025024,29,-1.000000,""
9,w0,python3action_imageprocessing_SampleImage_40mb,0.000000,1,-1.000000,1,COMPLETED_SUCCESSFULLY,105.615182,0.000010,105.615192,105.615182,105.615192,10561519.219058,30,-1.000000,""
21_updated,w0,python3action_imageprocessing_SampleImage_40mb_taurus,0.997085,1,2000.000000,1,COMPLETED_SUCCESSFULLY,73.015151,32.600046,105.615197,72.018066,104.618112,3.209140,33,-1.000000,""
21,w0,python3action_imageprocessing_SampleImage_40mb,0.000000,1,-1.000000,1,COMPLETED_SUCCESSFULLY,105.615242,0.000010,105.615252,105.615242,105.615252,10561525.219862,33,-1.000000,""
python3action_facedetection_job61_30,w0,python3action_facedetection_reduced_0.91,0.997085,1,2000.000000,1,COMPLETED_SUCCESSFULLY,105.615272,0.000000,105.615272,104.618187,104.618187,907190443820.224121,33,-1.000000,""
25_updated,w0,python3action_linpack_6000_orion,0.997085,1,2000.000000,1,COMPLETED_SUCCESSFULLY,6.763518,106.000000,112.763518,5.766433,111.766433,1.054400,27,-1.000000,""
25,w0,python3action_linpack_6000,0.000000,1,-1.000000,1,COMPLETED_SUCCESSFULLY,112.763533,0.000010,112.763543,112.763533,112.763543,11276354.300201,27,-1.000000,""
33_updated,w0,python3action_linpack_6000_orion,0.997085,1,2000.000000,1,COMPLETED_SUCCESSFULLY,6.763548,106.000000,112.763548,5.766463,111.766463,1.054401,28,-1.000000,""
33,w0,python3action_linpack_6000,0.000000,1,-1.000000,1,COMPLETED_SUCCESSFULLY,112.763578,0.000010,112.763588,112.763578,112.763588,11276358.800803,28,-1.000000,""
47_updated,w0,python3action_modeltraining_reviews50mb_nova,0.997085,1,2000.000000,1,COMPLETED_SUCCESSFULLY,73.901963,42.399990,116.301954,72.904878,115.304869,2.719455,2,-1.000000,""
47,w0,python3action_modeltraining_reviews50mb,0.000000,1,-1.000000,1,COMPLETED_SUCCESSFULLY,116.301969,0.000010,116.301979,116.301969,116.301979,11630197.900201,2,-1.000000,""
python3action_modeltraining_job82_35,w0,python3action_modeltraining,0.997085,1,2000.000000,1,COMPLETED_SUCCESSFULLY,45.263786,72.012455,117.276241,44.266701,116.279156,1.614709,39,-1.000000,""
python3action_facedetection_job94_37,w0,python3action_facedetection,0.997085,1,2000.000000,1,COMPLETED_SUCCESSFULLY,45.263831,72.012455,117.276286,44.266746,116.279201,1.614710,41,-1.000000,""
python3action_floatoperation_job84_1,w0,python3action_floatoperation,0.997085,1,2000.000000,1,COMPLETED_SUCCESSFULLY,116.301999,2.439945,118.741944,115.304914,117.744859,48.257172,2,-1.000000,""
81_updated,w0,python3action_chameleon_2000_troll,0.997085,1,2000.000000,1,COMPLETED_SUCCESSFULLY,80.870899,39.500010,120.370909,79.873814,119.373824,3.022121,47,-1.000000,""
81,w0,python3action_chameleon_2000,0.000000,1,-1.000000,1,COMPLETED_SUCCESSFULLY,120.370924,0.000010,120.370934,120.370924,120.370934,12037093.423746,47,-1.000000,""
77_updated,w0,python3action_floatoperation_100000000_nova,0.997085,1,2000.000000,1,COMPLETED_SUCCESSFULLY,69.642541,66.200020,135.842561,68.645456,134.845476,2.036940,22,-1.000000,""
77,w0,python3action_floatoperation_100000000,0.000000,1,-1.000000,1,COMPLETED_SUCCESSFULLY,135.842576,0.000010,135.842586,135.842576,135.842586,13584258.600201,22,-1.000000,""
41_updated,w0,python3action_imageprocessing_SampleImage_60mb_troll,0.997085,1,2000.000000,1,COMPLETED_SUCCESSFULLY,75.401726,62.000000,137.401726,74.404641,136.404641,2.200075,44,-1.000000,""
41,w0,python3action_imageprocessing_SampleImage_60mb,0.000000,1,-1.000000,1,COMPLETED_SUCCESSFULLY,137.401741,0.000010,137.401751,137.401741,137.401751,13740175.100602,44,-1.000000,""
63_updated,w0,python3action_imageprocessing_SampleImage_60mb_troll,0.997085,1,2000.000000,1,COMPLETED_SUCCESSFULLY,75.401786,62.000000,137.401786,74.404701,136.404701,2.200076,48,-1.000000,""
63,w0,python3action_imageprocessing_SampleImage_60mb,0.000000,1,-1.000000,1,COMPLETED_SUCCESSFULLY,137.401801,0.000010,137.401811,137.401801,137.401811,13740181.101406,48,-1.000000,""
44_updated,w0,python3action_imageprocessing_SampleImage_40mb_taurus,0.997085,1,2000.000000,1,COMPLETED_SUCCESSFULLY,105.615227,32.600046,138.215273,104.618142,137.218188,4.209141,30,-1.000000,""
44,w0,python3action_imageprocessing_SampleImage_40mb,0.000000,1,-1.000000,1,COMPLETED_SUCCESSFULLY,138.215288,0.000010,138.215298,138.215288,138.215298,13821529.832940,30,-1.000000,""
2_updated,w0,python3action_videoprocessing_SampleVideo_30mb_nova,0.997085,1,2000.000000,1,COMPLETED_SUCCESSFULLY,31.501973,106.799980,138.301954,30.504888,137.304869,1.285626,4,-1.000000,""
2,w0,python3action_videoprocessing_SampleVideo_30mb,0.000000,1,-1.000000,1,COMPLETED_SUCCESSFULLY,138.301969,0.000010,138.301979,138.301969,138.301979,13830197.900201,4,-1.000000,""
3_updated,w0,python3action_videoprocessing_SampleVideo_30mb_nova,0.997085,1,2000.000000,1,COMPLETED_SUCCESSFULLY,31.502003,106.799980,138.301984,30.504918,137.304899,1.285627,5,-1.000000,""
3,w0,python3action_videoprocessing_SampleVideo_30mb,0.000000,1,-1.000000,1,COMPLETED_SUCCESSFULLY,138.302014,0.000010,138.302024,138.302014,138.302024,13830202.400402,5,-1.000000,""
python3action_modeltraining_job50_4,w0,python3action_modeltraining_reduced_1.0,0.997085,1,2000.000000,1,COMPLETED_SUCCESSFULLY,138.302044,0.000000,138.302044,137.304959,137.304959,2810348323084.435059,5,-1.000000,""
34_updated,w0,python3action_videoprocessing_SampleVideo_30mb_nova,0.997085,1,2000.000000,1,COMPLETED_SUCCESSFULLY,31.502168,106.799980,138.302149,30.505083,137.305064,1.285628,19,-1.000000,""
34,w0,python3action_videoprocessing_SampleVideo_30mb,0.000000,1,-1.000000,1,COMPLETED_SUCCESSFULLY,138.302164,0.000010,138.302174,138.302164,138.302174,13830217.400201,19,-1.000000,""
17_updated,w0,python3action_floatoperation_200000000_nova,0.997085,1,2000.000000,1,COMPLETED_SUCCESSFULLY,3.442311,135.399990,138.842301,2.445226,137.845216,1.018059,10,-1.000000,""
17,w0,python3action_floatoperation_200000000,0.000000,1,-1.000000,1,COMPLETED_SUCCESSFULLY,138.842316,0.000010,138.842326,138.842316,138.842326,13884232.623505,10,-1.000000,""
27_updated,w0,python3action_floatoperation_200000000_nova,0.997085,1,2000.000000,1,COMPLETED_SUCCESSFULLY,3.442371,135.399990,138.842361,2.445286,137.845276,1.018060,15,-1.000000,""
27,w0,python3action_floatoperation_200000000,0.000000,1,-1.000000,1,COMPLETED_SUCCESSFULLY,138.842376,0.000010,138.842386,138.842376,138.842386,13884238.624308,15,-1.000000,""
28_updated,w0,python3action_floatoperation_200000000_nova,0.997085,1,2000.000000,1,COMPLETED_SUCCESSFULLY,3.442401,135.399990,138.842391,2.445316,137.845306,1.018060,16,-1.000000,""
31_updated,w0,python3action_floatoperation_200000000_nova,0.997085,1,2000.000000,1,COMPLETED_SUCCESSFULLY,3.442431,135.399990,138.842421,2.445346,137.845336,1.018060,17,-1.000000,""
28,w0,python3action_floatoperation_200000000,0.000000,1,-1.000000,1,COMPLETED_SUCCESSFULLY,138.842421,0.000010,138.842431,138.842421,138.842431,13884243.124911,16,-1.000000,""
32_updated,w0,python3action_floatoperation_200000000_nova,0.997085,1,2000.000000,1,COMPLETED_SUCCESSFULLY,3.442446,135.399990,138.842436,2.445361,137.845351,1.018060,18,-1.000000,""
31,w0,python3action_floatoperation_200000000,0.000000,1,-1.000000,1,COMPLETED_SUCCESSFULLY,138.842451,0.000010,138.842461,138.842451,138.842461,13884246.125312,17,-1.000000,""
32,w0,python3action_floatoperation_200000000,0.000000,1,-1.000000,1,COMPLETED_SUCCESSFULLY,138.842481,0.000010,138.842491,138.842481,138.842491,13884249.125714,18,-1.000000,""
43_updated,w0,python3action_floatoperation_200000000_nova,0.997085,1,2000.000000,1,COMPLETED_SUCCESSFULLY,3.442506,135.399990,138.842496,2.445421,137.845411,1.018061,24,-1.000000,""
43,w0,python3action_floatoperation_200000000,0.000000,1,-1.000000,1,COMPLETED_SUCCESSFULLY,138.842541,0.000010,138.842551,138.842541,138.842551,13884255.126517,24,-1.000000,""
python3action_pyaes_job73_17,w0,python3action_pyaes,0.997085,1,2000.000000,1,COMPLETED_SUCCESSFULLY,138.302194,2.134958,140.437152,137.305109,139.440067,65.312784,19,-1.000000,""
python3action_floatoperation_job49_3,w0,python3action_floatoperation,0.997085,1,2000.000000,1,COMPLETED_SUCCESSFULLY,138.301999,2.439945,140.741944,137.304914,139.744859,57.273767,4,-1.000000,""
python3action_pyaes_job65_13,w0,python3action_pyaes,0.997085,1,2000.000000,1,COMPLETED_SUCCESSFULLY,138.842406,2.134958,140.977364,137.845321,139.980279,65.565816,15,-1.000000,""
4_updated,w0,python3action_pyaes_4000_nova,0.997085,1,2000.000000,1,COMPLETED_SUCCESSFULLY,3.137264,139.600010,142.737274,2.140179,141.740189,1.015331,6,-1.000000,""
4,w0,python3action_pyaes_4000,0.000000,1,-1.000000,1,COMPLETED_SUCCESSFULLY,142.737289,0.000010,142.737299,142.737289,142.737299,14273729.900201,6,-1.000000,""
13_updated,w0,python3action_pyaes_4000_nova,0.997085,1,2000.000000,1,COMPLETED_SUCCESSFULLY,3.137294,139.600010,142.737304,2.140209,141.740219,1.015331,7,-1.000000,""
15_updated,w0,python3action_pyaes_4000_nova,0.997085,1,2000.000000,1,COMPLETED_SUCCESSFULLY,3.137324,139.600010,142.737334,2.140239,141.740249,1.015331,9,-1.000000,""
13,w0,python3action_pyaes_4000,0.000000,1,-1.000000,1,COMPLETED_SUCCESSFULLY,142.737334,0.000010,142.737344,142.737334,142.737344,14273734.371749,7,-1.000000,""
18_updated,w0,python3action_pyaes_4000_nova,0.997085,1,2000.000000,1,COMPLETED_SUCCESSFULLY,3.137354,139.600010,142.737364,2.140269,141.740279,1.015331,11,-1.000000,""
15,w0,python3action_pyaes_4000,0.000000,1,-1.000000,1,COMPLETED_SUCCESSFULLY,142.737364,0.000010,142.737374,142.737364,142.737374,14273737.372150,9,-1.000000,""
18,w0,python3action_pyaes_4000,0.000000,1,-1.000000,1,COMPLETED_SUCCESSFULLY,142.737409,0.000010,142.737419,142.737409,142.737419,14273741.900201,11,-1.000000,""
python3action_linpack_job102_27,w0,python3action_linpack,0.997085,1,2000.000000,1,COMPLETED_SUCCESSFULLY,138.215318,5.760927,143.976246,137.218233,142.979161,24.818776,30,-1.000000,""
python3action_floatoperation_job56_8,w0,python3action_floatoperation,0.997085,1,2000.000000,1,COMPLETED_SUCCESSFULLY,142.737424,2.439945,145.177369,141.740339,144.180284,59.091605,9,-1.000000,""
python3action_floatoperation_job60_10,w0,python3action_floatoperation,0.997085,1,2000.000000,1,COMPLETED_SUCCESSFULLY,142.737454,2.439945,145.177399,141.740369,144.180314,59.091618,11,-1.000000,""
62_updated,w0,python3action_pyaes_3000_nova,0.997085,1,2000.000000,1,COMPLETED_SUCCESSFULLY,76.037102,78.200020,154.237122,75.040017,153.240037,1.959591,13,-1.000000,""
62,w0,python3action_pyaes_3000,0.000000,1,-1.000000,1,COMPLETED_SUCCESSFULLY,154.237137,0.000010,154.237147,154.237137,154.237147,15423714.700201,13,-1.000000,""
python3action_facedetection_job105_11,w0,python3action_facedetection_reduced_0.91,0.997085,1,2000.000000,1,COMPLETED_SUCCESSFULLY,154.237167,0.000000,154.237167,153.240082,153.240082,3136507309031.295898,13,-1.000000,""
78_updated,w0,python3action_imageprocessing_SampleImage_60mb_troll,0.997085,1,2000.000000,1,COMPLETED_SUCCESSFULLY,93.269734,62.000000,155.269734,92.272649,154.272649,2.488269,46,-1.000000,""
78,w0,python3action_imageprocessing_SampleImage_60mb,0.000000,1,-1.000000,1,COMPLETED_SUCCESSFULLY,155.269749,0.000010,155.269759,155.269749,155.269759,15526975.938890,46,-1.000000,""
python3action_image_processing_job104_28,w0,python3action_image_processing,0.997085,1,2000.000000,1,COMPLETED_SUCCESSFULLY,83.763784,72.012455,155.776239,82.766699,154.779154,2.149339,31,-1.000000,""
64_updated,w0,python3action_pyaes_3000_nova,0.997085,1,2000.000000,1,COMPLETED_SUCCESSFULLY,81.337449,78.200020,159.537469,80.340364,158.540384,2.027370,14,-1.000000,""
64,w0,python3action_pyaes_3000,0.000000,1,-1.000000,1,COMPLETED_SUCCESSFULLY,159.537484,0.000010,159.537494,159.537484,159.537494,15953749.400201,14,-1.000000,""
16_updated,w0,python3action_imageprocessing_SampleImage_60mb_orion,0.997085,1,2000.000000,1,COMPLETED_SUCCESSFULLY,73.015031,88.000000,161.015031,72.017946,160.017946,1.818386,26,-1.000000,""
16,w0,python3action_imageprocessing_SampleImage_60mb,0.000000,1,-1.000000,1,COMPLETED_SUCCESSFULLY,161.015046,0.000010,161.015056,161.015046,161.015056,16101505.604775,26,-1.000000,""
23_updated,w0,python3action_modeltraining_reviews100mb_taurus,0.997085,1,2000.000000,1,COMPLETED_SUCCESSFULLY,73.015196,88.199977,161.215173,72.018111,160.218088,1.816532,36,-1.000000,""
24_updated,w0,python3action_modeltraining_reviews100mb_taurus,0.997085,1,2000.000000,1,COMPLETED_SUCCESSFULLY,73.015211,88.199977,161.215188,72.018126,160.218103,1.816532,37,-1.000000,""
23,w0,python3action_modeltraining_reviews100mb,0.000000,1,-1.000000,1,COMPLETED_SUCCESSFULLY,161.215188,0.000010,161.215198,161.215188,161.215198,16121519.800445,36,-1.000000,""
24,w0,python3action_modeltraining_reviews100mb,0.000000,1,-1.000000,1,COMPLETED_SUCCESSFULLY,161.215218,0.000010,161.215228,161.215218,161.215228,16121522.800847,37,-1.000000,""
35_updated,w0,python3action_modeltraining_reviews100mb_taurus,0.997085,1,2000.000000,1,COMPLETED_SUCCESSFULLY,73.015256,88.199977,161.215233,72.018171,160.218148,1.816533,40,-1.000000,""
python3action_video_processing_job68_32,w0,python3action_video_processing_reduced_0.97,0.997085,1,2000.000000,1,COMPLETED_SUCCESSFULLY,161.215233,0.000000,161.215233,160.218148,160.218148,1389151043614.634033,36,-1.000000,""
35,w0,python3action_modeltraining_reviews100mb,0.000000,1,-1.000000,1,COMPLETED_SUCCESSFULLY,161.215278,0.000010,161.215288,161.215278,161.215288,16121528.801650,40,-1.000000,""
python3action_facedetection_job92_36,w0,python3action_facedetection_reduced_0.91,0.997085,1,2000.000000,1,COMPLETED_SUCCESSFULLY,161.215323,0.000000,161.215323,160.218238,160.218238,1389151824052.631348,40,-1.000000,""
python3action_floatoperation_job106_12,w0,python3action_floatoperation,0.997085,1,2000.000000,1,COMPLETED_SUCCESSFULLY,159.537514,2.439945,161.977459,158.540429,160.980374,65.977042,14,-1.000000,""
python3action_video_processing_job123_20,w0,python3action_video_processing,0.997085,1,2000.000000,1,COMPLETED_SUCCESSFULLY,135.842606,30.499683,166.342289,134.845521,165.345204,5.421211,22,-1.000000,""
python3action_linpack_job40_23,w0,python3action_linpack,0.997085,1,2000.000000,1,COMPLETED_SUCCESSFULLY,161.015076,5.760927,166.776003,160.017991,165.778918,28.776430,26,-1.000000,""
python3action_linpack_job71_33,w0,python3action_linpack,0.997085,1,2000.000000,1,COMPLETED_SUCCESSFULLY,161.215263,5.760927,166.976190,160.218178,165.979105,28.811179,37,-1.000000,""
python3action_video_processing_job58_9,w0,python3action_video_processing,0.997085,1,2000.000000,1,COMPLETED_SUCCESSFULLY,138.842346,30.499683,169.342029,137.845261,168.344944,5.519564,10,-1.000000,""
python3action_modeltraining_job66_14,w0,python3action_modeltraining,0.997085,1,2000.000000,1,COMPLETED_SUCCESSFULLY,138.842466,30.499683,169.342149,137.845381,168.345064,5.519568,16,-1.000000,""
python3action_video_processing_job69_15,w0,python3action_video_processing,0.997085,1,2000.000000,1,COMPLETED_SUCCESSFULLY,138.842511,30.499683,169.342194,137.845426,168.345109,5.519569,17,-1.000000,""
python3action_facedetection_job72_16,w0,python3action_facedetection,0.997085,1,2000.000000,1,COMPLETED_SUCCESSFULLY,138.842526,30.499683,169.342209,137.845441,168.345124,5.519570,18,-1.000000,""
python3action_facedetection_job51_5,w0,python3action_facedetection,0.997085,1,2000.000000,1,COMPLETED_SUCCESSFULLY,142.737319,30.499683,173.237002,141.740234,172.239917,5.647269,6,-1.000000,""
python3action_modeltraining_job52_6,w0,python3action_modeltraining,0.997085,1,2000.000000,1,COMPLETED_SUCCESSFULLY,142.737379,30.499683,173.237061,141.740294,172.239976,5.647271,7,-1.000000,""
50_updated,w0,python3action_modeltraining_reviews50mb_nova,0.997085,1,2000.000000,1,COMPLETED_SUCCESSFULLY,138.302074,42.399990,180.702064,137.304989,179.704979,4.238326,5,-1.000000,""
50,w0,python3action_modeltraining_reviews50mb,0.000000,1,-1.000000,1,COMPLETED_SUCCESSFULLY,180.702079,0.000010,180.702089,180.702079,180.702089,18070208.924509,5,-1.000000,""
75_updated,w0,python3action_videoprocessing_SampleVideo_30mb_nova,0.997085,1,2000.000000,1,COMPLETED_SUCCESSFULLY,73.902293,106.799980,180.702274,72.905208,179.705189,1.682633,20,-1.000000,""
75,w0,python3action_videoprocessing_SampleVideo_30mb,0.000000,1,-1.000000,1,COMPLETED_SUCCESSFULLY,180.702289,0.000010,180.702299,180.702289,180.702299,18070229.900201,20,-1.000000,""
102_updated,w0,python3action_linpack_5000_taurus,0.997085,1,2000.000000,1,COMPLETED_SUCCESSFULLY,143.976261,38.500058,182.476319,142.979176,181.479234,4.713739,30,-1.000000,""
102,w0,python3action_linpack_5000,0.000000,1,-1.000000,1,COMPLETED_SUCCESSFULLY,182.476334,0.000010,182.476344,182.476334,182.476344,18247634.400201,30,-1.000000,""
python3action_floatoperation_job90_4,w0,python3action_floatoperation,0.997085,1,2000.000000,1,COMPLETED_SUCCESSFULLY,180.702109,2.439945,183.142055,179.705024,182.144970,74.651251,5,-1.000000,""
84_updated,w0,python3action_floatoperation_100000000_nova,0.997085,1,2000.000000,1,COMPLETED_SUCCESSFULLY,118.741959,66.200020,184.941979,117.744874,183.944894,2.778623,2,-1.000000,""
84,w0,python3action_floatoperation_100000000,0.000000,1,-1.000000,1,COMPLETED_SUCCESSFULLY,184.941994,0.000010,184.942004,184.941994,184.942004,18494200.400201,2,-1.000000,""
python3action_facedetection_job131_1,w0,python3action_facedetection_reduced_0.91,0.997085,1,2000.000000,1,COMPLETED_SUCCESSFULLY,184.942024,0.000000,184.942024,183.944939,183.944939,3764972180248.502441,2,-1.000000,""
119_updated,w0,python3action_chameleon_3000_yeti,0.997085,1,2000.000000,1,COMPLETED_SUCCESSFULLY,94.895600,93.000000,187.895600,93.898515,186.898515,2.009661,49,-1.000000,""
119,w0,python3action_chameleon_3000,0.000000,1,-1.000000,1,COMPLETED_SUCCESSFULLY,187.895615,0.000010,187.895625,187.895615,187.895625,18789562.526471,49,-1.000000,""
125_updated,w0,python3action_chameleon_3000_yeti,0.997085,1,2000.000000,1,COMPLETED_SUCCESSFULLY,94.895660,93.000000,187.895660,93.898575,186.898575,2.009662,50,-1.000000,""
125,w0,python3action_chameleon_3000,0.000000,1,-1.000000,1,COMPLETED_SUCCESSFULLY,187.895675,0.000010,187.895685,187.895675,187.895685,18789568.527275,50,-1.000000,""
159_updated,w0,python3action_chameleon_3000_yeti,0.997085,1,2000.000000,1,COMPLETED_SUCCESSFULLY,94.895705,93.000000,187.895705,93.898620,186.898620,2.009663,51,-1.000000,""
186_updated,w0,python3action_chameleon_3000_yeti,0.997085,1,2000.000000,1,COMPLETED_SUCCESSFULLY,94.895720,93.000000,187.895720,93.898635,186.898635,2.009663,52,-1.000000,""
159,w0,python3action_chameleon_3000,0.000000,1,-1.000000,1,COMPLETED_SUCCESSFULLY,187.895735,0.000010,187.895745,187.895735,187.895745,18789574.528078,51,-1.000000,""
186,w0,python3action_chameleon_3000,0.000000,1,-1.000000,1,COMPLETED_SUCCESSFULLY,187.895750,0.000010,187.895760,187.895750,187.895760,18789576.028279,52,-1.000000,""
104_updated,w0,python3action_imageprocessing_SampleImage_40mb_taurus,0.997085,1,2000.000000,1,COMPLETED_SUCCESSFULLY,155.776254,32.600046,188.376300,154.779169,187.379215,5.747821,31,-1.000000,""
104,w0,python3action_imageprocessing_SampleImage_40mb,0.000000,1,-1.000000,1,COMPLETED_SUCCESSFULLY,188.376315,0.000010,188.376325,188.376315,188.376325,18837632.545162,31,-1.000000,""
python3action_facedetection_job162_28,w0,python3action_facedetection_reduced_0.91,0.997085,1,2000.000000,1,COMPLETED_SUCCESSFULLY,188.376345,0.000000,188.376345,187.379260,187.379260,1624648009267.002441,31,-1.000000,""
1_updated,w0,python3action_facedetection_SampleVideo_30mb_nova,0.997085,1,2000.000000,1,COMPLETED_SUCCESSFULLY,31.501958,160.399990,191.901948,30.504873,190.904863,1.190180,3,-1.000000,""
1,w0,python3action_facedetection_SampleVideo_30mb,0.000000,1,-1.000000,1,COMPLETED_SUCCESSFULLY,191.901963,0.000010,191.901973,191.901963,191.901973,19190197.343649,3,-1.000000,""
python3action_modeltraining_job48_2,w0,python3action_modeltraining_reduced_0.94,0.997085,1,2000.000000,1,COMPLETED_SUCCESSFULLY,191.901993,0.000000,191.901993,190.904908,190.904908,3907428349131.420410,3,-1.000000,""
46_updated,w0,python3action_facedetection_SampleVideo_30mb_nova,0.997085,1,2000.000000,1,COMPLETED_SUCCESSFULLY,31.502243,160.399990,191.902233,30.505158,190.905148,1.190182,25,-1.000000,""
46,w0,python3action_facedetection_SampleVideo_30mb,0.000000,1,-1.000000,1,COMPLETED_SUCCESSFULLY,191.902248,0.000010,191.902258,191.902248,191.902258,19190225.847464,25,-1.000000,""
python3action_floatoperation_job83_22,w0,python3action_floatoperation,0.997085,1,2000.000000,1,COMPLETED_SUCCESSFULLY,191.902278,2.439945,194.342224,190.905193,193.345139,79.241588,25,-1.000000,""
74_updated,w0,python3action_imageprocessing_SampleImage_60mb_troll,0.997085,1,2000.000000,1,COMPLETED_SUCCESSFULLY,137.401771,62.000000,199.401771,136.404686,198.404686,3.200076,44,-1.000000,""
74,w0,python3action_imageprocessing_SampleImage_60mb,0.000000,1,-1.000000,1,COMPLETED_SUCCESSFULLY,199.401786,0.000010,199.401796,199.401786,199.401796,19940179.601205,44,-1.000000,""
85_updated,w0,python3action_imageprocessing_SampleImage_60mb_troll,0.997085,1,2000.000000,1,COMPLETED_SUCCESSFULLY,137.401831,62.000000,199.401831,136.404746,198.404746,3.200077,48,-1.000000,""
85,w0,python3action_imageprocessing_SampleImage_60mb,0.000000,1,-1.000000,1,COMPLETED_SUCCESSFULLY,199.401846,0.000010,199.401856,199.401846,199.401856,19940185.602008,48,-1.000000,""
python3action_chameleon_job120_41,w0,python3action_chameleon,0.997085,1,2000.000000,1,COMPLETED_SUCCESSFULLY,199.401876,0.867914,200.269790,198.404791,199.272705,229.599686,48,-1.000000,""
80_updated,w0,python3action_floatoperation_100000000_nova,0.997085,1,2000.000000,1,COMPLETED_SUCCESSFULLY,138.842571,66.200020,205.042591,137.845486,204.045506,3.082257,24,-1.000000,""
80,w0,python3action_floatoperation_100000000,0.000000,1,-1.000000,1,COMPLETED_SUCCESSFULLY,205.042606,0.000010,205.042616,205.042606,205.042616,20504261.600201,24,-1.000000,""
82_updated,w0,python3action_modeltraining_reviews100mb_taurus,0.997085,1,2000.000000,1,COMPLETED_SUCCESSFULLY,117.276256,88.199977,205.476233,116.279171,204.479148,2.318358,39,-1.000000,""
82,w0,python3action_modeltraining_reviews100mb,0.000000,1,-1.000000,1,COMPLETED_SUCCESSFULLY,205.476248,0.000010,205.476258,205.476248,205.476258,20547625.825144,39,-1.000000,""
71_updated,w0,python3action_linpack_5000_taurus,0.997085,1,2000.000000,1,COMPLETED_SUCCESSFULLY,166.976205,38.500058,205.476263,165.979120,204.479178,5.311140,37,-1.000000,""
python3action_video_processing_job140_35,w0,python3action_video_processing_reduced_0.97,0.997085,1,2000.000000,1,COMPLETED_SUCCESSFULLY,205.476278,0.000000,205.476278,204.479193,204.479193,1772910796207.688477,39,-1.000000,""
71,w0,python3action_linpack_5000,0.000000,1,-1.000000,1,COMPLETED_SUCCESSFULLY,205.476293,0.000010,205.476303,205.476293,205.476303,20547630.300402,37,-1.000000,""
python3action_facedetection_job136_33,w0,python3action_facedetection_reduced_0.91,0.997085,1,2000.000000,1,COMPLETED_SUCCESSFULLY,205.476338,0.000000,205.476338,204.479253,204.479253,1772911316499.686768,37,-1.000000,""
49_updated,w0,python3action_floatoperation_100000000_nova,0.997085,1,2000.000000,1,COMPLETED_SUCCESSFULLY,140.741959,66.200020,206.941979,139.744874,205.944894,3.110949,4,-1.000000,""
49,w0,python3action_floatoperation_100000000,0.000000,1,-1.000000,1,COMPLETED_SUCCESSFULLY,206.941994,0.000010,206.942004,206.941994,206.942004,20694200.400201,4,-1.000000,""
python3action_modeltraining_job89_3,w0,python3action_modeltraining_reduced_1.0,0.997085,1,2000.000000,1,COMPLETED_SUCCESSFULLY,206.942024,0.000000,206.942024,205.944939,205.944939,4215266645608.772461,4,-1.000000,""
python3action_pyaes_job126_21,w0,python3action_pyaes,0.997085,1,2000.000000,1,COMPLETED_SUCCESSFULLY,205.042636,2.134958,207.177594,204.045551,206.180509,96.573556,24,-1.000000,""
29_updated,w0,python3action_facedetection_SampleVideo_50mb_taurus,0.997085,1,2000.000000,1,COMPLETED_SUCCESSFULLY,73.015241,134.600046,207.615287,72.018156,206.618202,1.535053,38,-1.000000,""
29,w0,python3action_facedetection_SampleVideo_50mb,0.000000,1,-1.000000,1,COMPLETED_SUCCESSFULLY,207.615302,0.000010,207.615312,207.615302,207.615312,20761531.220664,38,-1.000000,""
python3action_video_processing_job79_34,w0,python3action_video_processing_reduced_0.91,0.997085,1,2000.000000,1,COMPLETED_SUCCESSFULLY,207.615332,0.000000,207.615332,206.618247,206.618247,1791457193249.431641,38,-1.000000,""
55_updated,w0,python3action_floatoperation_200000000_nova,0.997085,1,2000.000000,1,COMPLETED_SUCCESSFULLY,76.342029,135.399990,211.742019,75.344944,210.744934,1.556462,8,-1.000000,""
55,w0,python3action_floatoperation_200000000,0.000000,1,-1.000000,1,COMPLETED_SUCCESSFULLY,211.742034,0.000010,211.742044,211.742034,211.742044,21174204.423505,8,-1.000000,""
66_updated,w0,python3action_modeltraining_reviews50mb_nova,0.997085,1,2000.000000,1,COMPLETED_SUCCESSFULLY,169.342164,42.399990,211.742154,168.345079,210.745069,4.970404,16,-1.000000,""
66,w0,python3action_modeltraining_reviews50mb,0.000000,1,-1.000000,1,COMPLETED_SUCCESSFULLY,211.742169,0.000010,211.742179,211.742169,211.742179,21174217.923505,16,-1.000000,""
python3action_pyaes_job109_14,w0,python3action_pyaes,0.997085,1,2000.000000,1,COMPLETED_SUCCESSFULLY,211.742199,2.134958,213.877157,210.745114,212.880072,99.711586,16,-1.000000,""
98_updated,w0,python3action_chameleon_3000_troll,0.997085,1,2000.000000,1,COMPLETED_SUCCESSFULLY,120.370954,94.000000,214.370954,119.373869,213.373869,2.269935,47,-1.000000,""
98,w0,python3action_chameleon_3000,0.000000,1,-1.000000,1,COMPLETED_SUCCESSFULLY,214.370969,0.000010,214.370979,214.370969,214.370979,21437097.924348,47,-1.000000,""
52_updated,w0,python3action_modeltraining_reviews50mb_nova,0.997085,1,2000.000000,1,COMPLETED_SUCCESSFULLY,173.237076,42.399990,215.637066,172.239991,214.639981,5.062265,7,-1.000000,""
52,w0,python3action_modeltraining_reviews50mb,0.000000,1,-1.000000,1,COMPLETED_SUCCESSFULLY,215.637081,0.000010,215.637091,215.637081,215.637091,21563709.146723,7,-1.000000,""
python3action_facedetection_job93_6,w0,python3action_facedetection_reduced_0.91,0.997085,1,2000.000000,1,COMPLETED_SUCCESSFULLY,215.637111,0.000000,215.637111,214.640026,214.640026,4393237089309.349121,7,-1.000000,""
73_updated,w0,python3action_pyaes_3000_nova,0.997085,1,2000.000000,1,COMPLETED_SUCCESSFULLY,140.437167,78.200020,218.637187,139.440082,217.640102,2.783121,19,-1.000000,""
73,w0,python3action_pyaes_3000,0.000000,1,-1.000000,1,COMPLETED_SUCCESSFULLY,218.637202,0.000010,218.637212,218.637202,218.637212,21863721.200201,19,-1.000000,""
70_updated,w0,python3action_linpack_6000_orion,0.997085,1,2000.000000,1,COMPLETED_SUCCESSFULLY,112.763563,106.000000,218.763563,111.766478,217.766478,2.054401,27,-1.000000,""
70,w0,python3action_linpack_6000,0.000000,1,-1.000000,1,COMPLETED_SUCCESSFULLY,218.763578,0.000010,218.763588,218.763578,218.763588,21876358.800803,27,-1.000000,""
88_updated,w0,python3action_linpack_6000_orion,0.997085,1,2000.000000,1,COMPLETED_SUCCESSFULLY,112.763608,106.000000,218.763608,111.766523,217.766523,2.054401,28,-1.000000,""
88,w0,python3action_linpack_6000,0.000000,1,-1.000000,1,COMPLETED_SUCCESSFULLY,218.763638,0.000010,218.763648,218.763638,218.763648,21876364.801606,28,-1.000000,""
65_updated,w0,python3action_pyaes_3000_nova,0.997085,1,2000.000000,1,COMPLETED_SUCCESSFULLY,140.977379,78.200020,219.177399,139.980294,218.180314,2.790029,15,-1.000000,""
65,w0,python3action_pyaes_3000,0.000000,1,-1.000000,1,COMPLETED_SUCCESSFULLY,219.177414,0.000010,219.177424,219.177414,219.177424,21917742.402672,15,-1.000000,""
152_updated,w0,python3action_linpack_5000_taurus,0.997085,1,2000.000000,1,COMPLETED_SUCCESSFULLY,182.476364,38.500058,220.976422,181.479279,219.979337,5.713740,30,-1.000000,""
152,w0,python3action_linpack_5000,0.000000,1,-1.000000,1,COMPLETED_SUCCESSFULLY,220.976437,0.000010,220.976447,220.976437,220.976447,22097644.700201,30,-1.000000,""
python3action_video_processing_job191_27,w0,python3action_video_processing_reduced_0.91,0.997085,1,2000.000000,1,COMPLETED_SUCCESSFULLY,220.976467,0.000000,220.976467,219.979382,219.979382,1907303210540.986328,30,-1.000000,""
19_updated,w0,python3action_videoprocessing_SampleVideo_50mb_taurus,0.997085,1,2000.000000,1,COMPLETED_SUCCESSFULLY,73.015136,154.250029,227.265165,72.018051,226.268080,1.466892,32,-1.000000,""
19,w0,python3action_videoprocessing_SampleVideo_50mb,0.000000,1,-1.000000,1,COMPLETED_SUCCESSFULLY,227.265180,0.000010,227.265190,227.265180,227.265190,22726519.000201,32,-1.000000,""
22_updated,w0,python3action_videoprocessing_SampleVideo_50mb_taurus,0.997085,1,2000.000000,1,COMPLETED_SUCCESSFULLY,73.015181,154.250029,227.265210,72.018096,226.268125,1.466892,35,-1.000000,""
python3action_image_processing_job57_29,w0,python3action_image_processing_reduced_0.86,0.997085,1,2000.000000,1,COMPLETED_SUCCESSFULLY,227.265210,0.000000,227.265210,226.268125,226.268125,1961828954734.555908,32,-1.000000,""
22,w0,python3action_videoprocessing_SampleVideo_50mb,0.000000,1,-1.000000,1,COMPLETED_SUCCESSFULLY,227.265240,0.000010,227.265250,227.265240,227.265250,22726525.000201,35,-1.000000,""
python3action_image_processing_job67_31,w0,python3action_image_processing_reduced_0.86,0.997085,1,2000.000000,1,COMPLETED_SUCCESSFULLY,227.265285,0.000000,227.265285,226.268200,226.268200,1961829605952.912109,35,-1.000000,""
106_updated,w0,python3action_floatoperation_100000000_nova,0.997085,1,2000.000000,1,COMPLETED_SUCCESSFULLY,161.977474,66.200020,228.177494,160.980389,227.180409,3.431727,14,-1.000000,""
106,w0,python3action_floatoperation_100000000,0.000000,1,-1.000000,1,COMPLETED_SUCCESSFULLY,228.177509,0.000010,228.177519,228.177509,228.177519,22817751.900201,14,-1.000000,""
76_updated,w0,python3action_facedetection_SampleVideo_30mb_nova,0.997085,1,2000.000000,1,COMPLETED_SUCCESSFULLY,73.902323,160.399990,234.302314,72.905238,233.305229,1.454521,21,-1.000000,""
76,w0,python3action_facedetection_SampleVideo_30mb,0.000000,1,-1.000000,1,COMPLETED_SUCCESSFULLY,234.302329,0.000010,234.302339,234.302329,234.302339,23430233.900201,21,-1.000000,""
37_updated,w0,python3action_facedetection_SampleVideo_50mb_taurus,0.997085,1,2000.000000,1,COMPLETED_SUCCESSFULLY,105.615212,134.600046,240.215258,104.618127,239.218173,1.777252,29,-1.000000,""
37,w0,python3action_facedetection_SampleVideo_50mb,0.000000,1,-1.000000,1,COMPLETED_SUCCESSFULLY,240.215273,0.000010,240.215283,240.215273,240.215283,24021528.332738,29,-1.000000,""
61_updated,w0,python3action_facedetection_SampleVideo_50mb_taurus,0.997085,1,2000.000000,1,COMPLETED_SUCCESSFULLY,105.615302,134.600046,240.215348,104.618217,239.218263,1.777252,33,-1.000000,""
61,w0,python3action_facedetection_SampleVideo_50mb,0.000000,1,-1.000000,1,COMPLETED_SUCCESSFULLY,240.215363,0.000010,240.215373,240.215363,240.215373,24021537.333943,33,-1.000000,""
python3action_modeltraining_job117_30,w0,python3action_modeltraining_reduced_1.88,0.997085,1,2000.000000,1,COMPLETED_SUCCESSFULLY,240.215393,0.000000,240.215393,239.218308,239.218308,2074111870680.352051,33,-1.000000,""
95_updated,w0,python3action_chameleon_3000_troll,0.997085,1,2000.000000,1,COMPLETED_SUCCESSFULLY,155.269779,94.000000,249.269779,154.272694,248.272694,2.641199,46,-1.000000,""
95,w0,python3action_chameleon_3000,0.000000,1,-1.000000,1,COMPLETED_SUCCESSFULLY,249.269794,0.000010,249.269804,249.269794,249.269804,24926980.439492,46,-1.000000,""
90_updated,w0,python3action_floatoperation_100000000_nova,0.997085,1,2000.000000,1,COMPLETED_SUCCESSFULLY,183.142070,66.200020,249.342090,182.144985,248.345005,3.751434,5,-1.000000,""
90,w0,python3action_floatoperation_100000000,0.000000,1,-1.000000,1,COMPLETED_SUCCESSFULLY,249.342105,0.000010,249.342115,249.342105,249.342115,24934211.500201,5,-1.000000,""
94_updated,w0,python3action_facedetection_SampleVideo_50mb_taurus,0.997085,1,2000.000000,1,COMPLETED_SUCCESSFULLY,117.276301,134.600046,251.876347,116.279216,250.879262,1.863887,41,-1.000000,""
94,w0,python3action_facedetection_SampleVideo_50mb,0.000000,1,-1.000000,1,COMPLETED_SUCCESSFULLY,251.876362,0.000010,251.876372,251.876362,251.876372,25187637.245363,41,-1.000000,""
python3action_image_processing_job143_37,w0,python3action_image_processing_reduced_0.86,0.997085,1,2000.000000,1,COMPLETED_SUCCESSFULLY,251.876392,0.000000,251.876392,250.879307,250.879307,2175217078112.955811,41,-1.000000,""
130_updated,w0,python3action_chameleon_2000_troll,0.997085,1,2000.000000,1,COMPLETED_SUCCESSFULLY,214.370999,39.500010,253.871009,213.373914,252.873924,6.401870,47,-1.000000,""
130,w0,python3action_chameleon_2000,0.000000,1,-1.000000,1,COMPLETED_SUCCESSFULLY,253.871024,0.000010,253.871034,253.871024,253.871034,25387103.417782,47,-1.000000,""
57_updated,w0,python3action_imageprocessing_SampleImage_40mb_taurus,0.997085,1,2000.000000,1,COMPLETED_SUCCESSFULLY,227.265255,32.600046,259.865301,226.268170,258.868216,7.940732,32,-1.000000,""
57,w0,python3action_imageprocessing_SampleImage_40mb,0.000000,1,-1.000000,1,COMPLETED_SUCCESSFULLY,259.865316,0.000010,259.865326,259.865316,259.865326,25986532.613680,32,-1.000000,""
python3action_facedetection_job113_29,w0,python3action_facedetection_reduced_1.83,0.997085,1,2000.000000,1,COMPLETED_SUCCESSFULLY,259.865346,0.000000,259.865346,258.868261,258.868261,2244484283383.835938,32,-1.000000,""
67_updated,w0,python3action_imageprocessing_SampleImage_40mb_taurus,0.997085,1,2000.000000,1,COMPLETED_SUCCESSFULLY,227.265315,32.600046,259.865361,226.268230,258.868276,7.940733,35,-1.000000,""
67,w0,python3action_imageprocessing_SampleImage_40mb,0.000000,1,-1.000000,1,COMPLETED_SUCCESSFULLY,259.865391,0.000010,259.865401,259.865391,259.865401,25986540.114684,35,-1.000000,""
115_updated,w0,python3action_modeltraining_reviews100mb_nova,0.997085,1,2000.000000,1,COMPLETED_SUCCESSFULLY,180.702319,79.600010,260.302329,179.705234,259.305244,3.257603,20,-1.000000,""
115,w0,python3action_modeltraining_reviews100mb,0.000000,1,-1.000000,1,COMPLETED_SUCCESSFULLY,260.302344,0.000010,260.302354,260.302344,260.302354,26030235.400201,20,-1.000000,""
python3action_facedetection_job166_18,w0,python3action_facedetection_reduced_1.83,0.997085,1,2000.000000,1,COMPLETED_SUCCESSFULLY,260.302374,0.000000,260.302374,259.305289,259.305289,5310531881834.569336,20,-1.000000,""
87_updated,w0,python3action_imageprocessing_SampleImage_60mb_troll,0.997085,1,2000.000000,1,COMPLETED_SUCCESSFULLY,199.401816,62.000000,261.401816,198.404731,260.404731,4.200076,44,-1.000000,""
87,w0,python3action_imageprocessing_SampleImage_60mb,0.000000,1,-1.000000,1,COMPLETED_SUCCESSFULLY,261.401831,0.000010,261.401841,261.401831,261.401841,26140184.101807,44,-1.000000,""
python3action_chameleon_job122_38,w0,python3action_chameleon,0.997085,1,2000.000000,1,COMPLETED_SUCCESSFULLY,261.401861,0.867914,262.269775,260.404776,261.272690,301.035346,44,-1.000000,""
python3action_linpack_job121_31,w0,python3action_linpack,0.997085,1,2000.000000,1,COMPLETED_SUCCESSFULLY,259.865421,5.760927,265.626348,258.868336,264.629263,45.935186,35,-1.000000,""
python3action_image_processing_job153_40,w0,python3action_image_processing,0.997085,1,2000.000000,1,COMPLETED_SUCCESSFULLY,253.871054,12.398880,266.269934,252.873969,265.272849,21.394904,47,-1.000000,""
48_updated,w0,python3action_modeltraining_reviews100mb_nova,0.997085,1,2000.000000,1,COMPLETED_SUCCESSFULLY,191.902023,79.600010,271.502033,190.904938,270.504948,3.398303,3,-1.000000,""
48,w0,python3action_modeltraining_reviews100mb,0.000000,1,-1.000000,1,COMPLETED_SUCCESSFULLY,271.502048,0.000010,271.502058,271.502048,271.502058,27150205.821549,3,-1.000000,""
40_updated,w0,python3action_linpack_6000_orion,0.997085,1,2000.000000,1,COMPLETED_SUCCESSFULLY,166.776018,106.000000,272.776018,165.778933,271.778933,2.563952,26,-1.000000,""
40,w0,python3action_linpack_6000,0.000000,1,-1.000000,1,COMPLETED_SUCCESSFULLY,272.776033,0.000010,272.776043,272.776033,272.776043,27277604.328448,26,-1.000000,""
123_updated,w0,python3action_videoprocessing_SampleVideo_30mb_nova,0.997085,1,2000.000000,1,COMPLETED_SUCCESSFULLY,166.342304,106.799980,273.142284,165.345219,272.145199,2.548176,22,-1.000000,""
123,w0,python3action_videoprocessing_SampleVideo_30mb,0.000000,1,-1.000000,1,COMPLETED_SUCCESSFULLY,273.142299,0.000010,273.142309,273.142299,273.142309,27314230.946608,22,-1.000000,""
python3action_floatoperation_job86_2,w0,python3action_floatoperation,0.997085,1,2000.000000,1,COMPLETED_SUCCESSFULLY,271.502078,2.439945,273.942024,270.504993,272.944939,111.865188,3,-1.000000,""
python3action_pyaes_job169_20,w0,python3action_pyaes,0.997085,1,2000.000000,1,COMPLETED_SUCCESSFULLY,273.142329,2.134958,275.277288,272.145244,274.280203,128.470992,22,-1.000000,""
58_updated,w0,python3action_videoprocessing_SampleVideo_30mb_nova,0.997085,1,2000.000000,1,COMPLETED_SUCCESSFULLY,169.342044,106.799980,276.142024,168.344959,275.144939,2.576264,10,-1.000000,""
58,w0,python3action_videoprocessing_SampleVideo_30mb,0.000000,1,-1.000000,1,COMPLETED_SUCCESSFULLY,276.142039,0.000010,276.142049,276.142039,276.142049,27614204.946609,10,-1.000000,""
python3action_modeltraining_job101_9,w0,python3action_modeltraining_reduced_1.0,0.997085,1,2000.000000,1,COMPLETED_SUCCESSFULLY,276.142069,0.000000,276.142069,275.144984,275.144984,5634926374839.150391,10,-1.000000,""
69_updated,w0,python3action_videoprocessing_SampleVideo_30mb_nova,0.997085,1,2000.000000,1,COMPLETED_SUCCESSFULLY,169.342209,106.799980,276.142189,168.345124,275.145104,2.576265,17,-1.000000,""
69,w0,python3action_videoprocessing_SampleVideo_30mb,0.000000,1,-1.000000,1,COMPLETED_SUCCESSFULLY,276.142204,0.000010,276.142214,276.142204,276.142214,27614221.423792,17,-1.000000,""
97_updated,w0,python3action_floatoperation_100000000_nova,0.997085,1,2000.000000,1,COMPLETED_SUCCESSFULLY,211.742064,66.200020,277.942084,210.744979,276.944999,4.183458,8,-1.000000,""
97,w0,python3action_floatoperation_100000000,0.000000,1,-1.000000,1,COMPLETED_SUCCESSFULLY,277.942099,0.000010,277.942109,277.942099,277.942109,27794210.900201,8,-1.000000,""
python3action_pyaes_job110_15,w0,python3action_pyaes,0.997085,1,2000.000000,1,COMPLETED_SUCCESSFULLY,276.142234,2.134958,278.277192,275.145149,277.280107,129.876127,17,-1.000000,""
56_updated,w0,python3action_floatoperation_200000000_nova,0.997085,1,2000.000000,1,COMPLETED_SUCCESSFULLY,145.177384,135.399990,280.577375,144.180299,279.580290,2.064847,9,-1.000000,""
56,w0,python3action_floatoperation_200000000,0.000000,1,-1.000000,1,COMPLETED_SUCCESSFULLY,280.577390,0.000010,280.577400,280.577390,280.577400,28057740.000201,9,-1.000000,""
60_updated,w0,python3action_floatoperation_200000000_nova,0.997085,1,2000.000000,1,COMPLETED_SUCCESSFULLY,145.177414,135.399990,280.577405,144.180329,279.580320,2.064847,11,-1.000000,""
60,w0,python3action_floatoperation_200000000,0.000000,1,-1.000000,1,COMPLETED_SUCCESSFULLY,280.577435,0.000010,280.577445,280.577435,280.577445,28057744.500402,11,-1.000000,""
188_updated,w0,python3action_chameleon_3000_yeti,0.997085,1,2000.000000,1,COMPLETED_SUCCESSFULLY,187.895645,93.000000,280.895645,186.898560,279.898560,3.009662,49,-1.000000,""
188,w0,python3action_chameleon_3000,0.000000,1,-1.000000,1,COMPLETED_SUCCESSFULLY,280.895660,0.000010,280.895670,280.895660,280.895670,28089567.027074,49,-1.000000,""
192_updated,w0,python3action_chameleon_3000_yeti,0.997085,1,2000.000000,1,COMPLETED_SUCCESSFULLY,187.895705,93.000000,280.895705,186.898620,279.898620,3.009663,50,-1.000000,""
192,w0,python3action_chameleon_3000,0.000000,1,-1.000000,1,COMPLETED_SUCCESSFULLY,280.895720,0.000010,280.895730,280.895720,280.895730,28089573.027877,50,-1.000000,""
143_updated,w0,python3action_imageprocessing_SampleImage_40mb_taurus,0.997085,1,2000.000000,1,COMPLETED_SUCCESSFULLY,251.876422,32.600046,284.476469,250.879337,283.479384,8.695674,41,-1.000000,""
143,w0,python3action_imageprocessing_SampleImage_40mb,0.000000,1,-1.000000,1,COMPLETED_SUCCESSFULLY,284.476484,0.000010,284.476494,284.476484,284.476494,28447649.400201,41,-1.000000,""
126_updated,w0,python3action_pyaes_3000_nova,0.997085,1,2000.000000,1,COMPLETED_SUCCESSFULLY,207.177609,78.200020,285.377629,206.180524,284.380544,3.636579,24,-1.000000,""
126,w0,python3action_pyaes_3000,0.000000,1,-1.000000,1,COMPLETED_SUCCESSFULLY,285.377644,0.000010,285.377654,285.377644,285.377654,28537765.400201,24,-1.000000,""
89_updated,w0,python3action_modeltraining_reviews100mb_nova,0.997085,1,2000.000000,1,COMPLETED_SUCCESSFULLY,206.942054,79.600010,286.542064,205.944969,285.544979,3.587248,4,-1.000000,""
89,w0,python3action_modeltraining_reviews100mb,0.000000,1,-1.000000,1,COMPLETED_SUCCESSFULLY,286.542079,0.000010,286.542089,286.542079,286.542089,28654208.900201,4,-1.000000,""
python3action_facedetection_job133_3,w0,python3action_facedetection_reduced_1.83,0.997085,1,2000.000000,1,COMPLETED_SUCCESSFULLY,286.542109,0.000000,286.542109,285.545024,285.545024,5847917562714.865234,4,-1.000000,""
128_updated,w0,python3action_chameleon_2000_troll,0.997085,1,2000.000000,1,COMPLETED_SUCCESSFULLY,249.269824,39.500010,288.769834,248.272739,287.772749,7.285384,46,-1.000000,""
128,w0,python3action_chameleon_2000,0.000000,1,-1.000000,1,COMPLETED_SUCCESSFULLY,288.769849,0.000010,288.769859,288.769849,288.769859,28876985.932926,46,-1.000000,""
python3action_image_processing_job124_25,w0,python3action_image_processing,0.997085,1,2000.000000,1,COMPLETED_SUCCESSFULLY,218.763668,72.012455,290.776123,217.766583,289.779038,4.024013,28,-1.000000,""
120_updated,w0,python3action_chameleon_3000_troll,0.997085,1,2000.000000,1,COMPLETED_SUCCESSFULLY,200.269805,94.000000,294.269805,199.272720,293.272720,3.119923,48,-1.000000,""
120,w0,python3action_chameleon_3000,0.000000,1,-1.000000,1,COMPLETED_SUCCESSFULLY,294.269820,0.000010,294.269830,294.269820,294.269830,29426983.000402,48,-1.000000,""
92_updated,w0,python3action_facedetection_SampleVideo_50mb_taurus,0.997085,1,2000.000000,1,COMPLETED_SUCCESSFULLY,161.215353,134.600046,295.815399,160.218268,294.818314,2.190328,40,-1.000000,""
92,w0,python3action_facedetection_SampleVideo_50mb,0.000000,1,-1.000000,1,COMPLETED_SUCCESSFULLY,295.815414,0.000010,295.815424,295.815414,295.815424,29581542.415933,40,-1.000000,""
python3action_image_processing_job142_36,w0,python3action_image_processing_reduced_1.73,0.997085,1,2000.000000,1,COMPLETED_SUCCESSFULLY,295.815444,0.000000,295.815444,294.818359,294.818359,2556185028936.926270,40,-1.000000,""
107_updated,w0,python3action_pyaes_3000_nova,0.997085,1,2000.000000,1,COMPLETED_SUCCESSFULLY,219.177444,78.200020,297.377464,218.180359,296.380379,3.790029,15,-1.000000,""
107,w0,python3action_pyaes_3000,0.000000,1,-1.000000,1,COMPLETED_SUCCESSFULLY,297.377479,0.000010,297.377489,297.377479,297.377489,29737748.900201,15,-1.000000,""
121_updated,w0,python3action_linpack_5000_taurus,0.997085,1,2000.000000,1,COMPLETED_SUCCESSFULLY,265.626363,38.500058,304.126421,264.629278,303.129336,7.873477,35,-1.000000,""
121,w0,python3action_linpack_5000,0.000000,1,-1.000000,1,COMPLETED_SUCCESSFULLY,304.126436,0.000010,304.126446,304.126436,304.126446,30412644.604705,35,-1.000000,""
python3action_facedetection_job172_31,w0,python3action_facedetection_reduced_1.83,0.997085,1,2000.000000,1,COMPLETED_SUCCESSFULLY,304.126466,0.000000,304.126466,303.129381,303.129381,2628244685550.044922,35,-1.000000,""
python3action_modeltraining_job99_8,w0,python3action_modeltraining,0.997085,1,2000.000000,1,COMPLETED_SUCCESSFULLY,280.577420,30.499683,311.077103,279.580335,310.080018,10.166664,9,-1.000000,""
python3action_video_processing_job103_10,w0,python3action_video_processing,0.997085,1,2000.000000,1,COMPLETED_SUCCESSFULLY,280.577465,30.499683,311.077148,279.580380,310.080063,10.166665,11,-1.000000,""
105_updated,w0,python3action_facedetection_SampleVideo_30mb_nova,0.997085,1,2000.000000,1,COMPLETED_SUCCESSFULLY,154.237197,160.399990,314.637187,153.240112,313.640102,1.955362,13,-1.000000,""
105,w0,python3action_facedetection_SampleVideo_30mb,0.000000,1,-1.000000,1,COMPLETED_SUCCESSFULLY,314.637202,0.000010,314.637212,314.637202,314.637212,31463721.224308,13,-1.000000,""
68_updated,w0,python3action_videoprocessing_SampleVideo_50mb_taurus,0.997085,1,2000.000000,1,COMPLETED_SUCCESSFULLY,161.215293,154.250029,315.465322,160.218208,314.468237,2.038692,36,-1.000000,""
68,w0,python3action_videoprocessing_SampleVideo_50mb,0.000000,1,-1.000000,1,COMPLETED_SUCCESSFULLY,315.465337,0.000010,315.465347,315.465337,315.465347,31546534.700201,36,-1.000000,""
python3action_video_processing_job171_21,w0,python3action_video_processing,0.997085,1,2000.000000,1,COMPLETED_SUCCESSFULLY,285.377674,30.499683,315.877357,284.380589,314.880272,10.324051,24,-1.000000,""
101_updated,w0,python3action_modeltraining_reviews50mb_nova,0.997085,1,2000.000000,1,COMPLETED_SUCCESSFULLY,276.142099,42.399990,318.542090,275.145014,317.545005,7.489271,10,-1.000000,""
101,w0,python3action_modeltraining_reviews50mb,0.000000,1,-1.000000,1,COMPLETED_SUCCESSFULLY,318.542105,0.000010,318.542115,318.542105,318.542115,31854211.500201,10,-1.000000,""
python3action_pyaes_job145_9,w0,python3action_pyaes,0.997085,1,2000.000000,1,COMPLETED_SUCCESSFULLY,318.542135,2.134958,320.677093,317.545050,319.680008,149.735954,10,-1.000000,""
162_updated,w0,python3action_facedetection_SampleVideo_50mb_taurus,0.997085,1,2000.000000,1,COMPLETED_SUCCESSFULLY,188.376375,134.600046,322.976422,187.379290,321.979337,2.392119,31,-1.000000,""
162,w0,python3action_facedetection_SampleVideo_50mb,0.000000,1,-1.000000,1,COMPLETED_SUCCESSFULLY,322.976437,0.000010,322.976447,322.976437,322.976447,32297644.700201,31,-1.000000,""
python3action_video_processing_job195_28,w0,python3action_video_processing_reduced_1.83,0.997085,1,2000.000000,1,COMPLETED_SUCCESSFULLY,322.976467,0.000000,322.976467,321.979382,321.979382,2791681217702.363770,31,-1.000000,""
111_updated,w0,python3action_linpack_6000_orion,0.997085,1,2000.000000,1,COMPLETED_SUCCESSFULLY,218.763608,106.000000,324.763608,217.766523,323.766523,3.054401,27,-1.000000,""
111,w0,python3action_linpack_6000,0.000000,1,-1.000000,1,COMPLETED_SUCCESSFULLY,324.763623,0.000010,324.763633,324.763623,324.763633,32476363.301406,27,-1.000000,""
114_updated,w0,python3action_videoprocessing_SampleVideo_30mb_nova,0.997085,1,2000.000000,1,COMPLETED_SUCCESSFULLY,218.637232,106.799980,325.437212,217.640147,324.440127,3.037829,19,-1.000000,""
114,w0,python3action_videoprocessing_SampleVideo_30mb,0.000000,1,-1.000000,1,COMPLETED_SUCCESSFULLY,325.437227,0.000010,325.437237,325.437227,325.437237,32543723.747011,19,-1.000000,""
153_updated,w0,python3action_imageprocessing_SampleImage_60mb_troll,0.997085,1,2000.000000,1,COMPLETED_SUCCESSFULLY,266.269949,62.000000,328.269949,265.272864,327.272864,5.278595,47,-1.000000,""
153,w0,python3action_imageprocessing_SampleImage_60mb,0.000000,1,-1.000000,1,COMPLETED_SUCCESSFULLY,328.269964,0.000010,328.269974,328.269964,328.269974,32826997.427164,47,-1.000000,""
117_updated,w0,python3action_modeltraining_reviews100mb_taurus,0.997085,1,2000.000000,1,COMPLETED_SUCCESSFULLY,240.215423,88.199977,328.415400,239.218338,327.418315,3.712227,33,-1.000000,""
117,w0,python3action_modeltraining_reviews100mb,0.000000,1,-1.000000,1,COMPLETED_SUCCESSFULLY,328.415415,0.000010,328.415425,328.415415,328.415425,32841542.528409,33,-1.000000,""
python3action_video_processing_job170_30,w0,python3action_video_processing_reduced_2.8,0.997085,1,2000.000000,1,COMPLETED_SUCCESSFULLY,328.415445,0.000000,328.415445,327.418360,327.418360,2838839186075.876465,33,-1.000000,""
142_updated,w0,python3action_imageprocessing_SampleImage_40mb_taurus,0.997085,1,2000.000000,1,COMPLETED_SUCCESSFULLY,295.815474,32.600046,328.415520,294.818389,327.418435,10.043496,40,-1.000000,""
142,w0,python3action_imageprocessing_SampleImage_40mb,0.000000,1,-1.000000,1,COMPLETED_SUCCESSFULLY,328.415535,0.000010,328.415545,328.415535,328.415545,32841554.530015,40,-1.000000,""
72_updated,w0,python3action_facedetection_SampleVideo_30mb_nova,0.997085,1,2000.000000,1,COMPLETED_SUCCESSFULLY,169.342239,160.399990,329.742229,168.345154,328.745144,2.049533,18,-1.000000,""
83_updated,w0,python3action_floatoperation_200000000_nova,0.997085,1,2000.000000,1,COMPLETED_SUCCESSFULLY,194.342239,135.399990,329.742229,193.345154,328.745144,2.427955,25,-1.000000,""
72,w0,python3action_facedetection_SampleVideo_30mb,0.000000,1,-1.000000,1,COMPLETED_SUCCESSFULLY,329.742244,0.000010,329.742254,329.742244,329.742254,32974225.423505,18,-1.000000,""
83,w0,python3action_floatoperation_200000000,0.000000,1,-1.000000,1,COMPLETED_SUCCESSFULLY,329.742259,0.000010,329.742269,329.742259,329.742269,32974226.923706,25,-1.000000,""
python3action_video_processing_job112_16,w0,python3action_video_processing_reduced_0.91,0.997085,1,2000.000000,1,COMPLETED_SUCCESSFULLY,329.742289,0.000000,329.742289,328.745204,328.745204,6732650517135.558594,18,-1.000000,""
python3action_pyaes_job127_22,w0,python3action_pyaes,0.997085,1,2000.000000,1,COMPLETED_SUCCESSFULLY,329.742304,2.134958,331.877262,328.745219,330.880177,154.982037,25,-1.000000,""
51_updated,w0,python3action_facedetection_SampleVideo_30mb_nova,0.997085,1,2000.000000,1,COMPLETED_SUCCESSFULLY,173.237017,160.399990,333.637007,172.239932,332.639922,2.073815,6,-1.000000,""
51,w0,python3action_facedetection_SampleVideo_30mb,0.000000,1,-1.000000,1,COMPLETED_SUCCESSFULLY,333.637022,0.000010,333.637032,333.637022,333.637032,33363703.223505,6,-1.000000,""
python3action_floatoperation_job91_5,w0,python3action_floatoperation,0.997085,1,2000.000000,1,COMPLETED_SUCCESSFULLY,333.637052,2.439945,336.076998,332.639967,335.079913,137.330912,6,-1.000000,""
136_updated,w0,python3action_facedetection_SampleVideo_50mb_taurus,0.997085,1,2000.000000,1,COMPLETED_SUCCESSFULLY,205.476368,134.600046,340.076414,204.479283,339.079329,2.519162,37,-1.000000,""
136,w0,python3action_facedetection_SampleVideo_50mb,0.000000,1,-1.000000,1,COMPLETED_SUCCESSFULLY,340.076429,0.000010,340.076439,340.076429,340.076439,34007643.914685,37,-1.000000,""
python3action_image_processing_job176_33,w0,python3action_image_processing_reduced_1.73,0.997085,1,2000.000000,1,COMPLETED_SUCCESSFULLY,340.076459,0.000000,340.076459,339.079374,339.079374,2939944521384.022949,37,-1.000000,""
86_updated,w0,python3action_floatoperation_100000000_nova,0.997085,1,2000.000000,1,COMPLETED_SUCCESSFULLY,273.942039,66.200020,340.142059,272.944954,339.144974,5.123034,3,-1.000000,""
86,w0,python3action_floatoperation_100000000,0.000000,1,-1.000000,1,COMPLETED_SUCCESSFULLY,340.142074,0.000010,340.142084,340.142074,340.142084,34014208.400201,3,-1.000000,""
131_updated,w0,python3action_facedetection_SampleVideo_30mb_nova,0.997085,1,2000.000000,1,COMPLETED_SUCCESSFULLY,184.942054,160.399990,345.342044,183.944969,344.344959,2.146789,2,-1.000000,""
131,w0,python3action_facedetection_SampleVideo_30mb,0.000000,1,-1.000000,1,COMPLETED_SUCCESSFULLY,345.342059,0.000010,345.342069,345.342059,345.342069,34534206.924309,2,-1.000000,""
149_updated,w0,python3action_imageprocessing_SampleImage_60mb_troll,0.997085,1,2000.000000,1,COMPLETED_SUCCESSFULLY,288.769879,62.000000,350.769879,287.772794,349.772794,5.641497,46,-1.000000,""
149,w0,python3action_imageprocessing_SampleImage_60mb,0.000000,1,-1.000000,1,COMPLETED_SUCCESSFULLY,350.769894,0.000010,350.769904,350.769894,350.769904,35076990.433529,46,-1.000000,""
99_updated,w0,python3action_modeltraining_reviews50mb_nova,0.997085,1,2000.000000,1,COMPLETED_SUCCESSFULLY,311.077118,42.399990,353.477108,310.080033,352.480023,8.313210,9,-1.000000,""
99,w0,python3action_modeltraining_reviews50mb,0.000000,1,-1.000000,1,COMPLETED_SUCCESSFULLY,353.477123,0.000010,353.477133,353.477123,353.477133,35347713.323506,9,-1.000000,""
109_updated,w0,python3action_pyaes_4000_nova,0.997085,1,2000.000000,1,COMPLETED_SUCCESSFULLY,213.877172,139.600010,353.477182,212.880087,352.480097,2.524929,16,-1.000000,""
109,w0,python3action_pyaes_4000,0.000000,1,-1.000000,1,COMPLETED_SUCCESSFULLY,353.477197,0.000010,353.477207,353.477197,353.477207,35347720.724973,16,-1.000000,""
169_updated,w0,python3action_pyaes_3000_nova,0.997085,1,2000.000000,1,COMPLETED_SUCCESSFULLY,275.277303,78.200020,353.477323,274.280218,352.480238,4.507419,22,-1.000000,""
169,w0,python3action_pyaes_3000,0.000000,1,-1.000000,1,COMPLETED_SUCCESSFULLY,353.477338,0.000010,353.477348,353.477338,353.477348,35347734.800201,22,-1.000000,""
122_updated,w0,python3action_chameleon_3000_troll,0.997085,1,2000.000000,1,COMPLETED_SUCCESSFULLY,262.269790,94.000000,356.269790,261.272705,355.272705,3.779497,44,-1.000000,""
122,w0,python3action_chameleon_3000,0.000000,1,-1.000000,1,COMPLETED_SUCCESSFULLY,356.269805,0.000010,356.269815,356.269805,356.269815,35626981.500402,44,-1.000000,""
137_updated,w0,python3action_imageprocessing_SampleImage_60mb_troll,0.997085,1,2000.000000,1,COMPLETED_SUCCESSFULLY,294.269850,62.000000,356.269850,293.272765,355.272765,5.730206,48,-1.000000,""
137,w0,python3action_imageprocessing_SampleImage_60mb,0.000000,1,-1.000000,1,COMPLETED_SUCCESSFULLY,356.269865,0.000010,356.269875,356.269865,356.269875,35626987.501205,48,-1.000000,""
150_updated,w0,python3action_modeltraining_reviews50mb_nova,0.997085,1,2000.000000,1,COMPLETED_SUCCESSFULLY,314.637232,42.399990,357.037222,313.640147,356.040137,8.397175,13,-1.000000,""
150,w0,python3action_modeltraining_reviews50mb,0.000000,1,-1.000000,1,COMPLETED_SUCCESSFULLY,357.037237,0.000010,357.037247,357.037237,357.037247,35703724.748015,13,-1.000000,""
140_updated,w0,python3action_videoprocessing_SampleVideo_50mb_taurus,0.997085,1,2000.000000,1,COMPLETED_SUCCESSFULLY,205.476323,154.250029,359.726352,204.479238,358.729267,2.325635,39,-1.000000,""
140,w0,python3action_videoprocessing_SampleVideo_50mb,0.000000,1,-1.000000,1,COMPLETED_SUCCESSFULLY,359.726367,0.000010,359.726377,359.726367,359.726377,35972637.700201,39,-1.000000,""
python3action_image_processing_job180_35,w0,python3action_image_processing_reduced_1.73,0.997085,1,2000.000000,1,COMPLETED_SUCCESSFULLY,359.726397,0.000000,359.726397,358.729312,358.729312,3110316804532.953125,39,-1.000000,""
187_updated,w0,python3action_imageprocessing_SampleImage_40mb_taurus,0.997085,1,2000.000000,1,COMPLETED_SUCCESSFULLY,328.415565,32.600046,361.015611,327.418480,360.018526,11.043497,40,-1.000000,""
187,w0,python3action_imageprocessing_SampleImage_40mb,0.000000,1,-1.000000,1,COMPLETED_SUCCESSFULLY,361.015626,0.000010,361.015636,361.015626,361.015636,36101563.643696,40,-1.000000,""
79_updated,w0,python3action_videoprocessing_SampleVideo_50mb_taurus,0.997085,1,2000.000000,1,COMPLETED_SUCCESSFULLY,207.615362,154.250029,361.865391,206.618277,360.868306,2.339502,38,-1.000000,""
79,w0,python3action_videoprocessing_SampleVideo_50mb,0.000000,1,-1.000000,1,COMPLETED_SUCCESSFULLY,361.865406,0.000010,361.865416,361.865406,361.865416,36186541.604843,38,-1.000000,""
python3action_modeltraining_job138_34,w0,python3action_modeltraining_reduced_1.94,0.997085,1,2000.000000,1,COMPLETED_SUCCESSFULLY,361.865436,0.000000,361.865436,360.868351,360.868351,3128863070112.502441,38,-1.000000,""
151_updated,w0,python3action_pyaes_4000_nova,0.997085,1,2000.000000,1,COMPLETED_SUCCESSFULLY,228.177539,139.600010,367.777549,227.180454,366.780464,2.627367,14,-1.000000,""
151,w0,python3action_pyaes_4000,0.000000,1,-1.000000,1,COMPLETED_SUCCESSFULLY,367.777564,0.000010,367.777574,367.777564,367.777574,36777757.400201,14,-1.000000,""
176_updated,w0,python3action_imageprocessing_SampleImage_40mb_taurus,0.997085,1,2000.000000,1,COMPLETED_SUCCESSFULLY,340.076489,32.600046,372.676535,339.079404,371.679450,11.401194,37,-1.000000,""
176,w0,python3action_imageprocessing_SampleImage_40mb,0.000000,1,-1.000000,1,COMPLETED_SUCCESSFULLY,372.676550,0.000010,372.676560,372.676550,372.676560,37267656.028767,37,-1.000000,""
100_updated,w0,python3action_facedetection_SampleVideo_50mb_taurus,0.997085,1,2000.000000,1,COMPLETED_SUCCESSFULLY,240.215303,134.600046,374.815349,239.218218,373.818264,2.777252,29,-1.000000,""
100,w0,python3action_facedetection_SampleVideo_50mb,0.000000,1,-1.000000,1,COMPLETED_SUCCESSFULLY,374.815364,0.000010,374.815374,374.815364,374.815374,37481537.446420,29,-1.000000,""
python3action_video_processing_job148_26,w0,python3action_video_processing_reduced_1.83,0.997085,1,2000.000000,1,COMPLETED_SUCCESSFULLY,374.815394,0.000000,374.815394,373.818309,373.818309,3241144034980.722656,29,-1.000000,""
191_updated,w0,python3action_videoprocessing_SampleVideo_50mb_taurus,0.997085,1,2000.000000,1,COMPLETED_SUCCESSFULLY,220.976497,154.250029,375.226526,219.979412,374.229441,2.426122,30,-1.000000,""
191,w0,python3action_videoprocessing_SampleVideo_50mb,0.000000,1,-1.000000,1,COMPLETED_SUCCESSFULLY,375.226541,0.000010,375.226551,375.226541,375.226551,37522655.100201,30,-1.000000,""
154_updated,w0,python3action_pyaes_3000_nova,0.997085,1,2000.000000,1,COMPLETED_SUCCESSFULLY,297.377509,78.200020,375.577529,296.380424,374.580444,4.790030,15,-1.000000,""
154,w0,python3action_pyaes_3000,0.000000,1,-1.000000,1,COMPLETED_SUCCESSFULLY,375.577544,0.000010,375.577554,375.577544,375.577554,37557755.400201,15,-1.000000,""
93_updated,w0,python3action_facedetection_SampleVideo_30mb_nova,0.997085,1,2000.000000,1,COMPLETED_SUCCESSFULLY,215.637141,160.399990,376.037132,214.640056,375.040047,2.338155,7,-1.000000,""
93,w0,python3action_facedetection_SampleVideo_30mb,0.000000,1,-1.000000,1,COMPLETED_SUCCESSFULLY,376.037147,0.000010,376.037157,376.037147,376.037157,37603715.700201,7,-1.000000,""
python3action_video_processing_job139_6,w0,python3action_video_processing_reduced_1.89,0.997085,1,2000.000000,1,COMPLETED_SUCCESSFULLY,376.037177,0.000000,376.037177,375.040092,375.040092,7680762599168.487305,7,-1.000000,""
96_updated,w0,python3action_linpack_6000_orion,0.997085,1,2000.000000,1,COMPLETED_SUCCESSFULLY,272.776063,106.000000,378.776063,271.778978,377.778978,3.563953,26,-1.000000,""
96,w0,python3action_linpack_6000,0.000000,1,-1.000000,1,COMPLETED_SUCCESSFULLY,378.776078,0.000010,378.776088,378.776078,378.776088,37877608.829051,26,-1.000000,""
124_updated,w0,python3action_imageprocessing_SampleImage_60mb_orion,0.997085,1,2000.000000,1,COMPLETED_SUCCESSFULLY,290.776138,88.000000,378.776138,289.779053,377.779053,4.292944,28,-1.000000,""
124,w0,python3action_imageprocessing_SampleImage_60mb,0.000000,1,-1.000000,1,COMPLETED_SUCCESSFULLY,378.776153,0.000010,378.776163,378.776153,378.776163,37877616.333491,28,-1.000000,""
134_updated,w0,python3action_floatoperation_200000000_nova,0.997085,1,2000.000000,1,COMPLETED_SUCCESSFULLY,249.342135,135.399990,384.742125,248.345050,383.745040,2.834159,5,-1.000000,""
134,w0,python3action_floatoperation_200000000,0.000000,1,-1.000000,1,COMPLETED_SUCCESSFULLY,384.742140,0.000010,384.742150,384.742140,384.742150,38474215.023908,5,-1.000000,""
178_updated,w0,python3action_chameleon_2000_troll,0.997085,1,2000.000000,1,COMPLETED_SUCCESSFULLY,350.769924,39.500010,390.269934,349.772839,389.272849,9.855006,46,-1.000000,""
178,w0,python3action_chameleon_2000,0.000000,1,-1.000000,1,COMPLETED_SUCCESSFULLY,390.269949,0.000010,390.269959,390.269949,390.269959,39026995.926964,46,-1.000000,""
185_updated,w0,python3action_imageprocessing_SampleImage_60mb_troll,0.997085,1,2000.000000,1,COMPLETED_SUCCESSFULLY,328.269994,62.000000,390.269994,327.272909,389.272909,6.278595,47,-1.000000,""
185,w0,python3action_imageprocessing_SampleImage_60mb,0.000000,1,-1.000000,1,COMPLETED_SUCCESSFULLY,390.270009,0.000010,390.270019,390.270009,390.270019,39027001.927767,47,-1.000000,""
180_updated,w0,python3action_imageprocessing_SampleImage_40mb_taurus,0.997085,1,2000.000000,1,COMPLETED_SUCCESSFULLY,359.726427,32.600046,392.326473,358.729342,391.329388,12.003952,39,-1.000000,""
180,w0,python3action_imageprocessing_SampleImage_40mb,0.000000,1,-1.000000,1,COMPLETED_SUCCESSFULLY,392.326488,0.000010,392.326498,392.326488,392.326498,39232649.814283,39,-1.000000,""
113_updated,w0,python3action_facedetection_SampleVideo_50mb_taurus,0.997085,1,2000.000000,1,COMPLETED_SUCCESSFULLY,259.865376,134.600046,394.465422,258.868291,393.468337,2.923241,32,-1.000000,""
113,w0,python3action_facedetection_SampleVideo_50mb,0.000000,1,-1.000000,1,COMPLETED_SUCCESSFULLY,394.465437,0.000010,394.465447,394.465437,394.465447,39446544.727763,32,-1.000000,""
118_updated,w0,python3action_facedetection_SampleVideo_30mb_nova,0.997085,1,2000.000000,1,COMPLETED_SUCCESSFULLY,234.302359,160.399990,394.702349,233.305274,393.705264,2.454522,21,-1.000000,""
118,w0,python3action_facedetection_SampleVideo_30mb,0.000000,1,-1.000000,1,COMPLETED_SUCCESSFULLY,394.702364,0.000010,394.702374,394.702364,394.702374,39470237.423908,21,-1.000000,""
python3action_pyaes_job167_19,w0,python3action_pyaes,0.997085,1,2000.000000,1,COMPLETED_SUCCESSFULLY,394.702394,2.134958,396.837352,393.705309,395.840267,185.408904,21,-1.000000,""
91_updated,w0,python3action_floatoperation_100000000_nova,0.997085,1,2000.000000,1,COMPLETED_SUCCESSFULLY,336.077013,66.200020,402.277033,335.079928,401.279948,6.061629,6,-1.000000,""
91,w0,python3action_floatoperation_100000000,0.000000,1,-1.000000,1,COMPLETED_SUCCESSFULLY,402.277048,0.000010,402.277058,402.277048,402.277058,40227705.800201,6,-1.000000,""
python3action_video_processing_job135_5,w0,python3action_video_processing_reduced_0.91,0.997085,1,2000.000000,1,COMPLETED_SUCCESSFULLY,402.277078,0.000000,402.277078,401.279993,401.279993,8218151679702.896484,6,-1.000000,""
127_updated,w0,python3action_pyaes_3000_nova,0.997085,1,2000.000000,1,COMPLETED_SUCCESSFULLY,331.877277,78.200020,410.077297,330.880192,409.080212,5.231203,25,-1.000000,""
127,w0,python3action_pyaes_3000,0.000000,1,-1.000000,1,COMPLETED_SUCCESSFULLY,410.077312,0.000010,410.077322,410.077312,410.077322,41007732.202271,25,-1.000000,""
python3action_modeltraining_job174_22,w0,python3action_modeltraining_reduced_0.94,0.997085,1,2000.000000,1,COMPLETED_SUCCESSFULLY,410.077342,0.000000,410.077342,409.080257,409.080257,8377899870445.416016,25,-1.000000,""
141_updated,w0,python3action_floatoperation_200000000_nova,0.997085,1,2000.000000,1,COMPLETED_SUCCESSFULLY,277.942129,135.399990,413.342119,276.945044,412.345034,3.045385,8,-1.000000,""
141,w0,python3action_floatoperation_200000000,0.000000,1,-1.000000,1,COMPLETED_SUCCESSFULLY,413.342134,0.000010,413.342144,413.342134,413.342144,41334214.423908,8,-1.000000,""
103_updated,w0,python3action_videoprocessing_SampleVideo_30mb_nova,0.997085,1,2000.000000,1,COMPLETED_SUCCESSFULLY,311.077163,106.799980,417.877143,310.080078,416.880058,3.903372,11,-1.000000,""
103,w0,python3action_videoprocessing_SampleVideo_30mb,0.000000,1,-1.000000,1,COMPLETED_SUCCESSFULLY,417.877158,0.000010,417.877168,417.877158,417.877168,41787716.846609,11,-1.000000,""
110_updated,w0,python3action_pyaes_4000_nova,0.997085,1,2000.000000,1,COMPLETED_SUCCESSFULLY,278.277207,139.600010,417.877217,277.280122,416.880132,2.986247,17,-1.000000,""
110,w0,python3action_pyaes_4000,0.000000,1,-1.000000,1,COMPLETED_SUCCESSFULLY,417.877232,0.000010,417.877242,417.877232,417.877242,41787724.225260,17,-1.000000,""
147_updated,w0,python3action_imageprocessing_SampleImage_60mb_troll,0.997085,1,2000.000000,1,COMPLETED_SUCCESSFULLY,356.269835,62.000000,418.269835,355.272750,417.272750,6.730206,44,-1.000000,""
147,w0,python3action_imageprocessing_SampleImage_60mb,0.000000,1,-1.000000,1,COMPLETED_SUCCESSFULLY,418.269850,0.000010,418.269860,418.269850,418.269860,41826986.001005,44,-1.000000,""
189_updated,w0,python3action_facedetection_SampleVideo_50mb_taurus,0.997085,1,2000.000000,1,COMPLETED_SUCCESSFULLY,284.476514,134.600046,419.076560,283.479429,418.079475,3.106087,41,-1.000000,""
189,w0,python3action_facedetection_SampleVideo_50mb,0.000000,1,-1.000000,1,COMPLETED_SUCCESSFULLY,419.076575,0.000010,419.076585,419.076575,419.076585,41907658.513882,41,-1.000000,""
166_updated,w0,python3action_facedetection_SampleVideo_30mb_nova,0.997085,1,2000.000000,1,COMPLETED_SUCCESSFULLY,260.302404,160.399990,420.702394,259.305319,419.705309,2.616617,20,-1.000000,""
166,w0,python3action_facedetection_SampleVideo_30mb,0.000000,1,-1.000000,1,COMPLETED_SUCCESSFULLY,420.702409,0.000010,420.702419,420.702409,420.702419,42070241.924309,20,-1.000000,""
171_updated,w0,python3action_videoprocessing_SampleVideo_30mb_nova,0.997085,1,2000.000000,1,COMPLETED_SUCCESSFULLY,315.877372,106.799980,422.677352,314.880287,421.680267,3.948318,24,-1.000000,""
171,w0,python3action_videoprocessing_SampleVideo_30mb,0.000000,1,-1.000000,1,COMPLETED_SUCCESSFULLY,422.677367,0.000010,422.677377,422.677367,422.677377,42267737.746609,24,-1.000000,""
175_updated,w0,python3action_modeltraining_reviews100mb_nova,0.997085,1,2000.000000,1,COMPLETED_SUCCESSFULLY,345.342089,79.600010,424.942099,344.345004,423.945014,5.325942,2,-1.000000,""
175,w0,python3action_modeltraining_reviews100mb,0.000000,1,-1.000000,1,COMPLETED_SUCCESSFULLY,424.942114,0.000010,424.942124,424.942114,424.942124,42494212.401808,2,-1.000000,""
158_updated,w0,python3action_linpack_6000_orion,0.997085,1,2000.000000,1,COMPLETED_SUCCESSFULLY,324.763653,106.000000,430.763653,323.766568,429.766568,4.054402,27,-1.000000,""
158,w0,python3action_linpack_6000,0.000000,1,-1.000000,1,COMPLETED_SUCCESSFULLY,430.763668,0.000010,430.763678,430.763668,430.763678,43076367.802009,27,-1.000000,""
112_updated,w0,python3action_videoprocessing_SampleVideo_30mb_nova,0.997085,1,2000.000000,1,COMPLETED_SUCCESSFULLY,329.742334,106.799980,436.542315,328.745249,435.545230,4.078140,18,-1.000000,""
112,w0,python3action_videoprocessing_SampleVideo_30mb,0.000000,1,-1.000000,1,COMPLETED_SUCCESSFULLY,436.542330,0.000010,436.542340,436.542330,436.542340,43654234.000201,18,-1.000000,""
python3action_modeltraining_job164_16,w0,python3action_modeltraining_reduced_1.94,0.997085,1,2000.000000,1,COMPLETED_SUCCESSFULLY,436.542360,0.000000,436.542360,435.545275,435.545275,8919899311610.205078,18,-1.000000,""
172_updated,w0,python3action_facedetection_SampleVideo_50mb_taurus,0.997085,1,2000.000000,1,COMPLETED_SUCCESSFULLY,304.126496,134.600046,438.726542,303.129411,437.729457,3.252075,35,-1.000000,""
172,w0,python3action_facedetection_SampleVideo_50mb,0.000000,1,-1.000000,1,COMPLETED_SUCCESSFULLY,438.726557,0.000010,438.726567,438.726557,438.726567,43872656.718788,35,-1.000000,""
133_updated,w0,python3action_facedetection_SampleVideo_30mb_nova,0.997085,1,2000.000000,1,COMPLETED_SUCCESSFULLY,286.542139,160.399990,446.942129,285.545054,445.945044,2.780206,4,-1.000000,""
133,w0,python3action_facedetection_SampleVideo_30mb,0.000000,1,-1.000000,1,COMPLETED_SUCCESSFULLY,446.942144,0.000010,446.942154,446.942144,446.942154,44694215.424309,4,-1.000000,""
138_updated,w0,python3action_modeltraining_reviews100mb_taurus,0.997085,1,2000.000000,1,COMPLETED_SUCCESSFULLY,361.865466,88.199977,450.065443,360.868381,449.068358,5.091479,38,-1.000000,""
138,w0,python3action_modeltraining_reviews100mb,0.000000,1,-1.000000,1,COMPLETED_SUCCESSFULLY,450.065458,0.000010,450.065468,450.065458,450.065468,45006546.800201,38,-1.000000,""
python3action_image_processing_job179_34,w0,python3action_image_processing_reduced_2.59,0.997085,1,2000.000000,1,COMPLETED_SUCCESSFULLY,450.065488,0.000000,450.065488,449.068403,449.068403,3893590385585.405762,38,-1.000000,""
160_updated,w0,python3action_chameleon_3000_troll,0.997085,1,2000.000000,1,COMPLETED_SUCCESSFULLY,356.269895,94.000000,450.269895,355.272810,449.272810,4.779498,48,-1.000000,""
160,w0,python3action_chameleon_3000,0.000000,1,-1.000000,1,COMPLETED_SUCCESSFULLY,450.269910,0.000010,450.269920,450.269910,450.269920,45026992.001808,48,-1.000000,""
145_updated,w0,python3action_pyaes_4000_nova,0.997085,1,2000.000000,1,COMPLETED_SUCCESSFULLY,320.677108,139.600010,460.277118,319.680023,459.280033,3.289971,10,-1.000000,""
145,w0,python3action_pyaes_4000,0.000000,1,-1.000000,1,COMPLETED_SUCCESSFULLY,460.277133,0.000010,460.277143,460.277133,460.277143,46027714.301669,10,-1.000000,""
165_updated,w0,python3action_pyaes_4000_nova,0.997085,1,2000.000000,1,COMPLETED_SUCCESSFULLY,325.437257,139.600010,465.037267,324.440172,464.040182,3.324070,19,-1.000000,""
165,w0,python3action_pyaes_4000,0.000000,1,-1.000000,1,COMPLETED_SUCCESSFULLY,465.037282,0.000010,465.037292,465.037282,465.037292,46503729.224510,19,-1.000000,""
129_updated,w0,python3action_videoprocessing_SampleVideo_50mb_taurus,0.997085,1,2000.000000,1,COMPLETED_SUCCESSFULLY,315.465367,154.250029,469.715396,314.468282,468.718311,3.038692,36,-1.000000,""
129,w0,python3action_videoprocessing_SampleVideo_50mb,0.000000,1,-1.000000,1,COMPLETED_SUCCESSFULLY,469.715411,0.000010,469.715421,469.715411,469.715421,46971542.100201,36,-1.000000,""
195_updated,w0,python3action_videoprocessing_SampleVideo_50mb_taurus,0.997085,1,2000.000000,1,COMPLETED_SUCCESSFULLY,322.976497,154.250029,477.226526,321.979412,476.229441,3.087386,31,-1.000000,""
195,w0,python3action_videoprocessing_SampleVideo_50mb,0.000000,1,-1.000000,1,COMPLETED_SUCCESSFULLY,477.226541,0.000010,477.226551,477.226541,477.226551,47722655.100201,31,-1.000000,""
164_updated,w0,python3action_modeltraining_reviews50mb_nova,0.997085,1,2000.000000,1,COMPLETED_SUCCESSFULLY,436.542390,42.399990,478.942380,435.545305,477.945295,11.272297,18,-1.000000,""
164,w0,python3action_modeltraining_reviews50mb,0.000000,1,-1.000000,1,COMPLETED_SUCCESSFULLY,478.942395,0.000010,478.942405,478.942395,478.942405,47894240.524309,18,-1.000000,""
170_updated,w0,python3action_videoprocessing_SampleVideo_50mb_taurus,0.997085,1,2000.000000,1,COMPLETED_SUCCESSFULLY,328.415475,154.250029,482.665504,327.418390,481.668419,3.122647,33,-1.000000,""
170,w0,python3action_videoprocessing_SampleVideo_50mb,0.000000,1,-1.000000,1,COMPLETED_SUCCESSFULLY,482.665519,0.000010,482.665529,482.665519,482.665529,48266552.912587,33,-1.000000,""
179_updated,w0,python3action_imageprocessing_SampleImage_40mb_taurus,0.997085,1,2000.000000,1,COMPLETED_SUCCESSFULLY,450.065518,32.600046,482.665564,449.068433,481.668479,14.775086,38,-1.000000,""
179,w0,python3action_imageprocessing_SampleImage_40mb,0.000000,1,-1.000000,1,COMPLETED_SUCCESSFULLY,482.665579,0.000010,482.665589,482.665579,482.665589,48266558.914283,38,-1.000000,""
139_updated,w0,python3action_videoprocessing_SampleVideo_30mb_nova,0.997085,1,2000.000000,1,COMPLETED_SUCCESSFULLY,376.037207,106.799980,482.837187,375.040122,481.840102,4.511612,7,-1.000000,""
139,w0,python3action_videoprocessing_SampleVideo_30mb,0.000000,1,-1.000000,1,COMPLETED_SUCCESSFULLY,482.837202,0.000010,482.837212,482.837202,482.837212,48283721.247412,7,-1.000000,""
146_updated,w0,python3action_floatoperation_100000000_nova,0.997085,1,2000.000000,1,COMPLETED_SUCCESSFULLY,417.877188,66.200020,484.077208,416.880103,483.080123,7.297281,11,-1.000000,""
146,w0,python3action_floatoperation_100000000,0.000000,1,-1.000000,1,COMPLETED_SUCCESSFULLY,484.077223,0.000010,484.077233,484.077223,484.077233,48407723.301005,11,-1.000000,""
156_updated,w0,python3action_floatoperation_100000000_nova,0.997085,1,2000.000000,1,COMPLETED_SUCCESSFULLY,417.877262,66.200020,484.077282,416.880177,483.080197,7.297282,17,-1.000000,""
156,w0,python3action_floatoperation_100000000,0.000000,1,-1.000000,1,COMPLETED_SUCCESSFULLY,484.077297,0.000010,484.077307,484.077297,484.077307,48407730.700201,17,-1.000000,""
157_updated,w0,python3action_linpack_6000_orion,0.997085,1,2000.000000,1,COMPLETED_SUCCESSFULLY,378.776108,106.000000,484.776108,377.779023,483.779023,4.563953,26,-1.000000,""
157,w0,python3action_linpack_6000,0.000000,1,-1.000000,1,COMPLETED_SUCCESSFULLY,484.776123,0.000010,484.776133,484.776123,484.776133,48477613.329654,26,-1.000000,""
161_updated,w0,python3action_linpack_6000_orion,0.997085,1,2000.000000,1,COMPLETED_SUCCESSFULLY,378.776183,106.000000,484.776183,377.779098,483.779098,4.563954,28,-1.000000,""
161,w0,python3action_linpack_6000,0.000000,1,-1.000000,1,COMPLETED_SUCCESSFULLY,484.776198,0.000010,484.776208,484.776198,484.776208,48477620.834094,28,-1.000000,""
155_updated,w0,python3action_floatoperation_200000000_nova,0.997085,1,2000.000000,1,COMPLETED_SUCCESSFULLY,353.477227,135.399990,488.877217,352.480142,487.880132,3.603251,16,-1.000000,""
155,w0,python3action_floatoperation_200000000,0.000000,1,-1.000000,1,COMPLETED_SUCCESSFULLY,488.877232,0.000010,488.877242,488.877232,488.877242,48887724.248680,16,-1.000000,""
174_updated,w0,python3action_modeltraining_reviews100mb_nova,0.997085,1,2000.000000,1,COMPLETED_SUCCESSFULLY,410.077372,79.600010,489.677382,409.080287,488.680297,6.139199,25,-1.000000,""
174,w0,python3action_modeltraining_reviews100mb,0.000000,1,-1.000000,1,COMPLETED_SUCCESSFULLY,489.677397,0.000010,489.677407,489.677397,489.677407,48967740.700201,25,-1.000000,""
182_updated,w0,python3action_videoprocessing_SampleVideo_30mb_nova,0.997085,1,2000.000000,1,COMPLETED_SUCCESSFULLY,384.742170,106.799980,491.542151,383.745085,490.545066,4.593119,5,-1.000000,""
182,w0,python3action_videoprocessing_SampleVideo_30mb,0.000000,1,-1.000000,1,COMPLETED_SUCCESSFULLY,491.542166,0.000010,491.542176,491.542166,491.542176,49154217.600201,5,-1.000000,""
194_updated,w0,python3action_modeltraining_reviews100mb_nova,0.997085,1,2000.000000,1,COMPLETED_SUCCESSFULLY,413.342164,79.600010,492.942174,412.345079,491.945089,6.180214,8,-1.000000,""
194,w0,python3action_modeltraining_reviews100mb,0.000000,1,-1.000000,1,COMPLETED_SUCCESSFULLY,492.942189,0.000010,492.942199,492.942189,492.942199,49294219.901407,8,-1.000000,""
144_updated,w0,python3action_pyaes_4000_nova,0.997085,1,2000.000000,1,COMPLETED_SUCCESSFULLY,353.477153,139.600010,493.077163,352.480068,492.080078,3.524929,9,-1.000000,""
144,w0,python3action_pyaes_4000,0.000000,1,-1.000000,1,COMPLETED_SUCCESSFULLY,493.077178,0.000010,493.077188,493.077178,493.077188,49307718.801005,9,-1.000000,""
132_updated,w0,python3action_facedetection_SampleVideo_30mb_nova,0.997085,1,2000.000000,1,COMPLETED_SUCCESSFULLY,340.142104,160.399990,500.542094,339.145019,499.545009,3.114371,3,-1.000000,""
132,w0,python3action_facedetection_SampleVideo_30mb,0.000000,1,-1.000000,1,COMPLETED_SUCCESSFULLY,500.542109,0.000010,500.542119,500.542109,500.542119,50054211.923908,3,-1.000000,""
python3action_pyaes_job177_2,w0,python3action_pyaes,0.997085,1,2000.000000,1,COMPLETED_SUCCESSFULLY,500.542139,2.134958,502.677097,499.545054,501.680012,234.983525,3,-1.000000,""
135_updated,w0,python3action_videoprocessing_SampleVideo_30mb_nova,0.997085,1,2000.000000,1,COMPLETED_SUCCESSFULLY,402.277108,106.799980,509.077088,401.280023,508.080003,4.757304,6,-1.000000,""
135,w0,python3action_videoprocessing_SampleVideo_30mb,0.000000,1,-1.000000,1,COMPLETED_SUCCESSFULLY,509.077103,0.000010,509.077113,509.077103,509.077113,50907711.347412,6,-1.000000,""
163_updated,w0,python3action_chameleon_3000_troll,0.997085,1,2000.000000,1,COMPLETED_SUCCESSFULLY,418.269880,94.000000,512.269880,417.272795,511.272795,5.439072,44,-1.000000,""
163,w0,python3action_chameleon_3000,0.000000,1,-1.000000,1,COMPLETED_SUCCESSFULLY,512.269895,0.000010,512.269905,512.269895,512.269905,51226990.501608,44,-1.000000,""
181_updated,w0,python3action_floatoperation_100000000_nova,0.997085,1,2000.000000,1,COMPLETED_SUCCESSFULLY,446.942174,66.200020,513.142194,445.945089,512.145109,7.736329,4,-1.000000,""
181,w0,python3action_floatoperation_100000000,0.000000,1,-1.000000,1,COMPLETED_SUCCESSFULLY,513.142209,0.000010,513.142219,513.142209,513.142219,51314221.900201,4,-1.000000,""
199_updated,w0,python3action_imageprocessing_SampleImage_40mb_taurus,0.997085,1,2000.000000,1,COMPLETED_SUCCESSFULLY,482.665549,32.600046,515.265595,481.668464,514.268510,15.775085,33,-1.000000,""
199,w0,python3action_imageprocessing_SampleImage_40mb,0.000000,1,-1.000000,1,COMPLETED_SUCCESSFULLY,515.265610,0.000010,515.265620,515.265610,515.265620,51526562.026268,33,-1.000000,""
198_updated,w0,python3action_floatoperation_100000000_nova,0.997085,1,2000.000000,1,COMPLETED_SUCCESSFULLY,460.277163,66.200020,526.477183,459.280078,525.480098,7.937763,10,-1.000000,""
198,w0,python3action_floatoperation_100000000,0.000000,1,-1.000000,1,COMPLETED_SUCCESSFULLY,526.477198,0.000010,526.477208,526.477198,526.477208,52647720.800201,10,-1.000000,""
148_updated,w0,python3action_videoprocessing_SampleVideo_50mb_taurus,0.997085,1,2000.000000,1,COMPLETED_SUCCESSFULLY,374.815424,154.250029,529.065453,373.818339,528.068368,3.423457,29,-1.000000,""
148,w0,python3action_videoprocessing_SampleVideo_50mb,0.000000,1,-1.000000,1,COMPLETED_SUCCESSFULLY,529.065468,0.000010,529.065478,529.065468,529.065478,52906547.830598,29,-1.000000,""
168_updated,w0,python3action_facedetection_SampleVideo_50mb_taurus,0.997085,1,2000.000000,1,COMPLETED_SUCCESSFULLY,394.465467,134.600046,529.065513,393.468382,528.068428,3.923241,32,-1.000000,""
168,w0,python3action_facedetection_SampleVideo_50mb,0.000000,1,-1.000000,1,COMPLETED_SUCCESSFULLY,529.065528,0.000010,529.065538,529.065528,529.065538,52906553.841444,32,-1.000000,""
python3action_linpack_job190_26,w0,python3action_linpack,0.997085,1,2000.000000,1,COMPLETED_SUCCESSFULLY,529.065498,5.760927,534.826426,528.068413,533.829341,92.663788,29,-1.000000,""
167_updated,w0,python3action_pyaes_4000_nova,0.997085,1,2000.000000,1,COMPLETED_SUCCESSFULLY,396.837367,139.600010,536.437377,395.840282,535.440292,3.835532,21,-1.000000,""
167,w0,python3action_pyaes_4000,0.000000,1,-1.000000,1,COMPLETED_SUCCESSFULLY,536.437392,0.000010,536.437402,536.437392,536.437402,53643740.225376,21,-1.000000,""
193_updated,w0,python3action_pyaes_3000_nova,0.997085,1,2000.000000,1,COMPLETED_SUCCESSFULLY,482.837232,78.200020,561.037252,481.840147,560.040167,7.161637,7,-1.000000,""
193,w0,python3action_pyaes_3000,0.000000,1,-1.000000,1,COMPLETED_SUCCESSFULLY,561.037267,0.000010,561.037277,561.037267,561.037277,56103727.701808,7,-1.000000,""
190_updated,w0,python3action_linpack_5000_taurus,0.997085,1,2000.000000,1,COMPLETED_SUCCESSFULLY,534.826441,38.500058,573.326499,533.829356,572.329414,14.865677,29,-1.000000,""
190,w0,python3action_linpack_5000,0.000000,1,-1.000000,1,COMPLETED_SUCCESSFULLY,573.326514,0.000010,573.326524,573.326514,573.326524,57332652.400201,29,-1.000000,""
177_updated,w0,python3action_pyaes_3000_nova,0.997085,1,2000.000000,1,COMPLETED_SUCCESSFULLY,502.677112,78.200020,580.877132,501.680027,579.880047,7.415344,3,-1.000000,""
177,w0,python3action_pyaes_3000,0.000000,1,-1.000000,1,COMPLETED_SUCCESSFULLY,580.877147,0.000010,580.877157,580.877147,580.877157,58087715.702271,3,-1.000000,""
183_updated,w0,python3action_linpack_6000_orion,0.997085,1,2000.000000,1,COMPLETED_SUCCESSFULLY,484.776153,106.000000,590.776153,483.779068,589.779068,5.563953,26,-1.000000,""
183,w0,python3action_linpack_6000,0.000000,1,-1.000000,1,COMPLETED_SUCCESSFULLY,590.776168,0.000010,590.776178,590.776168,590.776178,59077617.830256,26,-1.000000,""
173_updated,w0,python3action_videoprocessing_SampleVideo_50mb_taurus,0.997085,1,2000.000000,1,COMPLETED_SUCCESSFULLY,469.715441,154.250029,623.965470,468.718356,622.968385,4.038692,36,-1.000000,""
173,w0,python3action_videoprocessing_SampleVideo_50mb,0.000000,1,-1.000000,1,COMPLETED_SUCCESSFULLY,623.965485,0.000010,623.965495,623.965485,623.965495,62396549.500201,36,-1.000000,""
196_updated,w0,python3action_floatoperation_200000000_nova,0.997085,1,2000.000000,1,COMPLETED_SUCCESSFULLY,493.077208,135.399990,628.477198,492.080123,627.480113,4.634270,9,-1.000000,""
196,w0,python3action_floatoperation_200000000,0.000000,1,-1.000000,1,COMPLETED_SUCCESSFULLY,628.477213,0.000010,628.477223,628.477213,628.477223,62847722.324711,9,-1.000000,""
184_updated,w0,python3action_floatoperation_200000000_nova,0.997085,1,2000.000000,1,COMPLETED_SUCCESSFULLY,509.077133,135.399990,644.477124,508.080048,643.480039,4.752438,6,-1.000000,""
184,w0,python3action_floatoperation_200000000,0.000000,1,-1.000000,1,COMPLETED_SUCCESSFULLY,644.477139,0.000010,644.477149,644.477139,644.477149,64447714.900201,6,-1.000000,""
197_updated,w0,python3action_facedetection_SampleVideo_50mb_taurus,0.997085,1,2000.000000,1,COMPLETED_SUCCESSFULLY,529.065558,134.600046,663.665605,528.068473,662.668520,4.923241,32,-1.000000,""
197,w0,python3action_facedetection_SampleVideo_50mb,0.000000,1,-1.000000,1,COMPLETED_SUCCESSFULLY,663.665620,0.000010,663.665630,663.665620,663.665630,66366563.000201,32,-1.000000,""
