job_id,workload_name,profile,submission_time,requested_number_of_resources,requested_time,success,final_state,starting_time,execution_time,finish_time,waiting_time,turnaround_time,stretch,allocated_resources,consumed_energy,metadata
python3action_pyaes_job2_1,w0,python3action_pyaes,0.997085,1,2000.000000,1,COMPLETED_SUCCESSFULLY,1.002115,2.134958,3.137073,0.005030,2.139988,1.002356,3,-1.000000,""
python3action_linpack_job1_0,w0,python3action_linpack,0.997085,1,2000.000000,1,COMPLETED_SUCCESSFULLY,1.002100,2.439945,3.442045,0.005015,2.444960,1.002055,2,-1.000000,""
python3action_floatoperation_job6_2,w0,python3action_floatoperation,0.997085,1,2000.000000,1,COMPLETED_SUCCESSFULLY,1.002130,2.439945,3.442075,0.005045,2.444990,1.002068,4,-1.000000,""
python3action_floatoperation_job8_3,w0,python3action_floatoperation,0.997085,1,2000.000000,1,COMPLETED_SUCCESSFULLY,1.002145,2.439945,3.442090,0.005060,2.445005,1.002074,5,-1.000000,""
python3action_floatoperation_job9_4,w0,python3action_floatoperation,0.997085,1,2000.000000,1,COMPLETED_SUCCESSFULLY,1.002160,2.439945,3.442105,0.005075,2.445020,1.002080,6,-1.000000,""
python3action_linpack_job10_5,w0,python3action_linpack,0.997085,1,2000.000000,1,COMPLETED_SUCCESSFULLY,1.002175,2.439945,3.442120,0.005090,2.445035,1.002086,7,-1.000000,""
python3action_floatoperation_job13_17,w0,python3action_floatoperation,0.997085,1,2000.000000,1,COMPLETED_SUCCESSFULLY,1.002355,2.439945,3.442300,0.005270,2.445215,1.002160,26,-1.000000,""
python3action_chameleon_job18_13,w0,python3action_chameleon,0.997085,1,2000.000000,1,COMPLETED_SUCCESSFULLY,1.002295,5.040826,6.043121,0.005210,5.046036,1.001034,16,-1.000000,""
python3action_linpack_job51_6,w0,python3action_linpack,0.997085,1,2000.000000,1,COMPLETED_SUCCESSFULLY,1.002190,5.760927,6.763117,0.005105,5.766032,1.000886,8,-1.000000,""
python3action_linpack_job52_7,w0,python3action_linpack,0.997085,1,2000.000000,1,COMPLETED_SUCCESSFULLY,1.002205,5.760927,6.763132,0.005120,5.766047,1.000889,9,-1.000000,""
python3action_image_processing_job0_14,w0,python3action_image_processing,0.997085,1,2000.000000,1,COMPLETED_SUCCESSFULLY,1.002310,12.398880,13.401190,0.005225,12.404105,1.000421,19,-1.000000,""
python3action_image_processing_job7_15,w0,python3action_image_processing,0.997085,1,2000.000000,1,COMPLETED_SUCCESSFULLY,1.002325,12.398880,13.401205,0.005240,12.404120,1.000423,20,-1.000000,""
python3action_modeltraining_job11_16,w0,python3action_modeltraining,0.997085,1,2000.000000,1,COMPLETED_SUCCESSFULLY,1.002340,30.499683,31.502023,0.005255,30.504938,1.000172,25,-1.000000,""
python3action_modeltraining_job14_18,w0,python3action_modeltraining,0.997085,1,2000.000000,1,COMPLETED_SUCCESSFULLY,1.002370,30.499683,31.502053,0.005285,30.504968,1.000173,27,-1.000000,""
python3action_modeltraining_job15_19,w0,python3action_modeltraining,0.997085,1,2000.000000,1,COMPLETED_SUCCESSFULLY,1.002385,30.499683,31.502068,0.005300,30.504983,1.000174,28,-1.000000,""
python3action_video_processing_job16_20,w0,python3action_video_processing,0.997085,1,2000.000000,1,COMPLETED_SUCCESSFULLY,1.002400,30.499683,31.502083,0.005315,30.504998,1.000174,29,-1.000000,""
1_updated,w0,python3action_linpack_5000_nova,0.997085,1,2000.000000,1,COMPLETED_SUCCESSFULLY,3.442060,34.600010,38.042070,2.444975,37.044985,1.070664,2,-1.000000,""
1,w0,python3action_linpack_5000,0.000000,1,-1.000000,1,COMPLETED_SUCCESSFULLY,38.042085,0.000010,38.042095,38.042085,38.042095,3804209.506879,2,-1.000000,""
10_updated,w0,python3action_linpack_5000_nova,0.997085,1,2000.000000,1,COMPLETED_SUCCESSFULLY,3.442165,34.600010,38.042175,2.445080,37.045090,1.070667,7,-1.000000,""
10,w0,python3action_linpack_5000,0.000000,1,-1.000000,1,COMPLETED_SUCCESSFULLY,38.042190,0.000010,38.042200,38.042190,38.042200,3804220.008285,7,-1.000000,""
python3action_floatoperation_job19_1,w0,python3action_floatoperation,0.997085,1,2000.000000,1,COMPLETED_SUCCESSFULLY,38.042115,2.439945,40.482060,37.045030,39.484975,16.182730,2,-1.000000,""
python3action_modeltraining_job27_6,w0,python3action_modeltraining,0.997085,1,2000.000000,1,COMPLETED_SUCCESSFULLY,38.042220,30.499683,68.541903,37.045135,67.544818,2.214607,7,-1.000000,""
6_updated,w0,python3action_floatoperation_100000000_nova,0.997085,1,2000.000000,1,COMPLETED_SUCCESSFULLY,3.442090,66.200020,69.642110,2.445005,68.645025,1.036934,4,-1.000000,""
6,w0,python3action_floatoperation_100000000,0.000000,1,-1.000000,1,COMPLETED_SUCCESSFULLY,69.642125,0.000010,69.642135,69.642125,69.642135,6964213.500201,4,-1.000000,""
8_updated,w0,python3action_floatoperation_100000000_nova,0.997085,1,2000.000000,1,COMPLETED_SUCCESSFULLY,3.442120,66.200020,69.642140,2.445035,68.645055,1.036934,5,-1.000000,""
8,w0,python3action_floatoperation_100000000,0.000000,1,-1.000000,1,COMPLETED_SUCCESSFULLY,69.642170,0.000010,69.642180,69.642170,69.642180,6964218.000402,5,-1.000000,""
13_updated,w0,python3action_floatoperation_100000000_nova,0.997085,1,2000.000000,1,COMPLETED_SUCCESSFULLY,3.442315,66.200020,69.642335,2.445230,68.645250,1.036937,26,-1.000000,""
13,w0,python3action_floatoperation_100000000,0.000000,1,-1.000000,1,COMPLETED_SUCCESSFULLY,69.642350,0.000010,69.642360,69.642350,69.642360,6964236.000201,26,-1.000000,""
18_updated,w0,python3action_chameleon_2000_taurus,0.997085,1,2000.000000,1,COMPLETED_SUCCESSFULLY,6.043136,64.199977,70.243113,5.046051,69.246028,1.078599,16,-1.000000,""
18,w0,python3action_chameleon_2000,0.000000,1,-1.000000,1,COMPLETED_SUCCESSFULLY,70.243128,0.000010,70.243138,70.243128,70.243138,7024313.800201,16,-1.000000,""
python3action_pyaes_job22_3,w0,python3action_pyaes,0.997085,1,2000.000000,1,COMPLETED_SUCCESSFULLY,69.642155,2.134958,71.777113,68.645070,70.780028,33.152887,4,-1.000000,""
python3action_linpack_job24_4,w0,python3action_linpack,0.997085,1,2000.000000,1,COMPLETED_SUCCESSFULLY,69.642200,2.439945,72.082145,68.645115,71.085060,29.133875,5,-1.000000,""
python3action_facedetection_job3_8,w0,python3action_facedetection,0.997085,1,2000.000000,1,COMPLETED_SUCCESSFULLY,1.002220,72.012455,73.014675,0.005135,72.017590,1.000071,10,-1.000000,""
python3action_image_processing_job4_9,w0,python3action_image_processing,0.997085,1,2000.000000,1,COMPLETED_SUCCESSFULLY,1.002235,72.012455,73.014690,0.005150,72.017605,1.000072,11,-1.000000,""
python3action_facedetection_job5_10,w0,python3action_facedetection,0.997085,1,2000.000000,1,COMPLETED_SUCCESSFULLY,1.002250,72.012455,73.014705,0.005165,72.017620,1.000072,13,-1.000000,""
python3action_image_processing_job12_11,w0,python3action_image_processing,0.997085,1,2000.000000,1,COMPLETED_SUCCESSFULLY,1.002265,72.012455,73.014720,0.005180,72.017635,1.000072,14,-1.000000,""
python3action_video_processing_job17_12,w0,python3action_video_processing,0.997085,1,2000.000000,1,COMPLETED_SUCCESSFULLY,1.002280,72.012455,73.014735,0.005195,72.017650,1.000072,15,-1.000000,""
14_updated,w0,python3action_modeltraining_reviews50mb_nova,0.997085,1,2000.000000,1,COMPLETED_SUCCESSFULLY,31.502068,42.399990,73.902058,30.504983,72.904973,1.719457,27,-1.000000,""
14,w0,python3action_modeltraining_reviews50mb,0.000000,1,-1.000000,1,COMPLETED_SUCCESSFULLY,73.902073,0.000010,73.902083,73.902073,73.902083,7390208.300201,27,-1.000000,""
0_updated,w0,python3action_imageprocessing_SampleImage_60mb_troll,0.997085,1,2000.000000,1,COMPLETED_SUCCESSFULLY,13.401205,62.000000,75.401205,12.404120,74.404120,1.200066,19,-1.000000,""
0,w0,python3action_imageprocessing_SampleImage_60mb,0.000000,1,-1.000000,1,COMPLETED_SUCCESSFULLY,75.401220,0.000010,75.401230,75.401220,75.401230,7540123.011992,19,-1.000000,""
7_updated,w0,python3action_imageprocessing_SampleImage_60mb_troll,0.997085,1,2000.000000,1,COMPLETED_SUCCESSFULLY,13.401235,62.000000,75.401235,12.404150,74.404150,1.200067,20,-1.000000,""
7,w0,python3action_imageprocessing_SampleImage_60mb,0.000000,1,-1.000000,1,COMPLETED_SUCCESSFULLY,75.401265,0.000010,75.401275,75.401265,75.401275,7540127.512594,20,-1.000000,""
python3action_linpack_job31_19,w0,python3action_linpack,0.997085,1,2000.000000,1,COMPLETED_SUCCESSFULLY,73.902103,2.439945,76.342048,72.905018,75.344963,30.879776,27,-1.000000,""
python3action_modeltraining_job29_18,w0,python3action_modeltraining,0.997085,1,2000.000000,1,COMPLETED_SUCCESSFULLY,69.642380,30.499683,100.142063,68.645295,99.144978,3.250689,26,-1.000000,""
4_updated,w0,python3action_imageprocessing_SampleImage_40mb_taurus,0.997085,1,2000.000000,1,COMPLETED_SUCCESSFULLY,73.014720,32.600046,105.614766,72.017635,104.617681,3.209127,11,-1.000000,""
4,w0,python3action_imageprocessing_SampleImage_40mb,0.000000,1,-1.000000,1,COMPLETED_SUCCESSFULLY,105.614781,0.000010,105.614791,105.614781,105.614791,10561479.146769,11,-1.000000,""
19_updated,w0,python3action_floatoperation_100000000_nova,0.997085,1,2000.000000,1,COMPLETED_SUCCESSFULLY,40.482075,66.200020,106.682095,39.484990,105.685010,1.596450,2,-1.000000,""
19,w0,python3action_floatoperation_100000000,0.000000,1,-1.000000,1,COMPLETED_SUCCESSFULLY,106.682110,0.000010,106.682120,106.682110,106.682120,10668212.000201,2,-1.000000,""
24_updated,w0,python3action_linpack_5000_nova,0.997085,1,2000.000000,1,COMPLETED_SUCCESSFULLY,72.082160,34.600010,106.682170,71.085075,105.685085,3.054481,5,-1.000000,""
24,w0,python3action_linpack_5000,0.000000,1,-1.000000,1,COMPLETED_SUCCESSFULLY,106.682185,0.000010,106.682195,106.682185,106.682195,10668219.507481,5,-1.000000,""
python3action_pyaes_job41_4,w0,python3action_pyaes_reduced_0.85,0.997085,1,2000.000000,1,COMPLETED_SUCCESSFULLY,106.682215,0.320244,107.002459,105.685130,106.005374,331.014668,5,-1.000000,""
31_updated,w0,python3action_linpack_5000_nova,0.997085,1,2000.000000,1,COMPLETED_SUCCESSFULLY,76.342063,34.600010,110.942073,75.344978,109.944988,3.177600,27,-1.000000,""
31,w0,python3action_linpack_5000,0.000000,1,-1.000000,1,COMPLETED_SUCCESSFULLY,110.942088,0.000010,110.942098,110.942088,110.942098,11094209.807281,27,-1.000000,""
11_updated,w0,python3action_modeltraining_reviews100mb_nova,0.997085,1,2000.000000,1,COMPLETED_SUCCESSFULLY,31.502038,79.600010,111.102048,30.504953,110.104963,1.383228,25,-1.000000,""
11,w0,python3action_modeltraining_reviews100mb,0.000000,1,-1.000000,1,COMPLETED_SUCCESSFULLY,111.102063,0.000010,111.102073,111.102063,111.102073,11110207.300201,25,-1.000000,""
python3action_video_processing_job28_17,w0,python3action_video_processing_reduced_0.97,0.997085,1,2000.000000,1,COMPLETED_SUCCESSFULLY,111.102093,0.000000,111.102093,110.105008,110.105008,2254277317736.105469,25,-1.000000,""
15_updated,w0,python3action_modeltraining_reviews100mb_nova,0.997085,1,2000.000000,1,COMPLETED_SUCCESSFULLY,31.502098,79.600010,111.102108,30.505013,110.105023,1.383229,28,-1.000000,""
15,w0,python3action_modeltraining_reviews100mb,0.000000,1,-1.000000,1,COMPLETED_SUCCESSFULLY,111.102138,0.000010,111.102148,111.102138,111.102148,11110214.800402,28,-1.000000,""
51_updated,w0,python3action_linpack_6000_orion,0.997085,1,2000.000000,1,COMPLETED_SUCCESSFULLY,6.763132,106.000000,112.763132,5.766047,111.766047,1.054397,8,-1.000000,""
51,w0,python3action_linpack_6000,0.000000,1,-1.000000,1,COMPLETED_SUCCESSFULLY,112.763147,0.000010,112.763157,112.763147,112.763157,11276315.724677,8,-1.000000,""
52_updated,w0,python3action_linpack_6000_orion,0.997085,1,2000.000000,1,COMPLETED_SUCCESSFULLY,6.763162,106.000000,112.763162,5.766077,111.766077,1.054397,9,-1.000000,""
52,w0,python3action_linpack_6000,0.000000,1,-1.000000,1,COMPLETED_SUCCESSFULLY,112.763192,0.000010,112.763202,112.763192,112.763202,11276320.225279,9,-1.000000,""
python3action_floatoperation_job49_19,w0,python3action_floatoperation,0.997085,1,2000.000000,1,COMPLETED_SUCCESSFULLY,110.942118,2.439945,113.382063,109.945033,112.384978,46.060450,27,-1.000000,""
25_updated,w0,python3action_imageprocessing_SampleImage_60mb_troll,0.997085,1,2000.000000,1,COMPLETED_SUCCESSFULLY,75.401250,62.000000,137.401250,74.404165,136.404165,2.200067,19,-1.000000,""
25,w0,python3action_imageprocessing_SampleImage_60mb,0.000000,1,-1.000000,1,COMPLETED_SUCCESSFULLY,137.401265,0.000010,137.401275,137.401265,137.401275,13740127.512594,19,-1.000000,""
40_updated,w0,python3action_imageprocessing_SampleImage_60mb_troll,0.997085,1,2000.000000,1,COMPLETED_SUCCESSFULLY,75.401295,62.000000,137.401295,74.404210,136.404210,2.200068,20,-1.000000,""
40,w0,python3action_imageprocessing_SampleImage_60mb,0.000000,1,-1.000000,1,COMPLETED_SUCCESSFULLY,137.401325,0.000010,137.401335,137.401325,137.401335,13740133.513397,20,-1.000000,""
23_updated,w0,python3action_imageprocessing_SampleImage_40mb_taurus,0.997085,1,2000.000000,1,COMPLETED_SUCCESSFULLY,105.614811,32.600046,138.214858,104.617726,137.217773,4.209128,11,-1.000000,""
23,w0,python3action_imageprocessing_SampleImage_40mb,0.000000,1,-1.000000,1,COMPLETED_SUCCESSFULLY,138.214873,0.000010,138.214883,138.214873,138.214883,13821488.300201,11,-1.000000,""
python3action_facedetection_job54_10,w0,python3action_facedetection_reduced_0.91,0.997085,1,2000.000000,1,COMPLETED_SUCCESSFULLY,138.214903,0.000000,138.214903,137.217818,137.217818,1189729612110.802979,11,-1.000000,""
python3action_chameleon_job42_15,w0,python3action_chameleon,0.997085,1,2000.000000,1,COMPLETED_SUCCESSFULLY,137.401295,0.867914,138.269209,136.404210,137.272124,158.163340,19,-1.000000,""
python3action_chameleon_job43_16,w0,python3action_chameleon,0.997085,1,2000.000000,1,COMPLETED_SUCCESSFULLY,137.401355,0.867914,138.269269,136.404270,137.272184,158.163409,20,-1.000000,""
16_updated,w0,python3action_videoprocessing_SampleVideo_30mb_nova,0.997085,1,2000.000000,1,COMPLETED_SUCCESSFULLY,31.502113,106.799980,138.302093,30.505028,137.305008,1.285628,29,-1.000000,""
16,w0,python3action_videoprocessing_SampleVideo_30mb,0.000000,1,-1.000000,1,COMPLETED_SUCCESSFULLY,138.302108,0.000010,138.302118,138.302108,138.302118,13830211.846810,29,-1.000000,""
python3action_facedetection_job35_21,w0,python3action_facedetection_reduced_0.91,0.997085,1,2000.000000,1,COMPLETED_SUCCESSFULLY,138.302138,0.000000,138.302138,137.305053,137.305053,2810350256568.632812,29,-1.000000,""
9_updated,w0,python3action_floatoperation_200000000_nova,0.997085,1,2000.000000,1,COMPLETED_SUCCESSFULLY,3.442150,135.399990,138.842141,2.445065,137.845056,1.018058,6,-1.000000,""
9,w0,python3action_floatoperation_200000000,0.000000,1,-1.000000,1,COMPLETED_SUCCESSFULLY,138.842156,0.000010,138.842166,138.842156,138.842166,13884216.600201,6,-1.000000,""
python3action_video_processing_job38_14,w0,python3action_video_processing,0.997085,1,2000.000000,1,COMPLETED_SUCCESSFULLY,70.243158,72.012455,142.255613,69.246073,141.258528,1.961585,16,-1.000000,""
2_updated,w0,python3action_pyaes_4000_nova,0.997085,1,2000.000000,1,COMPLETED_SUCCESSFULLY,3.137088,139.600010,142.737098,2.140003,141.740013,1.015330,3,-1.000000,""
2,w0,python3action_pyaes_4000,0.000000,1,-1.000000,1,COMPLETED_SUCCESSFULLY,142.737113,0.000010,142.737123,142.737113,142.737123,14273712.301468,3,-1.000000,""
27_updated,w0,python3action_modeltraining_reviews100mb_nova,0.997085,1,2000.000000,1,COMPLETED_SUCCESSFULLY,68.541918,79.600010,148.141928,67.544833,147.144843,1.848553,7,-1.000000,""
27,w0,python3action_modeltraining_reviews100mb,0.000000,1,-1.000000,1,COMPLETED_SUCCESSFULLY,148.141943,0.000010,148.141953,148.141943,148.141953,14814195.300201,7,-1.000000,""
22_updated,w0,python3action_pyaes_3000_nova,0.997085,1,2000.000000,1,COMPLETED_SUCCESSFULLY,71.777128,78.200020,149.977148,70.780043,148.980063,1.905115,4,-1.000000,""
22,w0,python3action_pyaes_3000,0.000000,1,-1.000000,1,COMPLETED_SUCCESSFULLY,149.977163,0.000010,149.977173,149.977163,149.977173,14997717.300201,4,-1.000000,""
python3action_floatoperation_job45_6,w0,python3action_floatoperation,0.997085,1,2000.000000,1,COMPLETED_SUCCESSFULLY,148.141973,2.439945,150.581918,147.144888,149.584833,61.306634,7,-1.000000,""
32_updated,w0,python3action_modeltraining_reviews50mb_nova,0.997085,1,2000.000000,1,COMPLETED_SUCCESSFULLY,111.102168,42.399990,153.502158,110.105083,152.505073,3.596819,28,-1.000000,""
32,w0,python3action_modeltraining_reviews50mb,0.000000,1,-1.000000,1,COMPLETED_SUCCESSFULLY,153.502173,0.000010,153.502183,153.502173,153.502183,15350218.324108,28,-1.000000,""
python3action_pyaes_job50_20,w0,python3action_pyaes,0.997085,1,2000.000000,1,COMPLETED_SUCCESSFULLY,153.502203,2.134958,155.637161,152.505118,154.640076,72.432366,28,-1.000000,""
python3action_facedetection_job21_2,w0,python3action_facedetection,0.997085,1,2000.000000,1,COMPLETED_SUCCESSFULLY,142.737143,30.499683,173.236826,141.740058,172.239741,5.647263,3,-1.000000,""
12_updated,w0,python3action_imageprocessing_SampleImage_60mb_taurus,0.997085,1,2000.000000,1,COMPLETED_SUCCESSFULLY,73.014765,101.500058,174.514823,72.017680,173.517738,1.709533,14,-1.000000,""
12,w0,python3action_imageprocessing_SampleImage_60mb,0.000000,1,-1.000000,1,COMPLETED_SUCCESSFULLY,174.514838,0.000010,174.514848,174.514838,174.514848,17451484.800641,14,-1.000000,""
49_updated,w0,python3action_floatoperation_100000000_nova,0.997085,1,2000.000000,1,COMPLETED_SUCCESSFULLY,113.382078,66.200020,179.582098,112.384993,178.585013,2.697658,27,-1.000000,""
49,w0,python3action_floatoperation_100000000,0.000000,1,-1.000000,1,COMPLETED_SUCCESSFULLY,179.582113,0.000010,179.582123,179.582113,179.582123,17958212.300201,27,-1.000000,""
29_updated,w0,python3action_modeltraining_reviews100mb_nova,0.997085,1,2000.000000,1,COMPLETED_SUCCESSFULLY,100.142078,79.600010,179.742088,99.144993,178.745003,2.245540,26,-1.000000,""
29,w0,python3action_modeltraining_reviews100mb,0.000000,1,-1.000000,1,COMPLETED_SUCCESSFULLY,179.742103,0.000010,179.742113,179.742103,179.742113,17974211.300201,26,-1.000000,""
python3action_video_processing_job48_18,w0,python3action_video_processing_reduced_0.97,0.997085,1,2000.000000,1,COMPLETED_SUCCESSFULLY,179.742133,0.000000,179.742133,178.745048,178.745048,3658541173985.926270,26,-1.000000,""
python3action_modeltraining_job39_3,w0,python3action_modeltraining,0.997085,1,2000.000000,1,COMPLETED_SUCCESSFULLY,149.977193,30.499683,180.476876,148.980108,179.479791,5.884645,4,-1.000000,""
26_updated,w0,python3action_floatoperation_100000000_nova,0.997085,1,2000.000000,1,COMPLETED_SUCCESSFULLY,138.842186,66.200020,205.042206,137.845101,204.045121,3.082252,6,-1.000000,""
26,w0,python3action_floatoperation_100000000,0.000000,1,-1.000000,1,COMPLETED_SUCCESSFULLY,205.042221,0.000010,205.042231,205.042221,205.042231,20504223.100201,6,-1.000000,""
python3action_pyaes_job44_5,w0,python3action_pyaes,0.997085,1,2000.000000,1,COMPLETED_SUCCESSFULLY,205.042251,2.134958,207.177209,204.045166,206.180124,96.573376,6,-1.000000,""
3_updated,w0,python3action_facedetection_SampleVideo_50mb_taurus,0.997085,1,2000.000000,1,COMPLETED_SUCCESSFULLY,73.014690,134.600046,207.614736,72.017605,206.617651,1.535049,10,-1.000000,""
3,w0,python3action_facedetection_SampleVideo_50mb,0.000000,1,-1.000000,1,COMPLETED_SUCCESSFULLY,207.614751,0.000010,207.614761,207.614751,207.614761,20761476.146367,10,-1.000000,""
5_updated,w0,python3action_facedetection_SampleVideo_50mb_taurus,0.997085,1,2000.000000,1,COMPLETED_SUCCESSFULLY,73.014735,134.600046,207.614781,72.017650,206.617696,1.535049,13,-1.000000,""
5,w0,python3action_facedetection_SampleVideo_50mb,0.000000,1,-1.000000,1,COMPLETED_SUCCESSFULLY,207.614811,0.000010,207.614821,207.614811,207.614821,20761482.147171,13,-1.000000,""
45_updated,w0,python3action_floatoperation_100000000_nova,0.997085,1,2000.000000,1,COMPLETED_SUCCESSFULLY,150.581933,66.200020,216.781953,149.584848,215.784868,3.259589,7,-1.000000,""
45,w0,python3action_floatoperation_100000000,0.000000,1,-1.000000,1,COMPLETED_SUCCESSFULLY,216.781968,0.000010,216.781978,216.781968,216.781978,21678197.800201,7,-1.000000,""
60_updated,w0,python3action_linpack_6000_orion,0.997085,1,2000.000000,1,COMPLETED_SUCCESSFULLY,112.763177,106.000000,218.763177,111.766092,217.766092,2.054397,8,-1.000000,""
60,w0,python3action_linpack_6000,0.000000,1,-1.000000,1,COMPLETED_SUCCESSFULLY,218.763192,0.000010,218.763202,218.763192,218.763202,21876320.225279,8,-1.000000,""
67_updated,w0,python3action_linpack_6000_orion,0.997085,1,2000.000000,1,COMPLETED_SUCCESSFULLY,112.763222,106.000000,218.763222,111.766137,217.766137,2.054398,9,-1.000000,""
67,w0,python3action_linpack_6000,0.000000,1,-1.000000,1,COMPLETED_SUCCESSFULLY,218.763252,0.000010,218.763262,218.763252,218.763262,21876326.226082,9,-1.000000,""
17_updated,w0,python3action_videoprocessing_SampleVideo_50mb_taurus,0.997085,1,2000.000000,1,COMPLETED_SUCCESSFULLY,73.014780,154.250029,227.264809,72.017695,226.267724,1.466889,15,-1.000000,""
17,w0,python3action_videoprocessing_SampleVideo_50mb,0.000000,1,-1.000000,1,COMPLETED_SUCCESSFULLY,227.264824,0.000010,227.264834,227.264824,227.264834,22726483.417668,15,-1.000000,""
python3action_facedetection_job34_13,w0,python3action_facedetection_reduced_0.91,0.997085,1,2000.000000,1,COMPLETED_SUCCESSFULLY,227.264854,0.000000,227.264854,226.267769,226.267769,1961825870519.374512,15,-1.000000,""
42_updated,w0,python3action_chameleon_3000_troll,0.997085,1,2000.000000,1,COMPLETED_SUCCESSFULLY,138.269224,94.000000,232.269224,137.272139,231.272139,2.460342,19,-1.000000,""
42,w0,python3action_chameleon_3000,0.000000,1,-1.000000,1,COMPLETED_SUCCESSFULLY,232.269239,0.000010,232.269249,232.269239,232.269249,23226924.900401,19,-1.000000,""
43_updated,w0,python3action_chameleon_3000_troll,0.997085,1,2000.000000,1,COMPLETED_SUCCESSFULLY,138.269284,94.000000,232.269284,137.272199,231.272199,2.460343,20,-1.000000,""
43,w0,python3action_chameleon_3000,0.000000,1,-1.000000,1,COMPLETED_SUCCESSFULLY,232.269299,0.000010,232.269309,232.269299,232.269309,23226930.900602,20,-1.000000,""
50_updated,w0,python3action_pyaes_3000_nova,0.997085,1,2000.000000,1,COMPLETED_SUCCESSFULLY,155.637176,78.200020,233.837196,154.640091,232.840111,2.977494,28,-1.000000,""
50,w0,python3action_pyaes_3000,0.000000,1,-1.000000,1,COMPLETED_SUCCESSFULLY,233.837211,0.000010,233.837221,233.837211,233.837221,23383722.102471,28,-1.000000,""
python3action_facedetection_job77_20,w0,python3action_facedetection_reduced_0.91,0.997085,1,2000.000000,1,COMPLETED_SUCCESSFULLY,233.837241,0.000000,233.837241,232.840156,232.840156,4765756071517.295898,28,-1.000000,""
36_updated,w0,python3action_floatoperation_200000000_nova,0.997085,1,2000.000000,1,COMPLETED_SUCCESSFULLY,106.682140,135.399990,242.082130,105.685055,241.085045,1.780540,2,-1.000000,""
36,w0,python3action_floatoperation_200000000,0.000000,1,-1.000000,1,COMPLETED_SUCCESSFULLY,242.082145,0.000010,242.082155,242.082145,242.082155,24208215.523907,2,-1.000000,""
75_updated,w0,python3action_floatoperation_100000000_nova,0.997085,1,2000.000000,1,COMPLETED_SUCCESSFULLY,179.582143,66.200020,245.782163,178.585058,244.785078,3.697659,27,-1.000000,""
75,w0,python3action_floatoperation_100000000,0.000000,1,-1.000000,1,COMPLETED_SUCCESSFULLY,245.782178,0.000010,245.782188,245.782178,245.782188,24578218.800201,27,-1.000000,""
41_updated,w0,python3action_pyaes_4000_nova,0.997085,1,2000.000000,1,COMPLETED_SUCCESSFULLY,107.002474,139.600010,246.602484,106.005389,245.605399,1.759351,5,-1.000000,""
41,w0,python3action_pyaes_4000,0.000000,1,-1.000000,1,COMPLETED_SUCCESSFULLY,246.602499,0.000010,246.602509,246.602499,246.602509,24660250.900201,5,-1.000000,""
28_updated,w0,python3action_videoprocessing_SampleVideo_50mb_nova,0.997085,1,2000.000000,1,COMPLETED_SUCCESSFULLY,111.102123,139.600010,250.702133,110.105038,249.705048,1.788718,25,-1.000000,""
28,w0,python3action_videoprocessing_SampleVideo_50mb,0.000000,1,-1.000000,1,COMPLETED_SUCCESSFULLY,250.702148,0.000010,250.702158,250.702148,250.702158,25070215.800201,25,-1.000000,""
65_updated,w0,python3action_modeltraining_reviews50mb_nova,0.997085,1,2000.000000,1,COMPLETED_SUCCESSFULLY,216.781998,42.399990,259.181988,215.784913,258.184903,6.089268,7,-1.000000,""
65,w0,python3action_modeltraining_reviews50mb,0.000000,1,-1.000000,1,COMPLETED_SUCCESSFULLY,259.182003,0.000010,259.182013,259.182003,259.182013,25918201.323907,7,-1.000000,""
python3action_pyaes_job86_6,w0,python3action_pyaes_reduced_0.85,0.997085,1,2000.000000,1,COMPLETED_SUCCESSFULLY,259.182033,0.320244,259.502277,258.184948,258.505192,807.213891,7,-1.000000,""
39_updated,w0,python3action_modeltraining_reviews100mb_nova,0.997085,1,2000.000000,1,COMPLETED_SUCCESSFULLY,180.476891,79.600010,260.076901,179.479806,259.079816,3.254771,4,-1.000000,""
39,w0,python3action_modeltraining_reviews100mb,0.000000,1,-1.000000,1,COMPLETED_SUCCESSFULLY,260.076916,0.000010,260.076926,260.076916,260.076926,26007692.600201,4,-1.000000,""
python3action_linpack_job62_3,w0,python3action_linpack_reduced_0.85,0.997085,1,2000.000000,1,COMPLETED_SUCCESSFULLY,260.076946,0.365992,260.442938,259.079861,259.445853,708.884344,4,-1.000000,""
python3action_modeltraining_job58_1,w0,python3action_modeltraining,0.997085,1,2000.000000,1,COMPLETED_SUCCESSFULLY,242.082175,30.499683,272.581858,241.085090,271.584773,8.904511,2,-1.000000,""
54_updated,w0,python3action_facedetection_SampleVideo_50mb_taurus,0.997085,1,2000.000000,1,COMPLETED_SUCCESSFULLY,138.214933,134.600046,272.814979,137.217848,271.817894,2.019449,11,-1.000000,""
54,w0,python3action_facedetection_SampleVideo_50mb,0.000000,1,-1.000000,1,COMPLETED_SUCCESSFULLY,272.814994,0.000010,272.815004,272.814994,272.815004,27281500.414283,11,-1.000000,""
33_updated,w0,python3action_imageprocessing_SampleImage_60mb_taurus,0.997085,1,2000.000000,1,COMPLETED_SUCCESSFULLY,174.514868,101.500058,276.014926,173.517783,275.017841,2.709534,14,-1.000000,""
33,w0,python3action_imageprocessing_SampleImage_60mb,0.000000,1,-1.000000,1,COMPLETED_SUCCESSFULLY,276.014941,0.000010,276.014951,276.014941,276.014951,27601495.100201,14,-1.000000,""
python3action_facedetection_job59_12,w0,python3action_facedetection_reduced_0.91,0.997085,1,2000.000000,1,COMPLETED_SUCCESSFULLY,276.014971,0.000000,276.014971,275.017886,275.017886,2384507548625.923340,14,-1.000000,""
python3action_video_processing_job63_4,w0,python3action_video_processing,0.997085,1,2000.000000,1,COMPLETED_SUCCESSFULLY,246.602529,30.499683,277.102212,245.605444,276.105127,9.052721,5,-1.000000,""
python3action_chameleon_job72_10,w0,python3action_chameleon,0.997085,1,2000.000000,1,COMPLETED_SUCCESSFULLY,272.815024,5.040826,277.855850,271.817939,276.858765,54.923296,11,-1.000000,""
44_updated,w0,python3action_pyaes_3000_nova,0.997085,1,2000.000000,1,COMPLETED_SUCCESSFULLY,207.177224,78.200020,285.377244,206.180139,284.380159,3.636574,6,-1.000000,""
44,w0,python3action_pyaes_3000,0.000000,1,-1.000000,1,COMPLETED_SUCCESSFULLY,285.377259,0.000010,285.377269,285.377259,285.377269,28537726.900201,6,-1.000000,""
48_updated,w0,python3action_videoprocessing_SampleVideo_30mb_nova,0.997085,1,2000.000000,1,COMPLETED_SUCCESSFULLY,179.742163,106.799980,286.542143,178.745078,285.545058,2.673643,26,-1.000000,""
48,w0,python3action_videoprocessing_SampleVideo_30mb,0.000000,1,-1.000000,1,COMPLETED_SUCCESSFULLY,286.542158,0.000010,286.542168,286.542158,286.542168,28654216.847412,26,-1.000000,""
python3action_linpack_job73_18,w0,python3action_linpack,0.997085,1,2000.000000,1,COMPLETED_SUCCESSFULLY,286.542188,2.439945,288.982134,285.545103,287.985049,118.029306,26,-1.000000,""
47_updated,w0,python3action_modeltraining_reviews50mb_nova,0.997085,1,2000.000000,1,COMPLETED_SUCCESSFULLY,250.702178,42.399990,293.102168,249.705093,292.105083,6.889272,25,-1.000000,""
47,w0,python3action_modeltraining_reviews50mb,0.000000,1,-1.000000,1,COMPLETED_SUCCESSFULLY,293.102183,0.000010,293.102193,293.102183,293.102193,29310219.323907,25,-1.000000,""
53_updated,w0,python3action_imageprocessing_SampleImage_60mb_troll,0.997085,1,2000.000000,1,COMPLETED_SUCCESSFULLY,232.269269,62.000000,294.269269,231.272184,293.272184,4.730197,19,-1.000000,""
53,w0,python3action_imageprocessing_SampleImage_60mb,0.000000,1,-1.000000,1,COMPLETED_SUCCESSFULLY,294.269284,0.000010,294.269294,294.269284,294.269294,29426929.401004,19,-1.000000,""
57_updated,w0,python3action_imageprocessing_SampleImage_60mb_troll,0.997085,1,2000.000000,1,COMPLETED_SUCCESSFULLY,232.269329,62.000000,294.269329,231.272244,293.272244,4.730197,20,-1.000000,""
57,w0,python3action_imageprocessing_SampleImage_60mb,0.000000,1,-1.000000,1,COMPLETED_SUCCESSFULLY,294.269344,0.000010,294.269354,294.269344,294.269354,29426935.401406,20,-1.000000,""
62_updated,w0,python3action_linpack_5000_nova,0.997085,1,2000.000000,1,COMPLETED_SUCCESSFULLY,260.442953,34.600010,295.042963,259.445868,294.045878,8.498433,4,-1.000000,""
62,w0,python3action_linpack_5000,0.000000,1,-1.000000,1,COMPLETED_SUCCESSFULLY,295.042978,0.000010,295.042988,295.042978,295.042988,29504298.800201,4,-1.000000,""
python3action_pyaes_job69_17,w0,python3action_pyaes,0.997085,1,2000.000000,1,COMPLETED_SUCCESSFULLY,293.102213,2.134958,295.237171,292.105128,294.240086,137.820067,25,-1.000000,""
38_updated,w0,python3action_videoprocessing_SampleVideo_50mb_taurus,0.997085,1,2000.000000,1,COMPLETED_SUCCESSFULLY,142.255628,154.250029,296.505657,141.258543,295.508572,1.915776,16,-1.000000,""
38,w0,python3action_videoprocessing_SampleVideo_50mb,0.000000,1,-1.000000,1,COMPLETED_SUCCESSFULLY,296.505672,0.000010,296.505682,296.505672,296.505682,29650568.215258,16,-1.000000,""
35_updated,w0,python3action_facedetection_SampleVideo_30mb_nova,0.997085,1,2000.000000,1,COMPLETED_SUCCESSFULLY,138.302168,160.399990,298.702159,137.305083,297.705074,1.856017,29,-1.000000,""
35,w0,python3action_facedetection_SampleVideo_30mb,0.000000,1,-1.000000,1,COMPLETED_SUCCESSFULLY,298.702174,0.000010,298.702184,298.702174,298.702184,29870218.400201,29,-1.000000,""
58_updated,w0,python3action_modeltraining_reviews50mb_nova,0.997085,1,2000.000000,1,COMPLETED_SUCCESSFULLY,272.581873,42.399990,314.981863,271.584788,313.984778,7.405303,2,-1.000000,""
58,w0,python3action_modeltraining_reviews50mb,0.000000,1,-1.000000,1,COMPLETED_SUCCESSFULLY,314.981878,0.000010,314.981888,314.981878,314.981888,31498188.823505,2,-1.000000,""
73_updated,w0,python3action_linpack_5000_nova,0.997085,1,2000.000000,1,COMPLETED_SUCCESSFULLY,288.982149,34.600010,323.582159,287.985064,322.585074,9.323265,26,-1.000000,""
73,w0,python3action_linpack_5000,0.000000,1,-1.000000,1,COMPLETED_SUCCESSFULLY,323.582174,0.000010,323.582184,323.582174,323.582184,32358218.400201,26,-1.000000,""
python3action_pyaes_job93_18,w0,python3action_pyaes_reduced_0.85,0.997085,1,2000.000000,1,COMPLETED_SUCCESSFULLY,323.582204,0.320244,323.902448,322.585119,322.905363,1008.311254,26,-1.000000,""
102_updated,w0,python3action_linpack_6000_orion,0.997085,1,2000.000000,1,COMPLETED_SUCCESSFULLY,218.763222,106.000000,324.763222,217.766137,323.766137,3.054398,8,-1.000000,""
102,w0,python3action_linpack_6000,0.000000,1,-1.000000,1,COMPLETED_SUCCESSFULLY,324.763237,0.000010,324.763247,324.763237,324.763247,32476324.725882,8,-1.000000,""
104_updated,w0,python3action_linpack_6000_orion,0.997085,1,2000.000000,1,COMPLETED_SUCCESSFULLY,218.763282,106.000000,324.763282,217.766197,323.766197,3.054398,9,-1.000000,""
104,w0,python3action_linpack_6000,0.000000,1,-1.000000,1,COMPLETED_SUCCESSFULLY,324.763297,0.000010,324.763307,324.763297,324.763307,32476330.726685,9,-1.000000,""
96_updated,w0,python3action_modeltraining_reviews100mb_nova,0.997085,1,2000.000000,1,COMPLETED_SUCCESSFULLY,245.782208,79.600010,325.382218,244.785123,324.385133,4.075190,27,-1.000000,""
96,w0,python3action_modeltraining_reviews100mb,0.000000,1,-1.000000,1,COMPLETED_SUCCESSFULLY,325.382233,0.000010,325.382243,325.382233,325.382243,32538224.300201,27,-1.000000,""
21_updated,w0,python3action_facedetection_SampleVideo_30mb_nova,0.997085,1,2000.000000,1,COMPLETED_SUCCESSFULLY,173.236841,160.399990,333.636831,172.239756,332.639746,2.073814,3,-1.000000,""
21,w0,python3action_facedetection_SampleVideo_30mb,0.000000,1,-1.000000,1,COMPLETED_SUCCESSFULLY,333.636846,0.000010,333.636856,333.636846,333.636856,33363685.623505,3,-1.000000,""
python3action_linpack_job37_2,w0,python3action_linpack_reduced_0.85,0.997085,1,2000.000000,1,COMPLETED_SUCCESSFULLY,333.636876,0.365992,334.002868,332.639791,333.005783,909.872266,3,-1.000000,""
86_updated,w0,python3action_pyaes_3000_nova,0.997085,1,2000.000000,1,COMPLETED_SUCCESSFULLY,259.502292,78.200020,337.702312,258.505207,336.705227,4.305692,7,-1.000000,""
86,w0,python3action_pyaes_3000,0.000000,1,-1.000000,1,COMPLETED_SUCCESSFULLY,337.702327,0.000010,337.702337,337.702327,337.702337,33770233.700201,7,-1.000000,""
72_updated,w0,python3action_chameleon_2000_taurus,0.997085,1,2000.000000,1,COMPLETED_SUCCESSFULLY,277.855865,64.199977,342.055842,276.858780,341.058757,5.312444,11,-1.000000,""
72,w0,python3action_chameleon_2000,0.000000,1,-1.000000,1,COMPLETED_SUCCESSFULLY,342.055857,0.000010,342.055867,342.055857,342.055867,34205586.700201,11,-1.000000,""
20_updated,w0,python3action_facedetection_SampleVideo_50mb_taurus,0.997085,1,2000.000000,1,COMPLETED_SUCCESSFULLY,207.614781,134.600046,342.214828,206.617696,341.217743,2.535049,10,-1.000000,""
20,w0,python3action_facedetection_SampleVideo_50mb,0.000000,1,-1.000000,1,COMPLETED_SUCCESSFULLY,342.214843,0.000010,342.214853,342.214843,342.214853,34221485.300201,10,-1.000000,""
python3action_image_processing_job46_9,w0,python3action_image_processing_reduced_0.86,0.997085,1,2000.000000,1,COMPLETED_SUCCESSFULLY,342.214873,0.000000,342.214873,341.217788,341.217788,2958485366322.378418,10,-1.000000,""
30_updated,w0,python3action_facedetection_SampleVideo_50mb_taurus,0.997085,1,2000.000000,1,COMPLETED_SUCCESSFULLY,207.614841,134.600046,342.214888,206.617756,341.217803,2.535050,13,-1.000000,""
30,w0,python3action_facedetection_SampleVideo_50mb,0.000000,1,-1.000000,1,COMPLETED_SUCCESSFULLY,342.214918,0.000010,342.214928,342.214918,342.214928,34221492.800402,13,-1.000000,""
python3action_chameleon_job56_11,w0,python3action_chameleon,0.997085,1,2000.000000,1,COMPLETED_SUCCESSFULLY,342.214948,5.040826,347.255774,341.217863,346.258689,68.690867,13,-1.000000,""
79_updated,w0,python3action_linpack_5000_nova,0.997085,1,2000.000000,1,COMPLETED_SUCCESSFULLY,314.981908,34.600010,349.581918,313.984823,348.584833,10.074703,2,-1.000000,""
79,w0,python3action_linpack_5000,0.000000,1,-1.000000,1,COMPLETED_SUCCESSFULLY,349.581933,0.000010,349.581943,349.581933,349.581943,34958194.301004,2,-1.000000,""
python3action_facedetection_job103_1,w0,python3action_facedetection_reduced_0.91,0.997085,1,2000.000000,1,COMPLETED_SUCCESSFULLY,349.581963,0.000000,349.581963,348.584878,348.584878,7138963942135.344727,2,-1.000000,""
64_updated,w0,python3action_floatoperation_100000000_nova,0.997085,1,2000.000000,1,COMPLETED_SUCCESSFULLY,285.377289,66.200020,351.577309,284.380204,350.580224,5.295772,6,-1.000000,""
64,w0,python3action_floatoperation_100000000,0.000000,1,-1.000000,1,COMPLETED_SUCCESSFULLY,351.577324,0.000010,351.577334,351.577324,351.577334,35157733.400201,6,-1.000000,""
74_updated,w0,python3action_imageprocessing_SampleImage_60mb_troll,0.997085,1,2000.000000,1,COMPLETED_SUCCESSFULLY,294.269374,62.000000,356.269374,293.272289,355.272289,5.730198,20,-1.000000,""
74,w0,python3action_imageprocessing_SampleImage_60mb,0.000000,1,-1.000000,1,COMPLETED_SUCCESSFULLY,356.269389,0.000010,356.269399,356.269389,356.269399,35626939.902008,20,-1.000000,""
68_updated,w0,python3action_chameleon_2000_taurus,0.997085,1,2000.000000,1,COMPLETED_SUCCESSFULLY,296.505702,64.199977,360.705679,295.508617,359.708594,5.602940,16,-1.000000,""
68,w0,python3action_chameleon_2000,0.000000,1,-1.000000,1,COMPLETED_SUCCESSFULLY,360.705694,0.000010,360.705704,360.705694,360.705704,36070570.409322,16,-1.000000,""
python3action_image_processing_job92_14,w0,python3action_image_processing_reduced_0.86,0.997085,1,2000.000000,1,COMPLETED_SUCCESSFULLY,360.705724,0.000000,360.705724,359.708639,359.708639,3118807935329.876953,16,-1.000000,""
34_updated,w0,python3action_facedetection_SampleVideo_50mb_taurus,0.997085,1,2000.000000,1,COMPLETED_SUCCESSFULLY,227.264884,134.600046,361.864930,226.267799,360.867845,2.681038,15,-1.000000,""
34,w0,python3action_facedetection_SampleVideo_50mb,0.000000,1,-1.000000,1,COMPLETED_SUCCESSFULLY,361.864945,0.000010,361.864955,361.864945,361.864955,36186495.531750,15,-1.000000,""
python3action_image_processing_job66_13,w0,python3action_image_processing_reduced_1.73,0.997085,1,2000.000000,1,COMPLETED_SUCCESSFULLY,361.864975,0.000000,361.864975,360.867890,360.867890,3128859075403.711914,15,-1.000000,""
37_updated,w0,python3action_linpack_5000_nova,0.997085,1,2000.000000,1,COMPLETED_SUCCESSFULLY,334.002883,34.600010,368.602893,333.005798,367.605808,10.624442,3,-1.000000,""
37,w0,python3action_linpack_5000,0.000000,1,-1.000000,1,COMPLETED_SUCCESSFULLY,368.602908,0.000010,368.602918,368.602908,368.602918,36860291.800201,3,-1.000000,""
69_updated,w0,python3action_pyaes_3000_nova,0.997085,1,2000.000000,1,COMPLETED_SUCCESSFULLY,295.237186,78.200020,373.437206,294.240101,372.440121,4.762660,25,-1.000000,""
69,w0,python3action_pyaes_3000,0.000000,1,-1.000000,1,COMPLETED_SUCCESSFULLY,373.437221,0.000010,373.437231,373.437221,373.437231,37343723.102271,25,-1.000000,""
97_updated,w0,python3action_imageprocessing_SampleImage_40mb_taurus,0.997085,1,2000.000000,1,COMPLETED_SUCCESSFULLY,342.055887,32.600046,374.655933,341.058802,373.658848,11.461912,11,-1.000000,""
97,w0,python3action_imageprocessing_SampleImage_40mb,0.000000,1,-1.000000,1,COMPLETED_SUCCESSFULLY,374.655948,0.000010,374.655958,374.655948,374.655958,37465595.813881,11,-1.000000,""
python3action_video_processing_job115_10,w0,python3action_video_processing_reduced_1.83,0.997085,1,2000.000000,1,COMPLETED_SUCCESSFULLY,374.655978,0.000000,374.655978,373.658893,373.658893,3239761836038.081543,11,-1.000000,""
46_updated,w0,python3action_imageprocessing_SampleImage_40mb_taurus,0.997085,1,2000.000000,1,COMPLETED_SUCCESSFULLY,342.214903,32.600046,374.814949,341.217818,373.817864,11.466789,10,-1.000000,""
46,w0,python3action_imageprocessing_SampleImage_40mb,0.000000,1,-1.000000,1,COMPLETED_SUCCESSFULLY,374.814964,0.000010,374.814974,374.814964,374.814974,37481497.413480,10,-1.000000,""
71_updated,w0,python3action_chameleon_3000_troll,0.997085,1,2000.000000,1,COMPLETED_SUCCESSFULLY,294.269314,94.000000,388.269314,293.272229,387.272229,4.119917,19,-1.000000,""
71,w0,python3action_chameleon_3000,0.000000,1,-1.000000,1,COMPLETED_SUCCESSFULLY,388.269329,0.000010,388.269339,388.269329,388.269339,38826933.901607,19,-1.000000,""
77_updated,w0,python3action_facedetection_SampleVideo_30mb_nova,0.997085,1,2000.000000,1,COMPLETED_SUCCESSFULLY,233.837271,160.399990,394.237261,232.840186,393.240176,2.451622,28,-1.000000,""
77,w0,python3action_facedetection_SampleVideo_30mb,0.000000,1,-1.000000,1,COMPLETED_SUCCESSFULLY,394.237276,0.000010,394.237286,394.237276,394.237286,39423728.626579,28,-1.000000,""
66_updated,w0,python3action_imageprocessing_SampleImage_40mb_taurus,0.997085,1,2000.000000,1,COMPLETED_SUCCESSFULLY,361.865005,32.600046,394.465051,360.867920,393.467966,12.069552,15,-1.000000,""
66,w0,python3action_imageprocessing_SampleImage_40mb,0.000000,1,-1.000000,1,COMPLETED_SUCCESSFULLY,394.465066,0.000010,394.465076,394.465066,394.465076,39446507.645833,15,-1.000000,""
python3action_linpack_job98_20,w0,python3action_linpack_reduced_0.85,0.997085,1,2000.000000,1,COMPLETED_SUCCESSFULLY,394.237306,0.365992,394.603298,393.240221,393.606213,1075.450924,28,-1.000000,""
python3action_chameleon_job89_13,w0,python3action_chameleon,0.997085,1,2000.000000,1,COMPLETED_SUCCESSFULLY,394.465096,5.040826,399.505922,393.468011,398.508837,79.056261,15,-1.000000,""
61_updated,w0,python3action_linpack_5000_nova,0.997085,1,2000.000000,1,COMPLETED_SUCCESSFULLY,368.602938,34.600010,403.202948,367.605853,402.205863,11.624444,3,-1.000000,""
61,w0,python3action_linpack_5000,0.000000,1,-1.000000,1,COMPLETED_SUCCESSFULLY,403.202963,0.000010,403.202973,403.202963,403.202973,40320297.300201,3,-1.000000,""
python3action_video_processing_job81_2,w0,python3action_video_processing_reduced_0.91,0.997085,1,2000.000000,1,COMPLETED_SUCCESSFULLY,403.202993,0.000000,403.202993,402.205908,402.205908,8237114274512.343750,3,-1.000000,""
116_updated,w0,python3action_floatoperation_100000000_nova,0.997085,1,2000.000000,1,COMPLETED_SUCCESSFULLY,337.702357,66.200020,403.902377,336.705272,402.905292,6.086181,7,-1.000000,""
116,w0,python3action_floatoperation_100000000,0.000000,1,-1.000000,1,COMPLETED_SUCCESSFULLY,403.902392,0.000010,403.902402,403.902392,403.902402,40390240.200201,7,-1.000000,""
python3action_video_processing_job134_6,w0,python3action_video_processing_reduced_0.97,0.997085,1,2000.000000,1,COMPLETED_SUCCESSFULLY,403.902422,0.000000,403.902422,402.905337,402.905337,8251438471360.841797,7,-1.000000,""
59_updated,w0,python3action_facedetection_SampleVideo_50mb_taurus,0.997085,1,2000.000000,1,COMPLETED_SUCCESSFULLY,276.015001,134.600046,410.615047,275.017916,409.617962,3.043223,14,-1.000000,""
59,w0,python3action_facedetection_SampleVideo_50mb,0.000000,1,-1.000000,1,COMPLETED_SUCCESSFULLY,410.615062,0.000010,410.615072,410.615062,410.615072,41061507.214283,14,-1.000000,""
56_updated,w0,python3action_chameleon_2000_taurus,0.997085,1,2000.000000,1,COMPLETED_SUCCESSFULLY,347.255789,64.199977,411.455766,346.258704,410.458681,6.393440,13,-1.000000,""
56,w0,python3action_chameleon_2000,0.000000,1,-1.000000,1,COMPLETED_SUCCESSFULLY,411.455781,0.000010,411.455791,411.455781,411.455791,41145579.100201,13,-1.000000,""
python3action_video_processing_job80_11,w0,python3action_video_processing_reduced_0.91,0.997085,1,2000.000000,1,COMPLETED_SUCCESSFULLY,411.455811,0.000000,411.455811,410.458726,410.458726,3558830099287.323242,13,-1.000000,""
63_updated,w0,python3action_videoprocessing_SampleVideo_50mb_nova,0.997085,1,2000.000000,1,COMPLETED_SUCCESSFULLY,277.102227,139.600010,416.702237,276.105142,415.705152,2.977830,5,-1.000000,""
63,w0,python3action_videoprocessing_SampleVideo_50mb,0.000000,1,-1.000000,1,COMPLETED_SUCCESSFULLY,416.702252,0.000010,416.702262,416.702252,416.702262,41670226.200201,5,-1.000000,""
98_updated,w0,python3action_linpack_5000_nova,0.997085,1,2000.000000,1,COMPLETED_SUCCESSFULLY,394.603313,34.600010,429.203323,393.606228,428.206238,12.375899,28,-1.000000,""
98,w0,python3action_linpack_5000,0.000000,1,-1.000000,1,COMPLETED_SUCCESSFULLY,429.203338,0.000010,429.203348,429.203338,429.203348,42920334.800201,28,-1.000000,""
python3action_video_processing_job122_20,w0,python3action_video_processing_reduced_1.89,0.997085,1,2000.000000,1,COMPLETED_SUCCESSFULLY,429.203368,0.000000,429.203368,428.206283,428.206283,8769597899919.308594,28,-1.000000,""
108_updated,w0,python3action_linpack_6000_orion,0.997085,1,2000.000000,1,COMPLETED_SUCCESSFULLY,324.763267,106.000000,430.763267,323.766182,429.766182,4.054398,8,-1.000000,""
108,w0,python3action_linpack_6000,0.000000,1,-1.000000,1,COMPLETED_SUCCESSFULLY,430.763282,0.000010,430.763292,430.763282,430.763292,43076329.226484,8,-1.000000,""
110_updated,w0,python3action_linpack_6000_orion,0.997085,1,2000.000000,1,COMPLETED_SUCCESSFULLY,324.763327,106.000000,430.763327,323.766242,429.766242,4.054399,9,-1.000000,""
110,w0,python3action_linpack_6000,0.000000,1,-1.000000,1,COMPLETED_SUCCESSFULLY,430.763342,0.000010,430.763352,430.763342,430.763352,43076335.227288,9,-1.000000,""
82_updated,w0,python3action_pyaes_4000_nova,0.997085,1,2000.000000,1,COMPLETED_SUCCESSFULLY,295.043008,139.600010,434.643018,294.045923,433.645933,3.106346,4,-1.000000,""
82,w0,python3action_pyaes_4000,0.000000,1,-1.000000,1,COMPLETED_SUCCESSFULLY,434.643033,0.000010,434.643043,434.643033,434.643043,43464304.300201,4,-1.000000,""
88_updated,w0,python3action_imageprocessing_SampleImage_40mb_taurus,0.997085,1,2000.000000,1,COMPLETED_SUCCESSFULLY,410.615092,32.600046,443.215138,409.618007,442.218053,13.564952,14,-1.000000,""
88,w0,python3action_imageprocessing_SampleImage_40mb,0.000000,1,-1.000000,1,COMPLETED_SUCCESSFULLY,443.215153,0.000010,443.215163,443.215153,443.215163,44321516.327964,14,-1.000000,""
python3action_chameleon_job100_12,w0,python3action_chameleon,0.997085,1,2000.000000,1,COMPLETED_SUCCESSFULLY,443.215183,5.040826,448.256009,442.218098,447.258924,88.727313,14,-1.000000,""
85_updated,w0,python3action_chameleon_3000_troll,0.997085,1,2000.000000,1,COMPLETED_SUCCESSFULLY,356.269419,94.000000,450.269419,355.272334,449.272334,4.779493,20,-1.000000,""
85,w0,python3action_chameleon_3000,0.000000,1,-1.000000,1,COMPLETED_SUCCESSFULLY,450.269434,0.000010,450.269444,450.269434,450.269444,45026944.402611,20,-1.000000,""
55_updated,w0,python3action_facedetection_SampleVideo_30mb_nova,0.997085,1,2000.000000,1,COMPLETED_SUCCESSFULLY,298.702204,160.399990,459.102194,297.705119,458.105109,2.856017,29,-1.000000,""
55,w0,python3action_facedetection_SampleVideo_30mb,0.000000,1,-1.000000,1,COMPLETED_SUCCESSFULLY,459.102209,0.000010,459.102219,459.102209,459.102219,45910221.923907,29,-1.000000,""
120_updated,w0,python3action_floatoperation_200000000_nova,0.997085,1,2000.000000,1,COMPLETED_SUCCESSFULLY,325.382263,135.399990,460.782253,324.385178,459.785168,3.395755,27,-1.000000,""
120,w0,python3action_floatoperation_200000000,0.000000,1,-1.000000,1,COMPLETED_SUCCESSFULLY,460.782268,0.000010,460.782278,460.782268,460.782278,46078227.823907,27,-1.000000,""
python3action_pyaes_job138_19,w0,python3action_pyaes_reduced_0.85,0.997085,1,2000.000000,1,COMPLETED_SUCCESSFULLY,460.782298,0.320244,461.102542,459.785213,460.105457,1436.735229,27,-1.000000,""
92_updated,w0,python3action_imageprocessing_SampleImage_60mb_taurus,0.997085,1,2000.000000,1,COMPLETED_SUCCESSFULLY,360.705754,101.500058,462.205812,359.708669,461.208727,4.543926,16,-1.000000,""
92,w0,python3action_imageprocessing_SampleImage_60mb,0.000000,1,-1.000000,1,COMPLETED_SUCCESSFULLY,462.205827,0.000010,462.205837,462.205827,462.205837,46220583.700201,16,-1.000000,""
93_updated,w0,python3action_pyaes_4000_nova,0.997085,1,2000.000000,1,COMPLETED_SUCCESSFULLY,323.902463,139.600010,463.502473,322.905378,462.505388,3.313076,26,-1.000000,""
93,w0,python3action_pyaes_4000,0.000000,1,-1.000000,1,COMPLETED_SUCCESSFULLY,463.502488,0.000010,463.502498,463.502488,463.502498,46350249.800201,26,-1.000000,""
89_updated,w0,python3action_chameleon_2000_taurus,0.997085,1,2000.000000,1,COMPLETED_SUCCESSFULLY,399.505937,64.199977,463.705914,398.508852,462.708829,7.207305,15,-1.000000,""
89,w0,python3action_chameleon_2000,0.000000,1,-1.000000,1,COMPLETED_SUCCESSFULLY,463.705929,0.000010,463.705939,463.705929,463.705939,46370593.914195,15,-1.000000,""
87_updated,w0,python3action_videoprocessing_SampleVideo_30mb_nova,0.997085,1,2000.000000,1,COMPLETED_SUCCESSFULLY,373.437251,106.799980,480.237231,372.440166,479.240146,4.487268,25,-1.000000,""
87,w0,python3action_videoprocessing_SampleVideo_30mb,0.000000,1,-1.000000,1,COMPLETED_SUCCESSFULLY,480.237246,0.000010,480.237256,480.237246,480.237256,48023725.649081,25,-1.000000,""
76_updated,w0,python3action_chameleon_3000_troll,0.997085,1,2000.000000,1,COMPLETED_SUCCESSFULLY,388.269359,94.000000,482.269359,387.272274,481.272274,5.119918,19,-1.000000,""
76,w0,python3action_chameleon_3000,0.000000,1,-1.000000,1,COMPLETED_SUCCESSFULLY,482.269374,0.000010,482.269384,482.269374,482.269384,48226938.402210,19,-1.000000,""
83_updated,w0,python3action_floatoperation_100000000_nova,0.997085,1,2000.000000,1,COMPLETED_SUCCESSFULLY,416.702282,66.200020,482.902302,415.705197,481.905217,7.279533,5,-1.000000,""
83,w0,python3action_floatoperation_100000000,0.000000,1,-1.000000,1,COMPLETED_SUCCESSFULLY,482.902317,0.000010,482.902327,482.902317,482.902327,48290232.700201,5,-1.000000,""
84_updated,w0,python3action_floatoperation_200000000_nova,0.997085,1,2000.000000,1,COMPLETED_SUCCESSFULLY,351.577354,135.399990,486.977344,350.580269,485.980259,3.589219,6,-1.000000,""
84,w0,python3action_floatoperation_200000000,0.000000,1,-1.000000,1,COMPLETED_SUCCESSFULLY,486.977359,0.000010,486.977369,486.977359,486.977369,48697736.923907,6,-1.000000,""
111_updated,w0,python3action_imageprocessing_SampleImage_40mb_taurus,0.997085,1,2000.000000,1,COMPLETED_SUCCESSFULLY,462.205857,32.600046,494.805903,461.208772,493.808818,15.147488,16,-1.000000,""
111,w0,python3action_imageprocessing_SampleImage_40mb,0.000000,1,-1.000000,1,COMPLETED_SUCCESSFULLY,494.805918,0.000010,494.805928,494.805918,494.805928,49480592.813881,16,-1.000000,""
70_updated,w0,python3action_facedetection_SampleVideo_50mb_taurus,0.997085,1,2000.000000,1,COMPLETED_SUCCESSFULLY,374.814994,134.600046,509.415040,373.817909,508.417955,3.777249,10,-1.000000,""
70,w0,python3action_facedetection_SampleVideo_50mb,0.000000,1,-1.000000,1,COMPLETED_SUCCESSFULLY,509.415055,0.000010,509.415065,509.415055,509.415065,50941506.527161,10,-1.000000,""
103_updated,w0,python3action_facedetection_SampleVideo_30mb_nova,0.997085,1,2000.000000,1,COMPLETED_SUCCESSFULLY,349.581993,160.399990,509.981983,348.584908,508.984898,3.173223,2,-1.000000,""
103,w0,python3action_facedetection_SampleVideo_30mb,0.000000,1,-1.000000,1,COMPLETED_SUCCESSFULLY,509.981998,0.000010,509.982008,509.981998,509.982008,50998200.825113,2,-1.000000,""
134_updated,w0,python3action_videoprocessing_SampleVideo_30mb_nova,0.997085,1,2000.000000,1,COMPLETED_SUCCESSFULLY,403.902452,106.799980,510.702432,402.905367,509.705347,4.772523,7,-1.000000,""
134,w0,python3action_videoprocessing_SampleVideo_30mb,0.000000,1,-1.000000,1,COMPLETED_SUCCESSFULLY,510.702447,0.000010,510.702457,510.702447,510.702457,51070245.747412,7,-1.000000,""
91_updated,w0,python3action_imageprocessing_SampleImage_60mb_troll,0.997085,1,2000.000000,1,COMPLETED_SUCCESSFULLY,450.269464,62.000000,512.269464,449.272379,511.272379,8.246329,20,-1.000000,""
91,w0,python3action_imageprocessing_SampleImage_60mb,0.000000,1,-1.000000,1,COMPLETED_SUCCESSFULLY,512.269479,0.000010,512.269489,512.269479,512.269489,51226948.903214,20,-1.000000,""
100_updated,w0,python3action_chameleon_2000_taurus,0.997085,1,2000.000000,1,COMPLETED_SUCCESSFULLY,448.256024,64.199977,512.456001,447.258939,511.458916,7.966653,14,-1.000000,""
100,w0,python3action_chameleon_2000,0.000000,1,-1.000000,1,COMPLETED_SUCCESSFULLY,512.456016,0.000010,512.456026,512.456016,512.456026,51245602.600201,14,-1.000000,""
107_updated,w0,python3action_pyaes_3000_nova,0.997085,1,2000.000000,1,COMPLETED_SUCCESSFULLY,434.643063,78.200020,512.843083,433.645978,511.845998,6.545344,4,-1.000000,""
107,w0,python3action_pyaes_3000,0.000000,1,-1.000000,1,COMPLETED_SUCCESSFULLY,512.843098,0.000010,512.843108,512.843098,512.843108,51284310.800201,4,-1.000000,""
python3action_video_processing_job113_5,w0,python3action_video_processing,0.997085,1,2000.000000,1,COMPLETED_SUCCESSFULLY,486.977389,30.499683,517.477072,485.980304,516.479987,16.933946,6,-1.000000,""
115_updated,w0,python3action_videoprocessing_SampleVideo_50mb_taurus,0.997085,1,2000.000000,1,COMPLETED_SUCCESSFULLY,374.656008,154.250029,528.906037,373.658923,527.908952,3.422424,11,-1.000000,""
115,w0,python3action_videoprocessing_SampleVideo_50mb,0.000000,1,-1.000000,1,COMPLETED_SUCCESSFULLY,528.906052,0.000010,528.906062,528.906052,528.906062,52890606.200201,11,-1.000000,""
122_updated,w0,python3action_videoprocessing_SampleVideo_30mb_nova,0.997085,1,2000.000000,1,COMPLETED_SUCCESSFULLY,429.203398,106.799980,536.003378,428.206313,535.006293,5.009423,28,-1.000000,""
122,w0,python3action_videoprocessing_SampleVideo_30mb,0.000000,1,-1.000000,1,COMPLETED_SUCCESSFULLY,536.003393,0.000010,536.003403,536.003393,536.003403,53600340.347412,28,-1.000000,""
126_updated,w0,python3action_linpack_6000_orion,0.997085,1,2000.000000,1,COMPLETED_SUCCESSFULLY,430.763312,106.000000,536.763312,429.766227,535.766227,5.054398,8,-1.000000,""
126,w0,python3action_linpack_6000,0.000000,1,-1.000000,1,COMPLETED_SUCCESSFULLY,536.763327,0.000010,536.763337,536.763327,536.763337,53676333.727087,8,-1.000000,""
133_updated,w0,python3action_linpack_6000_orion,0.997085,1,2000.000000,1,COMPLETED_SUCCESSFULLY,430.763372,106.000000,536.763372,429.766287,535.766287,5.054399,9,-1.000000,""
133,w0,python3action_linpack_6000,0.000000,1,-1.000000,1,COMPLETED_SUCCESSFULLY,536.763387,0.000010,536.763397,536.763387,536.763397,53676339.727890,9,-1.000000,""
138_updated,w0,python3action_pyaes_3000_nova,0.997085,1,2000.000000,1,COMPLETED_SUCCESSFULLY,461.102557,78.200020,539.302577,460.105472,538.305492,6.883700,27,-1.000000,""
138,w0,python3action_pyaes_3000,0.000000,1,-1.000000,1,COMPLETED_SUCCESSFULLY,539.302592,0.000010,539.302602,539.302592,539.302602,53930260.200201,27,-1.000000,""
python3action_video_processing_job152_19,w0,python3action_video_processing_reduced_0.97,0.997085,1,2000.000000,1,COMPLETED_SUCCESSFULLY,539.302622,0.000000,539.302622,538.305537,538.305537,11011594367151.275391,27,-1.000000,""
95_updated,w0,python3action_imageprocessing_SampleImage_40mb_taurus,0.997085,1,2000.000000,1,COMPLETED_SUCCESSFULLY,509.415085,32.600046,542.015131,508.418000,541.018046,16.595622,10,-1.000000,""
95,w0,python3action_imageprocessing_SampleImage_40mb,0.000000,1,-1.000000,1,COMPLETED_SUCCESSFULLY,542.015146,0.000010,542.015156,542.015146,542.015156,54201515.640841,10,-1.000000,""
python3action_video_processing_job114_9,w0,python3action_video_processing_reduced_1.83,0.997085,1,2000.000000,1,COMPLETED_SUCCESSFULLY,542.015176,0.000000,542.015176,541.018091,541.018091,4693141478069.194336,10,-1.000000,""
81_updated,w0,python3action_videoprocessing_SampleVideo_50mb_nova,0.997085,1,2000.000000,1,COMPLETED_SUCCESSFULLY,403.203023,139.600010,542.803033,402.205938,541.805948,3.881131,3,-1.000000,""
81,w0,python3action_videoprocessing_SampleVideo_50mb,0.000000,1,-1.000000,1,COMPLETED_SUCCESSFULLY,542.803048,0.000010,542.803058,542.803048,542.803058,54280305.800201,3,-1.000000,""
90_updated,w0,python3action_imageprocessing_SampleImage_60mb_troll,0.997085,1,2000.000000,1,COMPLETED_SUCCESSFULLY,482.269404,62.000000,544.269404,481.272319,543.272319,8.762457,19,-1.000000,""
90,w0,python3action_imageprocessing_SampleImage_60mb,0.000000,1,-1.000000,1,COMPLETED_SUCCESSFULLY,544.269419,0.000010,544.269429,544.269419,544.269429,54426942.902812,19,-1.000000,""
149_updated,w0,python3action_modeltraining_reviews50mb_nova,0.997085,1,2000.000000,1,COMPLETED_SUCCESSFULLY,510.702477,42.399990,553.102468,509.705392,552.105383,13.021356,7,-1.000000,""
149,w0,python3action_modeltraining_reviews50mb,0.000000,1,-1.000000,1,COMPLETED_SUCCESSFULLY,553.102483,0.000010,553.102493,553.102483,553.102493,55310249.300201,7,-1.000000,""
153_updated,w0,python3action_imageprocessing_SampleImage_40mb_taurus,0.997085,1,2000.000000,1,COMPLETED_SUCCESSFULLY,528.906082,32.600046,561.506128,527.908997,560.509043,17.193505,11,-1.000000,""
153,w0,python3action_imageprocessing_SampleImage_40mb,0.000000,1,-1.000000,1,COMPLETED_SUCCESSFULLY,561.506143,0.000010,561.506153,561.506143,561.506153,56150615.313881,11,-1.000000,""
109_updated,w0,python3action_imageprocessing_SampleImage_60mb_taurus,0.997085,1,2000.000000,1,COMPLETED_SUCCESSFULLY,463.705959,101.500058,565.206017,462.708874,564.208932,5.558706,15,-1.000000,""
109,w0,python3action_imageprocessing_SampleImage_60mb,0.000000,1,-1.000000,1,COMPLETED_SUCCESSFULLY,565.206032,0.000010,565.206042,565.206032,565.206042,56520604.200201,15,-1.000000,""
80_updated,w0,python3action_videoprocessing_SampleVideo_50mb_taurus,0.997085,1,2000.000000,1,COMPLETED_SUCCESSFULLY,411.455841,154.250029,565.705870,410.458756,564.708785,3.660996,13,-1.000000,""
80,w0,python3action_videoprocessing_SampleVideo_50mb,0.000000,1,-1.000000,1,COMPLETED_SUCCESSFULLY,565.705885,0.000010,565.705895,565.705885,565.705895,56570589.500201,13,-1.000000,""
124_updated,w0,python3action_floatoperation_100000000_nova,0.997085,1,2000.000000,1,COMPLETED_SUCCESSFULLY,509.982028,66.200020,576.182048,508.984943,575.184963,8.688592,2,-1.000000,""
124,w0,python3action_floatoperation_100000000,0.000000,1,-1.000000,1,COMPLETED_SUCCESSFULLY,576.182063,0.000010,576.182073,576.182063,576.182073,57618207.300201,2,-1.000000,""
112_updated,w0,python3action_videoprocessing_SampleVideo_30mb_nova,0.997085,1,2000.000000,1,COMPLETED_SUCCESSFULLY,482.902347,106.799980,589.702327,481.905262,588.705242,5.512222,5,-1.000000,""
112,w0,python3action_videoprocessing_SampleVideo_30mb,0.000000,1,-1.000000,1,COMPLETED_SUCCESSFULLY,589.702342,0.000010,589.702352,589.702342,589.702352,58970235.247010,5,-1.000000,""
130_updated,w0,python3action_modeltraining_reviews100mb_nova,0.997085,1,2000.000000,1,COMPLETED_SUCCESSFULLY,512.843128,79.600010,592.443138,511.846043,591.446053,7.430226,4,-1.000000,""
130,w0,python3action_modeltraining_reviews100mb,0.000000,1,-1.000000,1,COMPLETED_SUCCESSFULLY,592.443153,0.000010,592.443163,592.443153,592.443163,59244316.300201,4,-1.000000,""
139_updated,w0,python3action_imageprocessing_SampleImage_60mb_taurus,0.997085,1,2000.000000,1,COMPLETED_SUCCESSFULLY,494.805948,101.500058,596.306006,493.808863,595.308921,5.865109,16,-1.000000,""
139,w0,python3action_imageprocessing_SampleImage_60mb,0.000000,1,-1.000000,1,COMPLETED_SUCCESSFULLY,596.306021,0.000010,596.306031,596.306021,596.306031,59630603.100201,16,-1.000000,""
119_updated,w0,python3action_pyaes_4000_nova,0.997085,1,2000.000000,1,COMPLETED_SUCCESSFULLY,463.502518,139.600010,603.102528,462.505433,602.105443,4.313076,26,-1.000000,""
119,w0,python3action_pyaes_4000,0.000000,1,-1.000000,1,COMPLETED_SUCCESSFULLY,603.102543,0.000010,603.102553,603.102543,603.102553,60310255.300201,26,-1.000000,""
105_updated,w0,python3action_chameleon_3000_troll,0.997085,1,2000.000000,1,COMPLETED_SUCCESSFULLY,512.269509,94.000000,606.269509,511.272424,605.272424,6.439068,20,-1.000000,""
105,w0,python3action_chameleon_3000,0.000000,1,-1.000000,1,COMPLETED_SUCCESSFULLY,606.269524,0.000010,606.269534,606.269524,606.269534,60626953.403816,20,-1.000000,""
78_updated,w0,python3action_facedetection_SampleVideo_30mb_nova,0.997085,1,2000.000000,1,COMPLETED_SUCCESSFULLY,459.102239,160.399990,619.502229,458.105154,618.505144,3.856017,29,-1.000000,""
78,w0,python3action_facedetection_SampleVideo_30mb,0.000000,1,-1.000000,1,COMPLETED_SUCCESSFULLY,619.502244,0.000010,619.502254,619.502244,619.502254,61950225.447613,29,-1.000000,""
118_updated,w0,python3action_pyaes_4000_nova,0.997085,1,2000.000000,1,COMPLETED_SUCCESSFULLY,480.237276,139.600010,619.837286,479.240191,618.840201,4.432952,25,-1.000000,""
118,w0,python3action_pyaes_4000,0.000000,1,-1.000000,1,COMPLETED_SUCCESSFULLY,619.837301,0.000010,619.837311,619.837301,619.837311,61983731.126580,25,-1.000000,""
106_updated,w0,python3action_pyaes_3000_nova,0.997085,1,2000.000000,1,COMPLETED_SUCCESSFULLY,542.803078,78.200020,621.003098,541.805993,620.006013,7.928464,3,-1.000000,""
106,w0,python3action_pyaes_3000,0.000000,1,-1.000000,1,COMPLETED_SUCCESSFULLY,621.003113,0.000010,621.003123,621.003113,621.003123,62100312.300201,3,-1.000000,""
113_updated,w0,python3action_videoprocessing_SampleVideo_30mb_nova,0.997085,1,2000.000000,1,COMPLETED_SUCCESSFULLY,517.477087,106.799980,624.277067,516.480002,623.279982,5.835956,6,-1.000000,""
113,w0,python3action_videoprocessing_SampleVideo_30mb,0.000000,1,-1.000000,1,COMPLETED_SUCCESSFULLY,624.277082,0.000010,624.277092,624.277082,624.277092,62427709.246609,6,-1.000000,""
python3action_modeltraining_job132_5,w0,python3action_modeltraining_reduced_1.0,0.997085,1,2000.000000,1,COMPLETED_SUCCESSFULLY,624.277112,0.000000,624.277112,623.280027,623.280027,12749835117469.308594,6,-1.000000,""
144_updated,w0,python3action_linpack_5000_nova,0.997085,1,2000.000000,1,COMPLETED_SUCCESSFULLY,592.443183,34.600010,627.043193,591.446098,626.046108,18.093813,4,-1.000000,""
144,w0,python3action_linpack_5000,0.000000,1,-1.000000,1,COMPLETED_SUCCESSFULLY,627.043208,0.000010,627.043218,627.043208,627.043218,62704321.800201,4,-1.000000,""
162_updated,w0,python3action_imageprocessing_SampleImage_40mb_taurus,0.997085,1,2000.000000,1,COMPLETED_SUCCESSFULLY,596.306051,32.600046,628.906097,595.308966,627.909012,19.260985,16,-1.000000,""
162,w0,python3action_imageprocessing_SampleImage_40mb,0.000000,1,-1.000000,1,COMPLETED_SUCCESSFULLY,628.906112,0.000010,628.906122,628.906112,628.906122,62890612.213881,16,-1.000000,""
python3action_facedetection_job178_14,w0,python3action_facedetection_reduced_1.83,0.997085,1,2000.000000,1,COMPLETED_SUCCESSFULLY,628.906142,0.000000,628.906142,627.909057,627.909057,5446890015893.738281,16,-1.000000,""
125_updated,w0,python3action_chameleon_2000_taurus,0.997085,1,2000.000000,1,COMPLETED_SUCCESSFULLY,565.206062,64.199977,629.406039,564.208977,628.408954,9.788305,15,-1.000000,""
125,w0,python3action_chameleon_2000,0.000000,1,-1.000000,1,COMPLETED_SUCCESSFULLY,629.406054,0.000010,629.406064,629.406054,629.406064,62940606.400201,15,-1.000000,""
99_updated,w0,python3action_chameleon_2000_taurus,0.997085,1,2000.000000,1,COMPLETED_SUCCESSFULLY,565.705915,64.199977,629.905892,564.708830,628.908807,9.796091,13,-1.000000,""
99,w0,python3action_chameleon_2000,0.000000,1,-1.000000,1,COMPLETED_SUCCESSFULLY,629.905907,0.000010,629.905917,629.905907,629.905917,62990591.700201,13,-1.000000,""
169_updated,w0,python3action_modeltraining_reviews100mb_nova,0.997085,1,2000.000000,1,COMPLETED_SUCCESSFULLY,553.102513,79.600010,632.702523,552.105428,631.705438,7.935997,7,-1.000000,""
169,w0,python3action_modeltraining_reviews100mb,0.000000,1,-1.000000,1,COMPLETED_SUCCESSFULLY,632.702538,0.000010,632.702548,632.702538,632.702548,63270254.800201,7,-1.000000,""
94_updated,w0,python3action_chameleon_3000_troll,0.997085,1,2000.000000,1,COMPLETED_SUCCESSFULLY,544.269449,94.000000,638.269449,543.272364,637.272364,6.779493,19,-1.000000,""
94,w0,python3action_chameleon_3000,0.000000,1,-1.000000,1,COMPLETED_SUCCESSFULLY,638.269464,0.000010,638.269474,638.269464,638.269474,63826947.403414,19,-1.000000,""
142_updated,w0,python3action_floatoperation_100000000_nova,0.997085,1,2000.000000,1,COMPLETED_SUCCESSFULLY,576.182093,66.200020,642.382113,575.185008,641.385028,9.688593,2,-1.000000,""
142,w0,python3action_floatoperation_100000000,0.000000,1,-1.000000,1,COMPLETED_SUCCESSFULLY,642.382128,0.000010,642.382138,642.382128,642.382138,64238213.800201,2,-1.000000,""
136_updated,w0,python3action_linpack_6000_orion,0.997085,1,2000.000000,1,COMPLETED_SUCCESSFULLY,536.763357,106.000000,642.763357,535.766272,641.766272,6.054399,8,-1.000000,""
136,w0,python3action_linpack_6000,0.000000,1,-1.000000,1,COMPLETED_SUCCESSFULLY,642.763372,0.000010,642.763382,642.763372,642.763382,64276338.227689,8,-1.000000,""
145_updated,w0,python3action_linpack_6000_orion,0.997085,1,2000.000000,1,COMPLETED_SUCCESSFULLY,536.763417,106.000000,642.763417,535.766332,641.766332,6.054399,9,-1.000000,""
145,w0,python3action_linpack_6000,0.000000,1,-1.000000,1,COMPLETED_SUCCESSFULLY,642.763432,0.000010,642.763442,642.763432,642.763442,64276344.228492,9,-1.000000,""
140_updated,w0,python3action_videoprocessing_SampleVideo_30mb_nova,0.997085,1,2000.000000,1,COMPLETED_SUCCESSFULLY,536.003423,106.799980,642.803404,535.006338,641.806319,6.009424,28,-1.000000,""
140,w0,python3action_videoprocessing_SampleVideo_30mb,0.000000,1,-1.000000,1,COMPLETED_SUCCESSFULLY,642.803419,0.000010,642.803429,642.803419,642.803429,64280342.900201,28,-1.000000,""
152_updated,w0,python3action_videoprocessing_SampleVideo_30mb_nova,0.997085,1,2000.000000,1,COMPLETED_SUCCESSFULLY,539.302652,106.799980,646.102632,538.305567,645.105547,6.040315,27,-1.000000,""
152,w0,python3action_videoprocessing_SampleVideo_30mb,0.000000,1,-1.000000,1,COMPLETED_SUCCESSFULLY,646.102647,0.000010,646.102657,646.102647,646.102657,64610265.747412,27,-1.000000,""
121_updated,w0,python3action_facedetection_SampleVideo_50mb_taurus,0.997085,1,2000.000000,1,COMPLETED_SUCCESSFULLY,512.456046,134.600046,647.056092,511.458961,646.059007,4.799842,14,-1.000000,""
121,w0,python3action_facedetection_SampleVideo_50mb,0.000000,1,-1.000000,1,COMPLETED_SUCCESSFULLY,647.056107,0.000010,647.056117,647.056107,647.056117,64705611.713881,14,-1.000000,""
132_updated,w0,python3action_modeltraining_reviews50mb_nova,0.997085,1,2000.000000,1,COMPLETED_SUCCESSFULLY,624.277142,42.399990,666.677133,623.280057,665.680048,15.700005,6,-1.000000,""
132,w0,python3action_modeltraining_reviews50mb,0.000000,1,-1.000000,1,COMPLETED_SUCCESSFULLY,666.677148,0.000010,666.677158,666.677148,666.677158,66667715.800201,6,-1.000000,""
131_updated,w0,python3action_pyaes_3000_nova,0.997085,1,2000.000000,1,COMPLETED_SUCCESSFULLY,589.702372,78.200020,667.902392,588.705287,666.905307,8.528199,5,-1.000000,""
131,w0,python3action_pyaes_3000,0.000000,1,-1.000000,1,COMPLETED_SUCCESSFULLY,667.902407,0.000010,667.902417,667.902407,667.902417,66790241.701405,5,-1.000000,""
154_updated,w0,python3action_linpack_5000_nova,0.997085,1,2000.000000,1,COMPLETED_SUCCESSFULLY,642.803449,34.600010,677.403459,641.806364,676.406374,19.549312,28,-1.000000,""
154,w0,python3action_linpack_5000,0.000000,1,-1.000000,1,COMPLETED_SUCCESSFULLY,677.403474,0.000010,677.403484,677.403474,677.403484,67740348.400201,28,-1.000000,""
137_updated,w0,python3action_modeltraining_reviews100mb_nova,0.997085,1,2000.000000,1,COMPLETED_SUCCESSFULLY,603.102573,79.600010,682.702583,602.105488,681.705498,8.564138,26,-1.000000,""
137,w0,python3action_modeltraining_reviews100mb,0.000000,1,-1.000000,1,COMPLETED_SUCCESSFULLY,682.702598,0.000010,682.702608,682.702598,682.702608,68270260.800201,26,-1.000000,""
python3action_facedetection_job151_18,w0,python3action_facedetection_reduced_1.83,0.997085,1,2000.000000,1,COMPLETED_SUCCESSFULLY,682.702628,0.000000,682.702628,681.705543,681.705543,13944989232642.404297,26,-1.000000,""
114_updated,w0,python3action_videoprocessing_SampleVideo_50mb_taurus,0.997085,1,2000.000000,1,COMPLETED_SUCCESSFULLY,542.015206,154.250029,696.265235,541.018121,695.268150,4.507410,10,-1.000000,""
114,w0,python3action_videoprocessing_SampleVideo_50mb,0.000000,1,-1.000000,1,COMPLETED_SUCCESSFULLY,696.265250,0.000010,696.265260,696.265250,696.265260,69626526.025019,10,-1.000000,""
128_updated,w0,python3action_imageprocessing_SampleImage_60mb_troll,0.997085,1,2000.000000,1,COMPLETED_SUCCESSFULLY,638.269494,62.000000,700.269494,637.272409,699.272409,11.278587,19,-1.000000,""
128,w0,python3action_imageprocessing_SampleImage_60mb,0.000000,1,-1.000000,1,COMPLETED_SUCCESSFULLY,700.269509,0.000010,700.269519,700.269509,700.269519,70026951.904017,19,-1.000000,""
129_updated,w0,python3action_chameleon_3000_troll,0.997085,1,2000.000000,1,COMPLETED_SUCCESSFULLY,606.269554,94.000000,700.269554,605.272469,699.272469,7.439069,20,-1.000000,""
129,w0,python3action_chameleon_3000,0.000000,1,-1.000000,1,COMPLETED_SUCCESSFULLY,700.269569,0.000010,700.269579,700.269569,700.269579,70026957.904619,20,-1.000000,""
166_updated,w0,python3action_videoprocessing_SampleVideo_50mb_taurus,0.997085,1,2000.000000,1,COMPLETED_SUCCESSFULLY,561.506173,154.250029,715.756202,560.509088,714.759117,4.633770,11,-1.000000,""
166,w0,python3action_videoprocessing_SampleVideo_50mb,0.000000,1,-1.000000,1,COMPLETED_SUCCESSFULLY,715.756217,0.000010,715.756227,715.756217,715.756227,71575622.700201,11,-1.000000,""
179_updated,w0,python3action_modeltraining_reviews50mb_nova,0.997085,1,2000.000000,1,COMPLETED_SUCCESSFULLY,677.403504,42.399990,719.803494,676.406419,718.806409,16.952985,28,-1.000000,""
179,w0,python3action_modeltraining_reviews50mb,0.000000,1,-1.000000,1,COMPLETED_SUCCESSFULLY,719.803509,0.000010,719.803519,719.803509,719.803519,71980351.923907,28,-1.000000,""
135_updated,w0,python3action_videoprocessing_SampleVideo_30mb_nova,0.997085,1,2000.000000,1,COMPLETED_SUCCESSFULLY,619.837331,106.799980,726.637312,618.840246,725.640227,6.794385,25,-1.000000,""
135,w0,python3action_videoprocessing_SampleVideo_30mb,0.000000,1,-1.000000,1,COMPLETED_SUCCESSFULLY,726.637327,0.000010,726.637337,726.637327,726.637337,72663733.700201,25,-1.000000,""
python3action_facedetection_job150_17,w0,python3action_facedetection_reduced_1.83,0.997085,1,2000.000000,1,COMPLETED_SUCCESSFULLY,726.637357,0.000000,726.637357,725.640272,725.640272,14843719379594.726562,25,-1.000000,""
160_updated,w0,python3action_imageprocessing_SampleImage_60mb_taurus,0.997085,1,2000.000000,1,COMPLETED_SUCCESSFULLY,647.056137,101.500058,748.556195,646.059052,747.559110,7.365110,14,-1.000000,""
160,w0,python3action_imageprocessing_SampleImage_60mb,0.000000,1,-1.000000,1,COMPLETED_SUCCESSFULLY,748.556210,0.000010,748.556220,748.556210,748.556220,74855622.000201,14,-1.000000,""
174_updated,w0,python3action_linpack_6000_orion,0.997085,1,2000.000000,1,COMPLETED_SUCCESSFULLY,642.763402,106.000000,748.763402,641.766317,747.766317,7.054399,8,-1.000000,""
174,w0,python3action_linpack_6000,0.000000,1,-1.000000,1,COMPLETED_SUCCESSFULLY,748.763417,0.000010,748.763427,748.763417,748.763427,74876342.728291,8,-1.000000,""
177_updated,w0,python3action_linpack_6000_orion,0.997085,1,2000.000000,1,COMPLETED_SUCCESSFULLY,642.763462,106.000000,748.763462,641.766377,747.766377,7.054400,9,-1.000000,""
177,w0,python3action_linpack_6000,0.000000,1,-1.000000,1,COMPLETED_SUCCESSFULLY,748.763477,0.000010,748.763487,748.763477,748.763487,74876348.729095,9,-1.000000,""
127_updated,w0,python3action_pyaes_4000_nova,0.997085,1,2000.000000,1,COMPLETED_SUCCESSFULLY,621.003143,139.600010,760.603153,620.006058,759.606068,5.441304,3,-1.000000,""
127,w0,python3action_pyaes_4000,0.000000,1,-1.000000,1,COMPLETED_SUCCESSFULLY,760.603168,0.000010,760.603178,760.603168,760.603178,76060317.800201,3,-1.000000,""
178_updated,w0,python3action_facedetection_SampleVideo_50mb_taurus,0.997085,1,2000.000000,1,COMPLETED_SUCCESSFULLY,628.906172,134.600046,763.506218,627.909087,762.509133,5.664999,16,-1.000000,""
178,w0,python3action_facedetection_SampleVideo_50mb,0.000000,1,-1.000000,1,COMPLETED_SUCCESSFULLY,763.506233,0.000010,763.506243,763.506233,763.506243,76350624.327963,16,-1.000000,""
161_updated,w0,python3action_facedetection_SampleVideo_50mb_taurus,0.997085,1,2000.000000,1,COMPLETED_SUCCESSFULLY,629.406084,134.600046,764.006130,628.408999,763.009045,5.668713,15,-1.000000,""
161,w0,python3action_facedetection_SampleVideo_50mb,0.000000,1,-1.000000,1,COMPLETED_SUCCESSFULLY,764.006145,0.000010,764.006155,764.006145,764.006155,76400615.513881,15,-1.000000,""
163_updated,w0,python3action_pyaes_4000_nova,0.997085,1,2000.000000,1,COMPLETED_SUCCESSFULLY,627.043238,139.600010,766.643248,626.046153,765.646163,5.484571,4,-1.000000,""
163,w0,python3action_pyaes_4000,0.000000,1,-1.000000,1,COMPLETED_SUCCESSFULLY,766.643263,0.000010,766.643273,766.643263,766.643273,76664327.300201,4,-1.000000,""
193_updated,w0,python3action_videoprocessing_SampleVideo_50mb_nova,0.997085,1,2000.000000,1,COMPLETED_SUCCESSFULLY,632.702568,139.600010,772.302578,631.705483,771.305493,5.525111,7,-1.000000,""
193,w0,python3action_videoprocessing_SampleVideo_50mb,0.000000,1,-1.000000,1,COMPLETED_SUCCESSFULLY,772.302593,0.000010,772.302603,772.302593,772.302603,77230260.300201,7,-1.000000,""
101_updated,w0,python3action_facedetection_SampleVideo_30mb_nova,0.997085,1,2000.000000,1,COMPLETED_SUCCESSFULLY,619.502274,160.399990,779.902265,618.505189,778.905180,4.856018,29,-1.000000,""
101,w0,python3action_facedetection_SampleVideo_30mb,0.000000,1,-1.000000,1,COMPLETED_SUCCESSFULLY,779.902280,0.000010,779.902290,779.902280,779.902290,77990229.000201,29,-1.000000,""
173_updated,w0,python3action_imageprocessing_SampleImage_40mb_taurus,0.997085,1,2000.000000,1,COMPLETED_SUCCESSFULLY,748.556240,32.600046,781.156286,747.559155,780.159201,23.931230,14,-1.000000,""
173,w0,python3action_imageprocessing_SampleImage_40mb,0.000000,1,-1.000000,1,COMPLETED_SUCCESSFULLY,781.156301,0.000010,781.156311,781.156301,781.156311,78115631.113881,14,-1.000000,""
python3action_video_processing_job189_12,w0,python3action_video_processing_reduced_1.83,0.997085,1,2000.000000,1,COMPLETED_SUCCESSFULLY,781.156331,0.000000,781.156331,780.159246,780.159246,6767606805926.034180,14,-1.000000,""
python3action_floatoperation_job123_21,w0,python3action_floatoperation,0.997085,1,2000.000000,1,COMPLETED_SUCCESSFULLY,779.902310,2.439945,782.342255,778.905225,781.345170,320.230610,29,-1.000000,""
117_updated,w0,python3action_videoprocessing_SampleVideo_50mb_taurus,0.997085,1,2000.000000,1,COMPLETED_SUCCESSFULLY,629.905937,154.250029,784.155966,628.908852,783.158881,5.077204,13,-1.000000,""
117,w0,python3action_videoprocessing_SampleVideo_50mb,0.000000,1,-1.000000,1,COMPLETED_SUCCESSFULLY,784.155981,0.000010,784.155991,784.155981,784.155991,78415599.100201,13,-1.000000,""
175_updated,w0,python3action_pyaes_4000_nova,0.997085,1,2000.000000,1,COMPLETED_SUCCESSFULLY,646.102677,139.600010,785.702687,645.105592,784.705602,5.621100,27,-1.000000,""
175,w0,python3action_pyaes_4000,0.000000,1,-1.000000,1,COMPLETED_SUCCESSFULLY,785.702702,0.000010,785.702712,785.702702,785.702712,78570271.224910,27,-1.000000,""
158_updated,w0,python3action_chameleon_3000_troll,0.997085,1,2000.000000,1,COMPLETED_SUCCESSFULLY,700.269539,94.000000,794.269539,699.272454,793.272454,8.439069,19,-1.000000,""
158,w0,python3action_chameleon_3000,0.000000,1,-1.000000,1,COMPLETED_SUCCESSFULLY,794.269554,0.000010,794.269564,794.269554,794.269564,79426956.404619,19,-1.000000,""
165_updated,w0,python3action_chameleon_3000_troll,0.997085,1,2000.000000,1,COMPLETED_SUCCESSFULLY,700.269599,94.000000,794.269599,699.272514,793.272514,8.439069,20,-1.000000,""
165,w0,python3action_chameleon_3000,0.000000,1,-1.000000,1,COMPLETED_SUCCESSFULLY,794.269614,0.000010,794.269624,794.269614,794.269624,79426962.405422,20,-1.000000,""
198_updated,w0,python3action_imageprocessing_SampleImage_40mb_taurus,0.997085,1,2000.000000,1,COMPLETED_SUCCESSFULLY,763.506263,32.600046,796.106309,762.509178,795.109224,24.389819,16,-1.000000,""
198,w0,python3action_imageprocessing_SampleImage_40mb,0.000000,1,-1.000000,1,COMPLETED_SUCCESSFULLY,796.106324,0.000010,796.106334,796.106324,796.106334,79610633.441643,16,-1.000000,""
157_updated,w0,python3action_facedetection_SampleVideo_30mb_nova,0.997085,1,2000.000000,1,COMPLETED_SUCCESSFULLY,642.382158,160.399990,802.782148,641.385073,801.785063,4.998660,2,-1.000000,""
157,w0,python3action_facedetection_SampleVideo_30mb,0.000000,1,-1.000000,1,COMPLETED_SUCCESSFULLY,802.782163,0.000010,802.782173,802.782163,802.782173,80278217.323907,2,-1.000000,""
147_updated,w0,python3action_videoprocessing_SampleVideo_50mb_nova,0.997085,1,2000.000000,1,COMPLETED_SUCCESSFULLY,666.677178,139.600010,806.277188,665.680093,805.280103,5.768482,6,-1.000000,""
147,w0,python3action_videoprocessing_SampleVideo_50mb,0.000000,1,-1.000000,1,COMPLETED_SUCCESSFULLY,806.277203,0.000010,806.277213,806.277203,806.277213,80627721.300201,6,-1.000000,""
146_updated,w0,python3action_pyaes_4000_nova,0.997085,1,2000.000000,1,COMPLETED_SUCCESSFULLY,667.902437,139.600010,807.502447,666.905352,806.505362,5.777259,5,-1.000000,""
146,w0,python3action_pyaes_4000,0.000000,1,-1.000000,1,COMPLETED_SUCCESSFULLY,807.502462,0.000010,807.502472,807.502462,807.502472,80750247.200201,5,-1.000000,""
python3action_facedetection_job167_4,w0,python3action_facedetection_reduced_0.91,0.997085,1,2000.000000,1,COMPLETED_SUCCESSFULLY,807.502492,0.000000,807.502492,806.505407,806.505407,16497899030091.025391,5,-1.000000,""
176_updated,w0,python3action_chameleon_2000_taurus,0.997085,1,2000.000000,1,COMPLETED_SUCCESSFULLY,764.006175,64.199977,828.206152,763.009090,827.209067,12.884881,15,-1.000000,""
176,w0,python3action_chameleon_2000,0.000000,1,-1.000000,1,COMPLETED_SUCCESSFULLY,828.206167,0.000010,828.206177,828.206167,828.206177,82820617.707944,15,-1.000000,""
151_updated,w0,python3action_facedetection_SampleVideo_30mb_nova,0.997085,1,2000.000000,1,COMPLETED_SUCCESSFULLY,682.702658,160.399990,843.102648,681.705573,842.105563,5.250035,26,-1.000000,""
151,w0,python3action_facedetection_SampleVideo_30mb,0.000000,1,-1.000000,1,COMPLETED_SUCCESSFULLY,843.102663,0.000010,843.102673,843.102663,843.102673,84310267.324308,26,-1.000000,""
187_updated,w0,python3action_pyaes_3000_nova,0.997085,1,2000.000000,1,COMPLETED_SUCCESSFULLY,766.643293,78.200020,844.843313,765.646208,843.846228,10.790870,4,-1.000000,""
187,w0,python3action_pyaes_3000,0.000000,1,-1.000000,1,COMPLETED_SUCCESSFULLY,844.843328,0.000010,844.843338,844.843328,844.843338,84484333.800201,4,-1.000000,""
123_updated,w0,python3action_floatoperation_100000000_nova,0.997085,1,2000.000000,1,COMPLETED_SUCCESSFULLY,782.342270,66.200020,848.542290,781.345185,847.545205,12.802794,29,-1.000000,""
123,w0,python3action_floatoperation_100000000,0.000000,1,-1.000000,1,COMPLETED_SUCCESSFULLY,848.542305,0.000010,848.542315,848.542305,848.542315,84854231.500201,29,-1.000000,""
168_updated,w0,python3action_modeltraining_reviews50mb_nova,0.997085,1,2000.000000,1,COMPLETED_SUCCESSFULLY,806.277233,42.399990,848.677223,805.280148,847.680138,19.992461,6,-1.000000,""
168,w0,python3action_modeltraining_reviews50mb,0.000000,1,-1.000000,1,COMPLETED_SUCCESSFULLY,848.677238,0.000010,848.677248,848.677238,848.677248,84867724.823907,6,-1.000000,""
148_updated,w0,python3action_videoprocessing_SampleVideo_50mb_taurus,0.997085,1,2000.000000,1,COMPLETED_SUCCESSFULLY,696.265280,154.250029,850.515309,695.268195,849.518224,5.507410,10,-1.000000,""
148,w0,python3action_videoprocessing_SampleVideo_50mb,0.000000,1,-1.000000,1,COMPLETED_SUCCESSFULLY,850.515324,0.000010,850.515334,850.515324,850.515334,85051533.408795,10,-1.000000,""
python3action_linpack_job141_21,w0,python3action_linpack,0.997085,1,2000.000000,1,COMPLETED_SUCCESSFULLY,848.542335,2.439945,850.982280,847.545250,849.985195,348.362399,29,-1.000000,""
196_updated,w0,python3action_floatoperation_100000000_nova,0.997085,1,2000.000000,1,COMPLETED_SUCCESSFULLY,785.702732,66.200020,851.902752,784.705647,850.905667,12.853556,27,-1.000000,""
196,w0,python3action_floatoperation_100000000,0.000000,1,-1.000000,1,COMPLETED_SUCCESSFULLY,851.902767,0.000010,851.902777,851.902767,851.902777,85190277.700201,27,-1.000000,""
188_updated,w0,python3action_linpack_6000_orion,0.997085,1,2000.000000,1,COMPLETED_SUCCESSFULLY,748.763447,106.000000,854.763447,747.766362,853.766362,8.054400,8,-1.000000,""
188,w0,python3action_linpack_6000,0.000000,1,-1.000000,1,COMPLETED_SUCCESSFULLY,854.763462,0.000010,854.763472,854.763462,854.763472,85476347.228894,8,-1.000000,""
185_updated,w0,python3action_imageprocessing_SampleImage_60mb_troll,0.997085,1,2000.000000,1,COMPLETED_SUCCESSFULLY,794.269584,62.000000,856.269584,793.272499,855.272499,13.794718,19,-1.000000,""
185,w0,python3action_imageprocessing_SampleImage_60mb,0.000000,1,-1.000000,1,COMPLETED_SUCCESSFULLY,856.269599,0.000010,856.269609,856.269599,856.269609,85626960.905221,19,-1.000000,""
182_updated,w0,python3action_videoprocessing_SampleVideo_50mb_taurus,0.997085,1,2000.000000,1,COMPLETED_SUCCESSFULLY,715.756247,154.250029,870.006276,714.759162,869.009191,5.633770,11,-1.000000,""
182,w0,python3action_videoprocessing_SampleVideo_50mb,0.000000,1,-1.000000,1,COMPLETED_SUCCESSFULLY,870.006291,0.000010,870.006301,870.006291,870.006301,87000630.100201,11,-1.000000,""
197_updated,w0,python3action_facedetection_SampleVideo_30mb_nova,0.997085,1,2000.000000,1,COMPLETED_SUCCESSFULLY,719.803539,160.399990,880.203529,718.806454,879.206444,5.481337,28,-1.000000,""
197,w0,python3action_facedetection_SampleVideo_30mb,0.000000,1,-1.000000,1,COMPLETED_SUCCESSFULLY,880.203544,0.000010,880.203554,880.203544,880.203554,88020355.447613,28,-1.000000,""
164_updated,w0,python3action_imageprocessing_SampleImage_40mb_taurus,0.997085,1,2000.000000,1,COMPLETED_SUCCESSFULLY,850.515354,32.600046,883.115400,849.518269,882.118315,27.058806,10,-1.000000,""
164,w0,python3action_imageprocessing_SampleImage_40mb,0.000000,1,-1.000000,1,COMPLETED_SUCCESSFULLY,883.115415,0.000010,883.115425,883.115415,883.115425,88311542.522475,10,-1.000000,""
171_updated,w0,python3action_modeltraining_reviews50mb_nova,0.997085,1,2000.000000,1,COMPLETED_SUCCESSFULLY,843.102693,42.399990,885.502683,842.105608,884.505598,20.860986,26,-1.000000,""
171,w0,python3action_modeltraining_reviews50mb,0.000000,1,-1.000000,1,COMPLETED_SUCCESSFULLY,885.502698,0.000010,885.502708,885.502698,885.502708,88550270.848014,26,-1.000000,""
141_updated,w0,python3action_linpack_5000_nova,0.997085,1,2000.000000,1,COMPLETED_SUCCESSFULLY,850.982295,34.600010,885.582305,849.985210,884.585220,25.566040,29,-1.000000,""
141,w0,python3action_linpack_5000,0.000000,1,-1.000000,1,COMPLETED_SUCCESSFULLY,885.582320,0.000010,885.582330,885.582320,885.582330,88558233.007280,29,-1.000000,""
150_updated,w0,python3action_facedetection_SampleVideo_30mb_nova,0.997085,1,2000.000000,1,COMPLETED_SUCCESSFULLY,726.637387,160.399990,887.037377,725.640302,886.040292,5.523942,25,-1.000000,""
150,w0,python3action_facedetection_SampleVideo_30mb,0.000000,1,-1.000000,1,COMPLETED_SUCCESSFULLY,887.037392,0.000010,887.037402,887.037392,887.037402,88703740.224308,25,-1.000000,""
143_updated,w0,python3action_pyaes_4000_nova,0.997085,1,2000.000000,1,COMPLETED_SUCCESSFULLY,760.603198,139.600010,900.203208,759.606113,899.206123,6.441304,3,-1.000000,""
143,w0,python3action_pyaes_4000,0.000000,1,-1.000000,1,COMPLETED_SUCCESSFULLY,900.203223,0.000010,900.203233,900.203223,900.203233,90020323.300201,3,-1.000000,""
python3action_modeltraining_job159_2,w0,python3action_modeltraining_reduced_1.94,0.997085,1,2000.000000,1,COMPLETED_SUCCESSFULLY,900.203253,0.000000,900.203253,899.206168,899.206168,18394188604475.843750,3,-1.000000,""
192_updated,w0,python3action_modeltraining_reviews100mb_nova,0.997085,1,2000.000000,1,COMPLETED_SUCCESSFULLY,848.677268,79.600010,928.277278,847.680183,927.280193,11.649247,6,-1.000000,""
192,w0,python3action_modeltraining_reviews100mb,0.000000,1,-1.000000,1,COMPLETED_SUCCESSFULLY,928.277293,0.000010,928.277303,928.277293,928.277303,92827730.301406,6,-1.000000,""
189_updated,w0,python3action_videoprocessing_SampleVideo_50mb_taurus,0.997085,1,2000.000000,1,COMPLETED_SUCCESSFULLY,781.156361,154.250029,935.406390,780.159276,934.409305,6.057758,14,-1.000000,""
189,w0,python3action_videoprocessing_SampleVideo_50mb,0.000000,1,-1.000000,1,COMPLETED_SUCCESSFULLY,935.406405,0.000010,935.406415,935.406405,935.406415,93540641.500201,14,-1.000000,""
155_updated,w0,python3action_videoprocessing_SampleVideo_50mb_taurus,0.997085,1,2000.000000,1,COMPLETED_SUCCESSFULLY,784.156011,154.250029,938.406040,783.158926,937.408955,6.077204,13,-1.000000,""
155,w0,python3action_videoprocessing_SampleVideo_50mb,0.000000,1,-1.000000,1,COMPLETED_SUCCESSFULLY,938.406055,0.000010,938.406065,938.406055,938.406065,93840606.500201,13,-1.000000,""
python3action_image_processing_job172_11,w0,python3action_image_processing_reduced_1.73,0.997085,1,2000.000000,1,COMPLETED_SUCCESSFULLY,938.406085,0.000000,938.406085,937.409000,937.409000,8131693061054.221680,13,-1.000000,""
156_updated,w0,python3action_floatoperation_100000000_nova,0.997085,1,2000.000000,1,COMPLETED_SUCCESSFULLY,885.582350,66.200020,951.782370,884.585265,950.785285,14.362311,29,-1.000000,""
156,w0,python3action_floatoperation_100000000,0.000000,1,-1.000000,1,COMPLETED_SUCCESSFULLY,951.782385,0.000010,951.782395,951.782385,951.782395,95178239.500201,29,-1.000000,""
python3action_modeltraining_job180_21,w0,python3action_modeltraining_reduced_1.94,0.997085,1,2000.000000,1,COMPLETED_SUCCESSFULLY,951.782415,0.000000,951.782415,950.785330,950.785330,19449293504381.742188,29,-1.000000,""
183_updated,w0,python3action_facedetection_SampleVideo_30mb_nova,0.997085,1,2000.000000,1,COMPLETED_SUCCESSFULLY,802.782193,160.399990,963.182183,801.785108,962.185098,5.998661,2,-1.000000,""
183,w0,python3action_facedetection_SampleVideo_30mb,0.000000,1,-1.000000,1,COMPLETED_SUCCESSFULLY,963.182198,0.000010,963.182208,963.182198,963.182208,96318220.847612,2,-1.000000,""
167_updated,w0,python3action_facedetection_SampleVideo_30mb_nova,0.997085,1,2000.000000,1,COMPLETED_SUCCESSFULLY,807.502522,160.399990,967.902512,806.505437,966.905427,6.028089,5,-1.000000,""
167,w0,python3action_facedetection_SampleVideo_30mb,0.000000,1,-1.000000,1,COMPLETED_SUCCESSFULLY,967.902527,0.000010,967.902537,967.902527,967.902537,96790253.724308,5,-1.000000,""
172_updated,w0,python3action_imageprocessing_SampleImage_40mb_taurus,0.997085,1,2000.000000,1,COMPLETED_SUCCESSFULLY,938.406115,32.600046,971.006161,937.409030,970.009076,29.754838,13,-1.000000,""
172,w0,python3action_imageprocessing_SampleImage_40mb,0.000000,1,-1.000000,1,COMPLETED_SUCCESSFULLY,971.006176,0.000010,971.006186,971.006176,971.006186,97100618.614283,13,-1.000000,""
159_updated,w0,python3action_modeltraining_reviews100mb_nova,0.997085,1,2000.000000,1,COMPLETED_SUCCESSFULLY,900.203283,79.600010,979.803293,899.206198,978.806208,12.296559,3,-1.000000,""
159,w0,python3action_modeltraining_reviews100mb,0.000000,1,-1.000000,1,COMPLETED_SUCCESSFULLY,979.803308,0.000010,979.803318,979.803308,979.803318,97980331.800201,3,-1.000000,""
191_updated,w0,python3action_videoprocessing_SampleVideo_50mb_taurus,0.997085,1,2000.000000,1,COMPLETED_SUCCESSFULLY,828.206197,154.250029,982.456226,827.209112,981.459141,6.362781,15,-1.000000,""
191,w0,python3action_videoprocessing_SampleVideo_50mb,0.000000,1,-1.000000,1,COMPLETED_SUCCESSFULLY,982.456241,0.000010,982.456251,982.456241,982.456251,98245625.100201,15,-1.000000,""
195_updated,w0,python3action_videoprocessing_SampleVideo_30mb_nova,0.997085,1,2000.000000,1,COMPLETED_SUCCESSFULLY,885.502728,106.799980,992.302709,884.505643,991.305624,9.281890,26,-1.000000,""
195,w0,python3action_videoprocessing_SampleVideo_30mb,0.000000,1,-1.000000,1,COMPLETED_SUCCESSFULLY,992.302724,0.000010,992.302734,992.302724,992.302734,99230273.400201,26,-1.000000,""
170_updated,w0,python3action_videoprocessing_SampleVideo_30mb_nova,0.997085,1,2000.000000,1,COMPLETED_SUCCESSFULLY,887.037422,106.799980,993.837403,886.040337,992.840318,9.296259,25,-1.000000,""
170,w0,python3action_videoprocessing_SampleVideo_30mb,0.000000,1,-1.000000,1,COMPLETED_SUCCESSFULLY,993.837418,0.000010,993.837428,993.837418,993.837428,99383742.800201,25,-1.000000,""
python3action_floatoperation_job194_17,w0,python3action_floatoperation,0.997085,1,2000.000000,1,COMPLETED_SUCCESSFULLY,993.837448,2.439945,996.277393,992.840363,995.280308,407.910911,25,-1.000000,""
186_updated,w0,python3action_imageprocessing_SampleImage_40mb_taurus,0.997085,1,2000.000000,1,COMPLETED_SUCCESSFULLY,971.006206,32.600046,1003.606252,970.009121,1002.609167,30.754839,13,-1.000000,""
186,w0,python3action_imageprocessing_SampleImage_40mb,0.000000,1,-1.000000,1,COMPLETED_SUCCESSFULLY,1003.606267,0.000010,1003.606277,1003.606267,1003.606277,100360627.727963,13,-1.000000,""
184_updated,w0,python3action_modeltraining_reviews50mb_nova,0.997085,1,2000.000000,1,COMPLETED_SUCCESSFULLY,979.803338,42.399990,1022.203328,978.806253,1021.206243,24.085058,3,-1.000000,""
184,w0,python3action_modeltraining_reviews50mb,0.000000,1,-1.000000,1,COMPLETED_SUCCESSFULLY,1022.203343,0.000010,1022.203353,1022.203343,1022.203353,102220335.323907,3,-1.000000,""
180_updated,w0,python3action_modeltraining_reviews100mb_nova,0.997085,1,2000.000000,1,COMPLETED_SUCCESSFULLY,951.782445,79.600010,1031.382455,950.785360,1030.385370,12.944538,29,-1.000000,""
180,w0,python3action_modeltraining_reviews100mb,0.000000,1,-1.000000,1,COMPLETED_SUCCESSFULLY,1031.382470,0.000010,1031.382480,1031.382470,1031.382480,103138248.000201,29,-1.000000,""
181_updated,w0,python3action_videoprocessing_SampleVideo_50mb_taurus,0.997085,1,2000.000000,1,COMPLETED_SUCCESSFULLY,883.115445,154.250029,1037.365474,882.118360,1036.368389,6.718757,10,-1.000000,""
181,w0,python3action_videoprocessing_SampleVideo_50mb,0.000000,1,-1.000000,1,COMPLETED_SUCCESSFULLY,1037.365489,0.000010,1037.365499,1037.365489,1037.365499,103736549.906251,10,-1.000000,""
199_updated,w0,python3action_modeltraining_reviews50mb_nova,0.997085,1,2000.000000,1,COMPLETED_SUCCESSFULLY,1031.382500,42.399990,1073.782490,1030.385415,1072.785405,25.301548,29,-1.000000,""
199,w0,python3action_modeltraining_reviews50mb,0.000000,1,-1.000000,1,COMPLETED_SUCCESSFULLY,1073.782505,0.000010,1073.782515,1073.782505,1073.782515,107378251.523907,29,-1.000000,""
190_updated,w0,python3action_pyaes_4000_nova,0.997085,1,2000.000000,1,COMPLETED_SUCCESSFULLY,967.902557,139.600010,1107.502567,966.905472,1106.505482,7.926256,5,-1.000000,""
190,w0,python3action_pyaes_4000,0.000000,1,-1.000000,1,COMPLETED_SUCCESSFULLY,1107.502582,0.000010,1107.502592,1107.502582,1107.502592,110750259.201807,5,-1.000000,""
194_updated,w0,python3action_floatoperation_200000000_nova,0.997085,1,2000.000000,1,COMPLETED_SUCCESSFULLY,996.277408,135.399990,1131.677399,995.280323,1130.680314,8.350668,25,-1.000000,""
194,w0,python3action_floatoperation_200000000,0.000000,1,-1.000000,1,COMPLETED_SUCCESSFULLY,1131.677414,0.000010,1131.677424,1131.677414,1131.677424,113167742.400201,25,-1.000000,""
