job_id,workload_name,profile,submission_time,requested_number_of_resources,requested_time,success,final_state,starting_time,execution_time,finish_time,waiting_time,turnaround_time,stretch,allocated_resources,consumed_energy,metadata
python3action_chameleon_job3_1,w0,python3action_chameleon,0.997085,1,2000.000000,1,COMPLETED_SUCCESSFULLY,1.002115,0.243006,1.245121,0.005030,0.248036,1.020699,1,-1.000000,""
python3action_pyaes_job15_3,w0,python3action_pyaes,0.997085,1,2000.000000,1,COMPLETED_SUCCESSFULLY,1.002145,0.867914,1.870059,0.005060,0.872974,1.005830,4,-1.000000,""
python3action_chameleon_job13_4,w0,python3action_chameleon,0.997085,1,2000.000000,1,COMPLETED_SUCCESSFULLY,1.002160,0.892694,1.894854,0.005075,0.897769,1.005685,5,-1.000000,""
python3action_modeltraining_job0_0,w0,python3action_modeltraining,0.997085,1,2000.000000,1,COMPLETED_SUCCESSFULLY,1.002100,3.471546,4.473646,0.005015,3.476561,1.001445,0,-1.000000,""
python3action_linpack_job10_10,w0,python3action_linpack,0.997085,1,2000.000000,1,COMPLETED_SUCCESSFULLY,1.002250,5.760927,6.763177,0.005165,5.766092,1.000897,11,-1.000000,""
3_updated,w0,python3action_chameleon_2000_neowise,0.997085,1,2000.000000,1,COMPLETED_SUCCESSFULLY,1.245136,24.200002,25.445138,0.248051,24.448053,1.010250,1,-1.000000,""
3,w0,python3action_chameleon_2000,0.000000,1,-1.000000,1,COMPLETED_SUCCESSFULLY,25.445153,0.000010,25.445163,25.445153,25.445163,2544516.322787,1,-1.000000,""
0_updated,w0,python3action_modeltraining_reviews50mb_neowise,0.997085,1,2000.000000,1,COMPLETED_SUCCESSFULLY,4.473661,22.799998,27.273659,3.476576,26.276574,1.152481,0,-1.000000,""
0,w0,python3action_modeltraining_reviews50mb,0.000000,1,-1.000000,1,COMPLETED_SUCCESSFULLY,27.273674,0.000010,27.273684,27.273674,27.273684,2727368.400201,0,-1.000000,""
python3action_video_processing_job4_5,w0,python3action_video_processing,0.997085,1,2000.000000,1,COMPLETED_SUCCESSFULLY,1.002175,30.499683,31.501858,0.005090,30.504773,1.000167,6,-1.000000,""
python3action_video_processing_job5_6,w0,python3action_video_processing,0.997085,1,2000.000000,1,COMPLETED_SUCCESSFULLY,1.002190,30.499683,31.501873,0.005105,30.504788,1.000167,7,-1.000000,""
python3action_video_processing_job6_7,w0,python3action_video_processing,0.997085,1,2000.000000,1,COMPLETED_SUCCESSFULLY,1.002205,30.499683,31.501888,0.005120,30.504803,1.000168,8,-1.000000,""
python3action_video_processing_job11_8,w0,python3action_video_processing,0.997085,1,2000.000000,1,COMPLETED_SUCCESSFULLY,1.002220,30.499683,31.501903,0.005135,30.504818,1.000168,9,-1.000000,""
python3action_facedetection_job12_9,w0,python3action_facedetection,0.997085,1,2000.000000,1,COMPLETED_SUCCESSFULLY,1.002235,30.499683,31.501918,0.005150,30.504833,1.000169,10,-1.000000,""
9_updated,w0,python3action_chameleon_2000_neowise,0.997085,1,2000.000000,1,COMPLETED_SUCCESSFULLY,25.445183,24.200002,49.645185,24.448098,48.648100,2.010252,1,-1.000000,""
9,w0,python3action_chameleon_2000,0.000000,1,-1.000000,1,COMPLETED_SUCCESSFULLY,49.645200,0.000010,49.645210,49.645200,49.645210,4964521.045775,1,-1.000000,""
8_updated,w0,python3action_modeltraining_reviews50mb_neowise,0.997085,1,2000.000000,1,COMPLETED_SUCCESSFULLY,27.273704,22.799998,50.073702,26.276619,49.076617,2.152483,0,-1.000000,""
8,w0,python3action_modeltraining_reviews50mb,0.000000,1,-1.000000,1,COMPLETED_SUCCESSFULLY,50.073717,0.000010,50.073727,50.073717,50.073727,5007372.700201,0,-1.000000,""
python3action_image_processing_job22_1,w0,python3action_image_processing_reduced_0.86,0.997085,1,2000.000000,1,COMPLETED_SUCCESSFULLY,50.073747,0.000000,50.073747,49.076662,49.076662,8832386377994.837891,0,-1.000000,""
python3action_image_processing_job23_2,w0,python3action_image_processing,0.997085,1,2000.000000,1,COMPLETED_SUCCESSFULLY,49.645230,3.471546,53.116776,48.648145,52.119691,15.013396,1,-1.000000,""
15_updated,w0,python3action_pyaes_3000_troll,0.997085,1,2000.000000,1,COMPLETED_SUCCESSFULLY,1.870074,57.166677,59.036751,0.872989,58.039666,1.015271,4,-1.000000,""
15,w0,python3action_pyaes_3000,0.000000,1,-1.000000,1,COMPLETED_SUCCESSFULLY,59.036766,0.000010,59.036776,59.036766,59.036776,5903677.600201,4,-1.000000,""
python3action_facedetection_job1_2,w0,python3action_facedetection,0.997085,1,2000.000000,1,COMPLETED_SUCCESSFULLY,1.002130,72.012455,73.014585,0.005045,72.017500,1.000070,2,-1.000000,""
python3action_facedetection_job2_11,w0,python3action_facedetection,0.997085,1,2000.000000,1,COMPLETED_SUCCESSFULLY,1.002265,72.012455,73.014720,0.005180,72.017635,1.000072,12,-1.000000,""
python3action_image_processing_job7_12,w0,python3action_image_processing,0.997085,1,2000.000000,1,COMPLETED_SUCCESSFULLY,1.002280,72.012455,73.014735,0.005195,72.017650,1.000072,13,-1.000000,""
22_updated,w0,python3action_imageprocessing_SampleImage_60mb_neowise,0.997085,1,2000.000000,1,COMPLETED_SUCCESSFULLY,50.073777,37.500000,87.573777,49.076692,86.576692,2.308712,0,-1.000000,""
22,w0,python3action_imageprocessing_SampleImage_60mb,0.000000,1,-1.000000,1,COMPLETED_SUCCESSFULLY,87.573792,0.000010,87.573802,87.573792,87.573802,8757380.201205,0,-1.000000,""
23_updated,w0,python3action_imageprocessing_SampleImage_60mb_neowise,0.997085,1,2000.000000,1,COMPLETED_SUCCESSFULLY,53.116791,37.500000,90.616791,52.119706,89.619706,2.389859,1,-1.000000,""
23,w0,python3action_imageprocessing_SampleImage_60mb,0.000000,1,-1.000000,1,COMPLETED_SUCCESSFULLY,90.616806,0.000010,90.616816,90.616806,90.616816,9061681.626603,1,-1.000000,""
13_updated,w0,python3action_chameleon_3000_yeti,0.997085,1,2000.000000,1,COMPLETED_SUCCESSFULLY,1.894869,93.000000,94.894869,0.897784,93.897784,1.009654,5,-1.000000,""
13,w0,python3action_chameleon_3000,0.000000,1,-1.000000,1,COMPLETED_SUCCESSFULLY,94.894884,0.000010,94.894894,94.894884,94.894894,9489489.449765,5,-1.000000,""
python3action_floatoperation_job31_5,w0,python3action_floatoperation,0.997085,1,2000.000000,1,COMPLETED_SUCCESSFULLY,94.894915,1.020219,95.915134,93.897830,94.918049,93.036903,5,-1.000000,""
7_updated,w0,python3action_imageprocessing_SampleImage_40mb_taurus,0.997085,1,2000.000000,1,COMPLETED_SUCCESSFULLY,73.014765,32.600046,105.614811,72.017680,104.617726,3.209128,13,-1.000000,""
7,w0,python3action_imageprocessing_SampleImage_40mb,0.000000,1,-1.000000,1,COMPLETED_SUCCESSFULLY,105.614826,0.000010,105.614836,105.614826,105.614836,10561483.647372,13,-1.000000,""
python3action_video_processing_job29_13,w0,python3action_video_processing_reduced_0.91,0.997085,1,2000.000000,1,COMPLETED_SUCCESSFULLY,105.614856,0.000000,105.614856,104.617771,104.617771,907186838886.252197,13,-1.000000,""
10_updated,w0,python3action_linpack_6000_orion,0.997085,1,2000.000000,1,COMPLETED_SUCCESSFULLY,6.763192,106.000000,112.763192,5.766107,111.766107,1.054397,11,-1.000000,""
10,w0,python3action_linpack_6000,0.000000,1,-1.000000,1,COMPLETED_SUCCESSFULLY,112.763207,0.000010,112.763217,112.763207,112.763217,11276321.725480,11,-1.000000,""
25_updated,w0,python3action_chameleon_2000_neowise,0.997085,1,2000.000000,1,COMPLETED_SUCCESSFULLY,90.616836,24.200002,114.816838,89.619751,113.819753,4.703295,1,-1.000000,""
25,w0,python3action_chameleon_2000,0.000000,1,-1.000000,1,COMPLETED_SUCCESSFULLY,114.816853,0.000010,114.816863,114.816853,114.816863,11481686.349591,1,-1.000000,""
python3action_modeltraining_job27_2,w0,python3action_modeltraining_reduced_0.94,0.997085,1,2000.000000,1,COMPLETED_SUCCESSFULLY,114.816883,0.204209,115.021092,113.819798,114.024007,558.370315,1,-1.000000,""
30_updated,w0,python3action_pyaes_3000_troll,0.997085,1,2000.000000,1,COMPLETED_SUCCESSFULLY,59.036796,57.166677,116.203473,58.039711,115.206388,2.015272,4,-1.000000,""
30,w0,python3action_pyaes_3000,0.000000,1,-1.000000,1,COMPLETED_SUCCESSFULLY,116.203488,0.000010,116.203498,116.203488,116.203498,11620349.800201,4,-1.000000,""
24_updated,w0,python3action_imageprocessing_SampleImage_60mb_neowise,0.997085,1,2000.000000,1,COMPLETED_SUCCESSFULLY,87.573822,37.500000,125.073822,86.576737,124.076737,3.308713,0,-1.000000,""
24,w0,python3action_imageprocessing_SampleImage_60mb,0.000000,1,-1.000000,1,COMPLETED_SUCCESSFULLY,125.073837,0.000010,125.073847,125.073837,125.073847,12507384.701807,0,-1.000000,""
python3action_chameleon_job26_1,w0,python3action_chameleon,0.997085,1,2000.000000,1,COMPLETED_SUCCESSFULLY,125.073867,0.243006,125.316873,124.076782,124.319788,511.591472,0,-1.000000,""
4_updated,w0,python3action_videoprocessing_SampleVideo_30mb_nova,0.997085,1,2000.000000,1,COMPLETED_SUCCESSFULLY,31.501873,106.799980,138.301853,30.504788,137.304768,1.285625,6,-1.000000,""
4,w0,python3action_videoprocessing_SampleVideo_30mb,0.000000,1,-1.000000,1,COMPLETED_SUCCESSFULLY,138.301868,0.000010,138.301878,138.301868,138.301878,13830187.800201,6,-1.000000,""
5_updated,w0,python3action_videoprocessing_SampleVideo_30mb_nova,0.997085,1,2000.000000,1,COMPLETED_SUCCESSFULLY,31.501903,106.799980,138.301883,30.504818,137.304798,1.285626,7,-1.000000,""
6_updated,w0,python3action_videoprocessing_SampleVideo_30mb_nova,0.997085,1,2000.000000,1,COMPLETED_SUCCESSFULLY,31.501918,106.799980,138.301898,30.504833,137.304813,1.285626,8,-1.000000,""
python3action_facedetection_job16_6,w0,python3action_facedetection_reduced_0.91,0.997085,1,2000.000000,1,COMPLETED_SUCCESSFULLY,138.301898,0.000000,138.301898,137.304813,137.304813,2810345334496.572266,6,-1.000000,""
5,w0,python3action_videoprocessing_SampleVideo_30mb,0.000000,1,-1.000000,1,COMPLETED_SUCCESSFULLY,138.301913,0.000010,138.301923,138.301913,138.301923,13830192.299685,7,-1.000000,""
11_updated,w0,python3action_videoprocessing_SampleVideo_30mb_nova,0.997085,1,2000.000000,1,COMPLETED_SUCCESSFULLY,31.501948,106.799980,138.301928,30.504863,137.304843,1.285626,9,-1.000000,""
6,w0,python3action_videoprocessing_SampleVideo_30mb,0.000000,1,-1.000000,1,COMPLETED_SUCCESSFULLY,138.301943,0.000010,138.301953,138.301943,138.301953,13830195.300201,8,-1.000000,""
11,w0,python3action_videoprocessing_SampleVideo_30mb,0.000000,1,-1.000000,1,COMPLETED_SUCCESSFULLY,138.302003,0.000010,138.302013,138.302003,138.302013,13830201.301004,9,-1.000000,""
python3action_floatoperation_job18_7,w0,python3action_floatoperation,0.997085,1,2000.000000,1,COMPLETED_SUCCESSFULLY,138.301973,2.439945,140.741918,137.304888,139.744833,57.273757,7,-1.000000,""
python3action_floatoperation_job19_8,w0,python3action_floatoperation,0.997085,1,2000.000000,1,COMPLETED_SUCCESSFULLY,138.302018,2.439945,140.741963,137.304933,139.744878,57.273775,8,-1.000000,""
python3action_floatoperation_job21_9,w0,python3action_floatoperation,0.997085,1,2000.000000,1,COMPLETED_SUCCESSFULLY,138.302048,2.439945,140.741993,137.304963,139.744908,57.273788,9,-1.000000,""
20_updated,w0,python3action_linpack_5000_orion,0.997085,1,2000.000000,1,COMPLETED_SUCCESSFULLY,112.763237,36.199977,148.963214,111.766152,147.966129,4.087465,11,-1.000000,""
20,w0,python3action_linpack_5000,0.000000,1,-1.000000,1,COMPLETED_SUCCESSFULLY,148.963229,0.000010,148.963239,148.963229,148.963239,14896323.919543,11,-1.000000,""
26_updated,w0,python3action_chameleon_2000_neowise,0.997085,1,2000.000000,1,COMPLETED_SUCCESSFULLY,125.316888,24.200002,149.516890,124.319803,148.519805,6.137181,0,-1.000000,""
26,w0,python3action_chameleon_2000,0.000000,1,-1.000000,1,COMPLETED_SUCCESSFULLY,149.516905,0.000010,149.516915,149.516905,149.516915,14951691.523212,0,-1.000000,""
27_updated,w0,python3action_modeltraining_reviews100mb_neowise,0.997085,1,2000.000000,1,COMPLETED_SUCCESSFULLY,115.021107,43.399999,158.421106,114.024022,157.424021,3.627282,1,-1.000000,""
27,w0,python3action_modeltraining_reviews100mb,0.000000,1,-1.000000,1,COMPLETED_SUCCESSFULLY,158.421121,0.000010,158.421131,158.421121,158.421131,15842113.100201,1,-1.000000,""
39_updated,w0,python3action_modeltraining_reviews50mb_neowise,0.997085,1,2000.000000,1,COMPLETED_SUCCESSFULLY,149.516935,22.799998,172.316933,148.519850,171.319848,7.514029,0,-1.000000,""
39,w0,python3action_modeltraining_reviews50mb,0.000000,1,-1.000000,1,COMPLETED_SUCCESSFULLY,172.316948,0.000010,172.316958,172.316948,172.316958,17231695.801429,0,-1.000000,""
45_updated,w0,python3action_modeltraining_reviews50mb_neowise,0.997085,1,2000.000000,1,COMPLETED_SUCCESSFULLY,158.421151,22.799998,181.221149,157.424066,180.224064,7.904565,1,-1.000000,""
45,w0,python3action_modeltraining_reviews50mb,0.000000,1,-1.000000,1,COMPLETED_SUCCESSFULLY,181.221164,0.000010,181.221174,181.221164,181.221174,18122117.400201,1,-1.000000,""
12_updated,w0,python3action_facedetection_SampleVideo_30mb_nova,0.997085,1,2000.000000,1,COMPLETED_SUCCESSFULLY,31.501963,160.399990,191.901953,30.504878,190.904868,1.190180,10,-1.000000,""
12,w0,python3action_facedetection_SampleVideo_30mb,0.000000,1,-1.000000,1,COMPLETED_SUCCESSFULLY,191.901968,0.000010,191.901978,191.901968,191.901978,19190197.823706,10,-1.000000,""
python3action_video_processing_job28_10,w0,python3action_video_processing_reduced_0.91,0.997085,1,2000.000000,1,COMPLETED_SUCCESSFULLY,191.901998,0.000000,191.901998,190.904913,190.904913,3907428447389.127930,10,-1.000000,""
46_updated,w0,python3action_modeltraining_reviews50mb_neowise,0.997085,1,2000.000000,1,COMPLETED_SUCCESSFULLY,172.316978,22.799998,195.116976,171.319893,194.119891,8.514031,0,-1.000000,""
46,w0,python3action_modeltraining_reviews50mb,0.000000,1,-1.000000,1,COMPLETED_SUCCESSFULLY,195.116991,0.000010,195.117001,195.116991,195.117001,19511700.100201,0,-1.000000,""
31_updated,w0,python3action_floatoperation_200000000_yeti,0.997085,1,2000.000000,1,COMPLETED_SUCCESSFULLY,95.915149,106.000000,201.915149,94.918064,200.918064,1.895453,5,-1.000000,""
31,w0,python3action_floatoperation_200000000,0.000000,1,-1.000000,1,COMPLETED_SUCCESSFULLY,201.915164,0.000010,201.915174,201.915164,201.915174,20191517.400402,5,-1.000000,""
48_updated,w0,python3action_modeltraining_reviews50mb_neowise,0.997085,1,2000.000000,1,COMPLETED_SUCCESSFULLY,181.221194,22.799998,204.021192,180.224109,203.024107,8.904567,1,-1.000000,""
48,w0,python3action_modeltraining_reviews50mb,0.000000,1,-1.000000,1,COMPLETED_SUCCESSFULLY,204.021207,0.000010,204.021217,204.021207,204.021217,20402121.700201,1,-1.000000,""
18_updated,w0,python3action_floatoperation_100000000_nova,0.997085,1,2000.000000,1,COMPLETED_SUCCESSFULLY,140.741933,66.200020,206.941953,139.744848,205.944868,3.110949,7,-1.000000,""
18,w0,python3action_floatoperation_100000000,0.000000,1,-1.000000,1,COMPLETED_SUCCESSFULLY,206.941968,0.000010,206.941978,206.941968,206.941978,20694197.800201,7,-1.000000,""
python3action_facedetection_job36_7,w0,python3action_facedetection_reduced_0.91,0.997085,1,2000.000000,1,COMPLETED_SUCCESSFULLY,206.941998,0.000000,206.941998,205.944913,205.944913,4215266113442.586426,7,-1.000000,""
1_updated,w0,python3action_facedetection_SampleVideo_50mb_taurus,0.997085,1,2000.000000,1,COMPLETED_SUCCESSFULLY,73.014600,134.600046,207.614646,72.017515,206.617561,1.535048,2,-1.000000,""
1,w0,python3action_facedetection_SampleVideo_50mb,0.000000,1,-1.000000,1,COMPLETED_SUCCESSFULLY,207.614661,0.000010,207.614671,207.614661,207.614671,20761467.145163,2,-1.000000,""
python3action_video_processing_job14_3,w0,python3action_video_processing_reduced_0.91,0.997085,1,2000.000000,1,COMPLETED_SUCCESSFULLY,207.614691,0.000000,207.614691,206.617606,206.617606,1791451637664.669434,2,-1.000000,""
2_updated,w0,python3action_facedetection_SampleVideo_50mb_taurus,0.997085,1,2000.000000,1,COMPLETED_SUCCESSFULLY,73.014735,134.600046,207.614781,72.017650,206.617696,1.535049,12,-1.000000,""
2,w0,python3action_facedetection_SampleVideo_50mb,0.000000,1,-1.000000,1,COMPLETED_SUCCESSFULLY,207.614796,0.000010,207.614806,207.614796,207.614806,20761480.646970,12,-1.000000,""
python3action_linpack_job17_12,w0,python3action_linpack,0.997085,1,2000.000000,1,COMPLETED_SUCCESSFULLY,207.614826,5.760927,213.375754,206.617741,212.378669,36.865362,12,-1.000000,""
32_updated,w0,python3action_pyaes_4000_troll,0.997085,1,2000.000000,1,COMPLETED_SUCCESSFULLY,116.203518,102.333333,218.536851,115.206433,217.539766,2.125796,4,-1.000000,""
32,w0,python3action_pyaes_4000,0.000000,1,-1.000000,1,COMPLETED_SUCCESSFULLY,218.536866,0.000010,218.536876,218.536866,218.536876,21853687.634136,4,-1.000000,""
50_updated,w0,python3action_chameleon_2000_neowise,0.997085,1,2000.000000,1,COMPLETED_SUCCESSFULLY,195.117021,24.200002,219.317023,194.119936,218.319938,9.021484,0,-1.000000,""
50,w0,python3action_chameleon_2000,0.000000,1,-1.000000,1,COMPLETED_SUCCESSFULLY,219.317038,0.000010,219.317048,219.317038,219.317048,21931704.823188,0,-1.000000,""
51_updated,w0,python3action_chameleon_2000_neowise,0.997085,1,2000.000000,1,COMPLETED_SUCCESSFULLY,204.021237,24.200002,228.221239,203.024152,227.224154,9.389427,1,-1.000000,""
51,w0,python3action_chameleon_2000,0.000000,1,-1.000000,1,COMPLETED_SUCCESSFULLY,228.221254,0.000010,228.221264,228.221254,228.221264,22822126.423188,1,-1.000000,""
17_updated,w0,python3action_linpack_5000_taurus,0.997085,1,2000.000000,1,COMPLETED_SUCCESSFULLY,213.375769,38.500058,251.875827,212.378684,250.878742,6.516321,12,-1.000000,""
17,w0,python3action_linpack_5000,0.000000,1,-1.000000,1,COMPLETED_SUCCESSFULLY,251.875842,0.000010,251.875852,251.875842,251.875852,25187585.200201,12,-1.000000,""
python3action_image_processing_job35_12,w0,python3action_image_processing_reduced_0.86,0.997085,1,2000.000000,1,COMPLETED_SUCCESSFULLY,251.875872,0.000000,251.875872,250.878787,250.878787,2175212565603.459229,12,-1.000000,""
40_updated,w0,python3action_linpack_6000_orion,0.997085,1,2000.000000,1,COMPLETED_SUCCESSFULLY,148.963259,106.000000,254.963259,147.966174,253.966174,2.395907,11,-1.000000,""
40,w0,python3action_linpack_6000,0.000000,1,-1.000000,1,COMPLETED_SUCCESSFULLY,254.963274,0.000010,254.963284,254.963274,254.963284,25496328.420145,11,-1.000000,""
53_updated,w0,python3action_imageprocessing_SampleImage_60mb_neowise,0.997085,1,2000.000000,1,COMPLETED_SUCCESSFULLY,219.317068,37.500000,256.817068,218.319983,255.819983,6.821866,0,-1.000000,""
53,w0,python3action_imageprocessing_SampleImage_60mb,0.000000,1,-1.000000,1,COMPLETED_SUCCESSFULLY,256.817083,0.000010,256.817093,256.817083,256.817093,25681709.323791,0,-1.000000,""
29_updated,w0,python3action_videoprocessing_SampleVideo_50mb_taurus,0.997085,1,2000.000000,1,COMPLETED_SUCCESSFULLY,105.614886,154.250029,259.864915,104.617801,258.867830,1.678235,13,-1.000000,""
29,w0,python3action_videoprocessing_SampleVideo_50mb,0.000000,1,-1.000000,1,COMPLETED_SUCCESSFULLY,259.864930,0.000010,259.864940,259.864930,259.864940,25986494.031549,13,-1.000000,""
55_updated,w0,python3action_imageprocessing_SampleImage_60mb_neowise,0.997085,1,2000.000000,1,COMPLETED_SUCCESSFULLY,228.221284,37.500000,265.721284,227.224199,264.724199,7.059312,1,-1.000000,""
55,w0,python3action_imageprocessing_SampleImage_60mb,0.000000,1,-1.000000,1,COMPLETED_SUCCESSFULLY,265.721299,0.000010,265.721309,265.721299,265.721309,26572130.923791,1,-1.000000,""
19_updated,w0,python3action_floatoperation_200000000_nova,0.997085,1,2000.000000,1,COMPLETED_SUCCESSFULLY,140.741978,135.399990,276.141969,139.744893,275.144884,2.032089,8,-1.000000,""
19,w0,python3action_floatoperation_200000000,0.000000,1,-1.000000,1,COMPLETED_SUCCESSFULLY,276.141984,0.000010,276.141994,276.141984,276.141994,27614199.400201,8,-1.000000,""
21_updated,w0,python3action_floatoperation_200000000_nova,0.997085,1,2000.000000,1,COMPLETED_SUCCESSFULLY,140.742008,135.399990,276.141999,139.744923,275.144914,2.032090,9,-1.000000,""
21,w0,python3action_floatoperation_200000000,0.000000,1,-1.000000,1,COMPLETED_SUCCESSFULLY,276.142029,0.000010,276.142039,276.142029,276.142039,27614203.900402,9,-1.000000,""
python3action_facedetection_job41_9,w0,python3action_facedetection_reduced_0.91,0.997085,1,2000.000000,1,COMPLETED_SUCCESSFULLY,276.142059,0.000000,276.142059,275.144974,275.144974,5634926160577.610352,9,-1.000000,""
67_updated,w0,python3action_modeltraining_reviews50mb_neowise,0.997085,1,2000.000000,1,COMPLETED_SUCCESSFULLY,256.817113,22.799998,279.617111,255.820028,278.620026,12.220178,0,-1.000000,""
67,w0,python3action_modeltraining_reviews50mb,0.000000,1,-1.000000,1,COMPLETED_SUCCESSFULLY,279.617126,0.000010,279.617136,279.617126,279.617136,27961713.602008,0,-1.000000,""
35_updated,w0,python3action_imageprocessing_SampleImage_40mb_taurus,0.997085,1,2000.000000,1,COMPLETED_SUCCESSFULLY,251.875902,32.600046,284.475948,250.878817,283.478863,8.695658,12,-1.000000,""
35,w0,python3action_imageprocessing_SampleImage_40mb,0.000000,1,-1.000000,1,COMPLETED_SUCCESSFULLY,284.475963,0.000010,284.475973,284.475963,284.475973,28447597.314283,12,-1.000000,""
49_updated,w0,python3action_imageprocessing_SampleImage_40mb_taurus,0.997085,1,2000.000000,1,COMPLETED_SUCCESSFULLY,259.864960,32.600046,292.465006,258.867875,291.467921,8.940721,13,-1.000000,""
49,w0,python3action_imageprocessing_SampleImage_40mb,0.000000,1,-1.000000,1,COMPLETED_SUCCESSFULLY,292.465021,0.000010,292.465031,292.465021,292.465031,29246503.145230,13,-1.000000,""
python3action_facedetection_job60_13,w0,python3action_facedetection_reduced_1.83,0.997085,1,2000.000000,1,COMPLETED_SUCCESSFULLY,292.465051,0.000000,292.465051,291.467966,291.467966,2527135875746.238770,13,-1.000000,""
16_updated,w0,python3action_facedetection_SampleVideo_30mb_nova,0.997085,1,2000.000000,1,COMPLETED_SUCCESSFULLY,138.301958,160.399990,298.701948,137.304873,297.704863,1.856015,6,-1.000000,""
16,w0,python3action_facedetection_SampleVideo_30mb,0.000000,1,-1.000000,1,COMPLETED_SUCCESSFULLY,298.701963,0.000010,298.701973,298.701963,298.701973,29870197.323706,6,-1.000000,""
28_updated,w0,python3action_videoprocessing_SampleVideo_30mb_nova,0.997085,1,2000.000000,1,COMPLETED_SUCCESSFULLY,191.902028,106.799980,298.702009,190.904943,297.704924,2.787500,10,-1.000000,""
28,w0,python3action_videoprocessing_SampleVideo_30mb,0.000000,1,-1.000000,1,COMPLETED_SUCCESSFULLY,298.702024,0.000010,298.702034,298.702024,298.702034,29870203.400201,10,-1.000000,""
python3action_floatoperation_job43_10,w0,python3action_floatoperation,0.997085,1,2000.000000,1,COMPLETED_SUCCESSFULLY,298.702054,2.439945,301.141999,297.704969,300.144914,123.012969,10,-1.000000,""
47_updated,w0,python3action_floatoperation_200000000_yeti,0.997085,1,2000.000000,1,COMPLETED_SUCCESSFULLY,201.915194,106.000000,307.915194,200.918109,306.918109,2.895454,5,-1.000000,""
47,w0,python3action_floatoperation_200000000,0.000000,1,-1.000000,1,COMPLETED_SUCCESSFULLY,307.915209,0.000010,307.915219,307.915209,307.915219,30791521.901004,5,-1.000000,""
68_updated,w0,python3action_modeltraining_reviews100mb_neowise,0.997085,1,2000.000000,1,COMPLETED_SUCCESSFULLY,265.721329,43.399999,309.121328,264.724244,308.124243,7.099637,1,-1.000000,""
68,w0,python3action_modeltraining_reviews100mb,0.000000,1,-1.000000,1,COMPLETED_SUCCESSFULLY,309.121343,0.000010,309.121353,309.121343,309.121353,30912135.313201,1,-1.000000,""
69_updated,w0,python3action_imageprocessing_SampleImage_60mb_neowise,0.997085,1,2000.000000,1,COMPLETED_SUCCESSFULLY,279.617156,37.500000,317.117156,278.620071,316.120071,8.429869,0,-1.000000,""
69,w0,python3action_imageprocessing_SampleImage_60mb,0.000000,1,-1.000000,1,COMPLETED_SUCCESSFULLY,317.117171,0.000010,317.117181,317.117171,317.117181,31711718.102611,0,-1.000000,""
37_updated,w0,python3action_pyaes_4000_troll,0.997085,1,2000.000000,1,COMPLETED_SUCCESSFULLY,218.536896,102.333333,320.870230,217.539811,319.873145,3.125796,4,-1.000000,""
37,w0,python3action_pyaes_4000,0.000000,1,-1.000000,1,COMPLETED_SUCCESSFULLY,320.870245,0.000010,320.870255,320.870245,320.870255,32087025.500201,4,-1.000000,""
71_updated,w0,python3action_modeltraining_reviews50mb_neowise,0.997085,1,2000.000000,1,COMPLETED_SUCCESSFULLY,309.121373,22.799998,331.921371,308.124288,330.924286,14.514224,1,-1.000000,""
71,w0,python3action_modeltraining_reviews50mb,0.000000,1,-1.000000,1,COMPLETED_SUCCESSFULLY,331.921386,0.000010,331.921396,331.921386,331.921396,33192139.600201,1,-1.000000,""
38_updated,w0,python3action_floatoperation_100000000_nova,0.997085,1,2000.000000,1,COMPLETED_SUCCESSFULLY,276.142014,66.200020,342.342034,275.144929,341.344949,5.156267,8,-1.000000,""
38,w0,python3action_floatoperation_100000000,0.000000,1,-1.000000,1,COMPLETED_SUCCESSFULLY,342.342049,0.000010,342.342059,342.342049,342.342059,34234205.900201,8,-1.000000,""
85_updated,w0,python3action_imageprocessing_SampleImage_60mb_neowise,0.997085,1,2000.000000,1,COMPLETED_SUCCESSFULLY,317.117201,37.500000,354.617201,316.120116,353.620116,9.429870,0,-1.000000,""
85,w0,python3action_imageprocessing_SampleImage_60mb,0.000000,1,-1.000000,1,COMPLETED_SUCCESSFULLY,354.617216,0.000010,354.617226,354.617216,354.617226,35461722.603213,0,-1.000000,""
93_updated,w0,python3action_chameleon_2000_neowise,0.997085,1,2000.000000,1,COMPLETED_SUCCESSFULLY,331.921416,24.200002,356.121418,330.924331,355.124333,14.674558,1,-1.000000,""
93,w0,python3action_chameleon_2000,0.000000,1,-1.000000,1,COMPLETED_SUCCESSFULLY,356.121433,0.000010,356.121443,356.121433,356.121443,35612144.323189,1,-1.000000,""
58_updated,w0,python3action_linpack_6000_orion,0.997085,1,2000.000000,1,COMPLETED_SUCCESSFULLY,254.963304,106.000000,360.963304,253.966219,359.966219,3.395908,11,-1.000000,""
58,w0,python3action_linpack_6000,0.000000,1,-1.000000,1,COMPLETED_SUCCESSFULLY,360.963319,0.000010,360.963329,360.963319,360.963329,36096332.920748,11,-1.000000,""
14_updated,w0,python3action_videoprocessing_SampleVideo_50mb_taurus,0.997085,1,2000.000000,1,COMPLETED_SUCCESSFULLY,207.614721,154.250029,361.864750,206.617636,360.867665,2.339498,2,-1.000000,""
14,w0,python3action_videoprocessing_SampleVideo_50mb,0.000000,1,-1.000000,1,COMPLETED_SUCCESSFULLY,361.864765,0.000010,361.864775,361.864765,361.864775,36186477.529341,2,-1.000000,""
python3action_image_processing_job33_3,w0,python3action_image_processing_reduced_1.73,0.997085,1,2000.000000,1,COMPLETED_SUCCESSFULLY,361.864795,0.000000,361.864795,360.867710,360.867710,3128857514527.703613,2,-1.000000,""
36_updated,w0,python3action_facedetection_SampleVideo_30mb_nova,0.997085,1,2000.000000,1,COMPLETED_SUCCESSFULLY,206.942028,160.399990,367.342018,205.944943,366.344933,2.283946,7,-1.000000,""
36,w0,python3action_facedetection_SampleVideo_30mb,0.000000,1,-1.000000,1,COMPLETED_SUCCESSFULLY,367.342033,0.000010,367.342043,367.342033,367.342043,36734204.324309,7,-1.000000,""
43_updated,w0,python3action_floatoperation_100000000_nova,0.997085,1,2000.000000,1,COMPLETED_SUCCESSFULLY,301.142014,66.200020,367.342034,300.144929,366.344949,5.533910,10,-1.000000,""
43,w0,python3action_floatoperation_100000000,0.000000,1,-1.000000,1,COMPLETED_SUCCESSFULLY,367.342078,0.000010,367.342088,367.342078,367.342088,36734208.824911,10,-1.000000,""
97_updated,w0,python3action_modeltraining_reviews50mb_neowise,0.997085,1,2000.000000,1,COMPLETED_SUCCESSFULLY,356.121463,22.799998,378.921461,355.124378,377.924376,16.575632,1,-1.000000,""
97,w0,python3action_modeltraining_reviews50mb,0.000000,1,-1.000000,1,COMPLETED_SUCCESSFULLY,378.921476,0.000010,378.921486,378.921476,378.921486,37892148.601406,1,-1.000000,""
33_updated,w0,python3action_imageprocessing_SampleImage_40mb_taurus,0.997085,1,2000.000000,1,COMPLETED_SUCCESSFULLY,361.864825,32.600046,394.464871,360.867740,393.467786,12.069547,2,-1.000000,""
33,w0,python3action_imageprocessing_SampleImage_40mb,0.000000,1,-1.000000,1,COMPLETED_SUCCESSFULLY,394.464886,0.000010,394.464896,394.464886,394.464896,39446489.643423,2,-1.000000,""
95_updated,w0,python3action_modeltraining_reviews100mb_neowise,0.997085,1,2000.000000,1,COMPLETED_SUCCESSFULLY,354.617246,43.399999,398.017245,353.620161,397.020160,9.147930,0,-1.000000,""
95,w0,python3action_modeltraining_reviews100mb,0.000000,1,-1.000000,1,COMPLETED_SUCCESSFULLY,398.017260,0.000010,398.017270,398.017260,398.017270,39801727.000201,0,-1.000000,""
54_updated,w0,python3action_chameleon_3000_yeti,0.997085,1,2000.000000,1,COMPLETED_SUCCESSFULLY,307.915239,93.000000,400.915239,306.918154,399.918154,4.300195,5,-1.000000,""
54,w0,python3action_chameleon_3000,0.000000,1,-1.000000,1,COMPLETED_SUCCESSFULLY,400.915254,0.000010,400.915264,400.915254,400.915264,40091526.401607,5,-1.000000,""
104_updated,w0,python3action_chameleon_2000_neowise,0.997085,1,2000.000000,1,COMPLETED_SUCCESSFULLY,378.921506,24.200002,403.121508,377.924421,402.124423,16.616710,1,-1.000000,""
104,w0,python3action_chameleon_2000,0.000000,1,-1.000000,1,COMPLETED_SUCCESSFULLY,403.121523,0.000010,403.121533,403.121523,403.121533,40312153.324394,1,-1.000000,""
57_updated,w0,python3action_facedetection_SampleVideo_50mb_taurus,0.997085,1,2000.000000,1,COMPLETED_SUCCESSFULLY,284.475993,134.600046,419.076039,283.478908,418.078954,3.106083,12,-1.000000,""
57,w0,python3action_facedetection_SampleVideo_50mb,0.000000,1,-1.000000,1,COMPLETED_SUCCESSFULLY,419.076054,0.000010,419.076064,419.076054,419.076064,41907606.427964,12,-1.000000,""
python3action_video_processing_job75_12,w0,python3action_video_processing_reduced_1.83,0.997085,1,2000.000000,1,COMPLETED_SUCCESSFULLY,419.076084,0.000000,419.076084,418.078999,418.078999,3624900708064.726562,12,-1.000000,""
103_updated,w0,python3action_chameleon_2000_neowise,0.997085,1,2000.000000,1,COMPLETED_SUCCESSFULLY,398.017290,24.200002,422.217292,397.020205,421.220207,17.405792,0,-1.000000,""
103,w0,python3action_chameleon_2000,0.000000,1,-1.000000,1,COMPLETED_SUCCESSFULLY,422.217307,0.000010,422.217317,422.217307,422.217317,42221731.723189,0,-1.000000,""
42_updated,w0,python3action_pyaes_4000_troll,0.997085,1,2000.000000,1,COMPLETED_SUCCESSFULLY,320.870275,102.333333,423.203608,319.873190,422.206523,4.125797,4,-1.000000,""
42,w0,python3action_pyaes_4000,0.000000,1,-1.000000,1,COMPLETED_SUCCESSFULLY,423.203623,0.000010,423.203633,423.203623,423.203633,42320363.334137,4,-1.000000,""
60_updated,w0,python3action_facedetection_SampleVideo_50mb_taurus,0.997085,1,2000.000000,1,COMPLETED_SUCCESSFULLY,292.465081,134.600046,427.065128,291.467996,426.068043,3.165438,13,-1.000000,""
60,w0,python3action_facedetection_SampleVideo_50mb,0.000000,1,-1.000000,1,COMPLETED_SUCCESSFULLY,427.065143,0.000010,427.065153,427.065143,427.065153,42706515.300201,13,-1.000000,""
41_updated,w0,python3action_facedetection_SampleVideo_30mb_nova,0.997085,1,2000.000000,1,COMPLETED_SUCCESSFULLY,276.142089,160.399990,436.542079,275.145004,435.544994,2.715368,9,-1.000000,""
41,w0,python3action_facedetection_SampleVideo_30mb,0.000000,1,-1.000000,1,COMPLETED_SUCCESSFULLY,436.542094,0.000010,436.542104,436.542094,436.542104,43654210.424510,9,-1.000000,""
105_updated,w0,python3action_chameleon_2000_neowise,0.997085,1,2000.000000,1,COMPLETED_SUCCESSFULLY,422.217337,24.200002,446.417339,421.220252,445.420254,18.405794,0,-1.000000,""
105,w0,python3action_chameleon_2000,0.000000,1,-1.000000,1,COMPLETED_SUCCESSFULLY,446.417354,0.000010,446.417364,446.417354,446.417364,44641736.446176,0,-1.000000,""
106_updated,w0,python3action_modeltraining_reviews100mb_neowise,0.997085,1,2000.000000,1,COMPLETED_SUCCESSFULLY,403.121553,43.399999,446.521552,402.124468,445.524467,10.265541,1,-1.000000,""
106,w0,python3action_modeltraining_reviews100mb,0.000000,1,-1.000000,1,COMPLETED_SUCCESSFULLY,446.521567,0.000010,446.521577,446.521567,446.521577,44652157.713803,1,-1.000000,""
61_updated,w0,python3action_videoprocessing_SampleVideo_30mb_nova,0.997085,1,2000.000000,1,COMPLETED_SUCCESSFULLY,342.342079,106.799980,449.142059,341.344994,448.144974,4.196115,8,-1.000000,""
61,w0,python3action_videoprocessing_SampleVideo_30mb,0.000000,1,-1.000000,1,COMPLETED_SUCCESSFULLY,449.142074,0.000010,449.142084,449.142074,449.142084,44914208.447011,8,-1.000000,""
34_updated,w0,python3action_facedetection_SampleVideo_30mb_nova,0.997085,1,2000.000000,1,COMPLETED_SUCCESSFULLY,298.701993,160.399990,459.101983,297.704908,458.104898,2.856016,6,-1.000000,""
34,w0,python3action_facedetection_SampleVideo_30mb,0.000000,1,-1.000000,1,COMPLETED_SUCCESSFULLY,459.101998,0.000010,459.102008,459.101998,459.102008,45910200.847412,6,-1.000000,""
python3action_floatoperation_job44_6,w0,python3action_floatoperation,0.997085,1,2000.000000,1,COMPLETED_SUCCESSFULLY,459.102028,2.439945,461.541974,458.104943,460.544889,188.752137,6,-1.000000,""
65_updated,w0,python3action_linpack_6000_orion,0.997085,1,2000.000000,1,COMPLETED_SUCCESSFULLY,360.963349,106.000000,466.963349,359.966264,465.966264,4.395908,11,-1.000000,""
65,w0,python3action_linpack_6000,0.000000,1,-1.000000,1,COMPLETED_SUCCESSFULLY,466.963364,0.000010,466.963374,466.963364,466.963374,46696337.421351,11,-1.000000,""
110_updated,w0,python3action_chameleon_2000_neowise,0.997085,1,2000.000000,1,COMPLETED_SUCCESSFULLY,446.417384,24.200002,470.617387,445.420299,469.620302,19.405796,0,-1.000000,""
110,w0,python3action_chameleon_2000,0.000000,1,-1.000000,1,COMPLETED_SUCCESSFULLY,470.617402,0.000010,470.617412,470.617402,470.617412,47061741.200201,0,-1.000000,""
114_updated,w0,python3action_imageprocessing_SampleImage_60mb_neowise,0.997085,1,2000.000000,1,COMPLETED_SUCCESSFULLY,446.521597,37.500000,484.021597,445.524512,483.024512,12.880654,1,-1.000000,""
114,w0,python3action_imageprocessing_SampleImage_60mb,0.000000,1,-1.000000,1,COMPLETED_SUCCESSFULLY,484.021612,0.000010,484.021622,484.021612,484.021622,48402162.214406,1,-1.000000,""
63_updated,w0,python3action_floatoperation_200000000_nova,0.997085,1,2000.000000,1,COMPLETED_SUCCESSFULLY,367.342108,135.399990,502.742098,366.345023,501.745013,3.705650,10,-1.000000,""
63,w0,python3action_floatoperation_200000000,0.000000,1,-1.000000,1,COMPLETED_SUCCESSFULLY,502.742113,0.000010,502.742123,502.742113,502.742123,50274212.348617,10,-1.000000,""
62_updated,w0,python3action_floatoperation_100000000_nova,0.997085,1,2000.000000,1,COMPLETED_SUCCESSFULLY,436.542124,66.200020,502.742144,435.545039,501.745059,7.579228,9,-1.000000,""
62,w0,python3action_floatoperation_100000000,0.000000,1,-1.000000,1,COMPLETED_SUCCESSFULLY,502.742173,0.000010,502.742183,502.742173,502.742183,50274218.349421,9,-1.000000,""
72_updated,w0,python3action_floatoperation_200000000_yeti,0.997085,1,2000.000000,1,COMPLETED_SUCCESSFULLY,400.915284,106.000000,506.915284,399.918199,505.918199,4.772813,5,-1.000000,""
72,w0,python3action_floatoperation_200000000,0.000000,1,-1.000000,1,COMPLETED_SUCCESSFULLY,506.915299,0.000010,506.915309,506.915299,506.915309,50691530.902209,5,-1.000000,""
117_updated,w0,python3action_modeltraining_reviews100mb_neowise,0.997085,1,2000.000000,1,COMPLETED_SUCCESSFULLY,470.617432,43.399999,514.017431,469.620347,513.020346,11.820746,0,-1.000000,""
117,w0,python3action_modeltraining_reviews100mb,0.000000,1,-1.000000,1,COMPLETED_SUCCESSFULLY,514.017446,0.000010,514.017456,514.017446,514.017456,51401745.600201,0,-1.000000,""
73_updated,w0,python3action_floatoperation_100000000_nova,0.997085,1,2000.000000,1,COMPLETED_SUCCESSFULLY,449.142104,66.200020,515.342124,448.145019,514.345039,7.769560,8,-1.000000,""
73,w0,python3action_floatoperation_100000000,0.000000,1,-1.000000,1,COMPLETED_SUCCESSFULLY,515.342139,0.000010,515.342149,515.342139,515.342149,51534214.901406,8,-1.000000,""
56_updated,w0,python3action_pyaes_4000_troll,0.997085,1,2000.000000,1,COMPLETED_SUCCESSFULLY,423.203653,102.333333,525.536987,422.206568,524.539902,5.125797,4,-1.000000,""
56,w0,python3action_pyaes_4000,0.000000,1,-1.000000,1,COMPLETED_SUCCESSFULLY,525.537002,0.000010,525.537012,525.537002,525.537012,52553701.200201,4,-1.000000,""
118_updated,w0,python3action_modeltraining_reviews100mb_neowise,0.997085,1,2000.000000,1,COMPLETED_SUCCESSFULLY,484.021642,43.399999,527.421641,483.024557,526.424556,12.129598,1,-1.000000,""
118,w0,python3action_modeltraining_reviews100mb,0.000000,1,-1.000000,1,COMPLETED_SUCCESSFULLY,527.421656,0.000010,527.421666,527.421656,527.421666,52742166.603816,1,-1.000000,""
44_updated,w0,python3action_floatoperation_100000000_nova,0.997085,1,2000.000000,1,COMPLETED_SUCCESSFULLY,461.541989,66.200020,527.742009,460.544904,526.744924,7.956870,6,-1.000000,""
44,w0,python3action_floatoperation_100000000,0.000000,1,-1.000000,1,COMPLETED_SUCCESSFULLY,527.742024,0.000010,527.742034,527.742024,527.742034,52774203.400201,6,-1.000000,""
59_updated,w0,python3action_facedetection_SampleVideo_30mb_nova,0.997085,1,2000.000000,1,COMPLETED_SUCCESSFULLY,367.342063,160.399990,527.742053,366.344978,526.744968,3.283946,7,-1.000000,""
59,w0,python3action_facedetection_SampleVideo_30mb,0.000000,1,-1.000000,1,COMPLETED_SUCCESSFULLY,527.742083,0.000010,527.742093,527.742083,527.742093,52774209.348417,7,-1.000000,""
52_updated,w0,python3action_facedetection_SampleVideo_50mb_taurus,0.997085,1,2000.000000,1,COMPLETED_SUCCESSFULLY,394.464916,134.600046,529.064963,393.467831,528.067878,3.923237,2,-1.000000,""
52,w0,python3action_facedetection_SampleVideo_50mb,0.000000,1,-1.000000,1,COMPLETED_SUCCESSFULLY,529.064978,0.000010,529.064988,529.064978,529.064988,52906498.800201,2,-1.000000,""
124_updated,w0,python3action_modeltraining_reviews50mb_neowise,0.997085,1,2000.000000,1,COMPLETED_SUCCESSFULLY,514.017476,22.799998,536.817474,513.020391,535.820389,23.500897,0,-1.000000,""
124,w0,python3action_modeltraining_reviews50mb,0.000000,1,-1.000000,1,COMPLETED_SUCCESSFULLY,536.817489,0.000010,536.817499,536.817489,536.817499,53681749.900201,0,-1.000000,""
136_updated,w0,python3action_modeltraining_reviews50mb_neowise,0.997085,1,2000.000000,1,COMPLETED_SUCCESSFULLY,536.817519,22.799998,559.617517,535.820434,558.620432,24.500899,0,-1.000000,""
136,w0,python3action_modeltraining_reviews50mb,0.000000,1,-1.000000,1,COMPLETED_SUCCESSFULLY,559.617532,0.000010,559.617542,559.617532,559.617542,55961754.200201,0,-1.000000,""
76_updated,w0,python3action_facedetection_SampleVideo_50mb_taurus,0.997085,1,2000.000000,1,COMPLETED_SUCCESSFULLY,427.065173,134.600046,561.665219,426.068088,560.668134,4.165438,13,-1.000000,""
76,w0,python3action_facedetection_SampleVideo_50mb,0.000000,1,-1.000000,1,COMPLETED_SUCCESSFULLY,561.665234,0.000010,561.665244,561.665234,561.665244,56166524.413881,13,-1.000000,""
127_updated,w0,python3action_imageprocessing_SampleImage_60mb_neowise,0.997085,1,2000.000000,1,COMPLETED_SUCCESSFULLY,527.421686,37.500000,564.921686,526.424601,563.924601,15.037989,1,-1.000000,""
127,w0,python3action_imageprocessing_SampleImage_60mb,0.000000,1,-1.000000,1,COMPLETED_SUCCESSFULLY,564.921701,0.000010,564.921711,564.921701,564.921711,56492171.104418,1,-1.000000,""
84_updated,w0,python3action_floatoperation_100000000_nova,0.997085,1,2000.000000,1,COMPLETED_SUCCESSFULLY,502.742143,66.200020,568.942163,501.745058,567.945078,8.579228,10,-1.000000,""
84,w0,python3action_floatoperation_100000000,0.000000,1,-1.000000,1,COMPLETED_SUCCESSFULLY,568.942178,0.000010,568.942188,568.942178,568.942188,56894218.803013,10,-1.000000,""
70_updated,w0,python3action_linpack_6000_orion,0.997085,1,2000.000000,1,COMPLETED_SUCCESSFULLY,466.963394,106.000000,572.963394,465.966309,571.966309,5.395909,11,-1.000000,""
70,w0,python3action_linpack_6000,0.000000,1,-1.000000,1,COMPLETED_SUCCESSFULLY,572.963409,0.000010,572.963419,572.963409,572.963419,57296341.921953,11,-1.000000,""
75_updated,w0,python3action_videoprocessing_SampleVideo_50mb_taurus,0.997085,1,2000.000000,1,COMPLETED_SUCCESSFULLY,419.076114,154.250029,573.326143,418.079029,572.329058,3.710398,12,-1.000000,""
75,w0,python3action_videoprocessing_SampleVideo_50mb,0.000000,1,-1.000000,1,COMPLETED_SUCCESSFULLY,573.326158,0.000010,573.326168,573.326158,573.326168,57332616.812142,12,-1.000000,""
146_updated,w0,python3action_imageprocessing_SampleImage_60mb_neowise,0.997085,1,2000.000000,1,COMPLETED_SUCCESSFULLY,559.617562,37.500000,597.117562,558.620477,596.120477,15.896546,0,-1.000000,""
146,w0,python3action_imageprocessing_SampleImage_60mb,0.000000,1,-1.000000,1,COMPLETED_SUCCESSFULLY,597.117577,0.000010,597.117587,597.117577,597.117587,59711758.700803,0,-1.000000,""
89_updated,w0,python3action_chameleon_3000_yeti,0.997085,1,2000.000000,1,COMPLETED_SUCCESSFULLY,506.915329,93.000000,599.915329,505.918244,598.918244,6.439981,5,-1.000000,""
89,w0,python3action_chameleon_3000,0.000000,1,-1.000000,1,COMPLETED_SUCCESSFULLY,599.915344,0.000010,599.915354,599.915344,599.915354,59991535.402812,5,-1.000000,""
138_updated,w0,python3action_imageprocessing_SampleImage_60mb_neowise,0.997085,1,2000.000000,1,COMPLETED_SUCCESSFULLY,564.921731,37.500000,602.421731,563.924646,601.424646,16.037991,1,-1.000000,""
138,w0,python3action_imageprocessing_SampleImage_60mb,0.000000,1,-1.000000,1,COMPLETED_SUCCESSFULLY,602.421746,0.000010,602.421756,602.421746,602.421756,60242175.605020,1,-1.000000,""
78_updated,w0,python3action_imageprocessing_SampleImage_40mb_taurus,0.997085,1,2000.000000,1,COMPLETED_SUCCESSFULLY,573.326188,32.600046,605.926234,572.329103,604.929149,18.556083,12,-1.000000,""
78,w0,python3action_imageprocessing_SampleImage_40mb,0.000000,1,-1.000000,1,COMPLETED_SUCCESSFULLY,605.926249,0.000010,605.926259,605.926249,605.926259,60592625.925822,12,-1.000000,""
155_updated,w0,python3action_chameleon_2000_neowise,0.997085,1,2000.000000,1,COMPLETED_SUCCESSFULLY,597.117607,24.200002,621.317609,596.120522,620.320524,25.633077,0,-1.000000,""
155,w0,python3action_chameleon_2000,0.000000,1,-1.000000,1,COMPLETED_SUCCESSFULLY,621.317624,0.000010,621.317634,621.317624,621.317634,62131763.423791,0,-1.000000,""
153_updated,w0,python3action_chameleon_2000_neowise,0.997085,1,2000.000000,1,COMPLETED_SUCCESSFULLY,602.421776,24.200002,626.621778,601.424691,625.624693,25.852258,1,-1.000000,""
153,w0,python3action_chameleon_2000,0.000000,1,-1.000000,1,COMPLETED_SUCCESSFULLY,626.621793,0.000010,626.621803,626.621793,626.621803,62662180.328008,1,-1.000000,""
82_updated,w0,python3action_pyaes_4000_troll,0.997085,1,2000.000000,1,COMPLETED_SUCCESSFULLY,525.537032,102.333333,627.870365,524.539947,626.873280,6.125798,4,-1.000000,""
82,w0,python3action_pyaes_4000,0.000000,1,-1.000000,1,COMPLETED_SUCCESSFULLY,627.870380,0.000010,627.870390,627.870380,627.870390,62787039.034136,4,-1.000000,""
80_updated,w0,python3action_floatoperation_200000000_nova,0.997085,1,2000.000000,1,COMPLETED_SUCCESSFULLY,502.742203,135.399990,638.142194,501.745118,637.145109,4.705651,9,-1.000000,""
80,w0,python3action_floatoperation_200000000,0.000000,1,-1.000000,1,COMPLETED_SUCCESSFULLY,638.142209,0.000010,638.142219,638.142209,638.142219,63814221.900201,9,-1.000000,""
180_updated,w0,python3action_chameleon_2000_neowise,0.997085,1,2000.000000,1,COMPLETED_SUCCESSFULLY,621.317654,24.200002,645.517656,620.320569,644.520571,26.633079,0,-1.000000,""
180,w0,python3action_chameleon_2000,0.000000,1,-1.000000,1,COMPLETED_SUCCESSFULLY,645.517671,0.000010,645.517681,645.517671,645.517681,64551768.146779,0,-1.000000,""
172_updated,w0,python3action_modeltraining_reviews50mb_neowise,0.997085,1,2000.000000,1,COMPLETED_SUCCESSFULLY,626.621823,22.799998,649.421821,625.624738,648.424736,28.439684,1,-1.000000,""
172,w0,python3action_modeltraining_reviews50mb,0.000000,1,-1.000000,1,COMPLETED_SUCCESSFULLY,649.421836,0.000010,649.421846,649.421836,649.421846,64942184.606225,1,-1.000000,""
90_updated,w0,python3action_floatoperation_200000000_nova,0.997085,1,2000.000000,1,COMPLETED_SUCCESSFULLY,515.342169,135.399990,650.742159,514.345084,649.745074,4.798708,8,-1.000000,""
90,w0,python3action_floatoperation_200000000,0.000000,1,-1.000000,1,COMPLETED_SUCCESSFULLY,650.742174,0.000010,650.742184,650.742174,650.742184,65074218.425112,8,-1.000000,""
python3action_facedetection_job102_8,w0,python3action_facedetection_reduced_0.91,0.997085,1,2000.000000,1,COMPLETED_SUCCESSFULLY,650.742204,0.000000,650.742204,649.745119,649.745119,13291205836498.201172,8,-1.000000,""
64_updated,w0,python3action_floatoperation_200000000_nova,0.997085,1,2000.000000,1,COMPLETED_SUCCESSFULLY,527.742053,135.399990,663.142044,526.744968,662.144959,4.890288,6,-1.000000,""
64,w0,python3action_floatoperation_200000000,0.000000,1,-1.000000,1,COMPLETED_SUCCESSFULLY,663.142059,0.000010,663.142069,663.142059,663.142069,66314206.900201,6,-1.000000,""
183_updated,w0,python3action_modeltraining_reviews50mb_neowise,0.997085,1,2000.000000,1,COMPLETED_SUCCESSFULLY,645.517701,22.799998,668.317699,644.520616,667.320614,29.268451,0,-1.000000,""
183,w0,python3action_modeltraining_reviews50mb,0.000000,1,-1.000000,1,COMPLETED_SUCCESSFULLY,668.317714,0.000010,668.317724,668.317714,668.317724,66831772.424996,0,-1.000000,""
182_updated,w0,python3action_modeltraining_reviews50mb_neowise,0.997085,1,2000.000000,1,COMPLETED_SUCCESSFULLY,649.421866,22.799998,672.221864,648.424781,671.224779,29.439686,1,-1.000000,""
182,w0,python3action_modeltraining_reviews50mb,0.000000,1,-1.000000,1,COMPLETED_SUCCESSFULLY,672.221879,0.000010,672.221889,672.221879,672.221889,67222188.900201,1,-1.000000,""
83_updated,w0,python3action_linpack_6000_orion,0.997085,1,2000.000000,1,COMPLETED_SUCCESSFULLY,572.963439,106.000000,678.963439,571.966354,677.966354,6.395909,11,-1.000000,""
83,w0,python3action_linpack_6000,0.000000,1,-1.000000,1,COMPLETED_SUCCESSFULLY,678.963454,0.000010,678.963464,678.963454,678.963464,67896346.422556,11,-1.000000,""
74_updated,w0,python3action_videoprocessing_SampleVideo_50mb_taurus,0.997085,1,2000.000000,1,COMPLETED_SUCCESSFULLY,529.065008,154.250029,683.315037,528.067923,682.317952,4.423454,2,-1.000000,""
74,w0,python3action_videoprocessing_SampleVideo_50mb,0.000000,1,-1.000000,1,COMPLETED_SUCCESSFULLY,683.315052,0.000010,683.315062,683.315052,683.315062,68331506.200201,2,-1.000000,""
86_updated,w0,python3action_pyaes_3000_troll,0.997085,1,2000.000000,1,COMPLETED_SUCCESSFULLY,627.870410,57.166677,685.037087,626.873325,684.040002,11.965712,4,-1.000000,""
86,w0,python3action_pyaes_3000,0.000000,1,-1.000000,1,COMPLETED_SUCCESSFULLY,685.037102,0.000010,685.037112,685.037102,685.037112,68503711.200201,4,-1.000000,""
66_updated,w0,python3action_facedetection_SampleVideo_30mb_nova,0.997085,1,2000.000000,1,COMPLETED_SUCCESSFULLY,527.742113,160.399990,688.142104,526.745028,687.145019,4.283947,7,-1.000000,""
66,w0,python3action_facedetection_SampleVideo_30mb,0.000000,1,-1.000000,1,COMPLETED_SUCCESSFULLY,688.142119,0.000010,688.142129,688.142119,688.142129,68814212.900201,7,-1.000000,""
193_updated,w0,python3action_modeltraining_reviews50mb_neowise,0.997085,1,2000.000000,1,COMPLETED_SUCCESSFULLY,672.221909,22.799998,695.021907,671.224824,694.024822,30.439688,1,-1.000000,""
193,w0,python3action_modeltraining_reviews50mb,0.000000,1,-1.000000,1,COMPLETED_SUCCESSFULLY,695.021922,0.000010,695.021932,695.021922,695.021932,69502193.200201,1,-1.000000,""
79_updated,w0,python3action_facedetection_SampleVideo_50mb_taurus,0.997085,1,2000.000000,1,COMPLETED_SUCCESSFULLY,561.665264,134.600046,696.265310,560.668179,695.268225,5.165438,13,-1.000000,""
79,w0,python3action_facedetection_SampleVideo_50mb,0.000000,1,-1.000000,1,COMPLETED_SUCCESSFULLY,696.265325,0.000010,696.265335,696.265325,696.265335,69626533.527562,13,-1.000000,""
96_updated,w0,python3action_floatoperation_200000000_nova,0.997085,1,2000.000000,1,COMPLETED_SUCCESSFULLY,568.942208,135.399990,704.342198,567.945123,703.345113,5.194573,10,-1.000000,""
96,w0,python3action_floatoperation_200000000,0.000000,1,-1.000000,1,COMPLETED_SUCCESSFULLY,704.342213,0.000010,704.342223,704.342213,704.342223,70434222.326718,10,-1.000000,""
123_updated,w0,python3action_floatoperation_200000000_yeti,0.997085,1,2000.000000,1,COMPLETED_SUCCESSFULLY,599.915374,106.000000,705.915374,598.918289,704.918289,6.650173,5,-1.000000,""
123,w0,python3action_floatoperation_200000000,0.000000,1,-1.000000,1,COMPLETED_SUCCESSFULLY,705.915389,0.000010,705.915399,705.915389,705.915399,70591539.903414,5,-1.000000,""
197_updated,w0,python3action_modeltraining_reviews100mb_neowise,0.997085,1,2000.000000,1,COMPLETED_SUCCESSFULLY,668.317744,43.399999,711.717743,667.320659,710.720658,16.376052,0,-1.000000,""
197,w0,python3action_modeltraining_reviews100mb,0.000000,1,-1.000000,1,COMPLETED_SUCCESSFULLY,711.717758,0.000010,711.717768,711.717758,711.717768,71171776.814405,0,-1.000000,""
87_updated,w0,python3action_floatoperation_100000000_nova,0.997085,1,2000.000000,1,COMPLETED_SUCCESSFULLY,663.142089,66.200020,729.342109,662.145004,728.345024,11.002187,6,-1.000000,""
87,w0,python3action_floatoperation_100000000,0.000000,1,-1.000000,1,COMPLETED_SUCCESSFULLY,729.342124,0.000010,729.342134,729.342124,729.342134,72934213.400201,6,-1.000000,""
92_updated,w0,python3action_facedetection_SampleVideo_50mb_taurus,0.997085,1,2000.000000,1,COMPLETED_SUCCESSFULLY,605.926279,134.600046,740.526325,604.929194,739.529240,5.494272,12,-1.000000,""
92,w0,python3action_facedetection_SampleVideo_50mb,0.000000,1,-1.000000,1,COMPLETED_SUCCESSFULLY,740.526340,0.000010,740.526350,740.526340,740.526350,74052635.039503,12,-1.000000,""
111_updated,w0,python3action_imageprocessing_SampleImage_40mb_taurus,0.997085,1,2000.000000,1,COMPLETED_SUCCESSFULLY,740.526370,32.600046,773.126417,739.529285,772.129332,23.684915,12,-1.000000,""
111,w0,python3action_imageprocessing_SampleImage_40mb,0.000000,1,-1.000000,1,COMPLETED_SUCCESSFULLY,773.126432,0.000010,773.126442,773.126432,773.126442,77312644.200201,12,-1.000000,""
100_updated,w0,python3action_linpack_6000_orion,0.997085,1,2000.000000,1,COMPLETED_SUCCESSFULLY,678.963484,106.000000,784.963484,677.966399,783.966399,7.395909,11,-1.000000,""
100,w0,python3action_linpack_6000,0.000000,1,-1.000000,1,COMPLETED_SUCCESSFULLY,784.963499,0.000010,784.963509,784.963499,784.963509,78496350.923158,11,-1.000000,""
112_updated,w0,python3action_pyaes_4000_troll,0.997085,1,2000.000000,1,COMPLETED_SUCCESSFULLY,685.037132,102.333333,787.370465,684.040047,786.373380,7.684430,4,-1.000000,""
112,w0,python3action_pyaes_4000,0.000000,1,-1.000000,1,COMPLETED_SUCCESSFULLY,787.370480,0.000010,787.370490,787.370480,787.370490,78737049.034136,4,-1.000000,""
91_updated,w0,python3action_facedetection_SampleVideo_30mb_nova,0.997085,1,2000.000000,1,COMPLETED_SUCCESSFULLY,638.142239,160.399990,798.542229,637.145154,797.545144,4.972227,9,-1.000000,""
91,w0,python3action_facedetection_SampleVideo_30mb,0.000000,1,-1.000000,1,COMPLETED_SUCCESSFULLY,798.542244,0.000010,798.542254,798.542244,798.542254,79854225.423907,9,-1.000000,""
128_updated,w0,python3action_chameleon_3000_yeti,0.997085,1,2000.000000,1,COMPLETED_SUCCESSFULLY,705.915419,93.000000,798.915419,704.918334,797.918334,8.579767,5,-1.000000,""
128,w0,python3action_chameleon_3000,0.000000,1,-1.000000,1,COMPLETED_SUCCESSFULLY,798.915434,0.000010,798.915444,798.915434,798.915444,79891544.404016,5,-1.000000,""
102_updated,w0,python3action_facedetection_SampleVideo_30mb_nova,0.997085,1,2000.000000,1,COMPLETED_SUCCESSFULLY,650.742234,160.399990,811.142224,649.745149,810.145139,5.050780,8,-1.000000,""
102,w0,python3action_facedetection_SampleVideo_30mb,0.000000,1,-1.000000,1,COMPLETED_SUCCESSFULLY,811.142239,0.000010,811.142249,811.142239,811.142249,81114224.949219,8,-1.000000,""
94_updated,w0,python3action_facedetection_SampleVideo_50mb_taurus,0.997085,1,2000.000000,1,COMPLETED_SUCCESSFULLY,696.265355,134.600046,830.865401,695.268270,829.868316,6.165439,13,-1.000000,""
94,w0,python3action_facedetection_SampleVideo_50mb,0.000000,1,-1.000000,1,COMPLETED_SUCCESSFULLY,830.865416,0.000010,830.865426,830.865416,830.865426,83086542.641242,13,-1.000000,""
77_updated,w0,python3action_videoprocessing_SampleVideo_50mb_taurus,0.997085,1,2000.000000,1,COMPLETED_SUCCESSFULLY,683.315082,154.250029,837.565111,682.317997,836.568026,5.423455,2,-1.000000,""
77,w0,python3action_videoprocessing_SampleVideo_50mb,0.000000,1,-1.000000,1,COMPLETED_SUCCESSFULLY,837.565126,0.000010,837.565136,837.565126,837.565136,83756513.600201,2,-1.000000,""
88_updated,w0,python3action_facedetection_SampleVideo_30mb_nova,0.997085,1,2000.000000,1,COMPLETED_SUCCESSFULLY,688.142149,160.399990,848.542139,687.145064,847.545054,5.283947,7,-1.000000,""
88,w0,python3action_facedetection_SampleVideo_30mb,0.000000,1,-1.000000,1,COMPLETED_SUCCESSFULLY,848.542154,0.000010,848.542164,848.542154,848.542164,84854216.423907,7,-1.000000,""
98_updated,w0,python3action_floatoperation_200000000_nova,0.997085,1,2000.000000,1,COMPLETED_SUCCESSFULLY,729.342154,135.399990,864.742144,728.345069,863.745059,6.379211,6,-1.000000,""
98,w0,python3action_floatoperation_200000000,0.000000,1,-1.000000,1,COMPLETED_SUCCESSFULLY,864.742159,0.000010,864.742169,864.742159,864.742169,86474216.923907,6,-1.000000,""
108_updated,w0,python3action_facedetection_SampleVideo_30mb_nova,0.997085,1,2000.000000,1,COMPLETED_SUCCESSFULLY,704.342243,160.399990,864.742234,703.345158,863.745149,5.384945,10,-1.000000,""
108,w0,python3action_facedetection_SampleVideo_30mb,0.000000,1,-1.000000,1,COMPLETED_SUCCESSFULLY,864.742249,0.000010,864.742259,864.742249,864.742259,86474225.900201,10,-1.000000,""
116_updated,w0,python3action_floatoperation_100000000_nova,0.997085,1,2000.000000,1,COMPLETED_SUCCESSFULLY,811.142269,66.200020,877.342289,810.145184,876.345204,13.237839,8,-1.000000,""
116,w0,python3action_floatoperation_100000000,0.000000,1,-1.000000,1,COMPLETED_SUCCESSFULLY,877.342304,0.000010,877.342314,877.342304,877.342314,87734231.403614,8,-1.000000,""
125_updated,w0,python3action_pyaes_4000_troll,0.997085,1,2000.000000,1,COMPLETED_SUCCESSFULLY,787.370510,102.333333,889.703844,786.373425,888.706759,8.684431,4,-1.000000,""
125,w0,python3action_pyaes_4000,0.000000,1,-1.000000,1,COMPLETED_SUCCESSFULLY,889.703859,0.000010,889.703869,889.703859,889.703869,88970386.900201,4,-1.000000,""
121_updated,w0,python3action_linpack_6000_orion,0.997085,1,2000.000000,1,COMPLETED_SUCCESSFULLY,784.963529,106.000000,890.963529,783.966444,889.966444,8.395910,11,-1.000000,""
121,w0,python3action_linpack_6000,0.000000,1,-1.000000,1,COMPLETED_SUCCESSFULLY,890.963544,0.000010,890.963554,890.963544,890.963554,89096355.423760,11,-1.000000,""
141_updated,w0,python3action_chameleon_3000_yeti,0.997085,1,2000.000000,1,COMPLETED_SUCCESSFULLY,798.915464,93.000000,891.915464,797.918379,890.918379,9.579768,5,-1.000000,""
141,w0,python3action_chameleon_3000,0.000000,1,-1.000000,1,COMPLETED_SUCCESSFULLY,891.915479,0.000010,891.915489,891.915479,891.915489,89191548.904619,5,-1.000000,""
143_updated,w0,python3action_linpack_5000_orion,0.997085,1,2000.000000,1,COMPLETED_SUCCESSFULLY,890.963574,36.199977,927.163551,889.966489,926.166466,25.584725,11,-1.000000,""
143,w0,python3action_linpack_5000,0.000000,1,-1.000000,1,COMPLETED_SUCCESSFULLY,927.163566,0.000010,927.163576,927.163566,927.163576,92716357.617823,11,-1.000000,""
134_updated,w0,python3action_videoprocessing_SampleVideo_50mb_taurus,0.997085,1,2000.000000,1,COMPLETED_SUCCESSFULLY,773.126462,154.250029,927.376491,772.129377,926.379406,6.005700,12,-1.000000,""
134,w0,python3action_videoprocessing_SampleVideo_50mb,0.000000,1,-1.000000,1,COMPLETED_SUCCESSFULLY,927.376506,0.000010,927.376516,927.376506,927.376516,92737651.600201,12,-1.000000,""
109_updated,w0,python3action_floatoperation_100000000_nova,0.997085,1,2000.000000,1,COMPLETED_SUCCESSFULLY,864.742189,66.200020,930.942209,863.745104,929.945124,14.047505,6,-1.000000,""
109,w0,python3action_floatoperation_100000000,0.000000,1,-1.000000,1,COMPLETED_SUCCESSFULLY,930.942224,0.000010,930.942234,930.942224,930.942234,93094223.400201,6,-1.000000,""
129_updated,w0,python3action_pyaes_3000_troll,0.997085,1,2000.000000,1,COMPLETED_SUCCESSFULLY,889.703889,57.166677,946.870566,888.706804,945.873481,16.545889,4,-1.000000,""
129,w0,python3action_pyaes_3000,0.000000,1,-1.000000,1,COMPLETED_SUCCESSFULLY,946.870581,0.000010,946.870591,946.870581,946.870591,94687059.100201,4,-1.000000,""
107_updated,w0,python3action_facedetection_SampleVideo_30mb_nova,0.997085,1,2000.000000,1,COMPLETED_SUCCESSFULLY,798.542274,160.399990,958.942264,797.545189,957.945179,5.972227,9,-1.000000,""
107,w0,python3action_facedetection_SampleVideo_30mb,0.000000,1,-1.000000,1,COMPLETED_SUCCESSFULLY,958.942279,0.000010,958.942289,958.942279,958.942289,95894228.947613,9,-1.000000,""
113_updated,w0,python3action_facedetection_SampleVideo_50mb_taurus,0.997085,1,2000.000000,1,COMPLETED_SUCCESSFULLY,830.865446,134.600046,965.465493,829.868361,964.468408,7.165439,13,-1.000000,""
113,w0,python3action_facedetection_SampleVideo_50mb,0.000000,1,-1.000000,1,COMPLETED_SUCCESSFULLY,965.465508,0.000010,965.465518,965.465508,965.465518,96546551.800201,13,-1.000000,""
160_updated,w0,python3action_chameleon_3000_yeti,0.997085,1,2000.000000,1,COMPLETED_SUCCESSFULLY,891.915509,93.000000,984.915509,890.918424,983.918424,10.579768,5,-1.000000,""
160,w0,python3action_chameleon_3000,0.000000,1,-1.000000,1,COMPLETED_SUCCESSFULLY,984.915524,0.000010,984.915534,984.915524,984.915534,98491553.405221,5,-1.000000,""
81_updated,w0,python3action_videoprocessing_SampleVideo_50mb_taurus,0.997085,1,2000.000000,1,COMPLETED_SUCCESSFULLY,837.565156,154.250029,991.815185,836.568071,990.818100,6.423455,2,-1.000000,""
81,w0,python3action_videoprocessing_SampleVideo_50mb,0.000000,1,-1.000000,1,COMPLETED_SUCCESSFULLY,991.815200,0.000010,991.815210,991.815200,991.815210,99181521.000201,2,-1.000000,""
132_updated,w0,python3action_pyaes_3000_troll,0.997085,1,2000.000000,1,COMPLETED_SUCCESSFULLY,946.870611,57.166677,1004.037288,945.873526,1003.040203,17.545890,4,-1.000000,""
132,w0,python3action_pyaes_3000,0.000000,1,-1.000000,1,COMPLETED_SUCCESSFULLY,1004.037303,0.000010,1004.037313,1004.037303,1004.037313,100403731.300201,4,-1.000000,""
99_updated,w0,python3action_facedetection_SampleVideo_30mb_nova,0.997085,1,2000.000000,1,COMPLETED_SUCCESSFULLY,848.542184,160.399990,1008.942174,847.545099,1007.945089,6.283947,7,-1.000000,""
99,w0,python3action_facedetection_SampleVideo_30mb,0.000000,1,-1.000000,1,COMPLETED_SUCCESSFULLY,1008.942189,0.000010,1008.942199,1008.942189,1008.942199,100894219.947613,7,-1.000000,""
122_updated,w0,python3action_facedetection_SampleVideo_30mb_nova,0.997085,1,2000.000000,1,COMPLETED_SUCCESSFULLY,864.742279,160.399990,1025.142269,863.745194,1024.145184,6.384945,10,-1.000000,""
122,w0,python3action_facedetection_SampleVideo_30mb,0.000000,1,-1.000000,1,COMPLETED_SUCCESSFULLY,1025.142284,0.000010,1025.142294,1025.142284,1025.142294,102514229.423907,10,-1.000000,""
156_updated,w0,python3action_linpack_6000_orion,0.997085,1,2000.000000,1,COMPLETED_SUCCESSFULLY,927.163596,106.000000,1033.163596,926.166511,1032.166511,9.737420,11,-1.000000,""
156,w0,python3action_linpack_6000,0.000000,1,-1.000000,1,COMPLETED_SUCCESSFULLY,1033.163611,0.000010,1033.163621,1033.163611,1033.163621,103316362.118426,11,-1.000000,""
131_updated,w0,python3action_facedetection_SampleVideo_30mb_nova,0.997085,1,2000.000000,1,COMPLETED_SUCCESSFULLY,877.342334,160.399990,1037.742324,876.345249,1036.745239,6.463499,8,-1.000000,""
131,w0,python3action_facedetection_SampleVideo_30mb,0.000000,1,-1.000000,1,COMPLETED_SUCCESSFULLY,1037.742339,0.000010,1037.742349,1037.742339,1037.742349,103774234.927320,8,-1.000000,""
151_updated,w0,python3action_pyaes_3000_troll,0.997085,1,2000.000000,1,COMPLETED_SUCCESSFULLY,1004.037333,57.166677,1061.204010,1003.040248,1060.206925,18.545891,4,-1.000000,""
151,w0,python3action_pyaes_3000,0.000000,1,-1.000000,1,COMPLETED_SUCCESSFULLY,1061.204025,0.000010,1061.204035,1061.204025,1061.204035,106120403.500201,4,-1.000000,""
145_updated,w0,python3action_videoprocessing_SampleVideo_50mb_taurus,0.997085,1,2000.000000,1,COMPLETED_SUCCESSFULLY,927.376536,154.250029,1081.626565,926.379451,1080.629480,7.005700,12,-1.000000,""
145,w0,python3action_videoprocessing_SampleVideo_50mb,0.000000,1,-1.000000,1,COMPLETED_SUCCESSFULLY,1081.626580,0.000010,1081.626590,1081.626580,1081.626590,108162659.000201,12,-1.000000,""
174_updated,w0,python3action_floatoperation_200000000_yeti,0.997085,1,2000.000000,1,COMPLETED_SUCCESSFULLY,984.915554,106.000000,1090.915554,983.918469,1089.918469,10.282250,5,-1.000000,""
174,w0,python3action_floatoperation_200000000,0.000000,1,-1.000000,1,COMPLETED_SUCCESSFULLY,1090.915569,0.000010,1090.915579,1090.915569,1090.915579,109091557.905823,5,-1.000000,""
126_updated,w0,python3action_facedetection_SampleVideo_30mb_nova,0.997085,1,2000.000000,1,COMPLETED_SUCCESSFULLY,930.942254,160.399990,1091.342244,929.945169,1090.345159,6.797664,6,-1.000000,""
126,w0,python3action_facedetection_SampleVideo_30mb,0.000000,1,-1.000000,1,COMPLETED_SUCCESSFULLY,1091.342259,0.000010,1091.342269,1091.342259,1091.342269,109134226.923907,6,-1.000000,""
135_updated,w0,python3action_floatoperation_100000000_nova,0.997085,1,2000.000000,1,COMPLETED_SUCCESSFULLY,1025.142314,66.200020,1091.342334,1024.145229,1090.345249,16.470467,10,-1.000000,""
135,w0,python3action_floatoperation_100000000,0.000000,1,-1.000000,1,COMPLETED_SUCCESSFULLY,1091.342349,0.000010,1091.342359,1091.342349,1091.342359,109134235.900201,10,-1.000000,""
159_updated,w0,python3action_pyaes_3000_troll,0.997085,1,2000.000000,1,COMPLETED_SUCCESSFULLY,1061.204055,57.166677,1118.370732,1060.206970,1117.373647,19.545891,4,-1.000000,""
159,w0,python3action_pyaes_3000,0.000000,1,-1.000000,1,COMPLETED_SUCCESSFULLY,1118.370747,0.000010,1118.370757,1118.370747,1118.370757,111837075.700201,4,-1.000000,""
120_updated,w0,python3action_facedetection_SampleVideo_30mb_nova,0.997085,1,2000.000000,1,COMPLETED_SUCCESSFULLY,958.942309,160.399990,1119.342300,957.945224,1118.345215,6.972227,9,-1.000000,""
120,w0,python3action_facedetection_SampleVideo_30mb,0.000000,1,-1.000000,1,COMPLETED_SUCCESSFULLY,1119.342315,0.000010,1119.342325,1119.342315,1119.342325,111934232.500201,9,-1.000000,""
137_updated,w0,python3action_videoprocessing_SampleVideo_50mb_taurus,0.997085,1,2000.000000,1,COMPLETED_SUCCESSFULLY,965.465538,154.250029,1119.715567,964.468453,1118.718482,7.252631,13,-1.000000,""
137,w0,python3action_videoprocessing_SampleVideo_50mb,0.000000,1,-1.000000,1,COMPLETED_SUCCESSFULLY,1119.715582,0.000010,1119.715592,1119.715582,1119.715592,111971559.200201,13,-1.000000,""
157_updated,w0,python3action_linpack_6000_orion,0.997085,1,2000.000000,1,COMPLETED_SUCCESSFULLY,1033.163641,106.000000,1139.163641,1032.166556,1138.166556,10.737420,11,-1.000000,""
157,w0,python3action_linpack_6000,0.000000,1,-1.000000,1,COMPLETED_SUCCESSFULLY,1139.163656,0.000010,1139.163666,1139.163656,1139.163666,113916366.619028,11,-1.000000,""
101_updated,w0,python3action_videoprocessing_SampleVideo_50mb_taurus,0.997085,1,2000.000000,1,COMPLETED_SUCCESSFULLY,991.815230,154.250029,1146.065259,990.818145,1145.068174,7.423455,2,-1.000000,""
101,w0,python3action_videoprocessing_SampleVideo_50mb,0.000000,1,-1.000000,1,COMPLETED_SUCCESSFULLY,1146.065274,0.000010,1146.065284,1146.065274,1146.065284,114606528.400201,2,-1.000000,""
python3action_linpack_job119_3,w0,python3action_linpack,0.997085,1,2000.000000,1,COMPLETED_SUCCESSFULLY,1146.065304,5.760927,1151.826231,1145.068219,1150.829146,199.764569,2,-1.000000,""
150_updated,w0,python3action_floatoperation_100000000_nova,0.997085,1,2000.000000,1,COMPLETED_SUCCESSFULLY,1091.342379,66.200020,1157.542399,1090.345294,1156.545314,17.470468,10,-1.000000,""
150,w0,python3action_floatoperation_100000000,0.000000,1,-1.000000,1,COMPLETED_SUCCESSFULLY,1157.542414,0.000010,1157.542424,1157.542414,1157.542424,115754242.400201,10,-1.000000,""
115_updated,w0,python3action_facedetection_SampleVideo_30mb_nova,0.997085,1,2000.000000,1,COMPLETED_SUCCESSFULLY,1008.942219,160.399990,1169.342210,1007.945134,1168.345125,7.283948,7,-1.000000,""
115,w0,python3action_facedetection_SampleVideo_30mb,0.000000,1,-1.000000,1,COMPLETED_SUCCESSFULLY,1169.342225,0.000010,1169.342235,1169.342225,1169.342235,116934223.500201,7,-1.000000,""
144_updated,w0,python3action_floatoperation_200000000_nova,0.997085,1,2000.000000,1,COMPLETED_SUCCESSFULLY,1037.742369,135.399990,1173.142360,1036.745284,1172.145275,8.656908,8,-1.000000,""
144,w0,python3action_floatoperation_200000000,0.000000,1,-1.000000,1,COMPLETED_SUCCESSFULLY,1173.142375,0.000010,1173.142385,1173.142375,1173.142385,117314238.500201,8,-1.000000,""
158_updated,w0,python3action_linpack_5000_orion,0.997085,1,2000.000000,1,COMPLETED_SUCCESSFULLY,1139.163686,36.199977,1175.363663,1138.166601,1174.366578,32.441086,11,-1.000000,""
158,w0,python3action_linpack_5000,0.000000,1,-1.000000,1,COMPLETED_SUCCESSFULLY,1175.363678,0.000010,1175.363688,1175.363678,1175.363688,117536368.813091,11,-1.000000,""
163_updated,w0,python3action_pyaes_3000_troll,0.997085,1,2000.000000,1,COMPLETED_SUCCESSFULLY,1118.370777,57.166677,1175.537454,1117.373692,1174.540369,20.545892,4,-1.000000,""
163,w0,python3action_pyaes_3000,0.000000,1,-1.000000,1,COMPLETED_SUCCESSFULLY,1175.537469,0.000010,1175.537479,1175.537469,1175.537479,117553747.900201,4,-1.000000,""
133_updated,w0,python3action_floatoperation_100000000_nova,0.997085,1,2000.000000,1,COMPLETED_SUCCESSFULLY,1119.342345,66.200020,1185.542365,1118.345260,1184.545280,17.893428,9,-1.000000,""
133,w0,python3action_floatoperation_100000000,0.000000,1,-1.000000,1,COMPLETED_SUCCESSFULLY,1185.542380,0.000010,1185.542390,1185.542380,1185.542390,118554239.000201,9,-1.000000,""
119_updated,w0,python3action_linpack_5000_taurus,0.997085,1,2000.000000,1,COMPLETED_SUCCESSFULLY,1151.826246,38.500058,1190.326304,1150.829161,1189.329219,30.891622,2,-1.000000,""
119,w0,python3action_linpack_5000,0.000000,1,-1.000000,1,COMPLETED_SUCCESSFULLY,1190.326319,0.000010,1190.326329,1190.326319,1190.326329,119032632.900201,2,-1.000000,""
176_updated,w0,python3action_floatoperation_200000000_yeti,0.997085,1,2000.000000,1,COMPLETED_SUCCESSFULLY,1090.915599,106.000000,1196.915599,1089.918514,1195.918514,11.282250,5,-1.000000,""
176,w0,python3action_floatoperation_200000000,0.000000,1,-1.000000,1,COMPLETED_SUCCESSFULLY,1196.915614,0.000010,1196.915624,1196.915614,1196.915624,119691562.406426,5,-1.000000,""
162_updated,w0,python3action_facedetection_SampleVideo_50mb_taurus,0.997085,1,2000.000000,1,COMPLETED_SUCCESSFULLY,1081.626610,134.600046,1216.226656,1080.629525,1215.229571,9.028448,12,-1.000000,""
162,w0,python3action_facedetection_SampleVideo_50mb,0.000000,1,-1.000000,1,COMPLETED_SUCCESSFULLY,1216.226671,0.000010,1216.226681,1216.226671,1216.226681,121622668.113881,12,-1.000000,""
167_updated,w0,python3action_floatoperation_100000000_nova,0.997085,1,2000.000000,1,COMPLETED_SUCCESSFULLY,1157.542444,66.200020,1223.742464,1156.545359,1222.745379,18.470469,10,-1.000000,""
167,w0,python3action_floatoperation_100000000,0.000000,1,-1.000000,1,COMPLETED_SUCCESSFULLY,1223.742479,0.000010,1223.742489,1223.742479,1223.742489,122374248.900201,10,-1.000000,""
166_updated,w0,python3action_pyaes_3000_troll,0.997085,1,2000.000000,1,COMPLETED_SUCCESSFULLY,1175.537499,57.166677,1232.704176,1174.540414,1231.707091,21.545893,4,-1.000000,""
166,w0,python3action_pyaes_3000,0.000000,1,-1.000000,1,COMPLETED_SUCCESSFULLY,1232.704191,0.000010,1232.704201,1232.704191,1232.704201,123270420.100201,4,-1.000000,""
140_updated,w0,python3action_facedetection_SampleVideo_30mb_nova,0.997085,1,2000.000000,1,COMPLETED_SUCCESSFULLY,1091.342289,160.399990,1251.742279,1090.345204,1250.745194,7.797664,6,-1.000000,""
140,w0,python3action_facedetection_SampleVideo_30mb,0.000000,1,-1.000000,1,COMPLETED_SUCCESSFULLY,1251.742294,0.000010,1251.742304,1251.742294,1251.742304,125174230.447613,6,-1.000000,""
148_updated,w0,python3action_videoprocessing_SampleVideo_50mb_taurus,0.997085,1,2000.000000,1,COMPLETED_SUCCESSFULLY,1119.715612,154.250029,1273.965641,1118.718527,1272.968556,8.252631,13,-1.000000,""
148,w0,python3action_videoprocessing_SampleVideo_50mb,0.000000,1,-1.000000,1,COMPLETED_SUCCESSFULLY,1273.965656,0.000010,1273.965666,1273.965656,1273.965666,127396566.600201,13,-1.000000,""
165_updated,w0,python3action_linpack_6000_orion,0.997085,1,2000.000000,1,COMPLETED_SUCCESSFULLY,1175.363708,106.000000,1281.363708,1174.366623,1280.366623,12.078930,11,-1.000000,""
165,w0,python3action_linpack_6000,0.000000,1,-1.000000,1,COMPLETED_SUCCESSFULLY,1281.363723,0.000010,1281.363733,1281.363723,1281.363733,128136373.313694,11,-1.000000,""
168_updated,w0,python3action_pyaes_3000_troll,0.997085,1,2000.000000,1,COMPLETED_SUCCESSFULLY,1232.704221,57.166677,1289.870898,1231.707136,1288.873813,22.545894,4,-1.000000,""
168,w0,python3action_pyaes_3000,0.000000,1,-1.000000,1,COMPLETED_SUCCESSFULLY,1289.870913,0.000010,1289.870923,1289.870913,1289.870923,128987092.300201,4,-1.000000,""
178_updated,w0,python3action_chameleon_3000_yeti,0.997085,1,2000.000000,1,COMPLETED_SUCCESSFULLY,1196.915644,93.000000,1289.915644,1195.918559,1288.918559,13.859339,5,-1.000000,""
178,w0,python3action_chameleon_3000,0.000000,1,-1.000000,1,COMPLETED_SUCCESSFULLY,1289.915659,0.000010,1289.915669,1289.915659,1289.915669,128991566.907028,5,-1.000000,""
python3action_pyaes_job195_5,w0,python3action_pyaes_reduced_0.85,0.997085,1,2000.000000,1,COMPLETED_SUCCESSFULLY,1289.915689,0.133904,1290.049593,1288.918604,1289.052508,9626.679168,5,-1.000000,""
171_updated,w0,python3action_imageprocessing_SampleImage_40mb_taurus,0.997085,1,2000.000000,1,COMPLETED_SUCCESSFULLY,1273.965686,32.600046,1306.565732,1272.968601,1305.568647,40.048061,13,-1.000000,""
171,w0,python3action_imageprocessing_SampleImage_40mb,0.000000,1,-1.000000,1,COMPLETED_SUCCESSFULLY,1306.565747,0.000010,1306.565757,1306.565747,1306.565757,130656575.713881,13,-1.000000,""
147_updated,w0,python3action_floatoperation_200000000_nova,0.997085,1,2000.000000,1,COMPLETED_SUCCESSFULLY,1185.542410,135.399990,1320.942400,1184.545325,1319.945315,9.748489,9,-1.000000,""
147,w0,python3action_floatoperation_200000000,0.000000,1,-1.000000,1,COMPLETED_SUCCESSFULLY,1320.942415,0.000010,1320.942425,1320.942415,1320.942425,132094242.523907,9,-1.000000,""
130_updated,w0,python3action_facedetection_SampleVideo_30mb_nova,0.997085,1,2000.000000,1,COMPLETED_SUCCESSFULLY,1169.342255,160.399990,1329.742245,1168.345170,1328.745160,8.283948,7,-1.000000,""
130,w0,python3action_facedetection_SampleVideo_30mb,0.000000,1,-1.000000,1,COMPLETED_SUCCESSFULLY,1329.742260,0.000010,1329.742270,1329.742260,1329.742270,132974227.023907,7,-1.000000,""
161_updated,w0,python3action_facedetection_SampleVideo_30mb_nova,0.997085,1,2000.000000,1,COMPLETED_SUCCESSFULLY,1173.142405,160.399990,1333.542395,1172.145320,1332.545310,8.307640,8,-1.000000,""
161,w0,python3action_facedetection_SampleVideo_30mb,0.000000,1,-1.000000,1,COMPLETED_SUCCESSFULLY,1333.542410,0.000010,1333.542420,1333.542410,1333.542420,133354242.023907,8,-1.000000,""
139_updated,w0,python3action_videoprocessing_SampleVideo_50mb_taurus,0.997085,1,2000.000000,1,COMPLETED_SUCCESSFULLY,1190.326349,154.250029,1344.576378,1189.329264,1343.579293,8.710399,2,-1.000000,""
139,w0,python3action_videoprocessing_SampleVideo_50mb,0.000000,1,-1.000000,1,COMPLETED_SUCCESSFULLY,1344.576393,0.000010,1344.576403,1344.576393,1344.576403,134457640.300201,2,-1.000000,""
169_updated,w0,python3action_pyaes_3000_troll,0.997085,1,2000.000000,1,COMPLETED_SUCCESSFULLY,1289.870943,57.166677,1347.037620,1288.873858,1346.040535,23.545894,4,-1.000000,""
169,w0,python3action_pyaes_3000,0.000000,1,-1.000000,1,COMPLETED_SUCCESSFULLY,1347.037635,0.000010,1347.037645,1347.037635,1347.037645,134703764.500201,4,-1.000000,""
184_updated,w0,python3action_videoprocessing_SampleVideo_50mb_taurus,0.997085,1,2000.000000,1,COMPLETED_SUCCESSFULLY,1216.226701,154.250029,1370.476730,1215.229616,1369.479645,8.878310,12,-1.000000,""
184,w0,python3action_videoprocessing_SampleVideo_50mb,0.000000,1,-1.000000,1,COMPLETED_SUCCESSFULLY,1370.476745,0.000010,1370.476755,1370.476745,1370.476755,137047675.500201,12,-1.000000,""
192_updated,w0,python3action_facedetection_SampleVideo_30mb_nova,0.997085,1,2000.000000,1,COMPLETED_SUCCESSFULLY,1223.742509,160.399990,1384.142499,1222.745424,1383.145414,8.623102,10,-1.000000,""
192,w0,python3action_facedetection_SampleVideo_30mb,0.000000,1,-1.000000,1,COMPLETED_SUCCESSFULLY,1384.142514,0.000010,1384.142524,1384.142514,1384.142524,138414252.423907,10,-1.000000,""
164_updated,w0,python3action_floatoperation_100000000_nova,0.997085,1,2000.000000,1,COMPLETED_SUCCESSFULLY,1320.942445,66.200020,1387.142465,1319.945360,1386.145380,20.938746,9,-1.000000,""
164,w0,python3action_floatoperation_100000000,0.000000,1,-1.000000,1,COMPLETED_SUCCESSFULLY,1387.142480,0.000010,1387.142490,1387.142480,1387.142490,138714249.000201,9,-1.000000,""
170_updated,w0,python3action_linpack_6000_orion,0.997085,1,2000.000000,1,COMPLETED_SUCCESSFULLY,1281.363753,106.000000,1387.363753,1280.366668,1386.366668,13.078931,11,-1.000000,""
170,w0,python3action_linpack_6000,0.000000,1,-1.000000,1,COMPLETED_SUCCESSFULLY,1387.363768,0.000010,1387.363778,1387.363768,1387.363778,138736377.814296,11,-1.000000,""
195_updated,w0,python3action_pyaes_4000_yeti,0.997085,1,2000.000000,1,COMPLETED_SUCCESSFULLY,1290.049608,105.500010,1395.549618,1289.052523,1394.552533,13.218506,5,-1.000000,""
195,w0,python3action_pyaes_4000,0.000000,1,-1.000000,1,COMPLETED_SUCCESSFULLY,1395.549633,0.000010,1395.549643,1395.549633,1395.549643,139554964.346264,5,-1.000000,""
152_updated,w0,python3action_facedetection_SampleVideo_30mb_nova,0.997085,1,2000.000000,1,COMPLETED_SUCCESSFULLY,1251.742324,160.399990,1412.142315,1250.745239,1411.145230,8.797664,6,-1.000000,""
152,w0,python3action_facedetection_SampleVideo_30mb,0.000000,1,-1.000000,1,COMPLETED_SUCCESSFULLY,1412.142330,0.000010,1412.142340,1412.142330,1412.142340,141214234.000201,6,-1.000000,""
181_updated,w0,python3action_linpack_5000_orion,0.997085,1,2000.000000,1,COMPLETED_SUCCESSFULLY,1387.363798,36.199977,1423.563775,1386.366713,1422.566690,39.297447,11,-1.000000,""
181,w0,python3action_linpack_5000,0.000000,1,-1.000000,1,COMPLETED_SUCCESSFULLY,1423.563790,0.000010,1423.563800,1423.563790,1423.563800,142356380.008359,11,-1.000000,""
194_updated,w0,python3action_facedetection_SampleVideo_50mb_taurus,0.997085,1,2000.000000,1,COMPLETED_SUCCESSFULLY,1306.565777,134.600046,1441.165823,1305.568692,1440.168738,10.699615,13,-1.000000,""
194,w0,python3action_facedetection_SampleVideo_50mb,0.000000,1,-1.000000,1,COMPLETED_SUCCESSFULLY,1441.165838,0.000010,1441.165848,1441.165838,1441.165848,144116584.827562,13,-1.000000,""
175_updated,w0,python3action_pyaes_4000_troll,0.997085,1,2000.000000,1,COMPLETED_SUCCESSFULLY,1347.037665,102.333333,1449.370998,1346.040580,1448.373913,14.153491,4,-1.000000,""
175,w0,python3action_pyaes_4000,0.000000,1,-1.000000,1,COMPLETED_SUCCESSFULLY,1449.371013,0.000010,1449.371023,1449.371013,1449.371023,144937102.334136,4,-1.000000,""
186_updated,w0,python3action_linpack_5000_orion,0.997085,1,2000.000000,1,COMPLETED_SUCCESSFULLY,1423.563820,36.199977,1459.763797,1422.566735,1458.766712,40.297449,11,-1.000000,""
186,w0,python3action_linpack_5000,0.000000,1,-1.000000,1,COMPLETED_SUCCESSFULLY,1459.763812,0.000010,1459.763822,1459.763812,1459.763822,145976382.202423,11,-1.000000,""
142_updated,w0,python3action_floatoperation_200000000_nova,0.997085,1,2000.000000,1,COMPLETED_SUCCESSFULLY,1329.742290,135.399990,1465.142280,1328.745205,1464.145195,10.813481,7,-1.000000,""
142,w0,python3action_floatoperation_200000000,0.000000,1,-1.000000,1,COMPLETED_SUCCESSFULLY,1465.142295,0.000010,1465.142305,1465.142295,1465.142305,146514230.547613,7,-1.000000,""
185_updated,w0,python3action_facedetection_SampleVideo_30mb_nova,0.997085,1,2000.000000,1,COMPLETED_SUCCESSFULLY,1333.542440,160.399990,1493.942430,1332.545355,1492.945345,9.307640,8,-1.000000,""
185,w0,python3action_facedetection_SampleVideo_30mb,0.000000,1,-1.000000,1,COMPLETED_SUCCESSFULLY,1493.942445,0.000010,1493.942455,1493.942445,1493.942455,149394245.547613,8,-1.000000,""
187_updated,w0,python3action_linpack_5000_orion,0.997085,1,2000.000000,1,COMPLETED_SUCCESSFULLY,1459.763842,36.199977,1495.963819,1458.766757,1494.966734,41.297450,11,-1.000000,""
187,w0,python3action_linpack_5000,0.000000,1,-1.000000,1,COMPLETED_SUCCESSFULLY,1495.963834,0.000010,1495.963844,1495.963834,1495.963844,149596384.400201,11,-1.000000,""
149_updated,w0,python3action_videoprocessing_SampleVideo_50mb_taurus,0.997085,1,2000.000000,1,COMPLETED_SUCCESSFULLY,1344.576423,154.250029,1498.826452,1343.579338,1497.829367,9.710399,2,-1.000000,""
149,w0,python3action_videoprocessing_SampleVideo_50mb,0.000000,1,-1.000000,1,COMPLETED_SUCCESSFULLY,1498.826467,0.000010,1498.826477,1498.826467,1498.826477,149882647.700201,2,-1.000000,""
198_updated,w0,python3action_facedetection_SampleVideo_50mb_taurus,0.997085,1,2000.000000,1,COMPLETED_SUCCESSFULLY,1370.476775,134.600046,1505.076821,1369.479690,1504.079736,11.174437,12,-1.000000,""
198,w0,python3action_facedetection_SampleVideo_50mb,0.000000,1,-1.000000,1,COMPLETED_SUCCESSFULLY,1505.076836,0.000010,1505.076846,1505.076836,1505.076846,150507684.613881,12,-1.000000,""
191_updated,w0,python3action_pyaes_3000_troll,0.997085,1,2000.000000,1,COMPLETED_SUCCESSFULLY,1449.371043,57.166677,1506.537720,1448.373958,1505.540635,26.335983,4,-1.000000,""
191,w0,python3action_pyaes_3000,0.000000,1,-1.000000,1,COMPLETED_SUCCESSFULLY,1506.537735,0.000010,1506.537745,1506.537735,1506.537745,150653774.500201,4,-1.000000,""
177_updated,w0,python3action_videoprocessing_SampleVideo_30mb_nova,0.997085,1,2000.000000,1,COMPLETED_SUCCESSFULLY,1412.142360,106.799980,1518.942340,1411.145275,1517.945255,14.212973,6,-1.000000,""
177,w0,python3action_videoprocessing_SampleVideo_30mb,0.000000,1,-1.000000,1,COMPLETED_SUCCESSFULLY,1518.942355,0.000010,1518.942365,1518.942355,1518.942365,151894236.547010,6,-1.000000,""
188_updated,w0,python3action_linpack_5000_orion,0.997085,1,2000.000000,1,COMPLETED_SUCCESSFULLY,1495.963864,36.199977,1532.163841,1494.966779,1531.166756,42.297451,11,-1.000000,""
188,w0,python3action_linpack_5000,0.000000,1,-1.000000,1,COMPLETED_SUCCESSFULLY,1532.163856,0.000010,1532.163866,1532.163856,1532.163866,153216386.600201,11,-1.000000,""
189_updated,w0,python3action_facedetection_SampleVideo_30mb_nova,0.997085,1,2000.000000,1,COMPLETED_SUCCESSFULLY,1387.142510,160.399990,1547.542500,1386.145425,1546.545415,9.641805,9,-1.000000,""
189,w0,python3action_facedetection_SampleVideo_30mb,0.000000,1,-1.000000,1,COMPLETED_SUCCESSFULLY,1547.542515,0.000010,1547.542525,1547.542515,1547.542525,154754252.523907,9,-1.000000,""
190_updated,w0,python3action_linpack_5000_orion,0.997085,1,2000.000000,1,COMPLETED_SUCCESSFULLY,1532.163886,36.199977,1568.363863,1531.166801,1567.366778,43.297452,11,-1.000000,""
190,w0,python3action_linpack_5000,0.000000,1,-1.000000,1,COMPLETED_SUCCESSFULLY,1568.363878,0.000010,1568.363888,1568.363878,1568.363888,156836388.800201,11,-1.000000,""
154_updated,w0,python3action_videoprocessing_SampleVideo_30mb_nova,0.997085,1,2000.000000,1,COMPLETED_SUCCESSFULLY,1465.142325,106.799980,1571.942306,1464.145240,1570.945221,14.709228,7,-1.000000,""
154,w0,python3action_videoprocessing_SampleVideo_30mb,0.000000,1,-1.000000,1,COMPLETED_SUCCESSFULLY,1571.942321,0.000010,1571.942331,1571.942321,1571.942331,157194233.100201,7,-1.000000,""
199_updated,w0,python3action_pyaes_4000_troll,0.997085,1,2000.000000,1,COMPLETED_SUCCESSFULLY,1506.537765,102.333333,1608.871098,1505.540680,1607.874013,15.712124,4,-1.000000,""
199,w0,python3action_pyaes_4000,0.000000,1,-1.000000,1,COMPLETED_SUCCESSFULLY,1608.871113,0.000010,1608.871123,1608.871113,1608.871123,160887112.334137,4,-1.000000,""
173_updated,w0,python3action_facedetection_SampleVideo_50mb_taurus,0.997085,1,2000.000000,1,COMPLETED_SUCCESSFULLY,1498.826497,134.600046,1633.426543,1497.829412,1632.429458,12.128001,2,-1.000000,""
173,w0,python3action_facedetection_SampleVideo_50mb,0.000000,1,-1.000000,1,COMPLETED_SUCCESSFULLY,1633.426558,0.000010,1633.426568,1633.426558,1633.426568,163342656.813881,2,-1.000000,""
179_updated,w0,python3action_floatoperation_100000000_nova,0.997085,1,2000.000000,1,COMPLETED_SUCCESSFULLY,1571.942351,66.200020,1638.142371,1570.945266,1637.145286,24.730284,7,-1.000000,""
179,w0,python3action_floatoperation_100000000,0.000000,1,-1.000000,1,COMPLETED_SUCCESSFULLY,1638.142386,0.000010,1638.142396,1638.142386,1638.142396,163814239.600201,7,-1.000000,""
196_updated,w0,python3action_facedetection_SampleVideo_50mb_taurus,0.997085,1,2000.000000,1,COMPLETED_SUCCESSFULLY,1633.426588,134.600046,1768.026634,1632.429503,1767.029549,13.128001,2,-1.000000,""
196,w0,python3action_facedetection_SampleVideo_50mb,0.000000,1,-1.000000,1,COMPLETED_SUCCESSFULLY,1768.026649,0.000010,1768.026659,1768.026649,1768.026659,176802665.927562,2,-1.000000,""
