job_id,workload_name,profile,submission_time,requested_number_of_resources,requested_time,success,final_state,starting_time,execution_time,finish_time,waiting_time,turnaround_time,stretch,allocated_resources,consumed_energy,metadata
python3action_chameleon_job1_14,w0,python3action_chameleon,0.997085,1,2000.000000,1,COMPLETED_SUCCESSFULLY,1.002310,0.867914,1.870224,0.005225,0.873139,1.006020,19,-1.000000,""
python3action_chameleon_job27_16,w0,python3action_chameleon,0.997085,1,2000.000000,1,COMPLETED_SUCCESSFULLY,1.002340,0.892694,1.895035,0.005255,0.897950,1.005887,21,-1.000000,""
python3action_chameleon_job29_17,w0,python3action_chameleon,0.997085,1,2000.000000,1,COMPLETED_SUCCESSFULLY,1.002355,0.892694,1.895050,0.005270,0.897965,1.005904,22,-1.000000,""
python3action_pyaes_job15_18,w0,python3action_pyaes,0.997085,1,2000.000000,1,COMPLETED_SUCCESSFULLY,1.002370,2.134958,3.137328,0.005285,2.140243,1.002475,25,-1.000000,""
python3action_pyaes_job17_20,w0,python3action_pyaes,0.997085,1,2000.000000,1,COMPLETED_SUCCESSFULLY,1.002400,2.134958,3.137358,0.005315,2.140273,1.002490,27,-1.000000,""
python3action_pyaes_job19_21,w0,python3action_pyaes,0.997085,1,2000.000000,1,COMPLETED_SUCCESSFULLY,1.002415,2.134958,3.137373,0.005330,2.140288,1.002497,28,-1.000000,""
python3action_floatoperation_job2_0,w0,python3action_floatoperation,0.997085,1,2000.000000,1,COMPLETED_SUCCESSFULLY,1.002100,2.439945,3.442045,0.005015,2.444960,1.002055,2,-1.000000,""
python3action_floatoperation_job5_1,w0,python3action_floatoperation,0.997085,1,2000.000000,1,COMPLETED_SUCCESSFULLY,1.002115,2.439945,3.442060,0.005030,2.444975,1.002062,3,-1.000000,""
python3action_linpack_job4_6,w0,python3action_linpack,0.997085,1,2000.000000,1,COMPLETED_SUCCESSFULLY,1.002190,5.760927,6.763117,0.005105,5.766032,1.000886,8,-1.000000,""
python3action_linpack_job7_7,w0,python3action_linpack,0.997085,1,2000.000000,1,COMPLETED_SUCCESSFULLY,1.002205,5.760927,6.763132,0.005120,5.766047,1.000889,9,-1.000000,""
python3action_linpack_job0_8,w0,python3action_linpack,0.997085,1,2000.000000,1,COMPLETED_SUCCESSFULLY,1.002220,5.760927,6.763147,0.005135,5.766062,1.000891,10,-1.000000,""
python3action_image_processing_job8_15,w0,python3action_image_processing,0.997085,1,2000.000000,1,COMPLETED_SUCCESSFULLY,1.002325,12.398880,13.401205,0.005240,12.404120,1.000423,20,-1.000000,""
python3action_modeltraining_job10_2,w0,python3action_modeltraining,0.997085,1,2000.000000,1,COMPLETED_SUCCESSFULLY,1.002130,30.499683,31.501813,0.005045,30.504728,1.000165,4,-1.000000,""
python3action_modeltraining_job11_3,w0,python3action_modeltraining,0.997085,1,2000.000000,1,COMPLETED_SUCCESSFULLY,1.002145,30.499683,31.501828,0.005060,30.504743,1.000166,5,-1.000000,""
python3action_modeltraining_job12_4,w0,python3action_modeltraining,0.997085,1,2000.000000,1,COMPLETED_SUCCESSFULLY,1.002160,30.499683,31.501843,0.005075,30.504758,1.000166,6,-1.000000,""
python3action_modeltraining_job14_5,w0,python3action_modeltraining,0.997085,1,2000.000000,1,COMPLETED_SUCCESSFULLY,1.002175,30.499683,31.501858,0.005090,30.504773,1.000167,7,-1.000000,""
python3action_facedetection_job16_19,w0,python3action_facedetection,0.997085,1,2000.000000,1,COMPLETED_SUCCESSFULLY,1.002385,30.499683,31.502068,0.005300,30.504983,1.000174,26,-1.000000,""
python3action_video_processing_job20_22,w0,python3action_video_processing,0.997085,1,2000.000000,1,COMPLETED_SUCCESSFULLY,1.002430,30.499683,31.502113,0.005345,30.505028,1.000175,29,-1.000000,""
5_updated,w0,python3action_floatoperation_100000000_nova,0.997085,1,2000.000000,1,COMPLETED_SUCCESSFULLY,3.442090,66.200020,69.642110,2.445005,68.645025,1.036934,3,-1.000000,""
5,w0,python3action_floatoperation_100000000,0.000000,1,-1.000000,1,COMPLETED_SUCCESSFULLY,69.642125,0.000010,69.642135,69.642125,69.642135,6964213.500201,3,-1.000000,""
python3action_facedetection_job3_9,w0,python3action_facedetection,0.997085,1,2000.000000,1,COMPLETED_SUCCESSFULLY,1.002235,72.012455,73.014690,0.005150,72.017605,1.000072,11,-1.000000,""
python3action_facedetection_job6_10,w0,python3action_facedetection,0.997085,1,2000.000000,1,COMPLETED_SUCCESSFULLY,1.002250,72.012455,73.014705,0.005165,72.017620,1.000072,13,-1.000000,""
python3action_video_processing_job9_11,w0,python3action_video_processing,0.997085,1,2000.000000,1,COMPLETED_SUCCESSFULLY,1.002265,72.012455,73.014720,0.005180,72.017635,1.000072,14,-1.000000,""
python3action_image_processing_job13_12,w0,python3action_image_processing,0.997085,1,2000.000000,1,COMPLETED_SUCCESSFULLY,1.002280,72.012455,73.014735,0.005195,72.017650,1.000072,15,-1.000000,""
python3action_facedetection_job32_13,w0,python3action_facedetection,0.997085,1,2000.000000,1,COMPLETED_SUCCESSFULLY,1.002295,72.012455,73.014750,0.005210,72.017665,1.000072,16,-1.000000,""
14_updated,w0,python3action_modeltraining_reviews50mb_nova,0.997085,1,2000.000000,1,COMPLETED_SUCCESSFULLY,31.501903,42.399990,73.901893,30.504818,72.904808,1.719453,7,-1.000000,""
14,w0,python3action_modeltraining_reviews50mb,0.000000,1,-1.000000,1,COMPLETED_SUCCESSFULLY,73.901908,0.000010,73.901918,73.901908,73.901918,7390191.823505,7,-1.000000,""
8_updated,w0,python3action_imageprocessing_SampleImage_60mb_troll,0.997085,1,2000.000000,1,COMPLETED_SUCCESSFULLY,13.401220,62.000000,75.401220,12.404135,74.404135,1.200067,20,-1.000000,""
8,w0,python3action_imageprocessing_SampleImage_60mb,0.000000,1,-1.000000,1,COMPLETED_SUCCESSFULLY,75.401235,0.000010,75.401245,75.401235,75.401245,7540124.512193,20,-1.000000,""
python3action_pyaes_job34_6,w0,python3action_pyaes,0.997085,1,2000.000000,1,COMPLETED_SUCCESSFULLY,73.901938,2.134958,76.036896,72.904853,75.039811,35.148140,7,-1.000000,""
python3action_chameleon_job21_16,w0,python3action_chameleon,0.997085,1,2000.000000,1,COMPLETED_SUCCESSFULLY,75.401265,0.867914,76.269179,74.404180,75.272094,86.727629,20,-1.000000,""
15_updated,w0,python3action_pyaes_3000_nova,0.997085,1,2000.000000,1,COMPLETED_SUCCESSFULLY,3.137343,78.200020,81.337363,2.140258,80.340278,1.027369,25,-1.000000,""
15,w0,python3action_pyaes_3000,0.000000,1,-1.000000,1,COMPLETED_SUCCESSFULLY,81.337378,0.000010,81.337388,81.337378,81.337388,8133738.800201,25,-1.000000,""
17_updated,w0,python3action_pyaes_3000_nova,0.997085,1,2000.000000,1,COMPLETED_SUCCESSFULLY,3.137373,78.200020,81.337393,2.140288,80.340308,1.027369,27,-1.000000,""
17,w0,python3action_pyaes_3000,0.000000,1,-1.000000,1,COMPLETED_SUCCESSFULLY,81.337423,0.000010,81.337433,81.337423,81.337433,8133743.300402,27,-1.000000,""
python3action_linpack_job35_19,w0,python3action_linpack_reduced_0.85,0.997085,1,2000.000000,1,COMPLETED_SUCCESSFULLY,81.337408,0.365992,81.703400,80.340323,80.706315,220.514001,25,-1.000000,""
27_updated,w0,python3action_chameleon_3000_yeti,0.997085,1,2000.000000,1,COMPLETED_SUCCESSFULLY,1.895050,93.000000,94.895050,0.897965,93.897965,1.009656,21,-1.000000,""
27,w0,python3action_chameleon_3000,0.000000,1,-1.000000,1,COMPLETED_SUCCESSFULLY,94.895065,0.000010,94.895075,94.895065,94.895075,9489507.500201,21,-1.000000,""
29_updated,w0,python3action_chameleon_3000_yeti,0.997085,1,2000.000000,1,COMPLETED_SUCCESSFULLY,1.895080,93.000000,94.895080,0.897995,93.897995,1.009656,22,-1.000000,""
29,w0,python3action_chameleon_3000,0.000000,1,-1.000000,1,COMPLETED_SUCCESSFULLY,94.895110,0.000010,94.895120,94.895110,94.895120,9489512.000803,22,-1.000000,""
1_updated,w0,python3action_chameleon_3000_troll,0.997085,1,2000.000000,1,COMPLETED_SUCCESSFULLY,1.870239,94.000000,95.870239,0.873154,94.873154,1.009289,19,-1.000000,""
1,w0,python3action_chameleon_3000,0.000000,1,-1.000000,1,COMPLETED_SUCCESSFULLY,95.870254,0.000010,95.870264,95.870254,95.870264,9587026.400402,19,-1.000000,""
python3action_modeltraining_job23_2,w0,python3action_modeltraining,0.997085,1,2000.000000,1,COMPLETED_SUCCESSFULLY,69.642155,30.499683,100.141838,68.645070,99.144753,3.250681,3,-1.000000,""
13_updated,w0,python3action_imageprocessing_SampleImage_40mb_taurus,0.997085,1,2000.000000,1,COMPLETED_SUCCESSFULLY,73.014780,32.600046,105.614826,72.017695,104.617741,3.209129,15,-1.000000,""
13,w0,python3action_imageprocessing_SampleImage_40mb,0.000000,1,-1.000000,1,COMPLETED_SUCCESSFULLY,105.614841,0.000010,105.614851,105.614841,105.614851,10561485.147572,15,-1.000000,""
python3action_facedetection_job50_13,w0,python3action_facedetection_reduced_0.91,0.997085,1,2000.000000,1,COMPLETED_SUCCESSFULLY,105.614871,0.000000,105.614871,104.617786,104.617786,907186968975.284668,15,-1.000000,""
10_updated,w0,python3action_modeltraining_reviews100mb_nova,0.997085,1,2000.000000,1,COMPLETED_SUCCESSFULLY,31.501828,79.600010,111.101837,30.504743,110.104752,1.383225,4,-1.000000,""
10,w0,python3action_modeltraining_reviews100mb,0.000000,1,-1.000000,1,COMPLETED_SUCCESSFULLY,111.101852,0.000010,111.101862,111.101852,111.101862,11110186.228968,4,-1.000000,""
11_updated,w0,python3action_modeltraining_reviews100mb_nova,0.997085,1,2000.000000,1,COMPLETED_SUCCESSFULLY,31.501858,79.600010,111.101867,30.504773,110.104782,1.383226,5,-1.000000,""
12_updated,w0,python3action_modeltraining_reviews100mb_nova,0.997085,1,2000.000000,1,COMPLETED_SUCCESSFULLY,31.501873,79.600010,111.101882,30.504788,110.104797,1.383226,6,-1.000000,""
11,w0,python3action_modeltraining_reviews100mb,0.000000,1,-1.000000,1,COMPLETED_SUCCESSFULLY,111.101897,0.000010,111.101907,111.101897,111.101907,11110190.729571,5,-1.000000,""
12,w0,python3action_modeltraining_reviews100mb,0.000000,1,-1.000000,1,COMPLETED_SUCCESSFULLY,111.101927,0.000010,111.101937,111.101927,111.101937,11110193.729972,6,-1.000000,""
python3action_video_processing_job42_21,w0,python3action_video_processing,0.997085,1,2000.000000,1,COMPLETED_SUCCESSFULLY,81.337453,30.499683,111.837136,80.340368,110.840051,3.634138,27,-1.000000,""
4_updated,w0,python3action_linpack_6000_orion,0.997085,1,2000.000000,1,COMPLETED_SUCCESSFULLY,6.763132,106.000000,112.763132,5.766047,111.766047,1.054397,8,-1.000000,""
4,w0,python3action_linpack_6000,0.000000,1,-1.000000,1,COMPLETED_SUCCESSFULLY,112.763147,0.000010,112.763157,112.763147,112.763157,11276315.724677,8,-1.000000,""
7_updated,w0,python3action_linpack_6000_orion,0.997085,1,2000.000000,1,COMPLETED_SUCCESSFULLY,6.763162,106.000000,112.763162,5.766077,111.766077,1.054397,9,-1.000000,""
7,w0,python3action_linpack_6000,0.000000,1,-1.000000,1,COMPLETED_SUCCESSFULLY,112.763192,0.000010,112.763202,112.763192,112.763202,11276320.225279,9,-1.000000,""
python3action_floatoperation_job31_5,w0,python3action_floatoperation,0.997085,1,2000.000000,1,COMPLETED_SUCCESSFULLY,111.101972,2.439945,113.541918,110.104887,112.544833,46.125966,6,-1.000000,""
21_updated,w0,python3action_chameleon_2000_troll,0.997085,1,2000.000000,1,COMPLETED_SUCCESSFULLY,76.269194,39.500010,115.769204,75.272109,114.772119,2.905623,20,-1.000000,""
21,w0,python3action_chameleon_2000,0.000000,1,-1.000000,1,COMPLETED_SUCCESSFULLY,115.769219,0.000010,115.769229,115.769219,115.769229,11576922.900201,20,-1.000000,""
35_updated,w0,python3action_linpack_5000_nova,0.997085,1,2000.000000,1,COMPLETED_SUCCESSFULLY,81.703415,34.600010,116.303425,80.706330,115.306340,3.332552,25,-1.000000,""
35,w0,python3action_linpack_5000,0.000000,1,-1.000000,1,COMPLETED_SUCCESSFULLY,116.303440,0.000010,116.303450,116.303440,116.303450,11630345.000201,25,-1.000000,""
18_updated,w0,python3action_chameleon_2000_troll,0.997085,1,2000.000000,1,COMPLETED_SUCCESSFULLY,95.870284,39.500010,135.370294,94.873199,134.373209,3.401853,19,-1.000000,""
18,w0,python3action_chameleon_2000,0.000000,1,-1.000000,1,COMPLETED_SUCCESSFULLY,135.370309,0.000010,135.370319,135.370309,135.370319,13537031.900201,19,-1.000000,""
20_updated,w0,python3action_videoprocessing_SampleVideo_30mb_nova,0.997085,1,2000.000000,1,COMPLETED_SUCCESSFULLY,31.502128,106.799980,138.302108,30.505043,137.305023,1.285628,29,-1.000000,""
20,w0,python3action_videoprocessing_SampleVideo_30mb,0.000000,1,-1.000000,1,COMPLETED_SUCCESSFULLY,138.302123,0.000010,138.302133,138.302123,138.302133,13830213.346609,29,-1.000000,""
2_updated,w0,python3action_floatoperation_200000000_nova,0.997085,1,2000.000000,1,COMPLETED_SUCCESSFULLY,3.442060,135.399990,138.842051,2.444975,137.844966,1.018057,2,-1.000000,""
2,w0,python3action_floatoperation_200000000,0.000000,1,-1.000000,1,COMPLETED_SUCCESSFULLY,138.842066,0.000010,138.842076,138.842066,138.842076,13884207.600201,2,-1.000000,""
python3action_floatoperation_job44_23,w0,python3action_floatoperation,0.997085,1,2000.000000,1,COMPLETED_SUCCESSFULLY,138.302153,2.439945,140.742099,137.305068,139.745014,57.273831,29,-1.000000,""
python3action_pyaes_job22_1,w0,python3action_pyaes,0.997085,1,2000.000000,1,COMPLETED_SUCCESSFULLY,138.842096,2.134958,140.977054,137.845011,139.979969,65.565671,2,-1.000000,""
19_updated,w0,python3action_pyaes_4000_nova,0.997085,1,2000.000000,1,COMPLETED_SUCCESSFULLY,3.137403,139.600010,142.737413,2.140318,141.740328,1.015332,28,-1.000000,""
19,w0,python3action_pyaes_4000,0.000000,1,-1.000000,1,COMPLETED_SUCCESSFULLY,142.737428,0.000010,142.737438,142.737428,142.737438,14273743.805684,28,-1.000000,""
python3action_floatoperation_job43_22,w0,python3action_floatoperation,0.997085,1,2000.000000,1,COMPLETED_SUCCESSFULLY,142.737458,2.439945,145.177403,141.740373,144.180318,59.091619,28,-1.000000,""
python3action_facedetection_job57_19,w0,python3action_facedetection,0.997085,1,2000.000000,1,COMPLETED_SUCCESSFULLY,116.303470,30.499683,146.803153,115.306385,145.806068,4.780577,25,-1.000000,""
26_updated,w0,python3action_modeltraining_reviews50mb_nova,0.997085,1,2000.000000,1,COMPLETED_SUCCESSFULLY,111.101882,42.399990,153.501873,110.104797,152.504788,3.596812,4,-1.000000,""
26,w0,python3action_modeltraining_reviews50mb,0.000000,1,-1.000000,1,COMPLETED_SUCCESSFULLY,153.501888,0.000010,153.501898,153.501888,153.501898,15350189.800201,4,-1.000000,""
30_updated,w0,python3action_modeltraining_reviews50mb_nova,0.997085,1,2000.000000,1,COMPLETED_SUCCESSFULLY,111.101942,42.399990,153.501933,110.104857,152.504848,3.596813,5,-1.000000,""
30,w0,python3action_modeltraining_reviews50mb,0.000000,1,-1.000000,1,COMPLETED_SUCCESSFULLY,153.501948,0.000010,153.501958,153.501948,153.501958,15350195.800201,5,-1.000000,""
28_updated,w0,python3action_chameleon_2000_troll,0.997085,1,2000.000000,1,COMPLETED_SUCCESSFULLY,115.769249,39.500010,155.269259,114.772164,154.272174,3.905624,20,-1.000000,""
28,w0,python3action_chameleon_2000,0.000000,1,-1.000000,1,COMPLETED_SUCCESSFULLY,155.269274,0.000010,155.269284,155.269274,155.269284,15526928.400201,20,-1.000000,""
python3action_floatoperation_job51_3,w0,python3action_floatoperation,0.997085,1,2000.000000,1,COMPLETED_SUCCESSFULLY,153.501918,2.439945,155.941863,152.504833,154.944778,63.503382,4,-1.000000,""
0_updated,w0,python3action_linpack_6000_taurus,0.997085,1,2000.000000,1,COMPLETED_SUCCESSFULLY,6.763192,157.600046,164.363238,5.766107,163.366153,1.036587,10,-1.000000,""
0,w0,python3action_linpack_6000,0.000000,1,-1.000000,1,COMPLETED_SUCCESSFULLY,164.363253,0.000010,164.363263,164.363253,164.363263,16436326.338558,10,-1.000000,""
24_updated,w0,python3action_chameleon_2000_troll,0.997085,1,2000.000000,1,COMPLETED_SUCCESSFULLY,135.370339,39.500010,174.870349,134.373254,173.873264,4.401854,19,-1.000000,""
24,w0,python3action_chameleon_2000,0.000000,1,-1.000000,1,COMPLETED_SUCCESSFULLY,174.870364,0.000010,174.870374,174.870364,174.870374,17487037.400201,19,-1.000000,""
23_updated,w0,python3action_modeltraining_reviews100mb_nova,0.997085,1,2000.000000,1,COMPLETED_SUCCESSFULLY,100.141853,79.600010,179.741863,99.144768,178.744778,2.245537,3,-1.000000,""
23,w0,python3action_modeltraining_reviews100mb,0.000000,1,-1.000000,1,COMPLETED_SUCCESSFULLY,179.741878,0.000010,179.741888,179.741878,179.741888,17974188.800201,3,-1.000000,""
python3action_video_processing_job48_2,w0,python3action_video_processing_reduced_0.97,0.997085,1,2000.000000,1,COMPLETED_SUCCESSFULLY,179.741908,0.000000,179.741908,178.744823,178.744823,40574350719977.570312,3,-1.000000,""
31_updated,w0,python3action_floatoperation_100000000_nova,0.997085,1,2000.000000,1,COMPLETED_SUCCESSFULLY,113.541933,66.200020,179.741953,112.544848,178.744868,2.700073,6,-1.000000,""
31,w0,python3action_floatoperation_100000000,0.000000,1,-1.000000,1,COMPLETED_SUCCESSFULLY,179.741968,0.000010,179.741978,179.741968,179.741978,17974197.800201,6,-1.000000,""
python3action_linpack_job54_5,w0,python3action_linpack,0.997085,1,2000.000000,1,COMPLETED_SUCCESSFULLY,179.741998,2.439945,182.181943,178.744913,181.184858,74.257754,6,-1.000000,""
python3action_image_processing_job39_15,w0,python3action_image_processing,0.997085,1,2000.000000,1,COMPLETED_SUCCESSFULLY,174.870394,12.398880,187.269274,173.873309,186.272189,15.023308,19,-1.000000,""
101_updated,w0,python3action_chameleon_3000_yeti,0.997085,1,2000.000000,1,COMPLETED_SUCCESSFULLY,94.895095,93.000000,187.895095,93.898010,186.898010,2.009656,21,-1.000000,""
101,w0,python3action_chameleon_3000,0.000000,1,-1.000000,1,COMPLETED_SUCCESSFULLY,187.895110,0.000010,187.895120,187.895110,187.895120,18789512.000803,21,-1.000000,""
115_updated,w0,python3action_chameleon_3000_yeti,0.997085,1,2000.000000,1,COMPLETED_SUCCESSFULLY,94.895140,93.000000,187.895140,93.898055,186.898055,2.009657,22,-1.000000,""
115,w0,python3action_chameleon_3000,0.000000,1,-1.000000,1,COMPLETED_SUCCESSFULLY,187.895170,0.000010,187.895180,187.895170,187.895180,18789518.001606,22,-1.000000,""
16_updated,w0,python3action_facedetection_SampleVideo_30mb_nova,0.997085,1,2000.000000,1,COMPLETED_SUCCESSFULLY,31.502083,160.399990,191.902073,30.504998,190.904988,1.190181,26,-1.000000,""
16,w0,python3action_facedetection_SampleVideo_30mb,0.000000,1,-1.000000,1,COMPLETED_SUCCESSFULLY,191.902088,0.000010,191.902098,191.902088,191.902098,19190209.823505,26,-1.000000,""
python3action_modeltraining_job36_20,w0,python3action_modeltraining_reduced_0.94,0.997085,1,2000.000000,1,COMPLETED_SUCCESSFULLY,191.902118,0.000000,191.902118,190.905033,190.905033,3907430903499.653809,26,-1.000000,""
52_updated,w0,python3action_modeltraining_reviews50mb_nova,0.997085,1,2000.000000,1,COMPLETED_SUCCESSFULLY,153.501978,42.399990,195.901968,152.504893,194.904883,4.596814,5,-1.000000,""
52,w0,python3action_modeltraining_reviews50mb,0.000000,1,-1.000000,1,COMPLETED_SUCCESSFULLY,195.901983,0.000010,195.901993,195.901983,195.901993,19590199.323907,5,-1.000000,""
python3action_linpack_job73_4,w0,python3action_linpack,0.997085,1,2000.000000,1,COMPLETED_SUCCESSFULLY,195.902013,2.439945,198.341959,194.904928,197.344874,80.880860,5,-1.000000,""
44_updated,w0,python3action_floatoperation_100000000_nova,0.997085,1,2000.000000,1,COMPLETED_SUCCESSFULLY,140.742114,66.200020,206.942134,139.745029,205.945049,3.110951,29,-1.000000,""
44,w0,python3action_floatoperation_100000000,0.000000,1,-1.000000,1,COMPLETED_SUCCESSFULLY,206.942149,0.000010,206.942159,206.942149,206.942159,20694215.900201,29,-1.000000,""
3_updated,w0,python3action_facedetection_SampleVideo_50mb_taurus,0.997085,1,2000.000000,1,COMPLETED_SUCCESSFULLY,73.014705,134.600046,207.614751,72.017620,206.617666,1.535049,11,-1.000000,""
3,w0,python3action_facedetection_SampleVideo_50mb,0.000000,1,-1.000000,1,COMPLETED_SUCCESSFULLY,207.614766,0.000010,207.614776,207.614766,207.614776,20761477.646568,11,-1.000000,""
6_updated,w0,python3action_facedetection_SampleVideo_50mb_taurus,0.997085,1,2000.000000,1,COMPLETED_SUCCESSFULLY,73.014735,134.600046,207.614781,72.017650,206.617696,1.535049,13,-1.000000,""
6,w0,python3action_facedetection_SampleVideo_50mb,0.000000,1,-1.000000,1,COMPLETED_SUCCESSFULLY,207.614811,0.000010,207.614821,207.614811,207.614821,20761482.147171,13,-1.000000,""
32_updated,w0,python3action_facedetection_SampleVideo_50mb_taurus,0.997085,1,2000.000000,1,COMPLETED_SUCCESSFULLY,73.014795,134.600046,207.614841,72.017710,206.617756,1.535050,16,-1.000000,""
32,w0,python3action_facedetection_SampleVideo_50mb,0.000000,1,-1.000000,1,COMPLETED_SUCCESSFULLY,207.614871,0.000010,207.614881,207.614871,207.614881,20761488.147974,16,-1.000000,""
python3action_video_processing_job53_14,w0,python3action_video_processing_reduced_0.91,0.997085,1,2000.000000,1,COMPLETED_SUCCESSFULLY,207.614901,0.000000,207.614901,206.617816,206.617816,19917035987251.457031,16,-1.000000,""
43_updated,w0,python3action_floatoperation_100000000_nova,0.997085,1,2000.000000,1,COMPLETED_SUCCESSFULLY,145.177418,66.200020,211.377438,144.180333,210.380353,3.177950,28,-1.000000,""
43,w0,python3action_floatoperation_100000000,0.000000,1,-1.000000,1,COMPLETED_SUCCESSFULLY,211.377453,0.000010,211.377463,211.377453,211.377463,21137746.300201,28,-1.000000,""
34_updated,w0,python3action_pyaes_4000_nova,0.997085,1,2000.000000,1,COMPLETED_SUCCESSFULLY,76.036911,139.600010,215.636921,75.039826,214.639836,1.537535,7,-1.000000,""
34,w0,python3action_pyaes_4000,0.000000,1,-1.000000,1,COMPLETED_SUCCESSFULLY,215.636936,0.000010,215.636946,215.636936,215.636946,21563694.624973,7,-1.000000,""
54_updated,w0,python3action_linpack_5000_nova,0.997085,1,2000.000000,1,COMPLETED_SUCCESSFULLY,182.181958,34.600010,216.781968,181.184873,215.784883,6.236556,6,-1.000000,""
54,w0,python3action_linpack_5000,0.000000,1,-1.000000,1,COMPLETED_SUCCESSFULLY,216.781983,0.000010,216.781993,216.781983,216.781993,21678199.307280,6,-1.000000,""
python3action_facedetection_job74_5,w0,python3action_facedetection_reduced_0.91,0.997085,1,2000.000000,1,COMPLETED_SUCCESSFULLY,216.782013,0.000000,216.782013,215.784928,215.784928,4416670855508.104492,6,-1.000000,""
python3action_image_processing_job38_11,w0,python3action_image_processing_reduced_0.86,0.997085,1,2000.000000,1,COMPLETED_SUCCESSFULLY,207.614841,9.731413,217.346254,206.617756,216.349169,22.232041,13,-1.000000,""
42_updated,w0,python3action_videoprocessing_SampleVideo_30mb_nova,0.997085,1,2000.000000,1,COMPLETED_SUCCESSFULLY,111.837151,106.799980,218.637131,110.840066,217.640046,2.037829,27,-1.000000,""
42,w0,python3action_videoprocessing_SampleVideo_30mb,0.000000,1,-1.000000,1,COMPLETED_SUCCESSFULLY,218.637146,0.000010,218.637156,218.637146,218.637156,21863715.646609,27,-1.000000,""
python3action_facedetection_job59_21,w0,python3action_facedetection_reduced_0.91,0.997085,1,2000.000000,1,COMPLETED_SUCCESSFULLY,218.637176,0.000000,218.637176,217.640091,217.640091,4454642210432.345703,27,-1.000000,""
25_updated,w0,python3action_linpack_6000_orion,0.997085,1,2000.000000,1,COMPLETED_SUCCESSFULLY,112.763177,106.000000,218.763177,111.766092,217.766092,2.054397,8,-1.000000,""
25,w0,python3action_linpack_6000,0.000000,1,-1.000000,1,COMPLETED_SUCCESSFULLY,218.763192,0.000010,218.763202,218.763192,218.763202,21876320.225279,8,-1.000000,""
56_updated,w0,python3action_linpack_6000_orion,0.997085,1,2000.000000,1,COMPLETED_SUCCESSFULLY,112.763222,106.000000,218.763222,111.766137,217.766137,2.054398,9,-1.000000,""
56,w0,python3action_linpack_6000,0.000000,1,-1.000000,1,COMPLETED_SUCCESSFULLY,218.763252,0.000010,218.763262,218.763252,218.763262,21876326.226082,9,-1.000000,""
22_updated,w0,python3action_pyaes_3000_nova,0.997085,1,2000.000000,1,COMPLETED_SUCCESSFULLY,140.977069,78.200020,219.177089,139.979984,218.180004,2.790025,2,-1.000000,""
22,w0,python3action_pyaes_3000,0.000000,1,-1.000000,1,COMPLETED_SUCCESSFULLY,219.177104,0.000010,219.177114,219.177104,219.177114,21917711.400201,2,-1.000000,""
9_updated,w0,python3action_videoprocessing_SampleVideo_50mb_taurus,0.997085,1,2000.000000,1,COMPLETED_SUCCESSFULLY,73.014750,154.250029,227.264779,72.017665,226.267694,1.466889,14,-1.000000,""
9,w0,python3action_videoprocessing_SampleVideo_50mb,0.000000,1,-1.000000,1,COMPLETED_SUCCESSFULLY,227.264794,0.000010,227.264804,227.264794,227.264804,22726480.417266,14,-1.000000,""
python3action_facedetection_job46_12,w0,python3action_facedetection_reduced_0.91,0.997085,1,2000.000000,1,COMPLETED_SUCCESSFULLY,227.264824,0.000000,227.264824,226.267739,226.267739,1961825610373.370361,14,-1.000000,""
73_updated,w0,python3action_linpack_5000_nova,0.997085,1,2000.000000,1,COMPLETED_SUCCESSFULLY,198.341974,34.600010,232.941984,197.344889,231.944899,6.703608,5,-1.000000,""
73,w0,python3action_linpack_5000,0.000000,1,-1.000000,1,COMPLETED_SUCCESSFULLY,232.941999,0.000010,232.942009,232.941999,232.942009,23294200.900201,5,-1.000000,""
python3action_facedetection_job96_4,w0,python3action_facedetection_reduced_0.91,0.997085,1,2000.000000,1,COMPLETED_SUCCESSFULLY,232.942029,0.000000,232.942029,231.944944,231.944944,4747432934283.288086,5,-1.000000,""
36_updated,w0,python3action_modeltraining_reviews50mb_nova,0.997085,1,2000.000000,1,COMPLETED_SUCCESSFULLY,191.902148,42.399990,234.302138,190.905063,233.305053,5.502479,26,-1.000000,""
36,w0,python3action_modeltraining_reviews50mb,0.000000,1,-1.000000,1,COMPLETED_SUCCESSFULLY,234.302153,0.000010,234.302163,234.302153,234.302163,23430216.347613,26,-1.000000,""
python3action_image_processing_job33_9,w0,python3action_image_processing,0.997085,1,2000.000000,1,COMPLETED_SUCCESSFULLY,164.363283,72.012455,236.375739,163.366198,235.378654,3.268583,10,-1.000000,""
python3action_pyaes_job58_20,w0,python3action_pyaes,0.997085,1,2000.000000,1,COMPLETED_SUCCESSFULLY,234.302183,2.134958,236.437142,233.305098,235.440057,110.278530,26,-1.000000,""
50_updated,w0,python3action_facedetection_SampleVideo_50mb_taurus,0.997085,1,2000.000000,1,COMPLETED_SUCCESSFULLY,105.614901,134.600046,240.214948,104.617816,239.217863,1.777249,15,-1.000000,""
50,w0,python3action_facedetection_SampleVideo_50mb,0.000000,1,-1.000000,1,COMPLETED_SUCCESSFULLY,240.214963,0.000010,240.214973,240.214963,240.214973,24021497.300201,15,-1.000000,""
python3action_video_processing_job70_13,w0,python3action_video_processing_reduced_1.83,0.997085,1,2000.000000,1,COMPLETED_SUCCESSFULLY,240.214993,0.000000,240.214993,239.217908,239.217908,23059539412592.597656,15,-1.000000,""
python3action_facedetection_job62_22,w0,python3action_facedetection,0.997085,1,2000.000000,1,COMPLETED_SUCCESSFULLY,211.377483,30.499683,241.877166,210.380398,240.880081,7.897790,28,-1.000000,""
39_updated,w0,python3action_imageprocessing_SampleImage_60mb_troll,0.997085,1,2000.000000,1,COMPLETED_SUCCESSFULLY,187.269289,62.000000,249.269289,186.272204,248.272204,4.004390,19,-1.000000,""
40_updated,w0,python3action_chameleon_3000_troll,0.997085,1,2000.000000,1,COMPLETED_SUCCESSFULLY,155.269304,94.000000,249.269304,154.272219,248.272219,2.641194,20,-1.000000,""
39,w0,python3action_imageprocessing_SampleImage_60mb,0.000000,1,-1.000000,1,COMPLETED_SUCCESSFULLY,249.269304,0.000010,249.269314,249.269304,249.269314,24926931.400803,19,-1.000000,""
40,w0,python3action_chameleon_3000,0.000000,1,-1.000000,1,COMPLETED_SUCCESSFULLY,249.269334,0.000010,249.269344,249.269334,249.269344,24926934.401205,20,-1.000000,""
38_updated,w0,python3action_imageprocessing_SampleImage_40mb_taurus,0.997085,1,2000.000000,1,COMPLETED_SUCCESSFULLY,217.346269,32.600046,249.946315,216.349184,248.949230,7.636469,13,-1.000000,""
38,w0,python3action_imageprocessing_SampleImage_40mb,0.000000,1,-1.000000,1,COMPLETED_SUCCESSFULLY,249.946330,0.000010,249.946340,249.946330,249.946340,24994634.049036,13,-1.000000,""
python3action_video_processing_job67_11,w0,python3action_video_processing_reduced_1.83,0.997085,1,2000.000000,1,COMPLETED_SUCCESSFULLY,249.946360,0.000000,249.946360,248.949275,248.949275,23997599836272.617188,13,-1.000000,""
33_updated,w0,python3action_imageprocessing_SampleImage_40mb_taurus,0.997085,1,2000.000000,1,COMPLETED_SUCCESSFULLY,236.375754,32.600046,268.975800,235.378669,267.978715,8.220194,10,-1.000000,""
33,w0,python3action_imageprocessing_SampleImage_40mb,0.000000,1,-1.000000,1,COMPLETED_SUCCESSFULLY,268.975815,0.000010,268.975825,268.975815,268.975825,26897582.513480,10,-1.000000,""
python3action_facedetection_job60_9,w0,python3action_facedetection_reduced_0.91,0.997085,1,2000.000000,1,COMPLETED_SUCCESSFULLY,268.975845,0.000000,268.975845,267.978760,267.978760,2323475704443.543945,10,-1.000000,""
117_updated,w0,python3action_chameleon_3000_yeti,0.997085,1,2000.000000,1,COMPLETED_SUCCESSFULLY,187.895140,93.000000,280.895140,186.898055,279.898055,3.009657,21,-1.000000,""
117,w0,python3action_chameleon_3000,0.000000,1,-1.000000,1,COMPLETED_SUCCESSFULLY,280.895155,0.000010,280.895165,280.895155,280.895165,28089516.501405,21,-1.000000,""
122_updated,w0,python3action_chameleon_3000_yeti,0.997085,1,2000.000000,1,COMPLETED_SUCCESSFULLY,187.895200,93.000000,280.895200,186.898115,279.898115,3.009657,22,-1.000000,""
122,w0,python3action_chameleon_3000,0.000000,1,-1.000000,1,COMPLETED_SUCCESSFULLY,280.895215,0.000010,280.895225,280.895215,280.895225,28089522.502209,22,-1.000000,""
47_updated,w0,python3action_floatoperation_100000000_nova,0.997085,1,2000.000000,1,COMPLETED_SUCCESSFULLY,219.177134,66.200020,285.377154,218.180049,284.380069,4.295770,2,-1.000000,""
47,w0,python3action_floatoperation_100000000,0.000000,1,-1.000000,1,COMPLETED_SUCCESSFULLY,285.377169,0.000010,285.377179,285.377169,285.377179,28537717.900201,2,-1.000000,""
48_updated,w0,python3action_videoprocessing_SampleVideo_30mb_nova,0.997085,1,2000.000000,1,COMPLETED_SUCCESSFULLY,179.741938,106.799980,286.541918,178.744853,285.544833,2.673641,3,-1.000000,""
48,w0,python3action_videoprocessing_SampleVideo_30mb,0.000000,1,-1.000000,1,COMPLETED_SUCCESSFULLY,286.541933,0.000010,286.541943,286.541933,286.541943,28654194.347412,3,-1.000000,""
41_updated,w0,python3action_chameleon_2000_troll,0.997085,1,2000.000000,1,COMPLETED_SUCCESSFULLY,249.269349,39.500010,288.769359,248.272264,287.772274,7.285372,19,-1.000000,""
41,w0,python3action_chameleon_2000,0.000000,1,-1.000000,1,COMPLETED_SUCCESSFULLY,288.769374,0.000010,288.769384,288.769374,288.769384,28876938.400201,19,-1.000000,""
45_updated,w0,python3action_chameleon_2000_troll,0.997085,1,2000.000000,1,COMPLETED_SUCCESSFULLY,249.269379,39.500010,288.769389,248.272294,287.772304,7.285373,20,-1.000000,""
45,w0,python3action_chameleon_2000,0.000000,1,-1.000000,1,COMPLETED_SUCCESSFULLY,288.769419,0.000010,288.769429,288.769419,288.769429,28876942.900402,20,-1.000000,""
51_updated,w0,python3action_floatoperation_200000000_nova,0.997085,1,2000.000000,1,COMPLETED_SUCCESSFULLY,155.941878,135.399990,291.341869,154.944793,290.344784,2.144349,4,-1.000000,""
51,w0,python3action_floatoperation_200000000,0.000000,1,-1.000000,1,COMPLETED_SUCCESSFULLY,291.341884,0.000010,291.341894,291.341884,291.341894,29134189.400201,4,-1.000000,""
python3action_facedetection_job71_3,w0,python3action_facedetection_reduced_0.91,0.997085,1,2000.000000,1,COMPLETED_SUCCESSFULLY,291.341914,0.000000,291.341914,290.344829,290.344829,5946216820615.817383,4,-1.000000,""
55_updated,w0,python3action_modeltraining_reviews100mb_nova,0.997085,1,2000.000000,1,COMPLETED_SUCCESSFULLY,215.636966,79.600010,295.236976,214.639881,294.239891,3.696481,7,-1.000000,""
55,w0,python3action_modeltraining_reviews100mb,0.000000,1,-1.000000,1,COMPLETED_SUCCESSFULLY,295.236991,0.000010,295.237001,295.236991,295.237001,29523700.102471,7,-1.000000,""
57_updated,w0,python3action_facedetection_SampleVideo_30mb_nova,0.997085,1,2000.000000,1,COMPLETED_SUCCESSFULLY,146.803168,160.399990,307.203158,145.806083,306.206073,1.909016,25,-1.000000,""
57,w0,python3action_facedetection_SampleVideo_30mb,0.000000,1,-1.000000,1,COMPLETED_SUCCESSFULLY,307.203173,0.000010,307.203183,307.203173,307.203183,30720318.323505,25,-1.000000,""
python3action_modeltraining_job77_19,w0,python3action_modeltraining_reduced_0.94,0.997085,1,2000.000000,1,COMPLETED_SUCCESSFULLY,307.203203,0.000000,307.203203,306.206118,306.206118,6271053550641.397461,25,-1.000000,""
58_updated,w0,python3action_pyaes_3000_nova,0.997085,1,2000.000000,1,COMPLETED_SUCCESSFULLY,236.437157,78.200020,314.637177,235.440072,313.640092,4.010742,26,-1.000000,""
58,w0,python3action_pyaes_3000,0.000000,1,-1.000000,1,COMPLETED_SUCCESSFULLY,314.637192,0.000010,314.637202,314.637192,314.637202,31463720.200201,26,-1.000000,""
python3action_modeltraining_job65_1,w0,python3action_modeltraining,0.997085,1,2000.000000,1,COMPLETED_SUCCESSFULLY,285.377199,30.499683,315.876882,284.380114,314.879797,10.324035,2,-1.000000,""
python3action_floatoperation_job79_20,w0,python3action_floatoperation,0.997085,1,2000.000000,1,COMPLETED_SUCCESSFULLY,314.637222,2.439945,317.077167,313.640137,316.080082,129.543922,26,-1.000000,""
64_updated,w0,python3action_linpack_6000_orion,0.997085,1,2000.000000,1,COMPLETED_SUCCESSFULLY,218.763222,106.000000,324.763222,217.766137,323.766137,3.054398,8,-1.000000,""
64,w0,python3action_linpack_6000,0.000000,1,-1.000000,1,COMPLETED_SUCCESSFULLY,324.763237,0.000010,324.763247,324.763237,324.763247,32476324.725881,8,-1.000000,""
69_updated,w0,python3action_linpack_6000_orion,0.997085,1,2000.000000,1,COMPLETED_SUCCESSFULLY,218.763282,106.000000,324.763282,217.766197,323.766197,3.054398,9,-1.000000,""
69,w0,python3action_linpack_6000,0.000000,1,-1.000000,1,COMPLETED_SUCCESSFULLY,324.763297,0.000010,324.763307,324.763297,324.763307,32476330.726685,9,-1.000000,""
37_updated,w0,python3action_facedetection_SampleVideo_50mb_taurus,0.997085,1,2000.000000,1,COMPLETED_SUCCESSFULLY,207.614796,134.600046,342.214843,206.617711,341.217758,2.535049,11,-1.000000,""
37,w0,python3action_facedetection_SampleVideo_50mb,0.000000,1,-1.000000,1,COMPLETED_SUCCESSFULLY,342.214858,0.000010,342.214868,342.214858,342.214868,34221486.800201,11,-1.000000,""
63_updated,w0,python3action_floatoperation_200000000_nova,0.997085,1,2000.000000,1,COMPLETED_SUCCESSFULLY,206.942179,135.399990,342.342169,205.945094,341.345084,2.521013,29,-1.000000,""
63,w0,python3action_floatoperation_200000000,0.000000,1,-1.000000,1,COMPLETED_SUCCESSFULLY,342.342184,0.000010,342.342194,342.342184,342.342194,34234219.423907,29,-1.000000,""
python3action_modeltraining_job84_23,w0,python3action_modeltraining_reduced_1.0,0.997085,1,2000.000000,1,COMPLETED_SUCCESSFULLY,342.342214,0.000000,342.342214,341.345129,341.345129,6990695016298.537109,29,-1.000000,""
77_updated,w0,python3action_modeltraining_reviews50mb_nova,0.997085,1,2000.000000,1,COMPLETED_SUCCESSFULLY,307.203233,42.399990,349.603223,306.206148,348.606138,8.221845,25,-1.000000,""
77,w0,python3action_modeltraining_reviews50mb,0.000000,1,-1.000000,1,COMPLETED_SUCCESSFULLY,349.603238,0.000010,349.603248,349.603238,349.603248,34960324.847613,25,-1.000000,""
72_updated,w0,python3action_imageprocessing_SampleImage_60mb_troll,0.997085,1,2000.000000,1,COMPLETED_SUCCESSFULLY,288.769449,62.000000,350.769449,287.772364,349.772364,5.641490,20,-1.000000,""
72,w0,python3action_imageprocessing_SampleImage_60mb,0.000000,1,-1.000000,1,COMPLETED_SUCCESSFULLY,350.769464,0.000010,350.769474,350.769464,350.769474,35076947.401004,20,-1.000000,""
python3action_image_processing_job61_10,w0,python3action_image_processing_reduced_0.86,0.997085,1,2000.000000,1,COMPLETED_SUCCESSFULLY,342.214888,9.731413,351.946301,341.217803,350.949216,36.063542,11,-1.000000,""
65_updated,w0,python3action_modeltraining_reviews50mb_nova,0.997085,1,2000.000000,1,COMPLETED_SUCCESSFULLY,315.876897,42.399990,358.276887,314.879812,357.279802,8.426412,2,-1.000000,""
65,w0,python3action_modeltraining_reviews50mb,0.000000,1,-1.000000,1,COMPLETED_SUCCESSFULLY,358.276902,0.000010,358.276912,358.276902,358.276912,35827691.223505,2,-1.000000,""
46_updated,w0,python3action_facedetection_SampleVideo_50mb_taurus,0.997085,1,2000.000000,1,COMPLETED_SUCCESSFULLY,227.264854,134.600046,361.864900,226.267769,360.867815,2.681038,14,-1.000000,""
46,w0,python3action_facedetection_SampleVideo_50mb,0.000000,1,-1.000000,1,COMPLETED_SUCCESSFULLY,361.864915,0.000010,361.864925,361.864915,361.864925,36186492.531349,14,-1.000000,""
53_updated,w0,python3action_videoprocessing_SampleVideo_50mb_taurus,0.997085,1,2000.000000,1,COMPLETED_SUCCESSFULLY,207.614931,154.250029,361.864960,206.617846,360.867875,2.339500,16,-1.000000,""
53,w0,python3action_videoprocessing_SampleVideo_50mb,0.000000,1,-1.000000,1,COMPLETED_SUCCESSFULLY,361.864975,0.000010,361.864985,361.864975,361.864985,36186498.532152,16,-1.000000,""
196_updated,w0,python3action_chameleon_3000_yeti,0.997085,1,2000.000000,1,COMPLETED_SUCCESSFULLY,280.895185,93.000000,373.895185,279.898100,372.898100,4.009657,21,-1.000000,""
196,w0,python3action_chameleon_3000,0.000000,1,-1.000000,1,COMPLETED_SUCCESSFULLY,373.895200,0.000010,373.895210,373.895200,373.895210,37389521.002008,21,-1.000000,""
76_updated,w0,python3action_modeltraining_reviews100mb_nova,0.997085,1,2000.000000,1,COMPLETED_SUCCESSFULLY,295.237021,79.600010,374.837031,294.239936,373.839946,4.696481,7,-1.000000,""
76,w0,python3action_modeltraining_reviews100mb,0.000000,1,-1.000000,1,COMPLETED_SUCCESSFULLY,374.837046,0.000010,374.837056,374.837046,374.837056,37483705.600201,7,-1.000000,""
python3action_video_processing_job103_6,w0,python3action_video_processing_reduced_0.97,0.997085,1,2000.000000,1,COMPLETED_SUCCESSFULLY,374.837076,0.000000,374.837076,373.839991,373.839991,85411203540530.640625,7,-1.000000,""
74_updated,w0,python3action_facedetection_SampleVideo_30mb_nova,0.997085,1,2000.000000,1,COMPLETED_SUCCESSFULLY,216.782043,160.399990,377.182033,215.784958,376.184948,2.345293,6,-1.000000,""
74,w0,python3action_facedetection_SampleVideo_30mb,0.000000,1,-1.000000,1,COMPLETED_SUCCESSFULLY,377.182048,0.000010,377.182058,377.182048,377.182058,37718205.831388,6,-1.000000,""
59_updated,w0,python3action_facedetection_SampleVideo_30mb_nova,0.997085,1,2000.000000,1,COMPLETED_SUCCESSFULLY,218.637206,160.399990,379.037197,217.640121,378.040112,2.356859,27,-1.000000,""
59,w0,python3action_facedetection_SampleVideo_30mb,0.000000,1,-1.000000,1,COMPLETED_SUCCESSFULLY,379.037212,0.000010,379.037222,379.037212,379.037222,37903722.200201,27,-1.000000,""
49_updated,w0,python3action_chameleon_3000_troll,0.997085,1,2000.000000,1,COMPLETED_SUCCESSFULLY,288.769404,94.000000,382.769404,287.772319,381.772319,4.061408,19,-1.000000,""
49,w0,python3action_chameleon_3000,0.000000,1,-1.000000,1,COMPLETED_SUCCESSFULLY,382.769419,0.000010,382.769429,382.769419,382.769429,38276942.900402,19,-1.000000,""
79_updated,w0,python3action_floatoperation_100000000_nova,0.997085,1,2000.000000,1,COMPLETED_SUCCESSFULLY,317.077182,66.200020,383.277202,316.080097,382.280117,5.774622,26,-1.000000,""
79,w0,python3action_floatoperation_100000000,0.000000,1,-1.000000,1,COMPLETED_SUCCESSFULLY,383.277217,0.000010,383.277227,383.277217,383.277227,38327722.700201,26,-1.000000,""
61_updated,w0,python3action_imageprocessing_SampleImage_40mb_taurus,0.997085,1,2000.000000,1,COMPLETED_SUCCESSFULLY,351.946316,32.600046,384.546362,350.949231,383.549277,11.765299,11,-1.000000,""
61,w0,python3action_imageprocessing_SampleImage_40mb,0.000000,1,-1.000000,1,COMPLETED_SUCCESSFULLY,384.546377,0.000010,384.546387,384.546377,384.546387,38454638.713480,11,-1.000000,""
python3action_video_processing_job91_10,w0,python3action_video_processing_reduced_1.83,0.997085,1,2000.000000,1,COMPLETED_SUCCESSFULLY,384.546407,0.000000,384.546407,383.549322,383.549322,36871426405878.968750,11,-1.000000,""
84_updated,w0,python3action_modeltraining_reviews50mb_nova,0.997085,1,2000.000000,1,COMPLETED_SUCCESSFULLY,342.342244,42.399990,384.742234,341.345159,383.745149,9.050595,29,-1.000000,""
84,w0,python3action_modeltraining_reviews50mb,0.000000,1,-1.000000,1,COMPLETED_SUCCESSFULLY,384.742249,0.000010,384.742259,384.742249,384.742259,38474225.948015,29,-1.000000,""
82_updated,w0,python3action_chameleon_2000_troll,0.997085,1,2000.000000,1,COMPLETED_SUCCESSFULLY,350.769494,39.500010,390.269504,349.772409,389.272419,9.854995,20,-1.000000,""
82,w0,python3action_chameleon_2000,0.000000,1,-1.000000,1,COMPLETED_SUCCESSFULLY,390.269519,0.000010,390.269529,390.269519,390.269529,39026952.900201,20,-1.000000,""
66_updated,w0,python3action_videoprocessing_SampleVideo_30mb_nova,0.997085,1,2000.000000,1,COMPLETED_SUCCESSFULLY,286.541963,106.799980,393.341944,285.544878,392.344859,3.673642,3,-1.000000,""
66,w0,python3action_videoprocessing_SampleVideo_30mb,0.000000,1,-1.000000,1,COMPLETED_SUCCESSFULLY,393.341959,0.000010,393.341969,393.341959,393.341969,39334196.900201,3,-1.000000,""
96_updated,w0,python3action_facedetection_SampleVideo_30mb_nova,0.997085,1,2000.000000,1,COMPLETED_SUCCESSFULLY,232.942059,160.399990,393.342049,231.944974,392.344964,2.446041,5,-1.000000,""
96,w0,python3action_facedetection_SampleVideo_30mb,0.000000,1,-1.000000,1,COMPLETED_SUCCESSFULLY,393.342064,0.000010,393.342074,393.342064,393.342074,39334207.424309,5,-1.000000,""
python3action_pyaes_job118_4,w0,python3action_pyaes_reduced_0.85,0.997085,1,2000.000000,1,COMPLETED_SUCCESSFULLY,393.342094,0.320244,393.662338,392.345009,392.665253,1226.144993,5,-1.000000,""
70_updated,w0,python3action_videoprocessing_SampleVideo_50mb_taurus,0.997085,1,2000.000000,1,COMPLETED_SUCCESSFULLY,240.215023,154.250029,394.465052,239.217938,393.467967,2.550845,15,-1.000000,""
70,w0,python3action_videoprocessing_SampleVideo_50mb,0.000000,1,-1.000000,1,COMPLETED_SUCCESSFULLY,394.465067,0.000010,394.465077,394.465067,394.465077,39446507.700201,15,-1.000000,""
python3action_pyaes_job88_2,w0,python3action_pyaes,0.997085,1,2000.000000,1,COMPLETED_SUCCESSFULLY,393.341989,2.134958,395.476947,392.344904,394.479862,184.771700,3,-1.000000,""
62_updated,w0,python3action_facedetection_SampleVideo_30mb_nova,0.997085,1,2000.000000,1,COMPLETED_SUCCESSFULLY,241.877181,160.399990,402.277171,240.880096,401.280086,2.501746,28,-1.000000,""
62,w0,python3action_facedetection_SampleVideo_30mb,0.000000,1,-1.000000,1,COMPLETED_SUCCESSFULLY,402.277186,0.000010,402.277196,402.277186,402.277196,40227719.623506,28,-1.000000,""
60_updated,w0,python3action_facedetection_SampleVideo_50mb_taurus,0.997085,1,2000.000000,1,COMPLETED_SUCCESSFULLY,268.975875,134.600046,403.575921,267.978790,402.578836,2.990926,10,-1.000000,""
60,w0,python3action_facedetection_SampleVideo_50mb,0.000000,1,-1.000000,1,COMPLETED_SUCCESSFULLY,403.575936,0.000010,403.575946,403.575936,403.575946,40357594.627562,10,-1.000000,""
67_updated,w0,python3action_videoprocessing_SampleVideo_50mb_taurus,0.997085,1,2000.000000,1,COMPLETED_SUCCESSFULLY,249.946390,154.250029,404.196419,248.949305,403.199334,2.613934,13,-1.000000,""
67,w0,python3action_videoprocessing_SampleVideo_50mb,0.000000,1,-1.000000,1,COMPLETED_SUCCESSFULLY,404.196434,0.000010,404.196444,404.196434,404.196444,40419644.433214,13,-1.000000,""
75_updated,w0,python3action_chameleon_2000_troll,0.997085,1,2000.000000,1,COMPLETED_SUCCESSFULLY,382.769449,39.500010,422.269459,381.772364,421.272374,10.665121,19,-1.000000,""
75,w0,python3action_chameleon_2000,0.000000,1,-1.000000,1,COMPLETED_SUCCESSFULLY,422.269474,0.000010,422.269484,422.269474,422.269484,42226948.400201,19,-1.000000,""
128_updated,w0,python3action_linpack_6000_orion,0.997085,1,2000.000000,1,COMPLETED_SUCCESSFULLY,324.763267,106.000000,430.763267,323.766182,429.766182,4.054398,8,-1.000000,""
128,w0,python3action_linpack_6000,0.000000,1,-1.000000,1,COMPLETED_SUCCESSFULLY,430.763282,0.000010,430.763292,430.763282,430.763292,43076329.226484,8,-1.000000,""
134_updated,w0,python3action_linpack_6000_orion,0.997085,1,2000.000000,1,COMPLETED_SUCCESSFULLY,324.763327,106.000000,430.763327,323.766242,429.766242,4.054399,9,-1.000000,""
134,w0,python3action_linpack_6000,0.000000,1,-1.000000,1,COMPLETED_SUCCESSFULLY,430.763342,0.000010,430.763352,430.763342,430.763352,43076335.227287,9,-1.000000,""
85_updated,w0,python3action_imageprocessing_SampleImage_40mb_taurus,0.997085,1,2000.000000,1,COMPLETED_SUCCESSFULLY,403.575966,32.600046,436.176012,402.578881,435.178927,13.349028,10,-1.000000,""
85,w0,python3action_imageprocessing_SampleImage_40mb,0.000000,1,-1.000000,1,COMPLETED_SUCCESSFULLY,436.176027,0.000010,436.176037,436.176027,436.176037,43617603.741243,10,-1.000000,""
python3action_video_processing_job104_9,w0,python3action_video_processing_reduced_1.83,0.997085,1,2000.000000,1,COMPLETED_SUCCESSFULLY,436.176057,0.000000,436.176057,435.178972,435.178972,41834696422776.218750,10,-1.000000,""
92_updated,w0,python3action_imageprocessing_SampleImage_40mb_taurus,0.997085,1,2000.000000,1,COMPLETED_SUCCESSFULLY,404.196464,32.600046,436.796510,403.199379,435.799425,13.368062,13,-1.000000,""
92,w0,python3action_imageprocessing_SampleImage_40mb,0.000000,1,-1.000000,1,COMPLETED_SUCCESSFULLY,436.796525,0.000010,436.796535,436.796525,436.796535,43679653.546895,13,-1.000000,""
100_updated,w0,python3action_floatoperation_100000000_nova,0.997085,1,2000.000000,1,COMPLETED_SUCCESSFULLY,377.182078,66.200020,443.382098,376.184993,442.385013,6.682551,6,-1.000000,""
100,w0,python3action_floatoperation_100000000,0.000000,1,-1.000000,1,COMPLETED_SUCCESSFULLY,443.382113,0.000010,443.382123,443.382113,443.382123,44338212.300201,6,-1.000000,""
python3action_video_processing_job121_5,w0,python3action_video_processing_reduced_1.89,0.997085,1,2000.000000,1,COMPLETED_SUCCESSFULLY,443.382143,0.000000,443.382143,442.385058,442.385058,101071691476776.859375,6,-1.000000,""
109_updated,w0,python3action_floatoperation_100000000_nova,0.997085,1,2000.000000,1,COMPLETED_SUCCESSFULLY,384.742279,66.200020,450.942299,383.745194,449.945214,6.796753,29,-1.000000,""
109,w0,python3action_floatoperation_100000000,0.000000,1,-1.000000,1,COMPLETED_SUCCESSFULLY,450.942314,0.000010,450.942324,450.942314,450.942324,45094232.402410,29,-1.000000,""
71_updated,w0,python3action_facedetection_SampleVideo_30mb_nova,0.997085,1,2000.000000,1,COMPLETED_SUCCESSFULLY,291.341944,160.399990,451.741934,290.344859,450.744849,2.810130,4,-1.000000,""
71,w0,python3action_facedetection_SampleVideo_30mb,0.000000,1,-1.000000,1,COMPLETED_SUCCESSFULLY,451.741949,0.000010,451.741959,451.741949,451.741959,45174195.924309,4,-1.000000,""
86_updated,w0,python3action_imageprocessing_SampleImage_60mb_troll,0.997085,1,2000.000000,1,COMPLETED_SUCCESSFULLY,390.269549,62.000000,452.269549,389.272464,451.272464,7.278588,20,-1.000000,""
86,w0,python3action_imageprocessing_SampleImage_60mb,0.000000,1,-1.000000,1,COMPLETED_SUCCESSFULLY,452.269564,0.000010,452.269574,452.269564,452.269574,45226957.400803,20,-1.000000,""
106_updated,w0,python3action_pyaes_3000_nova,0.997085,1,2000.000000,1,COMPLETED_SUCCESSFULLY,383.277247,78.200020,461.477267,382.280162,460.480182,5.888492,26,-1.000000,""
106,w0,python3action_pyaes_3000,0.000000,1,-1.000000,1,COMPLETED_SUCCESSFULLY,461.477282,0.000010,461.477292,461.477282,461.477292,46147729.200201,26,-1.000000,""
python3action_video_processing_job126_20,w0,python3action_video_processing_reduced_1.89,0.997085,1,2000.000000,1,COMPLETED_SUCCESSFULLY,461.477312,0.000000,461.477312,460.480227,460.480227,105205893808635.937500,26,-1.000000,""
88_updated,w0,python3action_pyaes_3000_nova,0.997085,1,2000.000000,1,COMPLETED_SUCCESSFULLY,395.476962,78.200020,473.676982,394.479877,472.679897,6.044498,3,-1.000000,""
88,w0,python3action_pyaes_3000,0.000000,1,-1.000000,1,COMPLETED_SUCCESSFULLY,473.676997,0.000010,473.677007,473.676997,473.677007,47367700.700201,3,-1.000000,""
python3action_linpack_job113_2,w0,python3action_linpack_reduced_0.85,0.997085,1,2000.000000,1,COMPLETED_SUCCESSFULLY,473.677027,0.365992,474.043019,472.679942,473.045934,1292.504208,3,-1.000000,""
81_updated,w0,python3action_pyaes_3000_nova,0.997085,1,2000.000000,1,COMPLETED_SUCCESSFULLY,402.277216,78.200020,480.477236,401.280131,479.480151,6.131458,28,-1.000000,""
81,w0,python3action_pyaes_3000,0.000000,1,-1.000000,1,COMPLETED_SUCCESSFULLY,480.477251,0.000010,480.477261,480.477251,480.477261,48047726.100201,28,-1.000000,""
103_updated,w0,python3action_videoprocessing_SampleVideo_30mb_nova,0.997085,1,2000.000000,1,COMPLETED_SUCCESSFULLY,374.837106,106.799980,481.637086,373.840021,480.640001,4.500375,7,-1.000000,""
103,w0,python3action_videoprocessing_SampleVideo_30mb,0.000000,1,-1.000000,1,COMPLETED_SUCCESSFULLY,481.637101,0.000010,481.637111,481.637101,481.637111,48163711.147412,7,-1.000000,""
83_updated,w0,python3action_imageprocessing_SampleImage_60mb_troll,0.997085,1,2000.000000,1,COMPLETED_SUCCESSFULLY,422.269504,62.000000,484.269504,421.272419,483.272419,7.794716,19,-1.000000,""
83,w0,python3action_imageprocessing_SampleImage_60mb,0.000000,1,-1.000000,1,COMPLETED_SUCCESSFULLY,484.269519,0.000010,484.269529,484.269519,484.269529,48426952.900803,19,-1.000000,""
105_updated,w0,python3action_pyaes_4000_nova,0.997085,1,2000.000000,1,COMPLETED_SUCCESSFULLY,349.603268,139.600010,489.203278,348.606183,488.206193,3.497179,25,-1.000000,""
105,w0,python3action_pyaes_4000,0.000000,1,-1.000000,1,COMPLETED_SUCCESSFULLY,489.203293,0.000010,489.203303,489.203293,489.203303,48920330.325112,25,-1.000000,""
131_updated,w0,python3action_modeltraining_reviews50mb_nova,0.997085,1,2000.000000,1,COMPLETED_SUCCESSFULLY,450.942344,42.399990,493.342334,449.945259,492.345249,11.611919,29,-1.000000,""
131,w0,python3action_modeltraining_reviews50mb,0.000000,1,-1.000000,1,COMPLETED_SUCCESSFULLY,493.342349,0.000010,493.342359,493.342349,493.342359,49334235.926116,29,-1.000000,""
python3action_pyaes_job148_23,w0,python3action_pyaes,0.997085,1,2000.000000,1,COMPLETED_SUCCESSFULLY,493.342379,2.134958,495.477338,492.345294,494.480253,231.611206,29,-1.000000,""
87_updated,w0,python3action_pyaes_4000_nova,0.997085,1,2000.000000,1,COMPLETED_SUCCESSFULLY,358.276932,139.600010,497.876942,357.279847,496.879857,3.559311,2,-1.000000,""
87,w0,python3action_pyaes_4000,0.000000,1,-1.000000,1,COMPLETED_SUCCESSFULLY,497.876957,0.000010,497.876967,497.876957,497.876967,49787696.701005,2,-1.000000,""
113_updated,w0,python3action_linpack_5000_nova,0.997085,1,2000.000000,1,COMPLETED_SUCCESSFULLY,474.043034,34.600010,508.643044,473.045949,507.645959,14.671844,3,-1.000000,""
113,w0,python3action_linpack_5000,0.000000,1,-1.000000,1,COMPLETED_SUCCESSFULLY,508.643059,0.000010,508.643069,508.643059,508.643069,50864306.900201,3,-1.000000,""
68_updated,w0,python3action_videoprocessing_SampleVideo_50mb_taurus,0.997085,1,2000.000000,1,COMPLETED_SUCCESSFULLY,361.864945,154.250029,516.114974,360.867860,515.117889,3.339499,14,-1.000000,""
68,w0,python3action_videoprocessing_SampleVideo_50mb,0.000000,1,-1.000000,1,COMPLETED_SUCCESSFULLY,516.114989,0.000010,516.114999,516.114989,516.114999,51611499.915125,14,-1.000000,""
78_updated,w0,python3action_videoprocessing_SampleVideo_50mb_taurus,0.997085,1,2000.000000,1,COMPLETED_SUCCESSFULLY,361.865005,154.250029,516.115034,360.867920,515.117949,3.339500,16,-1.000000,""
78,w0,python3action_videoprocessing_SampleVideo_50mb,0.000000,1,-1.000000,1,COMPLETED_SUCCESSFULLY,516.115049,0.000010,516.115059,516.115049,516.115059,51611505.915929,16,-1.000000,""
123_updated,w0,python3action_modeltraining_reviews50mb_nova,0.997085,1,2000.000000,1,COMPLETED_SUCCESSFULLY,481.637131,42.399990,524.037122,480.640046,523.040037,12.335853,7,-1.000000,""
123,w0,python3action_modeltraining_reviews50mb,0.000000,1,-1.000000,1,COMPLETED_SUCCESSFULLY,524.037137,0.000010,524.037147,524.037137,524.037147,52403714.700201,7,-1.000000,""
94_updated,w0,python3action_facedetection_SampleVideo_50mb_taurus,0.997085,1,2000.000000,1,COMPLETED_SUCCESSFULLY,394.465097,134.600046,529.065143,393.468012,528.068058,3.923238,15,-1.000000,""
94,w0,python3action_facedetection_SampleVideo_50mb,0.000000,1,-1.000000,1,COMPLETED_SUCCESSFULLY,529.065158,0.000010,529.065168,529.065158,529.065168,52906516.813882,15,-1.000000,""
95_updated,w0,python3action_modeltraining_reviews100mb_nova,0.997085,1,2000.000000,1,COMPLETED_SUCCESSFULLY,451.741979,79.600010,531.341989,450.744894,530.344904,6.662624,4,-1.000000,""
95,w0,python3action_modeltraining_reviews100mb,0.000000,1,-1.000000,1,COMPLETED_SUCCESSFULLY,531.342004,0.000010,531.342014,531.342004,531.342014,53134201.401808,4,-1.000000,""
118_updated,w0,python3action_pyaes_4000_nova,0.997085,1,2000.000000,1,COMPLETED_SUCCESSFULLY,393.662353,139.600010,533.262363,392.665268,532.265278,3.812788,5,-1.000000,""
118,w0,python3action_pyaes_4000,0.000000,1,-1.000000,1,COMPLETED_SUCCESSFULLY,533.262378,0.000010,533.262388,533.262378,533.262388,53326238.800201,5,-1.000000,""
140_updated,w0,python3action_linpack_6000_orion,0.997085,1,2000.000000,1,COMPLETED_SUCCESSFULLY,430.763312,106.000000,536.763312,429.766227,535.766227,5.054398,8,-1.000000,""
140,w0,python3action_linpack_6000,0.000000,1,-1.000000,1,COMPLETED_SUCCESSFULLY,536.763327,0.000010,536.763337,536.763327,536.763337,53676333.727087,8,-1.000000,""
145_updated,w0,python3action_linpack_6000_orion,0.997085,1,2000.000000,1,COMPLETED_SUCCESSFULLY,430.763372,106.000000,536.763372,429.766287,535.766287,5.054399,9,-1.000000,""
145,w0,python3action_linpack_6000,0.000000,1,-1.000000,1,COMPLETED_SUCCESSFULLY,536.763387,0.000010,536.763397,536.763387,536.763397,53676339.727890,9,-1.000000,""
91_updated,w0,python3action_videoprocessing_SampleVideo_50mb_taurus,0.997085,1,2000.000000,1,COMPLETED_SUCCESSFULLY,384.546437,154.250029,538.796466,383.549352,537.799381,3.486543,11,-1.000000,""
91,w0,python3action_videoprocessing_SampleVideo_50mb,0.000000,1,-1.000000,1,COMPLETED_SUCCESSFULLY,538.796481,0.000010,538.796491,538.796481,538.796491,53879649.100201,11,-1.000000,""
80_updated,w0,python3action_facedetection_SampleVideo_30mb_nova,0.997085,1,2000.000000,1,COMPLETED_SUCCESSFULLY,379.037242,160.399990,539.437232,378.040157,538.440147,3.356859,27,-1.000000,""
80,w0,python3action_facedetection_SampleVideo_30mb,0.000000,1,-1.000000,1,COMPLETED_SUCCESSFULLY,539.437247,0.000010,539.437257,539.437247,539.437257,53943725.723907,27,-1.000000,""
python3action_linpack_job107_21,w0,python3action_linpack_reduced_0.85,0.997085,1,2000.000000,1,COMPLETED_SUCCESSFULLY,539.437277,0.365992,539.803269,538.440192,538.806184,1472.181051,27,-1.000000,""
112_updated,w0,python3action_modeltraining_reviews50mb_nova,0.997085,1,2000.000000,1,COMPLETED_SUCCESSFULLY,497.876987,42.399990,540.276977,496.879902,539.279892,12.718868,2,-1.000000,""
112,w0,python3action_modeltraining_reviews50mb,0.000000,1,-1.000000,1,COMPLETED_SUCCESSFULLY,540.276992,0.000010,540.277002,540.276992,540.277002,54027700.224711,2,-1.000000,""
89_updated,w0,python3action_imageprocessing_SampleImage_60mb_troll,0.997085,1,2000.000000,1,COMPLETED_SUCCESSFULLY,484.269549,62.000000,546.269549,483.272464,545.272464,8.794717,19,-1.000000,""
89,w0,python3action_imageprocessing_SampleImage_60mb,0.000000,1,-1.000000,1,COMPLETED_SUCCESSFULLY,546.269564,0.000010,546.269574,546.269564,546.269574,54626957.401406,19,-1.000000,""
90_updated,w0,python3action_chameleon_3000_troll,0.997085,1,2000.000000,1,COMPLETED_SUCCESSFULLY,452.269594,94.000000,546.269594,451.272509,545.272509,5.800771,20,-1.000000,""
90,w0,python3action_chameleon_3000,0.000000,1,-1.000000,1,COMPLETED_SUCCESSFULLY,546.269624,0.000010,546.269634,546.269624,546.269634,54626963.401808,20,-1.000000,""
133_updated,w0,python3action_imageprocessing_SampleImage_40mb_taurus,0.997085,1,2000.000000,1,COMPLETED_SUCCESSFULLY,529.065188,32.600046,561.665234,528.068103,560.668149,17.198385,15,-1.000000,""
133,w0,python3action_imageprocessing_SampleImage_40mb,0.000000,1,-1.000000,1,COMPLETED_SUCCESSFULLY,561.665249,0.000010,561.665259,561.665249,561.665259,56166525.927562,15,-1.000000,""
python3action_chameleon_job172_13,w0,python3action_chameleon,0.997085,1,2000.000000,1,COMPLETED_SUCCESSFULLY,561.665279,5.040826,566.706105,560.668194,565.709020,112.225466,15,-1.000000,""
126_updated,w0,python3action_videoprocessing_SampleVideo_30mb_nova,0.997085,1,2000.000000,1,COMPLETED_SUCCESSFULLY,461.477342,106.799980,568.277322,460.480257,567.280237,5.311614,26,-1.000000,""
126,w0,python3action_videoprocessing_SampleVideo_30mb,0.000000,1,-1.000000,1,COMPLETED_SUCCESSFULLY,568.277337,0.000010,568.277347,568.277337,568.277347,56827734.747412,26,-1.000000,""
116_updated,w0,python3action_facedetection_SampleVideo_50mb_taurus,0.997085,1,2000.000000,1,COMPLETED_SUCCESSFULLY,436.796555,134.600046,571.396602,435.799470,570.399517,4.237736,13,-1.000000,""
116,w0,python3action_facedetection_SampleVideo_50mb,0.000000,1,-1.000000,1,COMPLETED_SUCCESSFULLY,571.396617,0.000010,571.396627,571.396617,571.396627,57139662.700201,13,-1.000000,""
114_updated,w0,python3action_modeltraining_reviews50mb_nova,0.997085,1,2000.000000,1,COMPLETED_SUCCESSFULLY,531.342034,42.399990,573.742024,530.344949,572.744939,13.508138,4,-1.000000,""
114,w0,python3action_modeltraining_reviews50mb,0.000000,1,-1.000000,1,COMPLETED_SUCCESSFULLY,573.742039,0.000010,573.742049,573.742039,573.742049,57374204.925514,4,-1.000000,""
107_updated,w0,python3action_linpack_5000_nova,0.997085,1,2000.000000,1,COMPLETED_SUCCESSFULLY,539.803284,34.600010,574.403294,538.806199,573.406209,16.572429,27,-1.000000,""
107,w0,python3action_linpack_5000,0.000000,1,-1.000000,1,COMPLETED_SUCCESSFULLY,574.403309,0.000010,574.403319,574.403309,574.403319,57440331.900201,27,-1.000000,""
137_updated,w0,python3action_modeltraining_reviews50mb_nova,0.997085,1,2000.000000,1,COMPLETED_SUCCESSFULLY,533.262408,42.399990,575.662398,532.265323,574.665313,13.553430,5,-1.000000,""
137,w0,python3action_modeltraining_reviews50mb,0.000000,1,-1.000000,1,COMPLETED_SUCCESSFULLY,575.662413,0.000010,575.662423,575.662413,575.662423,57566242.323907,5,-1.000000,""
121_updated,w0,python3action_videoprocessing_SampleVideo_50mb_nova,0.997085,1,2000.000000,1,COMPLETED_SUCCESSFULLY,443.382173,139.600010,582.982183,442.385088,581.985098,4.168947,6,-1.000000,""
121,w0,python3action_videoprocessing_SampleVideo_50mb,0.000000,1,-1.000000,1,COMPLETED_SUCCESSFULLY,582.982198,0.000010,582.982208,582.982198,582.982208,58298220.800201,6,-1.000000,""
99_updated,w0,python3action_chameleon_2000_troll,0.997085,1,2000.000000,1,COMPLETED_SUCCESSFULLY,546.269654,39.500010,585.769664,545.272569,584.772579,14.804365,20,-1.000000,""
99,w0,python3action_chameleon_2000,0.000000,1,-1.000000,1,COMPLETED_SUCCESSFULLY,585.769679,0.000010,585.769689,585.769679,585.769689,58576968.900201,20,-1.000000,""
135_updated,w0,python3action_pyaes_3000_nova,0.997085,1,2000.000000,1,COMPLETED_SUCCESSFULLY,508.643089,78.200020,586.843109,507.646004,585.846024,7.491635,3,-1.000000,""
135,w0,python3action_pyaes_3000,0.000000,1,-1.000000,1,COMPLETED_SUCCESSFULLY,586.843124,0.000010,586.843134,586.843124,586.843134,58684313.400201,3,-1.000000,""
104_updated,w0,python3action_videoprocessing_SampleVideo_50mb_taurus,0.997085,1,2000.000000,1,COMPLETED_SUCCESSFULLY,436.176087,154.250029,590.426116,435.179002,589.429031,3.821257,10,-1.000000,""
104,w0,python3action_videoprocessing_SampleVideo_50mb,0.000000,1,-1.000000,1,COMPLETED_SUCCESSFULLY,590.426131,0.000010,590.426141,590.426131,590.426141,59042614.125421,10,-1.000000,""
166_updated,w0,python3action_imageprocessing_SampleImage_40mb_taurus,0.997085,1,2000.000000,1,COMPLETED_SUCCESSFULLY,571.396647,32.600046,603.996693,570.399562,602.999608,18.496894,13,-1.000000,""
166,w0,python3action_imageprocessing_SampleImage_40mb,0.000000,1,-1.000000,1,COMPLETED_SUCCESSFULLY,603.996708,0.000010,603.996718,603.996708,603.996718,60399671.813881,13,-1.000000,""
python3action_linpack_job191_11,w0,python3action_linpack,0.997085,1,2000.000000,1,COMPLETED_SUCCESSFULLY,603.996738,5.760927,609.757665,602.999653,608.760580,105.670590,13,-1.000000,""
132_updated,w0,python3action_modeltraining_reviews100mb_nova,0.997085,1,2000.000000,1,COMPLETED_SUCCESSFULLY,540.277022,79.600010,619.877032,539.279937,618.879947,7.774873,2,-1.000000,""
132,w0,python3action_modeltraining_reviews100mb,0.000000,1,-1.000000,1,COMPLETED_SUCCESSFULLY,619.877047,0.000010,619.877057,619.877047,619.877057,61987705.702209,2,-1.000000,""
python3action_video_processing_job149_1,w0,python3action_video_processing_reduced_0.97,0.997085,1,2000.000000,1,COMPLETED_SUCCESSFULLY,619.877077,0.000000,619.877077,618.879992,618.879992,139582717421667.843750,2,-1.000000,""
124_updated,w0,python3action_pyaes_4000_nova,0.997085,1,2000.000000,1,COMPLETED_SUCCESSFULLY,489.203323,139.600010,628.803333,488.206238,627.806248,4.497179,25,-1.000000,""
124,w0,python3action_pyaes_4000,0.000000,1,-1.000000,1,COMPLETED_SUCCESSFULLY,628.803348,0.000010,628.803358,628.803348,628.803358,62880335.802611,25,-1.000000,""
172_updated,w0,python3action_chameleon_2000_taurus,0.997085,1,2000.000000,1,COMPLETED_SUCCESSFULLY,566.706120,64.199977,630.906097,565.709035,629.909012,9.811670,15,-1.000000,""
172,w0,python3action_chameleon_2000,0.000000,1,-1.000000,1,COMPLETED_SUCCESSFULLY,630.906112,0.000010,630.906122,630.906112,630.906122,63090612.200201,15,-1.000000,""
148_updated,w0,python3action_pyaes_4000_nova,0.997085,1,2000.000000,1,COMPLETED_SUCCESSFULLY,495.477353,139.600010,635.077363,494.480268,634.080278,4.542122,29,-1.000000,""
148,w0,python3action_pyaes_4000,0.000000,1,-1.000000,1,COMPLETED_SUCCESSFULLY,635.077378,0.000010,635.077388,635.077378,635.077388,63507738.800201,29,-1.000000,""
98_updated,w0,python3action_chameleon_3000_troll,0.997085,1,2000.000000,1,COMPLETED_SUCCESSFULLY,546.269594,94.000000,640.269594,545.272509,639.272509,6.800771,19,-1.000000,""
98,w0,python3action_chameleon_3000,0.000000,1,-1.000000,1,COMPLETED_SUCCESSFULLY,640.269609,0.000010,640.269619,640.269609,640.269619,64026961.901607,19,-1.000000,""
108_updated,w0,python3action_facedetection_SampleVideo_30mb_nova,0.997085,1,2000.000000,1,COMPLETED_SUCCESSFULLY,480.477281,160.399990,640.877271,479.480196,639.880186,3.989278,28,-1.000000,""
108,w0,python3action_facedetection_SampleVideo_30mb,0.000000,1,-1.000000,1,COMPLETED_SUCCESSFULLY,640.877286,0.000010,640.877296,640.877286,640.877296,64087729.623907,28,-1.000000,""
python3action_modeltraining_job129_22,w0,python3action_modeltraining_reduced_0.94,0.997085,1,2000.000000,1,COMPLETED_SUCCESSFULLY,640.877316,0.000000,640.877316,639.880231,639.880231,13089409388573.380859,28,-1.000000,""
150_updated,w0,python3action_linpack_6000_orion,0.997085,1,2000.000000,1,COMPLETED_SUCCESSFULLY,536.763357,106.000000,642.763357,535.766272,641.766272,6.054399,8,-1.000000,""
150,w0,python3action_linpack_6000,0.000000,1,-1.000000,1,COMPLETED_SUCCESSFULLY,642.763372,0.000010,642.763382,642.763372,642.763382,64276338.227689,8,-1.000000,""
171_updated,w0,python3action_linpack_6000_orion,0.997085,1,2000.000000,1,COMPLETED_SUCCESSFULLY,536.763417,106.000000,642.763417,535.766332,641.766332,6.054399,9,-1.000000,""
171,w0,python3action_linpack_6000,0.000000,1,-1.000000,1,COMPLETED_SUCCESSFULLY,642.763432,0.000010,642.763442,642.763432,642.763442,64276344.228492,9,-1.000000,""
139_updated,w0,python3action_pyaes_4000_nova,0.997085,1,2000.000000,1,COMPLETED_SUCCESSFULLY,524.037167,139.600010,663.637177,523.040082,662.640092,4.746705,7,-1.000000,""
139,w0,python3action_pyaes_4000,0.000000,1,-1.000000,1,COMPLETED_SUCCESSFULLY,663.637192,0.000010,663.637202,663.637192,663.637202,66363720.200201,7,-1.000000,""
python3action_facedetection_job157_6,w0,python3action_facedetection_reduced_1.83,0.997085,1,2000.000000,1,COMPLETED_SUCCESSFULLY,663.637222,0.000000,663.637222,662.640137,662.640137,13554986710125.746094,7,-1.000000,""
151_updated,w0,python3action_pyaes_3000_nova,0.997085,1,2000.000000,1,COMPLETED_SUCCESSFULLY,586.843154,78.200020,665.043174,585.846069,664.046089,8.491636,3,-1.000000,""
151,w0,python3action_pyaes_3000,0.000000,1,-1.000000,1,COMPLETED_SUCCESSFULLY,665.043189,0.000010,665.043199,665.043189,665.043199,66504319.900201,3,-1.000000,""
93_updated,w0,python3action_videoprocessing_SampleVideo_50mb_taurus,0.997085,1,2000.000000,1,COMPLETED_SUCCESSFULLY,516.115019,154.250029,670.365048,515.117934,669.367963,4.339500,14,-1.000000,""
93,w0,python3action_videoprocessing_SampleVideo_50mb,0.000000,1,-1.000000,1,COMPLETED_SUCCESSFULLY,670.365063,0.000010,670.365073,670.365063,670.365073,67036507.300201,14,-1.000000,""
97_updated,w0,python3action_videoprocessing_SampleVideo_50mb_taurus,0.997085,1,2000.000000,1,COMPLETED_SUCCESSFULLY,516.115079,154.250029,670.365108,515.117994,669.368023,4.339500,16,-1.000000,""
97,w0,python3action_videoprocessing_SampleVideo_50mb,0.000000,1,-1.000000,1,COMPLETED_SUCCESSFULLY,670.365123,0.000010,670.365133,670.365123,670.365133,67036513.300201,16,-1.000000,""
111_updated,w0,python3action_chameleon_3000_troll,0.997085,1,2000.000000,1,COMPLETED_SUCCESSFULLY,585.769709,94.000000,679.769709,584.772624,678.772624,7.220985,20,-1.000000,""
111,w0,python3action_chameleon_3000,0.000000,1,-1.000000,1,COMPLETED_SUCCESSFULLY,679.769724,0.000010,679.769734,679.769724,679.769734,67976973.400803,20,-1.000000,""
129_updated,w0,python3action_modeltraining_reviews50mb_nova,0.997085,1,2000.000000,1,COMPLETED_SUCCESSFULLY,640.877346,42.399990,683.277336,639.880261,682.280251,16.091519,28,-1.000000,""
129,w0,python3action_modeltraining_reviews50mb,0.000000,1,-1.000000,1,COMPLETED_SUCCESSFULLY,683.277351,0.000010,683.277361,683.277351,683.277361,68327736.148014,28,-1.000000,""
110_updated,w0,python3action_videoprocessing_SampleVideo_50mb_taurus,0.997085,1,2000.000000,1,COMPLETED_SUCCESSFULLY,538.796511,154.250029,693.046540,537.799426,692.049455,4.486543,11,-1.000000,""
110,w0,python3action_videoprocessing_SampleVideo_50mb,0.000000,1,-1.000000,1,COMPLETED_SUCCESSFULLY,693.046555,0.000010,693.046565,693.046555,693.046565,69304656.500201,11,-1.000000,""
168_updated,w0,python3action_linpack_5000_nova,0.997085,1,2000.000000,1,COMPLETED_SUCCESSFULLY,665.043219,34.600010,699.643229,664.046134,698.646144,20.192079,3,-1.000000,""
168,w0,python3action_linpack_5000,0.000000,1,-1.000000,1,COMPLETED_SUCCESSFULLY,699.643244,0.000010,699.643254,699.643244,699.643254,69964325.400201,3,-1.000000,""
102_updated,w0,python3action_imageprocessing_SampleImage_60mb_troll,0.997085,1,2000.000000,1,COMPLETED_SUCCESSFULLY,640.269639,62.000000,702.269639,639.272554,701.272554,11.310848,19,-1.000000,""
102,w0,python3action_imageprocessing_SampleImage_60mb,0.000000,1,-1.000000,1,COMPLETED_SUCCESSFULLY,702.269654,0.000010,702.269664,702.269654,702.269664,70226966.402209,19,-1.000000,""
141_updated,w0,python3action_pyaes_3000_nova,0.997085,1,2000.000000,1,COMPLETED_SUCCESSFULLY,628.803378,78.200020,707.003398,627.806293,706.006313,9.028211,25,-1.000000,""
141,w0,python3action_pyaes_3000,0.000000,1,-1.000000,1,COMPLETED_SUCCESSFULLY,707.003413,0.000010,707.003423,707.003413,707.003423,70700342.300201,25,-1.000000,""
136_updated,w0,python3action_floatoperation_200000000_nova,0.997085,1,2000.000000,1,COMPLETED_SUCCESSFULLY,573.742069,135.399990,709.142059,572.744984,708.144974,5.230022,4,-1.000000,""
136,w0,python3action_floatoperation_200000000,0.000000,1,-1.000000,1,COMPLETED_SUCCESSFULLY,709.142074,0.000010,709.142084,709.142074,709.142084,70914208.449220,4,-1.000000,""
python3action_floatoperation_job158_19,w0,python3action_floatoperation,0.997085,1,2000.000000,1,COMPLETED_SUCCESSFULLY,707.003443,2.439945,709.443388,706.006358,708.446303,290.353356,25,-1.000000,""
154_updated,w0,python3action_pyaes_4000_nova,0.997085,1,2000.000000,1,COMPLETED_SUCCESSFULLY,575.662443,139.600010,715.262453,574.665358,714.265368,5.116514,5,-1.000000,""
154,w0,python3action_pyaes_4000,0.000000,1,-1.000000,1,COMPLETED_SUCCESSFULLY,715.262468,0.000010,715.262478,715.262468,715.262478,71526247.801405,5,-1.000000,""
python3action_floatoperation_job173_4,w0,python3action_floatoperation,0.997085,1,2000.000000,1,COMPLETED_SUCCESSFULLY,715.262498,2.439945,717.702443,714.265413,716.705358,293.738290,5,-1.000000,""
138_updated,w0,python3action_floatoperation_200000000_nova,0.997085,1,2000.000000,1,COMPLETED_SUCCESSFULLY,582.982228,135.399990,718.382218,581.985143,717.385133,5.298266,6,-1.000000,""
138,w0,python3action_floatoperation_200000000,0.000000,1,-1.000000,1,COMPLETED_SUCCESSFULLY,718.382233,0.000010,718.382243,718.382233,718.382243,71838224.323907,6,-1.000000,""
146_updated,w0,python3action_modeltraining_reviews50mb_nova,0.997085,1,2000.000000,1,COMPLETED_SUCCESSFULLY,683.277381,42.399990,725.677372,682.280296,724.680287,17.091520,28,-1.000000,""
146,w0,python3action_modeltraining_reviews50mb,0.000000,1,-1.000000,1,COMPLETED_SUCCESSFULLY,725.677387,0.000010,725.677397,725.677387,725.677397,72567739.700201,28,-1.000000,""
149_updated,w0,python3action_videoprocessing_SampleVideo_30mb_nova,0.997085,1,2000.000000,1,COMPLETED_SUCCESSFULLY,619.877107,106.799980,726.677087,618.880022,725.680002,6.794758,2,-1.000000,""
149,w0,python3action_videoprocessing_SampleVideo_30mb,0.000000,1,-1.000000,1,COMPLETED_SUCCESSFULLY,726.677102,0.000010,726.677112,726.677102,726.677112,72667711.249420,2,-1.000000,""
python3action_linpack_job167_1,w0,python3action_linpack_reduced_0.85,0.997085,1,2000.000000,1,COMPLETED_SUCCESSFULLY,726.677132,0.365992,727.043124,725.680047,726.046039,1983.776825,2,-1.000000,""
142_updated,w0,python3action_facedetection_SampleVideo_30mb_nova,0.997085,1,2000.000000,1,COMPLETED_SUCCESSFULLY,568.277367,160.399990,728.677358,567.280282,727.680273,4.536660,26,-1.000000,""
142,w0,python3action_facedetection_SampleVideo_30mb,0.000000,1,-1.000000,1,COMPLETED_SUCCESSFULLY,728.677373,0.000010,728.677383,728.677373,728.677383,72867738.300201,26,-1.000000,""
188_updated,w0,python3action_linpack_5000_nova,0.997085,1,2000.000000,1,COMPLETED_SUCCESSFULLY,699.643274,34.600010,734.243284,698.646189,733.246199,21.192081,3,-1.000000,""
188,w0,python3action_linpack_5000,0.000000,1,-1.000000,1,COMPLETED_SUCCESSFULLY,734.243299,0.000010,734.243309,734.243299,734.243309,73424330.900201,3,-1.000000,""
127_updated,w0,python3action_facedetection_SampleVideo_30mb_nova,0.997085,1,2000.000000,1,COMPLETED_SUCCESSFULLY,574.403339,160.399990,734.803329,573.406254,733.806244,4.574852,27,-1.000000,""
127,w0,python3action_facedetection_SampleVideo_30mb,0.000000,1,-1.000000,1,COMPLETED_SUCCESSFULLY,734.803344,0.000010,734.803354,734.803344,734.803354,73480335.423907,27,-1.000000,""
119_updated,w0,python3action_chameleon_2000_troll,0.997085,1,2000.000000,1,COMPLETED_SUCCESSFULLY,702.269684,39.500010,741.769694,701.272599,740.772609,18.753732,19,-1.000000,""
119,w0,python3action_chameleon_2000,0.000000,1,-1.000000,1,COMPLETED_SUCCESSFULLY,741.769709,0.000010,741.769719,741.769709,741.769719,74176971.900201,19,-1.000000,""
125_updated,w0,python3action_imageprocessing_SampleImage_60mb_troll,0.997085,1,2000.000000,1,COMPLETED_SUCCESSFULLY,679.769754,62.000000,741.769754,678.772669,740.772669,11.947946,20,-1.000000,""
125,w0,python3action_imageprocessing_SampleImage_60mb,0.000000,1,-1.000000,1,COMPLETED_SUCCESSFULLY,741.769769,0.000010,741.769779,741.769769,741.769779,74176977.901004,20,-1.000000,""
162_updated,w0,python3action_linpack_6000_taurus,0.997085,1,2000.000000,1,COMPLETED_SUCCESSFULLY,590.426161,157.600046,748.026207,589.429076,747.029122,4.740031,10,-1.000000,""
162,w0,python3action_linpack_6000,0.000000,1,-1.000000,1,COMPLETED_SUCCESSFULLY,748.026222,0.000010,748.026232,748.026222,748.026232,74802623.239101,10,-1.000000,""
174_updated,w0,python3action_linpack_6000_orion,0.997085,1,2000.000000,1,COMPLETED_SUCCESSFULLY,642.763402,106.000000,748.763402,641.766317,747.766317,7.054399,8,-1.000000,""
174,w0,python3action_linpack_6000,0.000000,1,-1.000000,1,COMPLETED_SUCCESSFULLY,748.763417,0.000010,748.763427,748.763417,748.763427,74876342.728291,8,-1.000000,""
179_updated,w0,python3action_linpack_6000_orion,0.997085,1,2000.000000,1,COMPLETED_SUCCESSFULLY,642.763462,106.000000,748.763462,641.766377,747.766377,7.054400,9,-1.000000,""
179,w0,python3action_linpack_6000,0.000000,1,-1.000000,1,COMPLETED_SUCCESSFULLY,748.763477,0.000010,748.763487,748.763477,748.763487,74876348.729094,9,-1.000000,""
153_updated,w0,python3action_modeltraining_reviews50mb_nova,0.997085,1,2000.000000,1,COMPLETED_SUCCESSFULLY,709.142104,42.399990,751.542095,708.145019,750.545010,17.701537,4,-1.000000,""
153,w0,python3action_modeltraining_reviews50mb,0.000000,1,-1.000000,1,COMPLETED_SUCCESSFULLY,751.542110,0.000010,751.542120,751.542110,751.542120,75154212.000201,4,-1.000000,""
python3action_pyaes_job169_3,w0,python3action_pyaes,0.997085,1,2000.000000,1,COMPLETED_SUCCESSFULLY,751.542140,2.134958,753.677098,750.545055,752.680013,352.550228,4,-1.000000,""
155_updated,w0,python3action_modeltraining_reviews50mb_nova,0.997085,1,2000.000000,1,COMPLETED_SUCCESSFULLY,718.382263,42.399990,760.782253,717.385178,759.785168,17.919466,6,-1.000000,""
155,w0,python3action_modeltraining_reviews50mb,0.000000,1,-1.000000,1,COMPLETED_SUCCESSFULLY,760.782268,0.000010,760.782278,760.782268,760.782278,76078227.847613,6,-1.000000,""
167_updated,w0,python3action_linpack_5000_nova,0.997085,1,2000.000000,1,COMPLETED_SUCCESSFULLY,727.043139,34.600010,761.643149,726.046054,760.646064,21.983984,2,-1.000000,""
167,w0,python3action_linpack_5000,0.000000,1,-1.000000,1,COMPLETED_SUCCESSFULLY,761.643164,0.000010,761.643174,761.643164,761.643174,76164317.406527,2,-1.000000,""
194_updated,w0,python3action_facedetection_SampleVideo_50mb_taurus,0.997085,1,2000.000000,1,COMPLETED_SUCCESSFULLY,630.906142,134.600046,765.506188,629.909057,764.509103,5.679858,15,-1.000000,""
194,w0,python3action_facedetection_SampleVideo_50mb,0.000000,1,-1.000000,1,COMPLETED_SUCCESSFULLY,765.506203,0.000010,765.506213,765.506203,765.506213,76550621.313881,15,-1.000000,""
191_updated,w0,python3action_linpack_6000_taurus,0.997085,1,2000.000000,1,COMPLETED_SUCCESSFULLY,609.757680,157.600046,767.357727,608.760595,766.360642,4.862693,13,-1.000000,""
191,w0,python3action_linpack_6000,0.000000,1,-1.000000,1,COMPLETED_SUCCESSFULLY,767.357742,0.000010,767.357752,767.357742,767.357752,76735775.200201,13,-1.000000,""
165_updated,w0,python3action_pyaes_4000_nova,0.997085,1,2000.000000,1,COMPLETED_SUCCESSFULLY,635.077408,139.600010,774.677418,634.080323,773.680333,5.542122,29,-1.000000,""
165,w0,python3action_pyaes_4000,0.000000,1,-1.000000,1,COMPLETED_SUCCESSFULLY,774.677433,0.000010,774.677443,774.677433,774.677443,77467744.300201,29,-1.000000,""
173_updated,w0,python3action_floatoperation_100000000_nova,0.997085,1,2000.000000,1,COMPLETED_SUCCESSFULLY,717.702458,66.200020,783.902478,716.705373,782.905393,11.826362,5,-1.000000,""
173,w0,python3action_floatoperation_100000000,0.000000,1,-1.000000,1,COMPLETED_SUCCESSFULLY,783.902493,0.000010,783.902503,783.902493,783.902503,78390250.300201,5,-1.000000,""
130_updated,w0,python3action_imageprocessing_SampleImage_60mb_troll,0.997085,1,2000.000000,1,COMPLETED_SUCCESSFULLY,741.769739,62.000000,803.769739,740.772654,802.772654,12.947946,19,-1.000000,""
130,w0,python3action_imageprocessing_SampleImage_60mb,0.000000,1,-1.000000,1,COMPLETED_SUCCESSFULLY,803.769754,0.000010,803.769764,803.769754,803.769764,80376976.400803,19,-1.000000,""
143_updated,w0,python3action_imageprocessing_SampleImage_60mb_troll,0.997085,1,2000.000000,1,COMPLETED_SUCCESSFULLY,741.769799,62.000000,803.769799,740.772714,802.772714,12.947947,20,-1.000000,""
143,w0,python3action_imageprocessing_SampleImage_60mb,0.000000,1,-1.000000,1,COMPLETED_SUCCESSFULLY,803.769814,0.000010,803.769824,803.769814,803.769824,80376982.401606,20,-1.000000,""
187_updated,w0,python3action_modeltraining_reviews50mb_nova,0.997085,1,2000.000000,1,COMPLETED_SUCCESSFULLY,761.643194,42.399990,804.043184,760.646109,803.046099,18.939771,2,-1.000000,""
187,w0,python3action_modeltraining_reviews50mb,0.000000,1,-1.000000,1,COMPLETED_SUCCESSFULLY,804.043199,0.000010,804.043209,804.043199,804.043209,80404320.930233,2,-1.000000,""
160_updated,w0,python3action_facedetection_SampleVideo_50mb_taurus,0.997085,1,2000.000000,1,COMPLETED_SUCCESSFULLY,670.365153,134.600046,804.965199,669.368068,803.968114,5.973015,16,-1.000000,""
160,w0,python3action_facedetection_SampleVideo_50mb,0.000000,1,-1.000000,1,COMPLETED_SUCCESSFULLY,804.965214,0.000010,804.965224,804.965214,804.965224,80496522.413881,16,-1.000000,""
163_updated,w0,python3action_modeltraining_reviews100mb_nova,0.997085,1,2000.000000,1,COMPLETED_SUCCESSFULLY,725.677417,79.600010,805.277427,724.680332,804.280342,10.104023,28,-1.000000,""
163,w0,python3action_modeltraining_reviews100mb,0.000000,1,-1.000000,1,COMPLETED_SUCCESSFULLY,805.277442,0.000010,805.277452,805.277442,805.277452,80527745.200201,28,-1.000000,""
144_updated,w0,python3action_pyaes_3000_nova,0.997085,1,2000.000000,1,COMPLETED_SUCCESSFULLY,734.803374,78.200020,813.003394,733.806289,812.006309,10.383710,27,-1.000000,""
144,w0,python3action_pyaes_3000,0.000000,1,-1.000000,1,COMPLETED_SUCCESSFULLY,813.003409,0.000010,813.003419,813.003409,813.003419,81300341.900201,27,-1.000000,""
192_updated,w0,python3action_linpack_5000_nova,0.997085,1,2000.000000,1,COMPLETED_SUCCESSFULLY,783.902523,34.600010,818.502533,782.905438,817.505448,23.627318,5,-1.000000,""
192,w0,python3action_linpack_5000,0.000000,1,-1.000000,1,COMPLETED_SUCCESSFULLY,818.502548,0.000010,818.502558,818.502548,818.502558,81850255.800201,5,-1.000000,""
157_updated,w0,python3action_facedetection_SampleVideo_30mb_nova,0.997085,1,2000.000000,1,COMPLETED_SUCCESSFULLY,663.637252,160.399990,824.037242,662.640167,823.040157,5.131173,7,-1.000000,""
157,w0,python3action_facedetection_SampleVideo_30mb,0.000000,1,-1.000000,1,COMPLETED_SUCCESSFULLY,824.037257,0.000010,824.037267,824.037257,824.037267,82403726.724308,7,-1.000000,""
120_updated,w0,python3action_videoprocessing_SampleVideo_50mb_taurus,0.997085,1,2000.000000,1,COMPLETED_SUCCESSFULLY,670.365093,154.250029,824.615122,669.368008,823.618037,5.339500,14,-1.000000,""
120,w0,python3action_videoprocessing_SampleVideo_50mb,0.000000,1,-1.000000,1,COMPLETED_SUCCESSFULLY,824.615137,0.000010,824.615147,824.615137,824.615147,82461514.700201,14,-1.000000,""
169_updated,w0,python3action_pyaes_3000_nova,0.997085,1,2000.000000,1,COMPLETED_SUCCESSFULLY,753.677113,78.200020,831.877133,752.680028,830.880048,10.625062,4,-1.000000,""
169,w0,python3action_pyaes_3000,0.000000,1,-1.000000,1,COMPLETED_SUCCESSFULLY,831.877148,0.000010,831.877158,831.877148,831.877158,83187715.800201,4,-1.000000,""
147_updated,w0,python3action_chameleon_2000_troll,0.997085,1,2000.000000,1,COMPLETED_SUCCESSFULLY,803.769784,39.500010,843.269794,802.772699,842.272709,21.323354,19,-1.000000,""
147,w0,python3action_chameleon_2000,0.000000,1,-1.000000,1,COMPLETED_SUCCESSFULLY,843.269809,0.000010,843.269819,843.269809,843.269819,84326981.900201,19,-1.000000,""
158_updated,w0,python3action_floatoperation_200000000_nova,0.997085,1,2000.000000,1,COMPLETED_SUCCESSFULLY,709.443403,135.399990,844.843394,708.446318,843.846309,6.232248,25,-1.000000,""
158,w0,python3action_floatoperation_200000000,0.000000,1,-1.000000,1,COMPLETED_SUCCESSFULLY,844.843409,0.000010,844.843419,844.843409,844.843419,84484341.900201,25,-1.000000,""
164_updated,w0,python3action_videoprocessing_SampleVideo_50mb_taurus,0.997085,1,2000.000000,1,COMPLETED_SUCCESSFULLY,693.046585,154.250029,847.296614,692.049500,846.299529,5.486544,11,-1.000000,""
164,w0,python3action_videoprocessing_SampleVideo_50mb,0.000000,1,-1.000000,1,COMPLETED_SUCCESSFULLY,847.296629,0.000010,847.296639,847.296629,847.296639,84729663.900201,11,-1.000000,""
185_updated,w0,python3action_pyaes_3000_nova,0.997085,1,2000.000000,1,COMPLETED_SUCCESSFULLY,774.677463,78.200020,852.877483,773.680378,851.880398,10.893609,29,-1.000000,""
185,w0,python3action_pyaes_3000,0.000000,1,-1.000000,1,COMPLETED_SUCCESSFULLY,852.877498,0.000010,852.877508,852.877498,852.877508,85287750.800201,29,-1.000000,""
181_updated,w0,python3action_linpack_6000_orion,0.997085,1,2000.000000,1,COMPLETED_SUCCESSFULLY,748.763447,106.000000,854.763447,747.766362,853.766362,8.054400,8,-1.000000,""
181,w0,python3action_linpack_6000,0.000000,1,-1.000000,1,COMPLETED_SUCCESSFULLY,854.763462,0.000010,854.763472,854.763462,854.763472,85476347.228893,8,-1.000000,""
189_updated,w0,python3action_linpack_6000_orion,0.997085,1,2000.000000,1,COMPLETED_SUCCESSFULLY,748.763507,106.000000,854.763507,747.766422,853.766422,8.054400,9,-1.000000,""
189,w0,python3action_linpack_6000,0.000000,1,-1.000000,1,COMPLETED_SUCCESSFULLY,854.763522,0.000010,854.763532,854.763522,854.763532,85476353.229697,9,-1.000000,""
159_updated,w0,python3action_floatoperation_200000000_nova,0.997085,1,2000.000000,1,COMPLETED_SUCCESSFULLY,728.677403,135.399990,864.077393,727.680318,863.080308,6.374301,26,-1.000000,""
159,w0,python3action_floatoperation_200000000,0.000000,1,-1.000000,1,COMPLETED_SUCCESSFULLY,864.077408,0.000010,864.077418,864.077408,864.077418,86407741.823907,26,-1.000000,""
152_updated,w0,python3action_imageprocessing_SampleImage_60mb_troll,0.997085,1,2000.000000,1,COMPLETED_SUCCESSFULLY,803.769844,62.000000,865.769844,802.772759,864.772759,13.947948,20,-1.000000,""
152,w0,python3action_imageprocessing_SampleImage_60mb,0.000000,1,-1.000000,1,COMPLETED_SUCCESSFULLY,865.769859,0.000010,865.769869,865.769859,865.769869,86576986.902209,20,-1.000000,""
176_updated,w0,python3action_videoprocessing_SampleVideo_30mb_nova,0.997085,1,2000.000000,1,COMPLETED_SUCCESSFULLY,760.782298,106.799980,867.582279,759.785213,866.585194,8.114095,6,-1.000000,""
176,w0,python3action_videoprocessing_SampleVideo_30mb,0.000000,1,-1.000000,1,COMPLETED_SUCCESSFULLY,867.582294,0.000010,867.582304,867.582294,867.582304,86758230.400201,6,-1.000000,""
186_updated,w0,python3action_imageprocessing_SampleImage_40mb_taurus,0.997085,1,2000.000000,1,COMPLETED_SUCCESSFULLY,847.296659,32.600046,879.896705,846.299574,878.899620,26.960073,11,-1.000000,""
186,w0,python3action_imageprocessing_SampleImage_40mb,0.000000,1,-1.000000,1,COMPLETED_SUCCESSFULLY,879.896720,0.000010,879.896730,879.896720,879.896730,87989673.013881,11,-1.000000,""
156_updated,w0,python3action_chameleon_2000_troll,0.997085,1,2000.000000,1,COMPLETED_SUCCESSFULLY,843.269839,39.500010,882.769849,842.272754,881.772764,22.323356,19,-1.000000,""
156,w0,python3action_chameleon_2000,0.000000,1,-1.000000,1,COMPLETED_SUCCESSFULLY,882.769864,0.000010,882.769874,882.769864,882.769874,88276987.400201,19,-1.000000,""
184_updated,w0,python3action_modeltraining_reviews100mb_nova,0.997085,1,2000.000000,1,COMPLETED_SUCCESSFULLY,805.277472,79.600010,884.877482,804.280387,883.880397,11.104024,28,-1.000000,""
184,w0,python3action_modeltraining_reviews100mb,0.000000,1,-1.000000,1,COMPLETED_SUCCESSFULLY,884.877497,0.000010,884.877507,884.877497,884.877507,88487750.700201,28,-1.000000,""
183_updated,w0,python3action_videoprocessing_SampleVideo_50mb_taurus,0.997085,1,2000.000000,1,COMPLETED_SUCCESSFULLY,748.026252,154.250029,902.276281,747.029167,901.279196,5.842976,10,-1.000000,""
183,w0,python3action_videoprocessing_SampleVideo_50mb,0.000000,1,-1.000000,1,COMPLETED_SUCCESSFULLY,902.276296,0.000010,902.276306,902.276296,902.276306,90227630.622877,10,-1.000000,""
190_updated,w0,python3action_pyaes_3000_nova,0.997085,1,2000.000000,1,COMPLETED_SUCCESSFULLY,831.877178,78.200020,910.077198,830.880093,909.080113,11.625062,4,-1.000000,""
190,w0,python3action_pyaes_3000,0.000000,1,-1.000000,1,COMPLETED_SUCCESSFULLY,910.077213,0.000010,910.077223,910.077213,910.077223,91007722.300201,4,-1.000000,""
180_updated,w0,python3action_modeltraining_reviews100mb_nova,0.997085,1,2000.000000,1,COMPLETED_SUCCESSFULLY,864.077438,79.600010,943.677448,863.080353,942.680363,11.842717,26,-1.000000,""
180,w0,python3action_modeltraining_reviews100mb,0.000000,1,-1.000000,1,COMPLETED_SUCCESSFULLY,943.677463,0.000010,943.677473,943.677463,943.677473,94367747.301405,26,-1.000000,""
197_updated,w0,python3action_modeltraining_reviews100mb_nova,0.997085,1,2000.000000,1,COMPLETED_SUCCESSFULLY,867.582324,79.600010,947.182334,866.585239,946.185249,11.886748,6,-1.000000,""
197,w0,python3action_modeltraining_reviews100mb,0.000000,1,-1.000000,1,COMPLETED_SUCCESSFULLY,947.182349,0.000010,947.182359,947.182349,947.182359,94718235.900201,6,-1.000000,""
170_updated,w0,python3action_facedetection_SampleVideo_50mb_taurus,0.997085,1,2000.000000,1,COMPLETED_SUCCESSFULLY,824.615167,134.600046,959.215213,823.618082,958.218128,7.119003,14,-1.000000,""
170,w0,python3action_facedetection_SampleVideo_50mb,0.000000,1,-1.000000,1,COMPLETED_SUCCESSFULLY,959.215228,0.000010,959.215238,959.215228,959.215238,95921523.813881,14,-1.000000,""
175_updated,w0,python3action_videoprocessing_SampleVideo_50mb_taurus,0.997085,1,2000.000000,1,COMPLETED_SUCCESSFULLY,804.965244,154.250029,959.215273,803.968159,958.218188,6.212110,16,-1.000000,""
175,w0,python3action_videoprocessing_SampleVideo_50mb,0.000000,1,-1.000000,1,COMPLETED_SUCCESSFULLY,959.215288,0.000010,959.215298,959.215288,959.215298,95921529.800201,16,-1.000000,""
161_updated,w0,python3action_facedetection_SampleVideo_30mb_nova,0.997085,1,2000.000000,1,COMPLETED_SUCCESSFULLY,813.003439,160.399990,973.403429,812.006354,972.406344,6.062384,27,-1.000000,""
161,w0,python3action_facedetection_SampleVideo_30mb,0.000000,1,-1.000000,1,COMPLETED_SUCCESSFULLY,973.403444,0.000010,973.403454,973.403444,973.403454,97340345.423907,27,-1.000000,""
python3action_floatoperation_job182_21,w0,python3action_floatoperation,0.997085,1,2000.000000,1,COMPLETED_SUCCESSFULLY,973.403474,2.439945,975.843420,972.406389,974.846335,399.536144,27,-1.000000,""
177_updated,w0,python3action_facedetection_SampleVideo_30mb_nova,0.997085,1,2000.000000,1,COMPLETED_SUCCESSFULLY,824.037287,160.399990,984.437277,823.040202,983.440192,6.131174,7,-1.000000,""
177,w0,python3action_facedetection_SampleVideo_30mb,0.000000,1,-1.000000,1,COMPLETED_SUCCESSFULLY,984.437292,0.000010,984.437302,984.437292,984.437302,98443730.248014,7,-1.000000,""
178_updated,w0,python3action_pyaes_4000_nova,0.997085,1,2000.000000,1,COMPLETED_SUCCESSFULLY,844.843439,139.600010,984.443449,843.846354,983.446364,7.044744,25,-1.000000,""
178,w0,python3action_pyaes_4000,0.000000,1,-1.000000,1,COMPLETED_SUCCESSFULLY,984.443464,0.000010,984.443474,984.443464,984.443474,98444347.400201,25,-1.000000,""
199_updated,w0,python3action_floatoperation_100000000_nova,0.997085,1,2000.000000,1,COMPLETED_SUCCESSFULLY,984.443494,66.200020,1050.643514,983.446409,1049.646429,15.855682,25,-1.000000,""
199,w0,python3action_floatoperation_100000000,0.000000,1,-1.000000,1,COMPLETED_SUCCESSFULLY,1050.643529,0.000010,1050.643539,1050.643529,1050.643539,105064353.900201,25,-1.000000,""
195_updated,w0,python3action_facedetection_SampleVideo_50mb_taurus,0.997085,1,2000.000000,1,COMPLETED_SUCCESSFULLY,959.215318,134.600046,1093.815364,958.218233,1092.818279,8.119004,16,-1.000000,""
195,w0,python3action_facedetection_SampleVideo_50mb,0.000000,1,-1.000000,1,COMPLETED_SUCCESSFULLY,1093.815379,0.000010,1093.815389,1093.815379,1093.815389,109381538.913881,16,-1.000000,""
182_updated,w0,python3action_floatoperation_200000000_nova,0.997085,1,2000.000000,1,COMPLETED_SUCCESSFULLY,975.843435,135.399990,1111.243425,974.846350,1110.246340,8.199752,27,-1.000000,""
182,w0,python3action_floatoperation_200000000,0.000000,1,-1.000000,1,COMPLETED_SUCCESSFULLY,1111.243440,0.000010,1111.243450,1111.243440,1111.243450,111124345.023505,27,-1.000000,""
193_updated,w0,python3action_videoprocessing_SampleVideo_50mb_taurus,0.997085,1,2000.000000,1,COMPLETED_SUCCESSFULLY,959.215258,154.250029,1113.465287,958.218173,1112.468202,7.212110,14,-1.000000,""
193,w0,python3action_videoprocessing_SampleVideo_50mb,0.000000,1,-1.000000,1,COMPLETED_SUCCESSFULLY,1113.465302,0.000010,1113.465312,1113.465302,1113.465312,111346531.200201,14,-1.000000,""
198_updated,w0,python3action_pyaes_4000_nova,0.997085,1,2000.000000,1,COMPLETED_SUCCESSFULLY,984.437322,139.600010,1124.037332,983.440237,1123.040247,8.044700,7,-1.000000,""
198,w0,python3action_pyaes_4000,0.000000,1,-1.000000,1,COMPLETED_SUCCESSFULLY,1124.037347,0.000010,1124.037357,1124.037347,1124.037357,112403735.725513,7,-1.000000,""
