job_id,workload_name,profile,submission_time,requested_number_of_resources,requested_time,success,final_state,starting_time,execution_time,finish_time,waiting_time,turnaround_time,stretch,allocated_resources,consumed_energy,metadata
python3action_pyaes_job24_5,w0,python3action_pyaes,0.997085,1,2000.000000,1,COMPLETED_SUCCESSFULLY,1.002175,2.134958,3.137133,0.005090,2.140048,1.002384,7,-1.000000,""
python3action_floatoperation_job10_1,w0,python3action_floatoperation,0.997085,1,2000.000000,1,COMPLETED_SUCCESSFULLY,1.002115,2.439945,3.442060,0.005030,2.444975,1.002062,3,-1.000000,""
python3action_linpack_job12_2,w0,python3action_linpack,0.997085,1,2000.000000,1,COMPLETED_SUCCESSFULLY,1.002130,2.439945,3.442075,0.005045,2.444990,1.002068,4,-1.000000,""
python3action_linpack_job29_18,w0,python3action_linpack,0.997085,1,2000.000000,1,COMPLETED_SUCCESSFULLY,1.002370,2.439945,3.442315,0.005285,2.445230,1.002166,27,-1.000000,""
python3action_chameleon_job3_9,w0,python3action_chameleon,0.997085,1,2000.000000,1,COMPLETED_SUCCESSFULLY,1.002235,5.040826,6.043061,0.005150,5.045976,1.001022,11,-1.000000,""
python3action_chameleon_job8_13,w0,python3action_chameleon,0.997085,1,2000.000000,1,COMPLETED_SUCCESSFULLY,1.002295,5.040826,6.043121,0.005210,5.046036,1.001034,16,-1.000000,""
python3action_linpack_job6_6,w0,python3action_linpack,0.997085,1,2000.000000,1,COMPLETED_SUCCESSFULLY,1.002190,5.760927,6.763117,0.005105,5.766032,1.000886,8,-1.000000,""
python3action_linpack_job9_7,w0,python3action_linpack,0.997085,1,2000.000000,1,COMPLETED_SUCCESSFULLY,1.002205,5.760927,6.763132,0.005120,5.766047,1.000889,9,-1.000000,""
python3action_image_processing_job2_14,w0,python3action_image_processing,0.997085,1,2000.000000,1,COMPLETED_SUCCESSFULLY,1.002310,12.398880,13.401190,0.005225,12.404105,1.000421,19,-1.000000,""
python3action_image_processing_job11_15,w0,python3action_image_processing,0.997085,1,2000.000000,1,COMPLETED_SUCCESSFULLY,1.002325,12.398880,13.401205,0.005240,12.404120,1.000423,20,-1.000000,""
python3action_facedetection_job1_0,w0,python3action_facedetection,0.997085,1,2000.000000,1,COMPLETED_SUCCESSFULLY,1.002100,30.499683,31.501783,0.005015,30.504698,1.000164,2,-1.000000,""
python3action_modeltraining_job19_3,w0,python3action_modeltraining,0.997085,1,2000.000000,1,COMPLETED_SUCCESSFULLY,1.002145,30.499683,31.501828,0.005060,30.504743,1.000166,5,-1.000000,""
python3action_modeltraining_job23_4,w0,python3action_modeltraining,0.997085,1,2000.000000,1,COMPLETED_SUCCESSFULLY,1.002160,30.499683,31.501843,0.005075,30.504758,1.000166,6,-1.000000,""
python3action_facedetection_job27_16,w0,python3action_facedetection,0.997085,1,2000.000000,1,COMPLETED_SUCCESSFULLY,1.002340,30.499683,31.502023,0.005255,30.504938,1.000172,25,-1.000000,""
python3action_modeltraining_job28_17,w0,python3action_modeltraining,0.997085,1,2000.000000,1,COMPLETED_SUCCESSFULLY,1.002355,30.499683,31.502038,0.005270,30.504953,1.000173,26,-1.000000,""
python3action_video_processing_job31_19,w0,python3action_video_processing,0.997085,1,2000.000000,1,COMPLETED_SUCCESSFULLY,1.002385,30.499683,31.502068,0.005300,30.504983,1.000174,28,-1.000000,""
python3action_facedetection_job32_20,w0,python3action_facedetection,0.997085,1,2000.000000,1,COMPLETED_SUCCESSFULLY,1.002400,30.499683,31.502083,0.005315,30.504998,1.000174,29,-1.000000,""
12_updated,w0,python3action_linpack_5000_nova,0.997085,1,2000.000000,1,COMPLETED_SUCCESSFULLY,3.442105,34.600010,38.042115,2.445020,37.045030,1.070665,4,-1.000000,""
12,w0,python3action_linpack_5000,0.000000,1,-1.000000,1,COMPLETED_SUCCESSFULLY,38.042130,0.000010,38.042140,38.042130,38.042140,3804214.007481,4,-1.000000,""
29_updated,w0,python3action_linpack_5000_nova,0.997085,1,2000.000000,1,COMPLETED_SUCCESSFULLY,3.442330,34.600010,38.042340,2.445245,37.045255,1.070672,27,-1.000000,""
29,w0,python3action_linpack_5000,0.000000,1,-1.000000,1,COMPLETED_SUCCESSFULLY,38.042355,0.000010,38.042365,38.042355,38.042365,3804236.510493,27,-1.000000,""
python3action_floatoperation_job47_19,w0,python3action_floatoperation,0.997085,1,2000.000000,1,COMPLETED_SUCCESSFULLY,38.042385,2.439945,40.482330,37.045300,39.485245,16.182840,27,-1.000000,""
python3action_facedetection_job35_3,w0,python3action_facedetection,0.997085,1,2000.000000,1,COMPLETED_SUCCESSFULLY,38.042160,30.499683,68.541843,37.045075,67.544758,2.214605,4,-1.000000,""
3_updated,w0,python3action_chameleon_2000_taurus,0.997085,1,2000.000000,1,COMPLETED_SUCCESSFULLY,6.043076,64.199977,70.243053,5.045991,69.245968,1.078598,11,-1.000000,""
3,w0,python3action_chameleon_2000,0.000000,1,-1.000000,1,COMPLETED_SUCCESSFULLY,70.243068,0.000010,70.243078,70.243068,70.243078,7024307.800201,11,-1.000000,""
8_updated,w0,python3action_chameleon_2000_taurus,0.997085,1,2000.000000,1,COMPLETED_SUCCESSFULLY,6.043136,64.199977,70.243113,5.046051,69.246028,1.078599,16,-1.000000,""
8,w0,python3action_chameleon_2000,0.000000,1,-1.000000,1,COMPLETED_SUCCESSFULLY,70.243128,0.000010,70.243138,70.243128,70.243138,7024313.800201,16,-1.000000,""
python3action_video_processing_job0_8,w0,python3action_video_processing,0.997085,1,2000.000000,1,COMPLETED_SUCCESSFULLY,1.002220,72.012455,73.014675,0.005135,72.017590,1.000071,10,-1.000000,""
python3action_video_processing_job4_10,w0,python3action_video_processing,0.997085,1,2000.000000,1,COMPLETED_SUCCESSFULLY,1.002250,72.012455,73.014705,0.005165,72.017620,1.000072,13,-1.000000,""
python3action_image_processing_job5_11,w0,python3action_image_processing,0.997085,1,2000.000000,1,COMPLETED_SUCCESSFULLY,1.002265,72.012455,73.014720,0.005180,72.017635,1.000072,14,-1.000000,""
python3action_image_processing_job7_12,w0,python3action_image_processing,0.997085,1,2000.000000,1,COMPLETED_SUCCESSFULLY,1.002280,72.012455,73.014735,0.005195,72.017650,1.000072,15,-1.000000,""
19_updated,w0,python3action_modeltraining_reviews50mb_nova,0.997085,1,2000.000000,1,COMPLETED_SUCCESSFULLY,31.501843,42.399990,73.901833,30.504758,72.904748,1.719452,5,-1.000000,""
19,w0,python3action_modeltraining_reviews50mb,0.000000,1,-1.000000,1,COMPLETED_SUCCESSFULLY,73.901848,0.000010,73.901858,73.901848,73.901858,7390185.800201,5,-1.000000,""
23_updated,w0,python3action_modeltraining_reviews50mb_nova,0.997085,1,2000.000000,1,COMPLETED_SUCCESSFULLY,31.501873,42.399990,73.901863,30.504788,72.904778,1.719453,6,-1.000000,""
23,w0,python3action_modeltraining_reviews50mb,0.000000,1,-1.000000,1,COMPLETED_SUCCESSFULLY,73.901908,0.000010,73.901918,73.901908,73.901918,7390191.801004,6,-1.000000,""
28_updated,w0,python3action_modeltraining_reviews50mb_nova,0.997085,1,2000.000000,1,COMPLETED_SUCCESSFULLY,31.502068,42.399990,73.902058,30.504983,72.904973,1.719457,26,-1.000000,""
28,w0,python3action_modeltraining_reviews50mb,0.000000,1,-1.000000,1,COMPLETED_SUCCESSFULLY,73.902073,0.000010,73.902083,73.902073,73.902083,7390208.300201,26,-1.000000,""
2_updated,w0,python3action_imageprocessing_SampleImage_60mb_troll,0.997085,1,2000.000000,1,COMPLETED_SUCCESSFULLY,13.401205,62.000000,75.401205,12.404120,74.404120,1.200066,19,-1.000000,""
2,w0,python3action_imageprocessing_SampleImage_60mb,0.000000,1,-1.000000,1,COMPLETED_SUCCESSFULLY,75.401220,0.000010,75.401230,75.401220,75.401230,7540123.011992,19,-1.000000,""
11_updated,w0,python3action_imageprocessing_SampleImage_60mb_troll,0.997085,1,2000.000000,1,COMPLETED_SUCCESSFULLY,13.401235,62.000000,75.401235,12.404150,74.404150,1.200067,20,-1.000000,""
11,w0,python3action_imageprocessing_SampleImage_60mb,0.000000,1,-1.000000,1,COMPLETED_SUCCESSFULLY,75.401265,0.000010,75.401275,75.401265,75.401275,7540127.512594,20,-1.000000,""
python3action_chameleon_job16_16,w0,python3action_chameleon,0.997085,1,2000.000000,1,COMPLETED_SUCCESSFULLY,75.401295,0.867914,76.269209,74.404210,75.272124,86.727663,20,-1.000000,""
python3action_linpack_job37_4,w0,python3action_linpack,0.997085,1,2000.000000,1,COMPLETED_SUCCESSFULLY,73.901878,2.439945,76.341823,72.904793,75.344738,30.879683,5,-1.000000,""
python3action_floatoperation_job42_18,w0,python3action_floatoperation,0.997085,1,2000.000000,1,COMPLETED_SUCCESSFULLY,73.902103,2.439945,76.342048,72.905018,75.344963,30.879776,26,-1.000000,""
5_updated,w0,python3action_imageprocessing_SampleImage_40mb_taurus,0.997085,1,2000.000000,1,COMPLETED_SUCCESSFULLY,73.014750,32.600046,105.614796,72.017665,104.617711,3.209128,14,-1.000000,""
7_updated,w0,python3action_imageprocessing_SampleImage_40mb_taurus,0.997085,1,2000.000000,1,COMPLETED_SUCCESSFULLY,73.014765,32.600046,105.614811,72.017680,104.617726,3.209128,15,-1.000000,""
5,w0,python3action_imageprocessing_SampleImage_40mb,0.000000,1,-1.000000,1,COMPLETED_SUCCESSFULLY,105.614811,0.000010,105.614821,105.614811,105.614821,10561482.147171,14,-1.000000,""
7,w0,python3action_imageprocessing_SampleImage_40mb,0.000000,1,-1.000000,1,COMPLETED_SUCCESSFULLY,105.614841,0.000010,105.614851,105.614841,105.614851,10561485.147572,15,-1.000000,""
python3action_chameleon_job25_13,w0,python3action_chameleon,0.997085,1,2000.000000,1,COMPLETED_SUCCESSFULLY,105.614886,5.040826,110.655712,104.617801,109.658627,21.754100,15,-1.000000,""
37_updated,w0,python3action_linpack_5000_nova,0.997085,1,2000.000000,1,COMPLETED_SUCCESSFULLY,76.341838,34.600010,110.941848,75.344753,109.944763,3.177593,5,-1.000000,""
37,w0,python3action_linpack_5000,0.000000,1,-1.000000,1,COMPLETED_SUCCESSFULLY,110.941863,0.000010,110.941873,110.941863,110.941873,11094187.307281,5,-1.000000,""
6_updated,w0,python3action_linpack_6000_orion,0.997085,1,2000.000000,1,COMPLETED_SUCCESSFULLY,6.763132,106.000000,112.763132,5.766047,111.766047,1.054397,8,-1.000000,""
6,w0,python3action_linpack_6000,0.000000,1,-1.000000,1,COMPLETED_SUCCESSFULLY,112.763147,0.000010,112.763157,112.763147,112.763157,11276315.724677,8,-1.000000,""
9_updated,w0,python3action_linpack_6000_orion,0.997085,1,2000.000000,1,COMPLETED_SUCCESSFULLY,6.763162,106.000000,112.763162,5.766077,111.766077,1.054397,9,-1.000000,""
9,w0,python3action_linpack_6000,0.000000,1,-1.000000,1,COMPLETED_SUCCESSFULLY,112.763192,0.000010,112.763202,112.763192,112.763202,11276320.225279,9,-1.000000,""
python3action_floatoperation_job56_4,w0,python3action_floatoperation,0.997085,1,2000.000000,1,COMPLETED_SUCCESSFULLY,110.941893,2.439945,113.381838,109.944808,112.384753,46.060358,5,-1.000000,""
38_updated,w0,python3action_modeltraining_reviews50mb_nova,0.997085,1,2000.000000,1,COMPLETED_SUCCESSFULLY,73.901938,42.399990,116.301928,72.904853,115.304843,2.719454,6,-1.000000,""
38,w0,python3action_modeltraining_reviews50mb,0.000000,1,-1.000000,1,COMPLETED_SUCCESSFULLY,116.301943,0.000010,116.301953,116.301943,116.301953,11630195.324710,6,-1.000000,""
python3action_facedetection_job57_5,w0,python3action_facedetection_reduced_0.91,0.997085,1,2000.000000,1,COMPLETED_SUCCESSFULLY,116.301973,0.000000,116.301973,115.304888,115.304888,2360739070055.400879,6,-1.000000,""
15_updated,w0,python3action_chameleon_2000_taurus,0.997085,1,2000.000000,1,COMPLETED_SUCCESSFULLY,70.243098,64.199977,134.443075,69.246013,133.445990,2.078599,11,-1.000000,""
15,w0,python3action_chameleon_2000,0.000000,1,-1.000000,1,COMPLETED_SUCCESSFULLY,134.443090,0.000010,134.443100,134.443090,134.443100,13444310.000201,11,-1.000000,""
13_updated,w0,python3action_imageprocessing_SampleImage_60mb_troll,0.997085,1,2000.000000,1,COMPLETED_SUCCESSFULLY,75.401250,62.000000,137.401250,74.404165,136.404165,2.200067,19,-1.000000,""
13,w0,python3action_imageprocessing_SampleImage_60mb,0.000000,1,-1.000000,1,COMPLETED_SUCCESSFULLY,137.401265,0.000010,137.401275,137.401265,137.401275,13740127.512594,19,-1.000000,""
22_updated,w0,python3action_imageprocessing_SampleImage_40mb_taurus,0.997085,1,2000.000000,1,COMPLETED_SUCCESSFULLY,105.614856,32.600046,138.214903,104.617771,137.217818,4.209130,14,-1.000000,""
22,w0,python3action_imageprocessing_SampleImage_40mb,0.000000,1,-1.000000,1,COMPLETED_SUCCESSFULLY,138.214918,0.000010,138.214928,138.214918,138.214928,13821492.800201,14,-1.000000,""
python3action_video_processing_job52_12,w0,python3action_video_processing_reduced_0.91,0.997085,1,2000.000000,1,COMPLETED_SUCCESSFULLY,138.214948,0.000000,138.214948,137.217863,137.217863,1189730002277.571045,14,-1.000000,""
python3action_chameleon_job30_15,w0,python3action_chameleon,0.997085,1,2000.000000,1,COMPLETED_SUCCESSFULLY,137.401295,0.867914,138.269209,136.404210,137.272124,158.163340,19,-1.000000,""
31_updated,w0,python3action_videoprocessing_SampleVideo_30mb_nova,0.997085,1,2000.000000,1,COMPLETED_SUCCESSFULLY,31.502098,106.799980,138.302078,30.505013,137.304993,1.285628,28,-1.000000,""
31,w0,python3action_videoprocessing_SampleVideo_30mb,0.000000,1,-1.000000,1,COMPLETED_SUCCESSFULLY,138.302093,0.000010,138.302103,138.302093,138.302103,13830210.346609,28,-1.000000,""
10_updated,w0,python3action_floatoperation_200000000_nova,0.997085,1,2000.000000,1,COMPLETED_SUCCESSFULLY,3.442075,135.399990,138.842066,2.444990,137.844981,1.018058,3,-1.000000,""
10,w0,python3action_floatoperation_200000000,0.000000,1,-1.000000,1,COMPLETED_SUCCESSFULLY,138.842081,0.000010,138.842091,138.842081,138.842091,13884209.100201,3,-1.000000,""
python3action_pyaes_job48_20,w0,python3action_pyaes,0.997085,1,2000.000000,1,COMPLETED_SUCCESSFULLY,138.302123,2.134958,140.437082,137.305038,139.439997,65.312751,28,-1.000000,""
python3action_image_processing_job26_14,w0,python3action_image_processing,0.997085,1,2000.000000,1,COMPLETED_SUCCESSFULLY,70.243158,72.012455,142.255613,69.246073,141.258528,1.961585,16,-1.000000,""
24_updated,w0,python3action_pyaes_4000_nova,0.997085,1,2000.000000,1,COMPLETED_SUCCESSFULLY,3.137148,139.600010,142.737158,2.140063,141.740073,1.015330,7,-1.000000,""
24,w0,python3action_pyaes_4000,0.000000,1,-1.000000,1,COMPLETED_SUCCESSFULLY,142.737173,0.000010,142.737183,142.737173,142.737183,14273718.302271,7,-1.000000,""
python3action_linpack_job39_6,w0,python3action_linpack_reduced_0.85,0.997085,1,2000.000000,1,COMPLETED_SUCCESSFULLY,142.737203,0.365992,143.103195,141.740118,142.106110,388.276765,7,-1.000000,""
16_updated,w0,python3action_chameleon_3000_troll,0.997085,1,2000.000000,1,COMPLETED_SUCCESSFULLY,76.269224,94.000000,170.269224,75.272139,169.272139,1.800767,20,-1.000000,""
16,w0,python3action_chameleon_3000,0.000000,1,-1.000000,1,COMPLETED_SUCCESSFULLY,170.269239,0.000010,170.269249,170.269239,170.269249,17026924.900402,20,-1.000000,""
26_updated,w0,python3action_imageprocessing_SampleImage_40mb_taurus,0.997085,1,2000.000000,1,COMPLETED_SUCCESSFULLY,142.255628,32.600046,174.855674,141.258543,173.858589,5.333078,16,-1.000000,""
26,w0,python3action_imageprocessing_SampleImage_40mb,0.000000,1,-1.000000,1,COMPLETED_SUCCESSFULLY,174.855689,0.000010,174.855699,174.855689,174.855699,17485569.945163,16,-1.000000,""
25_updated,w0,python3action_chameleon_2000_taurus,0.997085,1,2000.000000,1,COMPLETED_SUCCESSFULLY,110.655727,64.199977,174.855704,109.658642,173.858619,2.708079,15,-1.000000,""
25,w0,python3action_chameleon_2000,0.000000,1,-1.000000,1,COMPLETED_SUCCESSFULLY,174.855734,0.000010,174.855744,174.855734,174.855744,17485574.416537,15,-1.000000,""
47_updated,w0,python3action_floatoperation_200000000_nova,0.997085,1,2000.000000,1,COMPLETED_SUCCESSFULLY,40.482345,135.399990,175.882336,39.485260,174.885251,1.291619,27,-1.000000,""
47,w0,python3action_floatoperation_200000000,0.000000,1,-1.000000,1,COMPLETED_SUCCESSFULLY,175.882351,0.000010,175.882361,175.882351,175.882361,17588236.100201,27,-1.000000,""
39_updated,w0,python3action_linpack_5000_nova,0.997085,1,2000.000000,1,COMPLETED_SUCCESSFULLY,143.103210,34.600010,177.703220,142.106125,176.706135,5.107112,7,-1.000000,""
39,w0,python3action_linpack_5000,0.000000,1,-1.000000,1,COMPLETED_SUCCESSFULLY,177.703235,0.000010,177.703245,177.703235,177.703245,17770324.500201,7,-1.000000,""
1_updated,w0,python3action_facedetection_SampleVideo_30mb_nova,0.997085,1,2000.000000,1,COMPLETED_SUCCESSFULLY,31.501798,160.399990,191.901788,30.504713,190.904703,1.190179,2,-1.000000,""
1,w0,python3action_facedetection_SampleVideo_30mb,0.000000,1,-1.000000,1,COMPLETED_SUCCESSFULLY,191.901803,0.000010,191.901813,191.901803,191.901813,19190181.323505,2,-1.000000,""
python3action_video_processing_job33_1,w0,python3action_video_processing_reduced_0.91,0.997085,1,2000.000000,1,COMPLETED_SUCCESSFULLY,191.901833,0.000000,191.901833,190.904748,190.904748,3907425070139.536133,2,-1.000000,""
27_updated,w0,python3action_facedetection_SampleVideo_30mb_nova,0.997085,1,2000.000000,1,COMPLETED_SUCCESSFULLY,31.502038,160.399990,191.902028,30.504953,190.904943,1.190181,25,-1.000000,""
27,w0,python3action_facedetection_SampleVideo_30mb,0.000000,1,-1.000000,1,COMPLETED_SUCCESSFULLY,191.902043,0.000010,191.902053,191.902043,191.902053,19190205.300201,25,-1.000000,""
python3action_modeltraining_job41_17,w0,python3action_modeltraining_reduced_0.94,0.997085,1,2000.000000,1,COMPLETED_SUCCESSFULLY,191.902073,0.000000,191.902073,190.904988,190.904988,3907429977672.878906,25,-1.000000,""
32_updated,w0,python3action_facedetection_SampleVideo_30mb_nova,0.997085,1,2000.000000,1,COMPLETED_SUCCESSFULLY,31.502113,160.399990,191.902103,30.505028,190.905018,1.190181,29,-1.000000,""
32,w0,python3action_facedetection_SampleVideo_30mb,0.000000,1,-1.000000,1,COMPLETED_SUCCESSFULLY,191.902133,0.000010,191.902143,191.902133,191.902143,19190214.301406,29,-1.000000,""
python3action_pyaes_job50_21,w0,python3action_pyaes,0.997085,1,2000.000000,1,COMPLETED_SUCCESSFULLY,191.902163,2.134958,194.037121,190.905078,193.040036,90.418647,29,-1.000000,""
python3action_facedetection_job65_19,w0,python3action_facedetection,0.997085,1,2000.000000,1,COMPLETED_SUCCESSFULLY,175.882381,30.499683,206.382064,174.885296,205.384979,6.734004,27,-1.000000,""
python3action_video_processing_job43_10,w0,python3action_video_processing,0.997085,1,2000.000000,1,COMPLETED_SUCCESSFULLY,134.443120,72.012455,206.455575,133.446035,205.458490,2.853097,11,-1.000000,""
60_updated,w0,python3action_imageprocessing_SampleImage_40mb_taurus,0.997085,1,2000.000000,1,COMPLETED_SUCCESSFULLY,174.855719,32.600046,207.455765,173.858634,206.458680,6.333079,16,-1.000000,""
60,w0,python3action_imageprocessing_SampleImage_40mb,0.000000,1,-1.000000,1,COMPLETED_SUCCESSFULLY,207.455780,0.000010,207.455790,207.455780,207.455790,20745579.029615,16,-1.000000,""
python3action_facedetection_job85_14,w0,python3action_facedetection_reduced_0.91,0.997085,1,2000.000000,1,COMPLETED_SUCCESSFULLY,207.455810,0.000000,207.455810,206.458725,206.458725,1790074078844.478027,16,-1.000000,""
python3action_modeltraining_job58_6,w0,python3action_modeltraining,0.997085,1,2000.000000,1,COMPLETED_SUCCESSFULLY,177.703265,30.499683,208.202948,176.706180,207.205863,6.793706,7,-1.000000,""
42_updated,w0,python3action_floatoperation_200000000_nova,0.997085,1,2000.000000,1,COMPLETED_SUCCESSFULLY,76.342063,135.399990,211.742054,75.344978,210.744969,1.556462,26,-1.000000,""
42,w0,python3action_floatoperation_200000000,0.000000,1,-1.000000,1,COMPLETED_SUCCESSFULLY,211.742069,0.000010,211.742079,211.742069,211.742079,21174207.900201,26,-1.000000,""
python3action_pyaes_job62_18,w0,python3action_pyaes,0.997085,1,2000.000000,1,COMPLETED_SUCCESSFULLY,211.742099,2.134958,213.877057,210.745014,212.879972,99.711539,26,-1.000000,""
17_updated,w0,python3action_linpack_6000_orion,0.997085,1,2000.000000,1,COMPLETED_SUCCESSFULLY,112.763177,106.000000,218.763177,111.766092,217.766092,2.054397,8,-1.000000,""
17,w0,python3action_linpack_6000,0.000000,1,-1.000000,1,COMPLETED_SUCCESSFULLY,218.763192,0.000010,218.763202,218.763192,218.763202,21876320.225279,8,-1.000000,""
20_updated,w0,python3action_linpack_6000_orion,0.997085,1,2000.000000,1,COMPLETED_SUCCESSFULLY,112.763222,106.000000,218.763222,111.766137,217.766137,2.054398,9,-1.000000,""
20,w0,python3action_linpack_6000,0.000000,1,-1.000000,1,COMPLETED_SUCCESSFULLY,218.763252,0.000010,218.763262,218.763252,218.763262,21876326.226082,9,-1.000000,""
0_updated,w0,python3action_videoprocessing_SampleVideo_50mb_taurus,0.997085,1,2000.000000,1,COMPLETED_SUCCESSFULLY,73.014690,154.250029,227.264719,72.017605,226.267634,1.466889,10,-1.000000,""
0,w0,python3action_videoprocessing_SampleVideo_50mb,0.000000,1,-1.000000,1,COMPLETED_SUCCESSFULLY,227.264734,0.000010,227.264744,227.264734,227.264744,22726474.416463,10,-1.000000,""
4_updated,w0,python3action_videoprocessing_SampleVideo_50mb_taurus,0.997085,1,2000.000000,1,COMPLETED_SUCCESSFULLY,73.014720,154.250029,227.264749,72.017635,226.267664,1.466889,13,-1.000000,""
4,w0,python3action_videoprocessing_SampleVideo_50mb,0.000000,1,-1.000000,1,COMPLETED_SUCCESSFULLY,227.264779,0.000010,227.264789,227.264779,227.264789,22726478.917066,13,-1.000000,""
35_updated,w0,python3action_facedetection_SampleVideo_30mb_nova,0.997085,1,2000.000000,1,COMPLETED_SUCCESSFULLY,68.541858,160.399990,228.941848,67.544773,227.944763,1.421102,4,-1.000000,""
35,w0,python3action_facedetection_SampleVideo_30mb,0.000000,1,-1.000000,1,COMPLETED_SUCCESSFULLY,228.941863,0.000010,228.941873,228.941863,228.941873,22894187.323505,4,-1.000000,""
30_updated,w0,python3action_chameleon_3000_troll,0.997085,1,2000.000000,1,COMPLETED_SUCCESSFULLY,138.269224,94.000000,232.269224,137.272139,231.272139,2.460342,19,-1.000000,""
30,w0,python3action_chameleon_3000,0.000000,1,-1.000000,1,COMPLETED_SUCCESSFULLY,232.269239,0.000010,232.269249,232.269239,232.269249,23226924.900401,19,-1.000000,""
41_updated,w0,python3action_modeltraining_reviews50mb_nova,0.997085,1,2000.000000,1,COMPLETED_SUCCESSFULLY,191.902103,42.399990,234.302093,190.905018,233.305008,5.502478,25,-1.000000,""
41,w0,python3action_modeltraining_reviews50mb,0.000000,1,-1.000000,1,COMPLETED_SUCCESSFULLY,234.302108,0.000010,234.302118,234.302108,234.302118,23430211.824308,25,-1.000000,""
python3action_pyaes_job61_17,w0,python3action_pyaes,0.997085,1,2000.000000,1,COMPLETED_SUCCESSFULLY,234.302138,2.134958,236.437096,233.305053,235.440011,110.278509,25,-1.000000,""
python3action_image_processing_job14_9,w0,python3action_image_processing_reduced_0.86,0.997085,1,2000.000000,1,COMPLETED_SUCCESSFULLY,227.264764,9.731413,236.996177,226.267679,235.999092,24.251267,10,-1.000000,""
python3action_image_processing_job18_11,w0,python3action_image_processing_reduced_0.86,0.997085,1,2000.000000,1,COMPLETED_SUCCESSFULLY,227.264809,9.731413,236.996222,226.267724,235.999137,24.251272,13,-1.000000,""
53_updated,w0,python3action_chameleon_2000_taurus,0.997085,1,2000.000000,1,COMPLETED_SUCCESSFULLY,174.855764,64.199977,239.055741,173.858679,238.058656,3.708080,15,-1.000000,""
53,w0,python3action_chameleon_2000,0.000000,1,-1.000000,1,COMPLETED_SUCCESSFULLY,239.055756,0.000010,239.055766,239.055756,239.055766,23905576.610600,15,-1.000000,""
python3action_video_processing_job83_13,w0,python3action_video_processing_reduced_0.91,0.997085,1,2000.000000,1,COMPLETED_SUCCESSFULLY,239.055786,0.000000,239.055786,238.058701,238.058701,2064057643874.524414,15,-1.000000,""
56_updated,w0,python3action_floatoperation_200000000_nova,0.997085,1,2000.000000,1,COMPLETED_SUCCESSFULLY,113.381853,135.399990,248.781844,112.384768,247.784759,1.830021,5,-1.000000,""
56,w0,python3action_floatoperation_200000000,0.000000,1,-1.000000,1,COMPLETED_SUCCESSFULLY,248.781859,0.000010,248.781869,248.781859,248.781869,24878186.900201,5,-1.000000,""
55_updated,w0,python3action_linpack_5000_nova,0.997085,1,2000.000000,1,COMPLETED_SUCCESSFULLY,228.941893,34.600010,263.541903,227.944808,262.544818,7.587998,4,-1.000000,""
55,w0,python3action_linpack_5000,0.000000,1,-1.000000,1,COMPLETED_SUCCESSFULLY,263.541918,0.000010,263.541928,263.541918,263.541928,26354192.801004,4,-1.000000,""
python3action_modeltraining_job72_3,w0,python3action_modeltraining_reduced_0.94,0.997085,1,2000.000000,1,COMPLETED_SUCCESSFULLY,263.541948,0.000000,263.541948,262.544863,262.544863,5376877852328.076172,4,-1.000000,""
36_updated,w0,python3action_chameleon_3000_troll,0.997085,1,2000.000000,1,COMPLETED_SUCCESSFULLY,170.269269,94.000000,264.269269,169.272184,263.272184,2.800768,20,-1.000000,""
36,w0,python3action_chameleon_3000,0.000000,1,-1.000000,1,COMPLETED_SUCCESSFULLY,264.269284,0.000010,264.269294,264.269284,264.269294,26426929.401004,20,-1.000000,""
14_updated,w0,python3action_imageprocessing_SampleImage_40mb_taurus,0.997085,1,2000.000000,1,COMPLETED_SUCCESSFULLY,236.996192,32.600046,269.596238,235.999107,268.599153,8.239226,10,-1.000000,""
14,w0,python3action_imageprocessing_SampleImage_40mb,0.000000,1,-1.000000,1,COMPLETED_SUCCESSFULLY,269.596253,0.000010,269.596263,269.596253,269.596263,26959626.318328,10,-1.000000,""
18_updated,w0,python3action_imageprocessing_SampleImage_40mb_taurus,0.997085,1,2000.000000,1,COMPLETED_SUCCESSFULLY,236.996237,32.600046,269.596283,235.999152,268.599198,8.239228,13,-1.000000,""
18,w0,python3action_imageprocessing_SampleImage_40mb,0.000000,1,-1.000000,1,COMPLETED_SUCCESSFULLY,269.596313,0.000010,269.596323,269.596313,269.596323,26959632.319132,13,-1.000000,""
python3action_facedetection_job44_11,w0,python3action_facedetection_reduced_1.83,0.997085,1,2000.000000,1,COMPLETED_SUCCESSFULLY,269.596343,0.000000,269.596343,268.599258,268.599258,2328855653803.069336,13,-1.000000,""
34_updated,w0,python3action_floatoperation_200000000_nova,0.997085,1,2000.000000,1,COMPLETED_SUCCESSFULLY,138.842111,135.399990,274.242101,137.845026,273.245016,2.018058,3,-1.000000,""
34,w0,python3action_floatoperation_200000000,0.000000,1,-1.000000,1,COMPLETED_SUCCESSFULLY,274.242116,0.000010,274.242126,274.242116,274.242126,27424212.623907,3,-1.000000,""
57_updated,w0,python3action_facedetection_SampleVideo_30mb_nova,0.997085,1,2000.000000,1,COMPLETED_SUCCESSFULLY,116.302003,160.399990,276.701993,115.304918,275.704908,1.718859,6,-1.000000,""
57,w0,python3action_facedetection_SampleVideo_30mb,0.000000,1,-1.000000,1,COMPLETED_SUCCESSFULLY,276.702008,0.000010,276.702018,276.702008,276.702018,27670201.848818,6,-1.000000,""
python3action_pyaes_job75_5,w0,python3action_pyaes,0.997085,1,2000.000000,1,COMPLETED_SUCCESSFULLY,276.702038,2.134958,278.836997,275.704953,277.839912,130.138336,6,-1.000000,""
48_updated,w0,python3action_pyaes_4000_nova,0.997085,1,2000.000000,1,COMPLETED_SUCCESSFULLY,140.437097,139.600010,280.037107,139.440012,279.040022,1.998854,28,-1.000000,""
48,w0,python3action_pyaes_4000,0.000000,1,-1.000000,1,COMPLETED_SUCCESSFULLY,280.037122,0.000010,280.037132,280.037122,280.037132,28003713.200201,28,-1.000000,""
python3action_modeltraining_job66_20,w0,python3action_modeltraining_reduced_1.0,0.997085,1,2000.000000,1,COMPLETED_SUCCESSFULLY,280.037152,0.000000,280.037152,279.040067,279.040067,5714697057761.517578,28,-1.000000,""
73_updated,w0,python3action_linpack_5000_nova,0.997085,1,2000.000000,1,COMPLETED_SUCCESSFULLY,248.781889,34.600010,283.381899,247.784804,282.384814,8.161408,5,-1.000000,""
73,w0,python3action_linpack_5000,0.000000,1,-1.000000,1,COMPLETED_SUCCESSFULLY,283.381914,0.000010,283.381924,283.381914,283.381924,28338192.400201,5,-1.000000,""
python3action_pyaes_job94_4,w0,python3action_pyaes_reduced_0.85,0.997085,1,2000.000000,1,COMPLETED_SUCCESSFULLY,283.381944,0.320244,283.702188,282.384859,282.705103,882.781055,5,-1.000000,""
58_updated,w0,python3action_modeltraining_reviews100mb_nova,0.997085,1,2000.000000,1,COMPLETED_SUCCESSFULLY,208.202963,79.600010,287.802973,207.205878,286.805888,3.603089,7,-1.000000,""
58,w0,python3action_modeltraining_reviews100mb,0.000000,1,-1.000000,1,COMPLETED_SUCCESSFULLY,287.802988,0.000010,287.802998,287.802988,287.802998,28780299.800201,7,-1.000000,""
62_updated,w0,python3action_pyaes_3000_nova,0.997085,1,2000.000000,1,COMPLETED_SUCCESSFULLY,213.877072,78.200020,292.077092,212.879987,291.080007,3.722250,26,-1.000000,""
62,w0,python3action_pyaes_3000,0.000000,1,-1.000000,1,COMPLETED_SUCCESSFULLY,292.077107,0.000010,292.077117,292.077107,292.077117,29207711.700201,26,-1.000000,""
52_updated,w0,python3action_videoprocessing_SampleVideo_50mb_taurus,0.997085,1,2000.000000,1,COMPLETED_SUCCESSFULLY,138.214978,154.250029,292.465007,137.217893,291.467922,1.889581,14,-1.000000,""
52,w0,python3action_videoprocessing_SampleVideo_50mb,0.000000,1,-1.000000,1,COMPLETED_SUCCESSFULLY,292.465022,0.000010,292.465032,292.465022,292.465032,29246503.200201,14,-1.000000,""
46_updated,w0,python3action_imageprocessing_SampleImage_60mb_troll,0.997085,1,2000.000000,1,COMPLETED_SUCCESSFULLY,232.269269,62.000000,294.269269,231.272184,293.272184,4.730197,19,-1.000000,""
46,w0,python3action_imageprocessing_SampleImage_60mb,0.000000,1,-1.000000,1,COMPLETED_SUCCESSFULLY,294.269284,0.000010,294.269294,294.269284,294.269294,29426929.401004,19,-1.000000,""
33_updated,w0,python3action_videoprocessing_SampleVideo_30mb_nova,0.997085,1,2000.000000,1,COMPLETED_SUCCESSFULLY,191.901863,106.799980,298.701844,190.904778,297.704759,2.787498,2,-1.000000,""
33,w0,python3action_videoprocessing_SampleVideo_30mb,0.000000,1,-1.000000,1,COMPLETED_SUCCESSFULLY,298.701859,0.000010,298.701869,298.701859,298.701869,29870186.900201,2,-1.000000,""
python3action_modeltraining_job51_1,w0,python3action_modeltraining_reduced_1.94,0.997085,1,2000.000000,1,COMPLETED_SUCCESSFULLY,298.701889,0.000000,298.701889,297.704804,297.704804,6096947960874.549805,2,-1.000000,""
61_updated,w0,python3action_pyaes_3000_nova,0.997085,1,2000.000000,1,COMPLETED_SUCCESSFULLY,236.437111,78.200020,314.637131,235.440026,313.640046,4.010741,25,-1.000000,""
61,w0,python3action_pyaes_3000,0.000000,1,-1.000000,1,COMPLETED_SUCCESSFULLY,314.637146,0.000010,314.637156,314.637146,314.637156,31463715.602672,25,-1.000000,""
python3action_video_processing_job78_17,w0,python3action_video_processing_reduced_1.89,0.997085,1,2000.000000,1,COMPLETED_SUCCESSFULLY,314.637176,0.000000,314.637176,313.640091,313.640091,6423300154134.125977,25,-1.000000,""
66_updated,w0,python3action_modeltraining_reviews50mb_nova,0.997085,1,2000.000000,1,COMPLETED_SUCCESSFULLY,280.037182,42.399990,322.437172,279.040097,321.440087,7.581136,28,-1.000000,""
66,w0,python3action_modeltraining_reviews50mb,0.000000,1,-1.000000,1,COMPLETED_SUCCESSFULLY,322.437187,0.000010,322.437197,322.437187,322.437197,32243719.724309,28,-1.000000,""
21_updated,w0,python3action_linpack_6000_orion,0.997085,1,2000.000000,1,COMPLETED_SUCCESSFULLY,218.763222,106.000000,324.763222,217.766137,323.766137,3.054398,8,-1.000000,""
21,w0,python3action_linpack_6000,0.000000,1,-1.000000,1,COMPLETED_SUCCESSFULLY,324.763237,0.000010,324.763247,324.763237,324.763247,32476324.725881,8,-1.000000,""
45_updated,w0,python3action_linpack_6000_orion,0.997085,1,2000.000000,1,COMPLETED_SUCCESSFULLY,218.763282,106.000000,324.763282,217.766197,323.766197,3.054398,9,-1.000000,""
45,w0,python3action_linpack_6000,0.000000,1,-1.000000,1,COMPLETED_SUCCESSFULLY,324.763297,0.000010,324.763307,324.763297,324.763307,32476330.726685,9,-1.000000,""
81_updated,w0,python3action_imageprocessing_SampleImage_40mb_taurus,0.997085,1,2000.000000,1,COMPLETED_SUCCESSFULLY,292.465052,32.600046,325.065098,291.467967,324.068013,9.940723,14,-1.000000,""
81,w0,python3action_imageprocessing_SampleImage_40mb,0.000000,1,-1.000000,1,COMPLETED_SUCCESSFULLY,325.065113,0.000010,325.065123,325.065113,325.065123,32506512.313881,14,-1.000000,""
49_updated,w0,python3action_imageprocessing_SampleImage_60mb_troll,0.997085,1,2000.000000,1,COMPLETED_SUCCESSFULLY,264.269314,62.000000,326.269314,263.272229,325.272229,5.246326,20,-1.000000,""
49,w0,python3action_imageprocessing_SampleImage_60mb,0.000000,1,-1.000000,1,COMPLETED_SUCCESSFULLY,326.269329,0.000010,326.269339,326.269329,326.269339,32626933.901607,20,-1.000000,""
50_updated,w0,python3action_pyaes_4000_nova,0.997085,1,2000.000000,1,COMPLETED_SUCCESSFULLY,194.037136,139.600010,333.637146,193.040051,332.640061,2.382808,29,-1.000000,""
50,w0,python3action_pyaes_4000,0.000000,1,-1.000000,1,COMPLETED_SUCCESSFULLY,333.637161,0.000010,333.637171,333.637161,333.637171,33363717.102873,29,-1.000000,""
python3action_video_processing_job67_21,w0,python3action_video_processing_reduced_0.91,0.997085,1,2000.000000,1,COMPLETED_SUCCESSFULLY,333.637191,0.000000,333.637191,332.640106,332.640106,6812417498443.829102,29,-1.000000,""
59_updated,w0,python3action_chameleon_2000_troll,0.997085,1,2000.000000,1,COMPLETED_SUCCESSFULLY,294.269314,39.500010,333.769324,293.272229,332.772239,8.424612,19,-1.000000,""
59,w0,python3action_chameleon_2000,0.000000,1,-1.000000,1,COMPLETED_SUCCESSFULLY,333.769339,0.000010,333.769349,333.769339,333.769349,33376934.900201,19,-1.000000,""
54_updated,w0,python3action_floatoperation_100000000_nova,0.997085,1,2000.000000,1,COMPLETED_SUCCESSFULLY,274.242146,66.200020,340.442166,273.245061,339.445081,5.127568,3,-1.000000,""
54,w0,python3action_floatoperation_100000000,0.000000,1,-1.000000,1,COMPLETED_SUCCESSFULLY,340.442181,0.000010,340.442191,340.442181,340.442191,34044219.100201,3,-1.000000,""
51_updated,w0,python3action_modeltraining_reviews50mb_nova,0.997085,1,2000.000000,1,COMPLETED_SUCCESSFULLY,298.701919,42.399990,341.101909,297.704834,340.104824,8.021342,2,-1.000000,""
51,w0,python3action_modeltraining_reviews50mb,0.000000,1,-1.000000,1,COMPLETED_SUCCESSFULLY,341.101924,0.000010,341.101934,341.101924,341.101934,34110193.424309,2,-1.000000,""
85_updated,w0,python3action_facedetection_SampleVideo_50mb_taurus,0.997085,1,2000.000000,1,COMPLETED_SUCCESSFULLY,207.455840,134.600046,342.055886,206.458755,341.058801,2.533868,16,-1.000000,""
85,w0,python3action_facedetection_SampleVideo_50mb,0.000000,1,-1.000000,1,COMPLETED_SUCCESSFULLY,342.055901,0.000010,342.055911,342.055901,342.055911,34205591.143697,16,-1.000000,""
72_updated,w0,python3action_modeltraining_reviews100mb_nova,0.997085,1,2000.000000,1,COMPLETED_SUCCESSFULLY,263.541978,79.600010,343.141988,262.544893,342.144903,4.298302,4,-1.000000,""
72,w0,python3action_modeltraining_reviews100mb,0.000000,1,-1.000000,1,COMPLETED_SUCCESSFULLY,343.142003,0.000010,343.142013,343.142003,343.142013,34314201.300201,4,-1.000000,""
python3action_floatoperation_job93_3,w0,python3action_floatoperation,0.997085,1,2000.000000,1,COMPLETED_SUCCESSFULLY,343.142033,2.439945,345.581978,342.144948,344.584893,141.226483,4,-1.000000,""
75_updated,w0,python3action_pyaes_3000_nova,0.997085,1,2000.000000,1,COMPLETED_SUCCESSFULLY,278.837012,78.200020,357.037032,277.839927,356.039947,4.552939,6,-1.000000,""
75,w0,python3action_pyaes_3000,0.000000,1,-1.000000,1,COMPLETED_SUCCESSFULLY,357.037047,0.000010,357.037057,357.037047,357.037057,35703705.700201,6,-1.000000,""
python3action_floatoperation_job95_5,w0,python3action_floatoperation,0.997085,1,2000.000000,1,COMPLETED_SUCCESSFULLY,357.037077,2.439945,359.477022,356.039992,358.479937,146.921301,6,-1.000000,""
43_updated,w0,python3action_videoprocessing_SampleVideo_50mb_taurus,0.997085,1,2000.000000,1,COMPLETED_SUCCESSFULLY,206.455590,154.250029,360.705619,205.458505,359.708534,2.331984,11,-1.000000,""
43,w0,python3action_videoprocessing_SampleVideo_50mb,0.000000,1,-1.000000,1,COMPLETED_SUCCESSFULLY,360.705634,0.000010,360.705644,360.705634,360.705644,36070564.415259,11,-1.000000,""
94_updated,w0,python3action_pyaes_3000_nova,0.997085,1,2000.000000,1,COMPLETED_SUCCESSFULLY,283.702203,78.200020,361.902223,282.705118,360.905138,4.615154,5,-1.000000,""
94,w0,python3action_pyaes_3000,0.000000,1,-1.000000,1,COMPLETED_SUCCESSFULLY,361.902238,0.000010,361.902248,361.902238,361.902248,36190224.800201,5,-1.000000,""
87_updated,w0,python3action_modeltraining_reviews50mb_nova,0.997085,1,2000.000000,1,COMPLETED_SUCCESSFULLY,322.437217,42.399990,364.837207,321.440132,363.840122,8.581137,28,-1.000000,""
87,w0,python3action_modeltraining_reviews50mb,0.000000,1,-1.000000,1,COMPLETED_SUCCESSFULLY,364.837222,0.000010,364.837232,364.837222,364.837232,36483723.248015,28,-1.000000,""
65_updated,w0,python3action_facedetection_SampleVideo_30mb_nova,0.997085,1,2000.000000,1,COMPLETED_SUCCESSFULLY,206.382079,160.399990,366.782069,205.384994,365.784984,2.280455,27,-1.000000,""
65,w0,python3action_facedetection_SampleVideo_30mb,0.000000,1,-1.000000,1,COMPLETED_SUCCESSFULLY,366.782084,0.000010,366.782094,366.782084,366.782094,36678209.423506,27,-1.000000,""
python3action_modeltraining_job69_2,w0,python3action_modeltraining,0.997085,1,2000.000000,1,COMPLETED_SUCCESSFULLY,340.442211,30.499683,370.941894,339.445126,369.944809,12.129464,3,-1.000000,""
68_updated,w0,python3action_modeltraining_reviews50mb_nova,0.997085,1,2000.000000,1,COMPLETED_SUCCESSFULLY,341.101954,42.399990,383.501944,340.104869,382.504859,9.021343,2,-1.000000,""
68,w0,python3action_modeltraining_reviews50mb,0.000000,1,-1.000000,1,COMPLETED_SUCCESSFULLY,383.501959,0.000010,383.501969,383.501959,383.501969,38350196.948015,2,-1.000000,""
python3action_pyaes_job91_1,w0,python3action_pyaes,0.997085,1,2000.000000,1,COMPLETED_SUCCESSFULLY,383.501989,2.134958,385.636948,382.504904,384.639863,180.162710,2,-1.000000,""
74_updated,w0,python3action_imageprocessing_SampleImage_60mb_troll,0.997085,1,2000.000000,1,COMPLETED_SUCCESSFULLY,326.269359,62.000000,388.269359,325.272274,387.272274,6.246327,20,-1.000000,""
74,w0,python3action_imageprocessing_SampleImage_60mb,0.000000,1,-1.000000,1,COMPLETED_SUCCESSFULLY,388.269374,0.000010,388.269384,388.269374,388.269384,38826938.402209,20,-1.000000,""
83_updated,w0,python3action_videoprocessing_SampleVideo_50mb_taurus,0.997085,1,2000.000000,1,COMPLETED_SUCCESSFULLY,239.055816,154.250029,393.305845,238.058731,392.308760,2.543330,15,-1.000000,""
83,w0,python3action_videoprocessing_SampleVideo_50mb,0.000000,1,-1.000000,1,COMPLETED_SUCCESSFULLY,393.305860,0.000010,393.305870,393.305860,393.305870,39330587.000201,15,-1.000000,""
82_updated,w0,python3action_imageprocessing_SampleImage_60mb_troll,0.997085,1,2000.000000,1,COMPLETED_SUCCESSFULLY,333.769369,62.000000,395.769369,332.772284,394.772284,6.367295,19,-1.000000,""
82,w0,python3action_imageprocessing_SampleImage_60mb,0.000000,1,-1.000000,1,COMPLETED_SUCCESSFULLY,395.769384,0.000010,395.769394,395.769384,395.769394,39576939.400803,19,-1.000000,""
44_updated,w0,python3action_facedetection_SampleVideo_50mb_taurus,0.997085,1,2000.000000,1,COMPLETED_SUCCESSFULLY,269.596373,134.600046,404.196419,268.599288,403.199334,2.995536,13,-1.000000,""
44,w0,python3action_facedetection_SampleVideo_50mb,0.000000,1,-1.000000,1,COMPLETED_SUCCESSFULLY,404.196434,0.000010,404.196444,404.196434,404.196444,40419644.433214,13,-1.000000,""
78_updated,w0,python3action_videoprocessing_SampleVideo_30mb_nova,0.997085,1,2000.000000,1,COMPLETED_SUCCESSFULLY,314.637206,106.799980,421.437186,313.640121,420.440101,3.936706,25,-1.000000,""
78,w0,python3action_videoprocessing_SampleVideo_30mb,0.000000,1,-1.000000,1,COMPLETED_SUCCESSFULLY,421.437201,0.000010,421.437211,421.437201,421.437211,42143721.149884,25,-1.000000,""
40_updated,w0,python3action_videoprocessing_SampleVideo_50mb_taurus,0.997085,1,2000.000000,1,COMPLETED_SUCCESSFULLY,269.596283,154.250029,423.846312,268.599198,422.849227,2.741323,10,-1.000000,""
40,w0,python3action_videoprocessing_SampleVideo_50mb,0.000000,1,-1.000000,1,COMPLETED_SUCCESSFULLY,423.846327,0.000010,423.846337,423.846327,423.846337,42384633.702105,10,-1.000000,""
76_updated,w0,python3action_pyaes_4000_nova,0.997085,1,2000.000000,1,COMPLETED_SUCCESSFULLY,287.803018,139.600010,427.403028,286.805933,426.405943,3.054484,7,-1.000000,""
76,w0,python3action_pyaes_4000,0.000000,1,-1.000000,1,COMPLETED_SUCCESSFULLY,427.403043,0.000010,427.403053,427.403043,427.403053,42740305.300201,7,-1.000000,""
python3action_chameleon_job64_9,w0,python3action_chameleon,0.997085,1,2000.000000,1,COMPLETED_SUCCESSFULLY,423.846357,5.040826,428.887183,422.849272,427.890098,84.884922,10,-1.000000,""
63_updated,w0,python3action_linpack_6000_orion,0.997085,1,2000.000000,1,COMPLETED_SUCCESSFULLY,324.763267,106.000000,430.763267,323.766182,429.766182,4.054398,8,-1.000000,""
63,w0,python3action_linpack_6000,0.000000,1,-1.000000,1,COMPLETED_SUCCESSFULLY,430.763282,0.000010,430.763292,430.763282,430.763292,43076329.226484,8,-1.000000,""
71_updated,w0,python3action_linpack_6000_orion,0.997085,1,2000.000000,1,COMPLETED_SUCCESSFULLY,324.763327,106.000000,430.763327,323.766242,429.766242,4.054399,9,-1.000000,""
71,w0,python3action_linpack_6000,0.000000,1,-1.000000,1,COMPLETED_SUCCESSFULLY,430.763342,0.000010,430.763352,430.763342,430.763352,43076335.227287,9,-1.000000,""
79_updated,w0,python3action_pyaes_4000_nova,0.997085,1,2000.000000,1,COMPLETED_SUCCESSFULLY,292.077137,139.600010,431.677147,291.080052,430.680062,3.085101,26,-1.000000,""
79,w0,python3action_pyaes_4000,0.000000,1,-1.000000,1,COMPLETED_SUCCESSFULLY,431.677162,0.000010,431.677172,431.677162,431.677172,43167717.200201,26,-1.000000,""
86_updated,w0,python3action_floatoperation_100000000_nova,0.997085,1,2000.000000,1,COMPLETED_SUCCESSFULLY,366.782114,66.200020,432.982134,365.785029,431.985049,6.525452,27,-1.000000,""
86,w0,python3action_floatoperation_100000000,0.000000,1,-1.000000,1,COMPLETED_SUCCESSFULLY,432.982149,0.000010,432.982159,432.982149,432.982159,43298215.900201,27,-1.000000,""
python3action_pyaes_job101_19,w0,python3action_pyaes_reduced_0.85,0.997085,1,2000.000000,1,COMPLETED_SUCCESSFULLY,432.982179,0.320244,433.302423,431.985094,432.305338,1349.925977,27,-1.000000,""
67_updated,w0,python3action_videoprocessing_SampleVideo_30mb_nova,0.997085,1,2000.000000,1,COMPLETED_SUCCESSFULLY,333.637221,106.799980,440.437201,332.640136,439.440116,4.114609,29,-1.000000,""
67,w0,python3action_videoprocessing_SampleVideo_30mb,0.000000,1,-1.000000,1,COMPLETED_SUCCESSFULLY,440.437217,0.000010,440.437227,440.437217,440.437227,44043722.650085,29,-1.000000,""
python3action_linpack_job89_21,w0,python3action_linpack_reduced_0.85,0.997085,1,2000.000000,1,COMPLETED_SUCCESSFULLY,440.437247,0.365992,440.803239,439.440162,439.806154,1201.683100,29,-1.000000,""
69_updated,w0,python3action_modeltraining_reviews100mb_nova,0.997085,1,2000.000000,1,COMPLETED_SUCCESSFULLY,370.941909,79.600010,450.541919,369.944824,449.544834,5.647547,3,-1.000000,""
69,w0,python3action_modeltraining_reviews100mb,0.000000,1,-1.000000,1,COMPLETED_SUCCESSFULLY,450.541934,0.000010,450.541944,450.541934,450.541944,45054194.400201,3,-1.000000,""
111_updated,w0,python3action_chameleon_2000_taurus,0.997085,1,2000.000000,1,COMPLETED_SUCCESSFULLY,393.305890,64.199977,457.505867,392.308805,456.508782,7.110731,15,-1.000000,""
111,w0,python3action_chameleon_2000,0.000000,1,-1.000000,1,COMPLETED_SUCCESSFULLY,457.505882,0.000010,457.505892,457.505882,457.505892,45750589.200201,15,-1.000000,""
python3action_facedetection_job131_13,w0,python3action_facedetection_reduced_1.83,0.997085,1,2000.000000,1,COMPLETED_SUCCESSFULLY,457.505912,0.000000,457.505912,456.508827,456.508827,3958101634110.461426,15,-1.000000,""
98_updated,w0,python3action_imageprocessing_SampleImage_60mb_troll,0.997085,1,2000.000000,1,COMPLETED_SUCCESSFULLY,395.769414,62.000000,457.769414,394.772329,456.772329,7.367296,19,-1.000000,""
98,w0,python3action_imageprocessing_SampleImage_60mb,0.000000,1,-1.000000,1,COMPLETED_SUCCESSFULLY,457.769429,0.000010,457.769439,457.769429,457.769439,45776943.901406,19,-1.000000,""
89_updated,w0,python3action_linpack_5000_nova,0.997085,1,2000.000000,1,COMPLETED_SUCCESSFULLY,440.803254,34.600010,475.403264,439.806169,474.406179,13.711157,29,-1.000000,""
89,w0,python3action_linpack_5000,0.000000,1,-1.000000,1,COMPLETED_SUCCESSFULLY,475.403279,0.000010,475.403289,475.403279,475.403289,47540328.900201,29,-1.000000,""
113_updated,w0,python3action_facedetection_SampleVideo_50mb_taurus,0.997085,1,2000.000000,1,COMPLETED_SUCCESSFULLY,342.055931,134.600046,476.655978,341.058846,475.658893,3.533869,16,-1.000000,""
113,w0,python3action_facedetection_SampleVideo_50mb,0.000000,1,-1.000000,1,COMPLETED_SUCCESSFULLY,476.655993,0.000010,476.656003,476.655993,476.656003,47665600.300201,16,-1.000000,""
python3action_video_processing_job132_14,w0,python3action_video_processing_reduced_1.83,0.997085,1,2000.000000,1,COMPLETED_SUCCESSFULLY,476.656023,0.000000,476.656023,475.658938,475.658938,4124140232180.061035,16,-1.000000,""
python3action_floatoperation_job105_21,w0,python3action_floatoperation,0.997085,1,2000.000000,1,COMPLETED_SUCCESSFULLY,475.403309,2.439945,477.843254,474.406224,476.846169,195.433140,29,-1.000000,""
106_updated,w0,python3action_videoprocessing_SampleVideo_50mb_taurus,0.997085,1,2000.000000,1,COMPLETED_SUCCESSFULLY,325.065143,154.250029,479.315172,324.068058,478.318087,3.100927,14,-1.000000,""
106,w0,python3action_videoprocessing_SampleVideo_50mb,0.000000,1,-1.000000,1,COMPLETED_SUCCESSFULLY,479.315187,0.000010,479.315197,479.315187,479.315197,47931519.700201,14,-1.000000,""
93_updated,w0,python3action_floatoperation_200000000_nova,0.997085,1,2000.000000,1,COMPLETED_SUCCESSFULLY,345.581993,135.399990,480.981984,344.584908,479.984899,3.544940,4,-1.000000,""
93,w0,python3action_floatoperation_200000000,0.000000,1,-1.000000,1,COMPLETED_SUCCESSFULLY,480.981999,0.000010,480.982009,480.981999,480.982009,48098200.900201,4,-1.000000,""
88_updated,w0,python3action_chameleon_3000_troll,0.997085,1,2000.000000,1,COMPLETED_SUCCESSFULLY,388.269404,94.000000,482.269404,387.272319,481.272319,5.119918,20,-1.000000,""
88,w0,python3action_chameleon_3000,0.000000,1,-1.000000,1,COMPLETED_SUCCESSFULLY,482.269419,0.000010,482.269429,482.269419,482.269429,48226942.902812,20,-1.000000,""
64_updated,w0,python3action_chameleon_2000_taurus,0.997085,1,2000.000000,1,COMPLETED_SUCCESSFULLY,428.887198,64.199977,493.087175,427.890113,492.090090,7.664957,10,-1.000000,""
64,w0,python3action_chameleon_2000,0.000000,1,-1.000000,1,COMPLETED_SUCCESSFULLY,493.087190,0.000010,493.087200,493.087190,493.087200,49308720.000201,10,-1.000000,""
python3action_facedetection_job97_9,w0,python3action_facedetection_reduced_1.83,0.997085,1,2000.000000,1,COMPLETED_SUCCESSFULLY,493.087220,0.000000,493.087220,492.090135,492.090135,4266604832750.021484,10,-1.000000,""
95_updated,w0,python3action_floatoperation_200000000_nova,0.997085,1,2000.000000,1,COMPLETED_SUCCESSFULLY,359.477037,135.399990,494.877028,358.479952,493.879943,3.647563,6,-1.000000,""
95,w0,python3action_floatoperation_200000000,0.000000,1,-1.000000,1,COMPLETED_SUCCESSFULLY,494.877043,0.000010,494.877053,494.877043,494.877053,49487705.300201,6,-1.000000,""
136_updated,w0,python3action_chameleon_2000_troll,0.997085,1,2000.000000,1,COMPLETED_SUCCESSFULLY,457.769459,39.500010,497.269469,456.772374,496.272384,12.563855,19,-1.000000,""
136,w0,python3action_chameleon_2000,0.000000,1,-1.000000,1,COMPLETED_SUCCESSFULLY,497.269484,0.000010,497.269494,497.269484,497.269494,49726949.400201,19,-1.000000,""
100_updated,w0,python3action_floatoperation_100000000_nova,0.997085,1,2000.000000,1,COMPLETED_SUCCESSFULLY,431.677192,66.200020,497.877212,430.680107,496.880127,7.505740,26,-1.000000,""
100,w0,python3action_floatoperation_100000000,0.000000,1,-1.000000,1,COMPLETED_SUCCESSFULLY,497.877227,0.000010,497.877237,497.877227,497.877237,49787723.700201,26,-1.000000,""
python3action_video_processing_job119_18,w0,python3action_video_processing_reduced_0.97,0.997085,1,2000.000000,1,COMPLETED_SUCCESSFULLY,497.877257,0.000000,497.877257,496.880172,496.880172,10176028437383.304688,26,-1.000000,""
112_updated,w0,python3action_pyaes_4000_nova,0.997085,1,2000.000000,1,COMPLETED_SUCCESSFULLY,361.902268,139.600010,501.502278,360.905183,500.505193,3.585280,5,-1.000000,""
112,w0,python3action_pyaes_4000,0.000000,1,-1.000000,1,COMPLETED_SUCCESSFULLY,501.502293,0.000010,501.502303,501.502293,501.502303,50150230.300201,5,-1.000000,""
104_updated,w0,python3action_pyaes_4000_nova,0.997085,1,2000.000000,1,COMPLETED_SUCCESSFULLY,364.837252,139.600010,504.437262,363.840167,503.440177,3.606305,28,-1.000000,""
104,w0,python3action_pyaes_4000,0.000000,1,-1.000000,1,COMPLETED_SUCCESSFULLY,504.437277,0.000010,504.437287,504.437277,504.437287,50443728.725514,28,-1.000000,""
python3action_linpack_job122_20,w0,python3action_linpack_reduced_0.85,0.997085,1,2000.000000,1,COMPLETED_SUCCESSFULLY,504.437307,0.365992,504.803299,503.440222,503.806214,1376.550574,28,-1.000000,""
101_updated,w0,python3action_pyaes_3000_nova,0.997085,1,2000.000000,1,COMPLETED_SUCCESSFULLY,433.302438,78.200020,511.502458,432.305353,510.505373,6.528200,27,-1.000000,""
101,w0,python3action_pyaes_3000,0.000000,1,-1.000000,1,COMPLETED_SUCCESSFULLY,511.502473,0.000010,511.502483,511.502473,511.502483,51150248.300201,27,-1.000000,""
123_updated,w0,python3action_imageprocessing_SampleImage_40mb_taurus,0.997085,1,2000.000000,1,COMPLETED_SUCCESSFULLY,479.315217,32.600046,511.915263,478.318132,510.918178,15.672315,14,-1.000000,""
123,w0,python3action_imageprocessing_SampleImage_40mb,0.000000,1,-1.000000,1,COMPLETED_SUCCESSFULLY,511.915278,0.000010,511.915288,511.915278,511.915288,51191528.813881,14,-1.000000,""
python3action_facedetection_job141_12,w0,python3action_facedetection_reduced_1.83,0.997085,1,2000.000000,1,COMPLETED_SUCCESSFULLY,511.915308,0.000000,511.915308,510.918223,510.918223,4429851372603.823242,14,-1.000000,""
70_updated,w0,python3action_videoprocessing_SampleVideo_50mb_taurus,0.997085,1,2000.000000,1,COMPLETED_SUCCESSFULLY,360.705664,154.250029,514.955693,359.708579,513.958608,3.331984,11,-1.000000,""
70,w0,python3action_videoprocessing_SampleVideo_50mb,0.000000,1,-1.000000,1,COMPLETED_SUCCESSFULLY,514.955708,0.000010,514.955718,514.955708,514.955718,51495571.800201,11,-1.000000,""
92_updated,w0,python3action_floatoperation_100000000_nova,0.997085,1,2000.000000,1,COMPLETED_SUCCESSFULLY,450.541964,66.200020,516.741984,449.544879,515.744899,7.790706,3,-1.000000,""
92,w0,python3action_floatoperation_100000000,0.000000,1,-1.000000,1,COMPLETED_SUCCESSFULLY,516.741999,0.000010,516.742009,516.741999,516.742009,51674200.900201,3,-1.000000,""
91_updated,w0,python3action_pyaes_4000_nova,0.997085,1,2000.000000,1,COMPLETED_SUCCESSFULLY,385.636963,139.600010,525.236973,384.639878,524.239888,3.755300,2,-1.000000,""
91,w0,python3action_pyaes_4000,0.000000,1,-1.000000,1,COMPLETED_SUCCESSFULLY,525.236988,0.000010,525.236998,525.236988,525.236998,52523699.800201,2,-1.000000,""
77_updated,w0,python3action_linpack_6000_orion,0.997085,1,2000.000000,1,COMPLETED_SUCCESSFULLY,430.763312,106.000000,536.763312,429.766227,535.766227,5.054398,8,-1.000000,""
77,w0,python3action_linpack_6000,0.000000,1,-1.000000,1,COMPLETED_SUCCESSFULLY,536.763327,0.000010,536.763337,536.763327,536.763337,53676333.727087,8,-1.000000,""
84_updated,w0,python3action_linpack_6000_orion,0.997085,1,2000.000000,1,COMPLETED_SUCCESSFULLY,430.763372,106.000000,536.763372,429.766287,535.766287,5.054399,9,-1.000000,""
84,w0,python3action_linpack_6000,0.000000,1,-1.000000,1,COMPLETED_SUCCESSFULLY,536.763387,0.000010,536.763397,536.763387,536.763397,53676339.727890,9,-1.000000,""
146_updated,w0,python3action_chameleon_2000_troll,0.997085,1,2000.000000,1,COMPLETED_SUCCESSFULLY,497.269514,39.500010,536.769524,496.272429,535.772439,13.563856,19,-1.000000,""
146,w0,python3action_chameleon_2000,0.000000,1,-1.000000,1,COMPLETED_SUCCESSFULLY,536.769539,0.000010,536.769549,536.769539,536.769549,53676954.900201,19,-1.000000,""
80_updated,w0,python3action_facedetection_SampleVideo_50mb_taurus,0.997085,1,2000.000000,1,COMPLETED_SUCCESSFULLY,404.196464,134.600046,538.796510,403.199379,537.799425,3.995537,13,-1.000000,""
80,w0,python3action_facedetection_SampleVideo_50mb,0.000000,1,-1.000000,1,COMPLETED_SUCCESSFULLY,538.796525,0.000010,538.796535,538.796525,538.796535,53879653.546895,13,-1.000000,""
122_updated,w0,python3action_linpack_5000_nova,0.997085,1,2000.000000,1,COMPLETED_SUCCESSFULLY,504.803314,34.600010,539.403324,503.806229,538.406239,15.560870,28,-1.000000,""
122,w0,python3action_linpack_5000,0.000000,1,-1.000000,1,COMPLETED_SUCCESSFULLY,539.403339,0.000010,539.403349,539.403339,539.403349,53940334.900201,28,-1.000000,""
python3action_floatoperation_job145_20,w0,python3action_floatoperation,0.997085,1,2000.000000,1,COMPLETED_SUCCESSFULLY,539.403369,2.439945,541.843314,538.406284,540.846229,221.663261,28,-1.000000,""
109_updated,w0,python3action_imageprocessing_SampleImage_60mb_troll,0.997085,1,2000.000000,1,COMPLETED_SUCCESSFULLY,482.269449,62.000000,544.269449,481.272364,543.272364,8.762457,20,-1.000000,""
109,w0,python3action_imageprocessing_SampleImage_60mb,0.000000,1,-1.000000,1,COMPLETED_SUCCESSFULLY,544.269464,0.000010,544.269474,544.269464,544.269474,54426947.403414,20,-1.000000,""
108_updated,w0,python3action_modeltraining_reviews50mb_nova,0.997085,1,2000.000000,1,COMPLETED_SUCCESSFULLY,516.742029,42.399990,559.142019,515.744944,558.144934,13.163799,3,-1.000000,""
108,w0,python3action_modeltraining_reviews50mb,0.000000,1,-1.000000,1,COMPLETED_SUCCESSFULLY,559.142034,0.000010,559.142044,559.142034,559.142044,55914204.423907,3,-1.000000,""
99_updated,w0,python3action_pyaes_4000_nova,0.997085,1,2000.000000,1,COMPLETED_SUCCESSFULLY,421.437232,139.600010,561.037242,420.440147,560.040157,4.011749,25,-1.000000,""
99,w0,python3action_pyaes_4000,0.000000,1,-1.000000,1,COMPLETED_SUCCESSFULLY,561.037257,0.000010,561.037267,561.037257,561.037267,56103726.700201,25,-1.000000,""
python3action_linpack_job126_2,w0,python3action_linpack,0.997085,1,2000.000000,1,COMPLETED_SUCCESSFULLY,559.142064,2.439945,561.582010,558.144979,560.584925,229.753071,3,-1.000000,""
python3action_floatoperation_job118_17,w0,python3action_floatoperation,0.997085,1,2000.000000,1,COMPLETED_SUCCESSFULLY,561.037287,2.439945,563.477232,560.040202,562.480147,230.529819,25,-1.000000,""
96_updated,w0,python3action_pyaes_4000_nova,0.997085,1,2000.000000,1,COMPLETED_SUCCESSFULLY,427.403073,139.600010,567.003083,426.405988,566.005998,4.054484,7,-1.000000,""
96,w0,python3action_pyaes_4000,0.000000,1,-1.000000,1,COMPLETED_SUCCESSFULLY,567.003098,0.000010,567.003108,567.003098,567.003108,56700310.800201,7,-1.000000,""
115_updated,w0,python3action_modeltraining_reviews100mb_nova,0.997085,1,2000.000000,1,COMPLETED_SUCCESSFULLY,494.877073,79.600010,574.477083,493.879988,573.479998,7.204522,6,-1.000000,""
115,w0,python3action_modeltraining_reviews100mb,0.000000,1,-1.000000,1,COMPLETED_SUCCESSFULLY,574.477098,0.000010,574.477108,574.477098,574.477108,57447710.800201,6,-1.000000,""
python3action_linpack_job130_5,w0,python3action_linpack_reduced_0.85,0.997085,1,2000.000000,1,COMPLETED_SUCCESSFULLY,574.477128,0.365992,574.843120,573.480043,573.846035,1567.920495,6,-1.000000,""
102_updated,w0,python3action_chameleon_2000_taurus,0.997085,1,2000.000000,1,COMPLETED_SUCCESSFULLY,514.955738,64.199977,579.155715,513.958653,578.158630,9.005589,11,-1.000000,""
102,w0,python3action_chameleon_2000,0.000000,1,-1.000000,1,COMPLETED_SUCCESSFULLY,579.155730,0.000010,579.155740,579.155730,579.155740,57915574.000201,11,-1.000000,""
python3action_image_processing_job116_10,w0,python3action_image_processing_reduced_0.86,0.997085,1,2000.000000,1,COMPLETED_SUCCESSFULLY,579.155760,9.731413,588.887173,578.158675,587.890088,60.411586,11,-1.000000,""
131_updated,w0,python3action_facedetection_SampleVideo_50mb_taurus,0.997085,1,2000.000000,1,COMPLETED_SUCCESSFULLY,457.505942,134.600046,592.105988,456.508857,591.108903,4.391595,15,-1.000000,""
131,w0,python3action_facedetection_SampleVideo_50mb,0.000000,1,-1.000000,1,COMPLETED_SUCCESSFULLY,592.106003,0.000010,592.106013,592.106003,592.106013,59210601.314283,15,-1.000000,""
126_updated,w0,python3action_linpack_5000_nova,0.997085,1,2000.000000,1,COMPLETED_SUCCESSFULLY,561.582025,34.600010,596.182035,560.584940,595.184950,17.201872,3,-1.000000,""
126,w0,python3action_linpack_5000,0.000000,1,-1.000000,1,COMPLETED_SUCCESSFULLY,596.182050,0.000010,596.182060,596.182050,596.182060,59618206.000201,3,-1.000000,""
107_updated,w0,python3action_modeltraining_reviews100mb_nova,0.997085,1,2000.000000,1,COMPLETED_SUCCESSFULLY,525.237018,79.600010,604.837028,524.239933,603.839943,7.585928,2,-1.000000,""
107,w0,python3action_modeltraining_reviews100mb,0.000000,1,-1.000000,1,COMPLETED_SUCCESSFULLY,604.837043,0.000010,604.837053,604.837043,604.837053,60483705.300201,2,-1.000000,""
145_updated,w0,python3action_floatoperation_100000000_nova,0.997085,1,2000.000000,1,COMPLETED_SUCCESSFULLY,541.843329,66.200020,608.043349,540.846244,607.046264,9.169880,28,-1.000000,""
145,w0,python3action_floatoperation_100000000,0.000000,1,-1.000000,1,COMPLETED_SUCCESSFULLY,608.043364,0.000010,608.043374,608.043364,608.043374,60804337.400201,28,-1.000000,""
130_updated,w0,python3action_linpack_5000_nova,0.997085,1,2000.000000,1,COMPLETED_SUCCESSFULLY,574.843135,34.600010,609.443145,573.846050,608.446060,17.585141,6,-1.000000,""
130,w0,python3action_linpack_5000,0.000000,1,-1.000000,1,COMPLETED_SUCCESSFULLY,609.443160,0.000010,609.443170,609.443160,609.443170,60944317.000201,6,-1.000000,""
105_updated,w0,python3action_floatoperation_200000000_nova,0.997085,1,2000.000000,1,COMPLETED_SUCCESSFULLY,477.843269,135.399990,613.243260,476.846184,612.246175,4.521759,29,-1.000000,""
105,w0,python3action_floatoperation_200000000,0.000000,1,-1.000000,1,COMPLETED_SUCCESSFULLY,613.243275,0.000010,613.243285,613.243275,613.243285,61324328.500201,29,-1.000000,""
python3action_modeltraining_job124_21,w0,python3action_modeltraining_reduced_1.94,0.997085,1,2000.000000,1,COMPLETED_SUCCESSFULLY,613.243305,0.000000,613.243305,612.246220,612.246220,12524127217834.050781,29,-1.000000,""
110_updated,w0,python3action_floatoperation_200000000_nova,0.997085,1,2000.000000,1,COMPLETED_SUCCESSFULLY,480.982029,135.399990,616.382019,479.984944,615.384934,4.544941,4,-1.000000,""
110,w0,python3action_floatoperation_200000000,0.000000,1,-1.000000,1,COMPLETED_SUCCESSFULLY,616.382034,0.000010,616.382044,616.382034,616.382044,61638204.423907,4,-1.000000,""
116_updated,w0,python3action_imageprocessing_SampleImage_40mb_taurus,0.997085,1,2000.000000,1,COMPLETED_SUCCESSFULLY,588.887188,32.600046,621.487234,587.890103,620.490149,19.033413,11,-1.000000,""
116,w0,python3action_imageprocessing_SampleImage_40mb,0.000000,1,-1.000000,1,COMPLETED_SUCCESSFULLY,621.487249,0.000010,621.487259,621.487249,621.487259,62148725.913480,11,-1.000000,""
97_updated,w0,python3action_facedetection_SampleVideo_50mb_taurus,0.997085,1,2000.000000,1,COMPLETED_SUCCESSFULLY,493.087250,134.600046,627.687296,492.090165,626.690211,4.655944,10,-1.000000,""
97,w0,python3action_facedetection_SampleVideo_50mb,0.000000,1,-1.000000,1,COMPLETED_SUCCESSFULLY,627.687311,0.000010,627.687321,627.687311,627.687321,62768732.114283,10,-1.000000,""
168_updated,w0,python3action_chameleon_3000_troll,0.997085,1,2000.000000,1,COMPLETED_SUCCESSFULLY,536.769569,94.000000,630.769569,535.772484,629.772484,6.699707,19,-1.000000,""
168,w0,python3action_chameleon_3000,0.000000,1,-1.000000,1,COMPLETED_SUCCESSFULLY,630.769584,0.000010,630.769594,630.769584,630.769594,63076959.400803,19,-1.000000,""
132_updated,w0,python3action_videoprocessing_SampleVideo_50mb_taurus,0.997085,1,2000.000000,1,COMPLETED_SUCCESSFULLY,476.656053,154.250029,630.906082,475.658968,629.908997,4.083688,16,-1.000000,""
132,w0,python3action_videoprocessing_SampleVideo_50mb,0.000000,1,-1.000000,1,COMPLETED_SUCCESSFULLY,630.906097,0.000010,630.906107,630.906097,630.906107,63090610.700201,16,-1.000000,""
119_updated,w0,python3action_videoprocessing_SampleVideo_50mb_nova,0.997085,1,2000.000000,1,COMPLETED_SUCCESSFULLY,497.877287,139.600010,637.477297,496.880202,636.480212,4.559314,26,-1.000000,""
119,w0,python3action_videoprocessing_SampleVideo_50mb,0.000000,1,-1.000000,1,COMPLETED_SUCCESSFULLY,637.477312,0.000010,637.477322,637.477312,637.477322,63747732.200201,26,-1.000000,""
python3action_facedetection_job137_18,w0,python3action_facedetection_reduced_1.83,0.997085,1,2000.000000,1,COMPLETED_SUCCESSFULLY,637.477342,0.000000,637.477342,636.480257,636.480257,13019859412614.587891,26,-1.000000,""
139_updated,w0,python3action_chameleon_3000_troll,0.997085,1,2000.000000,1,COMPLETED_SUCCESSFULLY,544.269494,94.000000,638.269494,543.272409,637.272409,6.779494,20,-1.000000,""
139,w0,python3action_chameleon_3000,0.000000,1,-1.000000,1,COMPLETED_SUCCESSFULLY,638.269509,0.000010,638.269519,638.269509,638.269519,63826951.904017,20,-1.000000,""
129_updated,w0,python3action_pyaes_4000_nova,0.997085,1,2000.000000,1,COMPLETED_SUCCESSFULLY,501.502323,139.600010,641.102333,500.505238,640.105248,4.585281,5,-1.000000,""
129,w0,python3action_pyaes_4000,0.000000,1,-1.000000,1,COMPLETED_SUCCESSFULLY,641.102348,0.000010,641.102358,641.102348,641.102358,64110235.800201,5,-1.000000,""
90_updated,w0,python3action_linpack_6000_orion,0.997085,1,2000.000000,1,COMPLETED_SUCCESSFULLY,536.763357,106.000000,642.763357,535.766272,641.766272,6.054399,8,-1.000000,""
90,w0,python3action_linpack_6000,0.000000,1,-1.000000,1,COMPLETED_SUCCESSFULLY,642.763372,0.000010,642.763382,642.763372,642.763382,64276338.227689,8,-1.000000,""
128_updated,w0,python3action_linpack_6000_orion,0.997085,1,2000.000000,1,COMPLETED_SUCCESSFULLY,536.763417,106.000000,642.763417,535.766332,641.766332,6.054399,9,-1.000000,""
128,w0,python3action_linpack_6000,0.000000,1,-1.000000,1,COMPLETED_SUCCESSFULLY,642.763432,0.000010,642.763442,642.763432,642.763442,64276344.228492,9,-1.000000,""
117_updated,w0,python3action_pyaes_3000_nova,0.997085,1,2000.000000,1,COMPLETED_SUCCESSFULLY,567.003128,78.200020,645.203148,566.006043,644.206063,8.237927,7,-1.000000,""
117,w0,python3action_pyaes_3000,0.000000,1,-1.000000,1,COMPLETED_SUCCESSFULLY,645.203163,0.000010,645.203173,645.203163,645.203173,64520317.300201,7,-1.000000,""
python3action_video_processing_job133_6,w0,python3action_video_processing_reduced_0.97,0.997085,1,2000.000000,1,COMPLETED_SUCCESSFULLY,645.203193,0.000000,645.203193,644.206108,644.206108,13177899654641.841797,7,-1.000000,""
141_updated,w0,python3action_facedetection_SampleVideo_50mb_taurus,0.997085,1,2000.000000,1,COMPLETED_SUCCESSFULLY,511.915338,134.600046,646.515384,510.918253,645.518299,4.795825,14,-1.000000,""
141,w0,python3action_facedetection_SampleVideo_50mb,0.000000,1,-1.000000,1,COMPLETED_SUCCESSFULLY,646.515399,0.000010,646.515409,646.515399,646.515409,64651540.927963,14,-1.000000,""
121_updated,w0,python3action_floatoperation_200000000_nova,0.997085,1,2000.000000,1,COMPLETED_SUCCESSFULLY,511.502503,135.399990,646.902493,510.505418,645.905408,4.770350,27,-1.000000,""
121,w0,python3action_floatoperation_200000000,0.000000,1,-1.000000,1,COMPLETED_SUCCESSFULLY,646.902508,0.000010,646.902518,646.902508,646.902518,64690251.823907,27,-1.000000,""
127_updated,w0,python3action_linpack_5000_nova,0.997085,1,2000.000000,1,COMPLETED_SUCCESSFULLY,616.382064,34.600010,650.982074,615.384979,649.984989,18.785688,4,-1.000000,""
127,w0,python3action_linpack_5000,0.000000,1,-1.000000,1,COMPLETED_SUCCESSFULLY,650.982089,0.000010,650.982099,650.982089,650.982099,65098209.901406,4,-1.000000,""
python3action_pyaes_job150_3,w0,python3action_pyaes_reduced_0.85,0.997085,1,2000.000000,1,COMPLETED_SUCCESSFULLY,650.982119,0.320244,651.302363,649.985034,650.305278,2030.657294,4,-1.000000,""
142_updated,w0,python3action_chameleon_2000_taurus,0.997085,1,2000.000000,1,COMPLETED_SUCCESSFULLY,592.106033,64.199977,656.306010,591.108948,655.308925,10.207308,15,-1.000000,""
142,w0,python3action_chameleon_2000,0.000000,1,-1.000000,1,COMPLETED_SUCCESSFULLY,656.306025,0.000010,656.306035,656.306025,656.306035,65630603.508346,15,-1.000000,""
114_updated,w0,python3action_imageprocessing_SampleImage_40mb_taurus,0.997085,1,2000.000000,1,COMPLETED_SUCCESSFULLY,627.687341,32.600046,660.287387,626.690256,659.290302,20.223600,10,-1.000000,""
114,w0,python3action_imageprocessing_SampleImage_40mb,0.000000,1,-1.000000,1,COMPLETED_SUCCESSFULLY,660.287402,0.000010,660.287412,660.287402,660.287412,66028741.227963,10,-1.000000,""
103_updated,w0,python3action_facedetection_SampleVideo_50mb_taurus,0.997085,1,2000.000000,1,COMPLETED_SUCCESSFULLY,538.796555,134.600046,673.396602,537.799470,672.399517,4.995537,13,-1.000000,""
103,w0,python3action_facedetection_SampleVideo_50mb,0.000000,1,-1.000000,1,COMPLETED_SUCCESSFULLY,673.396617,0.000010,673.396627,673.396617,673.396627,67339662.700201,13,-1.000000,""
162_updated,w0,python3action_floatoperation_100000000_nova,0.997085,1,2000.000000,1,COMPLETED_SUCCESSFULLY,608.043394,66.200020,674.243414,607.046309,673.246329,10.169881,28,-1.000000,""
162,w0,python3action_floatoperation_100000000,0.000000,1,-1.000000,1,COMPLETED_SUCCESSFULLY,674.243429,0.000010,674.243439,674.243429,674.243439,67424343.900201,28,-1.000000,""
153_updated,w0,python3action_floatoperation_100000000_nova,0.997085,1,2000.000000,1,COMPLETED_SUCCESSFULLY,609.443190,66.200020,675.643210,608.446105,674.646125,10.191026,6,-1.000000,""
153,w0,python3action_floatoperation_100000000,0.000000,1,-1.000000,1,COMPLETED_SUCCESSFULLY,675.643225,0.000010,675.643235,675.643225,675.643235,67564323.500201,6,-1.000000,""
152_updated,w0,python3action_linpack_5000_nova,0.997085,1,2000.000000,1,COMPLETED_SUCCESSFULLY,641.102378,34.600010,675.702388,640.105293,674.705303,19.500148,5,-1.000000,""
152,w0,python3action_linpack_5000,0.000000,1,-1.000000,1,COMPLETED_SUCCESSFULLY,675.702403,0.000010,675.702413,675.702403,675.702413,67570241.300201,5,-1.000000,""
149_updated,w0,python3action_modeltraining_reviews100mb_nova,0.997085,1,2000.000000,1,COMPLETED_SUCCESSFULLY,596.182080,79.600010,675.782090,595.184995,674.785005,8.477198,3,-1.000000,""
149,w0,python3action_modeltraining_reviews100mb,0.000000,1,-1.000000,1,COMPLETED_SUCCESSFULLY,675.782105,0.000010,675.782115,675.782105,675.782115,67578211.500201,3,-1.000000,""
python3action_video_processing_job169_2,w0,python3action_video_processing_reduced_0.97,0.997085,1,2000.000000,1,COMPLETED_SUCCESSFULLY,675.782135,0.000000,675.782135,674.785050,674.785050,13803423418252.779297,3,-1.000000,""
138_updated,w0,python3action_chameleon_2000_taurus,0.997085,1,2000.000000,1,COMPLETED_SUCCESSFULLY,621.487279,64.199977,685.687256,620.490194,684.690171,10.664960,11,-1.000000,""
138,w0,python3action_chameleon_2000,0.000000,1,-1.000000,1,COMPLETED_SUCCESSFULLY,685.687271,0.000010,685.687281,685.687271,685.687281,68568728.107543,11,-1.000000,""
175_updated,w0,python3action_imageprocessing_SampleImage_60mb_troll,0.997085,1,2000.000000,1,COMPLETED_SUCCESSFULLY,630.769614,62.000000,692.769614,629.772529,691.772529,11.157621,19,-1.000000,""
175,w0,python3action_imageprocessing_SampleImage_60mb,0.000000,1,-1.000000,1,COMPLETED_SUCCESSFULLY,692.769629,0.000010,692.769639,692.769629,692.769639,69276963.901405,19,-1.000000,""
124_updated,w0,python3action_modeltraining_reviews100mb_nova,0.997085,1,2000.000000,1,COMPLETED_SUCCESSFULLY,613.243335,79.600010,692.843345,612.246250,691.846260,8.691535,29,-1.000000,""
124,w0,python3action_modeltraining_reviews100mb,0.000000,1,-1.000000,1,COMPLETED_SUCCESSFULLY,692.843360,0.000010,692.843370,692.843360,692.843370,69284337.000201,29,-1.000000,""
118_updated,w0,python3action_floatoperation_200000000_nova,0.997085,1,2000.000000,1,COMPLETED_SUCCESSFULLY,563.477247,135.399990,698.877238,562.480162,697.880153,5.154211,25,-1.000000,""
118,w0,python3action_floatoperation_200000000,0.000000,1,-1.000000,1,COMPLETED_SUCCESSFULLY,698.877253,0.000010,698.877263,698.877253,698.877263,69887726.300201,25,-1.000000,""
183_updated,w0,python3action_linpack_5000_nova,0.997085,1,2000.000000,1,COMPLETED_SUCCESSFULLY,674.243459,34.600010,708.843469,673.246374,707.846384,20.457982,28,-1.000000,""
183,w0,python3action_linpack_5000,0.000000,1,-1.000000,1,COMPLETED_SUCCESSFULLY,708.843484,0.000010,708.843494,708.843484,708.843494,70884349.400201,28,-1.000000,""
172_updated,w0,python3action_linpack_5000_nova,0.997085,1,2000.000000,1,COMPLETED_SUCCESSFULLY,675.702433,34.600010,710.302443,674.705348,709.305358,20.500149,5,-1.000000,""
172,w0,python3action_linpack_5000,0.000000,1,-1.000000,1,COMPLETED_SUCCESSFULLY,710.302458,0.000010,710.302468,710.302458,710.302468,71030246.800201,5,-1.000000,""
143_updated,w0,python3action_pyaes_3000_nova,0.997085,1,2000.000000,1,COMPLETED_SUCCESSFULLY,646.902538,78.200020,725.102558,645.905453,724.105473,9.259658,27,-1.000000,""
143,w0,python3action_pyaes_3000,0.000000,1,-1.000000,1,COMPLETED_SUCCESSFULLY,725.102573,0.000010,725.102583,725.102573,725.102583,72510258.300201,27,-1.000000,""
147_updated,w0,python3action_linpack_5000_nova,0.997085,1,2000.000000,1,COMPLETED_SUCCESSFULLY,692.843390,34.600010,727.443400,691.846305,726.446315,20.995552,29,-1.000000,""
147,w0,python3action_linpack_5000,0.000000,1,-1.000000,1,COMPLETED_SUCCESSFULLY,727.443415,0.000010,727.443425,727.443415,727.443425,72744342.500201,29,-1.000000,""
165_updated,w0,python3action_chameleon_3000_troll,0.997085,1,2000.000000,1,COMPLETED_SUCCESSFULLY,638.269539,94.000000,732.269539,637.272454,731.272454,7.779494,20,-1.000000,""
165,w0,python3action_chameleon_3000,0.000000,1,-1.000000,1,COMPLETED_SUCCESSFULLY,732.269554,0.000010,732.269564,732.269554,732.269564,73226956.404619,20,-1.000000,""
191_updated,w0,python3action_linpack_5000_nova,0.997085,1,2000.000000,1,COMPLETED_SUCCESSFULLY,710.302488,34.600010,744.902498,709.305403,743.905413,21.500150,5,-1.000000,""
191,w0,python3action_linpack_5000,0.000000,1,-1.000000,1,COMPLETED_SUCCESSFULLY,744.902513,0.000010,744.902523,744.902513,744.902523,74490252.300201,5,-1.000000,""
178_updated,w0,python3action_linpack_6000_orion,0.997085,1,2000.000000,1,COMPLETED_SUCCESSFULLY,642.763402,106.000000,748.763402,641.766317,747.766317,7.054399,8,-1.000000,""
178,w0,python3action_linpack_6000,0.000000,1,-1.000000,1,COMPLETED_SUCCESSFULLY,748.763417,0.000010,748.763427,748.763417,748.763427,74876342.728291,8,-1.000000,""
192_updated,w0,python3action_linpack_6000_orion,0.997085,1,2000.000000,1,COMPLETED_SUCCESSFULLY,642.763462,106.000000,748.763462,641.766377,747.766377,7.054400,9,-1.000000,""
192,w0,python3action_linpack_6000,0.000000,1,-1.000000,1,COMPLETED_SUCCESSFULLY,748.763477,0.000010,748.763487,748.763477,748.763487,74876348.729095,9,-1.000000,""
155_updated,w0,python3action_chameleon_2000_taurus,0.997085,1,2000.000000,1,COMPLETED_SUCCESSFULLY,685.687301,64.199977,749.887278,684.690216,748.890193,11.664960,11,-1.000000,""
155,w0,python3action_chameleon_2000,0.000000,1,-1.000000,1,COMPLETED_SUCCESSFULLY,749.887293,0.000010,749.887303,749.887293,749.887303,74988730.301606,11,-1.000000,""
python3action_facedetection_job170_10,w0,python3action_facedetection_reduced_1.83,0.997085,1,2000.000000,1,COMPLETED_SUCCESSFULLY,749.887323,0.000000,749.887323,748.890238,748.890238,6496359168687.485352,11,-1.000000,""
133_updated,w0,python3action_videoprocessing_SampleVideo_30mb_nova,0.997085,1,2000.000000,1,COMPLETED_SUCCESSFULLY,645.203223,106.799980,752.003203,644.206138,751.006118,7.031894,7,-1.000000,""
133,w0,python3action_videoprocessing_SampleVideo_30mb,0.000000,1,-1.000000,1,COMPLETED_SUCCESSFULLY,752.003218,0.000010,752.003228,752.003218,752.003228,75200322.847412,7,-1.000000,""
174_updated,w0,python3action_pyaes_3000_nova,0.997085,1,2000.000000,1,COMPLETED_SUCCESSFULLY,675.643255,78.200020,753.843275,674.646170,752.846190,9.627187,6,-1.000000,""
174,w0,python3action_pyaes_3000,0.000000,1,-1.000000,1,COMPLETED_SUCCESSFULLY,753.843290,0.000010,753.843300,753.843290,753.843300,75384330.000201,6,-1.000000,""
161_updated,w0,python3action_linpack_5000_nova,0.997085,1,2000.000000,1,COMPLETED_SUCCESSFULLY,725.102603,34.600010,759.702613,724.105518,758.705528,21.927899,27,-1.000000,""
161,w0,python3action_linpack_5000,0.000000,1,-1.000000,1,COMPLETED_SUCCESSFULLY,759.702628,0.000010,759.702638,759.702628,759.702638,75970263.800201,27,-1.000000,""
python3action_video_processing_job182_19,w0,python3action_video_processing_reduced_0.91,0.997085,1,2000.000000,1,COMPLETED_SUCCESSFULLY,759.702658,0.000000,759.702658,758.705573,758.705573,15520104178207.072266,27,-1.000000,""
125_updated,w0,python3action_facedetection_SampleVideo_30mb_nova,0.997085,1,2000.000000,1,COMPLETED_SUCCESSFULLY,604.837073,160.399990,765.237063,603.839988,764.239978,4.764589,2,-1.000000,""
125,w0,python3action_facedetection_SampleVideo_30mb,0.000000,1,-1.000000,1,COMPLETED_SUCCESSFULLY,765.237078,0.000010,765.237088,765.237078,765.237088,76523708.823907,2,-1.000000,""
159_updated,w0,python3action_facedetection_SampleVideo_50mb_taurus,0.997085,1,2000.000000,1,COMPLETED_SUCCESSFULLY,646.515429,134.600046,781.115475,645.518344,780.118390,5.795826,14,-1.000000,""
159,w0,python3action_facedetection_SampleVideo_50mb,0.000000,1,-1.000000,1,COMPLETED_SUCCESSFULLY,781.115490,0.000010,781.115500,781.115490,781.115500,78111550.041644,14,-1.000000,""
144_updated,w0,python3action_videoprocessing_SampleVideo_50mb_taurus,0.997085,1,2000.000000,1,COMPLETED_SUCCESSFULLY,630.906127,154.250029,785.156156,629.909042,784.159071,5.083688,16,-1.000000,""
144,w0,python3action_videoprocessing_SampleVideo_50mb,0.000000,1,-1.000000,1,COMPLETED_SUCCESSFULLY,785.156171,0.000010,785.156181,785.156171,785.156181,78515618.100201,16,-1.000000,""
186_updated,w0,python3action_chameleon_3000_troll,0.997085,1,2000.000000,1,COMPLETED_SUCCESSFULLY,692.769659,94.000000,786.769659,691.772574,785.772574,8.359283,19,-1.000000,""
186,w0,python3action_chameleon_3000,0.000000,1,-1.000000,1,COMPLETED_SUCCESSFULLY,786.769674,0.000010,786.769684,786.769674,786.769684,78676968.402008,19,-1.000000,""
150_updated,w0,python3action_pyaes_4000_nova,0.997085,1,2000.000000,1,COMPLETED_SUCCESSFULLY,651.302378,139.600010,790.902388,650.305293,789.905303,5.658347,4,-1.000000,""
150,w0,python3action_pyaes_4000,0.000000,1,-1.000000,1,COMPLETED_SUCCESSFULLY,790.902403,0.000010,790.902413,790.902403,790.902413,79090241.300201,4,-1.000000,""
python3action_video_processing_job171_3,w0,python3action_video_processing_reduced_1.89,0.997085,1,2000.000000,1,COMPLETED_SUCCESSFULLY,790.902433,0.000000,790.902433,789.905348,789.905348,16158327720467.441406,4,-1.000000,""
163_updated,w0,python3action_floatoperation_100000000_nova,0.997085,1,2000.000000,1,COMPLETED_SUCCESSFULLY,727.443445,66.200020,793.643465,726.446360,792.646380,11.973507,29,-1.000000,""
163,w0,python3action_floatoperation_100000000,0.000000,1,-1.000000,1,COMPLETED_SUCCESSFULLY,793.643480,0.000010,793.643490,793.643480,793.643490,79364349.000201,29,-1.000000,""
154_updated,w0,python3action_modeltraining_reviews50mb_nova,0.997085,1,2000.000000,1,COMPLETED_SUCCESSFULLY,752.003248,42.399990,794.403239,751.006163,793.406154,18.712414,7,-1.000000,""
154,w0,python3action_modeltraining_reviews50mb,0.000000,1,-1.000000,1,COMPLETED_SUCCESSFULLY,794.403254,0.000010,794.403264,794.403254,794.403264,79440326.400201,7,-1.000000,""
135_updated,w0,python3action_facedetection_SampleVideo_50mb_taurus,0.997085,1,2000.000000,1,COMPLETED_SUCCESSFULLY,660.287432,134.600046,794.887478,659.290347,793.890393,5.898144,10,-1.000000,""
135,w0,python3action_facedetection_SampleVideo_50mb,0.000000,1,-1.000000,1,COMPLETED_SUCCESSFULLY,794.887493,0.000010,794.887503,794.887493,794.887503,79488750.341643,10,-1.000000,""
137_updated,w0,python3action_facedetection_SampleVideo_30mb_nova,0.997085,1,2000.000000,1,COMPLETED_SUCCESSFULLY,637.477372,160.399990,797.877362,636.480287,796.880277,4.968082,26,-1.000000,""
137,w0,python3action_facedetection_SampleVideo_30mb,0.000000,1,-1.000000,1,COMPLETED_SUCCESSFULLY,797.877377,0.000010,797.877387,797.877377,797.877387,79787738.724308,26,-1.000000,""
120_updated,w0,python3action_facedetection_SampleVideo_50mb_taurus,0.997085,1,2000.000000,1,COMPLETED_SUCCESSFULLY,673.396647,134.600046,807.996693,672.399562,806.999608,5.995537,13,-1.000000,""
120,w0,python3action_facedetection_SampleVideo_50mb,0.000000,1,-1.000000,1,COMPLETED_SUCCESSFULLY,807.996708,0.000010,807.996718,807.996708,807.996718,80799671.813881,13,-1.000000,""
160_updated,w0,python3action_videoprocessing_SampleVideo_50mb_taurus,0.997085,1,2000.000000,1,COMPLETED_SUCCESSFULLY,656.306055,154.250029,810.556084,655.308970,809.558999,5.248356,15,-1.000000,""
160,w0,python3action_videoprocessing_SampleVideo_50mb,0.000000,1,-1.000000,1,COMPLETED_SUCCESSFULLY,810.556099,0.000010,810.556109,810.556099,810.556109,81055610.900201,15,-1.000000,""
python3action_chameleon_job140_11,w0,python3action_chameleon,0.997085,1,2000.000000,1,COMPLETED_SUCCESSFULLY,807.996738,5.040826,813.037564,806.999653,812.040479,161.092750,13,-1.000000,""
169_updated,w0,python3action_videoprocessing_SampleVideo_50mb_nova,0.997085,1,2000.000000,1,COMPLETED_SUCCESSFULLY,675.782165,139.600010,815.382175,674.785080,814.385090,5.833704,3,-1.000000,""
169,w0,python3action_videoprocessing_SampleVideo_50mb,0.000000,1,-1.000000,1,COMPLETED_SUCCESSFULLY,815.382190,0.000010,815.382200,815.382190,815.382200,81538220.000201,3,-1.000000,""
164_updated,w0,python3action_imageprocessing_SampleImage_40mb_taurus,0.997085,1,2000.000000,1,COMPLETED_SUCCESSFULLY,785.156201,32.600046,817.756247,784.159116,816.759162,25.053927,16,-1.000000,""
164,w0,python3action_imageprocessing_SampleImage_40mb,0.000000,1,-1.000000,1,COMPLETED_SUCCESSFULLY,817.756262,0.000010,817.756272,817.756262,817.756272,81775627.213881,16,-1.000000,""
173_updated,w0,python3action_chameleon_3000_troll,0.997085,1,2000.000000,1,COMPLETED_SUCCESSFULLY,732.269584,94.000000,826.269584,731.272499,825.272499,8.779495,20,-1.000000,""
173,w0,python3action_chameleon_3000,0.000000,1,-1.000000,1,COMPLETED_SUCCESSFULLY,826.269599,0.000010,826.269609,826.269599,826.269609,82626960.905221,20,-1.000000,""
194_updated,w0,python3action_modeltraining_reviews100mb_nova,0.997085,1,2000.000000,1,COMPLETED_SUCCESSFULLY,753.843320,79.600010,833.443330,752.846235,832.446245,10.457866,6,-1.000000,""
194,w0,python3action_modeltraining_reviews100mb,0.000000,1,-1.000000,1,COMPLETED_SUCCESSFULLY,833.443345,0.000010,833.443355,833.443345,833.443355,83344335.500201,6,-1.000000,""
193_updated,w0,python3action_imageprocessing_SampleImage_60mb_troll,0.997085,1,2000.000000,1,COMPLETED_SUCCESSFULLY,786.769704,62.000000,848.769704,785.772619,847.772619,13.673752,19,-1.000000,""
193,w0,python3action_imageprocessing_SampleImage_60mb,0.000000,1,-1.000000,1,COMPLETED_SUCCESSFULLY,848.769719,0.000010,848.769729,848.769719,848.769729,84876972.902610,19,-1.000000,""
199_updated,w0,python3action_imageprocessing_SampleImage_40mb_taurus,0.997085,1,2000.000000,1,COMPLETED_SUCCESSFULLY,817.756292,32.600046,850.356338,816.759207,849.359253,26.053928,16,-1.000000,""
199,w0,python3action_imageprocessing_SampleImage_40mb,0.000000,1,-1.000000,1,COMPLETED_SUCCESSFULLY,850.356353,0.000010,850.356363,850.356353,850.356363,85035636.327562,16,-1.000000,""
134_updated,w0,python3action_facedetection_SampleVideo_30mb_nova,0.997085,1,2000.000000,1,COMPLETED_SUCCESSFULLY,698.877283,160.399990,859.277273,697.880198,858.280188,5.350874,25,-1.000000,""
134,w0,python3action_facedetection_SampleVideo_30mb,0.000000,1,-1.000000,1,COMPLETED_SUCCESSFULLY,859.277288,0.000010,859.277298,859.277288,859.277298,85927729.823907,25,-1.000000,""
182_updated,w0,python3action_videoprocessing_SampleVideo_30mb_nova,0.997085,1,2000.000000,1,COMPLETED_SUCCESSFULLY,759.702688,106.799980,866.502668,758.705603,865.505583,8.103986,27,-1.000000,""
182,w0,python3action_videoprocessing_SampleVideo_30mb,0.000000,1,-1.000000,1,COMPLETED_SUCCESSFULLY,866.502683,0.000010,866.502693,866.502683,866.502693,86650269.347412,27,-1.000000,""
158_updated,w0,python3action_pyaes_3000_nova,0.997085,1,2000.000000,1,COMPLETED_SUCCESSFULLY,797.877407,78.200020,876.077427,796.880322,875.080342,11.190283,26,-1.000000,""
158,w0,python3action_pyaes_3000,0.000000,1,-1.000000,1,COMPLETED_SUCCESSFULLY,876.077442,0.000010,876.077452,876.077442,876.077452,87607745.200201,26,-1.000000,""
python3action_linpack_job181_18,w0,python3action_linpack_reduced_0.85,0.997085,1,2000.000000,1,COMPLETED_SUCCESSFULLY,876.077472,0.365992,876.443464,875.080387,875.446379,2391.983626,26,-1.000000,""
140_updated,w0,python3action_chameleon_2000_taurus,0.997085,1,2000.000000,1,COMPLETED_SUCCESSFULLY,813.037579,64.199977,877.237556,812.040494,876.240471,13.648610,13,-1.000000,""
140,w0,python3action_chameleon_2000,0.000000,1,-1.000000,1,COMPLETED_SUCCESSFULLY,877.237571,0.000010,877.237581,877.237571,877.237581,87723758.100201,13,-1.000000,""
170_updated,w0,python3action_facedetection_SampleVideo_50mb_taurus,0.997085,1,2000.000000,1,COMPLETED_SUCCESSFULLY,749.887353,134.600046,884.487399,748.890268,883.490314,6.563819,11,-1.000000,""
170,w0,python3action_facedetection_SampleVideo_50mb,0.000000,1,-1.000000,1,COMPLETED_SUCCESSFULLY,884.487414,0.000010,884.487424,884.487414,884.487424,88448742.415688,11,-1.000000,""
189_updated,w0,python3action_modeltraining_reviews100mb_nova,0.997085,1,2000.000000,1,COMPLETED_SUCCESSFULLY,815.382220,79.600010,894.982230,814.385135,893.985145,11.230968,3,-1.000000,""
189,w0,python3action_modeltraining_reviews100mb,0.000000,1,-1.000000,1,COMPLETED_SUCCESSFULLY,894.982245,0.000010,894.982255,894.982245,894.982255,89498225.500201,3,-1.000000,""
171_updated,w0,python3action_videoprocessing_SampleVideo_30mb_nova,0.997085,1,2000.000000,1,COMPLETED_SUCCESSFULLY,790.902463,106.799980,897.702443,789.905378,896.705358,8.396119,4,-1.000000,""
171,w0,python3action_videoprocessing_SampleVideo_30mb,0.000000,1,-1.000000,1,COMPLETED_SUCCESSFULLY,897.702458,0.000010,897.702468,897.702458,897.702468,89770246.847412,4,-1.000000,""
181_updated,w0,python3action_linpack_5000_nova,0.997085,1,2000.000000,1,COMPLETED_SUCCESSFULLY,876.443479,34.600010,911.043489,875.446394,910.046404,26.301912,26,-1.000000,""
181,w0,python3action_linpack_5000,0.000000,1,-1.000000,1,COMPLETED_SUCCESSFULLY,911.043504,0.000010,911.043514,911.043504,911.043514,91104351.400201,26,-1.000000,""
177_updated,w0,python3action_chameleon_3000_troll,0.997085,1,2000.000000,1,COMPLETED_SUCCESSFULLY,826.269629,94.000000,920.269629,825.272544,919.272544,9.779495,20,-1.000000,""
177,w0,python3action_chameleon_3000,0.000000,1,-1.000000,1,COMPLETED_SUCCESSFULLY,920.269644,0.000010,920.269654,920.269644,920.269654,92026965.405824,20,-1.000000,""
148_updated,w0,python3action_facedetection_SampleVideo_30mb_nova,0.997085,1,2000.000000,1,COMPLETED_SUCCESSFULLY,765.237108,160.399990,925.637098,764.240023,924.640013,5.764589,2,-1.000000,""
148,w0,python3action_facedetection_SampleVideo_30mb,0.000000,1,-1.000000,1,COMPLETED_SUCCESSFULLY,925.637113,0.000010,925.637123,925.637113,925.637123,92563712.347612,2,-1.000000,""
151_updated,w0,python3action_facedetection_SampleVideo_50mb_taurus,0.997085,1,2000.000000,1,COMPLETED_SUCCESSFULLY,794.887523,134.600046,929.487570,793.890438,928.490485,6.898144,10,-1.000000,""
151,w0,python3action_facedetection_SampleVideo_50mb,0.000000,1,-1.000000,1,COMPLETED_SUCCESSFULLY,929.487585,0.000010,929.487595,929.487585,929.487595,92948759.500201,10,-1.000000,""
176_updated,w0,python3action_pyaes_4000_nova,0.997085,1,2000.000000,1,COMPLETED_SUCCESSFULLY,794.403284,139.600010,934.003294,793.406199,933.006209,6.683425,7,-1.000000,""
176,w0,python3action_pyaes_4000,0.000000,1,-1.000000,1,COMPLETED_SUCCESSFULLY,934.003309,0.000010,934.003319,934.003309,934.003319,93400331.900201,7,-1.000000,""
185_updated,w0,python3action_videoprocessing_SampleVideo_50mb_taurus,0.997085,1,2000.000000,1,COMPLETED_SUCCESSFULLY,781.115520,154.250029,935.365549,780.118435,934.368464,6.057493,14,-1.000000,""
185,w0,python3action_videoprocessing_SampleVideo_50mb,0.000000,1,-1.000000,1,COMPLETED_SUCCESSFULLY,935.365564,0.000010,935.365574,935.365564,935.365574,93536557.425420,14,-1.000000,""
157_updated,w0,python3action_modeltraining_reviews100mb_nova,0.997085,1,2000.000000,1,COMPLETED_SUCCESSFULLY,859.277318,79.600010,938.877328,858.280233,937.880243,11.782414,25,-1.000000,""
157,w0,python3action_modeltraining_reviews100mb,0.000000,1,-1.000000,1,COMPLETED_SUCCESSFULLY,938.877343,0.000010,938.877353,938.877343,938.877353,93887735.301405,25,-1.000000,""
184_updated,w0,python3action_facedetection_SampleVideo_30mb_nova,0.997085,1,2000.000000,1,COMPLETED_SUCCESSFULLY,793.643510,160.399990,954.043500,792.646425,953.046415,5.941686,29,-1.000000,""
184,w0,python3action_facedetection_SampleVideo_30mb,0.000000,1,-1.000000,1,COMPLETED_SUCCESSFULLY,954.043515,0.000010,954.043525,954.043515,954.043525,95404352.523907,29,-1.000000,""
198_updated,w0,python3action_videoprocessing_SampleVideo_50mb_taurus,0.997085,1,2000.000000,1,COMPLETED_SUCCESSFULLY,810.556129,154.250029,964.806158,809.559044,963.809073,6.248356,15,-1.000000,""
198,w0,python3action_videoprocessing_SampleVideo_50mb,0.000000,1,-1.000000,1,COMPLETED_SUCCESSFULLY,964.806173,0.000010,964.806183,964.806173,964.806183,96480618.300201,15,-1.000000,""
190_updated,w0,python3action_pyaes_3000_nova,0.997085,1,2000.000000,1,COMPLETED_SUCCESSFULLY,897.702488,78.200020,975.902508,896.705403,974.905423,12.466818,4,-1.000000,""
190,w0,python3action_pyaes_3000,0.000000,1,-1.000000,1,COMPLETED_SUCCESSFULLY,975.902523,0.000010,975.902533,975.902523,975.902533,97590253.301807,4,-1.000000,""
188_updated,w0,python3action_imageprocessing_SampleImage_60mb_troll,0.997085,1,2000.000000,1,COMPLETED_SUCCESSFULLY,920.269674,62.000000,982.269674,919.272589,981.272589,15.826977,20,-1.000000,""
188,w0,python3action_imageprocessing_SampleImage_60mb,0.000000,1,-1.000000,1,COMPLETED_SUCCESSFULLY,982.269689,0.000010,982.269699,982.269689,982.269699,98226969.906426,20,-1.000000,""
197_updated,w0,python3action_modeltraining_reviews100mb_nova,0.997085,1,2000.000000,1,COMPLETED_SUCCESSFULLY,911.043534,79.600010,990.643544,910.046449,989.646459,12.432743,26,-1.000000,""
197,w0,python3action_modeltraining_reviews100mb,0.000000,1,-1.000000,1,COMPLETED_SUCCESSFULLY,990.643559,0.000010,990.643569,990.643559,990.643569,99064356.900201,26,-1.000000,""
167_updated,w0,python3action_chameleon_2000_taurus,0.997085,1,2000.000000,1,COMPLETED_SUCCESSFULLY,929.487615,64.199977,993.687592,928.490530,992.690507,15.462475,10,-1.000000,""
167,w0,python3action_chameleon_2000,0.000000,1,-1.000000,1,COMPLETED_SUCCESSFULLY,993.687607,0.000010,993.687617,993.687607,993.687617,99368761.700201,10,-1.000000,""
156_updated,w0,python3action_videoprocessing_SampleVideo_50mb_taurus,0.997085,1,2000.000000,1,COMPLETED_SUCCESSFULLY,877.237601,154.250029,1031.487630,876.240516,1030.490545,6.680651,13,-1.000000,""
156,w0,python3action_videoprocessing_SampleVideo_50mb,0.000000,1,-1.000000,1,COMPLETED_SUCCESSFULLY,1031.487645,0.000010,1031.487655,1031.487645,1031.487655,103148765.500201,13,-1.000000,""
166_updated,w0,python3action_pyaes_4000_nova,0.997085,1,2000.000000,1,COMPLETED_SUCCESSFULLY,925.637143,139.600010,1065.237153,924.640058,1064.240068,7.623496,2,-1.000000,""
166,w0,python3action_pyaes_4000,0.000000,1,-1.000000,1,COMPLETED_SUCCESSFULLY,1065.237168,0.000010,1065.237178,1065.237168,1065.237178,106523717.825111,2,-1.000000,""
python3action_floatoperation_job187_1,w0,python3action_floatoperation,0.997085,1,2000.000000,1,COMPLETED_SUCCESSFULLY,1065.237198,2.439945,1067.677144,1064.240113,1066.680059,437.173760,2,-1.000000,""
195_updated,w0,python3action_pyaes_4000_nova,0.997085,1,2000.000000,1,COMPLETED_SUCCESSFULLY,934.003339,139.600010,1073.603349,933.006254,1072.606264,7.683425,7,-1.000000,""
195,w0,python3action_pyaes_4000,0.000000,1,-1.000000,1,COMPLETED_SUCCESSFULLY,1073.603364,0.000010,1073.603374,1073.603364,1073.603374,107360337.400201,7,-1.000000,""
180_updated,w0,python3action_floatoperation_200000000_nova,0.997085,1,2000.000000,1,COMPLETED_SUCCESSFULLY,938.877373,135.399990,1074.277363,937.880288,1073.280278,7.926738,25,-1.000000,""
180,w0,python3action_floatoperation_200000000,0.000000,1,-1.000000,1,COMPLETED_SUCCESSFULLY,1074.277378,0.000010,1074.277388,1074.277378,1074.277388,107427738.825111,25,-1.000000,""
179_updated,w0,python3action_chameleon_2000_taurus,0.997085,1,2000.000000,1,COMPLETED_SUCCESSFULLY,1031.487675,64.199977,1095.687652,1030.490590,1094.690567,17.051261,13,-1.000000,""
179,w0,python3action_chameleon_2000,0.000000,1,-1.000000,1,COMPLETED_SUCCESSFULLY,1095.687667,0.000010,1095.687677,1095.687667,1095.687677,109568767.700201,13,-1.000000,""
187_updated,w0,python3action_floatoperation_100000000_nova,0.997085,1,2000.000000,1,COMPLETED_SUCCESSFULLY,1067.677159,66.200020,1133.877179,1066.680074,1132.880094,17.112987,2,-1.000000,""
187,w0,python3action_floatoperation_100000000,0.000000,1,-1.000000,1,COMPLETED_SUCCESSFULLY,1133.877194,0.000010,1133.877204,1133.877194,1133.877204,113387720.400201,2,-1.000000,""
196_updated,w0,python3action_pyaes_3000_nova,0.997085,1,2000.000000,1,COMPLETED_SUCCESSFULLY,1074.277408,78.200020,1152.477428,1073.280323,1151.480343,14.724809,25,-1.000000,""
196,w0,python3action_pyaes_3000,0.000000,1,-1.000000,1,COMPLETED_SUCCESSFULLY,1152.477443,0.000010,1152.477453,1152.477443,1152.477453,115247745.300201,25,-1.000000,""
