job_id,workload_name,profile,submission_time,requested_number_of_resources,requested_time,success,final_state,starting_time,execution_time,finish_time,waiting_time,turnaround_time,stretch,allocated_resources,consumed_energy,metadata
python3action_chameleon_job4_0,w0,python3action_chameleon,0.997085,1,2000.000000,1,COMPLETED_SUCCESSFULLY,1.002100,0.243006,1.245106,0.005015,0.248021,1.020637,0,-1.000000,""
python3action_pyaes_job13_3,w0,python3action_pyaes,0.997085,1,2000.000000,1,COMPLETED_SUCCESSFULLY,1.002145,0.867914,1.870059,0.005060,0.872974,1.005830,4,-1.000000,""
python3action_chameleon_job0_4,w0,python3action_chameleon,0.997085,1,2000.000000,1,COMPLETED_SUCCESSFULLY,1.002160,0.892694,1.894854,0.005075,0.897769,1.005685,5,-1.000000,""
python3action_floatoperation_job21_9,w0,python3action_floatoperation,0.997085,1,2000.000000,1,COMPLETED_SUCCESSFULLY,1.002235,2.439945,3.442180,0.005150,2.445095,1.002111,10,-1.000000,""
python3action_image_processing_job6_1,w0,python3action_image_processing,0.997085,1,2000.000000,1,COMPLETED_SUCCESSFULLY,1.002115,3.471546,4.473661,0.005030,3.476576,1.001449,1,-1.000000,""
python3action_linpack_job1_2,w0,python3action_linpack,0.997085,1,2000.000000,1,COMPLETED_SUCCESSFULLY,1.002130,5.760927,6.763057,0.005045,5.765972,1.000876,2,-1.000000,""
python3action_linpack_job14_10,w0,python3action_linpack,0.997085,1,2000.000000,1,COMPLETED_SUCCESSFULLY,1.002250,5.760927,6.763177,0.005165,5.766092,1.000897,11,-1.000000,""
python3action_linpack_job12_12,w0,python3action_linpack,0.997085,1,2000.000000,1,COMPLETED_SUCCESSFULLY,1.002280,5.760927,6.763207,0.005195,5.766122,1.000902,13,-1.000000,""
4_updated,w0,python3action_chameleon_2000_neowise,0.997085,1,2000.000000,1,COMPLETED_SUCCESSFULLY,1.245121,24.200002,25.445123,0.248036,24.448038,1.010249,0,-1.000000,""
4,w0,python3action_chameleon_2000,0.000000,1,-1.000000,1,COMPLETED_SUCCESSFULLY,25.445138,0.000010,25.445148,25.445138,25.445148,2544514.822787,0,-1.000000,""
python3action_video_processing_job5_5,w0,python3action_video_processing,0.997085,1,2000.000000,1,COMPLETED_SUCCESSFULLY,1.002175,30.499683,31.501858,0.005090,30.504773,1.000167,6,-1.000000,""
python3action_modeltraining_job8_6,w0,python3action_modeltraining,0.997085,1,2000.000000,1,COMPLETED_SUCCESSFULLY,1.002190,30.499683,31.501873,0.005105,30.504788,1.000167,7,-1.000000,""
python3action_video_processing_job10_7,w0,python3action_video_processing,0.997085,1,2000.000000,1,COMPLETED_SUCCESSFULLY,1.002205,30.499683,31.501888,0.005120,30.504803,1.000168,8,-1.000000,""
python3action_video_processing_job17_8,w0,python3action_video_processing,0.997085,1,2000.000000,1,COMPLETED_SUCCESSFULLY,1.002220,30.499683,31.501903,0.005135,30.504818,1.000168,9,-1.000000,""
6_updated,w0,python3action_imageprocessing_SampleImage_60mb_neowise,0.997085,1,2000.000000,1,COMPLETED_SUCCESSFULLY,4.473676,37.500000,41.973676,3.476591,40.976591,1.092709,1,-1.000000,""
6,w0,python3action_imageprocessing_SampleImage_60mb,0.000000,1,-1.000000,1,COMPLETED_SUCCESSFULLY,41.973691,0.000010,41.973701,41.973691,41.973701,4197370.100402,1,-1.000000,""
python3action_chameleon_job9_2,w0,python3action_chameleon,0.997085,1,2000.000000,1,COMPLETED_SUCCESSFULLY,41.973721,0.243006,42.216727,40.976636,41.219642,169.623981,1,-1.000000,""
1_updated,w0,python3action_linpack_5000_taurus,0.997085,1,2000.000000,1,COMPLETED_SUCCESSFULLY,6.763072,38.500058,45.263130,5.765987,44.266045,1.149766,2,-1.000000,""
1,w0,python3action_linpack_5000,0.000000,1,-1.000000,1,COMPLETED_SUCCESSFULLY,45.263145,0.000010,45.263155,45.263145,45.263155,4526315.500201,2,-1.000000,""
12_updated,w0,python3action_linpack_5000_taurus,0.997085,1,2000.000000,1,COMPLETED_SUCCESSFULLY,6.763222,38.500058,45.263280,5.766137,44.266195,1.149770,13,-1.000000,""
12,w0,python3action_linpack_5000,0.000000,1,-1.000000,1,COMPLETED_SUCCESSFULLY,45.263295,0.000010,45.263305,45.263295,45.263305,4526330.500201,13,-1.000000,""
7_updated,w0,python3action_chameleon_2000_neowise,0.997085,1,2000.000000,1,COMPLETED_SUCCESSFULLY,25.445168,24.200002,49.645170,24.448083,48.648085,2.010251,0,-1.000000,""
7,w0,python3action_chameleon_2000,0.000000,1,-1.000000,1,COMPLETED_SUCCESSFULLY,49.645185,0.000010,49.645195,49.645185,49.645195,4964519.545775,0,-1.000000,""
python3action_modeltraining_job11_1,w0,python3action_modeltraining,0.997085,1,2000.000000,1,COMPLETED_SUCCESSFULLY,49.645215,3.471546,53.116761,48.648130,52.119676,15.013392,0,-1.000000,""
9_updated,w0,python3action_chameleon_2000_neowise,0.997085,1,2000.000000,1,COMPLETED_SUCCESSFULLY,42.216742,24.200002,66.416744,41.219657,65.419659,2.703291,1,-1.000000,""
9,w0,python3action_chameleon_2000,0.000000,1,-1.000000,1,COMPLETED_SUCCESSFULLY,66.416759,0.000010,66.416769,66.416759,66.416769,6641676.922787,1,-1.000000,""
python3action_modeltraining_job15_2,w0,python3action_modeltraining_reduced_0.94,0.997085,1,2000.000000,1,COMPLETED_SUCCESSFULLY,66.416789,0.000000,66.416789,65.419704,65.419704,11773663507090.427734,1,-1.000000,""
python3action_image_processing_job2_11,w0,python3action_image_processing,0.997085,1,2000.000000,1,COMPLETED_SUCCESSFULLY,1.002265,72.012455,73.014720,0.005180,72.017635,1.000072,12,-1.000000,""
11_updated,w0,python3action_modeltraining_reviews50mb_neowise,0.997085,1,2000.000000,1,COMPLETED_SUCCESSFULLY,53.116776,22.799998,75.916774,52.119691,74.919689,3.285952,0,-1.000000,""
11,w0,python3action_modeltraining_reviews50mb,0.000000,1,-1.000000,1,COMPLETED_SUCCESSFULLY,75.916789,0.000010,75.916799,75.916789,75.916799,7591679.904218,0,-1.000000,""
23_updated,w0,python3action_linpack_5000_taurus,0.997085,1,2000.000000,1,COMPLETED_SUCCESSFULLY,45.263325,38.500058,83.763383,44.266240,82.766298,2.149771,13,-1.000000,""
23,w0,python3action_linpack_5000,0.000000,1,-1.000000,1,COMPLETED_SUCCESSFULLY,83.763398,0.000010,83.763408,83.763398,83.763408,8376340.800201,13,-1.000000,""
15_updated,w0,python3action_modeltraining_reviews50mb_neowise,0.997085,1,2000.000000,1,COMPLETED_SUCCESSFULLY,66.416819,22.799998,89.216817,65.419734,88.219732,3.869287,1,-1.000000,""
15,w0,python3action_modeltraining_reviews50mb,0.000000,1,-1.000000,1,COMPLETED_SUCCESSFULLY,89.216832,0.000010,89.216842,89.216832,89.216842,8921684.201406,1,-1.000000,""
0_updated,w0,python3action_chameleon_3000_yeti,0.997085,1,2000.000000,1,COMPLETED_SUCCESSFULLY,1.894869,93.000000,94.894869,0.897784,93.897784,1.009654,5,-1.000000,""
0,w0,python3action_chameleon_3000,0.000000,1,-1.000000,1,COMPLETED_SUCCESSFULLY,94.894884,0.000010,94.894894,94.894884,94.894894,9489489.449765,5,-1.000000,""
19_updated,w0,python3action_chameleon_2000_neowise,0.997085,1,2000.000000,1,COMPLETED_SUCCESSFULLY,75.916819,24.200002,100.116821,74.919734,99.119736,4.095856,0,-1.000000,""
19,w0,python3action_chameleon_2000,0.000000,1,-1.000000,1,COMPLETED_SUCCESSFULLY,100.116836,0.000010,100.116846,100.116836,100.116846,10011684.627206,0,-1.000000,""
13_updated,w0,python3action_pyaes_4000_troll,0.997085,1,2000.000000,1,COMPLETED_SUCCESSFULLY,1.870074,102.333333,104.203407,0.872989,103.206322,1.008531,4,-1.000000,""
13,w0,python3action_pyaes_4000,0.000000,1,-1.000000,1,COMPLETED_SUCCESSFULLY,104.203422,0.000010,104.203432,104.203422,104.203432,10420343.233735,4,-1.000000,""
2_updated,w0,python3action_imageprocessing_SampleImage_40mb_taurus,0.997085,1,2000.000000,1,COMPLETED_SUCCESSFULLY,73.014735,32.600046,105.614781,72.017650,104.617696,3.209127,12,-1.000000,""
2,w0,python3action_imageprocessing_SampleImage_40mb,0.000000,1,-1.000000,1,COMPLETED_SUCCESSFULLY,105.614796,0.000010,105.614806,105.614796,105.614806,10561480.646970,12,-1.000000,""
8_updated,w0,python3action_modeltraining_reviews100mb_nova,0.997085,1,2000.000000,1,COMPLETED_SUCCESSFULLY,31.501903,79.600010,111.101912,30.504818,110.104827,1.383226,7,-1.000000,""
8,w0,python3action_modeltraining_reviews100mb,0.000000,1,-1.000000,1,COMPLETED_SUCCESSFULLY,111.101927,0.000010,111.101937,111.101927,111.101937,11110193.729972,7,-1.000000,""
python3action_video_processing_job18_12,w0,python3action_video_processing_reduced_0.91,0.997085,1,2000.000000,1,COMPLETED_SUCCESSFULLY,105.614826,6.172496,111.787323,104.617741,110.790238,17.949017,12,-1.000000,""
14_updated,w0,python3action_linpack_6000_orion,0.997085,1,2000.000000,1,COMPLETED_SUCCESSFULLY,6.763192,106.000000,112.763192,5.766107,111.766107,1.054397,11,-1.000000,""
14,w0,python3action_linpack_6000,0.000000,1,-1.000000,1,COMPLETED_SUCCESSFULLY,112.763207,0.000010,112.763217,112.763207,112.763217,11276321.725480,11,-1.000000,""
20_updated,w0,python3action_chameleon_2000_neowise,0.997085,1,2000.000000,1,COMPLETED_SUCCESSFULLY,89.216862,24.200002,113.416864,88.219777,112.419779,4.645445,1,-1.000000,""
20,w0,python3action_chameleon_2000,0.000000,1,-1.000000,1,COMPLETED_SUCCESSFULLY,113.416879,0.000010,113.416889,113.416879,113.416889,11341688.924393,1,-1.000000,""
python3action_video_processing_job16_3,w0,python3action_video_processing,0.997085,1,2000.000000,1,COMPLETED_SUCCESSFULLY,45.263175,72.012455,117.275630,44.266090,116.278545,1.614700,2,-1.000000,""
22_updated,w0,python3action_modeltraining_reviews50mb_neowise,0.997085,1,2000.000000,1,COMPLETED_SUCCESSFULLY,100.116866,22.799998,122.916864,99.119781,121.919779,5.347359,0,-1.000000,""
22,w0,python3action_modeltraining_reviews50mb,0.000000,1,-1.000000,1,COMPLETED_SUCCESSFULLY,122.916879,0.000010,122.916889,122.916879,122.916889,12291688.905423,0,-1.000000,""
5_updated,w0,python3action_videoprocessing_SampleVideo_30mb_nova,0.997085,1,2000.000000,1,COMPLETED_SUCCESSFULLY,31.501873,106.799980,138.301853,30.504788,137.304768,1.285625,6,-1.000000,""
5,w0,python3action_videoprocessing_SampleVideo_30mb,0.000000,1,-1.000000,1,COMPLETED_SUCCESSFULLY,138.301868,0.000010,138.301878,138.301868,138.301878,13830187.800201,6,-1.000000,""
10_updated,w0,python3action_videoprocessing_SampleVideo_30mb_nova,0.997085,1,2000.000000,1,COMPLETED_SUCCESSFULLY,31.501918,106.799980,138.301898,30.504833,137.304813,1.285626,8,-1.000000,""
10,w0,python3action_videoprocessing_SampleVideo_30mb,0.000000,1,-1.000000,1,COMPLETED_SUCCESSFULLY,138.301928,0.000010,138.301938,138.301928,138.301938,13830193.800201,8,-1.000000,""
17_updated,w0,python3action_videoprocessing_SampleVideo_30mb_nova,0.997085,1,2000.000000,1,COMPLETED_SUCCESSFULLY,31.501948,106.799980,138.301928,30.504863,137.304843,1.285626,9,-1.000000,""
17,w0,python3action_videoprocessing_SampleVideo_30mb,0.000000,1,-1.000000,1,COMPLETED_SUCCESSFULLY,138.301973,0.000010,138.301983,138.301973,138.301983,13830198.300803,9,-1.000000,""
21_updated,w0,python3action_floatoperation_200000000_nova,0.997085,1,2000.000000,1,COMPLETED_SUCCESSFULLY,3.442195,135.399990,138.842186,2.445110,137.845101,1.018058,10,-1.000000,""
21,w0,python3action_floatoperation_200000000,0.000000,1,-1.000000,1,COMPLETED_SUCCESSFULLY,138.842201,0.000010,138.842211,138.842201,138.842211,13884221.100201,10,-1.000000,""
python3action_floatoperation_job25_6,w0,python3action_floatoperation,0.997085,1,2000.000000,1,COMPLETED_SUCCESSFULLY,138.301898,2.439945,140.741843,137.304813,139.744758,57.273726,6,-1.000000,""
python3action_floatoperation_job28_8,w0,python3action_floatoperation,0.997085,1,2000.000000,1,COMPLETED_SUCCESSFULLY,138.301958,2.439945,140.741903,137.304873,139.744818,57.273751,8,-1.000000,""
29_updated,w0,python3action_chameleon_2000_neowise,0.997085,1,2000.000000,1,COMPLETED_SUCCESSFULLY,122.916909,24.200002,147.116911,121.919824,146.119826,6.038009,0,-1.000000,""
29,w0,python3action_chameleon_2000,0.000000,1,-1.000000,1,COMPLETED_SUCCESSFULLY,147.116926,0.000010,147.116936,147.116926,147.116936,14711693.628410,0,-1.000000,""
python3action_image_processing_job40_1,w0,python3action_image_processing_reduced_0.86,0.997085,1,2000.000000,1,COMPLETED_SUCCESSFULLY,147.116956,0.000000,147.116956,146.119871,146.119871,26230285311090.089844,0,-1.000000,""
24_updated,w0,python3action_imageprocessing_SampleImage_60mb_neowise,0.997085,1,2000.000000,1,COMPLETED_SUCCESSFULLY,113.416909,37.500000,150.916909,112.419824,149.919824,3.997862,1,-1.000000,""
24,w0,python3action_imageprocessing_SampleImage_60mb,0.000000,1,-1.000000,1,COMPLETED_SUCCESSFULLY,150.916924,0.000010,150.916934,150.916924,150.916934,15091693.424996,1,-1.000000,""
python3action_video_processing_job49_13,w0,python3action_video_processing,0.997085,1,2000.000000,1,COMPLETED_SUCCESSFULLY,83.763428,72.012455,155.775883,82.766343,154.778798,2.149334,13,-1.000000,""
37_updated,w0,python3action_modeltraining_reviews50mb_neowise,0.997085,1,2000.000000,1,COMPLETED_SUCCESSFULLY,150.916954,22.799998,173.716952,149.919869,172.719867,7.575434,1,-1.000000,""
37,w0,python3action_modeltraining_reviews50mb,0.000000,1,-1.000000,1,COMPLETED_SUCCESSFULLY,173.716967,0.000010,173.716977,173.716967,173.716977,17371697.703213,1,-1.000000,""
40_updated,w0,python3action_imageprocessing_SampleImage_60mb_neowise,0.997085,1,2000.000000,1,COMPLETED_SUCCESSFULLY,147.116986,37.500000,184.616986,146.119901,183.619901,4.896531,0,-1.000000,""
40,w0,python3action_imageprocessing_SampleImage_60mb,0.000000,1,-1.000000,1,COMPLETED_SUCCESSFULLY,184.617001,0.000010,184.617011,184.617001,184.617011,18461701.129414,0,-1.000000,""
3_updated,w0,python3action_chameleon_3000_yeti,0.997085,1,2000.000000,1,COMPLETED_SUCCESSFULLY,94.894915,93.000000,187.894915,93.897830,186.897830,2.009654,5,-1.000000,""
3,w0,python3action_chameleon_3000,0.000000,1,-1.000000,1,COMPLETED_SUCCESSFULLY,187.894930,0.000010,187.894940,187.894930,187.894940,18789494.000201,5,-1.000000,""
27_updated,w0,python3action_modeltraining_reviews100mb_nova,0.997085,1,2000.000000,1,COMPLETED_SUCCESSFULLY,111.101957,79.600010,190.701967,110.104872,189.704882,2.383227,7,-1.000000,""
27,w0,python3action_modeltraining_reviews100mb,0.000000,1,-1.000000,1,COMPLETED_SUCCESSFULLY,190.701982,0.000010,190.701992,190.701982,190.701992,19070199.207471,7,-1.000000,""
python3action_floatoperation_job38_7,w0,python3action_floatoperation,0.997085,1,2000.000000,1,COMPLETED_SUCCESSFULLY,190.702012,2.439945,193.141957,189.704927,192.144872,78.749664,7,-1.000000,""
41_updated,w0,python3action_modeltraining_reviews50mb_neowise,0.997085,1,2000.000000,1,COMPLETED_SUCCESSFULLY,173.716997,22.799998,196.516995,172.719912,195.519910,8.575435,1,-1.000000,""
41,w0,python3action_modeltraining_reviews50mb,0.000000,1,-1.000000,1,COMPLETED_SUCCESSFULLY,196.517010,0.000010,196.517020,196.517010,196.517020,19651702.000201,1,-1.000000,""
33_updated,w0,python3action_floatoperation_100000000_nova,0.997085,1,2000.000000,1,COMPLETED_SUCCESSFULLY,138.842231,66.200020,205.042251,137.845146,204.045166,3.082252,10,-1.000000,""
33,w0,python3action_floatoperation_100000000,0.000000,1,-1.000000,1,COMPLETED_SUCCESSFULLY,205.042266,0.000010,205.042276,205.042266,205.042276,20504227.600201,10,-1.000000,""
26_updated,w0,python3action_pyaes_4000_troll,0.997085,1,2000.000000,1,COMPLETED_SUCCESSFULLY,104.203452,102.333333,206.536786,103.206367,205.539701,2.008531,4,-1.000000,""
26,w0,python3action_pyaes_4000,0.000000,1,-1.000000,1,COMPLETED_SUCCESSFULLY,206.536801,0.000010,206.536811,206.536801,206.536811,20653681.100201,4,-1.000000,""
25_updated,w0,python3action_floatoperation_100000000_nova,0.997085,1,2000.000000,1,COMPLETED_SUCCESSFULLY,140.741858,66.200020,206.941878,139.744773,205.944793,3.110948,6,-1.000000,""
25,w0,python3action_floatoperation_100000000,0.000000,1,-1.000000,1,COMPLETED_SUCCESSFULLY,206.941893,0.000010,206.941903,206.941893,206.941903,20694190.300201,6,-1.000000,""
python3action_facedetection_job35_6,w0,python3action_facedetection_reduced_0.91,0.997085,1,2000.000000,1,COMPLETED_SUCCESSFULLY,206.941923,0.000000,206.941923,205.944838,205.944838,46748643936634.421875,6,-1.000000,""
43_updated,w0,python3action_chameleon_2000_neowise,0.997085,1,2000.000000,1,COMPLETED_SUCCESSFULLY,184.617031,24.200002,208.817034,183.619946,207.819949,8.587600,0,-1.000000,""
43,w0,python3action_chameleon_2000,0.000000,1,-1.000000,1,COMPLETED_SUCCESSFULLY,208.817049,0.000010,208.817059,208.817049,208.817059,20881705.900201,0,-1.000000,""
72_updated,w0,python3action_linpack_6000_orion,0.997085,1,2000.000000,1,COMPLETED_SUCCESSFULLY,112.763237,106.000000,218.763237,111.766152,217.766152,2.054398,11,-1.000000,""
72,w0,python3action_linpack_6000,0.000000,1,-1.000000,1,COMPLETED_SUCCESSFULLY,218.763252,0.000010,218.763262,218.763252,218.763262,21876326.226082,11,-1.000000,""
44_updated,w0,python3action_chameleon_2000_neowise,0.997085,1,2000.000000,1,COMPLETED_SUCCESSFULLY,196.517040,24.200002,220.717042,195.519955,219.719957,9.079336,1,-1.000000,""
44,w0,python3action_chameleon_2000,0.000000,1,-1.000000,1,COMPLETED_SUCCESSFULLY,220.717057,0.000010,220.717067,220.717057,220.717067,22071706.723188,1,-1.000000,""
31_updated,w0,python3action_videoprocessing_SampleVideo_30mb_nova,0.997085,1,2000.000000,1,COMPLETED_SUCCESSFULLY,138.302003,106.799980,245.101983,137.304918,244.104898,2.285627,9,-1.000000,""
31,w0,python3action_videoprocessing_SampleVideo_30mb,0.000000,1,-1.000000,1,COMPLETED_SUCCESSFULLY,245.101998,0.000010,245.102008,245.101998,245.102008,24510200.847613,9,-1.000000,""
45_updated,w0,python3action_imageprocessing_SampleImage_60mb_neowise,0.997085,1,2000.000000,1,COMPLETED_SUCCESSFULLY,208.817079,37.500000,246.317079,207.819994,245.319994,6.541867,0,-1.000000,""
45,w0,python3action_imageprocessing_SampleImage_60mb,0.000000,1,-1.000000,1,COMPLETED_SUCCESSFULLY,246.317094,0.000010,246.317104,246.317094,246.317104,24631710.400803,0,-1.000000,""
python3action_floatoperation_job42_9,w0,python3action_floatoperation,0.997085,1,2000.000000,1,COMPLETED_SUCCESSFULLY,245.102028,2.439945,247.541974,244.104943,246.544889,101.045253,9,-1.000000,""
59_updated,w0,python3action_imageprocessing_SampleImage_60mb_neowise,0.997085,1,2000.000000,1,COMPLETED_SUCCESSFULLY,220.717087,37.500000,258.217087,219.720002,257.220002,6.859200,1,-1.000000,""
59,w0,python3action_imageprocessing_SampleImage_60mb,0.000000,1,-1.000000,1,COMPLETED_SUCCESSFULLY,258.217102,0.000010,258.217112,258.217102,258.217112,25821711.223791,1,-1.000000,""
38_updated,w0,python3action_floatoperation_100000000_nova,0.997085,1,2000.000000,1,COMPLETED_SUCCESSFULLY,193.141972,66.200020,259.341992,192.144887,258.344907,3.902490,7,-1.000000,""
38,w0,python3action_floatoperation_100000000,0.000000,1,-1.000000,1,COMPLETED_SUCCESSFULLY,259.342007,0.000010,259.342017,259.342007,259.342017,25934201.700201,7,-1.000000,""
30_updated,w0,python3action_pyaes_3000_troll,0.997085,1,2000.000000,1,COMPLETED_SUCCESSFULLY,206.536831,57.166677,263.703508,205.539746,262.706423,4.595447,4,-1.000000,""
30,w0,python3action_pyaes_3000,0.000000,1,-1.000000,1,COMPLETED_SUCCESSFULLY,263.703523,0.000010,263.703533,263.703523,263.703533,26370353.300201,4,-1.000000,""
18_updated,w0,python3action_videoprocessing_SampleVideo_50mb_taurus,0.997085,1,2000.000000,1,COMPLETED_SUCCESSFULLY,111.787338,154.250029,266.037367,110.790253,265.040282,1.718251,12,-1.000000,""
18,w0,python3action_videoprocessing_SampleVideo_50mb,0.000000,1,-1.000000,1,COMPLETED_SUCCESSFULLY,266.037382,0.000010,266.037392,266.037382,266.037392,26603739.200201,12,-1.000000,""
46_updated,w0,python3action_floatoperation_100000000_nova,0.997085,1,2000.000000,1,COMPLETED_SUCCESSFULLY,205.042296,66.200020,271.242316,204.045211,270.245231,4.082253,10,-1.000000,""
46,w0,python3action_floatoperation_100000000,0.000000,1,-1.000000,1,COMPLETED_SUCCESSFULLY,271.242331,0.000010,271.242341,271.242331,271.242341,27124234.100201,10,-1.000000,""
16_updated,w0,python3action_videoprocessing_SampleVideo_50mb_taurus,0.997085,1,2000.000000,1,COMPLETED_SUCCESSFULLY,117.275645,154.250029,271.525674,116.278560,270.528589,1.753832,2,-1.000000,""
16,w0,python3action_videoprocessing_SampleVideo_50mb,0.000000,1,-1.000000,1,COMPLETED_SUCCESSFULLY,271.525689,0.000010,271.525699,271.525689,271.525699,27152569.915258,2,-1.000000,""
python3action_image_processing_job32_3,w0,python3action_image_processing_reduced_0.86,0.997085,1,2000.000000,1,COMPLETED_SUCCESSFULLY,271.525719,0.000000,271.525719,270.528634,270.528634,2345584062309.853516,2,-1.000000,""
python3action_linpack_job36_12,w0,python3action_linpack,0.997085,1,2000.000000,1,COMPLETED_SUCCESSFULLY,266.037412,5.760927,271.798339,265.040327,270.801254,47.006540,12,-1.000000,""
28_updated,w0,python3action_floatoperation_200000000_nova,0.997085,1,2000.000000,1,COMPLETED_SUCCESSFULLY,140.741918,135.399990,276.141909,139.744833,275.144824,2.032089,8,-1.000000,""
28,w0,python3action_floatoperation_200000000,0.000000,1,-1.000000,1,COMPLETED_SUCCESSFULLY,276.141924,0.000010,276.141934,276.141924,276.141934,27614193.400201,8,-1.000000,""
56_updated,w0,python3action_chameleon_3000_yeti,0.997085,1,2000.000000,1,COMPLETED_SUCCESSFULLY,187.894960,93.000000,280.894960,186.897875,279.897875,3.009655,5,-1.000000,""
56,w0,python3action_chameleon_3000,0.000000,1,-1.000000,1,COMPLETED_SUCCESSFULLY,280.894975,0.000010,280.894985,280.894975,280.894985,28089498.500803,5,-1.000000,""
60_updated,w0,python3action_modeltraining_reviews100mb_neowise,0.997085,1,2000.000000,1,COMPLETED_SUCCESSFULLY,246.317124,43.399999,289.717123,245.320039,288.720038,6.652536,0,-1.000000,""
60,w0,python3action_modeltraining_reviews100mb,0.000000,1,-1.000000,1,COMPLETED_SUCCESSFULLY,289.717138,0.000010,289.717148,289.717138,289.717148,28971714.800201,0,-1.000000,""
66_updated,w0,python3action_imageprocessing_SampleImage_60mb_neowise,0.997085,1,2000.000000,1,COMPLETED_SUCCESSFULLY,258.217132,37.500000,295.717132,257.220047,294.720047,7.859201,1,-1.000000,""
66,w0,python3action_imageprocessing_SampleImage_60mb,0.000000,1,-1.000000,1,COMPLETED_SUCCESSFULLY,295.717147,0.000010,295.717157,295.717147,295.717157,29571715.724393,1,-1.000000,""
python3action_facedetection_job54_10,w0,python3action_facedetection,0.997085,1,2000.000000,1,COMPLETED_SUCCESSFULLY,271.242361,30.499683,301.742044,270.245276,300.744959,9.860593,10,-1.000000,""
32_updated,w0,python3action_imageprocessing_SampleImage_40mb_taurus,0.997085,1,2000.000000,1,COMPLETED_SUCCESSFULLY,271.525749,32.600046,304.125795,270.528664,303.128710,9.298414,2,-1.000000,""
32,w0,python3action_imageprocessing_SampleImage_40mb,0.000000,1,-1.000000,1,COMPLETED_SUCCESSFULLY,304.125810,0.000010,304.125820,304.125810,304.125820,30412582.029341,2,-1.000000,""
49_updated,w0,python3action_videoprocessing_SampleVideo_50mb_taurus,0.997085,1,2000.000000,1,COMPLETED_SUCCESSFULLY,155.775898,154.250029,310.025927,154.778813,309.028842,2.003428,13,-1.000000,""
49,w0,python3action_videoprocessing_SampleVideo_50mb,0.000000,1,-1.000000,1,COMPLETED_SUCCESSFULLY,310.025942,0.000010,310.025952,310.025942,310.025952,31002595.215259,13,-1.000000,""
python3action_facedetection_job65_13,w0,python3action_facedetection_reduced_0.91,0.997085,1,2000.000000,1,COMPLETED_SUCCESSFULLY,310.025972,0.000000,310.025972,309.028887,309.028887,29707615715617.230469,13,-1.000000,""
36_updated,w0,python3action_linpack_5000_taurus,0.997085,1,2000.000000,1,COMPLETED_SUCCESSFULLY,271.798354,38.500058,310.298412,270.801269,309.301327,8.033789,12,-1.000000,""
36,w0,python3action_linpack_5000,0.000000,1,-1.000000,1,COMPLETED_SUCCESSFULLY,310.298427,0.000010,310.298437,310.298427,310.298437,31029843.700201,12,-1.000000,""
42_updated,w0,python3action_floatoperation_100000000_nova,0.997085,1,2000.000000,1,COMPLETED_SUCCESSFULLY,247.541989,66.200020,313.742009,246.544904,312.744924,4.724242,9,-1.000000,""
42,w0,python3action_floatoperation_100000000,0.000000,1,-1.000000,1,COMPLETED_SUCCESSFULLY,313.742024,0.000010,313.742034,313.742024,313.742034,31374203.400201,9,-1.000000,""
75_updated,w0,python3action_chameleon_2000_neowise,0.997085,1,2000.000000,1,COMPLETED_SUCCESSFULLY,295.717177,24.200002,319.917179,294.720092,318.920094,13.178515,1,-1.000000,""
75,w0,python3action_chameleon_2000,0.000000,1,-1.000000,1,COMPLETED_SUCCESSFULLY,319.917194,0.000010,319.917204,319.917194,319.917204,31991720.447381,1,-1.000000,""
34_updated,w0,python3action_pyaes_3000_troll,0.997085,1,2000.000000,1,COMPLETED_SUCCESSFULLY,263.703553,57.166677,320.870230,262.706468,319.873145,5.595448,4,-1.000000,""
34,w0,python3action_pyaes_3000,0.000000,1,-1.000000,1,COMPLETED_SUCCESSFULLY,320.870245,0.000010,320.870255,320.870245,320.870255,32087025.500201,4,-1.000000,""
100_updated,w0,python3action_linpack_6000_orion,0.997085,1,2000.000000,1,COMPLETED_SUCCESSFULLY,218.763282,106.000000,324.763282,217.766197,323.766197,3.054398,11,-1.000000,""
100,w0,python3action_linpack_6000,0.000000,1,-1.000000,1,COMPLETED_SUCCESSFULLY,324.763297,0.000010,324.763307,324.763297,324.763307,32476330.726685,11,-1.000000,""
71_updated,w0,python3action_modeltraining_reviews100mb_neowise,0.997085,1,2000.000000,1,COMPLETED_SUCCESSFULLY,289.717168,43.399999,333.117167,288.720083,332.120082,7.652537,0,-1.000000,""
71,w0,python3action_modeltraining_reviews100mb,0.000000,1,-1.000000,1,COMPLETED_SUCCESSFULLY,333.117182,0.000010,333.117192,333.117182,333.117192,33311719.200201,0,-1.000000,""
39_updated,w0,python3action_floatoperation_100000000_nova,0.997085,1,2000.000000,1,COMPLETED_SUCCESSFULLY,276.141954,66.200020,342.341974,275.144869,341.344889,5.156266,8,-1.000000,""
39,w0,python3action_floatoperation_100000000,0.000000,1,-1.000000,1,COMPLETED_SUCCESSFULLY,342.341989,0.000010,342.341999,342.341989,342.341999,34234199.900201,8,-1.000000,""
51_updated,w0,python3action_linpack_5000_taurus,0.997085,1,2000.000000,1,COMPLETED_SUCCESSFULLY,304.125840,38.500058,342.625898,303.128755,341.628813,8.873462,2,-1.000000,""
51,w0,python3action_linpack_5000,0.000000,1,-1.000000,1,COMPLETED_SUCCESSFULLY,342.625913,0.000010,342.625923,342.625913,342.625923,34262592.300201,2,-1.000000,""
55_updated,w0,python3action_imageprocessing_SampleImage_40mb_taurus,0.997085,1,2000.000000,1,COMPLETED_SUCCESSFULLY,310.298457,32.600046,342.898503,309.301372,341.901418,10.487759,12,-1.000000,""
55,w0,python3action_imageprocessing_SampleImage_40mb,0.000000,1,-1.000000,1,COMPLETED_SUCCESSFULLY,342.898518,0.000010,342.898528,342.898518,342.898528,34289852.813881,12,-1.000000,""
79_updated,w0,python3action_chameleon_2000_neowise,0.997085,1,2000.000000,1,COMPLETED_SUCCESSFULLY,319.917224,24.200002,344.117227,318.920139,343.120142,14.178517,1,-1.000000,""
79,w0,python3action_chameleon_2000,0.000000,1,-1.000000,1,COMPLETED_SUCCESSFULLY,344.117242,0.000010,344.117252,344.117242,344.117252,34411725.200201,1,-1.000000,""
76_updated,w0,python3action_modeltraining_reviews50mb_neowise,0.997085,1,2000.000000,1,COMPLETED_SUCCESSFULLY,333.117212,22.799998,355.917210,332.120127,354.920125,15.566674,0,-1.000000,""
76,w0,python3action_modeltraining_reviews50mb,0.000000,1,-1.000000,1,COMPLETED_SUCCESSFULLY,355.917225,0.000010,355.917235,355.917225,355.917235,35591723.500201,0,-1.000000,""
81_updated,w0,python3action_modeltraining_reviews50mb_neowise,0.997085,1,2000.000000,1,COMPLETED_SUCCESSFULLY,344.117272,22.799998,366.917270,343.120187,365.920185,16.049132,1,-1.000000,""
81,w0,python3action_modeltraining_reviews50mb,0.000000,1,-1.000000,1,COMPLETED_SUCCESSFULLY,366.917285,0.000010,366.917295,366.917285,366.917295,36691729.500201,1,-1.000000,""
35_updated,w0,python3action_facedetection_SampleVideo_30mb_nova,0.997085,1,2000.000000,1,COMPLETED_SUCCESSFULLY,206.941953,160.399990,367.341943,205.944868,366.344858,2.283946,6,-1.000000,""
35,w0,python3action_facedetection_SampleVideo_30mb,0.000000,1,-1.000000,1,COMPLETED_SUCCESSFULLY,367.341958,0.000010,367.341968,367.341958,367.341968,36734196.824309,6,-1.000000,""
93_updated,w0,python3action_chameleon_3000_yeti,0.997085,1,2000.000000,1,COMPLETED_SUCCESSFULLY,280.895005,93.000000,373.895005,279.897920,372.897920,4.009655,5,-1.000000,""
93,w0,python3action_chameleon_3000,0.000000,1,-1.000000,1,COMPLETED_SUCCESSFULLY,373.895020,0.000010,373.895030,373.895020,373.895030,37389503.001406,5,-1.000000,""
78_updated,w0,python3action_imageprocessing_SampleImage_40mb_taurus,0.997085,1,2000.000000,1,COMPLETED_SUCCESSFULLY,342.625943,32.600046,375.225989,341.628858,374.228904,11.479398,2,-1.000000,""
78,w0,python3action_imageprocessing_SampleImage_40mb,0.000000,1,-1.000000,1,COMPLETED_SUCCESSFULLY,375.226004,0.000010,375.226014,375.226004,375.226014,37522601.413881,2,-1.000000,""
python3action_facedetection_job85_3,w0,python3action_facedetection_reduced_1.83,0.997085,1,2000.000000,1,COMPLETED_SUCCESSFULLY,375.226034,0.000000,375.226034,374.228949,374.228949,35975438778836.851562,2,-1.000000,""
53_updated,w0,python3action_pyaes_3000_troll,0.997085,1,2000.000000,1,COMPLETED_SUCCESSFULLY,320.870275,57.166677,378.036952,319.873190,377.039867,6.595448,4,-1.000000,""
53,w0,python3action_pyaes_3000,0.000000,1,-1.000000,1,COMPLETED_SUCCESSFULLY,378.036967,0.000010,378.036977,378.036967,378.036977,37803697.700201,4,-1.000000,""
52_updated,w0,python3action_floatoperation_100000000_nova,0.997085,1,2000.000000,1,COMPLETED_SUCCESSFULLY,313.742054,66.200020,379.942074,312.744969,378.944989,5.724243,9,-1.000000,""
52,w0,python3action_floatoperation_100000000,0.000000,1,-1.000000,1,COMPLETED_SUCCESSFULLY,379.942089,0.000010,379.942099,379.942089,379.942099,37994209.900201,9,-1.000000,""
80_updated,w0,python3action_chameleon_2000_neowise,0.997085,1,2000.000000,1,COMPLETED_SUCCESSFULLY,355.917255,24.200002,380.117257,354.920170,379.120172,15.666121,0,-1.000000,""
80,w0,python3action_chameleon_2000,0.000000,1,-1.000000,1,COMPLETED_SUCCESSFULLY,380.117272,0.000010,380.117282,380.117272,380.117282,38011728.223189,0,-1.000000,""
48_updated,w0,python3action_floatoperation_200000000_nova,0.997085,1,2000.000000,1,COMPLETED_SUCCESSFULLY,259.342037,135.399990,394.742027,258.344952,393.744942,2.908013,7,-1.000000,""
48,w0,python3action_floatoperation_200000000,0.000000,1,-1.000000,1,COMPLETED_SUCCESSFULLY,394.742042,0.000010,394.742052,394.742042,394.742052,39474205.223907,7,-1.000000,""
84_updated,w0,python3action_chameleon_2000_neowise,0.997085,1,2000.000000,1,COMPLETED_SUCCESSFULLY,380.117302,24.200002,404.317304,379.120217,403.320219,16.666123,0,-1.000000,""
84,w0,python3action_chameleon_2000,0.000000,1,-1.000000,1,COMPLETED_SUCCESSFULLY,404.317319,0.000010,404.317329,404.317319,404.317329,40431732.946176,0,-1.000000,""
87_updated,w0,python3action_imageprocessing_SampleImage_60mb_neowise,0.997085,1,2000.000000,1,COMPLETED_SUCCESSFULLY,366.917315,37.500000,404.417315,365.920230,403.420230,10.757873,1,-1.000000,""
87,w0,python3action_imageprocessing_SampleImage_60mb,0.000000,1,-1.000000,1,COMPLETED_SUCCESSFULLY,404.417330,0.000010,404.417340,404.417330,404.417340,40441734.000803,1,-1.000000,""
108_updated,w0,python3action_modeltraining_reviews50mb_neowise,0.997085,1,2000.000000,1,COMPLETED_SUCCESSFULLY,404.417360,22.799998,427.217358,403.420275,426.220273,18.693873,1,-1.000000,""
108,w0,python3action_modeltraining_reviews50mb,0.000000,1,-1.000000,1,COMPLETED_SUCCESSFULLY,427.217373,0.000010,427.217383,427.217373,427.217383,42721738.300201,1,-1.000000,""
101_updated,w0,python3action_chameleon_2000_neowise,0.997085,1,2000.000000,1,COMPLETED_SUCCESSFULLY,404.317349,24.200002,428.517352,403.320264,427.520267,17.666125,0,-1.000000,""
101,w0,python3action_chameleon_2000,0.000000,1,-1.000000,1,COMPLETED_SUCCESSFULLY,428.517367,0.000010,428.517377,428.517367,428.517377,42851737.700201,0,-1.000000,""
109_updated,w0,python3action_linpack_6000_orion,0.997085,1,2000.000000,1,COMPLETED_SUCCESSFULLY,324.763327,106.000000,430.763327,323.766242,429.766242,4.054399,11,-1.000000,""
109,w0,python3action_linpack_6000,0.000000,1,-1.000000,1,COMPLETED_SUCCESSFULLY,430.763342,0.000010,430.763352,430.763342,430.763352,43076335.227287,11,-1.000000,""
65_updated,w0,python3action_facedetection_SampleVideo_50mb_taurus,0.997085,1,2000.000000,1,COMPLETED_SUCCESSFULLY,310.026002,134.600046,444.626048,309.028917,443.628963,3.295905,13,-1.000000,""
65,w0,python3action_facedetection_SampleVideo_50mb,0.000000,1,-1.000000,1,COMPLETED_SUCCESSFULLY,444.626063,0.000010,444.626073,444.626063,444.626073,44462607.329341,13,-1.000000,""
50_updated,w0,python3action_videoprocessing_SampleVideo_30mb_nova,0.997085,1,2000.000000,1,COMPLETED_SUCCESSFULLY,342.342019,106.799980,449.141999,341.344934,448.144914,4.196114,8,-1.000000,""
50,w0,python3action_videoprocessing_SampleVideo_30mb,0.000000,1,-1.000000,1,COMPLETED_SUCCESSFULLY,449.142014,0.000010,449.142024,449.142014,449.142024,44914202.447011,8,-1.000000,""
147_updated,w0,python3action_chameleon_2000_neowise,0.997085,1,2000.000000,1,COMPLETED_SUCCESSFULLY,427.217403,24.200002,451.417405,426.220318,450.420320,18.612408,1,-1.000000,""
147,w0,python3action_chameleon_2000,0.000000,1,-1.000000,1,COMPLETED_SUCCESSFULLY,451.417420,0.000010,451.417430,451.417420,451.417430,45141743.023189,1,-1.000000,""
136_updated,w0,python3action_chameleon_2000_neowise,0.997085,1,2000.000000,1,COMPLETED_SUCCESSFULLY,428.517397,24.200002,452.717399,427.520312,451.720314,18.666127,0,-1.000000,""
136,w0,python3action_chameleon_2000,0.000000,1,-1.000000,1,COMPLETED_SUCCESSFULLY,452.717414,0.000010,452.717424,452.717414,452.717424,45271742.423189,0,-1.000000,""
54_updated,w0,python3action_facedetection_SampleVideo_30mb_nova,0.997085,1,2000.000000,1,COMPLETED_SUCCESSFULLY,301.742059,160.399990,462.142049,300.744974,461.144964,2.874969,10,-1.000000,""
54,w0,python3action_facedetection_SampleVideo_30mb,0.000000,1,-1.000000,1,COMPLETED_SUCCESSFULLY,462.142064,0.000010,462.142074,462.142064,462.142074,46214207.423506,10,-1.000000,""
95_updated,w0,python3action_chameleon_3000_yeti,0.997085,1,2000.000000,1,COMPLETED_SUCCESSFULLY,373.895050,93.000000,466.895050,372.897965,465.897965,5.009656,5,-1.000000,""
95,w0,python3action_chameleon_3000,0.000000,1,-1.000000,1,COMPLETED_SUCCESSFULLY,466.895065,0.000010,466.895075,466.895065,466.895075,46689507.502009,5,-1.000000,""
149_updated,w0,python3action_chameleon_2000_neowise,0.997085,1,2000.000000,1,COMPLETED_SUCCESSFULLY,452.717444,24.200002,476.917446,451.720359,475.920361,19.666129,0,-1.000000,""
149,w0,python3action_chameleon_2000,0.000000,1,-1.000000,1,COMPLETED_SUCCESSFULLY,476.917461,0.000010,476.917471,476.917461,476.917471,47691747.146176,0,-1.000000,""
58_updated,w0,python3action_pyaes_4000_troll,0.997085,1,2000.000000,1,COMPLETED_SUCCESSFULLY,378.036997,102.333333,480.370330,377.039912,479.373245,4.684429,4,-1.000000,""
58,w0,python3action_pyaes_4000,0.000000,1,-1.000000,1,COMPLETED_SUCCESSFULLY,480.370345,0.000010,480.370355,480.370345,480.370355,48037035.534137,4,-1.000000,""
155_updated,w0,python3action_modeltraining_reviews100mb_neowise,0.997085,1,2000.000000,1,COMPLETED_SUCCESSFULLY,451.417450,43.399999,494.817449,450.420365,493.820364,11.378350,1,-1.000000,""
155,w0,python3action_modeltraining_reviews100mb,0.000000,1,-1.000000,1,COMPLETED_SUCCESSFULLY,494.817464,0.000010,494.817474,494.817464,494.817474,49481747.412598,1,-1.000000,""
82_updated,w0,python3action_videoprocessing_SampleVideo_50mb_taurus,0.997085,1,2000.000000,1,COMPLETED_SUCCESSFULLY,342.898548,154.250029,497.148577,341.901463,496.151492,3.216541,12,-1.000000,""
82,w0,python3action_videoprocessing_SampleVideo_50mb,0.000000,1,-1.000000,1,COMPLETED_SUCCESSFULLY,497.148592,0.000010,497.148602,497.148592,497.148602,49714860.200201,12,-1.000000,""
85_updated,w0,python3action_facedetection_SampleVideo_50mb_taurus,0.997085,1,2000.000000,1,COMPLETED_SUCCESSFULLY,375.226064,134.600046,509.826110,374.228979,508.829025,3.780303,2,-1.000000,""
85,w0,python3action_facedetection_SampleVideo_50mb,0.000000,1,-1.000000,1,COMPLETED_SUCCESSFULLY,509.826125,0.000010,509.826135,509.826125,509.826135,50982613.527964,2,-1.000000,""
157_updated,w0,python3action_imageprocessing_SampleImage_60mb_neowise,0.997085,1,2000.000000,1,COMPLETED_SUCCESSFULLY,476.917491,37.500000,514.417491,475.920406,513.420406,13.691211,0,-1.000000,""
157,w0,python3action_imageprocessing_SampleImage_60mb,0.000000,1,-1.000000,1,COMPLETED_SUCCESSFULLY,514.417506,0.000010,514.417516,514.417506,514.417516,51441751.646779,0,-1.000000,""
62_updated,w0,python3action_floatoperation_100000000_nova,0.997085,1,2000.000000,1,COMPLETED_SUCCESSFULLY,449.142044,66.200020,515.342064,448.144959,514.344979,7.769559,8,-1.000000,""
62,w0,python3action_floatoperation_100000000,0.000000,1,-1.000000,1,COMPLETED_SUCCESSFULLY,515.342079,0.000010,515.342089,515.342079,515.342089,51534208.901406,8,-1.000000,""
python3action_facedetection_job69_8,w0,python3action_facedetection_reduced_0.91,0.997085,1,2000.000000,1,COMPLETED_SUCCESSFULLY,515.342109,0.000000,515.342109,514.345024,514.345024,116005812224944.687500,8,-1.000000,""
63_updated,w0,python3action_floatoperation_200000000_nova,0.997085,1,2000.000000,1,COMPLETED_SUCCESSFULLY,379.942119,135.399990,515.342109,378.945034,514.345024,3.798708,9,-1.000000,""
63,w0,python3action_floatoperation_200000000,0.000000,1,-1.000000,1,COMPLETED_SUCCESSFULLY,515.342154,0.000010,515.342164,515.342154,515.342164,51534216.402410,9,-1.000000,""
162_updated,w0,python3action_modeltraining_reviews50mb_neowise,0.997085,1,2000.000000,1,COMPLETED_SUCCESSFULLY,494.817494,22.799998,517.617492,493.820409,516.620407,22.658792,1,-1.000000,""
162,w0,python3action_modeltraining_reviews50mb,0.000000,1,-1.000000,1,COMPLETED_SUCCESSFULLY,517.617507,0.000010,517.617517,517.617507,517.617517,51761751.700201,1,-1.000000,""
47_updated,w0,python3action_facedetection_SampleVideo_30mb_nova,0.997085,1,2000.000000,1,COMPLETED_SUCCESSFULLY,367.341988,160.399990,527.741978,366.344903,526.744893,3.283946,6,-1.000000,""
47,w0,python3action_facedetection_SampleVideo_30mb,0.000000,1,-1.000000,1,COMPLETED_SUCCESSFULLY,527.741993,0.000010,527.742003,527.741993,527.742003,52774200.348015,6,-1.000000,""
61_updated,w0,python3action_floatoperation_200000000_nova,0.997085,1,2000.000000,1,COMPLETED_SUCCESSFULLY,394.742072,135.399990,530.142062,393.744987,529.144977,3.908013,7,-1.000000,""
61,w0,python3action_floatoperation_200000000,0.000000,1,-1.000000,1,COMPLETED_SUCCESSFULLY,530.142077,0.000010,530.142087,530.142077,530.142087,53014208.747614,7,-1.000000,""
116_updated,w0,python3action_linpack_6000_orion,0.997085,1,2000.000000,1,COMPLETED_SUCCESSFULLY,430.763372,106.000000,536.763372,429.766287,535.766287,5.054399,11,-1.000000,""
116,w0,python3action_linpack_6000,0.000000,1,-1.000000,1,COMPLETED_SUCCESSFULLY,536.763387,0.000010,536.763397,536.763387,536.763397,53676339.727890,11,-1.000000,""
70_updated,w0,python3action_pyaes_3000_troll,0.997085,1,2000.000000,1,COMPLETED_SUCCESSFULLY,480.370375,57.166677,537.537052,479.373290,536.539967,9.385537,4,-1.000000,""
70,w0,python3action_pyaes_3000,0.000000,1,-1.000000,1,COMPLETED_SUCCESSFULLY,537.537067,0.000010,537.537077,537.537067,537.537077,53753707.700201,4,-1.000000,""
164_updated,w0,python3action_chameleon_2000_neowise,0.997085,1,2000.000000,1,COMPLETED_SUCCESSFULLY,514.417536,24.200002,538.617539,513.420451,537.620454,22.215719,0,-1.000000,""
164,w0,python3action_chameleon_2000,0.000000,1,-1.000000,1,COMPLETED_SUCCESSFULLY,538.617554,0.000010,538.617564,538.617554,538.617564,53861756.400201,0,-1.000000,""
165_updated,w0,python3action_modeltraining_reviews50mb_neowise,0.997085,1,2000.000000,1,COMPLETED_SUCCESSFULLY,517.617537,22.799998,540.417535,516.620452,539.420450,23.658794,1,-1.000000,""
165,w0,python3action_modeltraining_reviews50mb,0.000000,1,-1.000000,1,COMPLETED_SUCCESSFULLY,540.417550,0.000010,540.417560,540.417550,540.417560,54041756.000201,1,-1.000000,""
98_updated,w0,python3action_chameleon_3000_yeti,0.997085,1,2000.000000,1,COMPLETED_SUCCESSFULLY,466.895095,93.000000,559.895095,465.898010,558.898010,6.009656,5,-1.000000,""
98,w0,python3action_chameleon_3000,0.000000,1,-1.000000,1,COMPLETED_SUCCESSFULLY,559.895110,0.000010,559.895120,559.895110,559.895120,55989512.002611,5,-1.000000,""
168_updated,w0,python3action_modeltraining_reviews50mb_neowise,0.997085,1,2000.000000,1,COMPLETED_SUCCESSFULLY,538.617584,22.799998,561.417582,537.620499,560.420497,24.579849,0,-1.000000,""
168,w0,python3action_modeltraining_reviews50mb,0.000000,1,-1.000000,1,COMPLETED_SUCCESSFULLY,561.417597,0.000010,561.417607,561.417597,561.417607,56141760.700201,0,-1.000000,""
171_updated,w0,python3action_chameleon_2000_neowise,0.997085,1,2000.000000,1,COMPLETED_SUCCESSFULLY,540.417580,24.200002,564.617582,539.420495,563.620497,23.290101,1,-1.000000,""
171,w0,python3action_chameleon_2000,0.000000,1,-1.000000,1,COMPLETED_SUCCESSFULLY,564.617597,0.000010,564.617607,564.617597,564.617607,56461760.723188,1,-1.000000,""
83_updated,w0,python3action_facedetection_SampleVideo_50mb_taurus,0.997085,1,2000.000000,1,COMPLETED_SUCCESSFULLY,444.626093,134.600046,579.226139,443.629008,578.229054,4.295905,13,-1.000000,""
83,w0,python3action_facedetection_SampleVideo_50mb,0.000000,1,-1.000000,1,COMPLETED_SUCCESSFULLY,579.226154,0.000010,579.226164,579.226154,579.226164,57922616.443021,13,-1.000000,""
175_updated,w0,python3action_chameleon_2000_neowise,0.997085,1,2000.000000,1,COMPLETED_SUCCESSFULLY,561.417627,24.200002,585.617629,560.420542,584.620544,24.157872,0,-1.000000,""
175,w0,python3action_chameleon_2000,0.000000,1,-1.000000,1,COMPLETED_SUCCESSFULLY,585.617644,0.000010,585.617654,585.617644,585.617654,58561765.423188,0,-1.000000,""
57_updated,w0,python3action_floatoperation_100000000_nova,0.997085,1,2000.000000,1,COMPLETED_SUCCESSFULLY,527.742023,66.200020,593.942043,526.744938,592.944958,8.956870,6,-1.000000,""
57,w0,python3action_floatoperation_100000000,0.000000,1,-1.000000,1,COMPLETED_SUCCESSFULLY,593.942058,0.000010,593.942068,593.942058,593.942068,59394206.802410,6,-1.000000,""
105_updated,w0,python3action_pyaes_3000_troll,0.997085,1,2000.000000,1,COMPLETED_SUCCESSFULLY,537.537097,57.166677,594.703774,536.540012,593.706689,10.385538,4,-1.000000,""
105,w0,python3action_pyaes_3000,0.000000,1,-1.000000,1,COMPLETED_SUCCESSFULLY,594.703789,0.000010,594.703799,594.703789,594.703799,59470379.900201,4,-1.000000,""
68_updated,w0,python3action_floatoperation_100000000_nova,0.997085,1,2000.000000,1,COMPLETED_SUCCESSFULLY,530.142107,66.200020,596.342127,529.145022,595.345042,8.993125,7,-1.000000,""
68,w0,python3action_floatoperation_100000000,0.000000,1,-1.000000,1,COMPLETED_SUCCESSFULLY,596.342142,0.000010,596.342152,596.342142,596.342152,59634215.202009,7,-1.000000,""
64_updated,w0,python3action_floatoperation_200000000_nova,0.997085,1,2000.000000,1,COMPLETED_SUCCESSFULLY,462.142094,135.399990,597.542084,461.145009,596.544999,4.405798,10,-1.000000,""
64,w0,python3action_floatoperation_200000000,0.000000,1,-1.000000,1,COMPLETED_SUCCESSFULLY,597.542099,0.000010,597.542109,597.542099,597.542109,59754210.947212,10,-1.000000,""
176_updated,w0,python3action_imageprocessing_SampleImage_60mb_neowise,0.997085,1,2000.000000,1,COMPLETED_SUCCESSFULLY,564.617627,37.500000,602.117627,563.620542,601.120542,16.029881,1,-1.000000,""
176,w0,python3action_imageprocessing_SampleImage_60mb,0.000000,1,-1.000000,1,COMPLETED_SUCCESSFULLY,602.117642,0.000010,602.117652,602.117642,602.117652,60211765.223791,1,-1.000000,""
177_updated,w0,python3action_imageprocessing_SampleImage_60mb_neowise,0.997085,1,2000.000000,1,COMPLETED_SUCCESSFULLY,585.617674,37.500000,623.117674,584.620589,622.120589,16.589882,0,-1.000000,""
177,w0,python3action_imageprocessing_SampleImage_60mb,0.000000,1,-1.000000,1,COMPLETED_SUCCESSFULLY,623.117689,0.000010,623.117699,623.117689,623.117699,62311769.923791,0,-1.000000,""
182_updated,w0,python3action_modeltraining_reviews50mb_neowise,0.997085,1,2000.000000,1,COMPLETED_SUCCESSFULLY,602.117672,22.799998,624.917670,601.120587,623.920585,27.364941,1,-1.000000,""
182,w0,python3action_modeltraining_reviews50mb,0.000000,1,-1.000000,1,COMPLETED_SUCCESSFULLY,624.917685,0.000010,624.917695,624.917685,624.917695,62491769.502008,1,-1.000000,""
134_updated,w0,python3action_linpack_6000_orion,0.997085,1,2000.000000,1,COMPLETED_SUCCESSFULLY,536.763417,106.000000,642.763417,535.766332,641.766332,6.054399,11,-1.000000,""
134,w0,python3action_linpack_6000,0.000000,1,-1.000000,1,COMPLETED_SUCCESSFULLY,642.763432,0.000010,642.763442,642.763432,642.763442,64276344.228492,11,-1.000000,""
189_updated,w0,python3action_chameleon_2000_neowise,0.997085,1,2000.000000,1,COMPLETED_SUCCESSFULLY,623.117719,24.200002,647.317721,622.120634,646.320636,26.707462,0,-1.000000,""
189,w0,python3action_chameleon_2000,0.000000,1,-1.000000,1,COMPLETED_SUCCESSFULLY,647.317736,0.000010,647.317746,647.317736,647.317746,64731774.646779,0,-1.000000,""
73_updated,w0,python3action_floatoperation_200000000_nova,0.997085,1,2000.000000,1,COMPLETED_SUCCESSFULLY,515.342184,135.399990,650.742174,514.345099,649.745089,4.798709,9,-1.000000,""
73,w0,python3action_floatoperation_200000000,0.000000,1,-1.000000,1,COMPLETED_SUCCESSFULLY,650.742189,0.000010,650.742199,650.742189,650.742199,65074219.926116,9,-1.000000,""
86_updated,w0,python3action_videoprocessing_SampleVideo_50mb_taurus,0.997085,1,2000.000000,1,COMPLETED_SUCCESSFULLY,497.148622,154.250029,651.398651,496.151537,650.401566,4.216541,12,-1.000000,""
86,w0,python3action_videoprocessing_SampleVideo_50mb,0.000000,1,-1.000000,1,COMPLETED_SUCCESSFULLY,651.398666,0.000010,651.398676,651.398666,651.398676,65139867.600201,12,-1.000000,""
102_updated,w0,python3action_chameleon_3000_yeti,0.997085,1,2000.000000,1,COMPLETED_SUCCESSFULLY,559.895140,93.000000,652.895140,558.898055,651.898055,7.009657,5,-1.000000,""
102,w0,python3action_chameleon_3000,0.000000,1,-1.000000,1,COMPLETED_SUCCESSFULLY,652.895155,0.000010,652.895165,652.895155,652.895165,65289516.503213,5,-1.000000,""
90_updated,w0,python3action_videoprocessing_SampleVideo_50mb_taurus,0.997085,1,2000.000000,1,COMPLETED_SUCCESSFULLY,509.826155,154.250029,664.076184,508.829070,663.079099,4.298729,2,-1.000000,""
90,w0,python3action_videoprocessing_SampleVideo_50mb,0.000000,1,-1.000000,1,COMPLETED_SUCCESSFULLY,664.076199,0.000010,664.076209,664.076199,664.076209,66407620.911740,2,-1.000000,""
69_updated,w0,python3action_facedetection_SampleVideo_30mb_nova,0.997085,1,2000.000000,1,COMPLETED_SUCCESSFULLY,515.342139,160.399990,675.742129,514.345054,674.745044,4.206640,8,-1.000000,""
69,w0,python3action_facedetection_SampleVideo_30mb,0.000000,1,-1.000000,1,COMPLETED_SUCCESSFULLY,675.742144,0.000010,675.742154,675.742144,675.742154,67574215.425513,8,-1.000000,""
99_updated,w0,python3action_imageprocessing_SampleImage_40mb_taurus,0.997085,1,2000.000000,1,COMPLETED_SUCCESSFULLY,664.076229,32.600046,696.676275,663.079144,695.679190,21.339822,2,-1.000000,""
99,w0,python3action_imageprocessing_SampleImage_40mb,0.000000,1,-1.000000,1,COMPLETED_SUCCESSFULLY,696.676290,0.000010,696.676300,696.676290,696.676300,69667630.025420,2,-1.000000,""
106_updated,w0,python3action_pyaes_4000_troll,0.997085,1,2000.000000,1,COMPLETED_SUCCESSFULLY,594.703819,102.333333,697.037152,593.706734,696.040067,6.801694,4,-1.000000,""
106,w0,python3action_pyaes_4000,0.000000,1,-1.000000,1,COMPLETED_SUCCESSFULLY,697.037167,0.000010,697.037177,697.037167,697.037177,69703717.734136,4,-1.000000,""
89_updated,w0,python3action_floatoperation_200000000_nova,0.997085,1,2000.000000,1,COMPLETED_SUCCESSFULLY,596.342172,135.399990,731.742162,595.345087,730.745077,5.396936,7,-1.000000,""
89,w0,python3action_floatoperation_200000000,0.000000,1,-1.000000,1,COMPLETED_SUCCESSFULLY,731.742177,0.000010,731.742187,731.742177,731.742187,73174218.725715,7,-1.000000,""
88_updated,w0,python3action_videoprocessing_SampleVideo_50mb_taurus,0.997085,1,2000.000000,1,COMPLETED_SUCCESSFULLY,579.226184,154.250029,733.476213,578.229099,732.479128,4.748648,13,-1.000000,""
88,w0,python3action_videoprocessing_SampleVideo_50mb,0.000000,1,-1.000000,1,COMPLETED_SUCCESSFULLY,733.476228,0.000010,733.476238,733.476228,733.476238,73347623.826798,13,-1.000000,""
python3action_image_processing_job97_13,w0,python3action_image_processing_reduced_1.73,0.997085,1,2000.000000,1,COMPLETED_SUCCESSFULLY,733.476258,0.000000,733.476258,732.479173,732.479173,6353998959498.484375,13,-1.000000,""
125_updated,w0,python3action_chameleon_3000_yeti,0.997085,1,2000.000000,1,COMPLETED_SUCCESSFULLY,652.895185,93.000000,745.895185,651.898100,744.898100,8.009657,5,-1.000000,""
125,w0,python3action_chameleon_3000,0.000000,1,-1.000000,1,COMPLETED_SUCCESSFULLY,745.895200,0.000010,745.895210,745.895200,745.895210,74589521.003816,5,-1.000000,""
137_updated,w0,python3action_linpack_6000_orion,0.997085,1,2000.000000,1,COMPLETED_SUCCESSFULLY,642.763462,106.000000,748.763462,641.766377,747.766377,7.054400,11,-1.000000,""
137,w0,python3action_linpack_6000,0.000000,1,-1.000000,1,COMPLETED_SUCCESSFULLY,748.763477,0.000010,748.763487,748.763477,748.763487,74876348.729095,11,-1.000000,""
110_updated,w0,python3action_pyaes_3000_troll,0.997085,1,2000.000000,1,COMPLETED_SUCCESSFULLY,697.037197,57.166677,754.203874,696.040112,753.206789,13.175627,4,-1.000000,""
110,w0,python3action_pyaes_3000,0.000000,1,-1.000000,1,COMPLETED_SUCCESSFULLY,754.203889,0.000010,754.203899,754.203889,754.203899,75420389.900201,4,-1.000000,""
67_updated,w0,python3action_facedetection_SampleVideo_30mb_nova,0.997085,1,2000.000000,1,COMPLETED_SUCCESSFULLY,593.942088,160.399990,754.342078,592.945003,753.344993,4.696665,6,-1.000000,""
67,w0,python3action_facedetection_SampleVideo_30mb,0.000000,1,-1.000000,1,COMPLETED_SUCCESSFULLY,754.342093,0.000010,754.342103,754.342093,754.342103,75434210.326116,6,-1.000000,""
92_updated,w0,python3action_videoprocessing_SampleVideo_30mb_nova,0.997085,1,2000.000000,1,COMPLETED_SUCCESSFULLY,650.742219,106.799980,757.542200,649.745134,756.545115,7.083757,9,-1.000000,""
92,w0,python3action_videoprocessing_SampleVideo_30mb,0.000000,1,-1.000000,1,COMPLETED_SUCCESSFULLY,757.542215,0.000010,757.542225,757.542215,757.542225,75754222.500201,9,-1.000000,""
python3action_facedetection_job114_9,w0,python3action_facedetection_reduced_0.91,0.997085,1,2000.000000,1,COMPLETED_SUCCESSFULLY,757.542245,0.000000,757.542245,756.545160,756.545160,170631835972160.562500,9,-1.000000,""
74_updated,w0,python3action_facedetection_SampleVideo_30mb_nova,0.997085,1,2000.000000,1,COMPLETED_SUCCESSFULLY,597.542129,160.399990,757.942120,596.545044,756.945035,4.719109,10,-1.000000,""
74,w0,python3action_facedetection_SampleVideo_30mb,0.000000,1,-1.000000,1,COMPLETED_SUCCESSFULLY,757.942135,0.000010,757.942145,757.942135,757.942145,75794214.500201,10,-1.000000,""
97_updated,w0,python3action_imageprocessing_SampleImage_40mb_taurus,0.997085,1,2000.000000,1,COMPLETED_SUCCESSFULLY,733.476288,32.600046,766.076334,732.479203,765.079249,23.468655,13,-1.000000,""
97,w0,python3action_imageprocessing_SampleImage_40mb,0.000000,1,-1.000000,1,COMPLETED_SUCCESSFULLY,766.076349,0.000010,766.076359,766.076349,766.076359,76607635.940880,13,-1.000000,""
112_updated,w0,python3action_floatoperation_100000000_nova,0.997085,1,2000.000000,1,COMPLETED_SUCCESSFULLY,731.742207,66.200020,797.942227,730.745122,796.945142,12.038443,7,-1.000000,""
112,w0,python3action_floatoperation_100000000,0.000000,1,-1.000000,1,COMPLETED_SUCCESSFULLY,797.942242,0.000010,797.942252,797.942242,797.942252,79794225.200201,7,-1.000000,""
104_updated,w0,python3action_linpack_5000_taurus,0.997085,1,2000.000000,1,COMPLETED_SUCCESSFULLY,766.076379,38.500058,804.576437,765.079294,803.579352,20.872160,13,-1.000000,""
104,w0,python3action_linpack_5000,0.000000,1,-1.000000,1,COMPLETED_SUCCESSFULLY,804.576452,0.000010,804.576462,804.576452,804.576462,80457646.207830,13,-1.000000,""
96_updated,w0,python3action_videoprocessing_SampleVideo_50mb_taurus,0.997085,1,2000.000000,1,COMPLETED_SUCCESSFULLY,651.398696,154.250029,805.648725,650.401611,804.651640,5.216541,12,-1.000000,""
96,w0,python3action_videoprocessing_SampleVideo_50mb,0.000000,1,-1.000000,1,COMPLETED_SUCCESSFULLY,805.648740,0.000010,805.648750,805.648740,805.648750,80564875.000201,12,-1.000000,""
94_updated,w0,python3action_floatoperation_100000000_nova,0.997085,1,2000.000000,1,COMPLETED_SUCCESSFULLY,757.942165,66.200020,824.142185,756.945080,823.145100,12.434212,10,-1.000000,""
94,w0,python3action_floatoperation_100000000,0.000000,1,-1.000000,1,COMPLETED_SUCCESSFULLY,824.142200,0.000010,824.142210,824.142200,824.142210,82414221.000201,10,-1.000000,""
91_updated,w0,python3action_facedetection_SampleVideo_30mb_nova,0.997085,1,2000.000000,1,COMPLETED_SUCCESSFULLY,675.742174,160.399990,836.142164,674.745089,835.145079,5.206640,8,-1.000000,""
91,w0,python3action_facedetection_SampleVideo_30mb,0.000000,1,-1.000000,1,COMPLETED_SUCCESSFULLY,836.142179,0.000010,836.142189,836.142179,836.142189,83614218.949219,8,-1.000000,""
python3action_modeltraining_job113_8,w0,python3action_modeltraining_reduced_1.94,0.997085,1,2000.000000,1,COMPLETED_SUCCESSFULLY,836.142209,0.000000,836.142209,835.145124,835.145124,17083753958401.306641,8,-1.000000,""
129_updated,w0,python3action_imageprocessing_SampleImage_40mb_taurus,0.997085,1,2000.000000,1,COMPLETED_SUCCESSFULLY,804.576482,32.600046,837.176528,803.579397,836.179443,25.649640,13,-1.000000,""
129,w0,python3action_imageprocessing_SampleImage_40mb,0.000000,1,-1.000000,1,COMPLETED_SUCCESSFULLY,837.176543,0.000010,837.176553,837.176543,837.176553,83717655.321510,13,-1.000000,""
103_updated,w0,python3action_imageprocessing_SampleImage_40mb_taurus,0.997085,1,2000.000000,1,COMPLETED_SUCCESSFULLY,805.648770,32.600046,838.248816,804.651685,837.251731,25.682532,12,-1.000000,""
103,w0,python3action_imageprocessing_SampleImage_40mb,0.000000,1,-1.000000,1,COMPLETED_SUCCESSFULLY,838.248831,0.000010,838.248841,838.248831,838.248841,83824884.113881,12,-1.000000,""
158_updated,w0,python3action_chameleon_3000_yeti,0.997085,1,2000.000000,1,COMPLETED_SUCCESSFULLY,745.895230,93.000000,838.895230,744.898145,837.898145,9.009657,5,-1.000000,""
158,w0,python3action_chameleon_3000,0.000000,1,-1.000000,1,COMPLETED_SUCCESSFULLY,838.895245,0.000010,838.895255,838.895245,838.895255,83889525.504418,5,-1.000000,""
115_updated,w0,python3action_videoprocessing_SampleVideo_50mb_taurus,0.997085,1,2000.000000,1,COMPLETED_SUCCESSFULLY,696.676320,154.250029,850.926349,695.679235,849.929264,5.510075,2,-1.000000,""
115,w0,python3action_videoprocessing_SampleVideo_50mb,0.000000,1,-1.000000,1,COMPLETED_SUCCESSFULLY,850.926364,0.000010,850.926374,850.926364,850.926374,85092637.409196,2,-1.000000,""
138_updated,w0,python3action_linpack_6000_orion,0.997085,1,2000.000000,1,COMPLETED_SUCCESSFULLY,748.763507,106.000000,854.763507,747.766422,853.766422,8.054400,11,-1.000000,""
138,w0,python3action_linpack_6000,0.000000,1,-1.000000,1,COMPLETED_SUCCESSFULLY,854.763522,0.000010,854.763532,854.763522,854.763532,85476353.229697,11,-1.000000,""
111_updated,w0,python3action_pyaes_4000_troll,0.997085,1,2000.000000,1,COMPLETED_SUCCESSFULLY,754.203919,102.333333,856.537252,753.206834,855.540167,8.360327,4,-1.000000,""
111,w0,python3action_pyaes_4000,0.000000,1,-1.000000,1,COMPLETED_SUCCESSFULLY,856.537267,0.000010,856.537277,856.537267,856.537277,85653727.734136,4,-1.000000,""
77_updated,w0,python3action_videoprocessing_SampleVideo_30mb_nova,0.997085,1,2000.000000,1,COMPLETED_SUCCESSFULLY,754.342123,106.799980,861.142104,753.345038,860.145019,8.053794,6,-1.000000,""
77,w0,python3action_videoprocessing_SampleVideo_30mb,0.000000,1,-1.000000,1,COMPLETED_SUCCESSFULLY,861.142119,0.000010,861.142129,861.142119,861.142129,86114212.900201,6,-1.000000,""
119_updated,w0,python3action_floatoperation_100000000_nova,0.997085,1,2000.000000,1,COMPLETED_SUCCESSFULLY,824.142230,66.200020,890.342250,823.145145,889.345165,13.434213,10,-1.000000,""
119,w0,python3action_floatoperation_100000000,0.000000,1,-1.000000,1,COMPLETED_SUCCESSFULLY,890.342265,0.000010,890.342275,890.342265,890.342275,89034227.500201,10,-1.000000,""
113_updated,w0,python3action_modeltraining_reviews100mb_nova,0.997085,1,2000.000000,1,COMPLETED_SUCCESSFULLY,836.142240,79.600010,915.742249,835.145155,914.745164,11.491772,8,-1.000000,""
113,w0,python3action_modeltraining_reviews100mb,0.000000,1,-1.000000,1,COMPLETED_SUCCESSFULLY,915.742264,0.000010,915.742274,915.742264,915.742274,91574227.427120,8,-1.000000,""
114_updated,w0,python3action_facedetection_SampleVideo_30mb_nova,0.997085,1,2000.000000,1,COMPLETED_SUCCESSFULLY,757.542275,160.399990,917.942265,756.545190,916.945180,5.716616,9,-1.000000,""
114,w0,python3action_facedetection_SampleVideo_30mb,0.000000,1,-1.000000,1,COMPLETED_SUCCESSFULLY,917.942280,0.000010,917.942290,917.942280,917.942290,91794229.024308,9,-1.000000,""
173_updated,w0,python3action_chameleon_3000_yeti,0.997085,1,2000.000000,1,COMPLETED_SUCCESSFULLY,838.895275,93.000000,931.895275,837.898190,930.898190,10.009658,5,-1.000000,""
173,w0,python3action_chameleon_3000,0.000000,1,-1.000000,1,COMPLETED_SUCCESSFULLY,931.895290,0.000010,931.895300,931.895290,931.895300,93189530.005020,5,-1.000000,""
122_updated,w0,python3action_floatoperation_200000000_nova,0.997085,1,2000.000000,1,COMPLETED_SUCCESSFULLY,797.942272,135.399990,933.342262,796.945187,932.345177,6.885859,7,-1.000000,""
122,w0,python3action_floatoperation_200000000,0.000000,1,-1.000000,1,COMPLETED_SUCCESSFULLY,933.342277,0.000010,933.342287,933.342277,933.342287,93334228.723907,7,-1.000000,""
117_updated,w0,python3action_pyaes_4000_troll,0.997085,1,2000.000000,1,COMPLETED_SUCCESSFULLY,856.537297,102.333333,958.870631,855.540212,957.873546,9.360328,4,-1.000000,""
117,w0,python3action_pyaes_4000,0.000000,1,-1.000000,1,COMPLETED_SUCCESSFULLY,958.870646,0.000010,958.870656,958.870646,958.870656,95887065.600201,4,-1.000000,""
153_updated,w0,python3action_linpack_6000_orion,0.997085,1,2000.000000,1,COMPLETED_SUCCESSFULLY,854.763552,106.000000,960.763552,853.766467,959.766467,9.054401,11,-1.000000,""
153,w0,python3action_linpack_6000,0.000000,1,-1.000000,1,COMPLETED_SUCCESSFULLY,960.763567,0.000010,960.763577,960.763567,960.763577,96076357.730299,11,-1.000000,""
133_updated,w0,python3action_facedetection_SampleVideo_50mb_taurus,0.997085,1,2000.000000,1,COMPLETED_SUCCESSFULLY,837.176573,134.600046,971.776619,836.179488,970.779534,7.212327,13,-1.000000,""
133,w0,python3action_facedetection_SampleVideo_50mb,0.000000,1,-1.000000,1,COMPLETED_SUCCESSFULLY,971.776634,0.000010,971.776644,971.776634,971.776644,97177664.435190,13,-1.000000,""
127_updated,w0,python3action_floatoperation_100000000_nova,0.997085,1,2000.000000,1,COMPLETED_SUCCESSFULLY,917.942310,66.200020,984.142330,916.945225,983.145245,14.851132,9,-1.000000,""
127,w0,python3action_floatoperation_100000000,0.000000,1,-1.000000,1,COMPLETED_SUCCESSFULLY,984.142345,0.000010,984.142355,984.142345,984.142355,98414235.500201,9,-1.000000,""
131_updated,w0,python3action_facedetection_SampleVideo_50mb_taurus,0.997085,1,2000.000000,1,COMPLETED_SUCCESSFULLY,850.926394,134.600046,985.526440,849.929309,984.529355,7.314480,2,-1.000000,""
131,w0,python3action_facedetection_SampleVideo_50mb,0.000000,1,-1.000000,1,COMPLETED_SUCCESSFULLY,985.526455,0.000010,985.526465,985.526455,985.526465,98552646.522877,2,-1.000000,""
126_updated,w0,python3action_modeltraining_reviews100mb_nova,0.997085,1,2000.000000,1,COMPLETED_SUCCESSFULLY,915.742294,79.600010,995.342304,914.745209,994.345219,12.491773,8,-1.000000,""
126,w0,python3action_modeltraining_reviews100mb,0.000000,1,-1.000000,1,COMPLETED_SUCCESSFULLY,995.342319,0.000010,995.342329,995.342319,995.342329,99534232.904618,8,-1.000000,""
120_updated,w0,python3action_linpack_6000_taurus,0.997085,1,2000.000000,1,COMPLETED_SUCCESSFULLY,838.248861,157.600046,995.848907,837.251776,994.851822,6.312510,12,-1.000000,""
120,w0,python3action_linpack_6000,0.000000,1,-1.000000,1,COMPLETED_SUCCESSFULLY,995.848922,0.000010,995.848932,995.848922,995.848932,99584893.227562,12,-1.000000,""
107_updated,w0,python3action_floatoperation_200000000_nova,0.997085,1,2000.000000,1,COMPLETED_SUCCESSFULLY,861.142149,135.399990,996.542139,860.145064,995.545054,7.352623,6,-1.000000,""
107,w0,python3action_floatoperation_200000000,0.000000,1,-1.000000,1,COMPLETED_SUCCESSFULLY,996.542154,0.000010,996.542164,996.542154,996.542164,99654216.423907,6,-1.000000,""
140_updated,w0,python3action_floatoperation_100000000_nova,0.997085,1,2000.000000,1,COMPLETED_SUCCESSFULLY,933.342307,66.200020,999.542327,932.345222,998.545242,15.083761,7,-1.000000,""
140,w0,python3action_floatoperation_100000000,0.000000,1,-1.000000,1,COMPLETED_SUCCESSFULLY,999.542342,0.000010,999.542352,999.542342,999.542352,99954235.200201,7,-1.000000,""
141_updated,w0,python3action_linpack_5000_taurus,0.997085,1,2000.000000,1,COMPLETED_SUCCESSFULLY,971.776664,38.500058,1010.276722,970.779579,1009.279637,26.215016,13,-1.000000,""
141,w0,python3action_linpack_5000,0.000000,1,-1.000000,1,COMPLETED_SUCCESSFULLY,1010.276737,0.000010,1010.276747,1010.276737,1010.276747,101027674.702140,13,-1.000000,""
186_updated,w0,python3action_chameleon_3000_yeti,0.997085,1,2000.000000,1,COMPLETED_SUCCESSFULLY,931.895320,93.000000,1024.895320,930.898235,1023.898235,11.009658,5,-1.000000,""
186,w0,python3action_chameleon_3000,0.000000,1,-1.000000,1,COMPLETED_SUCCESSFULLY,1024.895335,0.000010,1024.895345,1024.895335,1024.895345,102489534.505623,5,-1.000000,""
128_updated,w0,python3action_floatoperation_200000000_nova,0.997085,1,2000.000000,1,COMPLETED_SUCCESSFULLY,890.342295,135.399990,1025.742285,889.345210,1024.745200,7.568281,10,-1.000000,""
128,w0,python3action_floatoperation_200000000,0.000000,1,-1.000000,1,COMPLETED_SUCCESSFULLY,1025.742300,0.000010,1025.742310,1025.742300,1025.742310,102574231.023907,10,-1.000000,""
132_updated,w0,python3action_linpack_5000_taurus,0.997085,1,2000.000000,1,COMPLETED_SUCCESSFULLY,995.848952,38.500058,1034.349010,994.851867,1033.351925,26.840270,12,-1.000000,""
132,w0,python3action_linpack_5000,0.000000,1,-1.000000,1,COMPLETED_SUCCESSFULLY,1034.349025,0.000010,1034.349035,1034.349025,1034.349035,103434903.500201,12,-1.000000,""
118_updated,w0,python3action_pyaes_4000_troll,0.997085,1,2000.000000,1,COMPLETED_SUCCESSFULLY,958.870676,102.333333,1061.204009,957.873591,1060.206924,10.360328,4,-1.000000,""
118,w0,python3action_pyaes_4000,0.000000,1,-1.000000,1,COMPLETED_SUCCESSFULLY,1061.204024,0.000010,1061.204034,1061.204024,1061.204034,106120403.434136,4,-1.000000,""
152_updated,w0,python3action_floatoperation_100000000_nova,0.997085,1,2000.000000,1,COMPLETED_SUCCESSFULLY,999.542372,66.200020,1065.742392,998.545287,1064.745307,16.083761,7,-1.000000,""
152,w0,python3action_floatoperation_100000000,0.000000,1,-1.000000,1,COMPLETED_SUCCESSFULLY,1065.742407,0.000010,1065.742417,1065.742407,1065.742417,106574241.700201,7,-1.000000,""
154_updated,w0,python3action_linpack_6000_orion,0.997085,1,2000.000000,1,COMPLETED_SUCCESSFULLY,960.763597,106.000000,1066.763597,959.766512,1065.766512,10.054401,11,-1.000000,""
154,w0,python3action_linpack_6000,0.000000,1,-1.000000,1,COMPLETED_SUCCESSFULLY,1066.763612,0.000010,1066.763622,1066.763612,1066.763622,106676362.230902,11,-1.000000,""
139_updated,w0,python3action_imageprocessing_SampleImage_40mb_taurus,0.997085,1,2000.000000,1,COMPLETED_SUCCESSFULLY,1034.349055,32.600046,1066.949101,1033.351970,1065.952016,32.697868,12,-1.000000,""
139,w0,python3action_imageprocessing_SampleImage_40mb,0.000000,1,-1.000000,1,COMPLETED_SUCCESSFULLY,1066.949116,0.000010,1066.949126,1066.949116,1066.949126,106694912.613881,12,-1.000000,""
144_updated,w0,python3action_videoprocessing_SampleVideo_30mb_nova,0.997085,1,2000.000000,1,COMPLETED_SUCCESSFULLY,984.142375,106.799980,1090.942355,983.145290,1089.945270,10.205482,9,-1.000000,""
144,w0,python3action_videoprocessing_SampleVideo_30mb,0.000000,1,-1.000000,1,COMPLETED_SUCCESSFULLY,1090.942370,0.000010,1090.942380,1090.942370,1090.942380,109094238.047010,9,-1.000000,""
148_updated,w0,python3action_linpack_5000_taurus,0.997085,1,2000.000000,1,COMPLETED_SUCCESSFULLY,1066.949146,38.500058,1105.449204,1065.952061,1104.452119,28.687025,12,-1.000000,""
148,w0,python3action_linpack_5000,0.000000,1,-1.000000,1,COMPLETED_SUCCESSFULLY,1105.449219,0.000010,1105.449229,1105.449219,1105.449229,110544922.900201,12,-1.000000,""
python3action_modeltraining_job163_12,w0,python3action_modeltraining_reduced_1.94,0.997085,1,2000.000000,1,COMPLETED_SUCCESSFULLY,1105.449249,0.000000,1105.449249,1104.452164,1104.452164,9580733701357.916016,12,-1.000000,""
199_updated,w0,python3action_chameleon_3000_yeti,0.997085,1,2000.000000,1,COMPLETED_SUCCESSFULLY,1024.895365,93.000000,1117.895365,1023.898280,1116.898280,12.009659,5,-1.000000,""
199,w0,python3action_chameleon_3000,0.000000,1,-1.000000,1,COMPLETED_SUCCESSFULLY,1117.895380,0.000010,1117.895390,1117.895380,1117.895390,111789539.006225,5,-1.000000,""
123_updated,w0,python3action_pyaes_3000_troll,0.997085,1,2000.000000,1,COMPLETED_SUCCESSFULLY,1061.204054,57.166677,1118.370731,1060.206969,1117.373646,19.545891,4,-1.000000,""
123,w0,python3action_pyaes_3000,0.000000,1,-1.000000,1,COMPLETED_SUCCESSFULLY,1118.370746,0.000010,1118.370756,1118.370746,1118.370756,111837075.600201,4,-1.000000,""
135_updated,w0,python3action_facedetection_SampleVideo_50mb_taurus,0.997085,1,2000.000000,1,COMPLETED_SUCCESSFULLY,985.526485,134.600046,1120.126531,984.529400,1119.129446,8.314480,2,-1.000000,""
135,w0,python3action_facedetection_SampleVideo_50mb,0.000000,1,-1.000000,1,COMPLETED_SUCCESSFULLY,1120.126546,0.000010,1120.126556,1120.126546,1120.126556,112012655.636557,2,-1.000000,""
143_updated,w0,python3action_floatoperation_200000000_nova,0.997085,1,2000.000000,1,COMPLETED_SUCCESSFULLY,995.342349,135.399990,1130.742339,994.345264,1129.745254,8.343762,8,-1.000000,""
143,w0,python3action_floatoperation_200000000,0.000000,1,-1.000000,1,COMPLETED_SUCCESSFULLY,1130.742354,0.000010,1130.742364,1130.742354,1130.742364,113074236.428324,8,-1.000000,""
178_updated,w0,python3action_modeltraining_reviews100mb_nova,0.997085,1,2000.000000,1,COMPLETED_SUCCESSFULLY,1065.742437,79.600010,1145.342447,1064.745352,1144.345362,14.376196,7,-1.000000,""
178,w0,python3action_modeltraining_reviews100mb,0.000000,1,-1.000000,1,COMPLETED_SUCCESSFULLY,1145.342462,0.000010,1145.342472,1145.342462,1145.342472,114534247.200201,7,-1.000000,""
121_updated,w0,python3action_facedetection_SampleVideo_30mb_nova,0.997085,1,2000.000000,1,COMPLETED_SUCCESSFULLY,996.542184,160.399990,1156.942174,995.545099,1155.945089,7.206641,6,-1.000000,""
121,w0,python3action_facedetection_SampleVideo_30mb,0.000000,1,-1.000000,1,COMPLETED_SUCCESSFULLY,1156.942189,0.000010,1156.942199,1156.942189,1156.942199,115694219.947613,6,-1.000000,""
146_updated,w0,python3action_linpack_5000_taurus,0.997085,1,2000.000000,1,COMPLETED_SUCCESSFULLY,1120.126576,38.500058,1158.626634,1119.129491,1157.629549,30.068255,2,-1.000000,""
146,w0,python3action_linpack_5000,0.000000,1,-1.000000,1,COMPLETED_SUCCESSFULLY,1158.626649,0.000010,1158.626659,1158.626649,1158.626659,115862665.903507,2,-1.000000,""
151_updated,w0,python3action_videoprocessing_SampleVideo_50mb_taurus,0.997085,1,2000.000000,1,COMPLETED_SUCCESSFULLY,1010.276767,154.250029,1164.526796,1009.279682,1163.529711,7.543141,13,-1.000000,""
151,w0,python3action_videoprocessing_SampleVideo_50mb,0.000000,1,-1.000000,1,COMPLETED_SUCCESSFULLY,1164.526811,0.000010,1164.526821,1164.526811,1164.526821,116452682.100201,13,-1.000000,""
160_updated,w0,python3action_linpack_6000_orion,0.997085,1,2000.000000,1,COMPLETED_SUCCESSFULLY,1066.763642,106.000000,1172.763642,1065.766557,1171.766557,11.054401,11,-1.000000,""
160,w0,python3action_linpack_6000,0.000000,1,-1.000000,1,COMPLETED_SUCCESSFULLY,1172.763657,0.000010,1172.763667,1172.763657,1172.763667,117276366.731504,11,-1.000000,""
145_updated,w0,python3action_facedetection_SampleVideo_30mb_nova,0.997085,1,2000.000000,1,COMPLETED_SUCCESSFULLY,1025.742330,160.399990,1186.142320,1024.745245,1185.145235,7.388686,10,-1.000000,""
145,w0,python3action_facedetection_SampleVideo_30mb,0.000000,1,-1.000000,1,COMPLETED_SUCCESSFULLY,1186.142335,0.000010,1186.142345,1186.142335,1186.142345,118614234.547613,10,-1.000000,""
python3action_modeltraining_job169_10,w0,python3action_modeltraining_reduced_0.94,0.997085,1,2000.000000,1,COMPLETED_SUCCESSFULLY,1186.142365,0.000000,1186.142365,1185.145280,1185.145280,24243367748684.988281,10,-1.000000,""
163_updated,w0,python3action_modeltraining_reviews100mb_taurus,0.997085,1,2000.000000,1,COMPLETED_SUCCESSFULLY,1105.449279,88.199977,1193.649256,1104.452194,1192.652171,13.522137,12,-1.000000,""
163,w0,python3action_modeltraining_reviews100mb,0.000000,1,-1.000000,1,COMPLETED_SUCCESSFULLY,1193.649271,0.000010,1193.649281,1193.649271,1193.649281,119364928.100201,12,-1.000000,""
124_updated,w0,python3action_pyaes_4000_troll,0.997085,1,2000.000000,1,COMPLETED_SUCCESSFULLY,1118.370776,102.333333,1220.704109,1117.373691,1219.707024,11.918961,4,-1.000000,""
124,w0,python3action_pyaes_4000,0.000000,1,-1.000000,1,COMPLETED_SUCCESSFULLY,1220.704124,0.000010,1220.704134,1220.704124,1220.704134,122070413.434136,4,-1.000000,""
172_updated,w0,python3action_imageprocessing_SampleImage_40mb_taurus,0.997085,1,2000.000000,1,COMPLETED_SUCCESSFULLY,1193.649301,32.600046,1226.249347,1192.652216,1225.252262,37.584372,12,-1.000000,""
172,w0,python3action_imageprocessing_SampleImage_40mb,0.000000,1,-1.000000,1,COMPLETED_SUCCESSFULLY,1226.249362,0.000010,1226.249372,1226.249362,1226.249372,122624937.213881,12,-1.000000,""
167_updated,w0,python3action_floatoperation_200000000_nova,0.997085,1,2000.000000,1,COMPLETED_SUCCESSFULLY,1090.942400,135.399990,1226.342391,1089.945315,1225.345306,9.049818,9,-1.000000,""
167,w0,python3action_floatoperation_200000000,0.000000,1,-1.000000,1,COMPLETED_SUCCESSFULLY,1226.342406,0.000010,1226.342416,1226.342406,1226.342416,122634241.600201,9,-1.000000,""
python3action_modeltraining_job181_9,w0,python3action_modeltraining_reduced_1.94,0.997085,1,2000.000000,1,COMPLETED_SUCCESSFULLY,1226.342436,0.000000,1226.342436,1225.345351,1225.345351,25065701608789.605469,9,-1.000000,""
156_updated,w0,python3action_videoprocessing_SampleVideo_30mb_nova,0.997085,1,2000.000000,1,COMPLETED_SUCCESSFULLY,1130.742384,106.799980,1237.542365,1129.745299,1236.545280,11.578141,8,-1.000000,""
156,w0,python3action_videoprocessing_SampleVideo_30mb,0.000000,1,-1.000000,1,COMPLETED_SUCCESSFULLY,1237.542380,0.000010,1237.542390,1237.542380,1237.542390,123754239.000201,8,-1.000000,""
188_updated,w0,python3action_linpack_5000_taurus,0.997085,1,2000.000000,1,COMPLETED_SUCCESSFULLY,1226.249392,38.500058,1264.749450,1225.252307,1263.752365,32.824688,12,-1.000000,""
188,w0,python3action_linpack_5000,0.000000,1,-1.000000,1,COMPLETED_SUCCESSFULLY,1264.749465,0.000010,1264.749475,1264.749465,1264.749475,126474947.500201,12,-1.000000,""
169_updated,w0,python3action_modeltraining_reviews100mb_nova,0.997085,1,2000.000000,1,COMPLETED_SUCCESSFULLY,1186.142395,79.600010,1265.742405,1185.145310,1264.745320,15.888758,10,-1.000000,""
169,w0,python3action_modeltraining_reviews100mb,0.000000,1,-1.000000,1,COMPLETED_SUCCESSFULLY,1265.742420,0.000010,1265.742430,1265.742420,1265.742430,126574243.025513,10,-1.000000,""
142_updated,w0,python3action_pyaes_3000_troll,0.997085,1,2000.000000,1,COMPLETED_SUCCESSFULLY,1220.704154,57.166677,1277.870831,1219.707069,1276.873746,22.335980,4,-1.000000,""
142,w0,python3action_pyaes_3000,0.000000,1,-1.000000,1,COMPLETED_SUCCESSFULLY,1277.870846,0.000010,1277.870856,1277.870846,1277.870856,127787085.600201,4,-1.000000,""
194_updated,w0,python3action_linpack_6000_orion,0.997085,1,2000.000000,1,COMPLETED_SUCCESSFULLY,1172.763687,106.000000,1278.763687,1171.766602,1277.766602,12.054402,11,-1.000000,""
194,w0,python3action_linpack_6000,0.000000,1,-1.000000,1,COMPLETED_SUCCESSFULLY,1278.763702,0.000010,1278.763712,1278.763702,1278.763712,127876371.232106,11,-1.000000,""
185_updated,w0,python3action_floatoperation_200000000_nova,0.997085,1,2000.000000,1,COMPLETED_SUCCESSFULLY,1145.342492,135.399990,1280.742482,1144.345407,1279.745397,9.451592,7,-1.000000,""
185,w0,python3action_floatoperation_200000000,0.000000,1,-1.000000,1,COMPLETED_SUCCESSFULLY,1280.742497,0.000010,1280.742507,1280.742497,1280.742507,128074250.723907,7,-1.000000,""
130_updated,w0,python3action_floatoperation_200000000_nova,0.997085,1,2000.000000,1,COMPLETED_SUCCESSFULLY,1156.942219,135.399990,1292.342210,1155.945134,1291.345125,9.537262,6,-1.000000,""
130,w0,python3action_floatoperation_200000000,0.000000,1,-1.000000,1,COMPLETED_SUCCESSFULLY,1292.342225,0.000010,1292.342235,1292.342225,1292.342235,129234223.500201,6,-1.000000,""
195_updated,w0,python3action_linpack_5000_taurus,0.997085,1,2000.000000,1,COMPLETED_SUCCESSFULLY,1264.749495,38.500058,1303.249553,1263.752410,1302.252468,33.824689,12,-1.000000,""
195,w0,python3action_linpack_5000,0.000000,1,-1.000000,1,COMPLETED_SUCCESSFULLY,1303.249568,0.000010,1303.249578,1303.249568,1303.249578,130324957.800201,12,-1.000000,""
181_updated,w0,python3action_modeltraining_reviews100mb_nova,0.997085,1,2000.000000,1,COMPLETED_SUCCESSFULLY,1226.342466,79.600010,1305.942476,1225.345381,1304.945391,16.393784,9,-1.000000,""
181,w0,python3action_modeltraining_reviews100mb,0.000000,1,-1.000000,1,COMPLETED_SUCCESSFULLY,1305.942491,0.000010,1305.942501,1305.942491,1305.942501,130594250.100201,9,-1.000000,""
161_updated,w0,python3action_videoprocessing_SampleVideo_50mb_taurus,0.997085,1,2000.000000,1,COMPLETED_SUCCESSFULLY,1158.626679,154.250029,1312.876708,1157.629594,1311.879623,8.504891,2,-1.000000,""
161,w0,python3action_videoprocessing_SampleVideo_50mb,0.000000,1,-1.000000,1,COMPLETED_SUCCESSFULLY,1312.876723,0.000010,1312.876733,1312.876723,1312.876733,131287673.300201,2,-1.000000,""
166_updated,w0,python3action_videoprocessing_SampleVideo_50mb_taurus,0.997085,1,2000.000000,1,COMPLETED_SUCCESSFULLY,1164.526841,154.250029,1318.776870,1163.529756,1317.779785,8.543141,13,-1.000000,""
166,w0,python3action_videoprocessing_SampleVideo_50mb,0.000000,1,-1.000000,1,COMPLETED_SUCCESSFULLY,1318.776885,0.000010,1318.776895,1318.776885,1318.776895,131877689.500201,13,-1.000000,""
170_updated,w0,python3action_imageprocessing_SampleImage_40mb_taurus,0.997085,1,2000.000000,1,COMPLETED_SUCCESSFULLY,1312.876753,32.600046,1345.476799,1311.879668,1344.479714,41.241651,2,-1.000000,""
170,w0,python3action_imageprocessing_SampleImage_40mb,0.000000,1,-1.000000,1,COMPLETED_SUCCESSFULLY,1345.476814,0.000010,1345.476824,1345.476814,1345.476824,134547682.413881,2,-1.000000,""
198_updated,w0,python3action_floatoperation_100000000_nova,0.997085,1,2000.000000,1,COMPLETED_SUCCESSFULLY,1305.942521,66.200020,1372.142541,1304.945436,1371.145456,20.712161,9,-1.000000,""
198,w0,python3action_floatoperation_100000000,0.000000,1,-1.000000,1,COMPLETED_SUCCESSFULLY,1372.142556,0.000010,1372.142566,1372.142556,1372.142566,137214256.600201,9,-1.000000,""
187_updated,w0,python3action_imageprocessing_SampleImage_40mb_taurus,0.997085,1,2000.000000,1,COMPLETED_SUCCESSFULLY,1345.476844,32.600046,1378.076890,1344.479759,1377.079805,42.241652,2,-1.000000,""
187,w0,python3action_imageprocessing_SampleImage_40mb,0.000000,1,-1.000000,1,COMPLETED_SUCCESSFULLY,1378.076905,0.000010,1378.076915,1378.076905,1378.076915,137807691.527562,2,-1.000000,""
159_updated,w0,python3action_pyaes_4000_troll,0.997085,1,2000.000000,1,COMPLETED_SUCCESSFULLY,1277.870876,102.333333,1380.204209,1276.873791,1379.207124,13.477594,4,-1.000000,""
159,w0,python3action_pyaes_4000,0.000000,1,-1.000000,1,COMPLETED_SUCCESSFULLY,1380.204224,0.000010,1380.204234,1380.204224,1380.204234,138020423.434137,4,-1.000000,""
196_updated,w0,python3action_linpack_6000_orion,0.997085,1,2000.000000,1,COMPLETED_SUCCESSFULLY,1278.763732,106.000000,1384.763732,1277.766647,1383.766647,13.054402,11,-1.000000,""
196,w0,python3action_linpack_6000,0.000000,1,-1.000000,1,COMPLETED_SUCCESSFULLY,1384.763747,0.000010,1384.763757,1384.763747,1384.763757,138476375.732708,11,-1.000000,""
180_updated,w0,python3action_facedetection_SampleVideo_30mb_nova,0.997085,1,2000.000000,1,COMPLETED_SUCCESSFULLY,1237.542410,160.399990,1397.942400,1236.545325,1396.945315,8.709136,8,-1.000000,""
180,w0,python3action_facedetection_SampleVideo_30mb,0.000000,1,-1.000000,1,COMPLETED_SUCCESSFULLY,1397.942415,0.000010,1397.942425,1397.942415,1397.942425,139794242.523907,8,-1.000000,""
183_updated,w0,python3action_floatoperation_200000000_nova,0.997085,1,2000.000000,1,COMPLETED_SUCCESSFULLY,1265.742450,135.399990,1401.142440,1264.745365,1400.145355,10.340808,10,-1.000000,""
183,w0,python3action_floatoperation_200000000,0.000000,1,-1.000000,1,COMPLETED_SUCCESSFULLY,1401.142455,0.000010,1401.142465,1401.142455,1401.142465,140114246.549219,10,-1.000000,""
150_updated,w0,python3action_facedetection_SampleVideo_30mb_nova,0.997085,1,2000.000000,1,COMPLETED_SUCCESSFULLY,1292.342255,160.399990,1452.742245,1291.345170,1451.745160,9.050781,6,-1.000000,""
150,w0,python3action_facedetection_SampleVideo_30mb,0.000000,1,-1.000000,1,COMPLETED_SUCCESSFULLY,1452.742260,0.000010,1452.742270,1452.742260,1452.742270,145274227.023907,6,-1.000000,""
192_updated,w0,python3action_floatoperation_100000000_nova,0.997085,1,2000.000000,1,COMPLETED_SUCCESSFULLY,1397.942445,66.200020,1464.142465,1396.945360,1463.145380,22.101887,8,-1.000000,""
192,w0,python3action_floatoperation_100000000,0.000000,1,-1.000000,1,COMPLETED_SUCCESSFULLY,1464.142480,0.000010,1464.142490,1464.142480,1464.142490,146414249.000201,8,-1.000000,""
179_updated,w0,python3action_videoprocessing_SampleVideo_50mb_taurus,0.997085,1,2000.000000,1,COMPLETED_SUCCESSFULLY,1318.776915,154.250029,1473.026944,1317.779830,1472.029859,9.543142,13,-1.000000,""
179,w0,python3action_videoprocessing_SampleVideo_50mb,0.000000,1,-1.000000,1,COMPLETED_SUCCESSFULLY,1473.026959,0.000010,1473.026969,1473.026959,1473.026969,147302696.900201,13,-1.000000,""
190_updated,w0,python3action_pyaes_4000_troll,0.997085,1,2000.000000,1,COMPLETED_SUCCESSFULLY,1380.204254,102.333333,1482.537588,1379.207169,1481.540503,14.477594,4,-1.000000,""
190,w0,python3action_pyaes_4000,0.000000,1,-1.000000,1,COMPLETED_SUCCESSFULLY,1482.537603,0.000010,1482.537613,1482.537603,1482.537613,148253761.300201,4,-1.000000,""
193_updated,w0,python3action_videoprocessing_SampleVideo_50mb_taurus,0.997085,1,2000.000000,1,COMPLETED_SUCCESSFULLY,1378.076935,154.250029,1532.326964,1377.079850,1531.329879,9.927582,2,-1.000000,""
193,w0,python3action_videoprocessing_SampleVideo_50mb,0.000000,1,-1.000000,1,COMPLETED_SUCCESSFULLY,1532.326979,0.000010,1532.326989,1532.326979,1532.326989,153232698.911338,2,-1.000000,""
174_updated,w0,python3action_facedetection_SampleVideo_30mb_nova,0.997085,1,2000.000000,1,COMPLETED_SUCCESSFULLY,1452.742290,160.399990,1613.142280,1451.745205,1612.145195,10.050781,6,-1.000000,""
174,w0,python3action_facedetection_SampleVideo_30mb,0.000000,1,-1.000000,1,COMPLETED_SUCCESSFULLY,1613.142295,0.000010,1613.142305,1613.142295,1613.142305,161314230.547613,6,-1.000000,""
191_updated,w0,python3action_videoprocessing_SampleVideo_50mb_taurus,0.997085,1,2000.000000,1,COMPLETED_SUCCESSFULLY,1473.026989,154.250029,1627.277018,1472.029904,1626.279933,10.543142,13,-1.000000,""
191,w0,python3action_videoprocessing_SampleVideo_50mb,0.000000,1,-1.000000,1,COMPLETED_SUCCESSFULLY,1627.277033,0.000010,1627.277043,1627.277033,1627.277043,162727704.300201,13,-1.000000,""
197_updated,w0,python3action_linpack_5000_taurus,0.997085,1,2000.000000,1,COMPLETED_SUCCESSFULLY,1627.277063,38.500058,1665.777121,1626.279978,1664.780036,43.240975,13,-1.000000,""
197,w0,python3action_linpack_5000,0.000000,1,-1.000000,1,COMPLETED_SUCCESSFULLY,1665.777136,0.000010,1665.777146,1665.777136,1665.777146,166577714.600201,13,-1.000000,""
184_updated,w0,python3action_facedetection_SampleVideo_30mb_nova,0.997085,1,2000.000000,1,COMPLETED_SUCCESSFULLY,1613.142325,160.399990,1773.542316,1612.145240,1772.545231,11.050781,6,-1.000000,""
184,w0,python3action_facedetection_SampleVideo_30mb,0.000000,1,-1.000000,1,COMPLETED_SUCCESSFULLY,1773.542331,0.000010,1773.542341,1773.542331,1773.542341,177354234.100201,6,-1.000000,""
