job_id,workload_name,profile,submission_time,requested_number_of_resources,requested_time,success,final_state,starting_time,execution_time,finish_time,waiting_time,turnaround_time,stretch,allocated_resources,consumed_energy,metadata
python3action_chameleon_job2_14,w0,python3action_chameleon,0.997085,1,2000.000000,1,COMPLETED_SUCCESSFULLY,1.002310,0.867914,1.870224,0.005225,0.873139,1.006020,19,-1.000000,""
python3action_pyaes_job4_15,w0,python3action_pyaes,0.997085,1,2000.000000,1,COMPLETED_SUCCESSFULLY,1.002325,0.867914,1.870239,0.005240,0.873154,1.006038,20,-1.000000,""
python3action_chameleon_job140_16,w0,python3action_chameleon,0.997085,1,2000.000000,1,COMPLETED_SUCCESSFULLY,1.002340,0.892694,1.895035,0.005255,0.897950,1.005887,21,-1.000000,""
python3action_pyaes_job1_0,w0,python3action_pyaes,0.997085,1,2000.000000,1,COMPLETED_SUCCESSFULLY,1.002100,2.134958,3.137058,0.005015,2.139973,1.002349,2,-1.000000,""
python3action_pyaes_job10_17,w0,python3action_pyaes,0.997085,1,2000.000000,1,COMPLETED_SUCCESSFULLY,1.002355,2.134958,3.137313,0.005270,2.140228,1.002468,25,-1.000000,""
python3action_pyaes_job12_18,w0,python3action_pyaes,0.997085,1,2000.000000,1,COMPLETED_SUCCESSFULLY,1.002370,2.134958,3.137328,0.005285,2.140243,1.002475,26,-1.000000,""
python3action_floatoperation_job7_4,w0,python3action_floatoperation,0.997085,1,2000.000000,1,COMPLETED_SUCCESSFULLY,1.002160,2.439945,3.442105,0.005075,2.445020,1.002080,6,-1.000000,""
python3action_floatoperation_job14_19,w0,python3action_floatoperation,0.997085,1,2000.000000,1,COMPLETED_SUCCESSFULLY,1.002385,2.439945,3.442330,0.005300,2.445245,1.002172,27,-1.000000,""
python3action_linpack_job8_6,w0,python3action_linpack,0.997085,1,2000.000000,1,COMPLETED_SUCCESSFULLY,1.002190,5.760927,6.763117,0.005105,5.766032,1.000886,8,-1.000000,""
python3action_linpack_job13_7,w0,python3action_linpack,0.997085,1,2000.000000,1,COMPLETED_SUCCESSFULLY,1.002205,5.760927,6.763132,0.005120,5.766047,1.000889,9,-1.000000,""
python3action_facedetection_job3_1,w0,python3action_facedetection,0.997085,1,2000.000000,1,COMPLETED_SUCCESSFULLY,1.002115,30.499683,31.501798,0.005030,30.504713,1.000165,3,-1.000000,""
python3action_modeltraining_job5_2,w0,python3action_modeltraining,0.997085,1,2000.000000,1,COMPLETED_SUCCESSFULLY,1.002130,30.499683,31.501813,0.005045,30.504728,1.000165,4,-1.000000,""
python3action_modeltraining_job6_3,w0,python3action_modeltraining,0.997085,1,2000.000000,1,COMPLETED_SUCCESSFULLY,1.002145,30.499683,31.501828,0.005060,30.504743,1.000166,5,-1.000000,""
python3action_video_processing_job9_5,w0,python3action_video_processing,0.997085,1,2000.000000,1,COMPLETED_SUCCESSFULLY,1.002175,30.499683,31.501858,0.005090,30.504773,1.000167,7,-1.000000,""
python3action_modeltraining_job15_20,w0,python3action_modeltraining,0.997085,1,2000.000000,1,COMPLETED_SUCCESSFULLY,1.002400,30.499683,31.502083,0.005315,30.504998,1.000174,28,-1.000000,""
python3action_modeltraining_job18_21,w0,python3action_modeltraining,0.997085,1,2000.000000,1,COMPLETED_SUCCESSFULLY,1.002415,30.499683,31.502098,0.005330,30.505013,1.000175,29,-1.000000,""
4_updated,w0,python3action_pyaes_3000_troll,0.997085,1,2000.000000,1,COMPLETED_SUCCESSFULLY,1.870269,57.166677,59.036946,0.873184,58.039861,1.015274,20,-1.000000,""
4,w0,python3action_pyaes_3000,0.000000,1,-1.000000,1,COMPLETED_SUCCESSFULLY,59.036961,0.000010,59.036971,59.036961,59.036971,5903697.100201,20,-1.000000,""
python3action_chameleon_job20_16,w0,python3action_chameleon_reduced_0.85,0.997085,1,2000.000000,1,COMPLETED_SUCCESSFULLY,59.036991,0.130187,59.167178,58.039906,58.170093,446.819352,20,-1.000000,""
14_updated,w0,python3action_floatoperation_100000000_nova,0.997085,1,2000.000000,1,COMPLETED_SUCCESSFULLY,3.442345,66.200020,69.642365,2.445260,68.645280,1.036937,27,-1.000000,""
14,w0,python3action_floatoperation_100000000,0.000000,1,-1.000000,1,COMPLETED_SUCCESSFULLY,69.642380,0.000010,69.642390,69.642380,69.642390,6964239.000201,27,-1.000000,""
python3action_facedetection_job0_8,w0,python3action_facedetection,0.997085,1,2000.000000,1,COMPLETED_SUCCESSFULLY,1.002220,72.012455,73.014675,0.005135,72.017590,1.000071,10,-1.000000,""
python3action_video_processing_job26_9,w0,python3action_video_processing,0.997085,1,2000.000000,1,COMPLETED_SUCCESSFULLY,1.002235,72.012455,73.014690,0.005150,72.017605,1.000072,11,-1.000000,""
python3action_facedetection_job27_10,w0,python3action_facedetection,0.997085,1,2000.000000,1,COMPLETED_SUCCESSFULLY,1.002250,72.012455,73.014705,0.005165,72.017620,1.000072,13,-1.000000,""
python3action_facedetection_job29_11,w0,python3action_facedetection,0.997085,1,2000.000000,1,COMPLETED_SUCCESSFULLY,1.002265,72.012455,73.014720,0.005180,72.017635,1.000072,14,-1.000000,""
python3action_facedetection_job30_12,w0,python3action_facedetection,0.997085,1,2000.000000,1,COMPLETED_SUCCESSFULLY,1.002280,72.012455,73.014735,0.005195,72.017650,1.000072,15,-1.000000,""
python3action_image_processing_job35_13,w0,python3action_image_processing,0.997085,1,2000.000000,1,COMPLETED_SUCCESSFULLY,1.002295,72.012455,73.014750,0.005210,72.017665,1.000072,16,-1.000000,""
140_updated,w0,python3action_chameleon_3000_yeti,0.997085,1,2000.000000,1,COMPLETED_SUCCESSFULLY,1.895050,93.000000,94.895050,0.897965,93.897965,1.009656,21,-1.000000,""
140,w0,python3action_chameleon_3000,0.000000,1,-1.000000,1,COMPLETED_SUCCESSFULLY,94.895065,0.000010,94.895075,94.895065,94.895075,9489507.500402,21,-1.000000,""
2_updated,w0,python3action_chameleon_3000_troll,0.997085,1,2000.000000,1,COMPLETED_SUCCESSFULLY,1.870239,94.000000,95.870239,0.873154,94.873154,1.009289,19,-1.000000,""
2,w0,python3action_chameleon_3000,0.000000,1,-1.000000,1,COMPLETED_SUCCESSFULLY,95.870254,0.000010,95.870264,95.870254,95.870264,9587026.400201,19,-1.000000,""
20_updated,w0,python3action_chameleon_2000_troll,0.997085,1,2000.000000,1,COMPLETED_SUCCESSFULLY,59.167193,39.500010,98.667203,58.170108,97.670118,2.472661,20,-1.000000,""
20,w0,python3action_chameleon_2000,0.000000,1,-1.000000,1,COMPLETED_SUCCESSFULLY,98.667218,0.000010,98.667228,98.667218,98.667228,9866722.800201,20,-1.000000,""
35_updated,w0,python3action_imageprocessing_SampleImage_40mb_taurus,0.997085,1,2000.000000,1,COMPLETED_SUCCESSFULLY,73.014795,32.600046,105.614841,72.017710,104.617756,3.209129,16,-1.000000,""
35,w0,python3action_imageprocessing_SampleImage_40mb,0.000000,1,-1.000000,1,COMPLETED_SUCCESSFULLY,105.614856,0.000010,105.614866,105.614856,105.614866,10561486.647773,16,-1.000000,""
python3action_video_processing_job50_14,w0,python3action_video_processing_reduced_0.91,0.997085,1,2000.000000,1,COMPLETED_SUCCESSFULLY,105.614886,0.000000,105.614886,104.617801,104.617801,907187099064.310425,16,-1.000000,""
5_updated,w0,python3action_modeltraining_reviews100mb_nova,0.997085,1,2000.000000,1,COMPLETED_SUCCESSFULLY,31.501843,79.600010,111.101853,30.504758,110.104768,1.383226,4,-1.000000,""
6_updated,w0,python3action_modeltraining_reviews100mb_nova,0.997085,1,2000.000000,1,COMPLETED_SUCCESSFULLY,31.501858,79.600010,111.101867,30.504773,110.104782,1.383226,5,-1.000000,""
5,w0,python3action_modeltraining_reviews100mb,0.000000,1,-1.000000,1,COMPLETED_SUCCESSFULLY,111.101867,0.000010,111.101877,111.101867,111.101877,11110187.729370,4,-1.000000,""
6,w0,python3action_modeltraining_reviews100mb,0.000000,1,-1.000000,1,COMPLETED_SUCCESSFULLY,111.101897,0.000010,111.101907,111.101897,111.101907,11110190.729771,5,-1.000000,""
15_updated,w0,python3action_modeltraining_reviews100mb_nova,0.997085,1,2000.000000,1,COMPLETED_SUCCESSFULLY,31.502098,79.600010,111.102107,30.505013,110.105022,1.383229,28,-1.000000,""
15,w0,python3action_modeltraining_reviews100mb,0.000000,1,-1.000000,1,COMPLETED_SUCCESSFULLY,111.102122,0.000010,111.102132,111.102122,111.102132,11110213.232583,28,-1.000000,""
18_updated,w0,python3action_modeltraining_reviews100mb_nova,0.997085,1,2000.000000,1,COMPLETED_SUCCESSFULLY,31.502128,79.600010,111.102138,30.505043,110.105053,1.383229,29,-1.000000,""
18,w0,python3action_modeltraining_reviews100mb,0.000000,1,-1.000000,1,COMPLETED_SUCCESSFULLY,111.102182,0.000010,111.102192,111.102182,111.102192,11110219.233386,29,-1.000000,""
8_updated,w0,python3action_linpack_6000_orion,0.997085,1,2000.000000,1,COMPLETED_SUCCESSFULLY,6.763132,106.000000,112.763132,5.766047,111.766047,1.054397,8,-1.000000,""
8,w0,python3action_linpack_6000,0.000000,1,-1.000000,1,COMPLETED_SUCCESSFULLY,112.763147,0.000010,112.763157,112.763147,112.763157,11276315.724677,8,-1.000000,""
13_updated,w0,python3action_linpack_6000_orion,0.997085,1,2000.000000,1,COMPLETED_SUCCESSFULLY,6.763162,106.000000,112.763162,5.766077,111.766077,1.054397,9,-1.000000,""
13,w0,python3action_linpack_6000,0.000000,1,-1.000000,1,COMPLETED_SUCCESSFULLY,112.763192,0.000010,112.763202,112.763192,112.763202,11276320.225279,9,-1.000000,""
python3action_pyaes_job37_22,w0,python3action_pyaes,0.997085,1,2000.000000,1,COMPLETED_SUCCESSFULLY,111.102212,2.134958,113.237171,110.105127,112.240086,52.572497,29,-1.000000,""
python3action_linpack_job23_4,w0,python3action_linpack,0.997085,1,2000.000000,1,COMPLETED_SUCCESSFULLY,111.101942,2.439945,113.541888,110.104857,112.544803,46.125953,5,-1.000000,""
python3action_linpack_job36_21,w0,python3action_linpack,0.997085,1,2000.000000,1,COMPLETED_SUCCESSFULLY,111.102152,2.439945,113.542098,110.105067,112.545013,46.126039,28,-1.000000,""
11_updated,w0,python3action_chameleon_2000_troll,0.997085,1,2000.000000,1,COMPLETED_SUCCESSFULLY,95.870284,39.500010,135.370294,94.873199,134.373209,3.401853,19,-1.000000,""
11,w0,python3action_chameleon_2000,0.000000,1,-1.000000,1,COMPLETED_SUCCESSFULLY,135.370309,0.000010,135.370319,135.370309,135.370319,13537031.900201,19,-1.000000,""
61_updated,w0,python3action_chameleon_2000_troll,0.997085,1,2000.000000,1,COMPLETED_SUCCESSFULLY,98.667248,39.500010,138.167258,97.670163,137.170173,3.472662,20,-1.000000,""
61,w0,python3action_chameleon_2000,0.000000,1,-1.000000,1,COMPLETED_SUCCESSFULLY,138.167273,0.000010,138.167283,138.167273,138.167283,13816728.300201,20,-1.000000,""
9_updated,w0,python3action_videoprocessing_SampleVideo_30mb_nova,0.997085,1,2000.000000,1,COMPLETED_SUCCESSFULLY,31.501888,106.799980,138.301868,30.504803,137.304783,1.285626,7,-1.000000,""
9,w0,python3action_videoprocessing_SampleVideo_30mb,0.000000,1,-1.000000,1,COMPLETED_SUCCESSFULLY,138.301883,0.000010,138.301893,138.301883,138.301893,13830189.346609,7,-1.000000,""
7_updated,w0,python3action_floatoperation_200000000_nova,0.997085,1,2000.000000,1,COMPLETED_SUCCESSFULLY,3.442120,135.399990,138.842111,2.445035,137.845026,1.018058,6,-1.000000,""
7,w0,python3action_floatoperation_200000000,0.000000,1,-1.000000,1,COMPLETED_SUCCESSFULLY,138.842126,0.000010,138.842136,138.842126,138.842136,13884213.600201,6,-1.000000,""
python3action_linpack_job25_6,w0,python3action_linpack,0.997085,1,2000.000000,1,COMPLETED_SUCCESSFULLY,138.301913,2.439945,140.741859,137.304828,139.744774,57.273732,7,-1.000000,""
1_updated,w0,python3action_pyaes_4000_nova,0.997085,1,2000.000000,1,COMPLETED_SUCCESSFULLY,3.137073,139.600010,142.737083,2.139988,141.739998,1.015329,2,-1.000000,""
1,w0,python3action_pyaes_4000,0.000000,1,-1.000000,1,COMPLETED_SUCCESSFULLY,142.737098,0.000010,142.737108,142.737098,142.737108,14273710.801267,2,-1.000000,""
10_updated,w0,python3action_pyaes_4000_nova,0.997085,1,2000.000000,1,COMPLETED_SUCCESSFULLY,3.137328,139.600010,142.737338,2.140243,141.740253,1.015331,25,-1.000000,""
10,w0,python3action_pyaes_4000,0.000000,1,-1.000000,1,COMPLETED_SUCCESSFULLY,142.737353,0.000010,142.737363,142.737353,142.737363,14273736.304680,25,-1.000000,""
12_updated,w0,python3action_pyaes_4000_nova,0.997085,1,2000.000000,1,COMPLETED_SUCCESSFULLY,3.137358,139.600010,142.737368,2.140273,141.740283,1.015331,26,-1.000000,""
12,w0,python3action_pyaes_4000,0.000000,1,-1.000000,1,COMPLETED_SUCCESSFULLY,142.737398,0.000010,142.737408,142.737398,142.737408,14273740.805283,26,-1.000000,""
python3action_floatoperation_job28_18,w0,python3action_floatoperation,0.997085,1,2000.000000,1,COMPLETED_SUCCESSFULLY,142.737383,2.439945,145.177328,141.740298,144.180243,59.091589,25,-1.000000,""
23_updated,w0,python3action_linpack_5000_nova,0.997085,1,2000.000000,1,COMPLETED_SUCCESSFULLY,113.541903,34.600010,148.141913,112.544818,147.144828,4.252739,5,-1.000000,""
23,w0,python3action_linpack_5000,0.000000,1,-1.000000,1,COMPLETED_SUCCESSFULLY,148.141928,0.000010,148.141938,148.141928,148.141938,14814193.800201,5,-1.000000,""
python3action_video_processing_job44_4,w0,python3action_video_processing_reduced_0.97,0.997085,1,2000.000000,1,COMPLETED_SUCCESSFULLY,148.141958,0.000000,148.141958,147.144873,147.144873,3011750996398.836426,5,-1.000000,""
36_updated,w0,python3action_linpack_5000_nova,0.997085,1,2000.000000,1,COMPLETED_SUCCESSFULLY,113.542113,34.600010,148.142123,112.545028,147.145038,4.252746,28,-1.000000,""
36,w0,python3action_linpack_5000,0.000000,1,-1.000000,1,COMPLETED_SUCCESSFULLY,148.142138,0.000010,148.142148,148.142138,148.142148,14814214.800201,28,-1.000000,""
python3action_image_processing_job64_16,w0,python3action_image_processing,0.997085,1,2000.000000,1,COMPLETED_SUCCESSFULLY,138.167303,12.398880,150.566183,137.170218,149.569098,12.063114,20,-1.000000,""
python3action_floatoperation_job56_21,w0,python3action_floatoperation,0.997085,1,2000.000000,1,COMPLETED_SUCCESSFULLY,148.142168,2.439945,150.582113,147.145083,149.585028,61.306714,28,-1.000000,""
22_updated,w0,python3action_modeltraining_reviews50mb_nova,0.997085,1,2000.000000,1,COMPLETED_SUCCESSFULLY,111.101912,42.399990,153.501903,110.104827,152.504818,3.596813,4,-1.000000,""
22,w0,python3action_modeltraining_reviews50mb,0.000000,1,-1.000000,1,COMPLETED_SUCCESSFULLY,153.501918,0.000010,153.501928,153.501918,153.501928,15350192.800201,4,-1.000000,""
python3action_floatoperation_job41_3,w0,python3action_floatoperation,0.997085,1,2000.000000,1,COMPLETED_SUCCESSFULLY,153.501948,2.439945,155.941893,152.504863,154.944808,63.503394,4,-1.000000,""
python3action_facedetection_job24_5,w0,python3action_facedetection,0.997085,1,2000.000000,1,COMPLETED_SUCCESSFULLY,138.842156,30.499683,169.341839,137.845071,168.344754,5.519558,6,-1.000000,""
python3action_facedetection_job31_19,w0,python3action_facedetection,0.997085,1,2000.000000,1,COMPLETED_SUCCESSFULLY,142.737428,30.499683,173.237111,141.740343,172.240026,5.647273,26,-1.000000,""
34_updated,w0,python3action_chameleon_2000_troll,0.997085,1,2000.000000,1,COMPLETED_SUCCESSFULLY,135.370339,39.500010,174.870349,134.373254,173.873264,4.401854,19,-1.000000,""
34,w0,python3action_chameleon_2000,0.000000,1,-1.000000,1,COMPLETED_SUCCESSFULLY,174.870364,0.000010,174.870374,174.870364,174.870374,17487037.400201,19,-1.000000,""
25_updated,w0,python3action_linpack_5000_nova,0.997085,1,2000.000000,1,COMPLETED_SUCCESSFULLY,140.741874,34.600010,175.341884,139.744789,174.344799,5.038866,7,-1.000000,""
25,w0,python3action_linpack_5000,0.000000,1,-1.000000,1,COMPLETED_SUCCESSFULLY,175.341899,0.000010,175.341909,175.341899,175.341909,17534190.900201,7,-1.000000,""
python3action_image_processing_job16_7,w0,python3action_image_processing,0.997085,1,2000.000000,1,COMPLETED_SUCCESSFULLY,112.763177,72.012455,184.775633,111.766092,183.778548,2.552038,8,-1.000000,""
3_updated,w0,python3action_facedetection_SampleVideo_30mb_nova,0.997085,1,2000.000000,1,COMPLETED_SUCCESSFULLY,31.501813,160.399990,191.901803,30.504728,190.904718,1.190179,3,-1.000000,""
3,w0,python3action_facedetection_SampleVideo_30mb,0.000000,1,-1.000000,1,COMPLETED_SUCCESSFULLY,191.901818,0.000010,191.901828,191.901818,191.901828,19190182.800201,3,-1.000000,""
33_updated,w0,python3action_floatoperation_200000000_nova,0.997085,1,2000.000000,1,COMPLETED_SUCCESSFULLY,69.642410,135.399990,205.042400,68.645325,204.045315,1.506982,27,-1.000000,""
33,w0,python3action_floatoperation_200000000,0.000000,1,-1.000000,1,COMPLETED_SUCCESSFULLY,205.042415,0.000010,205.042425,205.042415,205.042425,20504242.523907,27,-1.000000,""
0_updated,w0,python3action_facedetection_SampleVideo_50mb_taurus,0.997085,1,2000.000000,1,COMPLETED_SUCCESSFULLY,73.014690,134.600046,207.614736,72.017605,206.617651,1.535049,10,-1.000000,""
0,w0,python3action_facedetection_SampleVideo_50mb,0.000000,1,-1.000000,1,COMPLETED_SUCCESSFULLY,207.614751,0.000010,207.614761,207.614751,207.614761,20761476.146367,10,-1.000000,""
27_updated,w0,python3action_facedetection_SampleVideo_50mb_taurus,0.997085,1,2000.000000,1,COMPLETED_SUCCESSFULLY,73.014735,134.600046,207.614781,72.017650,206.617696,1.535049,13,-1.000000,""
29_updated,w0,python3action_facedetection_SampleVideo_50mb_taurus,0.997085,1,2000.000000,1,COMPLETED_SUCCESSFULLY,73.014765,134.600046,207.614811,72.017680,206.617726,1.535049,14,-1.000000,""
27,w0,python3action_facedetection_SampleVideo_50mb,0.000000,1,-1.000000,1,COMPLETED_SUCCESSFULLY,207.614811,0.000010,207.614821,207.614811,207.614821,20761482.147171,13,-1.000000,""
30_updated,w0,python3action_facedetection_SampleVideo_50mb_taurus,0.997085,1,2000.000000,1,COMPLETED_SUCCESSFULLY,73.014780,134.600046,207.614826,72.017695,206.617741,1.535050,15,-1.000000,""
29,w0,python3action_facedetection_SampleVideo_50mb,0.000000,1,-1.000000,1,COMPLETED_SUCCESSFULLY,207.614841,0.000010,207.614851,207.614841,207.614851,20761485.147572,14,-1.000000,""
python3action_image_processing_job43_11,w0,python3action_image_processing_reduced_0.86,0.997085,1,2000.000000,1,COMPLETED_SUCCESSFULLY,207.614856,0.000000,207.614856,206.617771,206.617771,12798796746194.169922,13,-1.000000,""
30,w0,python3action_facedetection_SampleVideo_50mb,0.000000,1,-1.000000,1,COMPLETED_SUCCESSFULLY,207.614871,0.000010,207.614881,207.614871,207.614881,20761488.147974,15,-1.000000,""
python3action_image_processing_job45_12,w0,python3action_image_processing_reduced_0.86,0.997085,1,2000.000000,1,COMPLETED_SUCCESSFULLY,207.614901,0.000000,207.614901,206.617816,206.617816,12798799534061.593750,14,-1.000000,""
python3action_image_processing_job46_13,w0,python3action_image_processing_reduced_0.86,0.997085,1,2000.000000,1,COMPLETED_SUCCESSFULLY,207.614931,0.000000,207.614931,206.617846,206.617846,12798801392639.875000,15,-1.000000,""
49_updated,w0,python3action_linpack_5000_nova,0.997085,1,2000.000000,1,COMPLETED_SUCCESSFULLY,175.341929,34.600010,209.941939,174.344844,208.944854,6.038867,7,-1.000000,""
49,w0,python3action_linpack_5000,0.000000,1,-1.000000,1,COMPLETED_SUCCESSFULLY,209.941954,0.000010,209.941964,209.941954,209.941964,20994196.400201,7,-1.000000,""
python3action_floatoperation_job73_6,w0,python3action_floatoperation,0.997085,1,2000.000000,1,COMPLETED_SUCCESSFULLY,209.941984,2.439945,212.381929,208.944899,211.384844,86.635075,7,-1.000000,""
64_updated,w0,python3action_imageprocessing_SampleImage_60mb_troll,0.997085,1,2000.000000,1,COMPLETED_SUCCESSFULLY,150.566198,62.000000,212.566198,149.569113,211.569113,3.412405,20,-1.000000,""
64,w0,python3action_imageprocessing_SampleImage_60mb,0.000000,1,-1.000000,1,COMPLETED_SUCCESSFULLY,212.566213,0.000010,212.566223,212.566213,212.566223,21256622.309582,20,-1.000000,""
56_updated,w0,python3action_floatoperation_100000000_nova,0.997085,1,2000.000000,1,COMPLETED_SUCCESSFULLY,150.582128,66.200020,216.782148,149.585043,215.785063,3.259592,28,-1.000000,""
56,w0,python3action_floatoperation_100000000,0.000000,1,-1.000000,1,COMPLETED_SUCCESSFULLY,216.782163,0.000010,216.782173,216.782163,216.782173,21678217.300201,28,-1.000000,""
python3action_facedetection_job82_21,w0,python3action_facedetection_reduced_0.91,0.997085,1,2000.000000,1,COMPLETED_SUCCESSFULLY,216.782193,0.000000,216.782193,215.785108,215.785108,48982345363309.070312,28,-1.000000,""
17_updated,w0,python3action_linpack_6000_orion,0.997085,1,2000.000000,1,COMPLETED_SUCCESSFULLY,112.763222,106.000000,218.763222,111.766137,217.766137,2.054398,9,-1.000000,""
17,w0,python3action_linpack_6000,0.000000,1,-1.000000,1,COMPLETED_SUCCESSFULLY,218.763237,0.000010,218.763247,218.763237,218.763247,21876324.725881,9,-1.000000,""
41_updated,w0,python3action_floatoperation_100000000_nova,0.997085,1,2000.000000,1,COMPLETED_SUCCESSFULLY,155.941908,66.200020,222.141928,154.944823,221.144843,3.340556,4,-1.000000,""
41,w0,python3action_floatoperation_100000000,0.000000,1,-1.000000,1,COMPLETED_SUCCESSFULLY,222.141943,0.000010,222.141953,222.141943,222.141953,22214195.300201,4,-1.000000,""
26_updated,w0,python3action_videoprocessing_SampleVideo_50mb_taurus,0.997085,1,2000.000000,1,COMPLETED_SUCCESSFULLY,73.014720,154.250029,227.264749,72.017635,226.267664,1.466889,11,-1.000000,""
26,w0,python3action_videoprocessing_SampleVideo_50mb,0.000000,1,-1.000000,1,COMPLETED_SUCCESSFULLY,227.264764,0.000010,227.264774,227.264764,227.264774,22726477.416865,11,-1.000000,""
python3action_facedetection_job55_20,w0,python3action_facedetection,0.997085,1,2000.000000,1,COMPLETED_SUCCESSFULLY,205.042445,30.499683,235.542128,204.045360,234.545043,7.690081,27,-1.000000,""
43_updated,w0,python3action_imageprocessing_SampleImage_40mb_taurus,0.997085,1,2000.000000,1,COMPLETED_SUCCESSFULLY,207.614916,32.600046,240.214963,206.617831,239.217878,7.337961,13,-1.000000,""
43,w0,python3action_imageprocessing_SampleImage_40mb,0.000000,1,-1.000000,1,COMPLETED_SUCCESSFULLY,240.214978,0.000010,240.214988,240.214978,240.214988,24021498.800201,13,-1.000000,""
45_updated,w0,python3action_imageprocessing_SampleImage_40mb_taurus,0.997085,1,2000.000000,1,COMPLETED_SUCCESSFULLY,207.614961,32.600046,240.215008,206.617876,239.217923,7.337963,14,-1.000000,""
46_updated,w0,python3action_imageprocessing_SampleImage_40mb_taurus,0.997085,1,2000.000000,1,COMPLETED_SUCCESSFULLY,207.614976,32.600046,240.215023,206.617891,239.217938,7.337963,15,-1.000000,""
45,w0,python3action_imageprocessing_SampleImage_40mb,0.000000,1,-1.000000,1,COMPLETED_SUCCESSFULLY,240.215038,0.000010,240.215048,240.215038,240.215048,24021504.800201,14,-1.000000,""
46,w0,python3action_imageprocessing_SampleImage_40mb,0.000000,1,-1.000000,1,COMPLETED_SUCCESSFULLY,240.215053,0.000010,240.215063,240.215053,240.215063,24021506.300402,15,-1.000000,""
python3action_video_processing_job63_12,w0,python3action_video_processing_reduced_1.83,0.997085,1,2000.000000,1,COMPLETED_SUCCESSFULLY,240.215083,0.000000,240.215083,239.217998,239.217998,2074109179956.660889,14,-1.000000,""
37_updated,w0,python3action_pyaes_4000_nova,0.997085,1,2000.000000,1,COMPLETED_SUCCESSFULLY,113.237186,139.600010,252.837196,112.240101,251.840111,1.804012,29,-1.000000,""
37,w0,python3action_pyaes_4000,0.000000,1,-1.000000,1,COMPLETED_SUCCESSFULLY,252.837211,0.000010,252.837221,252.837211,252.837221,25283722.100201,29,-1.000000,""
44_updated,w0,python3action_videoprocessing_SampleVideo_30mb_nova,0.997085,1,2000.000000,1,COMPLETED_SUCCESSFULLY,148.141988,106.799980,254.941968,147.144903,253.944883,2.377762,5,-1.000000,""
44,w0,python3action_videoprocessing_SampleVideo_30mb,0.000000,1,-1.000000,1,COMPLETED_SUCCESSFULLY,254.941983,0.000010,254.941993,254.941983,254.941993,25494199.347412,5,-1.000000,""
python3action_floatoperation_job57_22,w0,python3action_floatoperation,0.997085,1,2000.000000,1,COMPLETED_SUCCESSFULLY,252.837241,2.439945,255.277186,251.840156,254.280101,104.215493,29,-1.000000,""
50_updated,w0,python3action_videoprocessing_SampleVideo_50mb_taurus,0.997085,1,2000.000000,1,COMPLETED_SUCCESSFULLY,105.614916,154.250029,259.864945,104.617831,258.867860,1.678235,16,-1.000000,""
50,w0,python3action_videoprocessing_SampleVideo_50mb,0.000000,1,-1.000000,1,COMPLETED_SUCCESSFULLY,259.864960,0.000010,259.864970,259.864960,259.864970,25986497.031951,16,-1.000000,""
python3action_facedetection_job69_14,w0,python3action_facedetection_reduced_1.83,0.997085,1,2000.000000,1,COMPLETED_SUCCESSFULLY,259.864990,0.000000,259.864990,258.867905,258.867905,24885531974753.476562,16,-1.000000,""
65_updated,w0,python3action_modeltraining_reviews50mb_nova,0.997085,1,2000.000000,1,COMPLETED_SUCCESSFULLY,222.141973,42.399990,264.541963,221.144888,263.544878,6.215683,4,-1.000000,""
65,w0,python3action_modeltraining_reviews50mb,0.000000,1,-1.000000,1,COMPLETED_SUCCESSFULLY,264.541978,0.000010,264.541988,264.541978,264.541988,26454198.823907,4,-1.000000,""
62_updated,w0,python3action_chameleon_3000_troll,0.997085,1,2000.000000,1,COMPLETED_SUCCESSFULLY,174.870394,94.000000,268.870394,173.873309,267.873309,2.849716,19,-1.000000,""
62,w0,python3action_chameleon_3000,0.000000,1,-1.000000,1,COMPLETED_SUCCESSFULLY,268.870409,0.000010,268.870419,268.870409,268.870419,26887041.900803,19,-1.000000,""
81_updated,w0,python3action_pyaes_3000_troll,0.997085,1,2000.000000,1,COMPLETED_SUCCESSFULLY,212.566243,57.166677,269.732920,211.569158,268.735835,4.700918,20,-1.000000,""
81,w0,python3action_pyaes_3000,0.000000,1,-1.000000,1,COMPLETED_SUCCESSFULLY,269.732935,0.000010,269.732945,269.732935,269.732945,26973294.500201,20,-1.000000,""
16_updated,w0,python3action_imageprocessing_SampleImage_60mb_orion,0.997085,1,2000.000000,1,COMPLETED_SUCCESSFULLY,184.775648,88.000000,272.775648,183.778563,271.778563,3.088393,8,-1.000000,""
16,w0,python3action_imageprocessing_SampleImage_60mb,0.000000,1,-1.000000,1,COMPLETED_SUCCESSFULLY,272.775663,0.000010,272.775673,272.775663,272.775673,27277567.300402,8,-1.000000,""
28_updated,w0,python3action_floatoperation_200000000_nova,0.997085,1,2000.000000,1,COMPLETED_SUCCESSFULLY,145.177343,135.399990,280.577334,144.180258,279.580249,2.064847,25,-1.000000,""
28,w0,python3action_floatoperation_200000000,0.000000,1,-1.000000,1,COMPLETED_SUCCESSFULLY,280.577349,0.000010,280.577359,280.577349,280.577359,28057735.900201,25,-1.000000,""
19_updated,w0,python3action_pyaes_4000_nova,0.997085,1,2000.000000,1,COMPLETED_SUCCESSFULLY,142.737128,139.600010,282.337138,141.740043,281.340053,2.015330,2,-1.000000,""
19,w0,python3action_pyaes_4000,0.000000,1,-1.000000,1,COMPLETED_SUCCESSFULLY,282.337153,0.000010,282.337163,282.337153,282.337163,28233716.300201,2,-1.000000,""
python3action_facedetection_job52_18,w0,python3action_facedetection,0.997085,1,2000.000000,1,COMPLETED_SUCCESSFULLY,280.577379,30.499683,311.077062,279.580294,310.079977,10.166662,25,-1.000000,""
python3action_modeltraining_job38_1,w0,python3action_modeltraining,0.997085,1,2000.000000,1,COMPLETED_SUCCESSFULLY,282.337183,30.499683,312.836866,281.340098,311.839781,10.224362,2,-1.000000,""
57_updated,w0,python3action_floatoperation_100000000_nova,0.997085,1,2000.000000,1,COMPLETED_SUCCESSFULLY,255.277201,66.200020,321.477221,254.280116,320.480136,4.841088,29,-1.000000,""
57,w0,python3action_floatoperation_100000000,0.000000,1,-1.000000,1,COMPLETED_SUCCESSFULLY,321.477236,0.000010,321.477246,321.477236,321.477246,32147724.600201,29,-1.000000,""
47_updated,w0,python3action_linpack_6000_orion,0.997085,1,2000.000000,1,COMPLETED_SUCCESSFULLY,218.763267,106.000000,324.763267,217.766182,323.766182,3.054398,9,-1.000000,""
47,w0,python3action_linpack_6000,0.000000,1,-1.000000,1,COMPLETED_SUCCESSFULLY,324.763282,0.000010,324.763292,324.763282,324.763292,32476329.226484,9,-1.000000,""
24_updated,w0,python3action_facedetection_SampleVideo_30mb_nova,0.997085,1,2000.000000,1,COMPLETED_SUCCESSFULLY,169.341854,160.399990,329.741844,168.344769,328.744759,2.049531,6,-1.000000,""
24,w0,python3action_facedetection_SampleVideo_30mb,0.000000,1,-1.000000,1,COMPLETED_SUCCESSFULLY,329.741859,0.000010,329.741869,329.741859,329.741869,32974186.923505,6,-1.000000,""
python3action_pyaes_job48_5,w0,python3action_pyaes,0.997085,1,2000.000000,1,COMPLETED_SUCCESSFULLY,329.741889,2.134958,331.876847,328.744804,330.879762,154.981843,6,-1.000000,""
31_updated,w0,python3action_facedetection_SampleVideo_30mb_nova,0.997085,1,2000.000000,1,COMPLETED_SUCCESSFULLY,173.237126,160.399990,333.637116,172.240041,332.640031,2.073816,26,-1.000000,""
31,w0,python3action_facedetection_SampleVideo_30mb,0.000000,1,-1.000000,1,COMPLETED_SUCCESSFULLY,333.637131,0.000010,333.637141,333.637131,333.637141,33363714.123505,26,-1.000000,""
67_updated,w0,python3action_modeltraining_reviews100mb_nova,0.997085,1,2000.000000,1,COMPLETED_SUCCESSFULLY,254.942013,79.600010,334.542023,253.944928,333.544938,4.190263,5,-1.000000,""
67,w0,python3action_modeltraining_reviews100mb,0.000000,1,-1.000000,1,COMPLETED_SUCCESSFULLY,334.542038,0.000010,334.542048,334.542038,334.542048,33454204.824911,5,-1.000000,""
python3action_facedetection_job90_4,w0,python3action_facedetection_reduced_1.83,0.997085,1,2000.000000,1,COMPLETED_SUCCESSFULLY,334.542068,0.000000,334.542068,333.544983,333.544983,76205005189229.312500,5,-1.000000,""
39_updated,w0,python3action_facedetection_SampleVideo_50mb_taurus,0.997085,1,2000.000000,1,COMPLETED_SUCCESSFULLY,207.614781,134.600046,342.214828,206.617696,341.217743,2.535049,10,-1.000000,""
39,w0,python3action_facedetection_SampleVideo_50mb,0.000000,1,-1.000000,1,COMPLETED_SUCCESSFULLY,342.214843,0.000010,342.214853,342.214843,342.214853,34221485.300201,10,-1.000000,""
python3action_video_processing_job51_9,w0,python3action_video_processing_reduced_0.91,0.997085,1,2000.000000,1,COMPLETED_SUCCESSFULLY,342.214873,0.000000,342.214873,341.217788,341.217788,2958485366322.378418,10,-1.000000,""
73_updated,w0,python3action_floatoperation_200000000_nova,0.997085,1,2000.000000,1,COMPLETED_SUCCESSFULLY,212.381944,135.399990,347.781935,211.384859,346.784850,2.561188,7,-1.000000,""
73,w0,python3action_floatoperation_200000000,0.000000,1,-1.000000,1,COMPLETED_SUCCESSFULLY,347.781950,0.000010,347.781960,347.781950,347.781960,34778196.000201,7,-1.000000,""
21_updated,w0,python3action_facedetection_SampleVideo_30mb_nova,0.997085,1,2000.000000,1,COMPLETED_SUCCESSFULLY,191.901848,160.399990,352.301838,190.904763,351.304753,2.190179,3,-1.000000,""
21,w0,python3action_facedetection_SampleVideo_30mb,0.000000,1,-1.000000,1,COMPLETED_SUCCESSFULLY,352.301853,0.000010,352.301863,352.301853,352.301863,35230186.323907,3,-1.000000,""
python3action_floatoperation_job40_2,w0,python3action_floatoperation,0.997085,1,2000.000000,1,COMPLETED_SUCCESSFULLY,352.301883,2.439945,354.741829,351.304798,353.744744,144.980604,3,-1.000000,""
38_updated,w0,python3action_modeltraining_reviews50mb_nova,0.997085,1,2000.000000,1,COMPLETED_SUCCESSFULLY,312.836881,42.399990,355.236871,311.839796,354.239786,8.354714,2,-1.000000,""
38,w0,python3action_modeltraining_reviews50mb,0.000000,1,-1.000000,1,COMPLETED_SUCCESSFULLY,355.236886,0.000010,355.236896,355.236886,355.236896,35523689.623505,2,-1.000000,""
python3action_floatoperation_job58_1,w0,python3action_floatoperation,0.997085,1,2000.000000,1,COMPLETED_SUCCESSFULLY,355.236916,2.439945,357.676862,354.239831,356.679777,146.183514,2,-1.000000,""
78_updated,w0,python3action_chameleon_3000_troll,0.997085,1,2000.000000,1,COMPLETED_SUCCESSFULLY,268.870439,94.000000,362.870439,267.873354,361.873354,3.849717,19,-1.000000,""
78,w0,python3action_chameleon_3000,0.000000,1,-1.000000,1,COMPLETED_SUCCESSFULLY,362.870454,0.000010,362.870464,362.870454,362.870464,36287046.401406,19,-1.000000,""
python3action_pyaes_job84_15,w0,python3action_pyaes_reduced_0.85,0.997085,1,2000.000000,1,COMPLETED_SUCCESSFULLY,362.870484,0.130187,363.000671,361.873399,362.003586,2780.642064,19,-1.000000,""
98_updated,w0,python3action_chameleon_3000_troll,0.997085,1,2000.000000,1,COMPLETED_SUCCESSFULLY,269.732965,94.000000,363.732965,268.735880,362.735880,3.858892,20,-1.000000,""
98,w0,python3action_chameleon_3000,0.000000,1,-1.000000,1,COMPLETED_SUCCESSFULLY,363.732980,0.000010,363.732990,363.732980,363.732990,36373299.000804,20,-1.000000,""
59_updated,w0,python3action_facedetection_SampleVideo_50mb_taurus,0.997085,1,2000.000000,1,COMPLETED_SUCCESSFULLY,240.215008,134.600046,374.815054,239.217923,373.817969,2.777250,13,-1.000000,""
59,w0,python3action_facedetection_SampleVideo_50mb,0.000000,1,-1.000000,1,COMPLETED_SUCCESSFULLY,374.815069,0.000010,374.815079,374.815069,374.815079,37481507.900201,13,-1.000000,""
66_updated,w0,python3action_facedetection_SampleVideo_50mb_taurus,0.997085,1,2000.000000,1,COMPLETED_SUCCESSFULLY,240.215098,134.600046,374.815144,239.218013,373.818059,2.777251,15,-1.000000,""
66,w0,python3action_facedetection_SampleVideo_50mb,0.000000,1,-1.000000,1,COMPLETED_SUCCESSFULLY,374.815159,0.000010,374.815169,374.815159,374.815169,37481516.914283,15,-1.000000,""
82_updated,w0,python3action_facedetection_SampleVideo_30mb_nova,0.997085,1,2000.000000,1,COMPLETED_SUCCESSFULLY,216.782223,160.399990,377.182213,215.785138,376.185128,2.345294,28,-1.000000,""
82,w0,python3action_facedetection_SampleVideo_30mb,0.000000,1,-1.000000,1,COMPLETED_SUCCESSFULLY,377.182228,0.000010,377.182238,377.182228,377.182238,37718223.824309,28,-1.000000,""
32_updated,w0,python3action_linpack_6000_orion,0.997085,1,2000.000000,1,COMPLETED_SUCCESSFULLY,272.775693,106.000000,378.775693,271.778608,377.778608,3.563949,8,-1.000000,""
32,w0,python3action_linpack_6000,0.000000,1,-1.000000,1,COMPLETED_SUCCESSFULLY,378.775708,0.000010,378.775718,378.775708,378.775718,37877571.801004,8,-1.000000,""
42_updated,w0,python3action_videoprocessing_SampleVideo_50mb_taurus,0.997085,1,2000.000000,1,COMPLETED_SUCCESSFULLY,227.264794,154.250029,381.514823,226.267709,380.517738,2.466889,11,-1.000000,""
42,w0,python3action_videoprocessing_SampleVideo_50mb,0.000000,1,-1.000000,1,COMPLETED_SUCCESSFULLY,381.514838,0.000010,381.514848,381.514838,381.514848,38151484.800641,11,-1.000000,""
69_updated,w0,python3action_facedetection_SampleVideo_50mb_taurus,0.997085,1,2000.000000,1,COMPLETED_SUCCESSFULLY,259.865020,134.600046,394.465066,258.867935,393.467981,2.923238,16,-1.000000,""
69,w0,python3action_facedetection_SampleVideo_50mb,0.000000,1,-1.000000,1,COMPLETED_SUCCESSFULLY,394.465081,0.000010,394.465091,394.465081,394.465091,39446509.146033,16,-1.000000,""
63_updated,w0,python3action_videoprocessing_SampleVideo_50mb_taurus,0.997085,1,2000.000000,1,COMPLETED_SUCCESSFULLY,240.215128,154.250029,394.465157,239.218043,393.468072,2.550846,14,-1.000000,""
63,w0,python3action_videoprocessing_SampleVideo_50mb,0.000000,1,-1.000000,1,COMPLETED_SUCCESSFULLY,394.465172,0.000010,394.465182,394.465172,394.465182,39446518.200201,14,-1.000000,""
55_updated,w0,python3action_facedetection_SampleVideo_30mb_nova,0.997085,1,2000.000000,1,COMPLETED_SUCCESSFULLY,235.542143,160.399990,395.942133,234.545058,394.945048,2.462251,27,-1.000000,""
55,w0,python3action_facedetection_SampleVideo_30mb,0.000000,1,-1.000000,1,COMPLETED_SUCCESSFULLY,395.942148,0.000010,395.942158,395.942148,395.942158,39594215.823506,27,-1.000000,""
python3action_image_processing_job89_8,w0,python3action_image_processing,0.997085,1,2000.000000,1,COMPLETED_SUCCESSFULLY,324.763312,72.012455,396.775768,323.766227,395.778683,5.495975,9,-1.000000,""
python3action_linpack_job79_20,w0,python3action_linpack,0.997085,1,2000.000000,1,COMPLETED_SUCCESSFULLY,395.942178,2.439945,398.382124,394.945093,397.385039,162.866372,27,-1.000000,""
87_updated,w0,python3action_floatoperation_200000000_nova,0.997085,1,2000.000000,1,COMPLETED_SUCCESSFULLY,264.542008,135.399990,399.941998,263.544923,398.944913,2.946418,4,-1.000000,""
87,w0,python3action_floatoperation_200000000,0.000000,1,-1.000000,1,COMPLETED_SUCCESSFULLY,399.942013,0.000010,399.942023,399.942013,399.942023,39994202.347613,4,-1.000000,""
83_updated,w0,python3action_modeltraining_reviews100mb_nova,0.997085,1,2000.000000,1,COMPLETED_SUCCESSFULLY,321.477266,79.600010,401.077276,320.480181,400.080191,5.026132,29,-1.000000,""
83,w0,python3action_modeltraining_reviews100mb,0.000000,1,-1.000000,1,COMPLETED_SUCCESSFULLY,401.077291,0.000010,401.077301,401.077291,401.077301,40107730.100201,29,-1.000000,""
121_updated,w0,python3action_chameleon_2000_troll,0.997085,1,2000.000000,1,COMPLETED_SUCCESSFULLY,363.733010,39.500010,403.233020,362.735925,402.235935,10.183186,20,-1.000000,""
121,w0,python3action_chameleon_2000,0.000000,1,-1.000000,1,COMPLETED_SUCCESSFULLY,403.233035,0.000010,403.233045,403.233035,403.233045,40323304.500201,20,-1.000000,""
80_updated,w0,python3action_imageprocessing_SampleImage_40mb_taurus,0.997085,1,2000.000000,1,COMPLETED_SUCCESSFULLY,374.815189,32.600046,407.415235,373.818104,406.418150,12.466797,15,-1.000000,""
80,w0,python3action_imageprocessing_SampleImage_40mb,0.000000,1,-1.000000,1,COMPLETED_SUCCESSFULLY,407.415250,0.000010,407.415260,407.415250,407.415260,40741526.027964,15,-1.000000,""
99_updated,w0,python3action_modeltraining_reviews50mb_nova,0.997085,1,2000.000000,1,COMPLETED_SUCCESSFULLY,377.182258,42.399990,419.582248,376.185173,418.585163,9.872294,28,-1.000000,""
99,w0,python3action_modeltraining_reviews50mb,0.000000,1,-1.000000,1,COMPLETED_SUCCESSFULLY,419.582263,0.000010,419.582273,419.582263,419.582273,41958227.348015,28,-1.000000,""
84_updated,w0,python3action_pyaes_3000_troll,0.997085,1,2000.000000,1,COMPLETED_SUCCESSFULLY,363.000686,57.166677,420.167363,362.003601,419.170278,7.332423,19,-1.000000,""
84,w0,python3action_pyaes_3000,0.000000,1,-1.000000,1,COMPLETED_SUCCESSFULLY,420.167378,0.000010,420.167388,420.167378,420.167388,42016738.800201,19,-1.000000,""
40_updated,w0,python3action_floatoperation_100000000_nova,0.997085,1,2000.000000,1,COMPLETED_SUCCESSFULLY,354.741844,66.200020,420.941864,353.744759,419.944779,6.343575,3,-1.000000,""
40,w0,python3action_floatoperation_100000000,0.000000,1,-1.000000,1,COMPLETED_SUCCESSFULLY,420.941879,0.000010,420.941889,420.941879,420.941889,42094188.900201,3,-1.000000,""
python3action_modeltraining_job60_2,w0,python3action_modeltraining_reduced_0.94,0.997085,1,2000.000000,1,COMPLETED_SUCCESSFULLY,420.941909,1.794099,422.736008,419.944824,421.738923,235.070043,3,-1.000000,""
58_updated,w0,python3action_floatoperation_100000000_nova,0.997085,1,2000.000000,1,COMPLETED_SUCCESSFULLY,357.676877,66.200020,423.876897,356.679792,422.879812,6.387911,2,-1.000000,""
58,w0,python3action_floatoperation_100000000,0.000000,1,-1.000000,1,COMPLETED_SUCCESSFULLY,423.876912,0.000010,423.876922,423.876912,423.876922,42387692.200201,2,-1.000000,""
python3action_video_processing_job85_1,w0,python3action_video_processing_reduced_0.97,0.997085,1,2000.000000,1,COMPLETED_SUCCESSFULLY,423.876942,0.000000,423.876942,422.879857,422.879857,8660513526061.549805,2,-1.000000,""
76_updated,w0,python3action_imageprocessing_SampleImage_40mb_taurus,0.997085,1,2000.000000,1,COMPLETED_SUCCESSFULLY,394.465202,32.600046,427.065248,393.468117,426.068163,13.069557,14,-1.000000,""
76,w0,python3action_imageprocessing_SampleImage_40mb,0.000000,1,-1.000000,1,COMPLETED_SUCCESSFULLY,427.065263,0.000010,427.065273,427.065263,427.065273,42706527.313881,14,-1.000000,""
79_updated,w0,python3action_linpack_5000_nova,0.997085,1,2000.000000,1,COMPLETED_SUCCESSFULLY,398.382139,34.600010,432.982149,397.385054,431.985064,12.485114,27,-1.000000,""
79,w0,python3action_linpack_5000,0.000000,1,-1.000000,1,COMPLETED_SUCCESSFULLY,432.982164,0.000010,432.982174,432.982164,432.982174,43298217.400201,27,-1.000000,""
python3action_pyaes_job97_20,w0,python3action_pyaes_reduced_0.85,0.997085,1,2000.000000,1,COMPLETED_SUCCESSFULLY,432.982194,0.320244,433.302438,431.985109,432.305353,1349.926024,27,-1.000000,""
110_updated,w0,python3action_imageprocessing_SampleImage_40mb_taurus,0.997085,1,2000.000000,1,COMPLETED_SUCCESSFULLY,407.415280,32.600046,440.015326,406.418195,439.018241,13.466798,15,-1.000000,""
110,w0,python3action_imageprocessing_SampleImage_40mb,0.000000,1,-1.000000,1,COMPLETED_SUCCESSFULLY,440.015341,0.000010,440.015351,440.015341,440.015351,44001535.141644,15,-1.000000,""
python3action_video_processing_job123_13,w0,python3action_video_processing_reduced_1.83,0.997085,1,2000.000000,1,COMPLETED_SUCCESSFULLY,440.015371,0.000000,440.015371,439.018286,439.018286,3806452129921.874512,15,-1.000000,""
106_updated,w0,python3action_chameleon_2000_troll,0.997085,1,2000.000000,1,COMPLETED_SUCCESSFULLY,420.167408,39.500010,459.667418,419.170323,458.670333,11.611904,19,-1.000000,""
106,w0,python3action_chameleon_2000,0.000000,1,-1.000000,1,COMPLETED_SUCCESSFULLY,459.667433,0.000010,459.667443,459.667433,459.667443,45966744.300201,19,-1.000000,""
60_updated,w0,python3action_modeltraining_reviews50mb_nova,0.997085,1,2000.000000,1,COMPLETED_SUCCESSFULLY,422.736023,42.399990,465.136013,421.738938,464.138928,10.946675,3,-1.000000,""
60,w0,python3action_modeltraining_reviews50mb,0.000000,1,-1.000000,1,COMPLETED_SUCCESSFULLY,465.136028,0.000010,465.136038,465.136028,465.136038,46513603.823505,3,-1.000000,""
71_updated,w0,python3action_imageprocessing_SampleImage_60mb_orion,0.997085,1,2000.000000,1,COMPLETED_SUCCESSFULLY,378.775738,88.000000,466.775738,377.778653,465.778653,5.292939,8,-1.000000,""
71,w0,python3action_imageprocessing_SampleImage_60mb,0.000000,1,-1.000000,1,COMPLETED_SUCCESSFULLY,466.775753,0.000010,466.775763,466.775753,466.775763,46677576.301607,8,-1.000000,""
python3action_pyaes_job86_2,w0,python3action_pyaes,0.997085,1,2000.000000,1,COMPLETED_SUCCESSFULLY,465.136058,2.134958,467.271016,464.138973,466.273931,218.399556,3,-1.000000,""
48_updated,w0,python3action_pyaes_4000_nova,0.997085,1,2000.000000,1,COMPLETED_SUCCESSFULLY,331.876862,139.600010,471.476872,330.879777,470.479787,3.370199,6,-1.000000,""
48,w0,python3action_pyaes_4000,0.000000,1,-1.000000,1,COMPLETED_SUCCESSFULLY,471.476887,0.000010,471.476897,471.476887,471.476897,47147689.724973,6,-1.000000,""
52_updated,w0,python3action_facedetection_SampleVideo_30mb_nova,0.997085,1,2000.000000,1,COMPLETED_SUCCESSFULLY,311.077077,160.399990,471.477067,310.079992,470.479982,2.933167,25,-1.000000,""
52,w0,python3action_facedetection_SampleVideo_30mb,0.000000,1,-1.000000,1,COMPLETED_SUCCESSFULLY,471.477082,0.000010,471.477092,471.477082,471.477092,47147709.223506,25,-1.000000,""
python3action_modeltraining_job68_5,w0,python3action_modeltraining_reduced_0.94,0.997085,1,2000.000000,1,COMPLETED_SUCCESSFULLY,471.476917,1.794099,473.271016,470.479832,472.273931,263.237390,6,-1.000000,""
105_updated,w0,python3action_modeltraining_reviews100mb_nova,0.997085,1,2000.000000,1,COMPLETED_SUCCESSFULLY,399.942043,79.600010,479.542053,398.944958,478.544968,6.011871,4,-1.000000,""
105,w0,python3action_modeltraining_reviews100mb,0.000000,1,-1.000000,1,COMPLETED_SUCCESSFULLY,479.542068,0.000010,479.542078,479.542068,479.542078,47954207.825112,4,-1.000000,""
92_updated,w0,python3action_floatoperation_200000000_nova,0.997085,1,2000.000000,1,COMPLETED_SUCCESSFULLY,347.781980,135.399990,483.181970,346.784895,482.184885,3.561188,7,-1.000000,""
92,w0,python3action_floatoperation_200000000,0.000000,1,-1.000000,1,COMPLETED_SUCCESSFULLY,483.181985,0.000010,483.181995,483.181985,483.181995,48318199.523907,7,-1.000000,""
89_updated,w0,python3action_imageprocessing_SampleImage_60mb_orion,0.997085,1,2000.000000,1,COMPLETED_SUCCESSFULLY,396.775783,88.000000,484.775783,395.778698,483.778698,5.497485,9,-1.000000,""
89,w0,python3action_imageprocessing_SampleImage_60mb,0.000000,1,-1.000000,1,COMPLETED_SUCCESSFULLY,484.775798,0.000010,484.775808,484.775798,484.775808,48477580.800402,9,-1.000000,""
54_updated,w0,python3action_facedetection_SampleVideo_30mb_nova,0.997085,1,2000.000000,1,COMPLETED_SUCCESSFULLY,333.637161,160.399990,494.037151,332.640076,493.040066,3.073816,26,-1.000000,""
54,w0,python3action_facedetection_SampleVideo_30mb,0.000000,1,-1.000000,1,COMPLETED_SUCCESSFULLY,494.037166,0.000010,494.037176,494.037166,494.037176,49403717.647212,26,-1.000000,""
90_updated,w0,python3action_facedetection_SampleVideo_30mb_nova,0.997085,1,2000.000000,1,COMPLETED_SUCCESSFULLY,334.542098,160.399990,494.942088,333.545013,493.945003,3.079458,5,-1.000000,""
90,w0,python3action_facedetection_SampleVideo_30mb,0.000000,1,-1.000000,1,COMPLETED_SUCCESSFULLY,494.942103,0.000010,494.942113,494.942103,494.942113,49494211.349019,5,-1.000000,""
python3action_pyaes_job109_4,w0,python3action_pyaes_reduced_0.85,0.997085,1,2000.000000,1,COMPLETED_SUCCESSFULLY,494.942133,0.320244,495.262377,493.945048,494.265292,1543.403468,5,-1.000000,""
51_updated,w0,python3action_videoprocessing_SampleVideo_50mb_taurus,0.997085,1,2000.000000,1,COMPLETED_SUCCESSFULLY,342.214903,154.250029,496.464932,341.217818,495.467847,3.212109,10,-1.000000,""
51,w0,python3action_videoprocessing_SampleVideo_50mb,0.000000,1,-1.000000,1,COMPLETED_SUCCESSFULLY,496.464947,0.000010,496.464957,496.464947,496.464957,49646495.700201,10,-1.000000,""
127_updated,w0,python3action_chameleon_3000_troll,0.997085,1,2000.000000,1,COMPLETED_SUCCESSFULLY,403.233065,94.000000,497.233065,402.235980,496.235980,5.279106,20,-1.000000,""
127,w0,python3action_chameleon_3000,0.000000,1,-1.000000,1,COMPLETED_SUCCESSFULLY,497.233080,0.000010,497.233090,497.233080,497.233090,49723309.000804,20,-1.000000,""
124_updated,w0,python3action_modeltraining_reviews100mb_nova,0.997085,1,2000.000000,1,COMPLETED_SUCCESSFULLY,419.582293,79.600010,499.182303,418.585208,498.185218,6.258608,28,-1.000000,""
124,w0,python3action_modeltraining_reviews100mb,0.000000,1,-1.000000,1,COMPLETED_SUCCESSFULLY,499.182318,0.000010,499.182328,499.182318,499.182328,49918232.825514,28,-1.000000,""
75_updated,w0,python3action_facedetection_SampleVideo_50mb_taurus,0.997085,1,2000.000000,1,COMPLETED_SUCCESSFULLY,374.815099,134.600046,509.415145,373.818014,508.418060,3.777250,13,-1.000000,""
75,w0,python3action_facedetection_SampleVideo_50mb,0.000000,1,-1.000000,1,COMPLETED_SUCCESSFULLY,509.415160,0.000010,509.415170,509.415160,509.415170,50941517.013882,13,-1.000000,""
85_updated,w0,python3action_videoprocessing_SampleVideo_30mb_nova,0.997085,1,2000.000000,1,COMPLETED_SUCCESSFULLY,423.876972,106.799980,530.676952,422.879887,529.679867,4.959550,2,-1.000000,""
85,w0,python3action_videoprocessing_SampleVideo_30mb,0.000000,1,-1.000000,1,COMPLETED_SUCCESSFULLY,530.676967,0.000010,530.676977,530.676967,530.676977,53067697.747412,2,-1.000000,""
53_updated,w0,python3action_videoprocessing_SampleVideo_50mb_taurus,0.997085,1,2000.000000,1,COMPLETED_SUCCESSFULLY,381.514868,154.250029,535.764897,380.517783,534.767812,3.466890,11,-1.000000,""
53,w0,python3action_videoprocessing_SampleVideo_50mb,0.000000,1,-1.000000,1,COMPLETED_SUCCESSFULLY,535.764912,0.000010,535.764922,535.764912,535.764922,53576492.200201,11,-1.000000,""
python3action_facedetection_job72_10,w0,python3action_facedetection_reduced_0.91,0.997085,1,2000.000000,1,COMPLETED_SUCCESSFULLY,535.764942,0.000000,535.764942,534.767857,534.767857,51690855115515.437500,11,-1.000000,""
143_updated,w0,python3action_chameleon_2000_troll,0.997085,1,2000.000000,1,COMPLETED_SUCCESSFULLY,497.233110,39.500010,536.733120,496.236025,535.736035,13.562934,20,-1.000000,""
143,w0,python3action_chameleon_2000,0.000000,1,-1.000000,1,COMPLETED_SUCCESSFULLY,536.733135,0.000010,536.733145,536.733135,536.733145,53673314.500201,20,-1.000000,""
74_updated,w0,python3action_floatoperation_100000000_nova,0.997085,1,2000.000000,1,COMPLETED_SUCCESSFULLY,471.477112,66.200020,537.677132,470.480027,536.680047,8.106947,25,-1.000000,""
74,w0,python3action_floatoperation_100000000,0.000000,1,-1.000000,1,COMPLETED_SUCCESSFULLY,537.677147,0.000010,537.677157,537.677147,537.677157,53767715.700201,25,-1.000000,""
101_updated,w0,python3action_pyaes_4000_nova,0.997085,1,2000.000000,1,COMPLETED_SUCCESSFULLY,401.077321,139.600010,540.677331,400.080236,539.680246,3.865904,29,-1.000000,""
101,w0,python3action_pyaes_4000,0.000000,1,-1.000000,1,COMPLETED_SUCCESSFULLY,540.677346,0.000010,540.677356,540.677346,540.677356,54067735.600201,29,-1.000000,""
python3action_linpack_job125_22,w0,python3action_linpack_reduced_0.85,0.997085,1,2000.000000,1,COMPLETED_SUCCESSFULLY,540.677376,0.365992,541.043368,539.680291,540.046283,1475.569375,29,-1.000000,""
88_updated,w0,python3action_videoprocessing_SampleVideo_50mb_taurus,0.997085,1,2000.000000,1,COMPLETED_SUCCESSFULLY,394.465111,154.250029,548.715140,393.468026,547.718055,3.550846,16,-1.000000,""
88,w0,python3action_videoprocessing_SampleVideo_50mb,0.000000,1,-1.000000,1,COMPLETED_SUCCESSFULLY,548.715155,0.000010,548.715165,548.715155,548.715165,54871516.529810,16,-1.000000,""
68_updated,w0,python3action_modeltraining_reviews100mb_nova,0.997085,1,2000.000000,1,COMPLETED_SUCCESSFULLY,473.271031,79.600010,552.871041,472.273946,551.873956,6.933089,6,-1.000000,""
68,w0,python3action_modeltraining_reviews100mb,0.000000,1,-1.000000,1,COMPLETED_SUCCESSFULLY,552.871056,0.000010,552.871066,552.871056,552.871066,55287106.600201,6,-1.000000,""
python3action_video_processing_job91_5,w0,python3action_video_processing_reduced_1.89,0.997085,1,2000.000000,1,COMPLETED_SUCCESSFULLY,552.871086,0.000000,552.871086,551.874001,551.874001,11289151277645.416016,6,-1.000000,""
126_updated,w0,python3action_chameleon_3000_troll,0.997085,1,2000.000000,1,COMPLETED_SUCCESSFULLY,459.667463,94.000000,553.667463,458.670378,552.670378,5.879472,19,-1.000000,""
126,w0,python3action_chameleon_3000,0.000000,1,-1.000000,1,COMPLETED_SUCCESSFULLY,553.667478,0.000010,553.667488,553.667478,553.667488,55366748.800803,19,-1.000000,""
131_updated,w0,python3action_modeltraining_reviews100mb_nova,0.997085,1,2000.000000,1,COMPLETED_SUCCESSFULLY,479.542098,79.600010,559.142108,478.545013,558.145023,7.011871,4,-1.000000,""
131,w0,python3action_modeltraining_reviews100mb,0.000000,1,-1.000000,1,COMPLETED_SUCCESSFULLY,559.142123,0.000010,559.142133,559.142123,559.142133,55914213.302611,4,-1.000000,""
108_updated,w0,python3action_facedetection_SampleVideo_50mb_taurus,0.997085,1,2000.000000,1,COMPLETED_SUCCESSFULLY,427.065293,134.600046,561.665339,426.068208,560.668254,4.165439,14,-1.000000,""
108,w0,python3action_facedetection_SampleVideo_50mb,0.000000,1,-1.000000,1,COMPLETED_SUCCESSFULLY,561.665354,0.000010,561.665364,561.665354,561.665364,56166536.427562,14,-1.000000,""
python3action_image_processing_job135_15,w0,python3action_image_processing,0.997085,1,2000.000000,1,COMPLETED_SUCCESSFULLY,553.667508,12.398880,566.066388,552.670423,565.069303,45.574221,19,-1.000000,""
95_updated,w0,python3action_linpack_6000_orion,0.997085,1,2000.000000,1,COMPLETED_SUCCESSFULLY,466.775783,106.000000,572.775783,465.778698,571.778698,5.394139,8,-1.000000,""
95,w0,python3action_linpack_6000,0.000000,1,-1.000000,1,COMPLETED_SUCCESSFULLY,572.775798,0.000010,572.775808,572.775798,572.775808,57277580.802209,8,-1.000000,""
97_updated,w0,python3action_pyaes_4000_nova,0.997085,1,2000.000000,1,COMPLETED_SUCCESSFULLY,433.302453,139.600010,572.902463,432.305368,571.905378,4.096743,27,-1.000000,""
97,w0,python3action_pyaes_4000,0.000000,1,-1.000000,1,COMPLETED_SUCCESSFULLY,572.902478,0.000010,572.902488,572.902478,572.902488,57290248.800201,27,-1.000000,""
125_updated,w0,python3action_linpack_5000_nova,0.997085,1,2000.000000,1,COMPLETED_SUCCESSFULLY,541.043383,34.600010,575.643393,540.046298,574.646308,16.608270,29,-1.000000,""
125,w0,python3action_linpack_5000,0.000000,1,-1.000000,1,COMPLETED_SUCCESSFULLY,575.643408,0.000010,575.643418,575.643408,575.643418,57564341.800201,29,-1.000000,""
149_updated,w0,python3action_chameleon_2000_troll,0.997085,1,2000.000000,1,COMPLETED_SUCCESSFULLY,536.733165,39.500010,576.233175,535.736080,575.236090,14.562935,20,-1.000000,""
149,w0,python3action_chameleon_2000,0.000000,1,-1.000000,1,COMPLETED_SUCCESSFULLY,576.233190,0.000010,576.233200,576.233190,576.233200,57623320.000201,20,-1.000000,""
111_updated,w0,python3action_imageprocessing_SampleImage_40mb_taurus,0.997085,1,2000.000000,1,COMPLETED_SUCCESSFULLY,548.715185,32.600046,581.315231,547.718100,580.318146,17.801145,16,-1.000000,""
111,w0,python3action_imageprocessing_SampleImage_40mb,0.000000,1,-1.000000,1,COMPLETED_SUCCESSFULLY,581.315246,0.000010,581.315256,581.315246,581.315256,58131525.643490,16,-1.000000,""
114_updated,w0,python3action_videoprocessing_SampleVideo_30mb_nova,0.997085,1,2000.000000,1,COMPLETED_SUCCESSFULLY,483.182015,106.799980,589.981996,482.184930,588.984911,5.514841,7,-1.000000,""
114,w0,python3action_videoprocessing_SampleVideo_30mb,0.000000,1,-1.000000,1,COMPLETED_SUCCESSFULLY,589.982011,0.000010,589.982021,589.982011,589.982021,58998202.100201,7,-1.000000,""
104_updated,w0,python3action_linpack_6000_orion,0.997085,1,2000.000000,1,COMPLETED_SUCCESSFULLY,484.775828,106.000000,590.775828,483.778743,589.778743,5.563950,9,-1.000000,""
104,w0,python3action_linpack_6000,0.000000,1,-1.000000,1,COMPLETED_SUCCESSFULLY,590.775843,0.000010,590.775853,590.775843,590.775853,59077585.301004,9,-1.000000,""
123_updated,w0,python3action_videoprocessing_SampleVideo_50mb_taurus,0.997085,1,2000.000000,1,COMPLETED_SUCCESSFULLY,440.015401,154.250029,594.265430,439.018316,593.268345,3.846147,15,-1.000000,""
122_updated,w0,python3action_imageprocessing_SampleImage_40mb_taurus,0.997085,1,2000.000000,1,COMPLETED_SUCCESSFULLY,561.665384,32.600046,594.265430,560.668299,593.268345,18.198390,14,-1.000000,""
123,w0,python3action_videoprocessing_SampleVideo_50mb,0.000000,1,-1.000000,1,COMPLETED_SUCCESSFULLY,594.265445,0.000010,594.265455,594.265445,594.265455,59426545.525822,15,-1.000000,""
122,w0,python3action_imageprocessing_SampleImage_40mb,0.000000,1,-1.000000,1,COMPLETED_SUCCESSFULLY,594.265475,0.000010,594.265485,594.265475,594.265485,59426548.526224,14,-1.000000,""
86_updated,w0,python3action_pyaes_4000_nova,0.997085,1,2000.000000,1,COMPLETED_SUCCESSFULLY,467.271031,139.600010,606.871041,466.273946,605.873956,4.340071,3,-1.000000,""
86,w0,python3action_pyaes_4000,0.000000,1,-1.000000,1,COMPLETED_SUCCESSFULLY,606.871056,0.000010,606.871066,606.871056,606.871066,60687106.624973,3,-1.000000,""
120_updated,w0,python3action_linpack_5000_nova,0.997085,1,2000.000000,1,COMPLETED_SUCCESSFULLY,572.902508,34.600010,607.502518,571.905423,606.505433,17.529054,27,-1.000000,""
120,w0,python3action_linpack_5000,0.000000,1,-1.000000,1,COMPLETED_SUCCESSFULLY,607.502533,0.000010,607.502543,607.502533,607.502543,60750254.300201,27,-1.000000,""
135_updated,w0,python3action_imageprocessing_SampleImage_60mb_troll,0.997085,1,2000.000000,1,COMPLETED_SUCCESSFULLY,566.066403,62.000000,628.066403,565.069318,627.069318,10.114021,19,-1.000000,""
135,w0,python3action_imageprocessing_SampleImage_60mb,0.000000,1,-1.000000,1,COMPLETED_SUCCESSFULLY,628.066418,0.000010,628.066428,628.066418,628.066428,62806642.810185,19,-1.000000,""
77_updated,w0,python3action_pyaes_4000_nova,0.997085,1,2000.000000,1,COMPLETED_SUCCESSFULLY,494.037196,139.600010,633.637206,493.040111,632.640121,4.531806,26,-1.000000,""
77,w0,python3action_pyaes_4000,0.000000,1,-1.000000,1,COMPLETED_SUCCESSFULLY,633.637221,0.000010,633.637231,633.637221,633.637231,63363723.124711,26,-1.000000,""
145_updated,w0,python3action_floatoperation_200000000_nova,0.997085,1,2000.000000,1,COMPLETED_SUCCESSFULLY,499.182348,135.399990,634.582338,498.185263,633.585253,4.679360,28,-1.000000,""
145,w0,python3action_floatoperation_200000000,0.000000,1,-1.000000,1,COMPLETED_SUCCESSFULLY,634.582353,0.000010,634.582363,634.582353,634.582363,63458236.349220,28,-1.000000,""
109_updated,w0,python3action_pyaes_4000_nova,0.997085,1,2000.000000,1,COMPLETED_SUCCESSFULLY,495.262392,139.600010,634.862402,494.265307,633.865317,4.540582,5,-1.000000,""
109,w0,python3action_pyaes_4000,0.000000,1,-1.000000,1,COMPLETED_SUCCESSFULLY,634.862417,0.000010,634.862427,634.862417,634.862427,63486242.700284,5,-1.000000,""
python3action_modeltraining_job94_19,w0,python3action_modeltraining_reduced_0.94,0.997085,1,2000.000000,1,COMPLETED_SUCCESSFULLY,633.637251,1.794099,635.431350,632.640166,634.434265,353.622780,26,-1.000000,""
107_updated,w0,python3action_facedetection_SampleVideo_50mb_taurus,0.997085,1,2000.000000,1,COMPLETED_SUCCESSFULLY,509.415190,134.600046,644.015236,508.418105,643.018151,4.777251,13,-1.000000,""
107,w0,python3action_facedetection_SampleVideo_50mb,0.000000,1,-1.000000,1,COMPLETED_SUCCESSFULLY,644.015251,0.000010,644.015261,644.015251,644.015261,64401526.127562,13,-1.000000,""
python3action_video_processing_job118_11,w0,python3action_video_processing_reduced_1.83,0.997085,1,2000.000000,1,COMPLETED_SUCCESSFULLY,644.015281,0.000000,644.015281,643.018196,643.018196,5577956478746.643555,13,-1.000000,""
103_updated,w0,python3action_modeltraining_reviews50mb_nova,0.997085,1,2000.000000,1,COMPLETED_SUCCESSFULLY,606.871086,42.399990,649.271076,605.874001,648.273991,15.289484,3,-1.000000,""
103,w0,python3action_modeltraining_reviews50mb,0.000000,1,-1.000000,1,COMPLETED_SUCCESSFULLY,649.271091,0.000010,649.271101,649.271091,649.271101,64927110.148679,3,-1.000000,""
python3action_linpack_job130_2,w0,python3action_linpack_reduced_0.85,0.997085,1,2000.000000,1,COMPLETED_SUCCESSFULLY,649.271121,0.365992,649.637113,648.274036,648.640028,1772.280250,3,-1.000000,""
70_updated,w0,python3action_videoprocessing_SampleVideo_50mb_taurus,0.997085,1,2000.000000,1,COMPLETED_SUCCESSFULLY,496.464977,154.250029,650.715006,495.467892,649.717921,4.212109,10,-1.000000,""
70,w0,python3action_videoprocessing_SampleVideo_50mb,0.000000,1,-1.000000,1,COMPLETED_SUCCESSFULLY,650.715021,0.000010,650.715031,650.715021,650.715031,65071503.100201,10,-1.000000,""
python3action_image_processing_job96_9,w0,python3action_image_processing_reduced_1.73,0.997085,1,2000.000000,1,COMPLETED_SUCCESSFULLY,650.715051,0.000000,650.715051,649.717966,649.717966,40246335684428.906250,10,-1.000000,""
134_updated,w0,python3action_floatoperation_100000000_nova,0.997085,1,2000.000000,1,COMPLETED_SUCCESSFULLY,589.982041,66.200020,656.182061,588.984956,655.184976,9.897051,7,-1.000000,""
134,w0,python3action_floatoperation_100000000,0.000000,1,-1.000000,1,COMPLETED_SUCCESSFULLY,656.182076,0.000010,656.182086,656.182076,656.182086,65618208.600201,7,-1.000000,""
python3action_pyaes_job158_6,w0,python3action_pyaes_reduced_0.85,0.997085,1,2000.000000,1,COMPLETED_SUCCESSFULLY,656.182106,0.320244,656.502350,655.185021,655.505265,2046.894886,7,-1.000000,""
91_updated,w0,python3action_videoprocessing_SampleVideo_30mb_nova,0.997085,1,2000.000000,1,COMPLETED_SUCCESSFULLY,552.871116,106.799980,659.671096,551.874031,658.674011,6.167361,6,-1.000000,""
91,w0,python3action_videoprocessing_SampleVideo_30mb,0.000000,1,-1.000000,1,COMPLETED_SUCCESSFULLY,659.671111,0.000010,659.671121,659.671111,659.671121,65967112.147412,6,-1.000000,""
116_updated,w0,python3action_imageprocessing_SampleImage_60mb_orion,0.997085,1,2000.000000,1,COMPLETED_SUCCESSFULLY,572.775828,88.000000,660.775828,571.778743,659.778743,7.497486,8,-1.000000,""
116,w0,python3action_imageprocessing_SampleImage_60mb,0.000000,1,-1.000000,1,COMPLETED_SUCCESSFULLY,660.775843,0.000010,660.775853,660.775843,660.775853,66077585.302812,8,-1.000000,""
102_updated,w0,python3action_floatoperation_200000000_nova,0.997085,1,2000.000000,1,COMPLETED_SUCCESSFULLY,530.676997,135.399990,666.076988,529.679912,665.079903,4.911964,2,-1.000000,""
102,w0,python3action_floatoperation_200000000,0.000000,1,-1.000000,1,COMPLETED_SUCCESSFULLY,666.077003,0.000010,666.077013,666.077003,666.077013,66607701.300201,2,-1.000000,""
python3action_linpack_job129_1,w0,python3action_linpack_reduced_0.85,0.997085,1,2000.000000,1,COMPLETED_SUCCESSFULLY,666.077033,0.365992,666.443025,665.079948,665.445940,1818.199071,2,-1.000000,""
132_updated,w0,python3action_linpack_5000_nova,0.997085,1,2000.000000,1,COMPLETED_SUCCESSFULLY,634.862447,34.600010,669.462457,633.865362,668.465372,19.319803,5,-1.000000,""
132,w0,python3action_linpack_5000,0.000000,1,-1.000000,1,COMPLETED_SUCCESSFULLY,669.462472,0.000010,669.462482,669.462472,669.462482,66946248.200201,5,-1.000000,""
156_updated,w0,python3action_chameleon_3000_troll,0.997085,1,2000.000000,1,COMPLETED_SUCCESSFULLY,576.233220,94.000000,670.233220,575.236135,669.236135,7.119533,20,-1.000000,""
156,w0,python3action_chameleon_3000,0.000000,1,-1.000000,1,COMPLETED_SUCCESSFULLY,670.233235,0.000010,670.233245,670.233235,670.233245,67023324.500803,20,-1.000000,""
72_updated,w0,python3action_facedetection_SampleVideo_50mb_taurus,0.997085,1,2000.000000,1,COMPLETED_SUCCESSFULLY,535.764972,134.600046,670.365018,534.767887,669.367933,4.973014,11,-1.000000,""
72,w0,python3action_facedetection_SampleVideo_50mb,0.000000,1,-1.000000,1,COMPLETED_SUCCESSFULLY,670.365033,0.000010,670.365043,670.365033,670.365043,67036504.314283,11,-1.000000,""
python3action_floatoperation_job153_4,w0,python3action_floatoperation,0.997085,1,2000.000000,1,COMPLETED_SUCCESSFULLY,669.462502,2.439945,671.902447,668.465417,670.905362,274.967379,5,-1.000000,""
93_updated,w0,python3action_floatoperation_200000000_nova,0.997085,1,2000.000000,1,COMPLETED_SUCCESSFULLY,537.677177,135.399990,673.077167,536.680092,672.080082,4.963664,25,-1.000000,""
93,w0,python3action_floatoperation_200000000,0.000000,1,-1.000000,1,COMPLETED_SUCCESSFULLY,673.077182,0.000010,673.077192,673.077182,673.077192,67307719.223907,25,-1.000000,""
python3action_linpack_job115_18,w0,python3action_linpack_reduced_0.85,0.997085,1,2000.000000,1,COMPLETED_SUCCESSFULLY,673.077212,0.365992,673.443204,672.080127,672.446119,1837.325672,25,-1.000000,""
138_updated,w0,python3action_imageprocessing_SampleImage_60mb_orion,0.997085,1,2000.000000,1,COMPLETED_SUCCESSFULLY,590.775873,88.000000,678.775873,589.778788,677.778788,7.702032,9,-1.000000,""
138,w0,python3action_imageprocessing_SampleImage_60mb,0.000000,1,-1.000000,1,COMPLETED_SUCCESSFULLY,678.775888,0.000010,678.775898,678.775888,678.775898,67877589.801607,9,-1.000000,""
96_updated,w0,python3action_imageprocessing_SampleImage_40mb_taurus,0.997085,1,2000.000000,1,COMPLETED_SUCCESSFULLY,650.715081,32.600046,683.315127,649.717996,682.318042,20.929972,10,-1.000000,""
96,w0,python3action_imageprocessing_SampleImage_40mb,0.000000,1,-1.000000,1,COMPLETED_SUCCESSFULLY,683.315142,0.000010,683.315152,683.315142,683.315152,68331515.214283,10,-1.000000,""
130_updated,w0,python3action_linpack_5000_nova,0.997085,1,2000.000000,1,COMPLETED_SUCCESSFULLY,649.637128,34.600010,684.237138,648.640043,683.240053,19.746817,3,-1.000000,""
130,w0,python3action_linpack_5000,0.000000,1,-1.000000,1,COMPLETED_SUCCESSFULLY,684.237153,0.000010,684.237163,684.237153,684.237163,68423716.305785,3,-1.000000,""
151_updated,w0,python3action_floatoperation_200000000_nova,0.997085,1,2000.000000,1,COMPLETED_SUCCESSFULLY,559.142153,135.399990,694.542143,558.145068,693.545058,5.122194,4,-1.000000,""
151,w0,python3action_floatoperation_200000000,0.000000,1,-1.000000,1,COMPLETED_SUCCESSFULLY,694.542158,0.000010,694.542168,694.542158,694.542168,69454216.826317,4,-1.000000,""
129_updated,w0,python3action_linpack_5000_nova,0.997085,1,2000.000000,1,COMPLETED_SUCCESSFULLY,666.443040,34.600010,701.043050,665.445955,700.045965,20.232537,2,-1.000000,""
129,w0,python3action_linpack_5000,0.000000,1,-1.000000,1,COMPLETED_SUCCESSFULLY,701.043065,0.000010,701.043075,701.043065,701.043075,70104307.500201,2,-1.000000,""
115_updated,w0,python3action_linpack_5000_nova,0.997085,1,2000.000000,1,COMPLETED_SUCCESSFULLY,673.443219,34.600010,708.043229,672.446134,707.046144,20.434854,25,-1.000000,""
115,w0,python3action_linpack_5000,0.000000,1,-1.000000,1,COMPLETED_SUCCESSFULLY,708.043244,0.000010,708.043254,708.043244,708.043254,70804325.400201,25,-1.000000,""
146_updated,w0,python3action_floatoperation_200000000_nova,0.997085,1,2000.000000,1,COMPLETED_SUCCESSFULLY,575.643438,135.399990,711.043428,574.646353,710.046343,5.244065,29,-1.000000,""
146,w0,python3action_floatoperation_200000000,0.000000,1,-1.000000,1,COMPLETED_SUCCESSFULLY,711.043443,0.000010,711.043453,711.043443,711.043453,71104345.323907,29,-1.000000,""
94_updated,w0,python3action_modeltraining_reviews100mb_nova,0.997085,1,2000.000000,1,COMPLETED_SUCCESSFULLY,635.431365,79.600010,715.031375,634.434280,714.034290,8.970279,26,-1.000000,""
94,w0,python3action_modeltraining_reviews100mb,0.000000,1,-1.000000,1,COMPLETED_SUCCESSFULLY,715.031390,0.000010,715.031400,715.031390,715.031400,71503140.000201,26,-1.000000,""
python3action_floatoperation_job119_19,w0,python3action_floatoperation,0.997085,1,2000.000000,1,COMPLETED_SUCCESSFULLY,715.031420,2.439945,717.471365,714.034335,716.474280,293.643584,26,-1.000000,""
148_updated,w0,python3action_linpack_5000_nova,0.997085,1,2000.000000,1,COMPLETED_SUCCESSFULLY,684.237183,34.600010,718.837193,683.240098,717.840108,20.746818,3,-1.000000,""
148,w0,python3action_linpack_5000,0.000000,1,-1.000000,1,COMPLETED_SUCCESSFULLY,718.837208,0.000010,718.837218,718.837208,718.837218,71883721.800201,3,-1.000000,""
144_updated,w0,python3action_chameleon_3000_troll,0.997085,1,2000.000000,1,COMPLETED_SUCCESSFULLY,628.066448,94.000000,722.066448,627.069363,721.069363,7.670951,19,-1.000000,""
144,w0,python3action_chameleon_3000,0.000000,1,-1.000000,1,COMPLETED_SUCCESSFULLY,722.066463,0.000010,722.066473,722.066463,722.066473,72206647.310787,19,-1.000000,""
174_updated,w0,python3action_pyaes_3000_troll,0.997085,1,2000.000000,1,COMPLETED_SUCCESSFULLY,670.233265,57.166677,727.399942,669.236180,726.402857,12.706753,20,-1.000000,""
174,w0,python3action_pyaes_3000,0.000000,1,-1.000000,1,COMPLETED_SUCCESSFULLY,727.399957,0.000010,727.399967,727.399957,727.399967,72739996.700201,20,-1.000000,""
160_updated,w0,python3action_facedetection_SampleVideo_50mb_taurus,0.997085,1,2000.000000,1,COMPLETED_SUCCESSFULLY,594.265490,134.600046,728.865536,593.268405,727.868451,5.407639,15,-1.000000,""
160,w0,python3action_facedetection_SampleVideo_50mb,0.000000,1,-1.000000,1,COMPLETED_SUCCESSFULLY,728.865551,0.000010,728.865561,728.865551,728.865561,72886556.139703,15,-1.000000,""
157_updated,w0,python3action_facedetection_SampleVideo_50mb_taurus,0.997085,1,2000.000000,1,COMPLETED_SUCCESSFULLY,594.265520,134.600046,728.865566,593.268435,727.868481,5.407639,14,-1.000000,""
157,w0,python3action_facedetection_SampleVideo_50mb,0.000000,1,-1.000000,1,COMPLETED_SUCCESSFULLY,728.865596,0.000010,728.865606,728.865596,728.865606,72886560.640306,14,-1.000000,""
128_updated,w0,python3action_videoprocessing_SampleVideo_50mb_taurus,0.997085,1,2000.000000,1,COMPLETED_SUCCESSFULLY,581.315276,154.250029,735.565305,580.318191,734.568220,4.762192,16,-1.000000,""
128,w0,python3action_videoprocessing_SampleVideo_50mb,0.000000,1,-1.000000,1,COMPLETED_SUCCESSFULLY,735.565320,0.000010,735.565330,735.565320,735.565330,73556533.027266,16,-1.000000,""
168_updated,w0,python3action_modeltraining_reviews50mb_nova,0.997085,1,2000.000000,1,COMPLETED_SUCCESSFULLY,694.542188,42.399990,736.942178,693.545103,735.945093,17.357200,4,-1.000000,""
168,w0,python3action_modeltraining_reviews50mb,0.000000,1,-1.000000,1,COMPLETED_SUCCESSFULLY,736.942194,0.000010,736.942204,736.942194,736.942204,73694220.350023,4,-1.000000,""
153_updated,w0,python3action_floatoperation_100000000_nova,0.997085,1,2000.000000,1,COMPLETED_SUCCESSFULLY,671.902462,66.200020,738.102482,670.905377,737.105397,11.134519,5,-1.000000,""
153,w0,python3action_floatoperation_100000000,0.000000,1,-1.000000,1,COMPLETED_SUCCESSFULLY,738.102497,0.000010,738.102507,738.102497,738.102507,73810250.700201,5,-1.000000,""
142_updated,w0,python3action_floatoperation_200000000_nova,0.997085,1,2000.000000,1,COMPLETED_SUCCESSFULLY,607.502563,135.399990,742.902553,606.505478,741.905468,5.479361,27,-1.000000,""
142,w0,python3action_floatoperation_200000000,0.000000,1,-1.000000,1,COMPLETED_SUCCESSFULLY,742.902568,0.000010,742.902578,742.902568,742.902578,74290257.823907,27,-1.000000,""
python3action_modeltraining_job162_20,w0,python3action_modeltraining_reduced_0.94,0.997085,1,2000.000000,1,COMPLETED_SUCCESSFULLY,742.902598,1.794099,744.696697,741.905513,743.699612,414.525410,27,-1.000000,""
164_updated,w0,python3action_linpack_5000_nova,0.997085,1,2000.000000,1,COMPLETED_SUCCESSFULLY,711.043473,34.600010,745.643483,710.046388,744.646398,21.521566,29,-1.000000,""
164,w0,python3action_linpack_5000,0.000000,1,-1.000000,1,COMPLETED_SUCCESSFULLY,745.643498,0.000010,745.643508,745.643498,745.643508,74564350.801405,29,-1.000000,""
141_updated,w0,python3action_imageprocessing_SampleImage_60mb_orion,0.997085,1,2000.000000,1,COMPLETED_SUCCESSFULLY,660.775873,88.000000,748.775873,659.778788,747.778788,8.497486,8,-1.000000,""
141,w0,python3action_imageprocessing_SampleImage_60mb,0.000000,1,-1.000000,1,COMPLETED_SUCCESSFULLY,748.775888,0.000010,748.775898,748.775888,748.775898,74877589.803414,8,-1.000000,""
167_updated,w0,python3action_linpack_5000_nova,0.997085,1,2000.000000,1,COMPLETED_SUCCESSFULLY,718.837238,34.600010,753.437248,717.840153,752.440163,21.746819,3,-1.000000,""
167,w0,python3action_linpack_5000,0.000000,1,-1.000000,1,COMPLETED_SUCCESSFULLY,753.437263,0.000010,753.437273,753.437263,753.437273,75343727.300201,3,-1.000000,""
python3action_video_processing_job189_2,w0,python3action_video_processing_reduced_1.89,0.997085,1,2000.000000,1,COMPLETED_SUCCESSFULLY,753.437293,0.000000,753.437293,752.440208,752.440208,15391939682025.474609,3,-1.000000,""
199_updated,w0,python3action_imageprocessing_SampleImage_40mb_taurus,0.997085,1,2000.000000,1,COMPLETED_SUCCESSFULLY,728.865581,32.600046,761.465628,727.868496,760.468543,23.327223,15,-1.000000,""
199,w0,python3action_imageprocessing_SampleImage_40mb,0.000000,1,-1.000000,1,COMPLETED_SUCCESSFULLY,761.465643,0.000010,761.465653,761.465643,761.465653,76146565.300201,15,-1.000000,""
190_updated,w0,python3action_modeltraining_reviews50mb_nova,0.997085,1,2000.000000,1,COMPLETED_SUCCESSFULLY,736.942224,42.399990,779.342214,735.945139,778.345129,18.357201,4,-1.000000,""
190,w0,python3action_modeltraining_reviews50mb,0.000000,1,-1.000000,1,COMPLETED_SUCCESSFULLY,779.342229,0.000010,779.342239,779.342229,779.342239,77934223.923505,4,-1.000000,""
119_updated,w0,python3action_floatoperation_100000000_nova,0.997085,1,2000.000000,1,COMPLETED_SUCCESSFULLY,717.471380,66.200020,783.671400,716.474295,782.674315,11.822871,26,-1.000000,""
119,w0,python3action_floatoperation_100000000,0.000000,1,-1.000000,1,COMPLETED_SUCCESSFULLY,783.671415,0.000010,783.671425,783.671415,783.671425,78367142.500201,26,-1.000000,""
170_updated,w0,python3action_linpack_6000_orion,0.997085,1,2000.000000,1,COMPLETED_SUCCESSFULLY,678.775918,106.000000,784.775918,677.778833,783.778833,7.394140,9,-1.000000,""
170,w0,python3action_linpack_6000,0.000000,1,-1.000000,1,COMPLETED_SUCCESSFULLY,784.775933,0.000010,784.775943,784.775933,784.775943,78477594.302209,9,-1.000000,""
184_updated,w0,python3action_imageprocessing_SampleImage_60mb_troll,0.997085,1,2000.000000,1,COMPLETED_SUCCESSFULLY,727.399987,62.000000,789.399987,726.402902,788.402902,12.716176,20,-1.000000,""
184,w0,python3action_imageprocessing_SampleImage_60mb,0.000000,1,-1.000000,1,COMPLETED_SUCCESSFULLY,789.400002,0.000010,789.400012,789.400002,789.400012,78940001.200803,20,-1.000000,""
163_updated,w0,python3action_facedetection_SampleVideo_30mb_nova,0.997085,1,2000.000000,1,COMPLETED_SUCCESSFULLY,634.582383,160.399990,794.982374,633.585298,793.985289,4.950033,28,-1.000000,""
163,w0,python3action_facedetection_SampleVideo_30mb,0.000000,1,-1.000000,1,COMPLETED_SUCCESSFULLY,794.982389,0.000010,794.982399,794.982389,794.982399,79498239.900201,28,-1.000000,""
python3action_pyaes_job182_21,w0,python3action_pyaes_reduced_0.85,0.997085,1,2000.000000,1,COMPLETED_SUCCESSFULLY,794.982419,0.320244,795.302663,793.985334,794.305578,2480.315739,28,-1.000000,""
158_updated,w0,python3action_pyaes_4000_nova,0.997085,1,2000.000000,1,COMPLETED_SUCCESSFULLY,656.502365,139.600010,796.102375,655.505280,795.105290,5.695596,7,-1.000000,""
158,w0,python3action_pyaes_4000,0.000000,1,-1.000000,1,COMPLETED_SUCCESSFULLY,796.102390,0.000010,796.102400,796.102390,796.102400,79610240.000201,7,-1.000000,""
118_updated,w0,python3action_videoprocessing_SampleVideo_50mb_taurus,0.997085,1,2000.000000,1,COMPLETED_SUCCESSFULLY,644.015311,154.250029,798.265340,643.018226,797.268255,5.168675,13,-1.000000,""
118,w0,python3action_videoprocessing_SampleVideo_50mb,0.000000,1,-1.000000,1,COMPLETED_SUCCESSFULLY,798.265355,0.000010,798.265365,798.265355,798.265365,79826536.511740,13,-1.000000,""
112_updated,w0,python3action_pyaes_4000_nova,0.997085,1,2000.000000,1,COMPLETED_SUCCESSFULLY,659.671141,139.600010,799.271151,658.674056,798.274066,5.718295,6,-1.000000,""
112,w0,python3action_pyaes_4000,0.000000,1,-1.000000,1,COMPLETED_SUCCESSFULLY,799.271166,0.000010,799.271176,799.271166,799.271176,79927117.624910,6,-1.000000,""
147_updated,w0,python3action_videoprocessing_SampleVideo_30mb_nova,0.997085,1,2000.000000,1,COMPLETED_SUCCESSFULLY,701.043095,106.799980,807.843075,700.046010,806.845990,7.554739,2,-1.000000,""
147,w0,python3action_videoprocessing_SampleVideo_30mb,0.000000,1,-1.000000,1,COMPLETED_SUCCESSFULLY,807.843090,0.000010,807.843100,807.843090,807.843100,80784310.047010,2,-1.000000,""
python3action_facedetection_job166_1,w0,python3action_facedetection_reduced_1.83,0.997085,1,2000.000000,1,COMPLETED_SUCCESSFULLY,807.843120,0.000000,807.843120,806.846035,806.846035,181976738016156.750000,2,-1.000000,""
185_updated,w0,python3action_floatoperation_100000000_nova,0.997085,1,2000.000000,1,COMPLETED_SUCCESSFULLY,745.643528,66.200020,811.843548,744.646443,810.846463,12.248432,29,-1.000000,""
185,w0,python3action_floatoperation_100000000,0.000000,1,-1.000000,1,COMPLETED_SUCCESSFULLY,811.843563,0.000010,811.843573,811.843563,811.843573,81184357.300201,29,-1.000000,""
152_updated,w0,python3action_chameleon_3000_troll,0.997085,1,2000.000000,1,COMPLETED_SUCCESSFULLY,722.066493,94.000000,816.066493,721.069408,815.069408,8.670951,19,-1.000000,""
152,w0,python3action_chameleon_3000,0.000000,1,-1.000000,1,COMPLETED_SUCCESSFULLY,816.066508,0.000010,816.066518,816.066508,816.066518,81606651.811389,19,-1.000000,""
162_updated,w0,python3action_modeltraining_reviews100mb_nova,0.997085,1,2000.000000,1,COMPLETED_SUCCESSFULLY,744.696712,79.600010,824.296722,743.699627,823.299637,10.342959,27,-1.000000,""
162,w0,python3action_modeltraining_reviews100mb,0.000000,1,-1.000000,1,COMPLETED_SUCCESSFULLY,824.296737,0.000010,824.296747,824.296737,824.296747,82429674.700201,27,-1.000000,""
100_updated,w0,python3action_videoprocessing_SampleVideo_50mb_taurus,0.997085,1,2000.000000,1,COMPLETED_SUCCESSFULLY,670.365063,154.250029,824.615092,669.367978,823.618007,5.339500,11,-1.000000,""
100,w0,python3action_videoprocessing_SampleVideo_50mb,0.000000,1,-1.000000,1,COMPLETED_SUCCESSFULLY,824.615107,0.000010,824.615117,824.615107,824.615117,82461511.700201,11,-1.000000,""
113_updated,w0,python3action_videoprocessing_SampleVideo_50mb_taurus,0.997085,1,2000.000000,1,COMPLETED_SUCCESSFULLY,683.315172,154.250029,837.565201,682.318087,836.568116,5.423455,10,-1.000000,""
113,w0,python3action_videoprocessing_SampleVideo_50mb,0.000000,1,-1.000000,1,COMPLETED_SUCCESSFULLY,837.565216,0.000010,837.565226,837.565216,837.565226,83756522.600201,10,-1.000000,""
169_updated,w0,python3action_videoprocessing_SampleVideo_30mb_nova,0.997085,1,2000.000000,1,COMPLETED_SUCCESSFULLY,738.102527,106.799980,844.902507,737.105442,843.905422,7.901738,5,-1.000000,""
169,w0,python3action_videoprocessing_SampleVideo_30mb,0.000000,1,-1.000000,1,COMPLETED_SUCCESSFULLY,844.902522,0.000010,844.902532,844.902522,844.902532,84490253.247010,5,-1.000000,""
136_updated,w0,python3action_pyaes_4000_nova,0.997085,1,2000.000000,1,COMPLETED_SUCCESSFULLY,708.043274,139.600010,847.643284,707.046189,846.646199,6.064800,25,-1.000000,""
136,w0,python3action_pyaes_4000,0.000000,1,-1.000000,1,COMPLETED_SUCCESSFULLY,847.643299,0.000010,847.643309,847.643299,847.643309,84764330.900201,25,-1.000000,""
python3action_modeltraining_job159_18,w0,python3action_modeltraining_reduced_0.94,0.997085,1,2000.000000,1,COMPLETED_SUCCESSFULLY,847.643329,1.794099,849.437428,846.646244,848.440343,472.906098,25,-1.000000,""
137_updated,w0,python3action_floatoperation_100000000_nova,0.997085,1,2000.000000,1,COMPLETED_SUCCESSFULLY,783.671445,66.200020,849.871465,782.674360,848.874380,12.822872,26,-1.000000,""
137,w0,python3action_floatoperation_100000000,0.000000,1,-1.000000,1,COMPLETED_SUCCESSFULLY,849.871480,0.000010,849.871490,849.871480,849.871490,84987149.000201,26,-1.000000,""
172_updated,w0,python3action_linpack_6000_orion,0.997085,1,2000.000000,1,COMPLETED_SUCCESSFULLY,748.775918,106.000000,854.775918,747.778833,853.778833,8.054517,8,-1.000000,""
172,w0,python3action_linpack_6000,0.000000,1,-1.000000,1,COMPLETED_SUCCESSFULLY,854.775933,0.000010,854.775943,854.775933,854.775943,85477594.304016,8,-1.000000,""
173_updated,w0,python3action_chameleon_2000_troll,0.997085,1,2000.000000,1,COMPLETED_SUCCESSFULLY,816.066538,39.500010,855.566548,815.069453,854.569463,21.634665,19,-1.000000,""
173,w0,python3action_chameleon_2000,0.000000,1,-1.000000,1,COMPLETED_SUCCESSFULLY,855.566563,0.000010,855.566573,855.566563,855.566573,85556657.304823,19,-1.000000,""
189_updated,w0,python3action_videoprocessing_SampleVideo_30mb_nova,0.997085,1,2000.000000,1,COMPLETED_SUCCESSFULLY,753.437323,106.799980,860.237303,752.440238,859.240218,8.045322,3,-1.000000,""
189,w0,python3action_videoprocessing_SampleVideo_30mb,0.000000,1,-1.000000,1,COMPLETED_SUCCESSFULLY,860.237318,0.000010,860.237328,860.237318,860.237328,86023732.847412,3,-1.000000,""
133_updated,w0,python3action_floatoperation_100000000_nova,0.997085,1,2000.000000,1,COMPLETED_SUCCESSFULLY,799.271196,66.200020,865.471216,798.274111,864.474131,13.058518,6,-1.000000,""
133,w0,python3action_floatoperation_100000000,0.000000,1,-1.000000,1,COMPLETED_SUCCESSFULLY,865.471231,0.000010,865.471241,865.471231,865.471241,86547124.100201,6,-1.000000,""
188_updated,w0,python3action_videoprocessing_SampleVideo_50mb_taurus,0.997085,1,2000.000000,1,COMPLETED_SUCCESSFULLY,728.865626,154.250029,883.115655,727.868541,882.118570,5.718758,14,-1.000000,""
188,w0,python3action_videoprocessing_SampleVideo_50mb,0.000000,1,-1.000000,1,COMPLETED_SUCCESSFULLY,883.115670,0.000010,883.115680,883.115670,883.115680,88311568.024082,14,-1.000000,""
165_updated,w0,python3action_videoprocessing_SampleVideo_50mb_taurus,0.997085,1,2000.000000,1,COMPLETED_SUCCESSFULLY,735.565350,154.250029,889.815379,734.568265,888.818294,5.762192,16,-1.000000,""
165,w0,python3action_videoprocessing_SampleVideo_50mb,0.000000,1,-1.000000,1,COMPLETED_SUCCESSFULLY,889.815394,0.000010,889.815404,889.815394,889.815404,88981540.411042,16,-1.000000,""
183_updated,w0,python3action_linpack_6000_orion,0.997085,1,2000.000000,1,COMPLETED_SUCCESSFULLY,784.775963,106.000000,890.775963,783.778878,889.778878,8.394140,9,-1.000000,""
183,w0,python3action_linpack_6000,0.000000,1,-1.000000,1,COMPLETED_SUCCESSFULLY,890.775978,0.000010,890.775988,890.775978,890.775988,89077598.802811,9,-1.000000,""
159_updated,w0,python3action_modeltraining_reviews50mb_nova,0.997085,1,2000.000000,1,COMPLETED_SUCCESSFULLY,849.437443,42.399990,891.837433,848.440358,890.840348,21.010390,25,-1.000000,""
159,w0,python3action_modeltraining_reviews50mb,0.000000,1,-1.000000,1,COMPLETED_SUCCESSFULLY,891.837448,0.000010,891.837458,891.837448,891.837458,89183745.823505,25,-1.000000,""
155_updated,w0,python3action_modeltraining_reviews50mb_nova,0.997085,1,2000.000000,1,COMPLETED_SUCCESSFULLY,865.471261,42.399990,907.871251,864.474176,906.874166,21.388547,6,-1.000000,""
155,w0,python3action_modeltraining_reviews50mb,0.000000,1,-1.000000,1,COMPLETED_SUCCESSFULLY,907.871266,0.000010,907.871276,907.871266,907.871276,90787127.623907,6,-1.000000,""
194_updated,w0,python3action_floatoperation_100000000_nova,0.997085,1,2000.000000,1,COMPLETED_SUCCESSFULLY,844.902552,66.200020,911.102572,843.905467,910.105487,13.747813,5,-1.000000,""
194,w0,python3action_floatoperation_100000000,0.000000,1,-1.000000,1,COMPLETED_SUCCESSFULLY,911.102587,0.000010,911.102597,911.102587,911.102597,91110259.701405,5,-1.000000,""
154_updated,w0,python3action_facedetection_SampleVideo_50mb_taurus,0.997085,1,2000.000000,1,COMPLETED_SUCCESSFULLY,798.265385,134.600046,932.865431,797.268300,931.868346,6.923239,13,-1.000000,""
154,w0,python3action_facedetection_SampleVideo_50mb,0.000000,1,-1.000000,1,COMPLETED_SUCCESSFULLY,932.865446,0.000010,932.865456,932.865446,932.865456,93286545.625420,13,-1.000000,""
182_updated,w0,python3action_pyaes_4000_nova,0.997085,1,2000.000000,1,COMPLETED_SUCCESSFULLY,795.302678,139.600010,934.902688,794.305593,933.905603,6.689868,28,-1.000000,""
182,w0,python3action_pyaes_4000,0.000000,1,-1.000000,1,COMPLETED_SUCCESSFULLY,934.902703,0.000010,934.902713,934.902703,934.902713,93490271.300201,28,-1.000000,""
177_updated,w0,python3action_pyaes_4000_nova,0.997085,1,2000.000000,1,COMPLETED_SUCCESSFULLY,796.102420,139.600010,935.702430,795.105335,934.705345,6.695597,7,-1.000000,""
177,w0,python3action_pyaes_4000,0.000000,1,-1.000000,1,COMPLETED_SUCCESSFULLY,935.702445,0.000010,935.702455,935.702445,935.702455,93570245.500201,7,-1.000000,""
176_updated,w0,python3action_chameleon_3000_troll,0.997085,1,2000.000000,1,COMPLETED_SUCCESSFULLY,855.566593,94.000000,949.566593,854.569508,948.569508,10.091165,19,-1.000000,""
176,w0,python3action_chameleon_3000,0.000000,1,-1.000000,1,COMPLETED_SUCCESSFULLY,949.566608,0.000010,949.566618,949.566608,949.566618,94956661.805425,19,-1.000000,""
191_updated,w0,python3action_linpack_6000_orion,0.997085,1,2000.000000,1,COMPLETED_SUCCESSFULLY,854.775963,106.000000,960.775963,853.778878,959.778878,9.054518,8,-1.000000,""
191,w0,python3action_linpack_6000,0.000000,1,-1.000000,1,COMPLETED_SUCCESSFULLY,960.775978,0.000010,960.775988,960.775978,960.775988,96077598.804619,8,-1.000000,""
187_updated,w0,python3action_imageprocessing_SampleImage_40mb_taurus,0.997085,1,2000.000000,1,COMPLETED_SUCCESSFULLY,932.865476,32.600046,965.465522,931.868391,964.468437,29.584880,13,-1.000000,""
187,w0,python3action_imageprocessing_SampleImage_40mb,0.000000,1,-1.000000,1,COMPLETED_SUCCESSFULLY,965.465537,0.000010,965.465547,965.465537,965.465547,96546554.739100,13,-1.000000,""
166_updated,w0,python3action_facedetection_SampleVideo_30mb_nova,0.997085,1,2000.000000,1,COMPLETED_SUCCESSFULLY,807.843150,160.399990,968.243141,806.846065,967.246056,6.030213,2,-1.000000,""
166,w0,python3action_facedetection_SampleVideo_30mb,0.000000,1,-1.000000,1,COMPLETED_SUCCESSFULLY,968.243156,0.000010,968.243166,968.243156,968.243166,96824316.600201,2,-1.000000,""
139_updated,w0,python3action_facedetection_SampleVideo_50mb_taurus,0.997085,1,2000.000000,1,COMPLETED_SUCCESSFULLY,837.565246,134.600046,972.165292,836.568161,971.168207,7.215215,10,-1.000000,""
139,w0,python3action_facedetection_SampleVideo_50mb,0.000000,1,-1.000000,1,COMPLETED_SUCCESSFULLY,972.165307,0.000010,972.165317,972.165307,972.165317,97216531.713881,10,-1.000000,""
117_updated,w0,python3action_videoprocessing_SampleVideo_50mb_taurus,0.997085,1,2000.000000,1,COMPLETED_SUCCESSFULLY,824.615137,154.250029,978.865166,823.618052,977.868081,6.339500,11,-1.000000,""
117,w0,python3action_videoprocessing_SampleVideo_50mb,0.000000,1,-1.000000,1,COMPLETED_SUCCESSFULLY,978.865181,0.000010,978.865191,978.865181,978.865191,97886519.100201,11,-1.000000,""
python3action_image_processing_job150_10,w0,python3action_image_processing_reduced_1.73,0.997085,1,2000.000000,1,COMPLETED_SUCCESSFULLY,978.865211,0.000000,978.865211,977.868126,977.868126,60573373238037.632812,11,-1.000000,""
181_updated,w0,python3action_facedetection_SampleVideo_30mb_nova,0.997085,1,2000.000000,1,COMPLETED_SUCCESSFULLY,824.296767,160.399990,984.696757,823.299682,983.699672,6.132791,27,-1.000000,""
181,w0,python3action_facedetection_SampleVideo_30mb,0.000000,1,-1.000000,1,COMPLETED_SUCCESSFULLY,984.696772,0.000010,984.696782,984.696772,984.696782,98469678.223907,27,-1.000000,""
161_updated,w0,python3action_pyaes_4000_nova,0.997085,1,2000.000000,1,COMPLETED_SUCCESSFULLY,849.871510,139.600010,989.471520,848.874425,988.474435,7.080762,26,-1.000000,""
161,w0,python3action_pyaes_4000,0.000000,1,-1.000000,1,COMPLETED_SUCCESSFULLY,989.471535,0.000010,989.471545,989.471535,989.471545,98947154.500201,26,-1.000000,""
python3action_linpack_job179_19,w0,python3action_linpack_reduced_0.85,0.997085,1,2000.000000,1,COMPLETED_SUCCESSFULLY,989.471565,0.365992,989.837557,988.474480,988.840472,2701.810499,26,-1.000000,""
193_updated,w0,python3action_linpack_6000_orion,0.997085,1,2000.000000,1,COMPLETED_SUCCESSFULLY,890.776008,106.000000,996.776008,889.778923,995.778923,9.394141,9,-1.000000,""
193,w0,python3action_linpack_6000,0.000000,1,-1.000000,1,COMPLETED_SUCCESSFULLY,996.776023,0.000010,996.776033,996.776023,996.776033,99677603.303413,9,-1.000000,""
150_updated,w0,python3action_imageprocessing_SampleImage_40mb_taurus,0.997085,1,2000.000000,1,COMPLETED_SUCCESSFULLY,978.865241,32.600046,1011.465287,977.868156,1010.468202,30.995913,11,-1.000000,""
150,w0,python3action_imageprocessing_SampleImage_40mb,0.000000,1,-1.000000,1,COMPLETED_SUCCESSFULLY,1011.465302,0.000010,1011.465312,1011.465302,1011.465312,101146531.214283,11,-1.000000,""
175_updated,w0,python3action_videoprocessing_SampleVideo_30mb_nova,0.997085,1,2000.000000,1,COMPLETED_SUCCESSFULLY,907.871296,106.799980,1014.671277,906.874211,1013.674192,9.491333,6,-1.000000,""
175,w0,python3action_videoprocessing_SampleVideo_30mb,0.000000,1,-1.000000,1,COMPLETED_SUCCESSFULLY,1014.671292,0.000010,1014.671302,1014.671292,1014.671302,101467130.200201,6,-1.000000,""
179_updated,w0,python3action_linpack_5000_nova,0.997085,1,2000.000000,1,COMPLETED_SUCCESSFULLY,989.837572,34.600010,1024.437582,988.840487,1023.440497,29.579197,26,-1.000000,""
179,w0,python3action_linpack_5000,0.000000,1,-1.000000,1,COMPLETED_SUCCESSFULLY,1024.437597,0.000010,1024.437607,1024.437597,1024.437607,102443760.700201,26,-1.000000,""
178_updated,w0,python3action_floatoperation_200000000_nova,0.997085,1,2000.000000,1,COMPLETED_SUCCESSFULLY,891.837478,135.399990,1027.237468,890.840393,1026.240383,7.579324,25,-1.000000,""
178,w0,python3action_floatoperation_200000000,0.000000,1,-1.000000,1,COMPLETED_SUCCESSFULLY,1027.237483,0.000010,1027.237493,1027.237483,1027.237493,102723749.347211,25,-1.000000,""
192_updated,w0,python3action_chameleon_3000_troll,0.997085,1,2000.000000,1,COMPLETED_SUCCESSFULLY,949.566638,94.000000,1043.566638,948.569553,1042.569553,11.091165,19,-1.000000,""
192,w0,python3action_chameleon_3000,0.000000,1,-1.000000,1,COMPLETED_SUCCESSFULLY,1043.566653,0.000010,1043.566663,1043.566653,1043.566663,104356666.306028,19,-1.000000,""
198_updated,w0,python3action_linpack_5000_nova,0.997085,1,2000.000000,1,COMPLETED_SUCCESSFULLY,1027.237513,34.600010,1061.837523,1026.240428,1060.840438,30.660120,25,-1.000000,""
198,w0,python3action_linpack_5000,0.000000,1,-1.000000,1,COMPLETED_SUCCESSFULLY,1061.837538,0.000010,1061.837548,1061.837538,1061.837548,106183754.824710,25,-1.000000,""
197_updated,w0,python3action_linpack_6000_orion,0.997085,1,2000.000000,1,COMPLETED_SUCCESSFULLY,960.776008,106.000000,1066.776008,959.778923,1065.778923,10.054518,8,-1.000000,""
197,w0,python3action_linpack_6000,0.000000,1,-1.000000,1,COMPLETED_SUCCESSFULLY,1066.776023,0.000010,1066.776033,1066.776023,1066.776033,106677603.305221,8,-1.000000,""
186_updated,w0,python3action_videoprocessing_SampleVideo_30mb_nova,0.997085,1,2000.000000,1,COMPLETED_SUCCESSFULLY,968.243186,106.799980,1075.043166,967.246101,1074.046081,10.056613,2,-1.000000,""
186,w0,python3action_videoprocessing_SampleVideo_30mb,0.000000,1,-1.000000,1,COMPLETED_SUCCESSFULLY,1075.043181,0.000010,1075.043191,1075.043181,1075.043191,107504319.147010,2,-1.000000,""
196_updated,w0,python3action_pyaes_4000_nova,0.997085,1,2000.000000,1,COMPLETED_SUCCESSFULLY,935.702475,139.600010,1075.302485,934.705390,1074.305400,7.695597,7,-1.000000,""
196,w0,python3action_pyaes_4000,0.000000,1,-1.000000,1,COMPLETED_SUCCESSFULLY,1075.302500,0.000010,1075.302510,1075.302500,1075.302510,107530251.000201,7,-1.000000,""
171_updated,w0,python3action_videoprocessing_SampleVideo_50mb_taurus,0.997085,1,2000.000000,1,COMPLETED_SUCCESSFULLY,972.165337,154.250029,1126.415366,971.168252,1125.418281,7.296065,10,-1.000000,""
171,w0,python3action_videoprocessing_SampleVideo_50mb,0.000000,1,-1.000000,1,COMPLETED_SUCCESSFULLY,1126.415381,0.000010,1126.415391,1126.415381,1126.415391,112641539.100201,10,-1.000000,""
195_updated,w0,python3action_pyaes_4000_nova,0.997085,1,2000.000000,1,COMPLETED_SUCCESSFULLY,1014.671322,139.600010,1154.271332,1013.674237,1153.274247,8.261276,6,-1.000000,""
195,w0,python3action_pyaes_4000,0.000000,1,-1.000000,1,COMPLETED_SUCCESSFULLY,1154.271347,0.000010,1154.271357,1154.271347,1154.271357,115427135.700201,6,-1.000000,""
180_updated,w0,python3action_videoprocessing_SampleVideo_50mb_taurus,0.997085,1,2000.000000,1,COMPLETED_SUCCESSFULLY,1011.465332,154.250029,1165.715361,1010.468247,1164.718276,7.550846,11,-1.000000,""
180,w0,python3action_videoprocessing_SampleVideo_50mb,0.000000,1,-1.000000,1,COMPLETED_SUCCESSFULLY,1165.715376,0.000010,1165.715386,1165.715376,1165.715386,116571538.600201,11,-1.000000,""
