job_id,workload_name,profile,submission_time,requested_number_of_resources,requested_time,success,final_state,starting_time,execution_time,finish_time,waiting_time,turnaround_time,stretch,allocated_resources,consumed_energy,metadata
python3action_chameleon_job4_14,w0,python3action_chameleon,0.997085,1,2000.000000,1,COMPLETED_SUCCESSFULLY,1.002310,0.867914,1.870224,0.005225,0.873139,1.006020,19,-1.000000,""
python3action_pyaes_job0_0,w0,python3action_pyaes,0.997085,1,2000.000000,1,COMPLETED_SUCCESSFULLY,1.002100,2.134958,3.137058,0.005015,2.139973,1.002349,2,-1.000000,""
python3action_pyaes_job3_2,w0,python3action_pyaes,0.997085,1,2000.000000,1,COMPLETED_SUCCESSFULLY,1.002130,2.134958,3.137088,0.005045,2.140003,1.002363,4,-1.000000,""
python3action_pyaes_job9_16,w0,python3action_pyaes,0.997085,1,2000.000000,1,COMPLETED_SUCCESSFULLY,1.002340,2.134958,3.137298,0.005255,2.140213,1.002461,25,-1.000000,""
python3action_pyaes_job15_17,w0,python3action_pyaes,0.997085,1,2000.000000,1,COMPLETED_SUCCESSFULLY,1.002355,2.134958,3.137313,0.005270,2.140228,1.002468,26,-1.000000,""
python3action_floatoperation_job8_5,w0,python3action_floatoperation,0.997085,1,2000.000000,1,COMPLETED_SUCCESSFULLY,1.002175,2.439945,3.442120,0.005090,2.445035,1.002086,7,-1.000000,""
python3action_floatoperation_job17_19,w0,python3action_floatoperation,0.997085,1,2000.000000,1,COMPLETED_SUCCESSFULLY,1.002385,2.439945,3.442330,0.005300,2.445245,1.002172,28,-1.000000,""
python3action_chameleon_job13_12,w0,python3action_chameleon,0.997085,1,2000.000000,1,COMPLETED_SUCCESSFULLY,1.002280,5.040826,6.043106,0.005195,5.046021,1.001031,15,-1.000000,""
python3action_linpack_job12_6,w0,python3action_linpack,0.997085,1,2000.000000,1,COMPLETED_SUCCESSFULLY,1.002190,5.760927,6.763117,0.005105,5.766032,1.000886,8,-1.000000,""
python3action_linpack_job44_7,w0,python3action_linpack,0.997085,1,2000.000000,1,COMPLETED_SUCCESSFULLY,1.002205,5.760927,6.763132,0.005120,5.766047,1.000889,9,-1.000000,""
python3action_image_processing_job14_15,w0,python3action_image_processing,0.997085,1,2000.000000,1,COMPLETED_SUCCESSFULLY,1.002325,12.398880,13.401205,0.005240,12.404120,1.000423,20,-1.000000,""
python3action_modeltraining_job1_1,w0,python3action_modeltraining,0.997085,1,2000.000000,1,COMPLETED_SUCCESSFULLY,1.002115,30.499683,31.501798,0.005030,30.504713,1.000165,3,-1.000000,""
python3action_video_processing_job5_3,w0,python3action_video_processing,0.997085,1,2000.000000,1,COMPLETED_SUCCESSFULLY,1.002145,30.499683,31.501828,0.005060,30.504743,1.000166,5,-1.000000,""
python3action_facedetection_job7_4,w0,python3action_facedetection,0.997085,1,2000.000000,1,COMPLETED_SUCCESSFULLY,1.002160,30.499683,31.501843,0.005075,30.504758,1.000166,6,-1.000000,""
python3action_modeltraining_job16_18,w0,python3action_modeltraining,0.997085,1,2000.000000,1,COMPLETED_SUCCESSFULLY,1.002370,30.499683,31.502053,0.005285,30.504968,1.000173,27,-1.000000,""
python3action_modeltraining_job19_20,w0,python3action_modeltraining,0.997085,1,2000.000000,1,COMPLETED_SUCCESSFULLY,1.002400,30.499683,31.502083,0.005315,30.504998,1.000174,29,-1.000000,""
8_updated,w0,python3action_floatoperation_100000000_nova,0.997085,1,2000.000000,1,COMPLETED_SUCCESSFULLY,3.442135,66.200020,69.642155,2.445050,68.645070,1.036934,7,-1.000000,""
8,w0,python3action_floatoperation_100000000,0.000000,1,-1.000000,1,COMPLETED_SUCCESSFULLY,69.642170,0.000010,69.642180,69.642170,69.642180,6964218.000201,7,-1.000000,""
13_updated,w0,python3action_chameleon_2000_taurus,0.997085,1,2000.000000,1,COMPLETED_SUCCESSFULLY,6.043121,64.199977,70.243098,5.046036,69.246013,1.078599,15,-1.000000,""
13,w0,python3action_chameleon_2000,0.000000,1,-1.000000,1,COMPLETED_SUCCESSFULLY,70.243113,0.000010,70.243123,70.243113,70.243123,7024312.300201,15,-1.000000,""
python3action_video_processing_job2_8,w0,python3action_video_processing,0.997085,1,2000.000000,1,COMPLETED_SUCCESSFULLY,1.002220,72.012455,73.014675,0.005135,72.017590,1.000071,10,-1.000000,""
python3action_video_processing_job6_9,w0,python3action_video_processing,0.997085,1,2000.000000,1,COMPLETED_SUCCESSFULLY,1.002235,72.012455,73.014690,0.005150,72.017605,1.000072,11,-1.000000,""
python3action_video_processing_job10_10,w0,python3action_video_processing,0.997085,1,2000.000000,1,COMPLETED_SUCCESSFULLY,1.002250,72.012455,73.014705,0.005165,72.017620,1.000072,13,-1.000000,""
python3action_image_processing_job11_11,w0,python3action_image_processing,0.997085,1,2000.000000,1,COMPLETED_SUCCESSFULLY,1.002265,72.012455,73.014720,0.005180,72.017635,1.000072,14,-1.000000,""
python3action_facedetection_job21_13,w0,python3action_facedetection,0.997085,1,2000.000000,1,COMPLETED_SUCCESSFULLY,1.002295,72.012455,73.014750,0.005210,72.017665,1.000072,16,-1.000000,""
1_updated,w0,python3action_modeltraining_reviews50mb_nova,0.997085,1,2000.000000,1,COMPLETED_SUCCESSFULLY,31.501813,42.399990,73.901803,30.504728,72.904718,1.719451,3,-1.000000,""
1,w0,python3action_modeltraining_reviews50mb,0.000000,1,-1.000000,1,COMPLETED_SUCCESSFULLY,73.901818,0.000010,73.901828,73.901818,73.901828,7390182.823505,3,-1.000000,""
python3action_facedetection_job22_2,w0,python3action_facedetection_reduced_0.91,0.997085,1,2000.000000,1,COMPLETED_SUCCESSFULLY,73.901848,0.000000,73.901848,72.904763,72.904763,16602642827519.330078,3,-1.000000,""
16_updated,w0,python3action_modeltraining_reviews50mb_nova,0.997085,1,2000.000000,1,COMPLETED_SUCCESSFULLY,31.502068,42.399990,73.902058,30.504983,72.904973,1.719457,27,-1.000000,""
16,w0,python3action_modeltraining_reviews50mb,0.000000,1,-1.000000,1,COMPLETED_SUCCESSFULLY,73.902073,0.000010,73.902083,73.902073,73.902083,7390208.323505,27,-1.000000,""
14_updated,w0,python3action_imageprocessing_SampleImage_60mb_troll,0.997085,1,2000.000000,1,COMPLETED_SUCCESSFULLY,13.401220,62.000000,75.401220,12.404135,74.404135,1.200067,20,-1.000000,""
14,w0,python3action_imageprocessing_SampleImage_60mb,0.000000,1,-1.000000,1,COMPLETED_SUCCESSFULLY,75.401235,0.000010,75.401245,75.401235,75.401245,7540124.512193,20,-1.000000,""
python3action_pyaes_job32_19,w0,python3action_pyaes,0.997085,1,2000.000000,1,COMPLETED_SUCCESSFULLY,73.902103,2.134958,76.037061,72.905018,75.039976,35.148217,27,-1.000000,""
0_updated,w0,python3action_pyaes_3000_nova,0.997085,1,2000.000000,1,COMPLETED_SUCCESSFULLY,3.137073,78.200020,81.337093,2.139988,80.340008,1.027366,2,-1.000000,""
0,w0,python3action_pyaes_3000,0.000000,1,-1.000000,1,COMPLETED_SUCCESSFULLY,81.337108,0.000010,81.337118,81.337108,81.337118,8133711.800201,2,-1.000000,""
9_updated,w0,python3action_pyaes_3000_nova,0.997085,1,2000.000000,1,COMPLETED_SUCCESSFULLY,3.137313,78.200020,81.337333,2.140228,80.340248,1.027369,25,-1.000000,""
9,w0,python3action_pyaes_3000,0.000000,1,-1.000000,1,COMPLETED_SUCCESSFULLY,81.337348,0.000010,81.337358,81.337348,81.337358,8133735.800201,25,-1.000000,""
15_updated,w0,python3action_pyaes_3000_nova,0.997085,1,2000.000000,1,COMPLETED_SUCCESSFULLY,3.137343,78.200020,81.337363,2.140258,80.340278,1.027369,26,-1.000000,""
15,w0,python3action_pyaes_3000,0.000000,1,-1.000000,1,COMPLETED_SUCCESSFULLY,81.337393,0.000010,81.337403,81.337393,81.337403,8133740.300402,26,-1.000000,""
4_updated,w0,python3action_chameleon_3000_troll,0.997085,1,2000.000000,1,COMPLETED_SUCCESSFULLY,1.870239,94.000000,95.870239,0.873154,94.873154,1.009289,19,-1.000000,""
4,w0,python3action_chameleon_3000,0.000000,1,-1.000000,1,COMPLETED_SUCCESSFULLY,95.870254,0.000010,95.870264,95.870254,95.870264,9587026.400402,19,-1.000000,""
python3action_video_processing_job28_6,w0,python3action_video_processing,0.997085,1,2000.000000,1,COMPLETED_SUCCESSFULLY,69.642200,30.499683,100.141883,68.645115,99.144798,3.250683,7,-1.000000,""
11_updated,w0,python3action_imageprocessing_SampleImage_40mb_taurus,0.997085,1,2000.000000,1,COMPLETED_SUCCESSFULLY,73.014765,32.600046,105.614811,72.017680,104.617726,3.209128,14,-1.000000,""
11,w0,python3action_imageprocessing_SampleImage_40mb,0.000000,1,-1.000000,1,COMPLETED_SUCCESSFULLY,105.614826,0.000010,105.614836,105.614826,105.614836,10561483.647372,14,-1.000000,""
python3action_facedetection_job37_12,w0,python3action_facedetection_reduced_0.91,0.997085,1,2000.000000,1,COMPLETED_SUCCESSFULLY,105.614856,0.000000,105.614856,104.617771,104.617771,10084686571992.585938,14,-1.000000,""
python3action_image_processing_job18_15,w0,python3action_image_processing,0.997085,1,2000.000000,1,COMPLETED_SUCCESSFULLY,95.870284,12.398880,108.269164,94.873199,107.272079,8.651756,19,-1.000000,""
19_updated,w0,python3action_modeltraining_reviews100mb_nova,0.997085,1,2000.000000,1,COMPLETED_SUCCESSFULLY,31.502098,79.600010,111.102108,30.505013,110.105023,1.383229,29,-1.000000,""
19,w0,python3action_modeltraining_reviews100mb,0.000000,1,-1.000000,1,COMPLETED_SUCCESSFULLY,111.102123,0.000010,111.102133,111.102123,111.102133,11110213.300201,29,-1.000000,""
python3action_modeltraining_job20_1,w0,python3action_modeltraining,0.997085,1,2000.000000,1,COMPLETED_SUCCESSFULLY,81.337138,30.499683,111.836821,80.340053,110.839736,3.634128,2,-1.000000,""
python3action_video_processing_job30_17,w0,python3action_video_processing,0.997085,1,2000.000000,1,COMPLETED_SUCCESSFULLY,81.337378,30.499683,111.837061,80.340293,110.839976,3.634135,25,-1.000000,""
python3action_modeltraining_job31_18,w0,python3action_modeltraining,0.997085,1,2000.000000,1,COMPLETED_SUCCESSFULLY,81.337423,30.499683,111.837106,80.340338,110.840021,3.634137,26,-1.000000,""
12_updated,w0,python3action_linpack_6000_orion,0.997085,1,2000.000000,1,COMPLETED_SUCCESSFULLY,6.763132,106.000000,112.763132,5.766047,111.766047,1.054397,8,-1.000000,""
12,w0,python3action_linpack_6000,0.000000,1,-1.000000,1,COMPLETED_SUCCESSFULLY,112.763147,0.000010,112.763157,112.763147,112.763157,11276315.724677,8,-1.000000,""
44_updated,w0,python3action_linpack_6000_orion,0.997085,1,2000.000000,1,COMPLETED_SUCCESSFULLY,6.763162,106.000000,112.763162,5.766077,111.766077,1.054397,9,-1.000000,""
44,w0,python3action_linpack_6000,0.000000,1,-1.000000,1,COMPLETED_SUCCESSFULLY,112.763192,0.000010,112.763202,112.763192,112.763202,11276320.225279,9,-1.000000,""
python3action_floatoperation_job35_21,w0,python3action_floatoperation,0.997085,1,2000.000000,1,COMPLETED_SUCCESSFULLY,111.102153,2.439945,113.542098,110.105068,112.545013,46.126040,29,-1.000000,""
39_updated,w0,python3action_chameleon_2000_taurus,0.997085,1,2000.000000,1,COMPLETED_SUCCESSFULLY,70.243143,64.199977,134.443120,69.246058,133.446035,2.078599,15,-1.000000,""
39,w0,python3action_chameleon_2000,0.000000,1,-1.000000,1,COMPLETED_SUCCESSFULLY,134.443135,0.000010,134.443145,134.443135,134.443145,13444314.500201,15,-1.000000,""
26_updated,w0,python3action_imageprocessing_SampleImage_60mb_troll,0.997085,1,2000.000000,1,COMPLETED_SUCCESSFULLY,75.401265,62.000000,137.401265,74.404180,136.404180,2.200067,20,-1.000000,""
26,w0,python3action_imageprocessing_SampleImage_60mb,0.000000,1,-1.000000,1,COMPLETED_SUCCESSFULLY,137.401280,0.000010,137.401290,137.401280,137.401290,13740129.012795,20,-1.000000,""
5_updated,w0,python3action_videoprocessing_SampleVideo_30mb_nova,0.997085,1,2000.000000,1,COMPLETED_SUCCESSFULLY,31.501843,106.799980,138.301823,30.504758,137.304738,1.285625,5,-1.000000,""
5,w0,python3action_videoprocessing_SampleVideo_30mb,0.000000,1,-1.000000,1,COMPLETED_SUCCESSFULLY,138.301838,0.000010,138.301848,138.301838,138.301848,13830184.800201,5,-1.000000,""
17_updated,w0,python3action_floatoperation_200000000_nova,0.997085,1,2000.000000,1,COMPLETED_SUCCESSFULLY,3.442345,135.399990,138.842336,2.445260,137.845251,1.018060,28,-1.000000,""
17,w0,python3action_floatoperation_200000000,0.000000,1,-1.000000,1,COMPLETED_SUCCESSFULLY,138.842351,0.000010,138.842361,138.842351,138.842361,13884236.100201,28,-1.000000,""
python3action_floatoperation_job24_4,w0,python3action_floatoperation,0.997085,1,2000.000000,1,COMPLETED_SUCCESSFULLY,138.301868,2.439945,140.741813,137.304783,139.744728,57.273714,5,-1.000000,""
python3action_pyaes_job33_20,w0,python3action_pyaes,0.997085,1,2000.000000,1,COMPLETED_SUCCESSFULLY,138.842381,2.134958,140.977339,137.845296,139.980254,65.565804,28,-1.000000,""
3_updated,w0,python3action_pyaes_4000_nova,0.997085,1,2000.000000,1,COMPLETED_SUCCESSFULLY,3.137103,139.600010,142.737113,2.140018,141.740028,1.015330,4,-1.000000,""
3,w0,python3action_pyaes_4000,0.000000,1,-1.000000,1,COMPLETED_SUCCESSFULLY,142.737128,0.000010,142.737138,142.737128,142.737138,14273713.801668,4,-1.000000,""
20_updated,w0,python3action_modeltraining_reviews50mb_nova,0.997085,1,2000.000000,1,COMPLETED_SUCCESSFULLY,111.836836,42.399990,154.236826,110.839751,153.239741,3.614146,2,-1.000000,""
20,w0,python3action_modeltraining_reviews50mb,0.000000,1,-1.000000,1,COMPLETED_SUCCESSFULLY,154.236841,0.000010,154.236851,154.236841,154.236851,15423685.123505,2,-1.000000,""
python3action_video_processing_job41_1,w0,python3action_video_processing_reduced_0.97,0.997085,1,2000.000000,1,COMPLETED_SUCCESSFULLY,154.236871,0.000000,154.236871,153.239786,153.239786,3136501255293.866211,2,-1.000000,""
32_updated,w0,python3action_pyaes_3000_nova,0.997085,1,2000.000000,1,COMPLETED_SUCCESSFULLY,76.037076,78.200020,154.237096,75.039991,153.240011,1.959590,27,-1.000000,""
32,w0,python3action_pyaes_3000,0.000000,1,-1.000000,1,COMPLETED_SUCCESSFULLY,154.237111,0.000010,154.237121,154.237111,154.237121,15423712.101869,27,-1.000000,""
python3action_floatoperation_job59_19,w0,python3action_floatoperation,0.997085,1,2000.000000,1,COMPLETED_SUCCESSFULLY,154.237141,2.439945,156.677086,153.240056,155.680001,63.804710,27,-1.000000,""
18_updated,w0,python3action_imageprocessing_SampleImage_60mb_troll,0.997085,1,2000.000000,1,COMPLETED_SUCCESSFULLY,108.269179,62.000000,170.269179,107.272094,169.272094,2.730195,19,-1.000000,""
18,w0,python3action_imageprocessing_SampleImage_60mb,0.000000,1,-1.000000,1,COMPLETED_SUCCESSFULLY,170.269194,0.000010,170.269204,170.269194,170.269204,17026920.409783,19,-1.000000,""
python3action_video_processing_job23_3,w0,python3action_video_processing,0.997085,1,2000.000000,1,COMPLETED_SUCCESSFULLY,142.737158,30.499683,173.236841,141.740073,172.239756,5.647264,4,-1.000000,""
31_updated,w0,python3action_modeltraining_reviews100mb_nova,0.997085,1,2000.000000,1,COMPLETED_SUCCESSFULLY,111.837121,79.600010,191.437131,110.840036,190.440046,2.392463,26,-1.000000,""
31,w0,python3action_modeltraining_reviews100mb,0.000000,1,-1.000000,1,COMPLETED_SUCCESSFULLY,191.437146,0.000010,191.437156,191.437146,191.437156,19143715.600201,26,-1.000000,""
7_updated,w0,python3action_facedetection_SampleVideo_30mb_nova,0.997085,1,2000.000000,1,COMPLETED_SUCCESSFULLY,31.501873,160.399990,191.901863,30.504788,190.904778,1.190179,6,-1.000000,""
7,w0,python3action_facedetection_SampleVideo_30mb,0.000000,1,-1.000000,1,COMPLETED_SUCCESSFULLY,191.901878,0.000010,191.901888,191.901878,191.901888,19190188.823505,6,-1.000000,""
python3action_floatoperation_job27_5,w0,python3action_floatoperation,0.997085,1,2000.000000,1,COMPLETED_SUCCESSFULLY,191.901908,2.439945,194.341854,190.904823,193.344769,79.241436,6,-1.000000,""
38_updated,w0,python3action_imageprocessing_SampleImage_60mb_troll,0.997085,1,2000.000000,1,COMPLETED_SUCCESSFULLY,137.401310,62.000000,199.401310,136.404225,198.404225,3.200068,20,-1.000000,""
38,w0,python3action_imageprocessing_SampleImage_60mb,0.000000,1,-1.000000,1,COMPLETED_SUCCESSFULLY,199.401325,0.000010,199.401335,199.401325,199.401335,19940133.513397,20,-1.000000,""
python3action_video_processing_job52_13,w0,python3action_video_processing,0.997085,1,2000.000000,1,COMPLETED_SUCCESSFULLY,134.443165,72.012455,206.455620,133.446080,205.458535,2.853097,15,-1.000000,""
24_updated,w0,python3action_floatoperation_100000000_nova,0.997085,1,2000.000000,1,COMPLETED_SUCCESSFULLY,140.741828,66.200020,206.941848,139.744743,205.944763,3.110947,5,-1.000000,""
24,w0,python3action_floatoperation_100000000,0.000000,1,-1.000000,1,COMPLETED_SUCCESSFULLY,206.941863,0.000010,206.941873,206.941863,206.941873,20694187.300201,5,-1.000000,""
28_updated,w0,python3action_videoprocessing_SampleVideo_30mb_nova,0.997085,1,2000.000000,1,COMPLETED_SUCCESSFULLY,100.141898,106.799980,206.941878,99.144813,205.944793,1.928322,7,-1.000000,""
python3action_modeltraining_job48_4,w0,python3action_modeltraining_reduced_1.0,0.997085,1,2000.000000,1,COMPLETED_SUCCESSFULLY,206.941893,0.000000,206.941893,205.944808,205.944808,70349890821816.710938,5,-1.000000,""
28,w0,python3action_videoprocessing_SampleVideo_30mb,0.000000,1,-1.000000,1,COMPLETED_SUCCESSFULLY,206.941923,0.000010,206.941933,206.941923,206.941933,20694193.301004,7,-1.000000,""
21_updated,w0,python3action_facedetection_SampleVideo_50mb_taurus,0.997085,1,2000.000000,1,COMPLETED_SUCCESSFULLY,73.014780,134.600046,207.614826,72.017695,206.617741,1.535050,16,-1.000000,""
21,w0,python3action_facedetection_SampleVideo_50mb,0.000000,1,-1.000000,1,COMPLETED_SUCCESSFULLY,207.614841,0.000010,207.614851,207.614841,207.614851,20761485.147572,16,-1.000000,""
python3action_image_processing_job40_14,w0,python3action_image_processing_reduced_0.86,0.997085,1,2000.000000,1,COMPLETED_SUCCESSFULLY,207.614871,0.000000,207.614871,206.617786,206.617786,12798797675483.335938,16,-1.000000,""
python3action_pyaes_job51_6,w0,python3action_pyaes,0.997085,1,2000.000000,1,COMPLETED_SUCCESSFULLY,206.941968,2.134958,209.076926,205.944883,208.079841,97.463190,7,-1.000000,""
30_updated,w0,python3action_videoprocessing_SampleVideo_30mb_nova,0.997085,1,2000.000000,1,COMPLETED_SUCCESSFULLY,111.837076,106.799980,218.637056,110.839991,217.639971,2.037828,25,-1.000000,""
30,w0,python3action_videoprocessing_SampleVideo_30mb,0.000000,1,-1.000000,1,COMPLETED_SUCCESSFULLY,218.637071,0.000010,218.637081,218.637071,218.637081,21863708.146609,25,-1.000000,""
54_updated,w0,python3action_linpack_6000_orion,0.997085,1,2000.000000,1,COMPLETED_SUCCESSFULLY,112.763177,106.000000,218.763177,111.766092,217.766092,2.054397,8,-1.000000,""
54,w0,python3action_linpack_6000,0.000000,1,-1.000000,1,COMPLETED_SUCCESSFULLY,218.763192,0.000010,218.763202,218.763192,218.763202,21876320.225279,8,-1.000000,""
55_updated,w0,python3action_linpack_6000_orion,0.997085,1,2000.000000,1,COMPLETED_SUCCESSFULLY,112.763222,106.000000,218.763222,111.766137,217.766137,2.054398,9,-1.000000,""
55,w0,python3action_linpack_6000,0.000000,1,-1.000000,1,COMPLETED_SUCCESSFULLY,218.763252,0.000010,218.763262,218.763252,218.763262,21876326.226082,9,-1.000000,""
python3action_floatoperation_job56_17,w0,python3action_floatoperation,0.997085,1,2000.000000,1,COMPLETED_SUCCESSFULLY,218.637101,2.439945,221.077047,217.640016,220.079962,90.198728,25,-1.000000,""
2_updated,w0,python3action_videoprocessing_SampleVideo_50mb_taurus,0.997085,1,2000.000000,1,COMPLETED_SUCCESSFULLY,73.014690,154.250029,227.264719,72.017605,226.267634,1.466889,10,-1.000000,""
2,w0,python3action_videoprocessing_SampleVideo_50mb,0.000000,1,-1.000000,1,COMPLETED_SUCCESSFULLY,227.264734,0.000010,227.264744,227.264734,227.264744,22726474.416463,10,-1.000000,""
6_updated,w0,python3action_videoprocessing_SampleVideo_50mb_taurus,0.997085,1,2000.000000,1,COMPLETED_SUCCESSFULLY,73.014720,154.250029,227.264749,72.017635,226.267664,1.466889,11,-1.000000,""
10_updated,w0,python3action_videoprocessing_SampleVideo_50mb_taurus,0.997085,1,2000.000000,1,COMPLETED_SUCCESSFULLY,73.014735,154.250029,227.264764,72.017650,226.267679,1.466889,13,-1.000000,""
python3action_facedetection_job25_9,w0,python3action_facedetection_reduced_0.91,0.997085,1,2000.000000,1,COMPLETED_SUCCESSFULLY,227.264764,0.000000,227.264764,226.267679,226.267679,21811195111086.402344,10,-1.000000,""
6,w0,python3action_videoprocessing_SampleVideo_50mb,0.000000,1,-1.000000,1,COMPLETED_SUCCESSFULLY,227.264779,0.000010,227.264789,227.264779,227.264789,22726478.917066,11,-1.000000,""
10,w0,python3action_videoprocessing_SampleVideo_50mb,0.000000,1,-1.000000,1,COMPLETED_SUCCESSFULLY,227.264809,0.000010,227.264819,227.264809,227.264819,22726481.917467,13,-1.000000,""
python3action_chameleon_job29_10,w0,python3action_chameleon,0.997085,1,2000.000000,1,COMPLETED_SUCCESSFULLY,227.264839,5.040826,232.305665,226.267754,231.308580,45.887041,11,-1.000000,""
python3action_chameleon_job34_11,w0,python3action_chameleon,0.997085,1,2000.000000,1,COMPLETED_SUCCESSFULLY,227.264869,5.040826,232.305695,226.267784,231.308610,45.887047,13,-1.000000,""
22_updated,w0,python3action_facedetection_SampleVideo_30mb_nova,0.997085,1,2000.000000,1,COMPLETED_SUCCESSFULLY,73.901878,160.399990,234.301868,72.904793,233.304783,1.454519,3,-1.000000,""
22,w0,python3action_facedetection_SampleVideo_30mb,0.000000,1,-1.000000,1,COMPLETED_SUCCESSFULLY,234.301883,0.000010,234.301893,234.301883,234.301893,23430189.347613,3,-1.000000,""
37_updated,w0,python3action_facedetection_SampleVideo_50mb_taurus,0.997085,1,2000.000000,1,COMPLETED_SUCCESSFULLY,105.614886,134.600046,240.214933,104.617801,239.217848,1.777249,14,-1.000000,""
40_updated,w0,python3action_imageprocessing_SampleImage_40mb_taurus,0.997085,1,2000.000000,1,COMPLETED_SUCCESSFULLY,207.614901,32.600046,240.214948,206.617816,239.217863,7.337961,16,-1.000000,""
37,w0,python3action_facedetection_SampleVideo_50mb,0.000000,1,-1.000000,1,COMPLETED_SUCCESSFULLY,240.214948,0.000010,240.214958,240.214948,240.214958,24021495.761654,14,-1.000000,""
40,w0,python3action_imageprocessing_SampleImage_40mb,0.000000,1,-1.000000,1,COMPLETED_SUCCESSFULLY,240.214978,0.000010,240.214988,240.214978,240.214988,24021498.800201,16,-1.000000,""
python3action_chameleon_job49_12,w0,python3action_chameleon,0.997085,1,2000.000000,1,COMPLETED_SUCCESSFULLY,240.214993,5.040826,245.255819,239.217908,244.258734,48.456096,14,-1.000000,""
35_updated,w0,python3action_floatoperation_200000000_nova,0.997085,1,2000.000000,1,COMPLETED_SUCCESSFULLY,113.542113,135.399990,248.942104,112.545028,247.945019,1.831204,29,-1.000000,""
35,w0,python3action_floatoperation_200000000,0.000000,1,-1.000000,1,COMPLETED_SUCCESSFULLY,248.942119,0.000010,248.942129,248.942119,248.942129,24894212.900201,29,-1.000000,""
48_updated,w0,python3action_modeltraining_reviews50mb_nova,0.997085,1,2000.000000,1,COMPLETED_SUCCESSFULLY,206.941938,42.399990,249.341928,205.944853,248.344843,5.857191,5,-1.000000,""
48,w0,python3action_modeltraining_reviews50mb,0.000000,1,-1.000000,1,COMPLETED_SUCCESSFULLY,249.341943,0.000010,249.341953,249.341943,249.341953,24934195.324509,5,-1.000000,""
python3action_linpack_job61_21,w0,python3action_linpack,0.997085,1,2000.000000,1,COMPLETED_SUCCESSFULLY,248.942149,2.439945,251.382094,247.945064,250.385009,102.619108,29,-1.000000,""
41_updated,w0,python3action_videoprocessing_SampleVideo_30mb_nova,0.997085,1,2000.000000,1,COMPLETED_SUCCESSFULLY,154.236901,106.799980,261.036882,153.239816,260.039797,2.434830,2,-1.000000,""
41,w0,python3action_videoprocessing_SampleVideo_30mb,0.000000,1,-1.000000,1,COMPLETED_SUCCESSFULLY,261.036897,0.000010,261.036907,261.036897,261.036907,26103690.700201,2,-1.000000,""
65_updated,w0,python3action_imageprocessing_SampleImage_60mb_troll,0.997085,1,2000.000000,1,COMPLETED_SUCCESSFULLY,199.401355,62.000000,261.401355,198.404270,260.404270,4.200069,20,-1.000000,""
65,w0,python3action_imageprocessing_SampleImage_60mb,0.000000,1,-1.000000,1,COMPLETED_SUCCESSFULLY,261.401370,0.000010,261.401380,261.401370,261.401380,26140138.014000,20,-1.000000,""
36_updated,w0,python3action_chameleon_3000_troll,0.997085,1,2000.000000,1,COMPLETED_SUCCESSFULLY,170.269224,94.000000,264.269224,169.272139,263.272139,2.800767,19,-1.000000,""
36,w0,python3action_chameleon_3000,0.000000,1,-1.000000,1,COMPLETED_SUCCESSFULLY,264.269239,0.000010,264.269249,264.269239,264.269249,26426924.910385,19,-1.000000,""
57_updated,w0,python3action_modeltraining_reviews100mb_nova,0.997085,1,2000.000000,1,COMPLETED_SUCCESSFULLY,191.437176,79.600010,271.037186,190.440091,270.040101,3.392463,26,-1.000000,""
57,w0,python3action_modeltraining_reviews100mb,0.000000,1,-1.000000,1,COMPLETED_SUCCESSFULLY,271.037201,0.000010,271.037211,271.037201,271.037211,27103721.100201,26,-1.000000,""
python3action_floatoperation_job72_18,w0,python3action_floatoperation,0.997085,1,2000.000000,1,COMPLETED_SUCCESSFULLY,271.037231,2.439945,273.477176,270.040146,272.480091,111.674672,26,-1.000000,""
42_updated,w0,python3action_modeltraining_reviews50mb_nova,0.997085,1,2000.000000,1,COMPLETED_SUCCESSFULLY,234.301913,42.399990,276.701904,233.304828,275.704819,6.502474,3,-1.000000,""
42,w0,python3action_modeltraining_reviews50mb,0.000000,1,-1.000000,1,COMPLETED_SUCCESSFULLY,276.701919,0.000010,276.701929,276.701919,276.701929,27670192.900201,3,-1.000000,""
python3action_floatoperation_job63_2,w0,python3action_floatoperation,0.997085,1,2000.000000,1,COMPLETED_SUCCESSFULLY,276.701949,2.439945,279.141894,275.704864,278.144809,113.996330,3,-1.000000,""
23_updated,w0,python3action_videoprocessing_SampleVideo_30mb_nova,0.997085,1,2000.000000,1,COMPLETED_SUCCESSFULLY,173.236856,106.799980,280.036836,172.239771,279.039751,2.612732,4,-1.000000,""
23,w0,python3action_videoprocessing_SampleVideo_30mb,0.000000,1,-1.000000,1,COMPLETED_SUCCESSFULLY,280.036851,0.000010,280.036861,280.036851,280.036861,28003686.146609,4,-1.000000,""
33_updated,w0,python3action_pyaes_4000_nova,0.997085,1,2000.000000,1,COMPLETED_SUCCESSFULLY,140.977354,139.600010,280.577364,139.980269,279.580279,2.002724,28,-1.000000,""
33,w0,python3action_pyaes_4000,0.000000,1,-1.000000,1,COMPLETED_SUCCESSFULLY,280.577379,0.000010,280.577389,280.577379,280.577389,28057738.901668,28,-1.000000,""
python3action_linpack_job60_20,w0,python3action_linpack_reduced_0.85,0.997085,1,2000.000000,1,COMPLETED_SUCCESSFULLY,280.577409,0.365992,280.943401,279.580324,279.946316,764.897794,28,-1.000000,""
python3action_floatoperation_job46_3,w0,python3action_floatoperation,0.997085,1,2000.000000,1,COMPLETED_SUCCESSFULLY,280.036881,2.439945,282.476827,279.039796,281.479742,115.363136,4,-1.000000,""
61_updated,w0,python3action_linpack_5000_nova,0.997085,1,2000.000000,1,COMPLETED_SUCCESSFULLY,251.382109,34.600010,285.982119,250.385024,284.985034,8.236559,29,-1.000000,""
61,w0,python3action_linpack_5000,0.000000,1,-1.000000,1,COMPLETED_SUCCESSFULLY,285.982134,0.000010,285.982144,285.982134,285.982144,28598214.407281,29,-1.000000,""
python3action_video_processing_job75_21,w0,python3action_video_processing_reduced_0.97,0.997085,1,2000.000000,1,COMPLETED_SUCCESSFULLY,285.982164,0.000000,285.982164,284.985079,284.985079,5836449977884.677734,29,-1.000000,""
51_updated,w0,python3action_pyaes_3000_nova,0.997085,1,2000.000000,1,COMPLETED_SUCCESSFULLY,209.076941,78.200020,287.276961,208.079856,286.279876,3.660867,7,-1.000000,""
51,w0,python3action_pyaes_3000,0.000000,1,-1.000000,1,COMPLETED_SUCCESSFULLY,287.276976,0.000010,287.276986,287.276976,287.276986,28727698.600201,7,-1.000000,""
python3action_facedetection_job70_6,w0,python3action_facedetection_reduced_0.91,0.997085,1,2000.000000,1,COMPLETED_SUCCESSFULLY,287.277006,0.000000,287.277006,286.279921,286.279921,65406358845698.320312,7,-1.000000,""
67_updated,w0,python3action_modeltraining_reviews50mb_nova,0.997085,1,2000.000000,1,COMPLETED_SUCCESSFULLY,249.341973,42.399990,291.741963,248.344888,290.744878,6.857192,5,-1.000000,""
67,w0,python3action_modeltraining_reviews50mb,0.000000,1,-1.000000,1,COMPLETED_SUCCESSFULLY,291.741978,0.000010,291.741988,291.741978,291.741988,29174198.848215,5,-1.000000,""
59_updated,w0,python3action_floatoperation_200000000_nova,0.997085,1,2000.000000,1,COMPLETED_SUCCESSFULLY,156.677101,135.399990,292.077092,155.680016,291.080007,2.149779,27,-1.000000,""
59,w0,python3action_floatoperation_200000000,0.000000,1,-1.000000,1,COMPLETED_SUCCESSFULLY,292.077107,0.000010,292.077117,292.077107,292.077117,29207711.700201,27,-1.000000,""
python3action_linpack_job73_19,w0,python3action_linpack_reduced_0.85,0.997085,1,2000.000000,1,COMPLETED_SUCCESSFULLY,292.077137,0.365992,292.443129,291.080052,291.446044,796.318520,27,-1.000000,""
29_updated,w0,python3action_chameleon_2000_taurus,0.997085,1,2000.000000,1,COMPLETED_SUCCESSFULLY,232.305680,64.199977,296.505657,231.308595,295.508572,4.602939,11,-1.000000,""
29,w0,python3action_chameleon_2000,0.000000,1,-1.000000,1,COMPLETED_SUCCESSFULLY,296.505672,0.000010,296.505682,296.505672,296.505682,29650568.200201,11,-1.000000,""
34_updated,w0,python3action_chameleon_2000_taurus,0.997085,1,2000.000000,1,COMPLETED_SUCCESSFULLY,232.305710,64.199977,296.505687,231.308625,295.508602,4.602939,13,-1.000000,""
python3action_image_processing_job45_10,w0,python3action_image_processing_reduced_0.86,0.997085,1,2000.000000,1,COMPLETED_SUCCESSFULLY,296.505702,0.000000,296.505702,295.508617,295.508617,18305079464886.210938,11,-1.000000,""
34,w0,python3action_chameleon_2000,0.000000,1,-1.000000,1,COMPLETED_SUCCESSFULLY,296.505717,0.000010,296.505727,296.505717,296.505727,29650572.700402,13,-1.000000,""
49_updated,w0,python3action_chameleon_2000_taurus,0.997085,1,2000.000000,1,COMPLETED_SUCCESSFULLY,245.255834,64.199977,309.455811,244.258749,308.458726,4.804655,14,-1.000000,""
49,w0,python3action_chameleon_2000,0.000000,1,-1.000000,1,COMPLETED_SUCCESSFULLY,309.455826,0.000010,309.455836,309.455826,309.455836,30945583.600201,14,-1.000000,""
python3action_video_processing_job80_12,w0,python3action_video_processing_reduced_1.83,0.997085,1,2000.000000,1,COMPLETED_SUCCESSFULLY,309.455856,0.000000,309.455856,308.458771,308.458771,2674452482292.714844,14,-1.000000,""
60_updated,w0,python3action_linpack_5000_nova,0.997085,1,2000.000000,1,COMPLETED_SUCCESSFULLY,280.943416,34.600010,315.543426,279.946331,314.546341,9.090932,28,-1.000000,""
60,w0,python3action_linpack_5000,0.000000,1,-1.000000,1,COMPLETED_SUCCESSFULLY,315.543441,0.000010,315.543451,315.543441,315.543451,31554345.100201,28,-1.000000,""
120_updated,w0,python3action_imageprocessing_SampleImage_60mb_troll,0.997085,1,2000.000000,1,COMPLETED_SUCCESSFULLY,261.401400,62.000000,323.401400,260.404315,322.404315,5.200070,20,-1.000000,""
120,w0,python3action_imageprocessing_SampleImage_60mb,0.000000,1,-1.000000,1,COMPLETED_SUCCESSFULLY,323.401415,0.000010,323.401425,323.401415,323.401425,32340142.514602,20,-1.000000,""
90_updated,w0,python3action_linpack_6000_orion,0.997085,1,2000.000000,1,COMPLETED_SUCCESSFULLY,218.763222,106.000000,324.763222,217.766137,323.766137,3.054398,8,-1.000000,""
90,w0,python3action_linpack_6000,0.000000,1,-1.000000,1,COMPLETED_SUCCESSFULLY,324.763237,0.000010,324.763247,324.763237,324.763247,32476324.725882,8,-1.000000,""
101_updated,w0,python3action_linpack_6000_orion,0.997085,1,2000.000000,1,COMPLETED_SUCCESSFULLY,218.763282,106.000000,324.763282,217.766197,323.766197,3.054398,9,-1.000000,""
101,w0,python3action_linpack_6000,0.000000,1,-1.000000,1,COMPLETED_SUCCESSFULLY,324.763297,0.000010,324.763307,324.763297,324.763307,32476330.726685,9,-1.000000,""
73_updated,w0,python3action_linpack_5000_nova,0.997085,1,2000.000000,1,COMPLETED_SUCCESSFULLY,292.443144,34.600010,327.043154,291.446059,326.046069,9.423294,27,-1.000000,""
73,w0,python3action_linpack_5000,0.000000,1,-1.000000,1,COMPLETED_SUCCESSFULLY,327.043169,0.000010,327.043179,327.043169,327.043179,32704317.900201,27,-1.000000,""
45_updated,w0,python3action_imageprocessing_SampleImage_40mb_taurus,0.997085,1,2000.000000,1,COMPLETED_SUCCESSFULLY,296.505747,32.600046,329.105793,295.508662,328.108708,10.064670,11,-1.000000,""
45,w0,python3action_imageprocessing_SampleImage_40mb,0.000000,1,-1.000000,1,COMPLETED_SUCCESSFULLY,329.105808,0.000010,329.105818,329.105808,329.105818,32910581.814082,11,-1.000000,""
27_updated,w0,python3action_floatoperation_200000000_nova,0.997085,1,2000.000000,1,COMPLETED_SUCCESSFULLY,194.341869,135.399990,329.741859,193.344784,328.744774,2.427953,6,-1.000000,""
27,w0,python3action_floatoperation_200000000,0.000000,1,-1.000000,1,COMPLETED_SUCCESSFULLY,329.741874,0.000010,329.741884,329.741874,329.741884,32974188.423505,6,-1.000000,""
python3action_pyaes_job50_5,w0,python3action_pyaes,0.997085,1,2000.000000,1,COMPLETED_SUCCESSFULLY,329.741904,2.134958,331.876862,328.744819,330.879777,154.981850,6,-1.000000,""
83_updated,w0,python3action_modeltraining_reviews50mb_nova,0.997085,1,2000.000000,1,COMPLETED_SUCCESSFULLY,291.742008,42.399990,334.141999,290.744923,333.144914,7.857193,5,-1.000000,""
83,w0,python3action_modeltraining_reviews50mb,0.000000,1,-1.000000,1,COMPLETED_SUCCESSFULLY,334.142014,0.000010,334.142024,334.142014,334.142024,33414202.400201,5,-1.000000,""
72_updated,w0,python3action_floatoperation_100000000_nova,0.997085,1,2000.000000,1,COMPLETED_SUCCESSFULLY,273.477191,66.200020,339.677211,272.480106,338.680126,5.116012,26,-1.000000,""
72,w0,python3action_floatoperation_100000000,0.000000,1,-1.000000,1,COMPLETED_SUCCESSFULLY,339.677226,0.000010,339.677236,339.677226,339.677236,33967723.600201,26,-1.000000,""
python3action_video_processing_job92_18,w0,python3action_video_processing_reduced_0.97,0.997085,1,2000.000000,1,COMPLETED_SUCCESSFULLY,339.677256,0.000000,339.677256,338.680171,338.680171,6936117087186.801758,26,-1.000000,""
63_updated,w0,python3action_floatoperation_100000000_nova,0.997085,1,2000.000000,1,COMPLETED_SUCCESSFULLY,279.141909,66.200020,345.341929,278.144824,344.344844,5.201582,3,-1.000000,""
63,w0,python3action_floatoperation_100000000,0.000000,1,-1.000000,1,COMPLETED_SUCCESSFULLY,345.341944,0.000010,345.341954,345.341944,345.341954,34534195.400201,3,-1.000000,""
python3action_facedetection_job74_20,w0,python3action_facedetection,0.997085,1,2000.000000,1,COMPLETED_SUCCESSFULLY,315.543471,30.499683,346.043154,314.546386,345.046069,11.313104,28,-1.000000,""
46_updated,w0,python3action_floatoperation_100000000_nova,0.997085,1,2000.000000,1,COMPLETED_SUCCESSFULLY,282.476842,66.200020,348.676862,281.479757,347.679777,5.251959,4,-1.000000,""
46,w0,python3action_floatoperation_100000000,0.000000,1,-1.000000,1,COMPLETED_SUCCESSFULLY,348.676877,0.000010,348.676887,348.676877,348.676887,34867688.700201,4,-1.000000,""
python3action_modeltraining_job66_3,w0,python3action_modeltraining_reduced_1.0,0.997085,1,2000.000000,1,COMPLETED_SUCCESSFULLY,348.676907,0.000000,348.676907,347.679822,347.679822,117624002165759.046875,4,-1.000000,""
56_updated,w0,python3action_floatoperation_200000000_nova,0.997085,1,2000.000000,1,COMPLETED_SUCCESSFULLY,221.077062,135.399990,356.477052,220.079977,355.479967,2.625406,25,-1.000000,""
56,w0,python3action_floatoperation_200000000,0.000000,1,-1.000000,1,COMPLETED_SUCCESSFULLY,356.477067,0.000010,356.477077,356.477067,356.477077,35647707.723506,25,-1.000000,""
64_updated,w0,python3action_chameleon_3000_troll,0.997085,1,2000.000000,1,COMPLETED_SUCCESSFULLY,264.269269,94.000000,358.269269,263.272184,357.272184,3.800768,19,-1.000000,""
64,w0,python3action_chameleon_3000,0.000000,1,-1.000000,1,COMPLETED_SUCCESSFULLY,358.269284,0.000010,358.269294,358.269284,358.269294,35826929.410988,19,-1.000000,""
52_updated,w0,python3action_videoprocessing_SampleVideo_50mb_taurus,0.997085,1,2000.000000,1,COMPLETED_SUCCESSFULLY,206.455635,154.250029,360.705664,205.458550,359.708579,2.331984,15,-1.000000,""
52,w0,python3action_videoprocessing_SampleVideo_50mb,0.000000,1,-1.000000,1,COMPLETED_SUCCESSFULLY,360.705679,0.000010,360.705689,360.705679,360.705689,36070568.915259,15,-1.000000,""
python3action_image_processing_job81_13,w0,python3action_image_processing_reduced_0.86,0.997085,1,2000.000000,1,COMPLETED_SUCCESSFULLY,360.705709,0.000000,360.705709,359.708624,359.708624,22281905063183.671875,15,-1.000000,""
47_updated,w0,python3action_chameleon_2000_taurus,0.997085,1,2000.000000,1,COMPLETED_SUCCESSFULLY,296.505762,64.199977,360.705739,295.508677,359.708654,5.602941,13,-1.000000,""
47,w0,python3action_chameleon_2000,0.000000,1,-1.000000,1,COMPLETED_SUCCESSFULLY,360.705769,0.000010,360.705779,360.705769,360.705779,36070577.900201,13,-1.000000,""
python3action_facedetection_job76_11,w0,python3action_facedetection_reduced_0.91,0.997085,1,2000.000000,1,COMPLETED_SUCCESSFULLY,360.705799,0.000000,360.705799,359.708714,359.708714,34579577150774.800781,13,-1.000000,""
25_updated,w0,python3action_facedetection_SampleVideo_50mb_taurus,0.997085,1,2000.000000,1,COMPLETED_SUCCESSFULLY,227.264824,134.600046,361.864870,226.267739,360.867785,2.681038,10,-1.000000,""
25,w0,python3action_facedetection_SampleVideo_50mb,0.000000,1,-1.000000,1,COMPLETED_SUCCESSFULLY,361.864885,0.000010,361.864895,361.864885,361.864895,36186489.530947,10,-1.000000,""
62_updated,w0,python3action_videoprocessing_SampleVideo_30mb_nova,0.997085,1,2000.000000,1,COMPLETED_SUCCESSFULLY,261.036927,106.799980,367.836907,260.039842,366.839822,3.434830,2,-1.000000,""
62,w0,python3action_videoprocessing_SampleVideo_30mb,0.000000,1,-1.000000,1,COMPLETED_SUCCESSFULLY,367.836922,0.000010,367.836932,367.836922,367.836932,36783693.247011,2,-1.000000,""
python3action_floatoperation_job77_1,w0,python3action_floatoperation,0.997085,1,2000.000000,1,COMPLETED_SUCCESSFULLY,367.836952,2.439945,370.276898,366.839867,369.279813,151.347579,2,-1.000000,""
53_updated,w0,python3action_facedetection_SampleVideo_50mb_taurus,0.997085,1,2000.000000,1,COMPLETED_SUCCESSFULLY,240.215023,134.600046,374.815069,239.217938,373.817984,2.777250,16,-1.000000,""
53,w0,python3action_facedetection_SampleVideo_50mb,0.000000,1,-1.000000,1,COMPLETED_SUCCESSFULLY,374.815084,0.000010,374.815094,374.815084,374.815094,37481509.414083,16,-1.000000,""
154_updated,w0,python3action_imageprocessing_SampleImage_60mb_troll,0.997085,1,2000.000000,1,COMPLETED_SUCCESSFULLY,323.401445,62.000000,385.401445,322.404360,384.404360,6.200070,20,-1.000000,""
154,w0,python3action_imageprocessing_SampleImage_60mb,0.000000,1,-1.000000,1,COMPLETED_SUCCESSFULLY,385.401460,0.000010,385.401470,385.401460,385.401470,38540147.015205,20,-1.000000,""
python3action_chameleon_job160_16,w0,python3action_chameleon,0.997085,1,2000.000000,1,COMPLETED_SUCCESSFULLY,385.401490,0.867914,386.269404,384.404405,385.272319,443.906272,20,-1.000000,""
66_updated,w0,python3action_modeltraining_reviews50mb_nova,0.997085,1,2000.000000,1,COMPLETED_SUCCESSFULLY,348.676937,42.399990,391.076927,347.679852,390.079842,9.199998,4,-1.000000,""
66,w0,python3action_modeltraining_reviews50mb,0.000000,1,-1.000000,1,COMPLETED_SUCCESSFULLY,391.076942,0.000010,391.076952,391.076942,391.076952,39107695.224309,4,-1.000000,""
75_updated,w0,python3action_videoprocessing_SampleVideo_30mb_nova,0.997085,1,2000.000000,1,COMPLETED_SUCCESSFULLY,285.982194,106.799980,392.782175,284.985109,391.785090,3.668400,29,-1.000000,""
75,w0,python3action_videoprocessing_SampleVideo_30mb,0.000000,1,-1.000000,1,COMPLETED_SUCCESSFULLY,392.782190,0.000010,392.782200,392.782190,392.782200,39278220.000201,29,-1.000000,""
69_updated,w0,python3action_chameleon_2000_taurus,0.997085,1,2000.000000,1,COMPLETED_SUCCESSFULLY,329.105838,64.199977,393.305815,328.108753,392.308730,6.110730,11,-1.000000,""
69,w0,python3action_chameleon_2000,0.000000,1,-1.000000,1,COMPLETED_SUCCESSFULLY,393.305830,0.000010,393.305840,393.305830,393.305840,39330584.008146,11,-1.000000,""
93_updated,w0,python3action_modeltraining_reviews100mb_nova,0.997085,1,2000.000000,1,COMPLETED_SUCCESSFULLY,327.043199,79.600010,406.643209,326.046114,405.646124,5.096056,27,-1.000000,""
93,w0,python3action_modeltraining_reviews100mb,0.000000,1,-1.000000,1,COMPLETED_SUCCESSFULLY,406.643224,0.000010,406.643234,406.643224,406.643234,40664323.400201,27,-1.000000,""
python3action_video_processing_job112_19,w0,python3action_video_processing_reduced_0.97,0.997085,1,2000.000000,1,COMPLETED_SUCCESSFULLY,406.643254,0.000000,406.643254,405.646169,405.646169,8307570283305.532227,27,-1.000000,""
82_updated,w0,python3action_imageprocessing_SampleImage_40mb_taurus,0.997085,1,2000.000000,1,COMPLETED_SUCCESSFULLY,374.815114,32.600046,407.415160,373.818029,406.418075,12.466794,16,-1.000000,""
82,w0,python3action_imageprocessing_SampleImage_40mb,0.000000,1,-1.000000,1,COMPLETED_SUCCESSFULLY,407.415175,0.000010,407.415185,407.415175,407.415185,40741518.527763,16,-1.000000,""
50_updated,w0,python3action_pyaes_3000_nova,0.997085,1,2000.000000,1,COMPLETED_SUCCESSFULLY,331.876877,78.200020,410.076897,330.879792,409.079812,5.231198,6,-1.000000,""
50,w0,python3action_pyaes_3000,0.000000,1,-1.000000,1,COMPLETED_SUCCESSFULLY,410.076912,0.000010,410.076922,410.076912,410.076922,41007692.201870,6,-1.000000,""
python3action_video_processing_job68_5,w0,python3action_video_processing_reduced_0.91,0.997085,1,2000.000000,1,COMPLETED_SUCCESSFULLY,410.076942,0.000000,410.076942,409.079857,409.079857,8377891678425.524414,6,-1.000000,""
78_updated,w0,python3action_floatoperation_100000000_nova,0.997085,1,2000.000000,1,COMPLETED_SUCCESSFULLY,345.341974,66.200020,411.541994,344.344889,410.544909,6.201583,3,-1.000000,""
78,w0,python3action_floatoperation_100000000,0.000000,1,-1.000000,1,COMPLETED_SUCCESSFULLY,411.542009,0.000010,411.542019,411.542009,411.542019,41154201.900201,3,-1.000000,""
python3action_chameleon_job97_14,w0,python3action_chameleon,0.997085,1,2000.000000,1,COMPLETED_SUCCESSFULLY,407.415205,5.040826,412.456031,406.418120,411.458946,81.625306,16,-1.000000,""
105_updated,w0,python3action_modeltraining_reviews100mb_nova,0.997085,1,2000.000000,1,COMPLETED_SUCCESSFULLY,334.142044,79.600010,413.742054,333.144959,412.744969,5.185238,5,-1.000000,""
105,w0,python3action_modeltraining_reviews100mb,0.000000,1,-1.000000,1,COMPLETED_SUCCESSFULLY,413.742069,0.000010,413.742079,413.742069,413.742079,41374207.900201,5,-1.000000,""
python3action_pyaes_job119_4,w0,python3action_pyaes,0.997085,1,2000.000000,1,COMPLETED_SUCCESSFULLY,413.742099,2.134958,415.877057,412.745014,414.879972,194.326973,5,-1.000000,""
108_updated,w0,python3action_imageprocessing_SampleImage_60mb_troll,0.997085,1,2000.000000,1,COMPLETED_SUCCESSFULLY,358.269314,62.000000,420.269314,357.272229,419.272229,6.762455,19,-1.000000,""
108,w0,python3action_imageprocessing_SampleImage_60mb,0.000000,1,-1.000000,1,COMPLETED_SUCCESSFULLY,420.269329,0.000010,420.269339,420.269329,420.269339,42026933.911591,19,-1.000000,""
87_updated,w0,python3action_imageprocessing_SampleImage_40mb_taurus,0.997085,1,2000.000000,1,COMPLETED_SUCCESSFULLY,393.305860,32.600046,425.905906,392.308775,424.908821,13.033994,11,-1.000000,""
87,w0,python3action_imageprocessing_SampleImage_40mb,0.000000,1,-1.000000,1,COMPLETED_SUCCESSFULLY,425.905921,0.000010,425.905931,425.905921,425.905931,42590593.121827,11,-1.000000,""
118_updated,w0,python3action_linpack_6000_orion,0.997085,1,2000.000000,1,COMPLETED_SUCCESSFULLY,324.763267,106.000000,430.763267,323.766182,429.766182,4.054398,8,-1.000000,""
118,w0,python3action_linpack_6000,0.000000,1,-1.000000,1,COMPLETED_SUCCESSFULLY,430.763282,0.000010,430.763292,430.763282,430.763292,43076329.226484,8,-1.000000,""
121_updated,w0,python3action_linpack_6000_orion,0.997085,1,2000.000000,1,COMPLETED_SUCCESSFULLY,324.763327,106.000000,430.763327,323.766242,429.766242,4.054399,9,-1.000000,""
121,w0,python3action_linpack_6000,0.000000,1,-1.000000,1,COMPLETED_SUCCESSFULLY,430.763342,0.000010,430.763352,430.763342,430.763352,43076335.227288,9,-1.000000,""
77_updated,w0,python3action_floatoperation_100000000_nova,0.997085,1,2000.000000,1,COMPLETED_SUCCESSFULLY,370.276913,66.200020,436.476933,369.279828,435.479848,6.578243,2,-1.000000,""
77,w0,python3action_floatoperation_100000000,0.000000,1,-1.000000,1,COMPLETED_SUCCESSFULLY,436.476948,0.000010,436.476958,436.476948,436.476958,43647695.800201,2,-1.000000,""
python3action_facedetection_job98_1,w0,python3action_facedetection_reduced_1.83,0.997085,1,2000.000000,1,COMPLETED_SUCCESSFULLY,436.476978,0.000000,436.476978,435.479893,435.479893,99494068783953.609375,2,-1.000000,""
92_updated,w0,python3action_videoprocessing_SampleVideo_30mb_nova,0.997085,1,2000.000000,1,COMPLETED_SUCCESSFULLY,339.677286,106.799980,446.477266,338.680201,445.480181,4.171164,26,-1.000000,""
92,w0,python3action_videoprocessing_SampleVideo_30mb,0.000000,1,-1.000000,1,COMPLETED_SUCCESSFULLY,446.477281,0.000010,446.477291,446.477281,446.477291,44647729.147412,26,-1.000000,""
70_updated,w0,python3action_facedetection_SampleVideo_30mb_nova,0.997085,1,2000.000000,1,COMPLETED_SUCCESSFULLY,287.277036,160.399990,447.677026,286.279951,446.679941,2.784788,7,-1.000000,""
70,w0,python3action_facedetection_SampleVideo_30mb,0.000000,1,-1.000000,1,COMPLETED_SUCCESSFULLY,447.677041,0.000010,447.677051,447.677041,447.677051,44767705.124309,7,-1.000000,""
79_updated,w0,python3action_floatoperation_100000000_nova,0.997085,1,2000.000000,1,COMPLETED_SUCCESSFULLY,391.076972,66.200020,457.276992,390.079887,456.279907,6.892444,4,-1.000000,""
79,w0,python3action_floatoperation_100000000,0.000000,1,-1.000000,1,COMPLETED_SUCCESSFULLY,457.277007,0.000010,457.277017,457.277007,457.277017,45727701.700201,4,-1.000000,""
81_updated,w0,python3action_imageprocessing_SampleImage_60mb_taurus,0.997085,1,2000.000000,1,COMPLETED_SUCCESSFULLY,360.705739,101.500058,462.205797,359.708654,461.208712,4.543926,15,-1.000000,""
81,w0,python3action_imageprocessing_SampleImage_60mb,0.000000,1,-1.000000,1,COMPLETED_SUCCESSFULLY,462.205812,0.000010,462.205822,462.205812,462.205822,46220582.200201,15,-1.000000,""
80_updated,w0,python3action_videoprocessing_SampleVideo_50mb_taurus,0.997085,1,2000.000000,1,COMPLETED_SUCCESSFULLY,309.455886,154.250029,463.705915,308.458801,462.708830,2.999733,14,-1.000000,""
80,w0,python3action_videoprocessing_SampleVideo_50mb,0.000000,1,-1.000000,1,COMPLETED_SUCCESSFULLY,463.705930,0.000010,463.705940,463.705930,463.705940,46370594.000201,14,-1.000000,""
95_updated,w0,python3action_modeltraining_reviews100mb_nova,0.997085,1,2000.000000,1,COMPLETED_SUCCESSFULLY,392.782220,79.600010,472.382230,391.785135,471.385145,5.921923,29,-1.000000,""
95,w0,python3action_modeltraining_reviews100mb,0.000000,1,-1.000000,1,COMPLETED_SUCCESSFULLY,472.382245,0.000010,472.382255,472.382245,472.382255,47238225.500201,29,-1.000000,""
97_updated,w0,python3action_chameleon_2000_taurus,0.997085,1,2000.000000,1,COMPLETED_SUCCESSFULLY,412.456046,64.199977,476.656023,411.458961,475.658938,7.409020,16,-1.000000,""
97,w0,python3action_chameleon_2000,0.000000,1,-1.000000,1,COMPLETED_SUCCESSFULLY,476.656038,0.000010,476.656048,476.656038,476.656048,47665604.800201,16,-1.000000,""
102_updated,w0,python3action_floatoperation_100000000_nova,0.997085,1,2000.000000,1,COMPLETED_SUCCESSFULLY,411.542039,66.200020,477.742059,410.544954,476.744974,7.201584,3,-1.000000,""
102,w0,python3action_floatoperation_100000000,0.000000,1,-1.000000,1,COMPLETED_SUCCESSFULLY,477.742074,0.000010,477.742084,477.742074,477.742084,47774208.400201,3,-1.000000,""
python3action_pyaes_job116_2,w0,python3action_pyaes,0.997085,1,2000.000000,1,COMPLETED_SUCCESSFULLY,477.742104,2.134958,479.877062,476.745019,478.879977,224.304143,3,-1.000000,""
160_updated,w0,python3action_chameleon_3000_troll,0.997085,1,2000.000000,1,COMPLETED_SUCCESSFULLY,386.269419,94.000000,480.269419,385.272334,479.272334,5.098642,20,-1.000000,""
160,w0,python3action_chameleon_3000,0.000000,1,-1.000000,1,COMPLETED_SUCCESSFULLY,480.269434,0.000010,480.269444,480.269434,480.269444,48026944.400402,20,-1.000000,""
71_updated,w0,python3action_floatoperation_200000000_nova,0.997085,1,2000.000000,1,COMPLETED_SUCCESSFULLY,356.477097,135.399990,491.877087,355.480012,490.880002,3.625406,25,-1.000000,""
71,w0,python3action_floatoperation_200000000,0.000000,1,-1.000000,1,COMPLETED_SUCCESSFULLY,491.877102,0.000010,491.877112,491.877102,491.877112,49187711.247212,25,-1.000000,""
python3action_facedetection_job91_17,w0,python3action_facedetection_reduced_0.91,0.997085,1,2000.000000,1,COMPLETED_SUCCESSFULLY,491.877132,0.000000,491.877132,490.880047,490.880047,112151339229767.062500,25,-1.000000,""
119_updated,w0,python3action_pyaes_3000_nova,0.997085,1,2000.000000,1,COMPLETED_SUCCESSFULLY,415.877072,78.200020,494.077092,414.879987,493.080007,6.305369,5,-1.000000,""
119,w0,python3action_pyaes_3000,0.000000,1,-1.000000,1,COMPLETED_SUCCESSFULLY,494.077107,0.000010,494.077117,494.077107,494.077117,49407711.700201,5,-1.000000,""
76_updated,w0,python3action_facedetection_SampleVideo_50mb_taurus,0.997085,1,2000.000000,1,COMPLETED_SUCCESSFULLY,360.705829,134.600046,495.305875,359.708744,494.308790,3.672427,13,-1.000000,""
76,w0,python3action_facedetection_SampleVideo_50mb,0.000000,1,-1.000000,1,COMPLETED_SUCCESSFULLY,495.305890,0.000010,495.305900,495.305890,495.305900,49530590.014283,13,-1.000000,""
python3action_image_processing_job88_11,w0,python3action_image_processing_reduced_1.73,0.997085,1,2000.000000,1,COMPLETED_SUCCESSFULLY,495.305920,0.000000,495.305920,494.308835,494.308835,30619623208810.644531,13,-1.000000,""
74_updated,w0,python3action_facedetection_SampleVideo_30mb_nova,0.997085,1,2000.000000,1,COMPLETED_SUCCESSFULLY,346.043169,160.399990,506.443159,345.046084,505.446074,3.151160,28,-1.000000,""
74,w0,python3action_facedetection_SampleVideo_30mb,0.000000,1,-1.000000,1,COMPLETED_SUCCESSFULLY,506.443174,0.000010,506.443184,506.443174,506.443184,50644318.423506,28,-1.000000,""
130_updated,w0,python3action_imageprocessing_SampleImage_40mb_taurus,0.997085,1,2000.000000,1,COMPLETED_SUCCESSFULLY,476.656068,32.600046,509.256114,475.658983,508.259029,15.590746,16,-1.000000,""
130,w0,python3action_imageprocessing_SampleImage_40mb,0.000000,1,-1.000000,1,COMPLETED_SUCCESSFULLY,509.256129,0.000010,509.256139,509.256129,509.256139,50925613.913881,16,-1.000000,""
111_updated,w0,python3action_floatoperation_100000000_nova,0.997085,1,2000.000000,1,COMPLETED_SUCCESSFULLY,446.477311,66.200020,512.677331,445.480226,511.680246,7.729307,26,-1.000000,""
111,w0,python3action_floatoperation_100000000,0.000000,1,-1.000000,1,COMPLETED_SUCCESSFULLY,512.677346,0.000010,512.677356,512.677346,512.677356,51267735.601808,26,-1.000000,""
112_updated,w0,python3action_videoprocessing_SampleVideo_30mb_nova,0.997085,1,2000.000000,1,COMPLETED_SUCCESSFULLY,406.643284,106.799980,513.443264,405.646199,512.446179,4.798186,27,-1.000000,""
112,w0,python3action_videoprocessing_SampleVideo_30mb,0.000000,1,-1.000000,1,COMPLETED_SUCCESSFULLY,513.443279,0.000010,513.443289,513.443279,513.443289,51344328.947412,27,-1.000000,""
139_updated,w0,python3action_chameleon_3000_troll,0.997085,1,2000.000000,1,COMPLETED_SUCCESSFULLY,420.269359,94.000000,514.269359,419.272274,513.272274,5.460343,19,-1.000000,""
139,w0,python3action_chameleon_3000,0.000000,1,-1.000000,1,COMPLETED_SUCCESSFULLY,514.269374,0.000010,514.269384,514.269374,514.269384,51426938.412193,19,-1.000000,""
114_updated,w0,python3action_modeltraining_reviews50mb_nova,0.997085,1,2000.000000,1,COMPLETED_SUCCESSFULLY,472.382275,42.399990,514.782265,471.385190,513.785180,12.117578,29,-1.000000,""
114,w0,python3action_modeltraining_reviews50mb,0.000000,1,-1.000000,1,COMPLETED_SUCCESSFULLY,514.782280,0.000010,514.782290,514.782280,514.782290,51478229.023907,29,-1.000000,""
43_updated,w0,python3action_videoprocessing_SampleVideo_50mb_taurus,0.997085,1,2000.000000,1,COMPLETED_SUCCESSFULLY,361.864915,154.250029,516.114944,360.867830,515.117859,3.339499,10,-1.000000,""
43,w0,python3action_videoprocessing_SampleVideo_50mb,0.000000,1,-1.000000,1,COMPLETED_SUCCESSFULLY,516.114959,0.000010,516.114969,516.114959,516.114969,51611496.914724,10,-1.000000,""
python3action_image_processing_job58_9,w0,python3action_image_processing_reduced_1.73,0.997085,1,2000.000000,1,COMPLETED_SUCCESSFULLY,516.114989,0.000000,516.114989,515.117904,515.117904,31908626776897.300781,10,-1.000000,""
68_updated,w0,python3action_videoprocessing_SampleVideo_30mb_nova,0.997085,1,2000.000000,1,COMPLETED_SUCCESSFULLY,410.076972,106.799980,516.876952,409.079887,515.879867,4.830337,6,-1.000000,""
68,w0,python3action_videoprocessing_SampleVideo_30mb,0.000000,1,-1.000000,1,COMPLETED_SUCCESSFULLY,516.876967,0.000010,516.876977,516.876967,516.876977,51687697.749081,6,-1.000000,""
86_updated,w0,python3action_pyaes_3000_nova,0.997085,1,2000.000000,1,COMPLETED_SUCCESSFULLY,447.677071,78.200020,525.877091,446.679986,524.880006,6.712019,7,-1.000000,""
86,w0,python3action_pyaes_3000,0.000000,1,-1.000000,1,COMPLETED_SUCCESSFULLY,525.877106,0.000010,525.877116,525.877106,525.877116,52587711.600201,7,-1.000000,""
python3action_modeltraining_job107_6,w0,python3action_modeltraining_reduced_1.94,0.997085,1,2000.000000,1,COMPLETED_SUCCESSFULLY,525.877136,0.000000,525.877136,524.880051,524.880051,177572836698088.187500,7,-1.000000,""
89_updated,w0,python3action_chameleon_2000_taurus,0.997085,1,2000.000000,1,COMPLETED_SUCCESSFULLY,463.705960,64.199977,527.905937,462.708875,526.908852,8.207306,14,-1.000000,""
89,w0,python3action_chameleon_2000,0.000000,1,-1.000000,1,COMPLETED_SUCCESSFULLY,527.905952,0.000010,527.905962,527.905952,527.905962,52790596.200201,14,-1.000000,""
88_updated,w0,python3action_imageprocessing_SampleImage_40mb_taurus,0.997085,1,2000.000000,1,COMPLETED_SUCCESSFULLY,495.305950,32.600046,527.905996,494.308865,526.908911,16.162827,13,-1.000000,""
88,w0,python3action_imageprocessing_SampleImage_40mb,0.000000,1,-1.000000,1,COMPLETED_SUCCESSFULLY,527.906011,0.000010,527.906021,527.906011,527.906021,52790602.128566,13,-1.000000,""
147_updated,w0,python3action_linpack_6000_orion,0.997085,1,2000.000000,1,COMPLETED_SUCCESSFULLY,430.763312,106.000000,536.763312,429.766227,535.766227,5.054398,8,-1.000000,""
147,w0,python3action_linpack_6000,0.000000,1,-1.000000,1,COMPLETED_SUCCESSFULLY,536.763327,0.000010,536.763337,536.763327,536.763337,53676333.727087,8,-1.000000,""
159_updated,w0,python3action_linpack_6000_orion,0.997085,1,2000.000000,1,COMPLETED_SUCCESSFULLY,430.763372,106.000000,536.763372,429.766287,535.766287,5.054399,9,-1.000000,""
159,w0,python3action_linpack_6000,0.000000,1,-1.000000,1,COMPLETED_SUCCESSFULLY,536.763387,0.000010,536.763397,536.763387,536.763397,53676339.727890,9,-1.000000,""
104_updated,w0,python3action_videoprocessing_SampleVideo_30mb_nova,0.997085,1,2000.000000,1,COMPLETED_SUCCESSFULLY,457.277037,106.799980,564.077017,456.279952,563.079932,5.272285,4,-1.000000,""
104,w0,python3action_videoprocessing_SampleVideo_30mb,0.000000,1,-1.000000,1,COMPLETED_SUCCESSFULLY,564.077032,0.000010,564.077042,564.077032,564.077042,56407704.247010,4,-1.000000,""
107_updated,w0,python3action_modeltraining_reviews50mb_nova,0.997085,1,2000.000000,1,COMPLETED_SUCCESSFULLY,525.877166,42.399990,568.277156,524.880081,567.280071,13.379250,7,-1.000000,""
107,w0,python3action_modeltraining_reviews50mb,0.000000,1,-1.000000,1,COMPLETED_SUCCESSFULLY,568.277171,0.000010,568.277181,568.277171,568.277181,56827718.124308,7,-1.000000,""
python3action_linpack_job123_6,w0,python3action_linpack_reduced_0.85,0.997085,1,2000.000000,1,COMPLETED_SUCCESSFULLY,568.277201,0.365992,568.643193,567.280116,567.646108,1550.980424,7,-1.000000,""
94_updated,w0,python3action_floatoperation_100000000_nova,0.997085,1,2000.000000,1,COMPLETED_SUCCESSFULLY,506.443204,66.200020,572.643224,505.446119,571.646139,8.635135,28,-1.000000,""
94,w0,python3action_floatoperation_100000000,0.000000,1,-1.000000,1,COMPLETED_SUCCESSFULLY,572.643239,0.000010,572.643249,572.643239,572.643249,57264324.900201,28,-1.000000,""
168_updated,w0,python3action_chameleon_3000_troll,0.997085,1,2000.000000,1,COMPLETED_SUCCESSFULLY,480.269464,94.000000,574.269464,479.272379,573.272379,6.098642,20,-1.000000,""
168,w0,python3action_chameleon_3000,0.000000,1,-1.000000,1,COMPLETED_SUCCESSFULLY,574.269479,0.000010,574.269489,574.269479,574.269489,57426948.901004,20,-1.000000,""
100_updated,w0,python3action_videoprocessing_SampleVideo_50mb_taurus,0.997085,1,2000.000000,1,COMPLETED_SUCCESSFULLY,425.905951,154.250029,580.155980,424.908866,579.158895,3.754676,11,-1.000000,""
100,w0,python3action_videoprocessing_SampleVideo_50mb,0.000000,1,-1.000000,1,COMPLETED_SUCCESSFULLY,580.155995,0.000010,580.156005,580.155995,580.156005,58015600.505603,11,-1.000000,""
98_updated,w0,python3action_facedetection_SampleVideo_30mb_nova,0.997085,1,2000.000000,1,COMPLETED_SUCCESSFULLY,436.477008,160.399990,596.876998,435.479923,595.879913,3.714962,2,-1.000000,""
98,w0,python3action_facedetection_SampleVideo_30mb,0.000000,1,-1.000000,1,COMPLETED_SUCCESSFULLY,596.877013,0.000010,596.877023,596.877013,596.877023,59687702.324309,2,-1.000000,""
123_updated,w0,python3action_linpack_5000_nova,0.997085,1,2000.000000,1,COMPLETED_SUCCESSFULLY,568.643208,34.600010,603.243218,567.646123,602.246133,17.405953,7,-1.000000,""
123,w0,python3action_linpack_5000,0.000000,1,-1.000000,1,COMPLETED_SUCCESSFULLY,603.243233,0.000010,603.243243,603.243233,603.243243,60324324.300201,7,-1.000000,""
113_updated,w0,python3action_linpack_5000_nova,0.997085,1,2000.000000,1,COMPLETED_SUCCESSFULLY,572.643269,34.600010,607.243279,571.646184,606.246194,17.521561,28,-1.000000,""
113,w0,python3action_linpack_5000,0.000000,1,-1.000000,1,COMPLETED_SUCCESSFULLY,607.243294,0.000010,607.243304,607.243294,607.243304,60724330.400201,28,-1.000000,""
python3action_modeltraining_job128_20,w0,python3action_modeltraining_reduced_0.94,0.997085,1,2000.000000,1,COMPLETED_SUCCESSFULLY,607.243324,0.000000,607.243324,606.246239,606.246239,205099935102336.843750,28,-1.000000,""
156_updated,w0,python3action_chameleon_3000_troll,0.997085,1,2000.000000,1,COMPLETED_SUCCESSFULLY,514.269404,94.000000,608.269404,513.272319,607.272319,6.460344,19,-1.000000,""
156,w0,python3action_chameleon_3000,0.000000,1,-1.000000,1,COMPLETED_SUCCESSFULLY,608.269419,0.000010,608.269429,608.269419,608.269429,60826942.912796,19,-1.000000,""
96_updated,w0,python3action_videoprocessing_SampleVideo_50mb_taurus,0.997085,1,2000.000000,1,COMPLETED_SUCCESSFULLY,462.205842,154.250029,616.455871,461.208757,615.458786,3.990008,15,-1.000000,""
96,w0,python3action_videoprocessing_SampleVideo_50mb,0.000000,1,-1.000000,1,COMPLETED_SUCCESSFULLY,616.455886,0.000010,616.455896,616.455886,616.455896,61645589.600201,15,-1.000000,""
58_updated,w0,python3action_imageprocessing_SampleImage_60mb_taurus,0.997085,1,2000.000000,1,COMPLETED_SUCCESSFULLY,516.115019,101.500058,617.615077,515.117934,616.617992,6.075051,10,-1.000000,""
58,w0,python3action_imageprocessing_SampleImage_60mb,0.000000,1,-1.000000,1,COMPLETED_SUCCESSFULLY,617.615092,0.000010,617.615102,617.615092,617.615102,61761510.200201,10,-1.000000,""
116_updated,w0,python3action_pyaes_4000_nova,0.997085,1,2000.000000,1,COMPLETED_SUCCESSFULLY,479.877077,139.600010,619.477087,478.879992,618.480002,4.430372,3,-1.000000,""
116,w0,python3action_pyaes_4000,0.000000,1,-1.000000,1,COMPLETED_SUCCESSFULLY,619.477102,0.000010,619.477112,619.477102,619.477112,61947711.201668,3,-1.000000,""
python3action_video_processing_job132_2,w0,python3action_video_processing_reduced_1.89,0.997085,1,2000.000000,1,COMPLETED_SUCCESSFULLY,619.477132,0.000000,619.477132,618.480047,618.480047,12651646572032.726562,3,-1.000000,""
127_updated,w0,python3action_videoprocessing_SampleVideo_30mb_nova,0.997085,1,2000.000000,1,COMPLETED_SUCCESSFULLY,513.443309,106.799980,620.243290,512.446224,619.246205,5.798187,27,-1.000000,""
127,w0,python3action_videoprocessing_SampleVideo_30mb,0.000000,1,-1.000000,1,COMPLETED_SUCCESSFULLY,620.243305,0.000010,620.243315,620.243305,620.243315,62024331.500201,27,-1.000000,""
129_updated,w0,python3action_videoprocessing_SampleVideo_30mb_nova,0.997085,1,2000.000000,1,COMPLETED_SUCCESSFULLY,514.782310,106.799980,621.582291,513.785225,620.585206,5.810724,29,-1.000000,""
129,w0,python3action_videoprocessing_SampleVideo_30mb,0.000000,1,-1.000000,1,COMPLETED_SUCCESSFULLY,621.582306,0.000010,621.582316,621.582306,621.582316,62158231.600201,29,-1.000000,""
python3action_chameleon_job84_9,w0,python3action_chameleon,0.997085,1,2000.000000,1,COMPLETED_SUCCESSFULLY,617.615122,5.040826,622.655948,616.618037,621.658863,123.324807,10,-1.000000,""
135_updated,w0,python3action_floatoperation_200000000_nova,0.997085,1,2000.000000,1,COMPLETED_SUCCESSFULLY,494.077137,135.399990,629.477127,493.080052,628.480042,4.641655,5,-1.000000,""
135,w0,python3action_floatoperation_200000000,0.000000,1,-1.000000,1,COMPLETED_SUCCESSFULLY,629.477142,0.000010,629.477152,629.477142,629.477152,62947715.223907,5,-1.000000,""
178_updated,w0,python3action_linpack_6000_orion,0.997085,1,2000.000000,1,COMPLETED_SUCCESSFULLY,536.763357,106.000000,642.763357,535.766272,641.766272,6.054399,8,-1.000000,""
178,w0,python3action_linpack_6000,0.000000,1,-1.000000,1,COMPLETED_SUCCESSFULLY,642.763372,0.000010,642.763382,642.763372,642.763382,64276338.227689,8,-1.000000,""
180_updated,w0,python3action_linpack_6000_orion,0.997085,1,2000.000000,1,COMPLETED_SUCCESSFULLY,536.763417,106.000000,642.763417,535.766332,641.766332,6.054399,9,-1.000000,""
180,w0,python3action_linpack_6000,0.000000,1,-1.000000,1,COMPLETED_SUCCESSFULLY,642.763432,0.000010,642.763442,642.763432,642.763442,64276344.228492,9,-1.000000,""
146_updated,w0,python3action_facedetection_SampleVideo_50mb_taurus,0.997085,1,2000.000000,1,COMPLETED_SUCCESSFULLY,509.256159,134.600046,643.856205,508.259074,642.859120,4.776069,16,-1.000000,""
146,w0,python3action_facedetection_SampleVideo_50mb,0.000000,1,-1.000000,1,COMPLETED_SUCCESSFULLY,643.856220,0.000010,643.856230,643.856220,643.856230,64385623.027562,16,-1.000000,""
136_updated,w0,python3action_chameleon_2000_taurus,0.997085,1,2000.000000,1,COMPLETED_SUCCESSFULLY,580.156025,64.199977,644.356002,579.158940,643.358917,10.021171,11,-1.000000,""
136,w0,python3action_chameleon_2000,0.000000,1,-1.000000,1,COMPLETED_SUCCESSFULLY,644.356017,0.000010,644.356027,644.356017,644.356027,64435602.700201,11,-1.000000,""
126_updated,w0,python3action_floatoperation_200000000_nova,0.997085,1,2000.000000,1,COMPLETED_SUCCESSFULLY,512.677376,135.399990,648.077366,511.680291,647.080281,4.779028,26,-1.000000,""
126,w0,python3action_floatoperation_200000000,0.000000,1,-1.000000,1,COMPLETED_SUCCESSFULLY,648.077381,0.000010,648.077391,648.077381,648.077391,64807739.125514,26,-1.000000,""
python3action_linpack_job142_18,w0,python3action_linpack_reduced_0.85,0.997085,1,2000.000000,1,COMPLETED_SUCCESSFULLY,648.077411,0.365992,648.443403,647.080326,647.446318,1769.018673,26,-1.000000,""
128_updated,w0,python3action_modeltraining_reviews50mb_nova,0.997085,1,2000.000000,1,COMPLETED_SUCCESSFULLY,607.243354,42.399990,649.643344,606.246269,648.646259,15.298264,28,-1.000000,""
128,w0,python3action_modeltraining_reviews50mb,0.000000,1,-1.000000,1,COMPLETED_SUCCESSFULLY,649.643359,0.000010,649.643369,649.643359,649.643369,64964336.924308,28,-1.000000,""
91_updated,w0,python3action_facedetection_SampleVideo_30mb_nova,0.997085,1,2000.000000,1,COMPLETED_SUCCESSFULLY,491.877162,160.399990,652.277153,490.880077,651.280068,4.060350,25,-1.000000,""
91,w0,python3action_facedetection_SampleVideo_30mb,0.000000,1,-1.000000,1,COMPLETED_SUCCESSFULLY,652.277168,0.000010,652.277178,652.277168,652.277178,65227717.800201,25,-1.000000,""
python3action_modeltraining_job109_17,w0,python3action_modeltraining_reduced_1.94,0.997085,1,2000.000000,1,COMPLETED_SUCCESSFULLY,652.277198,0.000000,652.277198,651.280113,651.280113,220335402212121.218750,25,-1.000000,""
149_updated,w0,python3action_linpack_5000_nova,0.997085,1,2000.000000,1,COMPLETED_SUCCESSFULLY,621.582336,34.600010,656.182346,620.585251,655.185261,18.935985,29,-1.000000,""
149,w0,python3action_linpack_5000,0.000000,1,-1.000000,1,COMPLETED_SUCCESSFULLY,656.182361,0.000010,656.182371,656.182361,656.182371,65618237.100201,29,-1.000000,""
85_updated,w0,python3action_pyaes_4000_nova,0.997085,1,2000.000000,1,COMPLETED_SUCCESSFULLY,516.876997,139.600010,656.477007,515.879912,655.479922,4.695415,6,-1.000000,""
85,w0,python3action_pyaes_4000,0.000000,1,-1.000000,1,COMPLETED_SUCCESSFULLY,656.477022,0.000010,656.477032,656.477022,656.477032,65647703.226580,6,-1.000000,""
144_updated,w0,python3action_modeltraining_reviews50mb_nova,0.997085,1,2000.000000,1,COMPLETED_SUCCESSFULLY,620.243335,42.399990,662.643325,619.246250,661.646240,15.604868,27,-1.000000,""
144,w0,python3action_modeltraining_reviews50mb,0.000000,1,-1.000000,1,COMPLETED_SUCCESSFULLY,662.643340,0.000010,662.643350,662.643340,662.643350,66264335.023907,27,-1.000000,""
173_updated,w0,python3action_chameleon_3000_troll,0.997085,1,2000.000000,1,COMPLETED_SUCCESSFULLY,574.269509,94.000000,668.269509,573.272424,667.272424,7.098643,20,-1.000000,""
173,w0,python3action_chameleon_3000,0.000000,1,-1.000000,1,COMPLETED_SUCCESSFULLY,668.269524,0.000010,668.269534,668.269524,668.269534,66826953.401607,20,-1.000000,""
117_updated,w0,python3action_videoprocessing_SampleVideo_30mb_nova,0.997085,1,2000.000000,1,COMPLETED_SUCCESSFULLY,564.077062,106.799980,670.877043,563.079977,669.879958,6.272285,4,-1.000000,""
117,w0,python3action_videoprocessing_SampleVideo_30mb,0.000000,1,-1.000000,1,COMPLETED_SUCCESSFULLY,670.877058,0.000010,670.877068,670.877058,670.877068,67087706.800201,4,-1.000000,""
115_updated,w0,python3action_pyaes_3000_nova,0.997085,1,2000.000000,1,COMPLETED_SUCCESSFULLY,596.877043,78.200020,675.077063,595.879958,674.079978,8.619946,2,-1.000000,""
115,w0,python3action_pyaes_3000,0.000000,1,-1.000000,1,COMPLETED_SUCCESSFULLY,675.077078,0.000010,675.077088,675.077078,675.077088,67507708.800201,2,-1.000000,""
110_updated,w0,python3action_videoprocessing_SampleVideo_50mb_taurus,0.997085,1,2000.000000,1,COMPLETED_SUCCESSFULLY,527.905982,154.250029,682.156011,526.908897,681.158926,4.415940,14,-1.000000,""
110,w0,python3action_videoprocessing_SampleVideo_50mb,0.000000,1,-1.000000,1,COMPLETED_SUCCESSFULLY,682.156026,0.000010,682.156036,682.156026,682.156036,68215603.600201,14,-1.000000,""
103_updated,w0,python3action_videoprocessing_SampleVideo_50mb_taurus,0.997085,1,2000.000000,1,COMPLETED_SUCCESSFULLY,527.906041,154.250029,682.156070,526.908956,681.158985,4.415941,13,-1.000000,""
103,w0,python3action_videoprocessing_SampleVideo_50mb,0.000000,1,-1.000000,1,COMPLETED_SUCCESSFULLY,682.156085,0.000010,682.156095,682.156085,682.156095,68215609.512543,13,-1.000000,""
142_updated,w0,python3action_linpack_5000_nova,0.997085,1,2000.000000,1,COMPLETED_SUCCESSFULLY,648.443418,34.600010,683.043428,647.446333,682.046343,19.712316,26,-1.000000,""
142,w0,python3action_linpack_5000,0.000000,1,-1.000000,1,COMPLETED_SUCCESSFULLY,683.043443,0.000010,683.043453,683.043443,683.043453,68304345.300201,26,-1.000000,""
84_updated,w0,python3action_chameleon_2000_taurus,0.997085,1,2000.000000,1,COMPLETED_SUCCESSFULLY,622.655963,64.199977,686.855940,621.658878,685.858855,10.683164,10,-1.000000,""
84,w0,python3action_chameleon_2000,0.000000,1,-1.000000,1,COMPLETED_SUCCESSFULLY,686.855955,0.000010,686.855965,686.855955,686.855965,68685596.500201,10,-1.000000,""
171_updated,w0,python3action_linpack_5000_nova,0.997085,1,2000.000000,1,COMPLETED_SUCCESSFULLY,656.182391,34.600010,690.782401,655.185306,689.785316,19.935986,29,-1.000000,""
171,w0,python3action_linpack_5000,0.000000,1,-1.000000,1,COMPLETED_SUCCESSFULLY,690.782416,0.000010,690.782426,690.782416,690.782426,69078242.600201,29,-1.000000,""
python3action_facedetection_job192_21,w0,python3action_facedetection_reduced_1.83,0.997085,1,2000.000000,1,COMPLETED_SUCCESSFULLY,690.782446,0.000000,690.782446,689.785361,689.785361,155574774378624.468750,29,-1.000000,""
158_updated,w0,python3action_floatoperation_100000000_nova,0.997085,1,2000.000000,1,COMPLETED_SUCCESSFULLY,629.477172,66.200020,695.677192,628.480087,694.680107,10.493654,5,-1.000000,""
158,w0,python3action_floatoperation_100000000,0.000000,1,-1.000000,1,COMPLETED_SUCCESSFULLY,695.677207,0.000010,695.677217,695.677207,695.677217,69567721.700201,5,-1.000000,""
162_updated,w0,python3action_chameleon_3000_troll,0.997085,1,2000.000000,1,COMPLETED_SUCCESSFULLY,608.269449,94.000000,702.269449,607.272364,701.272364,7.460344,19,-1.000000,""
162,w0,python3action_chameleon_3000,0.000000,1,-1.000000,1,COMPLETED_SUCCESSFULLY,702.269464,0.000010,702.269474,702.269464,702.269474,70226947.413398,19,-1.000000,""
133_updated,w0,python3action_modeltraining_reviews50mb_nova,0.997085,1,2000.000000,1,COMPLETED_SUCCESSFULLY,670.877088,42.399990,713.277078,669.880003,712.279993,16.799060,4,-1.000000,""
133,w0,python3action_modeltraining_reviews50mb,0.000000,1,-1.000000,1,COMPLETED_SUCCESSFULLY,713.277093,0.000010,713.277103,713.277093,713.277103,71327710.323907,4,-1.000000,""
137_updated,w0,python3action_imageprocessing_SampleImage_40mb_taurus,0.997085,1,2000.000000,1,COMPLETED_SUCCESSFULLY,682.156115,32.600046,714.756161,681.159030,713.759076,21.894419,13,-1.000000,""
137,w0,python3action_imageprocessing_SampleImage_40mb,0.000000,1,-1.000000,1,COMPLETED_SUCCESSFULLY,714.756176,0.000010,714.756186,714.756176,714.756186,71475618.626223,13,-1.000000,""
166_updated,w0,python3action_modeltraining_reviews50mb_nova,0.997085,1,2000.000000,1,COMPLETED_SUCCESSFULLY,683.043473,42.399990,725.443463,682.046388,724.446378,17.086003,26,-1.000000,""
166,w0,python3action_modeltraining_reviews50mb,0.000000,1,-1.000000,1,COMPLETED_SUCCESSFULLY,725.443478,0.000010,725.443488,725.443478,725.443488,72544348.823907,26,-1.000000,""
132_updated,w0,python3action_videoprocessing_SampleVideo_30mb_nova,0.997085,1,2000.000000,1,COMPLETED_SUCCESSFULLY,619.477162,106.799980,726.277142,618.480077,725.280057,6.791013,3,-1.000000,""
132,w0,python3action_videoprocessing_SampleVideo_30mb,0.000000,1,-1.000000,1,COMPLETED_SUCCESSFULLY,726.277157,0.000010,726.277167,726.277157,726.277167,72627716.748879,3,-1.000000,""
148_updated,w0,python3action_pyaes_3000_nova,0.997085,1,2000.000000,1,COMPLETED_SUCCESSFULLY,649.643389,78.200020,727.843409,648.646304,726.846324,9.294708,28,-1.000000,""
148,w0,python3action_pyaes_3000,0.000000,1,-1.000000,1,COMPLETED_SUCCESSFULLY,727.843424,0.000010,727.843434,727.843424,727.843434,72784343.400201,28,-1.000000,""
184_updated,w0,python3action_imageprocessing_SampleImage_60mb_troll,0.997085,1,2000.000000,1,COMPLETED_SUCCESSFULLY,668.269554,62.000000,730.269554,667.272469,729.272469,11.762459,20,-1.000000,""
184,w0,python3action_imageprocessing_SampleImage_60mb,0.000000,1,-1.000000,1,COMPLETED_SUCCESSFULLY,730.269569,0.000010,730.269579,730.269569,730.269579,73026957.902209,20,-1.000000,""
109_updated,w0,python3action_modeltraining_reviews100mb_nova,0.997085,1,2000.000000,1,COMPLETED_SUCCESSFULLY,652.277228,79.600010,731.877238,651.280143,730.880153,9.181910,25,-1.000000,""
109,w0,python3action_modeltraining_reviews100mb,0.000000,1,-1.000000,1,COMPLETED_SUCCESSFULLY,731.877253,0.000010,731.877263,731.877253,731.877263,73187726.300201,25,-1.000000,""
140_updated,w0,python3action_videoprocessing_SampleVideo_50mb_nova,0.997085,1,2000.000000,1,COMPLETED_SUCCESSFULLY,603.243263,139.600010,742.843273,602.246178,741.846188,5.314084,7,-1.000000,""
140,w0,python3action_videoprocessing_SampleVideo_50mb,0.000000,1,-1.000000,1,COMPLETED_SUCCESSFULLY,742.843288,0.000010,742.843298,742.843288,742.843298,74284329.800201,7,-1.000000,""
170_updated,w0,python3action_imageprocessing_SampleImage_60mb_troll,0.997085,1,2000.000000,1,COMPLETED_SUCCESSFULLY,702.269494,62.000000,764.269494,701.272409,763.272409,12.310845,19,-1.000000,""
170,w0,python3action_imageprocessing_SampleImage_60mb,0.000000,1,-1.000000,1,COMPLETED_SUCCESSFULLY,764.269509,0.000010,764.269519,764.269509,764.269519,76426951.914000,19,-1.000000,""
167_updated,w0,python3action_videoprocessing_SampleVideo_30mb_nova,0.997085,1,2000.000000,1,COMPLETED_SUCCESSFULLY,662.643370,106.799980,769.443351,661.646285,768.446266,7.195191,27,-1.000000,""
167,w0,python3action_videoprocessing_SampleVideo_30mb,0.000000,1,-1.000000,1,COMPLETED_SUCCESSFULLY,769.443366,0.000010,769.443376,769.443366,769.443376,76944337.600201,27,-1.000000,""
125_updated,w0,python3action_videoprocessing_SampleVideo_50mb_taurus,0.997085,1,2000.000000,1,COMPLETED_SUCCESSFULLY,616.455916,154.250029,770.705945,615.458831,769.708860,4.990008,15,-1.000000,""
125,w0,python3action_videoprocessing_SampleVideo_50mb,0.000000,1,-1.000000,1,COMPLETED_SUCCESSFULLY,770.705960,0.000010,770.705970,770.705960,770.705970,77070597.000201,15,-1.000000,""
176_updated,w0,python3action_modeltraining_reviews100mb_nova,0.997085,1,2000.000000,1,COMPLETED_SUCCESSFULLY,695.677237,79.600010,775.277247,694.680152,774.280162,9.727137,5,-1.000000,""
176,w0,python3action_modeltraining_reviews100mb,0.000000,1,-1.000000,1,COMPLETED_SUCCESSFULLY,775.277262,0.000010,775.277272,775.277262,775.277272,77527727.200201,5,-1.000000,""
163_updated,w0,python3action_linpack_5000_nova,0.997085,1,2000.000000,1,COMPLETED_SUCCESSFULLY,742.843318,34.600010,777.443328,741.846233,776.446243,22.440637,7,-1.000000,""
163,w0,python3action_linpack_5000,0.000000,1,-1.000000,1,COMPLETED_SUCCESSFULLY,777.443343,0.000010,777.443353,777.443343,777.443353,77744335.300201,7,-1.000000,""
188_updated,w0,python3action_facedetection_SampleVideo_50mb_taurus,0.997085,1,2000.000000,1,COMPLETED_SUCCESSFULLY,643.856250,134.600046,778.456296,642.859165,777.459211,5.776069,16,-1.000000,""
188,w0,python3action_facedetection_SampleVideo_50mb,0.000000,1,-1.000000,1,COMPLETED_SUCCESSFULLY,778.456311,0.000010,778.456321,778.456311,778.456321,77845632.141242,16,-1.000000,""
106_updated,w0,python3action_floatoperation_200000000_nova,0.997085,1,2000.000000,1,COMPLETED_SUCCESSFULLY,656.477052,135.399990,791.877043,655.479967,790.879958,5.841064,6,-1.000000,""
106,w0,python3action_floatoperation_200000000,0.000000,1,-1.000000,1,COMPLETED_SUCCESSFULLY,791.877058,0.000010,791.877068,791.877058,791.877068,79187706.800201,6,-1.000000,""
196_updated,w0,python3action_imageprocessing_SampleImage_60mb_troll,0.997085,1,2000.000000,1,COMPLETED_SUCCESSFULLY,730.269599,62.000000,792.269599,729.272514,791.272514,12.762460,20,-1.000000,""
196,w0,python3action_imageprocessing_SampleImage_60mb,0.000000,1,-1.000000,1,COMPLETED_SUCCESSFULLY,792.269614,0.000010,792.269624,792.269614,792.269624,79226962.402811,20,-1.000000,""
155_updated,w0,python3action_modeltraining_reviews100mb_nova,0.997085,1,2000.000000,1,COMPLETED_SUCCESSFULLY,713.277123,79.600010,792.877133,712.280038,791.880048,9.948241,4,-1.000000,""
155,w0,python3action_modeltraining_reviews100mb,0.000000,1,-1.000000,1,COMPLETED_SUCCESSFULLY,792.877148,0.000010,792.877158,792.877148,792.877158,79287715.801405,4,-1.000000,""
152_updated,w0,python3action_videoprocessing_SampleVideo_50mb_taurus,0.997085,1,2000.000000,1,COMPLETED_SUCCESSFULLY,644.356047,154.250029,798.606076,643.358962,797.608991,5.170884,11,-1.000000,""
152,w0,python3action_videoprocessing_SampleVideo_50mb,0.000000,1,-1.000000,1,COMPLETED_SUCCESSFULLY,798.606091,0.000010,798.606101,798.606091,798.606101,79860610.100201,11,-1.000000,""
186_updated,w0,python3action_modeltraining_reviews50mb_nova,0.997085,1,2000.000000,1,COMPLETED_SUCCESSFULLY,769.443396,42.399990,811.843386,768.446311,810.846301,19.123738,27,-1.000000,""
186,w0,python3action_modeltraining_reviews50mb,0.000000,1,-1.000000,1,COMPLETED_SUCCESSFULLY,811.843401,0.000010,811.843411,811.843401,811.843411,81184341.123907,27,-1.000000,""
157_updated,w0,python3action_imageprocessing_SampleImage_60mb_taurus,0.997085,1,2000.000000,1,COMPLETED_SUCCESSFULLY,714.756206,101.500058,816.256264,713.759121,815.259179,8.032106,13,-1.000000,""
157,w0,python3action_imageprocessing_SampleImage_60mb,0.000000,1,-1.000000,1,COMPLETED_SUCCESSFULLY,816.256279,0.000010,816.256289,816.256279,816.256289,81625628.900201,13,-1.000000,""
143_updated,w0,python3action_facedetection_SampleVideo_50mb_taurus,0.997085,1,2000.000000,1,COMPLETED_SUCCESSFULLY,682.156056,134.600046,816.756102,681.158971,815.759017,6.060615,14,-1.000000,""
143,w0,python3action_facedetection_SampleVideo_50mb,0.000000,1,-1.000000,1,COMPLETED_SUCCESSFULLY,816.756117,0.000010,816.756127,816.756117,816.756127,81675612.713881,14,-1.000000,""
185_updated,w0,python3action_videoprocessing_SampleVideo_30mb_nova,0.997085,1,2000.000000,1,COMPLETED_SUCCESSFULLY,725.443508,106.799980,832.243489,724.446423,831.246404,7.783207,26,-1.000000,""
185,w0,python3action_videoprocessing_SampleVideo_30mb,0.000000,1,-1.000000,1,COMPLETED_SUCCESSFULLY,832.243504,0.000010,832.243514,832.243504,832.243514,83224351.400201,26,-1.000000,""
145_updated,w0,python3action_chameleon_2000_taurus,0.997085,1,2000.000000,1,COMPLETED_SUCCESSFULLY,770.705990,64.199977,834.905967,769.708905,833.908882,12.989240,15,-1.000000,""
145,w0,python3action_chameleon_2000,0.000000,1,-1.000000,1,COMPLETED_SUCCESSFULLY,834.905982,0.000010,834.905992,834.905982,834.905992,83490599.200201,15,-1.000000,""
175_updated,w0,python3action_modeltraining_reviews50mb_nova,0.997085,1,2000.000000,1,COMPLETED_SUCCESSFULLY,792.877178,42.399990,835.277168,791.880093,834.280083,19.676422,4,-1.000000,""
175,w0,python3action_modeltraining_reviews50mb,0.000000,1,-1.000000,1,COMPLETED_SUCCESSFULLY,835.277183,0.000010,835.277193,835.277183,835.277193,83527719.325111,4,-1.000000,""
python3action_facedetection_job197_3,w0,python3action_facedetection_reduced_1.83,0.997085,1,2000.000000,1,COMPLETED_SUCCESSFULLY,835.277213,0.000000,835.277213,834.280128,834.280128,188164246531071.406250,4,-1.000000,""
131_updated,w0,python3action_facedetection_SampleVideo_30mb_nova,0.997085,1,2000.000000,1,COMPLETED_SUCCESSFULLY,675.077108,160.399990,835.477098,674.080023,834.480013,5.202494,2,-1.000000,""
131,w0,python3action_facedetection_SampleVideo_30mb,0.000000,1,-1.000000,1,COMPLETED_SUCCESSFULLY,835.477113,0.000010,835.477123,835.477113,835.477123,83547712.323907,2,-1.000000,""
124_updated,w0,python3action_videoprocessing_SampleVideo_30mb_nova,0.997085,1,2000.000000,1,COMPLETED_SUCCESSFULLY,731.877283,106.799980,838.677263,730.880198,837.680178,7.843449,25,-1.000000,""
124,w0,python3action_videoprocessing_SampleVideo_30mb,0.000000,1,-1.000000,1,COMPLETED_SUCCESSFULLY,838.677278,0.000010,838.677288,838.677278,838.677288,83867728.847010,25,-1.000000,""
99_updated,w0,python3action_videoprocessing_SampleVideo_50mb_taurus,0.997085,1,2000.000000,1,COMPLETED_SUCCESSFULLY,686.855985,154.250029,841.106014,685.858900,840.108929,5.446410,10,-1.000000,""
99,w0,python3action_videoprocessing_SampleVideo_50mb,0.000000,1,-1.000000,1,COMPLETED_SUCCESSFULLY,841.106029,0.000010,841.106039,841.106029,841.106039,84110603.900201,10,-1.000000,""
195_updated,w0,python3action_imageprocessing_SampleImage_40mb_taurus,0.997085,1,2000.000000,1,COMPLETED_SUCCESSFULLY,816.256309,32.600046,848.856355,815.259224,847.859270,26.007916,13,-1.000000,""
195,w0,python3action_imageprocessing_SampleImage_40mb,0.000000,1,-1.000000,1,COMPLETED_SUCCESSFULLY,848.856370,0.000010,848.856380,848.856370,848.856380,84885638.013881,13,-1.000000,""
192_updated,w0,python3action_facedetection_SampleVideo_30mb_nova,0.997085,1,2000.000000,1,COMPLETED_SUCCESSFULLY,690.782476,160.399990,851.182466,689.785391,850.185381,5.300408,29,-1.000000,""
192,w0,python3action_facedetection_SampleVideo_30mb,0.000000,1,-1.000000,1,COMPLETED_SUCCESSFULLY,851.182481,0.000010,851.182491,851.182481,851.182491,85118249.124308,29,-1.000000,""
181_updated,w0,python3action_pyaes_3000_nova,0.997085,1,2000.000000,1,COMPLETED_SUCCESSFULLY,777.443373,78.200020,855.643393,776.446288,854.646308,10.928978,7,-1.000000,""
181,w0,python3action_pyaes_3000,0.000000,1,-1.000000,1,COMPLETED_SUCCESSFULLY,855.643408,0.000010,855.643418,855.643408,855.643418,85564341.800201,7,-1.000000,""
177_updated,w0,python3action_chameleon_3000_troll,0.997085,1,2000.000000,1,COMPLETED_SUCCESSFULLY,764.269539,94.000000,858.269539,763.272454,857.272454,9.119920,19,-1.000000,""
177,w0,python3action_chameleon_3000,0.000000,1,-1.000000,1,COMPLETED_SUCCESSFULLY,858.269554,0.000010,858.269564,858.269554,858.269564,85826956.414603,19,-1.000000,""
153_updated,w0,python3action_floatoperation_200000000_nova,0.997085,1,2000.000000,1,COMPLETED_SUCCESSFULLY,726.277187,135.399990,861.677178,725.280102,860.680093,6.356574,3,-1.000000,""
153,w0,python3action_floatoperation_200000000,0.000000,1,-1.000000,1,COMPLETED_SUCCESSFULLY,861.677193,0.000010,861.677203,861.677193,861.677203,86167720.300201,3,-1.000000,""
134_updated,w0,python3action_imageprocessing_SampleImage_40mb_taurus,0.997085,1,2000.000000,1,COMPLETED_SUCCESSFULLY,841.106059,32.600046,873.706105,840.108974,872.709020,26.770177,10,-1.000000,""
134,w0,python3action_imageprocessing_SampleImage_40mb,0.000000,1,-1.000000,1,COMPLETED_SUCCESSFULLY,873.706120,0.000010,873.706130,873.706120,873.706130,87370613.013881,10,-1.000000,""
199_updated,w0,python3action_videoprocessing_SampleVideo_30mb_nova,0.997085,1,2000.000000,1,COMPLETED_SUCCESSFULLY,775.277292,106.799980,882.077272,774.280207,881.080187,8.249816,5,-1.000000,""
199,w0,python3action_videoprocessing_SampleVideo_30mb,0.000000,1,-1.000000,1,COMPLETED_SUCCESSFULLY,882.077287,0.000010,882.077297,882.077287,882.077297,88207729.747010,5,-1.000000,""
169_updated,w0,python3action_facedetection_SampleVideo_30mb_nova,0.997085,1,2000.000000,1,COMPLETED_SUCCESSFULLY,727.843454,160.399990,888.243444,726.846369,887.246359,5.531461,28,-1.000000,""
169,w0,python3action_facedetection_SampleVideo_30mb,0.000000,1,-1.000000,1,COMPLETED_SUCCESSFULLY,888.243459,0.000010,888.243469,888.243459,888.243469,88824346.923907,28,-1.000000,""
python3action_video_processing_job189_20,w0,python3action_video_processing_reduced_1.89,0.997085,1,2000.000000,1,COMPLETED_SUCCESSFULLY,888.243489,0.000000,888.243489,887.246404,887.246404,18149539314749.164062,28,-1.000000,""
151_updated,w0,python3action_floatoperation_100000000_nova,0.997085,1,2000.000000,1,COMPLETED_SUCCESSFULLY,835.477143,66.200020,901.677163,834.480058,900.680078,13.605435,2,-1.000000,""
151,w0,python3action_floatoperation_100000000,0.000000,1,-1.000000,1,COMPLETED_SUCCESSFULLY,901.677178,0.000010,901.677188,901.677178,901.677188,90167718.800201,2,-1.000000,""
174_updated,w0,python3action_modeltraining_reviews50mb_nova,0.997085,1,2000.000000,1,COMPLETED_SUCCESSFULLY,861.677223,42.399990,904.077213,860.680138,903.080128,21.299065,3,-1.000000,""
174,w0,python3action_modeltraining_reviews50mb,0.000000,1,-1.000000,1,COMPLETED_SUCCESSFULLY,904.077228,0.000010,904.077238,904.077228,904.077238,90407723.823907,3,-1.000000,""
122_updated,w0,python3action_floatoperation_200000000_nova,0.997085,1,2000.000000,1,COMPLETED_SUCCESSFULLY,791.877088,135.399990,927.277078,790.880003,926.279993,6.841064,6,-1.000000,""
122,w0,python3action_floatoperation_200000000,0.000000,1,-1.000000,1,COMPLETED_SUCCESSFULLY,927.277093,0.000010,927.277103,927.277093,927.277103,92727710.323907,6,-1.000000,""
182_updated,w0,python3action_imageprocessing_SampleImage_60mb_taurus,0.997085,1,2000.000000,1,COMPLETED_SUCCESSFULLY,834.906012,101.500058,936.406070,833.908927,935.408985,9.215847,15,-1.000000,""
182,w0,python3action_imageprocessing_SampleImage_60mb,0.000000,1,-1.000000,1,COMPLETED_SUCCESSFULLY,936.406085,0.000010,936.406095,936.406085,936.406095,93640609.500201,15,-1.000000,""
164_updated,w0,python3action_facedetection_SampleVideo_50mb_taurus,0.997085,1,2000.000000,1,COMPLETED_SUCCESSFULLY,816.756147,134.600046,951.356193,815.759062,950.359108,7.060615,14,-1.000000,""
164,w0,python3action_facedetection_SampleVideo_50mb,0.000000,1,-1.000000,1,COMPLETED_SUCCESSFULLY,951.356208,0.000010,951.356218,951.356208,951.356218,95135621.827561,14,-1.000000,""
187_updated,w0,python3action_chameleon_3000_troll,0.997085,1,2000.000000,1,COMPLETED_SUCCESSFULLY,858.269584,94.000000,952.269584,857.272499,951.272499,10.119920,19,-1.000000,""
187,w0,python3action_chameleon_3000,0.000000,1,-1.000000,1,COMPLETED_SUCCESSFULLY,952.269599,0.000010,952.269609,952.269599,952.269609,95226960.915205,19,-1.000000,""
191_updated,w0,python3action_videoprocessing_SampleVideo_50mb_taurus,0.997085,1,2000.000000,1,COMPLETED_SUCCESSFULLY,798.606121,154.250029,952.856150,797.609036,951.859065,6.170884,11,-1.000000,""
191,w0,python3action_videoprocessing_SampleVideo_50mb,0.000000,1,-1.000000,1,COMPLETED_SUCCESSFULLY,952.856165,0.000010,952.856175,952.856165,952.856175,95285617.500201,11,-1.000000,""
141_updated,w0,python3action_pyaes_4000_nova,0.997085,1,2000.000000,1,COMPLETED_SUCCESSFULLY,838.677308,139.600010,978.277318,837.680223,977.280233,7.000574,25,-1.000000,""
141,w0,python3action_pyaes_4000,0.000000,1,-1.000000,1,COMPLETED_SUCCESSFULLY,978.277333,0.000010,978.277343,978.277333,978.277343,97827734.324509,25,-1.000000,""
189_updated,w0,python3action_videoprocessing_SampleVideo_30mb_nova,0.997085,1,2000.000000,1,COMPLETED_SUCCESSFULLY,888.243519,106.799980,995.043500,887.246434,994.046415,9.307552,28,-1.000000,""
189,w0,python3action_videoprocessing_SampleVideo_30mb,0.000000,1,-1.000000,1,COMPLETED_SUCCESSFULLY,995.043515,0.000010,995.043525,995.043515,995.043525,99504352.500201,28,-1.000000,""
197_updated,w0,python3action_facedetection_SampleVideo_30mb_nova,0.997085,1,2000.000000,1,COMPLETED_SUCCESSFULLY,835.277243,160.399990,995.677233,834.280158,994.680148,6.201248,4,-1.000000,""
197,w0,python3action_facedetection_SampleVideo_30mb,0.000000,1,-1.000000,1,COMPLETED_SUCCESSFULLY,995.677248,0.000010,995.677258,995.677248,995.677258,99567725.849219,4,-1.000000,""
138_updated,w0,python3action_pyaes_3000_nova,0.997085,1,2000.000000,1,COMPLETED_SUCCESSFULLY,927.277123,78.200020,1005.477143,926.280038,1004.480058,12.845010,6,-1.000000,""
138,w0,python3action_pyaes_3000,0.000000,1,-1.000000,1,COMPLETED_SUCCESSFULLY,1005.477158,0.000010,1005.477168,1005.477158,1005.477168,100547716.800201,6,-1.000000,""
python3action_modeltraining_job161_5,w0,python3action_modeltraining_reduced_1.94,0.997085,1,2000.000000,1,COMPLETED_SUCCESSFULLY,1005.477188,0.000000,1005.477188,1004.480103,1004.480103,339826939423003.312500,6,-1.000000,""
150_updated,w0,python3action_facedetection_SampleVideo_50mb_taurus,0.997085,1,2000.000000,1,COMPLETED_SUCCESSFULLY,873.706150,134.600046,1008.306196,872.709065,1007.309111,7.483720,10,-1.000000,""
150,w0,python3action_facedetection_SampleVideo_50mb,0.000000,1,-1.000000,1,COMPLETED_SUCCESSFULLY,1008.306211,0.000010,1008.306221,1008.306211,1008.306221,100830622.127562,10,-1.000000,""
194_updated,w0,python3action_videoprocessing_SampleVideo_30mb_nova,0.997085,1,2000.000000,1,COMPLETED_SUCCESSFULLY,904.077258,106.799980,1010.877239,903.080173,1009.880154,9.455808,3,-1.000000,""
194,w0,python3action_videoprocessing_SampleVideo_30mb,0.000000,1,-1.000000,1,COMPLETED_SUCCESSFULLY,1010.877254,0.000010,1010.877264,1010.877254,1010.877264,101087726.400201,3,-1.000000,""
172_updated,w0,python3action_pyaes_4000_nova,0.997085,1,2000.000000,1,COMPLETED_SUCCESSFULLY,901.677208,139.600010,1041.277218,900.680123,1040.280133,7.451863,2,-1.000000,""
172,w0,python3action_pyaes_4000,0.000000,1,-1.000000,1,COMPLETED_SUCCESSFULLY,1041.277233,0.000010,1041.277243,1041.277233,1041.277243,104127724.300201,2,-1.000000,""
161_updated,w0,python3action_modeltraining_reviews50mb_nova,0.997085,1,2000.000000,1,COMPLETED_SUCCESSFULLY,1005.477218,42.399990,1047.877208,1004.480133,1046.880123,24.690575,6,-1.000000,""
161,w0,python3action_modeltraining_reviews50mb,0.000000,1,-1.000000,1,COMPLETED_SUCCESSFULLY,1047.877223,0.000010,1047.877233,1047.877223,1047.877233,104787723.324308,6,-1.000000,""
165_updated,w0,python3action_videoprocessing_SampleVideo_30mb_nova,0.997085,1,2000.000000,1,COMPLETED_SUCCESSFULLY,978.277363,106.799980,1085.077344,977.280278,1084.080259,10.150566,25,-1.000000,""
165,w0,python3action_videoprocessing_SampleVideo_30mb,0.000000,1,-1.000000,1,COMPLETED_SUCCESSFULLY,1085.077359,0.000010,1085.077369,1085.077359,1085.077369,108507736.900201,25,-1.000000,""
179_updated,w0,python3action_modeltraining_reviews50mb_nova,0.997085,1,2000.000000,1,COMPLETED_SUCCESSFULLY,1047.877253,42.399990,1090.277243,1046.880168,1089.280158,25.690576,6,-1.000000,""
179,w0,python3action_modeltraining_reviews50mb,0.000000,1,-1.000000,1,COMPLETED_SUCCESSFULLY,1090.277258,0.000010,1090.277268,1090.277258,1090.277268,109027726.848014,6,-1.000000,""
198_updated,w0,python3action_videoprocessing_SampleVideo_50mb_taurus,0.997085,1,2000.000000,1,COMPLETED_SUCCESSFULLY,951.356238,154.250029,1105.606267,950.359153,1104.609182,7.161160,14,-1.000000,""
198,w0,python3action_videoprocessing_SampleVideo_50mb,0.000000,1,-1.000000,1,COMPLETED_SUCCESSFULLY,1105.606282,0.000010,1105.606292,1105.606282,1105.606292,110560629.211337,14,-1.000000,""
193_updated,w0,python3action_modeltraining_reviews100mb_nova,0.997085,1,2000.000000,1,COMPLETED_SUCCESSFULLY,1041.277263,79.600010,1120.877273,1040.280178,1119.880188,14.068845,2,-1.000000,""
193,w0,python3action_modeltraining_reviews100mb,0.000000,1,-1.000000,1,COMPLETED_SUCCESSFULLY,1120.877288,0.000010,1120.877298,1120.877288,1120.877298,112087729.800201,2,-1.000000,""
190_updated,w0,python3action_facedetection_SampleVideo_50mb_taurus,0.997085,1,2000.000000,1,COMPLETED_SUCCESSFULLY,1008.306241,134.600046,1142.906287,1007.309156,1141.909202,8.483721,10,-1.000000,""
190,w0,python3action_facedetection_SampleVideo_50mb,0.000000,1,-1.000000,1,COMPLETED_SUCCESSFULLY,1142.906302,0.000010,1142.906312,1142.906302,1142.906312,114290631.241242,10,-1.000000,""
183_updated,w0,python3action_facedetection_SampleVideo_30mb_nova,0.997085,1,2000.000000,1,COMPLETED_SUCCESSFULLY,1085.077389,160.399990,1245.477379,1084.080304,1244.480294,7.758606,25,-1.000000,""
183,w0,python3action_facedetection_SampleVideo_30mb,0.000000,1,-1.000000,1,COMPLETED_SUCCESSFULLY,1245.477394,0.000010,1245.477404,1245.477394,1245.477404,124547740.423907,25,-1.000000,""
