job_id,workload_name,profile,submission_time,requested_number_of_resources,requested_time,success,final_state,starting_time,execution_time,finish_time,waiting_time,turnaround_time,stretch,allocated_resources,consumed_energy,metadata
python3action_pyaes_job3_3,w0,python3action_pyaes,0.997085,1,2000.000000,1,COMPLETED_SUCCESSFULLY,1.002145,0.867914,1.870059,0.005060,0.872974,1.005830,4,-1.000000,""
python3action_chameleon_job19_4,w0,python3action_chameleon,0.997085,1,2000.000000,1,COMPLETED_SUCCESSFULLY,1.002160,0.892694,1.894854,0.005075,0.897769,1.005685,5,-1.000000,""
python3action_modeltraining_job1_0,w0,python3action_modeltraining,0.997085,1,2000.000000,1,COMPLETED_SUCCESSFULLY,1.002100,3.471546,4.473646,0.005015,3.476561,1.001445,0,-1.000000,""
python3action_image_processing_job5_1,w0,python3action_image_processing,0.997085,1,2000.000000,1,COMPLETED_SUCCESSFULLY,1.002115,3.471546,4.473661,0.005030,3.476576,1.001449,1,-1.000000,""
python3action_linpack_job6_10,w0,python3action_linpack,0.997085,1,2000.000000,1,COMPLETED_SUCCESSFULLY,1.002250,5.760927,6.763177,0.005165,5.766092,1.000897,11,-1.000000,""
1_updated,w0,python3action_modeltraining_reviews50mb_neowise,0.997085,1,2000.000000,1,COMPLETED_SUCCESSFULLY,4.473661,22.799998,27.273659,3.476576,26.276574,1.152481,0,-1.000000,""
1,w0,python3action_modeltraining_reviews50mb,0.000000,1,-1.000000,1,COMPLETED_SUCCESSFULLY,27.273674,0.000010,27.273684,27.273674,27.273684,2727368.400201,0,-1.000000,""
python3action_image_processing_job12_1,w0,python3action_image_processing_reduced_0.86,0.997085,1,2000.000000,1,COMPLETED_SUCCESSFULLY,27.273704,0.000000,27.273704,26.276619,26.276619,4726013241378.261719,0,-1.000000,""
python3action_video_processing_job0_5,w0,python3action_video_processing,0.997085,1,2000.000000,1,COMPLETED_SUCCESSFULLY,1.002175,30.499683,31.501858,0.005090,30.504773,1.000167,6,-1.000000,""
python3action_video_processing_job2_6,w0,python3action_video_processing,0.997085,1,2000.000000,1,COMPLETED_SUCCESSFULLY,1.002190,30.499683,31.501873,0.005105,30.504788,1.000167,7,-1.000000,""
python3action_facedetection_job9_7,w0,python3action_facedetection,0.997085,1,2000.000000,1,COMPLETED_SUCCESSFULLY,1.002205,30.499683,31.501888,0.005120,30.504803,1.000168,8,-1.000000,""
python3action_facedetection_job10_8,w0,python3action_facedetection,0.997085,1,2000.000000,1,COMPLETED_SUCCESSFULLY,1.002220,30.499683,31.501903,0.005135,30.504818,1.000168,9,-1.000000,""
python3action_facedetection_job14_9,w0,python3action_facedetection,0.997085,1,2000.000000,1,COMPLETED_SUCCESSFULLY,1.002235,30.499683,31.501918,0.005150,30.504833,1.000169,10,-1.000000,""
5_updated,w0,python3action_imageprocessing_SampleImage_60mb_neowise,0.997085,1,2000.000000,1,COMPLETED_SUCCESSFULLY,4.473691,37.500000,41.973691,3.476606,40.976606,1.092709,1,-1.000000,""
5,w0,python3action_imageprocessing_SampleImage_60mb,0.000000,1,-1.000000,1,COMPLETED_SUCCESSFULLY,41.973706,0.000010,41.973716,41.973706,41.973716,4197371.600402,1,-1.000000,""
python3action_modeltraining_job15_2,w0,python3action_modeltraining_reduced_0.94,0.997085,1,2000.000000,1,COMPLETED_SUCCESSFULLY,41.973736,0.000000,41.973736,40.976651,40.976651,7374617575555.045898,1,-1.000000,""
6_updated,w0,python3action_linpack_5000_orion,0.997085,1,2000.000000,1,COMPLETED_SUCCESSFULLY,6.763192,36.199977,42.963169,5.766107,41.966084,1.159285,11,-1.000000,""
6,w0,python3action_linpack_5000,0.000000,1,-1.000000,1,COMPLETED_SUCCESSFULLY,42.963184,0.000010,42.963194,42.963184,42.963194,4296319.418941,11,-1.000000,""
3_updated,w0,python3action_pyaes_3000_troll,0.997085,1,2000.000000,1,COMPLETED_SUCCESSFULLY,1.870074,57.166677,59.036751,0.872989,58.039666,1.015271,4,-1.000000,""
3,w0,python3action_pyaes_3000,0.000000,1,-1.000000,1,COMPLETED_SUCCESSFULLY,59.036766,0.000010,59.036776,59.036766,59.036776,5903677.600201,4,-1.000000,""
12_updated,w0,python3action_imageprocessing_SampleImage_60mb_neowise,0.997085,1,2000.000000,1,COMPLETED_SUCCESSFULLY,27.273734,37.500000,64.773734,26.276649,63.776649,1.700711,0,-1.000000,""
12,w0,python3action_imageprocessing_SampleImage_60mb,0.000000,1,-1.000000,1,COMPLETED_SUCCESSFULLY,64.773749,0.000010,64.773759,64.773749,64.773759,6477375.901205,0,-1.000000,""
15_updated,w0,python3action_modeltraining_reviews50mb_neowise,0.997085,1,2000.000000,1,COMPLETED_SUCCESSFULLY,41.973766,22.799998,64.773764,40.976681,63.776679,2.797223,1,-1.000000,""
15,w0,python3action_modeltraining_reviews50mb,0.000000,1,-1.000000,1,COMPLETED_SUCCESSFULLY,64.773794,0.000010,64.773804,64.773794,64.773804,6477380.400402,1,-1.000000,""
python3action_video_processing_job4_2,w0,python3action_video_processing,0.997085,1,2000.000000,1,COMPLETED_SUCCESSFULLY,1.002130,72.012455,73.014585,0.005045,72.017500,1.000070,2,-1.000000,""
python3action_image_processing_job7_11,w0,python3action_image_processing,0.997085,1,2000.000000,1,COMPLETED_SUCCESSFULLY,1.002265,72.012455,73.014720,0.005180,72.017635,1.000072,12,-1.000000,""
python3action_video_processing_job11_12,w0,python3action_video_processing,0.997085,1,2000.000000,1,COMPLETED_SUCCESSFULLY,1.002280,72.012455,73.014735,0.005195,72.017650,1.000072,13,-1.000000,""
37_updated,w0,python3action_modeltraining_reviews50mb_neowise,0.997085,1,2000.000000,1,COMPLETED_SUCCESSFULLY,64.773824,22.799998,87.573822,63.776739,86.576737,3.797226,1,-1.000000,""
37,w0,python3action_modeltraining_reviews50mb,0.000000,1,-1.000000,1,COMPLETED_SUCCESSFULLY,87.573837,0.000010,87.573847,87.573837,87.573847,8757384.700201,1,-1.000000,""
python3action_chameleon_job46_2,w0,python3action_chameleon,0.997085,1,2000.000000,1,COMPLETED_SUCCESSFULLY,87.573867,0.243006,87.816873,86.576782,86.819788,357.274283,1,-1.000000,""
19_updated,w0,python3action_chameleon_3000_yeti,0.997085,1,2000.000000,1,COMPLETED_SUCCESSFULLY,1.894869,93.000000,94.894869,0.897784,93.897784,1.009654,5,-1.000000,""
19,w0,python3action_chameleon_3000,0.000000,1,-1.000000,1,COMPLETED_SUCCESSFULLY,94.894884,0.000010,94.894894,94.894884,94.894894,9489489.449765,5,-1.000000,""
7_updated,w0,python3action_imageprocessing_SampleImage_40mb_taurus,0.997085,1,2000.000000,1,COMPLETED_SUCCESSFULLY,73.014735,32.600046,105.614781,72.017650,104.617696,3.209127,12,-1.000000,""
7,w0,python3action_imageprocessing_SampleImage_40mb,0.000000,1,-1.000000,1,COMPLETED_SUCCESSFULLY,105.614796,0.000010,105.614806,105.614796,105.614806,10561480.646970,12,-1.000000,""
17_updated,w0,python3action_modeltraining_reviews100mb_neowise,0.997085,1,2000.000000,1,COMPLETED_SUCCESSFULLY,64.773779,43.399999,108.173778,63.776694,107.176693,2.469509,0,-1.000000,""
17,w0,python3action_modeltraining_reviews100mb,0.000000,1,-1.000000,1,COMPLETED_SUCCESSFULLY,108.173793,0.000010,108.173803,108.173793,108.173803,10817380.300201,0,-1.000000,""
python3action_facedetection_job23_12,w0,python3action_facedetection_reduced_0.91,0.997085,1,2000.000000,1,COMPLETED_SUCCESSFULLY,105.614826,6.172496,111.787323,104.617741,110.790238,17.949017,12,-1.000000,""
46_updated,w0,python3action_chameleon_2000_neowise,0.997085,1,2000.000000,1,COMPLETED_SUCCESSFULLY,87.816888,24.200002,112.016890,86.819803,111.019805,4.587595,1,-1.000000,""
46,w0,python3action_chameleon_2000,0.000000,1,-1.000000,1,COMPLETED_SUCCESSFULLY,112.016905,0.000010,112.016915,112.016905,112.016915,11201691.522787,1,-1.000000,""
0_updated,w0,python3action_videoprocessing_SampleVideo_30mb_nova,0.997085,1,2000.000000,1,COMPLETED_SUCCESSFULLY,31.501873,106.799980,138.301853,30.504788,137.304768,1.285625,6,-1.000000,""
0,w0,python3action_videoprocessing_SampleVideo_30mb,0.000000,1,-1.000000,1,COMPLETED_SUCCESSFULLY,138.301868,0.000010,138.301878,138.301868,138.301878,13830187.800201,6,-1.000000,""
2_updated,w0,python3action_videoprocessing_SampleVideo_30mb_nova,0.997085,1,2000.000000,1,COMPLETED_SUCCESSFULLY,31.501903,106.799980,138.301883,30.504818,137.304798,1.285626,7,-1.000000,""
2,w0,python3action_videoprocessing_SampleVideo_30mb,0.000000,1,-1.000000,1,COMPLETED_SUCCESSFULLY,138.301913,0.000010,138.301923,138.301913,138.301923,13830192.300402,7,-1.000000,""
python3action_floatoperation_job20_7,w0,python3action_floatoperation,0.997085,1,2000.000000,1,COMPLETED_SUCCESSFULLY,138.301943,2.439945,140.741888,137.304858,139.744803,57.273744,7,-1.000000,""
40_updated,w0,python3action_imageprocessing_SampleImage_60mb_neowise,0.997085,1,2000.000000,1,COMPLETED_SUCCESSFULLY,108.173823,37.500000,145.673823,107.176738,144.676738,3.858046,0,-1.000000,""
40,w0,python3action_imageprocessing_SampleImage_60mb,0.000000,1,-1.000000,1,COMPLETED_SUCCESSFULLY,145.673838,0.000010,145.673848,145.673838,145.673848,14567384.800803,0,-1.000000,""
8_updated,w0,python3action_linpack_6000_orion,0.997085,1,2000.000000,1,COMPLETED_SUCCESSFULLY,42.963214,106.000000,148.963214,41.966129,147.966129,1.395907,11,-1.000000,""
8,w0,python3action_linpack_6000,0.000000,1,-1.000000,1,COMPLETED_SUCCESSFULLY,148.963229,0.000010,148.963239,148.963229,148.963239,14896323.919543,11,-1.000000,""
61_updated,w0,python3action_imageprocessing_SampleImage_60mb_neowise,0.997085,1,2000.000000,1,COMPLETED_SUCCESSFULLY,112.016935,37.500000,149.516935,111.019850,148.519850,3.960529,1,-1.000000,""
61,w0,python3action_imageprocessing_SampleImage_60mb,0.000000,1,-1.000000,1,COMPLETED_SUCCESSFULLY,149.516950,0.000010,149.516960,149.516950,149.516960,14951696.023389,1,-1.000000,""
16_updated,w0,python3action_pyaes_4000_troll,0.997085,1,2000.000000,1,COMPLETED_SUCCESSFULLY,59.036796,102.333333,161.370129,58.039711,160.373044,1.567163,4,-1.000000,""
16,w0,python3action_pyaes_4000,0.000000,1,-1.000000,1,COMPLETED_SUCCESSFULLY,161.370144,0.000010,161.370154,161.370144,161.370154,16137015.434137,4,-1.000000,""
21_updated,w0,python3action_chameleon_3000_yeti,0.997085,1,2000.000000,1,COMPLETED_SUCCESSFULLY,94.894915,93.000000,187.894915,93.897830,186.897830,2.009654,5,-1.000000,""
21,w0,python3action_chameleon_3000,0.000000,1,-1.000000,1,COMPLETED_SUCCESSFULLY,187.894930,0.000010,187.894940,187.894930,187.894940,18789494.000201,5,-1.000000,""
47_updated,w0,python3action_modeltraining_reviews100mb_neowise,0.997085,1,2000.000000,1,COMPLETED_SUCCESSFULLY,145.673868,43.399999,189.073867,144.676783,188.076782,4.333567,0,-1.000000,""
47,w0,python3action_modeltraining_reviews100mb,0.000000,1,-1.000000,1,COMPLETED_SUCCESSFULLY,189.073882,0.000010,189.073892,189.073882,189.073892,18907389.200201,0,-1.000000,""
9_updated,w0,python3action_facedetection_SampleVideo_30mb_nova,0.997085,1,2000.000000,1,COMPLETED_SUCCESSFULLY,31.501918,160.399990,191.901908,30.504833,190.904823,1.190180,8,-1.000000,""
9,w0,python3action_facedetection_SampleVideo_30mb,0.000000,1,-1.000000,1,COMPLETED_SUCCESSFULLY,191.901923,0.000010,191.901933,191.901923,191.901933,19190193.300201,8,-1.000000,""
10_updated,w0,python3action_facedetection_SampleVideo_30mb_nova,0.997085,1,2000.000000,1,COMPLETED_SUCCESSFULLY,31.501948,160.399990,191.901938,30.504863,190.904853,1.190180,9,-1.000000,""
14_updated,w0,python3action_facedetection_SampleVideo_30mb_nova,0.997085,1,2000.000000,1,COMPLETED_SUCCESSFULLY,31.501963,160.399990,191.901953,30.504878,190.904868,1.190180,10,-1.000000,""
10,w0,python3action_facedetection_SampleVideo_30mb,0.000000,1,-1.000000,1,COMPLETED_SUCCESSFULLY,191.901983,0.000010,191.901993,191.901983,191.901993,19190199.301004,9,-1.000000,""
14,w0,python3action_facedetection_SampleVideo_30mb,0.000000,1,-1.000000,1,COMPLETED_SUCCESSFULLY,191.901998,0.000010,191.902008,191.901998,191.902008,19190200.801205,10,-1.000000,""
python3action_video_processing_job26_10,w0,python3action_video_processing_reduced_0.91,0.997085,1,2000.000000,1,COMPLETED_SUCCESSFULLY,191.902043,0.000000,191.902043,190.904958,190.904958,3907429363881.571289,10,-1.000000,""
67_updated,w0,python3action_modeltraining_reviews100mb_neowise,0.997085,1,2000.000000,1,COMPLETED_SUCCESSFULLY,149.516980,43.399999,192.916979,148.519895,191.919894,4.422117,1,-1.000000,""
67,w0,python3action_modeltraining_reviews100mb,0.000000,1,-1.000000,1,COMPLETED_SUCCESSFULLY,192.916994,0.000010,192.917004,192.916994,192.917004,19291700.412799,1,-1.000000,""
python3action_floatoperation_job22_8,w0,python3action_floatoperation,0.997085,1,2000.000000,1,COMPLETED_SUCCESSFULLY,191.901953,2.439945,194.341898,190.904868,193.344813,79.241454,8,-1.000000,""
python3action_floatoperation_job25_9,w0,python3action_floatoperation,0.997085,1,2000.000000,1,COMPLETED_SUCCESSFULLY,191.902028,2.439945,194.341973,190.904943,193.344888,79.241485,9,-1.000000,""
63_updated,w0,python3action_modeltraining_reviews50mb_neowise,0.997085,1,2000.000000,1,COMPLETED_SUCCESSFULLY,189.073912,22.799998,211.873910,188.076827,210.876825,9.248984,0,-1.000000,""
63,w0,python3action_modeltraining_reviews50mb,0.000000,1,-1.000000,1,COMPLETED_SUCCESSFULLY,211.873925,0.000010,211.873935,211.873925,211.873935,21187393.500201,0,-1.000000,""
4_updated,w0,python3action_videoprocessing_SampleVideo_50mb_taurus,0.997085,1,2000.000000,1,COMPLETED_SUCCESSFULLY,73.014600,154.250029,227.264629,72.017515,226.267544,1.466888,2,-1.000000,""
4,w0,python3action_videoprocessing_SampleVideo_50mb,0.000000,1,-1.000000,1,COMPLETED_SUCCESSFULLY,227.264644,0.000010,227.264654,227.264644,227.264654,22726465.415258,2,-1.000000,""
11_updated,w0,python3action_videoprocessing_SampleVideo_50mb_taurus,0.997085,1,2000.000000,1,COMPLETED_SUCCESSFULLY,73.014765,154.250029,227.264794,72.017680,226.267709,1.466889,13,-1.000000,""
11,w0,python3action_videoprocessing_SampleVideo_50mb,0.000000,1,-1.000000,1,COMPLETED_SUCCESSFULLY,227.264809,0.000010,227.264819,227.264809,227.264819,22726481.917467,13,-1.000000,""
71_updated,w0,python3action_imageprocessing_SampleImage_60mb_neowise,0.997085,1,2000.000000,1,COMPLETED_SUCCESSFULLY,192.917024,37.500000,230.417024,191.919939,229.419939,6.117865,1,-1.000000,""
71,w0,python3action_imageprocessing_SampleImage_60mb,0.000000,1,-1.000000,1,COMPLETED_SUCCESSFULLY,230.417039,0.000010,230.417049,230.417039,230.417049,23041704.913401,1,-1.000000,""
18_updated,w0,python3action_videoprocessing_SampleVideo_30mb_nova,0.997085,1,2000.000000,1,COMPLETED_SUCCESSFULLY,138.301898,106.799980,245.101878,137.304813,244.104793,2.285626,6,-1.000000,""
18,w0,python3action_videoprocessing_SampleVideo_30mb,0.000000,1,-1.000000,1,COMPLETED_SUCCESSFULLY,245.101893,0.000010,245.101903,245.101893,245.101903,24510190.346609,6,-1.000000,""
23_updated,w0,python3action_facedetection_SampleVideo_50mb_taurus,0.997085,1,2000.000000,1,COMPLETED_SUCCESSFULLY,111.787338,134.600046,246.387384,110.790253,245.390299,1.823107,12,-1.000000,""
23,w0,python3action_facedetection_SampleVideo_50mb,0.000000,1,-1.000000,1,COMPLETED_SUCCESSFULLY,246.387399,0.000010,246.387409,246.387399,246.387409,24638740.913480,12,-1.000000,""
python3action_facedetection_job32_6,w0,python3action_facedetection_reduced_0.91,0.997085,1,2000.000000,1,COMPLETED_SUCCESSFULLY,245.101923,2.614259,247.716182,244.104838,246.719097,94.374407,6,-1.000000,""
69_updated,w0,python3action_imageprocessing_SampleImage_60mb_neowise,0.997085,1,2000.000000,1,COMPLETED_SUCCESSFULLY,211.873955,37.500000,249.373955,210.876870,248.376870,6.623383,0,-1.000000,""
69,w0,python3action_imageprocessing_SampleImage_60mb,0.000000,1,-1.000000,1,COMPLETED_SUCCESSFULLY,249.373970,0.000010,249.373980,249.373970,249.373980,24937398.000803,0,-1.000000,""
30_updated,w0,python3action_linpack_6000_orion,0.997085,1,2000.000000,1,COMPLETED_SUCCESSFULLY,148.963259,106.000000,254.963259,147.966174,253.966174,2.395907,11,-1.000000,""
30,w0,python3action_linpack_6000,0.000000,1,-1.000000,1,COMPLETED_SUCCESSFULLY,254.963274,0.000010,254.963284,254.963274,254.963284,25496328.420145,11,-1.000000,""
25_updated,w0,python3action_floatoperation_100000000_nova,0.997085,1,2000.000000,1,COMPLETED_SUCCESSFULLY,194.341988,66.200020,260.542008,193.344903,259.544923,3.920617,9,-1.000000,""
25,w0,python3action_floatoperation_100000000,0.000000,1,-1.000000,1,COMPLETED_SUCCESSFULLY,260.542023,0.000010,260.542033,260.542023,260.542033,26054203.300201,9,-1.000000,""
python3action_video_processing_job52_9,w0,python3action_video_processing_reduced_0.91,0.997085,1,2000.000000,1,COMPLETED_SUCCESSFULLY,260.542053,0.000000,260.542053,259.544968,259.544968,5315440470378.155273,9,-1.000000,""
27_updated,w0,python3action_pyaes_4000_troll,0.997085,1,2000.000000,1,COMPLETED_SUCCESSFULLY,161.370174,102.333333,263.703508,160.373089,262.706423,2.567164,4,-1.000000,""
27,w0,python3action_pyaes_4000,0.000000,1,-1.000000,1,COMPLETED_SUCCESSFULLY,263.703523,0.000010,263.703533,263.703523,263.703533,26370353.300201,4,-1.000000,""
80_updated,w0,python3action_imageprocessing_SampleImage_60mb_neowise,0.997085,1,2000.000000,1,COMPLETED_SUCCESSFULLY,230.417069,37.500000,267.917069,229.419984,266.919984,7.117866,1,-1.000000,""
80,w0,python3action_imageprocessing_SampleImage_60mb,0.000000,1,-1.000000,1,COMPLETED_SUCCESSFULLY,267.917084,0.000010,267.917094,267.917084,267.917094,26791709.414004,1,-1.000000,""
20_updated,w0,python3action_floatoperation_200000000_nova,0.997085,1,2000.000000,1,COMPLETED_SUCCESSFULLY,140.741903,135.399990,276.141894,139.744818,275.144809,2.032089,7,-1.000000,""
20,w0,python3action_floatoperation_200000000,0.000000,1,-1.000000,1,COMPLETED_SUCCESSFULLY,276.141909,0.000010,276.141919,276.141909,276.141919,27614191.900201,7,-1.000000,""
33_updated,w0,python3action_imageprocessing_SampleImage_40mb_taurus,0.997085,1,2000.000000,1,COMPLETED_SUCCESSFULLY,246.387429,32.600046,278.987475,245.390344,277.990390,8.527301,12,-1.000000,""
33,w0,python3action_imageprocessing_SampleImage_40mb,0.000000,1,-1.000000,1,COMPLETED_SUCCESSFULLY,278.987490,0.000010,278.987500,278.987490,278.987500,27898750.027160,12,-1.000000,""
34_updated,w0,python3action_chameleon_3000_yeti,0.997085,1,2000.000000,1,COMPLETED_SUCCESSFULLY,187.894960,93.000000,280.894960,186.897875,279.897875,3.009655,5,-1.000000,""
34,w0,python3action_chameleon_3000,0.000000,1,-1.000000,1,COMPLETED_SUCCESSFULLY,280.894975,0.000010,280.894985,280.894975,280.894985,28089498.500803,5,-1.000000,""
75_updated,w0,python3action_modeltraining_reviews100mb_neowise,0.997085,1,2000.000000,1,COMPLETED_SUCCESSFULLY,249.374000,43.399999,292.773999,248.376915,291.776914,6.722971,0,-1.000000,""
75,w0,python3action_modeltraining_reviews100mb,0.000000,1,-1.000000,1,COMPLETED_SUCCESSFULLY,292.774014,0.000010,292.774024,292.774014,292.774024,29277402.400201,0,-1.000000,""
26_updated,w0,python3action_videoprocessing_SampleVideo_30mb_nova,0.997085,1,2000.000000,1,COMPLETED_SUCCESSFULLY,191.902073,106.799980,298.702053,190.904988,297.704968,2.787500,10,-1.000000,""
26,w0,python3action_videoprocessing_SampleVideo_30mb,0.000000,1,-1.000000,1,COMPLETED_SUCCESSFULLY,298.702068,0.000010,298.702078,298.702068,298.702078,29870207.848617,10,-1.000000,""
python3action_pyaes_job54_10,w0,python3action_pyaes,0.997085,1,2000.000000,1,COMPLETED_SUCCESSFULLY,298.702098,2.134958,300.837057,297.705013,299.839972,140.443015,10,-1.000000,""
83_updated,w0,python3action_imageprocessing_SampleImage_60mb_neowise,0.997085,1,2000.000000,1,COMPLETED_SUCCESSFULLY,267.917114,37.500000,305.417114,266.920029,304.420029,8.117867,1,-1.000000,""
83,w0,python3action_imageprocessing_SampleImage_60mb,0.000000,1,-1.000000,1,COMPLETED_SUCCESSFULLY,305.417129,0.000010,305.417139,305.417129,305.417139,30541713.914606,1,-1.000000,""
81_updated,w0,python3action_modeltraining_reviews50mb_neowise,0.997085,1,2000.000000,1,COMPLETED_SUCCESSFULLY,292.774044,22.799998,315.574042,291.776959,314.576957,13.797236,0,-1.000000,""
81,w0,python3action_modeltraining_reviews50mb,0.000000,1,-1.000000,1,COMPLETED_SUCCESSFULLY,315.574057,0.000010,315.574067,315.574057,315.574067,31557406.700201,0,-1.000000,""
29_updated,w0,python3action_pyaes_3000_troll,0.997085,1,2000.000000,1,COMPLETED_SUCCESSFULLY,263.703553,57.166677,320.870230,262.706468,319.873145,5.595448,4,-1.000000,""
29,w0,python3action_pyaes_3000,0.000000,1,-1.000000,1,COMPLETED_SUCCESSFULLY,320.870245,0.000010,320.870255,320.870245,320.870255,32087025.500201,4,-1.000000,""
22_updated,w0,python3action_floatoperation_200000000_nova,0.997085,1,2000.000000,1,COMPLETED_SUCCESSFULLY,194.341913,135.399990,329.741904,193.344828,328.744819,2.427953,8,-1.000000,""
22,w0,python3action_floatoperation_200000000,0.000000,1,-1.000000,1,COMPLETED_SUCCESSFULLY,329.741919,0.000010,329.741929,329.741919,329.741929,32974192.900201,8,-1.000000,""
python3action_pyaes_job49_8,w0,python3action_pyaes,0.997085,1,2000.000000,1,COMPLETED_SUCCESSFULLY,329.741949,2.134958,331.876907,328.744864,330.879822,154.981871,8,-1.000000,""
89_updated,w0,python3action_imageprocessing_SampleImage_60mb_neowise,0.997085,1,2000.000000,1,COMPLETED_SUCCESSFULLY,305.417159,37.500000,342.917159,304.420074,341.920074,9.117869,1,-1.000000,""
89,w0,python3action_imageprocessing_SampleImage_60mb,0.000000,1,-1.000000,1,COMPLETED_SUCCESSFULLY,342.917174,0.000010,342.917184,342.917174,342.917184,34291718.415209,1,-1.000000,""
86_updated,w0,python3action_modeltraining_reviews100mb_neowise,0.997085,1,2000.000000,1,COMPLETED_SUCCESSFULLY,315.574087,43.399999,358.974086,314.577002,357.977001,8.248318,0,-1.000000,""
86,w0,python3action_modeltraining_reviews100mb,0.000000,1,-1.000000,1,COMPLETED_SUCCESSFULLY,358.974101,0.000010,358.974111,358.974101,358.974111,35897411.100201,0,-1.000000,""
python3action_chameleon_job93_1,w0,python3action_chameleon,0.997085,1,2000.000000,1,COMPLETED_SUCCESSFULLY,358.974131,0.243006,359.217137,357.977046,358.220052,1474.120303,0,-1.000000,""
36_updated,w0,python3action_linpack_6000_orion,0.997085,1,2000.000000,1,COMPLETED_SUCCESSFULLY,254.963304,106.000000,360.963304,253.966219,359.966219,3.395908,11,-1.000000,""
36,w0,python3action_linpack_6000,0.000000,1,-1.000000,1,COMPLETED_SUCCESSFULLY,360.963319,0.000010,360.963329,360.963319,360.963329,36096332.920748,11,-1.000000,""
95_updated,w0,python3action_modeltraining_reviews50mb_neowise,0.997085,1,2000.000000,1,COMPLETED_SUCCESSFULLY,342.917204,22.799998,365.717202,341.920119,364.720117,15.996498,1,-1.000000,""
95,w0,python3action_modeltraining_reviews50mb,0.000000,1,-1.000000,1,COMPLETED_SUCCESSFULLY,365.717217,0.000010,365.717227,365.717217,365.717227,36571722.700201,1,-1.000000,""
52_updated,w0,python3action_videoprocessing_SampleVideo_30mb_nova,0.997085,1,2000.000000,1,COMPLETED_SUCCESSFULLY,260.542083,106.799980,367.342063,259.544998,366.344978,3.430197,9,-1.000000,""
52,w0,python3action_videoprocessing_SampleVideo_30mb,0.000000,1,-1.000000,1,COMPLETED_SUCCESSFULLY,367.342078,0.000010,367.342088,367.342078,367.342088,36734208.847412,9,-1.000000,""
45_updated,w0,python3action_chameleon_3000_yeti,0.997085,1,2000.000000,1,COMPLETED_SUCCESSFULLY,280.895005,93.000000,373.895005,279.897920,372.897920,4.009655,5,-1.000000,""
45,w0,python3action_chameleon_3000,0.000000,1,-1.000000,1,COMPLETED_SUCCESSFULLY,373.895020,0.000010,373.895030,373.895020,373.895030,37389503.001406,5,-1.000000,""
31_updated,w0,python3action_pyaes_3000_troll,0.997085,1,2000.000000,1,COMPLETED_SUCCESSFULLY,320.870275,57.166677,378.036952,319.873190,377.039867,6.595448,4,-1.000000,""
31,w0,python3action_pyaes_3000,0.000000,1,-1.000000,1,COMPLETED_SUCCESSFULLY,378.036967,0.000010,378.036977,378.036967,378.036977,37803697.700201,4,-1.000000,""
13_updated,w0,python3action_videoprocessing_SampleVideo_50mb_taurus,0.997085,1,2000.000000,1,COMPLETED_SUCCESSFULLY,227.264674,154.250029,381.514703,226.267589,380.517618,2.466888,2,-1.000000,""
13,w0,python3action_videoprocessing_SampleVideo_50mb,0.000000,1,-1.000000,1,COMPLETED_SUCCESSFULLY,381.514718,0.000010,381.514728,381.514718,381.514728,38151472.800201,2,-1.000000,""
24_updated,w0,python3action_videoprocessing_SampleVideo_50mb_taurus,0.997085,1,2000.000000,1,COMPLETED_SUCCESSFULLY,227.264839,154.250029,381.514868,226.267754,380.517783,2.466890,13,-1.000000,""
24,w0,python3action_videoprocessing_SampleVideo_50mb,0.000000,1,-1.000000,1,COMPLETED_SUCCESSFULLY,381.514883,0.000010,381.514893,381.514883,381.514893,38151489.301244,13,-1.000000,""
42_updated,w0,python3action_videoprocessing_SampleVideo_30mb_nova,0.997085,1,2000.000000,1,COMPLETED_SUCCESSFULLY,276.141939,106.799980,382.941919,275.144854,381.944834,3.576263,7,-1.000000,""
42,w0,python3action_videoprocessing_SampleVideo_30mb,0.000000,1,-1.000000,1,COMPLETED_SUCCESSFULLY,382.941934,0.000010,382.941944,382.941934,382.941944,38294194.447011,7,-1.000000,""
93_updated,w0,python3action_chameleon_2000_neowise,0.997085,1,2000.000000,1,COMPLETED_SUCCESSFULLY,359.217152,24.200002,383.417154,358.220067,382.420069,15.802481,0,-1.000000,""
93,w0,python3action_chameleon_2000,0.000000,1,-1.000000,1,COMPLETED_SUCCESSFULLY,383.417169,0.000010,383.417179,383.417169,383.417179,38341717.922787,0,-1.000000,""
python3action_facedetection_job28_3,w0,python3action_facedetection_reduced_0.91,0.997085,1,2000.000000,1,COMPLETED_SUCCESSFULLY,381.514748,6.172496,387.687244,380.517663,386.690159,62.647290,2,-1.000000,""
python3action_facedetection_job39_13,w0,python3action_facedetection_reduced_0.91,0.997085,1,2000.000000,1,COMPLETED_SUCCESSFULLY,381.514913,6.172496,387.687409,380.517828,386.690324,62.647317,13,-1.000000,""
101_updated,w0,python3action_modeltraining_reviews50mb_neowise,0.997085,1,2000.000000,1,COMPLETED_SUCCESSFULLY,365.717247,22.799998,388.517245,364.720162,387.520160,16.996500,1,-1.000000,""
101,w0,python3action_modeltraining_reviews50mb,0.000000,1,-1.000000,1,COMPLETED_SUCCESSFULLY,388.517260,0.000010,388.517270,388.517260,388.517270,38851727.000201,1,-1.000000,""
38_updated,w0,python3action_linpack_5000_orion,0.997085,1,2000.000000,1,COMPLETED_SUCCESSFULLY,360.963349,36.199977,397.163326,359.966264,396.166241,10.943826,11,-1.000000,""
38,w0,python3action_linpack_5000,0.000000,1,-1.000000,1,COMPLETED_SUCCESSFULLY,397.163341,0.000010,397.163351,397.163341,397.163351,39716335.114812,11,-1.000000,""
32_updated,w0,python3action_facedetection_SampleVideo_30mb_nova,0.997085,1,2000.000000,1,COMPLETED_SUCCESSFULLY,247.716197,160.399990,408.116187,246.719112,407.119102,2.538149,6,-1.000000,""
32,w0,python3action_facedetection_SampleVideo_30mb,0.000000,1,-1.000000,1,COMPLETED_SUCCESSFULLY,408.116202,0.000010,408.116212,408.116202,408.116212,40811621.223506,6,-1.000000,""
python3action_floatoperation_job55_6,w0,python3action_floatoperation,0.997085,1,2000.000000,1,COMPLETED_SUCCESSFULLY,408.116232,2.439945,410.556178,407.119147,409.559093,167.855851,6,-1.000000,""
44_updated,w0,python3action_facedetection_SampleVideo_50mb_taurus,0.997085,1,2000.000000,1,COMPLETED_SUCCESSFULLY,278.987520,134.600046,413.587566,277.990435,412.590481,3.065307,12,-1.000000,""
44,w0,python3action_facedetection_SampleVideo_50mb,0.000000,1,-1.000000,1,COMPLETED_SUCCESSFULLY,413.587581,0.000010,413.587591,413.587581,413.587591,41358759.140841,12,-1.000000,""
104_updated,w0,python3action_imageprocessing_SampleImage_60mb_neowise,0.997085,1,2000.000000,1,COMPLETED_SUCCESSFULLY,388.517290,37.500000,426.017290,387.520205,425.020205,11.333872,1,-1.000000,""
104,w0,python3action_imageprocessing_SampleImage_60mb,0.000000,1,-1.000000,1,COMPLETED_SUCCESSFULLY,426.017305,0.000010,426.017315,426.017305,426.017315,42601731.500803,1,-1.000000,""
41_updated,w0,python3action_linpack_5000_orion,0.997085,1,2000.000000,1,COMPLETED_SUCCESSFULLY,397.163371,36.199977,433.363348,396.166286,432.366263,11.943827,11,-1.000000,""
41,w0,python3action_linpack_5000,0.000000,1,-1.000000,1,COMPLETED_SUCCESSFULLY,433.363363,0.000010,433.363373,433.363363,433.363373,43336337.308875,11,-1.000000,""
35_updated,w0,python3action_pyaes_3000_troll,0.997085,1,2000.000000,1,COMPLETED_SUCCESSFULLY,378.036997,57.166677,435.203674,377.039912,434.206589,7.595449,4,-1.000000,""
35,w0,python3action_pyaes_3000,0.000000,1,-1.000000,1,COMPLETED_SUCCESSFULLY,435.203689,0.000010,435.203699,435.203689,435.203699,43520369.900201,4,-1.000000,""
99_updated,w0,python3action_chameleon_3000_neowise,0.997085,1,2000.000000,1,COMPLETED_SUCCESSFULLY,383.417199,55.799998,439.217197,382.420114,438.220112,7.853407,0,-1.000000,""
99,w0,python3action_chameleon_3000,0.000000,1,-1.000000,1,COMPLETED_SUCCESSFULLY,439.217212,0.000010,439.217222,439.217212,439.217222,43921722.201004,0,-1.000000,""
54_updated,w0,python3action_pyaes_4000_nova,0.997085,1,2000.000000,1,COMPLETED_SUCCESSFULLY,300.837072,139.600010,440.437082,299.839987,439.439997,3.147851,10,-1.000000,""
54,w0,python3action_pyaes_4000,0.000000,1,-1.000000,1,COMPLETED_SUCCESSFULLY,440.437097,0.000010,440.437107,440.437097,440.437107,44043710.700201,10,-1.000000,""
python3action_floatoperation_job60_10,w0,python3action_floatoperation,0.997085,1,2000.000000,1,COMPLETED_SUCCESSFULLY,440.437127,2.439945,442.877072,439.440042,441.879987,181.102416,10,-1.000000,""
88_updated,w0,python3action_chameleon_3000_yeti,0.997085,1,2000.000000,1,COMPLETED_SUCCESSFULLY,373.895050,93.000000,466.895050,372.897965,465.897965,5.009656,5,-1.000000,""
88,w0,python3action_chameleon_3000,0.000000,1,-1.000000,1,COMPLETED_SUCCESSFULLY,466.895065,0.000010,466.895075,466.895065,466.895075,46689507.502009,5,-1.000000,""
114_updated,w0,python3action_modeltraining_reviews100mb_neowise,0.997085,1,2000.000000,1,COMPLETED_SUCCESSFULLY,426.017335,43.399999,469.417334,425.020250,468.420249,10.793094,1,-1.000000,""
114,w0,python3action_modeltraining_reviews100mb,0.000000,1,-1.000000,1,COMPLETED_SUCCESSFULLY,469.417349,0.000010,469.417359,469.417349,469.417359,46941735.900201,1,-1.000000,""
66_updated,w0,python3action_linpack_5000_orion,0.997085,1,2000.000000,1,COMPLETED_SUCCESSFULLY,433.363393,36.199977,469.563370,432.366308,468.566285,12.943828,11,-1.000000,""
66,w0,python3action_linpack_5000,0.000000,1,-1.000000,1,COMPLETED_SUCCESSFULLY,469.563385,0.000010,469.563395,469.563385,469.563395,46956339.502939,11,-1.000000,""
49_updated,w0,python3action_pyaes_4000_nova,0.997085,1,2000.000000,1,COMPLETED_SUCCESSFULLY,331.876922,139.600010,471.476932,330.879837,470.479847,3.370199,8,-1.000000,""
49,w0,python3action_pyaes_4000,0.000000,1,-1.000000,1,COMPLETED_SUCCESSFULLY,471.476947,0.000010,471.476957,471.476947,471.476957,47147695.701669,8,-1.000000,""
102_updated,w0,python3action_imageprocessing_SampleImage_60mb_neowise,0.997085,1,2000.000000,1,COMPLETED_SUCCESSFULLY,439.217242,37.500000,476.717242,438.220157,475.720157,12.685871,0,-1.000000,""
102,w0,python3action_imageprocessing_SampleImage_60mb,0.000000,1,-1.000000,1,COMPLETED_SUCCESSFULLY,476.717257,0.000010,476.717267,476.717257,476.717267,47671726.701607,0,-1.000000,""
55_updated,w0,python3action_floatoperation_100000000_nova,0.997085,1,2000.000000,1,COMPLETED_SUCCESSFULLY,410.556193,66.200020,476.756213,409.559108,475.759128,7.186692,6,-1.000000,""
55,w0,python3action_floatoperation_100000000,0.000000,1,-1.000000,1,COMPLETED_SUCCESSFULLY,476.756228,0.000010,476.756238,476.756228,476.756238,47675623.800201,6,-1.000000,""
56_updated,w0,python3action_videoprocessing_SampleVideo_30mb_nova,0.997085,1,2000.000000,1,COMPLETED_SUCCESSFULLY,382.941964,106.799980,489.741945,381.944879,488.744860,4.576264,7,-1.000000,""
56,w0,python3action_videoprocessing_SampleVideo_30mb,0.000000,1,-1.000000,1,COMPLETED_SUCCESSFULLY,489.741960,0.000010,489.741970,489.741960,489.741970,48974197.000201,7,-1.000000,""
111_updated,w0,python3action_modeltraining_reviews50mb_neowise,0.997085,1,2000.000000,1,COMPLETED_SUCCESSFULLY,476.717287,22.799998,499.517285,475.720202,498.520200,21.864923,0,-1.000000,""
111,w0,python3action_modeltraining_reviews50mb,0.000000,1,-1.000000,1,COMPLETED_SUCCESSFULLY,499.517300,0.000010,499.517310,499.517300,499.517310,49951731.000201,0,-1.000000,""
72_updated,w0,python3action_linpack_5000_orion,0.997085,1,2000.000000,1,COMPLETED_SUCCESSFULLY,469.563415,36.199977,505.763392,468.566330,504.766307,13.943830,11,-1.000000,""
72,w0,python3action_linpack_5000,0.000000,1,-1.000000,1,COMPLETED_SUCCESSFULLY,505.763407,0.000010,505.763417,505.763407,505.763417,50576341.700201,11,-1.000000,""
118_updated,w0,python3action_imageprocessing_SampleImage_60mb_neowise,0.997085,1,2000.000000,1,COMPLETED_SUCCESSFULLY,469.417379,37.500000,506.917379,468.420294,505.920294,13.491208,1,-1.000000,""
118,w0,python3action_imageprocessing_SampleImage_60mb,0.000000,1,-1.000000,1,COMPLETED_SUCCESSFULLY,506.917394,0.000010,506.917404,506.917394,506.917404,50691740.400803,1,-1.000000,""
60_updated,w0,python3action_floatoperation_100000000_nova,0.997085,1,2000.000000,1,COMPLETED_SUCCESSFULLY,442.877087,66.200020,509.077107,441.880002,508.080022,7.674923,10,-1.000000,""
60,w0,python3action_floatoperation_100000000,0.000000,1,-1.000000,1,COMPLETED_SUCCESSFULLY,509.077122,0.000010,509.077132,509.077122,509.077132,50907713.200201,10,-1.000000,""
python3action_modeltraining_job74_10,w0,python3action_modeltraining_reduced_1.94,0.997085,1,2000.000000,1,COMPLETED_SUCCESSFULLY,509.077152,0.000000,509.077152,508.080067,508.080067,10405400540430.947266,10,-1.000000,""
28_updated,w0,python3action_facedetection_SampleVideo_50mb_taurus,0.997085,1,2000.000000,1,COMPLETED_SUCCESSFULLY,387.687259,134.600046,522.287305,386.690174,521.290220,3.872883,2,-1.000000,""
28,w0,python3action_facedetection_SampleVideo_50mb,0.000000,1,-1.000000,1,COMPLETED_SUCCESSFULLY,522.287320,0.000010,522.287330,522.287320,522.287330,52228733.031032,2,-1.000000,""
39_updated,w0,python3action_facedetection_SampleVideo_50mb_taurus,0.997085,1,2000.000000,1,COMPLETED_SUCCESSFULLY,387.687424,134.600046,522.287470,386.690339,521.290385,3.872884,13,-1.000000,""
39,w0,python3action_facedetection_SampleVideo_50mb,0.000000,1,-1.000000,1,COMPLETED_SUCCESSFULLY,522.287485,0.000010,522.287495,522.287485,522.287495,52228749.532075,13,-1.000000,""
58_updated,w0,python3action_facedetection_SampleVideo_30mb_nova,0.997085,1,2000.000000,1,COMPLETED_SUCCESSFULLY,367.342108,160.399990,527.742099,366.345023,526.745014,3.283947,9,-1.000000,""
58,w0,python3action_facedetection_SampleVideo_30mb,0.000000,1,-1.000000,1,COMPLETED_SUCCESSFULLY,527.742114,0.000010,527.742124,527.742114,527.742124,52774212.400201,9,-1.000000,""
48_updated,w0,python3action_pyaes_4000_troll,0.997085,1,2000.000000,1,COMPLETED_SUCCESSFULLY,435.203719,102.333333,537.537052,434.206634,536.539967,5.243062,4,-1.000000,""
48,w0,python3action_pyaes_4000,0.000000,1,-1.000000,1,COMPLETED_SUCCESSFULLY,537.537067,0.000010,537.537077,537.537067,537.537077,53753707.734137,4,-1.000000,""
116_updated,w0,python3action_modeltraining_reviews100mb_neowise,0.997085,1,2000.000000,1,COMPLETED_SUCCESSFULLY,499.517330,43.399999,542.917329,498.520245,541.920244,12.486642,0,-1.000000,""
116,w0,python3action_modeltraining_reviews100mb,0.000000,1,-1.000000,1,COMPLETED_SUCCESSFULLY,542.917344,0.000010,542.917354,542.917344,542.917354,54291735.400201,0,-1.000000,""
53_updated,w0,python3action_facedetection_SampleVideo_50mb_taurus,0.997085,1,2000.000000,1,COMPLETED_SUCCESSFULLY,413.587611,134.600046,548.187658,412.590526,547.190573,4.065307,12,-1.000000,""
53,w0,python3action_facedetection_SampleVideo_50mb,0.000000,1,-1.000000,1,COMPLETED_SUCCESSFULLY,548.187673,0.000010,548.187683,548.187673,548.187683,54818768.300201,12,-1.000000,""
91_updated,w0,python3action_chameleon_3000_yeti,0.997085,1,2000.000000,1,COMPLETED_SUCCESSFULLY,466.895095,93.000000,559.895095,465.898010,558.898010,6.009656,5,-1.000000,""
91,w0,python3action_chameleon_3000,0.000000,1,-1.000000,1,COMPLETED_SUCCESSFULLY,559.895110,0.000010,559.895120,559.895110,559.895120,55989512.002611,5,-1.000000,""
120_updated,w0,python3action_chameleon_3000_neowise,0.997085,1,2000.000000,1,COMPLETED_SUCCESSFULLY,506.917424,55.799998,562.717422,505.920339,561.720337,10.066673,1,-1.000000,""
120,w0,python3action_chameleon_3000,0.000000,1,-1.000000,1,COMPLETED_SUCCESSFULLY,562.717437,0.000010,562.717447,562.717437,562.717447,56271744.700201,1,-1.000000,""
119_updated,w0,python3action_chameleon_2000_neowise,0.997085,1,2000.000000,1,COMPLETED_SUCCESSFULLY,542.917374,24.200002,567.117376,541.920289,566.120291,23.393398,0,-1.000000,""
119,w0,python3action_chameleon_2000,0.000000,1,-1.000000,1,COMPLETED_SUCCESSFULLY,567.117391,0.000010,567.117401,567.117391,567.117401,56711740.123188,0,-1.000000,""
python3action_image_processing_job79_11,w0,python3action_image_processing,0.997085,1,2000.000000,1,COMPLETED_SUCCESSFULLY,505.763437,72.012455,577.775892,504.766352,576.778807,8.009431,11,-1.000000,""
74_updated,w0,python3action_modeltraining_reviews100mb_nova,0.997085,1,2000.000000,1,COMPLETED_SUCCESSFULLY,509.077182,79.600010,588.677192,508.080097,587.680107,7.382915,10,-1.000000,""
74,w0,python3action_modeltraining_reviews100mb,0.000000,1,-1.000000,1,COMPLETED_SUCCESSFULLY,588.677207,0.000010,588.677217,588.677207,588.677217,58867721.700201,10,-1.000000,""
127_updated,w0,python3action_imageprocessing_SampleImage_60mb_neowise,0.997085,1,2000.000000,1,COMPLETED_SUCCESSFULLY,562.717467,37.500000,600.217467,561.720382,599.220382,15.979210,1,-1.000000,""
127,w0,python3action_imageprocessing_SampleImage_60mb,0.000000,1,-1.000000,1,COMPLETED_SUCCESSFULLY,600.217482,0.000010,600.217492,600.217482,600.217492,60021749.200803,1,-1.000000,""
122_updated,w0,python3action_imageprocessing_SampleImage_60mb_neowise,0.997085,1,2000.000000,1,COMPLETED_SUCCESSFULLY,567.117421,37.500000,604.617421,566.120336,603.620336,16.096542,0,-1.000000,""
122,w0,python3action_imageprocessing_SampleImage_60mb,0.000000,1,-1.000000,1,COMPLETED_SUCCESSFULLY,604.617436,0.000010,604.617446,604.617436,604.617446,60461744.623791,0,-1.000000,""
79_updated,w0,python3action_imageprocessing_SampleImage_40mb_orion,0.997085,1,2000.000000,1,COMPLETED_SUCCESSFULLY,577.775907,32.000000,609.775907,576.778822,608.778822,19.024338,11,-1.000000,""
79,w0,python3action_imageprocessing_SampleImage_40mb,0.000000,1,-1.000000,1,COMPLETED_SUCCESSFULLY,609.775922,0.000010,609.775932,609.775922,609.775932,60977593.232085,11,-1.000000,""
57_updated,w0,python3action_pyaes_4000_nova,0.997085,1,2000.000000,1,COMPLETED_SUCCESSFULLY,471.476977,139.600010,611.076987,470.479892,610.079902,4.370200,8,-1.000000,""
57,w0,python3action_pyaes_4000,0.000000,1,-1.000000,1,COMPLETED_SUCCESSFULLY,611.077002,0.000010,611.077012,611.077002,611.077012,61107701.200201,8,-1.000000,""
65_updated,w0,python3action_videoprocessing_SampleVideo_50mb_nova,0.997085,1,2000.000000,1,COMPLETED_SUCCESSFULLY,489.741990,139.600010,629.342000,488.744905,628.344915,4.501038,7,-1.000000,""
65,w0,python3action_videoprocessing_SampleVideo_50mb,0.000000,1,-1.000000,1,COMPLETED_SUCCESSFULLY,629.342015,0.000010,629.342025,629.342015,629.342025,62934202.500201,7,-1.000000,""
70_updated,w0,python3action_videoprocessing_SampleVideo_30mb_nova,0.997085,1,2000.000000,1,COMPLETED_SUCCESSFULLY,527.742144,106.799980,634.542124,526.745059,633.545039,5.932071,9,-1.000000,""
70,w0,python3action_videoprocessing_SampleVideo_30mb,0.000000,1,-1.000000,1,COMPLETED_SUCCESSFULLY,634.542139,0.000010,634.542149,634.542139,634.542149,63454214.947010,9,-1.000000,""
62_updated,w0,python3action_facedetection_SampleVideo_30mb_nova,0.997085,1,2000.000000,1,COMPLETED_SUCCESSFULLY,476.756258,160.399990,637.156248,475.759173,636.159163,3.966080,6,-1.000000,""
62,w0,python3action_facedetection_SampleVideo_30mb,0.000000,1,-1.000000,1,COMPLETED_SUCCESSFULLY,637.156263,0.000010,637.156273,637.156263,637.156273,63715627.323907,6,-1.000000,""
77_updated,w0,python3action_pyaes_4000_troll,0.997085,1,2000.000000,1,COMPLETED_SUCCESSFULLY,537.537097,102.333333,639.870431,536.540012,638.873346,6.243062,4,-1.000000,""
77,w0,python3action_pyaes_4000,0.000000,1,-1.000000,1,COMPLETED_SUCCESSFULLY,639.870446,0.000010,639.870456,639.870446,639.870456,63987045.600201,4,-1.000000,""
139_updated,w0,python3action_modeltraining_reviews100mb_neowise,0.997085,1,2000.000000,1,COMPLETED_SUCCESSFULLY,600.217512,43.399999,643.617511,599.220427,642.620426,14.806923,1,-1.000000,""
139,w0,python3action_modeltraining_reviews100mb,0.000000,1,-1.000000,1,COMPLETED_SUCCESSFULLY,643.617526,0.000010,643.617536,643.617526,643.617536,64361753.600201,1,-1.000000,""
133_updated,w0,python3action_modeltraining_reviews100mb_neowise,0.997085,1,2000.000000,1,COMPLETED_SUCCESSFULLY,604.617466,43.399999,648.017465,603.620381,647.020380,14.908304,0,-1.000000,""
133,w0,python3action_modeltraining_reviews100mb,0.000000,1,-1.000000,1,COMPLETED_SUCCESSFULLY,648.017480,0.000010,648.017490,648.017480,648.017490,64801749.013201,0,-1.000000,""
108_updated,w0,python3action_chameleon_3000_yeti,0.997085,1,2000.000000,1,COMPLETED_SUCCESSFULLY,559.895140,93.000000,652.895140,558.898055,651.898055,7.009657,5,-1.000000,""
108,w0,python3action_chameleon_3000,0.000000,1,-1.000000,1,COMPLETED_SUCCESSFULLY,652.895155,0.000010,652.895165,652.895155,652.895165,65289516.503213,5,-1.000000,""
43_updated,w0,python3action_facedetection_SampleVideo_50mb_taurus,0.997085,1,2000.000000,1,COMPLETED_SUCCESSFULLY,522.287350,134.600046,656.887396,521.290265,655.890311,4.872883,2,-1.000000,""
43,w0,python3action_facedetection_SampleVideo_50mb,0.000000,1,-1.000000,1,COMPLETED_SUCCESSFULLY,656.887411,0.000010,656.887421,656.887411,656.887421,65688742.144712,2,-1.000000,""
python3action_image_processing_job51_3,w0,python3action_image_processing_reduced_1.73,0.997085,1,2000.000000,1,COMPLETED_SUCCESSFULLY,656.887441,0.000000,656.887441,655.890356,655.890356,5689617936601.984375,2,-1.000000,""
50_updated,w0,python3action_facedetection_SampleVideo_50mb_taurus,0.997085,1,2000.000000,1,COMPLETED_SUCCESSFULLY,522.287515,134.600046,656.887561,521.290430,655.890476,4.872884,13,-1.000000,""
50,w0,python3action_facedetection_SampleVideo_50mb,0.000000,1,-1.000000,1,COMPLETED_SUCCESSFULLY,656.887576,0.000010,656.887586,656.887576,656.887586,65688758.645755,13,-1.000000,""
python3action_image_processing_job59_13,w0,python3action_image_processing_reduced_1.73,0.997085,1,2000.000000,1,COMPLETED_SUCCESSFULLY,656.887606,0.000000,656.887606,655.890521,655.890521,5689619368009.361328,13,-1.000000,""
140_updated,w0,python3action_chameleon_2000_neowise,0.997085,1,2000.000000,1,COMPLETED_SUCCESSFULLY,648.017510,24.200002,672.217512,647.020425,671.220427,27.736379,0,-1.000000,""
140,w0,python3action_chameleon_2000,0.000000,1,-1.000000,1,COMPLETED_SUCCESSFULLY,672.217527,0.000010,672.217537,672.217527,672.217537,67221753.736188,0,-1.000000,""
146_updated,w0,python3action_imageprocessing_SampleImage_60mb_neowise,0.997085,1,2000.000000,1,COMPLETED_SUCCESSFULLY,643.617556,37.500000,681.117556,642.620471,680.120471,18.136546,1,-1.000000,""
146,w0,python3action_imageprocessing_SampleImage_60mb,0.000000,1,-1.000000,1,COMPLETED_SUCCESSFULLY,681.117571,0.000010,681.117581,681.117571,681.117581,68111758.100803,1,-1.000000,""
73_updated,w0,python3action_facedetection_SampleVideo_50mb_taurus,0.997085,1,2000.000000,1,COMPLETED_SUCCESSFULLY,548.187703,134.600046,682.787749,547.190618,681.790664,5.065308,12,-1.000000,""
73,w0,python3action_facedetection_SampleVideo_50mb,0.000000,1,-1.000000,1,COMPLETED_SUCCESSFULLY,682.787764,0.000010,682.787774,682.787764,682.787774,68278777.413881,12,-1.000000,""
51_updated,w0,python3action_imageprocessing_SampleImage_40mb_taurus,0.997085,1,2000.000000,1,COMPLETED_SUCCESSFULLY,656.887471,32.600046,689.487518,655.890386,688.490433,21.119309,2,-1.000000,""
51,w0,python3action_imageprocessing_SampleImage_40mb,0.000000,1,-1.000000,1,COMPLETED_SUCCESSFULLY,689.487533,0.000010,689.487543,689.487533,689.487543,68948754.300201,2,-1.000000,""
59_updated,w0,python3action_imageprocessing_SampleImage_40mb_taurus,0.997085,1,2000.000000,1,COMPLETED_SUCCESSFULLY,656.887636,32.600046,689.487683,655.890551,688.490598,21.119314,13,-1.000000,""
59,w0,python3action_imageprocessing_SampleImage_40mb,0.000000,1,-1.000000,1,COMPLETED_SUCCESSFULLY,689.487698,0.000010,689.487708,689.487698,689.487708,68948770.800201,13,-1.000000,""
153_updated,w0,python3action_imageprocessing_SampleImage_60mb_neowise,0.997085,1,2000.000000,1,COMPLETED_SUCCESSFULLY,672.217557,37.500000,709.717557,671.220472,708.720472,18.899213,0,-1.000000,""
153,w0,python3action_imageprocessing_SampleImage_60mb,0.000000,1,-1.000000,1,COMPLETED_SUCCESSFULLY,709.717572,0.000010,709.717582,709.717572,709.717582,70971758.236791,0,-1.000000,""
82_updated,w0,python3action_linpack_6000_orion,0.997085,1,2000.000000,1,COMPLETED_SUCCESSFULLY,609.775952,106.000000,715.775952,608.778867,714.778867,6.743197,11,-1.000000,""
82,w0,python3action_linpack_6000,0.000000,1,-1.000000,1,COMPLETED_SUCCESSFULLY,715.775967,0.000010,715.775977,715.775967,715.775977,71577597.732687,11,-1.000000,""
76_updated,w0,python3action_imageprocessing_SampleImage_40mb_taurus,0.997085,1,2000.000000,1,COMPLETED_SUCCESSFULLY,689.487728,32.600046,722.087774,688.490643,721.090689,22.119315,13,-1.000000,""
76,w0,python3action_imageprocessing_SampleImage_40mb,0.000000,1,-1.000000,1,COMPLETED_SUCCESSFULLY,722.087789,0.000010,722.087799,722.087789,722.087799,72208779.913881,13,-1.000000,""
160_updated,w0,python3action_modeltraining_reviews100mb_neowise,0.997085,1,2000.000000,1,COMPLETED_SUCCESSFULLY,681.117601,43.399999,724.517600,680.120516,723.520515,16.670980,1,-1.000000,""
160,w0,python3action_modeltraining_reviews100mb,0.000000,1,-1.000000,1,COMPLETED_SUCCESSFULLY,724.517615,0.000010,724.517625,724.517615,724.517625,72451762.500201,1,-1.000000,""
100_updated,w0,python3action_pyaes_4000_nova,0.997085,1,2000.000000,1,COMPLETED_SUCCESSFULLY,588.677237,139.600010,728.277247,587.680152,727.280162,5.209743,10,-1.000000,""
100,w0,python3action_pyaes_4000,0.000000,1,-1.000000,1,COMPLETED_SUCCESSFULLY,728.277262,0.000010,728.277272,728.277262,728.277272,72827727.200201,10,-1.000000,""
164_updated,w0,python3action_modeltraining_reviews50mb_neowise,0.997085,1,2000.000000,1,COMPLETED_SUCCESSFULLY,709.717602,22.799998,732.517600,708.720517,731.520515,32.084236,0,-1.000000,""
164,w0,python3action_modeltraining_reviews50mb,0.000000,1,-1.000000,1,COMPLETED_SUCCESSFULLY,732.517615,0.000010,732.517625,732.517615,732.517625,73251762.515008,0,-1.000000,""
90_updated,w0,python3action_videoprocessing_SampleVideo_30mb_nova,0.997085,1,2000.000000,1,COMPLETED_SUCCESSFULLY,629.342045,106.799980,736.142025,628.344960,735.144940,6.883381,7,-1.000000,""
90,w0,python3action_videoprocessing_SampleVideo_30mb,0.000000,1,-1.000000,1,COMPLETED_SUCCESSFULLY,736.142040,0.000010,736.142050,736.142040,736.142050,73614205.047010,7,-1.000000,""
96_updated,w0,python3action_videoprocessing_SampleVideo_30mb_nova,0.997085,1,2000.000000,1,COMPLETED_SUCCESSFULLY,634.542169,106.799980,741.342150,633.545084,740.345065,6.932071,9,-1.000000,""
96,w0,python3action_videoprocessing_SampleVideo_30mb,0.000000,1,-1.000000,1,COMPLETED_SUCCESSFULLY,741.342165,0.000010,741.342175,741.342165,741.342175,74134217.500201,9,-1.000000,""
85_updated,w0,python3action_pyaes_4000_troll,0.997085,1,2000.000000,1,COMPLETED_SUCCESSFULLY,639.870476,102.333333,742.203809,638.873391,741.206724,7.243062,4,-1.000000,""
85,w0,python3action_pyaes_4000,0.000000,1,-1.000000,1,COMPLETED_SUCCESSFULLY,742.203824,0.000010,742.203834,742.203824,742.203834,74220383.434136,4,-1.000000,""
126_updated,w0,python3action_chameleon_3000_yeti,0.997085,1,2000.000000,1,COMPLETED_SUCCESSFULLY,652.895185,93.000000,745.895185,651.898100,744.898100,8.009657,5,-1.000000,""
126,w0,python3action_chameleon_3000,0.000000,1,-1.000000,1,COMPLETED_SUCCESSFULLY,745.895200,0.000010,745.895210,745.895200,745.895210,74589521.003816,5,-1.000000,""
97_updated,w0,python3action_imageprocessing_SampleImage_40mb_taurus,0.997085,1,2000.000000,1,COMPLETED_SUCCESSFULLY,722.087819,32.600046,754.687865,721.090734,753.690780,23.119316,13,-1.000000,""
97,w0,python3action_imageprocessing_SampleImage_40mb,0.000000,1,-1.000000,1,COMPLETED_SUCCESSFULLY,754.687880,0.000010,754.687890,754.687880,754.687890,75468789.027562,13,-1.000000,""
168_updated,w0,python3action_modeltraining_reviews100mb_neowise,0.997085,1,2000.000000,1,COMPLETED_SUCCESSFULLY,724.517645,43.399999,767.917644,723.520560,766.920559,17.670981,1,-1.000000,""
168,w0,python3action_modeltraining_reviews100mb,0.000000,1,-1.000000,1,COMPLETED_SUCCESSFULLY,767.917659,0.000010,767.917669,767.917659,767.917669,76791766.900201,1,-1.000000,""
170_updated,w0,python3action_imageprocessing_SampleImage_60mb_neowise,0.997085,1,2000.000000,1,COMPLETED_SUCCESSFULLY,732.517645,37.500000,770.017645,731.520560,769.020560,20.507215,0,-1.000000,""
170,w0,python3action_imageprocessing_SampleImage_60mb,0.000000,1,-1.000000,1,COMPLETED_SUCCESSFULLY,770.017660,0.000010,770.017670,770.017660,770.017670,77001767.015610,0,-1.000000,""
68_updated,w0,python3action_facedetection_SampleVideo_30mb_nova,0.997085,1,2000.000000,1,COMPLETED_SUCCESSFULLY,611.077032,160.399990,771.477022,610.079947,770.479937,4.803491,8,-1.000000,""
68,w0,python3action_facedetection_SampleVideo_30mb,0.000000,1,-1.000000,1,COMPLETED_SUCCESSFULLY,771.477037,0.000010,771.477047,771.477037,771.477047,77147704.723907,8,-1.000000,""
84_updated,w0,python3action_floatoperation_200000000_nova,0.997085,1,2000.000000,1,COMPLETED_SUCCESSFULLY,637.156293,135.399990,772.556283,636.159208,771.559198,5.698370,6,-1.000000,""
84,w0,python3action_floatoperation_200000000,0.000000,1,-1.000000,1,COMPLETED_SUCCESSFULLY,772.556298,0.000010,772.556308,772.556298,772.556308,77255630.847613,6,-1.000000,""
173_updated,w0,python3action_chameleon_2000_neowise,0.997085,1,2000.000000,1,COMPLETED_SUCCESSFULLY,767.917689,24.200002,792.117691,766.920604,791.120606,32.690931,1,-1.000000,""
173,w0,python3action_chameleon_2000,0.000000,1,-1.000000,1,COMPLETED_SUCCESSFULLY,792.117706,0.000010,792.117716,792.117706,792.117716,79211771.623188,1,-1.000000,""
113_updated,w0,python3action_floatoperation_100000000_nova,0.997085,1,2000.000000,1,COMPLETED_SUCCESSFULLY,728.277292,66.200020,794.477312,727.280207,793.480227,11.986103,10,-1.000000,""
113,w0,python3action_floatoperation_100000000,0.000000,1,-1.000000,1,COMPLETED_SUCCESSFULLY,794.477327,0.000010,794.477337,794.477327,794.477337,79447733.700201,10,-1.000000,""
94_updated,w0,python3action_pyaes_3000_troll,0.997085,1,2000.000000,1,COMPLETED_SUCCESSFULLY,742.203854,57.166677,799.370531,741.206769,798.373446,13.965714,4,-1.000000,""
94,w0,python3action_pyaes_3000,0.000000,1,-1.000000,1,COMPLETED_SUCCESSFULLY,799.370546,0.000010,799.370556,799.370546,799.370556,79937055.600201,4,-1.000000,""
179_updated,w0,python3action_modeltraining_reviews100mb_neowise,0.997085,1,2000.000000,1,COMPLETED_SUCCESSFULLY,770.017690,43.399999,813.417689,769.020605,812.420604,18.719369,0,-1.000000,""
179,w0,python3action_modeltraining_reviews100mb,0.000000,1,-1.000000,1,COMPLETED_SUCCESSFULLY,813.417704,0.000010,813.417714,813.417704,813.417714,81341771.405020,0,-1.000000,""
87_updated,w0,python3action_facedetection_SampleVideo_50mb_taurus,0.997085,1,2000.000000,1,COMPLETED_SUCCESSFULLY,682.787794,134.600046,817.387840,681.790709,816.390755,6.065308,12,-1.000000,""
87,w0,python3action_facedetection_SampleVideo_50mb,0.000000,1,-1.000000,1,COMPLETED_SUCCESSFULLY,817.387855,0.000010,817.387865,817.387855,817.387865,81738786.527561,12,-1.000000,""
python3action_video_processing_job110_12,w0,python3action_video_processing_reduced_1.83,0.997085,1,2000.000000,1,COMPLETED_SUCCESSFULLY,817.387885,0.000000,817.387885,816.390800,816.390800,7081902782776.599609,12,-1.000000,""
103_updated,w0,python3action_linpack_6000_orion,0.997085,1,2000.000000,1,COMPLETED_SUCCESSFULLY,715.775997,106.000000,821.775997,714.778912,820.778912,7.743197,11,-1.000000,""
103,w0,python3action_linpack_6000,0.000000,1,-1.000000,1,COMPLETED_SUCCESSFULLY,821.776012,0.000010,821.776022,821.776012,821.776022,82177602.233289,11,-1.000000,""
185_updated,w0,python3action_imageprocessing_SampleImage_60mb_neowise,0.997085,1,2000.000000,1,COMPLETED_SUCCESSFULLY,792.117736,37.500000,829.617736,791.120651,828.620651,22.096551,1,-1.000000,""
185,w0,python3action_imageprocessing_SampleImage_60mb,0.000000,1,-1.000000,1,COMPLETED_SUCCESSFULLY,829.617751,0.000010,829.617761,829.617751,829.617761,82961776.123791,1,-1.000000,""
132_updated,w0,python3action_chameleon_3000_yeti,0.997085,1,2000.000000,1,COMPLETED_SUCCESSFULLY,745.895230,93.000000,838.895230,744.898145,837.898145,9.009657,5,-1.000000,""
132,w0,python3action_chameleon_3000,0.000000,1,-1.000000,1,COMPLETED_SUCCESSFULLY,838.895245,0.000010,838.895255,838.895245,838.895255,83889525.504418,5,-1.000000,""
64_updated,w0,python3action_videoprocessing_SampleVideo_50mb_taurus,0.997085,1,2000.000000,1,COMPLETED_SUCCESSFULLY,689.487563,154.250029,843.737592,688.490478,842.740507,5.463471,2,-1.000000,""
64,w0,python3action_videoprocessing_SampleVideo_50mb,0.000000,1,-1.000000,1,COMPLETED_SUCCESSFULLY,843.737607,0.000010,843.737617,843.737607,843.737617,84373761.700201,2,-1.000000,""
197_updated,w0,python3action_modeltraining_reviews50mb_neowise,0.997085,1,2000.000000,1,COMPLETED_SUCCESSFULLY,829.617781,22.799998,852.417779,828.620696,851.420694,37.343017,1,-1.000000,""
197,w0,python3action_modeltraining_reviews50mb,0.000000,1,-1.000000,1,COMPLETED_SUCCESSFULLY,852.417794,0.000010,852.417804,852.417794,852.417804,85241780.402008,1,-1.000000,""
117_updated,w0,python3action_linpack_5000_orion,0.997085,1,2000.000000,1,COMPLETED_SUCCESSFULLY,821.776042,36.199977,857.976019,820.778957,856.978934,23.673466,11,-1.000000,""
117,w0,python3action_linpack_5000,0.000000,1,-1.000000,1,COMPLETED_SUCCESSFULLY,857.976034,0.000010,857.976044,857.976034,857.976044,85797604.427352,11,-1.000000,""
187_updated,w0,python3action_chameleon_3000_neowise,0.997085,1,2000.000000,1,COMPLETED_SUCCESSFULLY,813.417734,55.799998,869.217732,812.420649,868.220647,15.559510,0,-1.000000,""
187,w0,python3action_chameleon_3000,0.000000,1,-1.000000,1,COMPLETED_SUCCESSFULLY,869.217747,0.000010,869.217757,869.217747,869.217757,86921775.700201,0,-1.000000,""
106_updated,w0,python3action_floatoperation_200000000_nova,0.997085,1,2000.000000,1,COMPLETED_SUCCESSFULLY,736.142070,135.399990,871.542061,735.144985,870.544976,6.429432,7,-1.000000,""
106,w0,python3action_floatoperation_200000000,0.000000,1,-1.000000,1,COMPLETED_SUCCESSFULLY,871.542076,0.000010,871.542086,871.542076,871.542086,87154208.600201,7,-1.000000,""
python3action_facedetection_job124_7,w0,python3action_facedetection_reduced_0.91,0.997085,1,2000.000000,1,COMPLETED_SUCCESSFULLY,871.542106,2.614259,874.156365,870.545021,873.159280,333.998830,7,-1.000000,""
121_updated,w0,python3action_pyaes_4000_troll,0.997085,1,2000.000000,1,COMPLETED_SUCCESSFULLY,799.370576,102.333333,901.703909,798.373491,900.706824,8.801695,4,-1.000000,""
121,w0,python3action_pyaes_4000,0.000000,1,-1.000000,1,COMPLETED_SUCCESSFULLY,901.703924,0.000010,901.703934,901.703924,901.703934,90170393.434136,4,-1.000000,""
109_updated,w0,python3action_facedetection_SampleVideo_30mb_nova,0.997085,1,2000.000000,1,COMPLETED_SUCCESSFULLY,741.342195,160.399990,901.742185,740.345110,900.745100,5.615618,9,-1.000000,""
109,w0,python3action_facedetection_SampleVideo_30mb,0.000000,1,-1.000000,1,COMPLETED_SUCCESSFULLY,901.742200,0.000010,901.742210,901.742200,901.742210,90174221.023907,9,-1.000000,""
92_updated,w0,python3action_floatoperation_200000000_nova,0.997085,1,2000.000000,1,COMPLETED_SUCCESSFULLY,771.477067,135.399990,906.877057,770.479982,905.879972,6.690399,8,-1.000000,""
92,w0,python3action_floatoperation_200000000,0.000000,1,-1.000000,1,COMPLETED_SUCCESSFULLY,906.877072,0.000010,906.877082,906.877072,906.877082,90687708.247612,8,-1.000000,""
105_updated,w0,python3action_floatoperation_200000000_nova,0.997085,1,2000.000000,1,COMPLETED_SUCCESSFULLY,772.556328,135.399990,907.956319,771.559243,906.959234,6.698370,6,-1.000000,""
105,w0,python3action_floatoperation_200000000,0.000000,1,-1.000000,1,COMPLETED_SUCCESSFULLY,907.956334,0.000010,907.956344,907.956334,907.956344,90795634.400201,6,-1.000000,""
112_updated,w0,python3action_videoprocessing_SampleVideo_50mb_taurus,0.997085,1,2000.000000,1,COMPLETED_SUCCESSFULLY,754.687910,154.250029,908.937939,753.690825,907.940854,5.886163,13,-1.000000,""
112,w0,python3action_videoprocessing_SampleVideo_50mb,0.000000,1,-1.000000,1,COMPLETED_SUCCESSFULLY,908.937954,0.000010,908.937964,908.937954,908.937964,90893796.411338,13,-1.000000,""
144_updated,w0,python3action_chameleon_3000_yeti,0.997085,1,2000.000000,1,COMPLETED_SUCCESSFULLY,838.895275,93.000000,931.895275,837.898190,930.898190,10.009658,5,-1.000000,""
144,w0,python3action_chameleon_3000,0.000000,1,-1.000000,1,COMPLETED_SUCCESSFULLY,931.895290,0.000010,931.895300,931.895290,931.895300,93189530.005020,5,-1.000000,""
129_updated,w0,python3action_imageprocessing_SampleImage_40mb_taurus,0.997085,1,2000.000000,1,COMPLETED_SUCCESSFULLY,908.937984,32.600046,941.538030,907.940899,940.540945,28.850908,13,-1.000000,""
129,w0,python3action_imageprocessing_SampleImage_40mb,0.000000,1,-1.000000,1,COMPLETED_SUCCESSFULLY,941.538045,0.000010,941.538055,941.538045,941.538055,94153805.525018,13,-1.000000,""
134_updated,w0,python3action_facedetection_SampleVideo_30mb_nova,0.997085,1,2000.000000,1,COMPLETED_SUCCESSFULLY,794.477357,160.399990,954.877347,793.480272,953.880262,5.946885,10,-1.000000,""
134,w0,python3action_facedetection_SampleVideo_30mb,0.000000,1,-1.000000,1,COMPLETED_SUCCESSFULLY,954.877362,0.000010,954.877372,954.877362,954.877372,95487737.223907,10,-1.000000,""
131_updated,w0,python3action_pyaes_3000_troll,0.997085,1,2000.000000,1,COMPLETED_SUCCESSFULLY,901.703954,57.166677,958.870631,900.706869,957.873546,16.755803,4,-1.000000,""
131,w0,python3action_pyaes_3000,0.000000,1,-1.000000,1,COMPLETED_SUCCESSFULLY,958.870646,0.000010,958.870656,958.870646,958.870656,95887065.600201,4,-1.000000,""
138_updated,w0,python3action_linpack_6000_orion,0.997085,1,2000.000000,1,COMPLETED_SUCCESSFULLY,857.976064,106.000000,963.976064,856.978979,962.978979,9.084707,11,-1.000000,""
138,w0,python3action_linpack_6000,0.000000,1,-1.000000,1,COMPLETED_SUCCESSFULLY,963.976079,0.000010,963.976089,963.976079,963.976089,96397608.927955,11,-1.000000,""
110_updated,w0,python3action_videoprocessing_SampleVideo_50mb_taurus,0.997085,1,2000.000000,1,COMPLETED_SUCCESSFULLY,817.387915,154.250029,971.637944,816.390830,970.640859,6.292646,12,-1.000000,""
110,w0,python3action_videoprocessing_SampleVideo_50mb,0.000000,1,-1.000000,1,COMPLETED_SUCCESSFULLY,971.637959,0.000010,971.637969,971.637959,971.637969,97163796.911739,12,-1.000000,""
147_updated,w0,python3action_imageprocessing_SampleImage_40mb_orion,0.997085,1,2000.000000,1,COMPLETED_SUCCESSFULLY,963.976109,32.000000,995.976109,962.979024,994.979024,31.093095,11,-1.000000,""
147,w0,python3action_imageprocessing_SampleImage_40mb,0.000000,1,-1.000000,1,COMPLETED_SUCCESSFULLY,995.976124,0.000010,995.976134,995.976124,995.976134,99597613.428557,11,-1.000000,""
78_updated,w0,python3action_videoprocessing_SampleVideo_50mb_taurus,0.997085,1,2000.000000,1,COMPLETED_SUCCESSFULLY,843.737637,154.250029,997.987666,842.740552,996.990581,6.463471,2,-1.000000,""
78,w0,python3action_videoprocessing_SampleVideo_50mb,0.000000,1,-1.000000,1,COMPLETED_SUCCESSFULLY,997.987681,0.000010,997.987691,997.987681,997.987691,99798769.100201,2,-1.000000,""
130_updated,w0,python3action_videoprocessing_SampleVideo_30mb_nova,0.997085,1,2000.000000,1,COMPLETED_SUCCESSFULLY,901.742230,106.799980,1008.542211,900.745145,1007.545126,9.433945,9,-1.000000,""
130,w0,python3action_videoprocessing_SampleVideo_30mb,0.000000,1,-1.000000,1,COMPLETED_SUCCESSFULLY,1008.542226,0.000010,1008.542236,1008.542226,1008.542236,100854223.600201,9,-1.000000,""
136_updated,w0,python3action_pyaes_3000_troll,0.997085,1,2000.000000,1,COMPLETED_SUCCESSFULLY,958.870676,57.166677,1016.037353,957.873591,1015.040268,17.755803,4,-1.000000,""
136,w0,python3action_pyaes_3000,0.000000,1,-1.000000,1,COMPLETED_SUCCESSFULLY,1016.037368,0.000010,1016.037378,1016.037368,1016.037378,101603737.800201,4,-1.000000,""
154_updated,w0,python3action_chameleon_3000_yeti,0.997085,1,2000.000000,1,COMPLETED_SUCCESSFULLY,931.895320,93.000000,1024.895320,930.898235,1023.898235,11.009658,5,-1.000000,""
154,w0,python3action_chameleon_3000,0.000000,1,-1.000000,1,COMPLETED_SUCCESSFULLY,1024.895335,0.000010,1024.895345,1024.895335,1024.895345,102489534.505623,5,-1.000000,""
161_updated,w0,python3action_linpack_5000_orion,0.997085,1,2000.000000,1,COMPLETED_SUCCESSFULLY,995.976154,36.199977,1032.176131,994.979069,1031.179046,28.485627,11,-1.000000,""
161,w0,python3action_linpack_5000,0.000000,1,-1.000000,1,COMPLETED_SUCCESSFULLY,1032.176146,0.000010,1032.176156,1032.176146,1032.176156,103217615.622620,11,-1.000000,""
124_updated,w0,python3action_facedetection_SampleVideo_30mb_nova,0.997085,1,2000.000000,1,COMPLETED_SUCCESSFULLY,874.156380,160.399990,1034.556370,873.159295,1033.559285,6.443637,7,-1.000000,""
124,w0,python3action_facedetection_SampleVideo_30mb,0.000000,1,-1.000000,1,COMPLETED_SUCCESSFULLY,1034.556385,0.000010,1034.556395,1034.556385,1034.556395,103455639.523505,7,-1.000000,""
115_updated,w0,python3action_floatoperation_200000000_nova,0.997085,1,2000.000000,1,COMPLETED_SUCCESSFULLY,907.956364,135.399990,1043.356354,906.959279,1042.359269,7.698370,6,-1.000000,""
115,w0,python3action_floatoperation_200000000,0.000000,1,-1.000000,1,COMPLETED_SUCCESSFULLY,1043.356369,0.000010,1043.356379,1043.356369,1043.356379,104335637.923907,6,-1.000000,""
107_updated,w0,python3action_facedetection_SampleVideo_30mb_nova,0.997085,1,2000.000000,1,COMPLETED_SUCCESSFULLY,906.877102,160.399990,1067.277093,905.880017,1066.280008,6.647631,8,-1.000000,""
107,w0,python3action_facedetection_SampleVideo_30mb,0.000000,1,-1.000000,1,COMPLETED_SUCCESSFULLY,1067.277108,0.000010,1067.277118,1067.277108,1067.277118,106727711.800201,8,-1.000000,""
145_updated,w0,python3action_videoprocessing_SampleVideo_50mb_taurus,0.997085,1,2000.000000,1,COMPLETED_SUCCESSFULLY,941.538075,154.250029,1095.788104,940.540990,1094.791019,7.097509,13,-1.000000,""
145,w0,python3action_videoprocessing_SampleVideo_50mb,0.000000,1,-1.000000,1,COMPLETED_SUCCESSFULLY,1095.788119,0.000010,1095.788129,1095.788119,1095.788129,109578812.908794,13,-1.000000,""
142_updated,w0,python3action_floatoperation_100000000_nova,0.997085,1,2000.000000,1,COMPLETED_SUCCESSFULLY,1034.556415,66.200020,1100.756435,1033.559330,1099.759350,16.612674,7,-1.000000,""
142,w0,python3action_floatoperation_100000000,0.000000,1,-1.000000,1,COMPLETED_SUCCESSFULLY,1100.756450,0.000010,1100.756460,1100.756450,1100.756460,110075646.000201,7,-1.000000,""
137_updated,w0,python3action_floatoperation_100000000_nova,0.997085,1,2000.000000,1,COMPLETED_SUCCESSFULLY,1043.356399,66.200020,1109.556419,1042.359314,1108.559334,16.745604,6,-1.000000,""
137,w0,python3action_floatoperation_100000000,0.000000,1,-1.000000,1,COMPLETED_SUCCESSFULLY,1109.556434,0.000010,1109.556444,1109.556434,1109.556444,110955644.400201,6,-1.000000,""
155_updated,w0,python3action_facedetection_SampleVideo_30mb_nova,0.997085,1,2000.000000,1,COMPLETED_SUCCESSFULLY,954.877392,160.399990,1115.277382,953.880307,1114.280297,6.946885,10,-1.000000,""
155,w0,python3action_facedetection_SampleVideo_30mb,0.000000,1,-1.000000,1,COMPLETED_SUCCESSFULLY,1115.277397,0.000010,1115.277407,1115.277397,1115.277407,111527740.747613,10,-1.000000,""
158_updated,w0,python3action_chameleon_3000_yeti,0.997085,1,2000.000000,1,COMPLETED_SUCCESSFULLY,1024.895365,93.000000,1117.895365,1023.898280,1116.898280,12.009659,5,-1.000000,""
158,w0,python3action_chameleon_3000,0.000000,1,-1.000000,1,COMPLETED_SUCCESSFULLY,1117.895380,0.000010,1117.895390,1117.895380,1117.895390,111789539.006225,5,-1.000000,""
143_updated,w0,python3action_pyaes_4000_troll,0.997085,1,2000.000000,1,COMPLETED_SUCCESSFULLY,1016.037398,102.333333,1118.370731,1015.040313,1117.373646,10.918961,4,-1.000000,""
143,w0,python3action_pyaes_4000,0.000000,1,-1.000000,1,COMPLETED_SUCCESSFULLY,1118.370746,0.000010,1118.370756,1118.370746,1118.370756,111837075.634136,4,-1.000000,""
125_updated,w0,python3action_videoprocessing_SampleVideo_50mb_taurus,0.997085,1,2000.000000,1,COMPLETED_SUCCESSFULLY,971.637989,154.250029,1125.888018,970.640904,1124.890933,7.292647,12,-1.000000,""
125,w0,python3action_videoprocessing_SampleVideo_50mb,0.000000,1,-1.000000,1,COMPLETED_SUCCESSFULLY,1125.888033,0.000010,1125.888043,1125.888033,1125.888043,112588804.300201,12,-1.000000,""
167_updated,w0,python3action_linpack_6000_orion,0.997085,1,2000.000000,1,COMPLETED_SUCCESSFULLY,1032.176176,106.000000,1138.176176,1031.179091,1137.179091,10.728105,11,-1.000000,""
167,w0,python3action_linpack_6000,0.000000,1,-1.000000,1,COMPLETED_SUCCESSFULLY,1138.176191,0.000010,1138.176201,1138.176191,1138.176201,113817620.123223,11,-1.000000,""
150_updated,w0,python3action_floatoperation_200000000_nova,0.997085,1,2000.000000,1,COMPLETED_SUCCESSFULLY,1008.542256,135.399990,1143.942246,1007.545171,1142.945161,8.441250,9,-1.000000,""
150,w0,python3action_floatoperation_200000000,0.000000,1,-1.000000,1,COMPLETED_SUCCESSFULLY,1143.942261,0.000010,1143.942271,1143.942261,1143.942271,114394227.123907,9,-1.000000,""
98_updated,w0,python3action_videoprocessing_SampleVideo_50mb_taurus,0.997085,1,2000.000000,1,COMPLETED_SUCCESSFULLY,997.987711,154.250029,1152.237740,996.990626,1151.240655,7.463471,2,-1.000000,""
98,w0,python3action_videoprocessing_SampleVideo_50mb,0.000000,1,-1.000000,1,COMPLETED_SUCCESSFULLY,1152.237755,0.000010,1152.237765,1152.237755,1152.237765,115223776.500201,2,-1.000000,""
141_updated,w0,python3action_imageprocessing_SampleImage_40mb_taurus,0.997085,1,2000.000000,1,COMPLETED_SUCCESSFULLY,1125.888063,32.600046,1158.488109,1124.890978,1157.491024,35.505809,12,-1.000000,""
141,w0,python3action_imageprocessing_SampleImage_40mb,0.000000,1,-1.000000,1,COMPLETED_SUCCESSFULLY,1158.488124,0.000010,1158.488134,1158.488124,1158.488134,115848813.413881,12,-1.000000,""
157_updated,w0,python3action_floatoperation_100000000_nova,0.997085,1,2000.000000,1,COMPLETED_SUCCESSFULLY,1100.756480,66.200020,1166.956500,1099.759395,1165.959415,17.612675,7,-1.000000,""
157,w0,python3action_floatoperation_100000000,0.000000,1,-1.000000,1,COMPLETED_SUCCESSFULLY,1166.956515,0.000010,1166.956525,1166.956515,1166.956525,116695652.500201,7,-1.000000,""
180_updated,w0,python3action_linpack_5000_orion,0.997085,1,2000.000000,1,COMPLETED_SUCCESSFULLY,1138.176221,36.199977,1174.376198,1137.179136,1173.379113,32.413808,11,-1.000000,""
180,w0,python3action_linpack_5000,0.000000,1,-1.000000,1,COMPLETED_SUCCESSFULLY,1174.376213,0.000010,1174.376223,1174.376213,1174.376223,117437622.317286,11,-1.000000,""
151_updated,w0,python3action_pyaes_3000_troll,0.997085,1,2000.000000,1,COMPLETED_SUCCESSFULLY,1118.370776,57.166677,1175.537453,1117.373691,1174.540368,20.545892,4,-1.000000,""
151,w0,python3action_pyaes_3000,0.000000,1,-1.000000,1,COMPLETED_SUCCESSFULLY,1175.537468,0.000010,1175.537478,1175.537468,1175.537478,117553747.800201,4,-1.000000,""
156_updated,w0,python3action_floatoperation_100000000_nova,0.997085,1,2000.000000,1,COMPLETED_SUCCESSFULLY,1109.556464,66.200020,1175.756484,1108.559379,1174.759399,17.745605,6,-1.000000,""
156,w0,python3action_floatoperation_100000000,0.000000,1,-1.000000,1,COMPLETED_SUCCESSFULLY,1175.756499,0.000010,1175.756509,1175.756499,1175.756509,117575650.900201,6,-1.000000,""
128_updated,w0,python3action_floatoperation_200000000_nova,0.997085,1,2000.000000,1,COMPLETED_SUCCESSFULLY,1067.277138,135.399990,1202.677128,1066.280053,1201.680043,8.875038,8,-1.000000,""
128,w0,python3action_floatoperation_200000000,0.000000,1,-1.000000,1,COMPLETED_SUCCESSFULLY,1202.677143,0.000010,1202.677153,1202.677143,1202.677153,120267715.323907,8,-1.000000,""
166_updated,w0,python3action_floatoperation_100000000_nova,0.997085,1,2000.000000,1,COMPLETED_SUCCESSFULLY,1143.942291,66.200020,1210.142311,1142.945206,1209.145226,18.265028,9,-1.000000,""
166,w0,python3action_floatoperation_100000000,0.000000,1,-1.000000,1,COMPLETED_SUCCESSFULLY,1210.142326,0.000010,1210.142336,1210.142326,1210.142336,121014233.600201,9,-1.000000,""
181_updated,w0,python3action_linpack_5000_orion,0.997085,1,2000.000000,1,COMPLETED_SUCCESSFULLY,1174.376243,36.199977,1210.576220,1173.379158,1209.579135,33.413810,11,-1.000000,""
181,w0,python3action_linpack_5000,0.000000,1,-1.000000,1,COMPLETED_SUCCESSFULLY,1210.576235,0.000010,1210.576245,1210.576235,1210.576245,121057624.511349,11,-1.000000,""
165_updated,w0,python3action_chameleon_3000_yeti,0.997085,1,2000.000000,1,COMPLETED_SUCCESSFULLY,1117.895410,93.000000,1210.895410,1116.898325,1209.898325,13.009659,5,-1.000000,""
165,w0,python3action_chameleon_3000,0.000000,1,-1.000000,1,COMPLETED_SUCCESSFULLY,1210.895425,0.000010,1210.895435,1210.895425,1210.895435,121089543.506827,5,-1.000000,""
152_updated,w0,python3action_pyaes_3000_troll,0.997085,1,2000.000000,1,COMPLETED_SUCCESSFULLY,1175.537498,57.166677,1232.704175,1174.540413,1231.707090,21.545893,4,-1.000000,""
152,w0,python3action_pyaes_3000,0.000000,1,-1.000000,1,COMPLETED_SUCCESSFULLY,1232.704190,0.000010,1232.704200,1232.704190,1232.704200,123270420.000201,4,-1.000000,""
163_updated,w0,python3action_videoprocessing_SampleVideo_50mb_taurus,0.997085,1,2000.000000,1,COMPLETED_SUCCESSFULLY,1095.788149,154.250029,1250.038178,1094.791064,1249.041093,8.097510,13,-1.000000,""
163,w0,python3action_videoprocessing_SampleVideo_50mb,0.000000,1,-1.000000,1,COMPLETED_SUCCESSFULLY,1250.038193,0.000010,1250.038203,1250.038193,1250.038203,125003820.300201,13,-1.000000,""
169_updated,w0,python3action_floatoperation_200000000_nova,0.997085,1,2000.000000,1,COMPLETED_SUCCESSFULLY,1115.277427,135.399990,1250.677418,1114.280342,1249.680333,9.229545,10,-1.000000,""
169,w0,python3action_floatoperation_200000000,0.000000,1,-1.000000,1,COMPLETED_SUCCESSFULLY,1250.677433,0.000010,1250.677443,1250.677433,1250.677443,125067744.300201,10,-1.000000,""
148_updated,w0,python3action_floatoperation_100000000_nova,0.997085,1,2000.000000,1,COMPLETED_SUCCESSFULLY,1202.677173,66.200020,1268.877193,1201.680088,1267.880108,19.152262,8,-1.000000,""
148,w0,python3action_floatoperation_100000000,0.000000,1,-1.000000,1,COMPLETED_SUCCESSFULLY,1268.877208,0.000010,1268.877218,1268.877208,1268.877218,126887721.800201,8,-1.000000,""
172_updated,w0,python3action_videoprocessing_SampleVideo_30mb_nova,0.997085,1,2000.000000,1,COMPLETED_SUCCESSFULLY,1166.956545,106.799980,1273.756525,1165.959460,1272.759440,11.917225,7,-1.000000,""
172,w0,python3action_videoprocessing_SampleVideo_30mb,0.000000,1,-1.000000,1,COMPLETED_SUCCESSFULLY,1273.756540,0.000010,1273.756550,1273.756540,1273.756550,127375655.047010,7,-1.000000,""
162_updated,w0,python3action_facedetection_SampleVideo_50mb_taurus,0.997085,1,2000.000000,1,COMPLETED_SUCCESSFULLY,1158.488154,134.600046,1293.088200,1157.491069,1292.091115,9.599485,12,-1.000000,""
162,w0,python3action_facedetection_SampleVideo_50mb,0.000000,1,-1.000000,1,COMPLETED_SUCCESSFULLY,1293.088215,0.000010,1293.088225,1293.088215,1293.088225,129308822.527562,12,-1.000000,""
175_updated,w0,python3action_chameleon_3000_yeti,0.997085,1,2000.000000,1,COMPLETED_SUCCESSFULLY,1210.895455,93.000000,1303.895455,1209.898370,1302.898370,14.009660,5,-1.000000,""
175,w0,python3action_chameleon_3000,0.000000,1,-1.000000,1,COMPLETED_SUCCESSFULLY,1303.895470,0.000010,1303.895480,1303.895470,1303.895480,130389548.007430,5,-1.000000,""
123_updated,w0,python3action_videoprocessing_SampleVideo_50mb_taurus,0.997085,1,2000.000000,1,COMPLETED_SUCCESSFULLY,1152.237785,154.250029,1306.487814,1151.240700,1305.490729,8.463472,2,-1.000000,""
123,w0,python3action_videoprocessing_SampleVideo_50mb,0.000000,1,-1.000000,1,COMPLETED_SUCCESSFULLY,1306.487829,0.000010,1306.487839,1306.487829,1306.487839,130648783.900201,2,-1.000000,""
171_updated,w0,python3action_floatoperation_200000000_nova,0.997085,1,2000.000000,1,COMPLETED_SUCCESSFULLY,1175.756529,135.399990,1311.156519,1174.759444,1310.159434,9.676215,6,-1.000000,""
171,w0,python3action_floatoperation_200000000,0.000000,1,-1.000000,1,COMPLETED_SUCCESSFULLY,1311.156534,0.000010,1311.156544,1311.156534,1311.156544,131115654.423907,6,-1.000000,""
183_updated,w0,python3action_linpack_6000_orion,0.997085,1,2000.000000,1,COMPLETED_SUCCESSFULLY,1210.576265,106.000000,1316.576265,1209.579180,1315.579180,12.411124,11,-1.000000,""
183,w0,python3action_linpack_6000,0.000000,1,-1.000000,1,COMPLETED_SUCCESSFULLY,1316.576280,0.000010,1316.576290,1316.576280,1316.576290,131657629.011952,11,-1.000000,""
177_updated,w0,python3action_videoprocessing_SampleVideo_30mb_nova,0.997085,1,2000.000000,1,COMPLETED_SUCCESSFULLY,1210.142356,106.799980,1316.942336,1209.145271,1315.945251,12.321587,9,-1.000000,""
177,w0,python3action_videoprocessing_SampleVideo_30mb,0.000000,1,-1.000000,1,COMPLETED_SUCCESSFULLY,1316.942351,0.000010,1316.942361,1316.942351,1316.942361,131694236.147010,9,-1.000000,""
176_updated,w0,python3action_pyaes_4000_troll,0.997085,1,2000.000000,1,COMPLETED_SUCCESSFULLY,1232.704220,102.333333,1335.037553,1231.707135,1334.040468,13.036226,4,-1.000000,""
176,w0,python3action_pyaes_4000,0.000000,1,-1.000000,1,COMPLETED_SUCCESSFULLY,1335.037568,0.000010,1335.037578,1335.037568,1335.037578,133503757.834136,4,-1.000000,""
159_updated,w0,python3action_floatoperation_100000000_nova,0.997085,1,2000.000000,1,COMPLETED_SUCCESSFULLY,1268.877238,66.200020,1335.077258,1267.880153,1334.080173,20.152263,8,-1.000000,""
159,w0,python3action_floatoperation_100000000,0.000000,1,-1.000000,1,COMPLETED_SUCCESSFULLY,1335.077273,0.000010,1335.077283,1335.077273,1335.077283,133507728.300201,8,-1.000000,""
188_updated,w0,python3action_floatoperation_100000000_nova,0.997085,1,2000.000000,1,COMPLETED_SUCCESSFULLY,1311.156564,66.200020,1377.356584,1310.159479,1376.359499,20.790923,6,-1.000000,""
188,w0,python3action_floatoperation_100000000,0.000000,1,-1.000000,1,COMPLETED_SUCCESSFULLY,1377.356599,0.000010,1377.356609,1377.356599,1377.356609,137735660.900201,6,-1.000000,""
182_updated,w0,python3action_floatoperation_200000000_nova,0.997085,1,2000.000000,1,COMPLETED_SUCCESSFULLY,1250.677463,135.399990,1386.077453,1249.680378,1385.080368,10.229546,10,-1.000000,""
182,w0,python3action_floatoperation_200000000,0.000000,1,-1.000000,1,COMPLETED_SUCCESSFULLY,1386.077468,0.000010,1386.077478,1386.077468,1386.077478,138607747.823907,10,-1.000000,""
192_updated,w0,python3action_chameleon_3000_yeti,0.997085,1,2000.000000,1,COMPLETED_SUCCESSFULLY,1303.895500,93.000000,1396.895500,1302.898415,1395.898415,15.009660,5,-1.000000,""
192,w0,python3action_chameleon_3000,0.000000,1,-1.000000,1,COMPLETED_SUCCESSFULLY,1396.895515,0.000010,1396.895525,1396.895515,1396.895525,139689552.508032,5,-1.000000,""
189_updated,w0,python3action_floatoperation_200000000_nova,0.997085,1,2000.000000,1,COMPLETED_SUCCESSFULLY,1273.756570,135.399990,1409.156561,1272.759485,1408.159476,10.399997,7,-1.000000,""
189,w0,python3action_floatoperation_200000000,0.000000,1,-1.000000,1,COMPLETED_SUCCESSFULLY,1409.156576,0.000010,1409.156586,1409.156576,1409.156586,140915658.600201,7,-1.000000,""
190_updated,w0,python3action_linpack_6000_orion,0.997085,1,2000.000000,1,COMPLETED_SUCCESSFULLY,1316.576310,106.000000,1422.576310,1315.579225,1421.579225,13.411125,11,-1.000000,""
190,w0,python3action_linpack_6000,0.000000,1,-1.000000,1,COMPLETED_SUCCESSFULLY,1422.576325,0.000010,1422.576335,1422.576325,1422.576335,142257633.512554,11,-1.000000,""
178_updated,w0,python3action_pyaes_4000_troll,0.997085,1,2000.000000,1,COMPLETED_SUCCESSFULLY,1335.037598,102.333333,1437.370932,1334.040513,1436.373847,14.036227,4,-1.000000,""
178,w0,python3action_pyaes_4000,0.000000,1,-1.000000,1,COMPLETED_SUCCESSFULLY,1437.370947,0.000010,1437.370957,1437.370947,1437.370957,143737095.700201,4,-1.000000,""
135_updated,w0,python3action_facedetection_SampleVideo_50mb_taurus,0.997085,1,2000.000000,1,COMPLETED_SUCCESSFULLY,1306.487859,134.600046,1441.087905,1305.490774,1440.090820,10.699037,2,-1.000000,""
135,w0,python3action_facedetection_SampleVideo_50mb,0.000000,1,-1.000000,1,COMPLETED_SUCCESSFULLY,1441.087920,0.000010,1441.087930,1441.087920,1441.087930,144108793.013881,2,-1.000000,""
196_updated,w0,python3action_videoprocessing_SampleVideo_50mb_taurus,0.997085,1,2000.000000,1,COMPLETED_SUCCESSFULLY,1293.088245,154.250029,1447.338274,1292.091160,1446.341189,9.376602,12,-1.000000,""
196,w0,python3action_videoprocessing_SampleVideo_50mb,0.000000,1,-1.000000,1,COMPLETED_SUCCESSFULLY,1447.338289,0.000010,1447.338299,1447.338289,1447.338299,144733829.911338,12,-1.000000,""
195_updated,w0,python3action_floatoperation_200000000_nova,0.997085,1,2000.000000,1,COMPLETED_SUCCESSFULLY,1316.942381,135.399990,1452.342372,1315.945296,1451.345287,10.718947,9,-1.000000,""
195,w0,python3action_floatoperation_200000000,0.000000,1,-1.000000,1,COMPLETED_SUCCESSFULLY,1452.342387,0.000010,1452.342397,1452.342387,1452.342397,145234239.700201,9,-1.000000,""
149_updated,w0,python3action_imageprocessing_SampleImage_40mb_taurus,0.997085,1,2000.000000,1,COMPLETED_SUCCESSFULLY,1441.087950,32.600046,1473.687996,1440.090865,1472.690911,45.174504,2,-1.000000,""
149,w0,python3action_imageprocessing_SampleImage_40mb,0.000000,1,-1.000000,1,COMPLETED_SUCCESSFULLY,1473.688011,0.000010,1473.688021,1473.688011,1473.688021,147368802.127562,2,-1.000000,""
184_updated,w0,python3action_pyaes_3000_troll,0.997085,1,2000.000000,1,COMPLETED_SUCCESSFULLY,1437.370977,57.166677,1494.537654,1436.373892,1493.540569,26.126070,4,-1.000000,""
184,w0,python3action_pyaes_3000,0.000000,1,-1.000000,1,COMPLETED_SUCCESSFULLY,1494.537669,0.000010,1494.537679,1494.537669,1494.537679,149453767.900201,4,-1.000000,""
174_updated,w0,python3action_facedetection_SampleVideo_30mb_nova,0.997085,1,2000.000000,1,COMPLETED_SUCCESSFULLY,1335.077303,160.399990,1495.477293,1334.080218,1494.480208,9.317209,8,-1.000000,""
174,w0,python3action_facedetection_SampleVideo_30mb,0.000000,1,-1.000000,1,COMPLETED_SUCCESSFULLY,1495.477308,0.000010,1495.477318,1495.477308,1495.477318,149547731.823907,8,-1.000000,""
python3action_video_processing_job191_8,w0,python3action_video_processing_reduced_0.91,0.997085,1,2000.000000,1,COMPLETED_SUCCESSFULLY,1495.477338,0.000000,1495.477338,1494.480253,1494.480253,30571133319487.351562,8,-1.000000,""
194_updated,w0,python3action_linpack_6000_orion,0.997085,1,2000.000000,1,COMPLETED_SUCCESSFULLY,1422.576355,106.000000,1528.576355,1421.579270,1527.579270,14.411125,11,-1.000000,""
194,w0,python3action_linpack_6000,0.000000,1,-1.000000,1,COMPLETED_SUCCESSFULLY,1528.576370,0.000010,1528.576380,1528.576370,1528.576380,152857638.013156,11,-1.000000,""
198_updated,w0,python3action_facedetection_SampleVideo_30mb_nova,0.997085,1,2000.000000,1,COMPLETED_SUCCESSFULLY,1386.077498,160.399990,1546.477488,1385.080413,1545.480403,9.635165,10,-1.000000,""
198,w0,python3action_facedetection_SampleVideo_30mb,0.000000,1,-1.000000,1,COMPLETED_SUCCESSFULLY,1546.477503,0.000010,1546.477513,1546.477503,1546.477513,154647751.347613,10,-1.000000,""
186_updated,w0,python3action_pyaes_3000_troll,0.997085,1,2000.000000,1,COMPLETED_SUCCESSFULLY,1494.537699,57.166677,1551.704376,1493.540614,1550.707291,27.126070,4,-1.000000,""
186,w0,python3action_pyaes_3000,0.000000,1,-1.000000,1,COMPLETED_SUCCESSFULLY,1551.704391,0.000010,1551.704401,1551.704391,1551.704401,155170440.100201,4,-1.000000,""
199_updated,w0,python3action_linpack_5000_orion,0.997085,1,2000.000000,1,COMPLETED_SUCCESSFULLY,1528.576400,36.199977,1564.776377,1527.579315,1563.779292,43.198351,11,-1.000000,""
199,w0,python3action_linpack_5000,0.000000,1,-1.000000,1,COMPLETED_SUCCESSFULLY,1564.776392,0.000010,1564.776402,1564.776392,1564.776402,156477640.207220,11,-1.000000,""
191_updated,w0,python3action_videoprocessing_SampleVideo_30mb_nova,0.997085,1,2000.000000,1,COMPLETED_SUCCESSFULLY,1495.477368,106.799980,1602.277349,1494.480283,1601.280264,14.993264,8,-1.000000,""
191,w0,python3action_videoprocessing_SampleVideo_30mb,0.000000,1,-1.000000,1,COMPLETED_SUCCESSFULLY,1602.277364,0.000010,1602.277374,1602.277364,1602.277374,160227737.400201,8,-1.000000,""
193_updated,w0,python3action_facedetection_SampleVideo_50mb_taurus,0.997085,1,2000.000000,1,COMPLETED_SUCCESSFULLY,1473.688041,134.600046,1608.288087,1472.690956,1607.291002,11.941237,2,-1.000000,""
193,w0,python3action_facedetection_SampleVideo_50mb,0.000000,1,-1.000000,1,COMPLETED_SUCCESSFULLY,1608.288102,0.000010,1608.288112,1608.288102,1608.288112,160828811.241242,2,-1.000000,""
