job_id,workload_name,profile,submission_time,requested_number_of_resources,requested_time,success,final_state,starting_time,execution_time,finish_time,waiting_time,turnaround_time,stretch,allocated_resources,consumed_energy,metadata
python3action_chameleon_job23_14,w0,python3action_chameleon,0.997085,1,2000.000000,1,COMPLETED_SUCCESSFULLY,1.002310,0.867914,1.870224,0.005225,0.873139,1.006020,19,-1.000000,""
python3action_chameleon_job44_15,w0,python3action_chameleon,0.997085,1,2000.000000,1,COMPLETED_SUCCESSFULLY,1.002325,0.867914,1.870239,0.005240,0.873154,1.006038,20,-1.000000,""
python3action_linpack_job26_6,w0,python3action_linpack,0.997085,1,2000.000000,1,COMPLETED_SUCCESSFULLY,1.002190,5.760927,6.763117,0.005105,5.766032,1.000886,8,-1.000000,""
python3action_linpack_job62_7,w0,python3action_linpack,0.997085,1,2000.000000,1,COMPLETED_SUCCESSFULLY,1.002205,5.760927,6.763132,0.005120,5.766047,1.000889,9,-1.000000,""
python3action_facedetection_job0_0,w0,python3action_facedetection,0.997085,1,2000.000000,1,COMPLETED_SUCCESSFULLY,1.002100,30.499683,31.501783,0.005015,30.504698,1.000164,2,-1.000000,""
python3action_facedetection_job24_1,w0,python3action_facedetection,0.997085,1,2000.000000,1,COMPLETED_SUCCESSFULLY,1.002115,30.499683,31.501798,0.005030,30.504713,1.000165,3,-1.000000,""
python3action_facedetection_job25_2,w0,python3action_facedetection,0.997085,1,2000.000000,1,COMPLETED_SUCCESSFULLY,1.002130,30.499683,31.501813,0.005045,30.504728,1.000165,4,-1.000000,""
python3action_facedetection_job45_3,w0,python3action_facedetection,0.997085,1,2000.000000,1,COMPLETED_SUCCESSFULLY,1.002145,30.499683,31.501828,0.005060,30.504743,1.000166,5,-1.000000,""
python3action_facedetection_job58_4,w0,python3action_facedetection,0.997085,1,2000.000000,1,COMPLETED_SUCCESSFULLY,1.002160,30.499683,31.501843,0.005075,30.504758,1.000166,6,-1.000000,""
python3action_facedetection_job78_5,w0,python3action_facedetection,0.997085,1,2000.000000,1,COMPLETED_SUCCESSFULLY,1.002175,30.499683,31.501858,0.005090,30.504773,1.000167,7,-1.000000,""
python3action_facedetection_job86_16,w0,python3action_facedetection,0.997085,1,2000.000000,1,COMPLETED_SUCCESSFULLY,1.002340,30.499683,31.502023,0.005255,30.504938,1.000172,25,-1.000000,""
python3action_facedetection_job98_17,w0,python3action_facedetection,0.997085,1,2000.000000,1,COMPLETED_SUCCESSFULLY,1.002355,30.499683,31.502038,0.005270,30.504953,1.000173,26,-1.000000,""
python3action_facedetection_job99_18,w0,python3action_facedetection,0.997085,1,2000.000000,1,COMPLETED_SUCCESSFULLY,1.002370,30.499683,31.502053,0.005285,30.504968,1.000173,27,-1.000000,""
python3action_facedetection_job111_19,w0,python3action_facedetection,0.997085,1,2000.000000,1,COMPLETED_SUCCESSFULLY,1.002385,30.499683,31.502068,0.005300,30.504983,1.000174,28,-1.000000,""
python3action_facedetection_job120_20,w0,python3action_facedetection,0.997085,1,2000.000000,1,COMPLETED_SUCCESSFULLY,1.002400,30.499683,31.502083,0.005315,30.504998,1.000174,29,-1.000000,""
python3action_video_processing_job37_8,w0,python3action_video_processing,0.997085,1,2000.000000,1,COMPLETED_SUCCESSFULLY,1.002220,72.012455,73.014675,0.005135,72.017590,1.000071,10,-1.000000,""
python3action_video_processing_job40_9,w0,python3action_video_processing,0.997085,1,2000.000000,1,COMPLETED_SUCCESSFULLY,1.002235,72.012455,73.014690,0.005150,72.017605,1.000072,11,-1.000000,""
python3action_video_processing_job47_10,w0,python3action_video_processing,0.997085,1,2000.000000,1,COMPLETED_SUCCESSFULLY,1.002250,72.012455,73.014705,0.005165,72.017620,1.000072,13,-1.000000,""
python3action_video_processing_job60_11,w0,python3action_video_processing,0.997085,1,2000.000000,1,COMPLETED_SUCCESSFULLY,1.002265,72.012455,73.014720,0.005180,72.017635,1.000072,14,-1.000000,""
python3action_video_processing_job66_12,w0,python3action_video_processing,0.997085,1,2000.000000,1,COMPLETED_SUCCESSFULLY,1.002280,72.012455,73.014735,0.005195,72.017650,1.000072,15,-1.000000,""
python3action_video_processing_job113_13,w0,python3action_video_processing,0.997085,1,2000.000000,1,COMPLETED_SUCCESSFULLY,1.002295,72.012455,73.014750,0.005210,72.017665,1.000072,16,-1.000000,""
23_updated,w0,python3action_chameleon_3000_troll,0.997085,1,2000.000000,1,COMPLETED_SUCCESSFULLY,1.870239,94.000000,95.870239,0.873154,94.873154,1.009289,19,-1.000000,""
23,w0,python3action_chameleon_3000,0.000000,1,-1.000000,1,COMPLETED_SUCCESSFULLY,95.870254,0.000010,95.870264,95.870254,95.870264,9587026.400201,19,-1.000000,""
44_updated,w0,python3action_chameleon_3000_troll,0.997085,1,2000.000000,1,COMPLETED_SUCCESSFULLY,1.870269,94.000000,95.870269,0.873184,94.873184,1.009289,20,-1.000000,""
44,w0,python3action_chameleon_3000,0.000000,1,-1.000000,1,COMPLETED_SUCCESSFULLY,95.870299,0.000010,95.870309,95.870299,95.870309,9587030.900803,20,-1.000000,""
26_updated,w0,python3action_linpack_6000_orion,0.997085,1,2000.000000,1,COMPLETED_SUCCESSFULLY,6.763132,106.000000,112.763132,5.766047,111.766047,1.054397,8,-1.000000,""
26,w0,python3action_linpack_6000,0.000000,1,-1.000000,1,COMPLETED_SUCCESSFULLY,112.763147,0.000010,112.763157,112.763147,112.763157,11276315.724677,8,-1.000000,""
62_updated,w0,python3action_linpack_6000_orion,0.997085,1,2000.000000,1,COMPLETED_SUCCESSFULLY,6.763162,106.000000,112.763162,5.766077,111.766077,1.054397,9,-1.000000,""
62,w0,python3action_linpack_6000,0.000000,1,-1.000000,1,COMPLETED_SUCCESSFULLY,112.763192,0.000010,112.763202,112.763192,112.763202,11276320.225279,9,-1.000000,""
52_updated,w0,python3action_chameleon_3000_troll,0.997085,1,2000.000000,1,COMPLETED_SUCCESSFULLY,95.870284,94.000000,189.870284,94.873199,188.873199,2.009289,19,-1.000000,""
52,w0,python3action_chameleon_3000,0.000000,1,-1.000000,1,COMPLETED_SUCCESSFULLY,189.870299,0.000010,189.870309,189.870299,189.870309,18987030.900803,19,-1.000000,""
70_updated,w0,python3action_chameleon_3000_troll,0.997085,1,2000.000000,1,COMPLETED_SUCCESSFULLY,95.870329,94.000000,189.870329,94.873244,188.873244,2.009290,20,-1.000000,""
70,w0,python3action_chameleon_3000,0.000000,1,-1.000000,1,COMPLETED_SUCCESSFULLY,189.870359,0.000010,189.870369,189.870359,189.870369,18987036.901606,20,-1.000000,""
0_updated,w0,python3action_facedetection_SampleVideo_30mb_nova,0.997085,1,2000.000000,1,COMPLETED_SUCCESSFULLY,31.501798,160.399990,191.901788,30.504713,190.904703,1.190179,2,-1.000000,""
0,w0,python3action_facedetection_SampleVideo_30mb,0.000000,1,-1.000000,1,COMPLETED_SUCCESSFULLY,191.901803,0.000010,191.901813,191.901803,191.901813,19190181.300201,2,-1.000000,""
24_updated,w0,python3action_facedetection_SampleVideo_30mb_nova,0.997085,1,2000.000000,1,COMPLETED_SUCCESSFULLY,31.501828,160.399990,191.901818,30.504743,190.904733,1.190179,3,-1.000000,""
25_updated,w0,python3action_facedetection_SampleVideo_30mb_nova,0.997085,1,2000.000000,1,COMPLETED_SUCCESSFULLY,31.501843,160.399990,191.901833,30.504758,190.904748,1.190179,4,-1.000000,""
24,w0,python3action_facedetection_SampleVideo_30mb,0.000000,1,-1.000000,1,COMPLETED_SUCCESSFULLY,191.901848,0.000010,191.901858,191.901848,191.901858,19190185.775577,3,-1.000000,""
45_updated,w0,python3action_facedetection_SampleVideo_30mb_nova,0.997085,1,2000.000000,1,COMPLETED_SUCCESSFULLY,31.501873,160.399990,191.901863,30.504788,190.904778,1.190179,5,-1.000000,""
25,w0,python3action_facedetection_SampleVideo_30mb,0.000000,1,-1.000000,1,COMPLETED_SUCCESSFULLY,191.901878,0.000010,191.901888,191.901878,191.901888,19190188.800201,4,-1.000000,""
58_updated,w0,python3action_facedetection_SampleVideo_30mb_nova,0.997085,1,2000.000000,1,COMPLETED_SUCCESSFULLY,31.501888,160.399990,191.901878,30.504803,190.904793,1.190180,6,-1.000000,""
78_updated,w0,python3action_facedetection_SampleVideo_30mb_nova,0.997085,1,2000.000000,1,COMPLETED_SUCCESSFULLY,31.501903,160.399990,191.901893,30.504818,190.904808,1.190180,7,-1.000000,""
45,w0,python3action_facedetection_SampleVideo_30mb,0.000000,1,-1.000000,1,COMPLETED_SUCCESSFULLY,191.901923,0.000010,191.901933,191.901923,191.901933,19190193.300803,5,-1.000000,""
58,w0,python3action_facedetection_SampleVideo_30mb,0.000000,1,-1.000000,1,COMPLETED_SUCCESSFULLY,191.901953,0.000010,191.901963,191.901953,191.901963,19190196.301205,6,-1.000000,""
78,w0,python3action_facedetection_SampleVideo_30mb,0.000000,1,-1.000000,1,COMPLETED_SUCCESSFULLY,191.901968,0.000010,191.901978,191.901968,191.901978,19190197.801406,7,-1.000000,""
86_updated,w0,python3action_facedetection_SampleVideo_30mb_nova,0.997085,1,2000.000000,1,COMPLETED_SUCCESSFULLY,31.502038,160.399990,191.902028,30.504953,190.904943,1.190181,25,-1.000000,""
98_updated,w0,python3action_facedetection_SampleVideo_30mb_nova,0.997085,1,2000.000000,1,COMPLETED_SUCCESSFULLY,31.502068,160.399990,191.902058,30.504983,190.904973,1.190181,26,-1.000000,""
86,w0,python3action_facedetection_SampleVideo_30mb,0.000000,1,-1.000000,1,COMPLETED_SUCCESSFULLY,191.902058,0.000010,191.902068,191.902058,191.902068,19190206.778388,25,-1.000000,""
99_updated,w0,python3action_facedetection_SampleVideo_30mb_nova,0.997085,1,2000.000000,1,COMPLETED_SUCCESSFULLY,31.502083,160.399990,191.902073,30.504998,190.904988,1.190181,27,-1.000000,""
98,w0,python3action_facedetection_SampleVideo_30mb,0.000000,1,-1.000000,1,COMPLETED_SUCCESSFULLY,191.902088,0.000010,191.902098,191.902088,191.902098,19190209.800201,26,-1.000000,""
111_updated,w0,python3action_facedetection_SampleVideo_30mb_nova,0.997085,1,2000.000000,1,COMPLETED_SUCCESSFULLY,31.502113,160.399990,191.902103,30.505028,190.905018,1.190181,28,-1.000000,""
99,w0,python3action_facedetection_SampleVideo_30mb,0.000000,1,-1.000000,1,COMPLETED_SUCCESSFULLY,191.902118,0.000010,191.902128,191.902118,191.902128,19190212.800602,27,-1.000000,""
120_updated,w0,python3action_facedetection_SampleVideo_30mb_nova,0.997085,1,2000.000000,1,COMPLETED_SUCCESSFULLY,31.502128,160.399990,191.902118,30.505043,190.905033,1.190181,29,-1.000000,""
111,w0,python3action_facedetection_SampleVideo_30mb,0.000000,1,-1.000000,1,COMPLETED_SUCCESSFULLY,191.902163,0.000010,191.902173,191.902163,191.902173,19190217.301205,28,-1.000000,""
120,w0,python3action_facedetection_SampleVideo_30mb,0.000000,1,-1.000000,1,COMPLETED_SUCCESSFULLY,191.902193,0.000010,191.902203,191.902193,191.902203,19190220.301606,29,-1.000000,""
python3action_pyaes_job7_5,w0,python3action_pyaes,0.997085,1,2000.000000,1,COMPLETED_SUCCESSFULLY,191.902013,2.134958,194.036971,190.904928,193.039886,90.418577,6,-1.000000,""
python3action_pyaes_job14_6,w0,python3action_pyaes,0.997085,1,2000.000000,1,COMPLETED_SUCCESSFULLY,191.902028,2.134958,194.036986,190.904943,193.039901,90.418584,7,-1.000000,""
python3action_pyaes_job29_17,w0,python3action_pyaes,0.997085,1,2000.000000,1,COMPLETED_SUCCESSFULLY,191.902103,2.134958,194.037061,190.905018,193.039976,90.418619,25,-1.000000,""
python3action_pyaes_job30_18,w0,python3action_pyaes,0.997085,1,2000.000000,1,COMPLETED_SUCCESSFULLY,191.902148,2.134958,194.037106,190.905063,193.040021,90.418640,26,-1.000000,""
python3action_pyaes_job35_19,w0,python3action_pyaes,0.997085,1,2000.000000,1,COMPLETED_SUCCESSFULLY,191.902178,2.134958,194.037136,190.905093,193.040051,90.418654,27,-1.000000,""
python3action_pyaes_job49_20,w0,python3action_pyaes,0.997085,1,2000.000000,1,COMPLETED_SUCCESSFULLY,191.902223,2.134958,194.037181,190.905138,193.040096,90.418676,28,-1.000000,""
python3action_pyaes_job55_21,w0,python3action_pyaes,0.997085,1,2000.000000,1,COMPLETED_SUCCESSFULLY,191.902238,2.134958,194.037196,190.905153,193.040111,90.418683,29,-1.000000,""
75_updated,w0,python3action_linpack_6000_orion,0.997085,1,2000.000000,1,COMPLETED_SUCCESSFULLY,112.763177,106.000000,218.763177,111.766092,217.766092,2.054397,8,-1.000000,""
75,w0,python3action_linpack_6000,0.000000,1,-1.000000,1,COMPLETED_SUCCESSFULLY,218.763192,0.000010,218.763202,218.763192,218.763202,21876320.225279,8,-1.000000,""
95_updated,w0,python3action_linpack_6000_orion,0.997085,1,2000.000000,1,COMPLETED_SUCCESSFULLY,112.763222,106.000000,218.763222,111.766137,217.766137,2.054398,9,-1.000000,""
95,w0,python3action_linpack_6000,0.000000,1,-1.000000,1,COMPLETED_SUCCESSFULLY,218.763252,0.000010,218.763262,218.763252,218.763262,21876326.226082,9,-1.000000,""
37_updated,w0,python3action_videoprocessing_SampleVideo_50mb_taurus,0.997085,1,2000.000000,1,COMPLETED_SUCCESSFULLY,73.014690,154.250029,227.264719,72.017605,226.267634,1.466889,10,-1.000000,""
37,w0,python3action_videoprocessing_SampleVideo_50mb,0.000000,1,-1.000000,1,COMPLETED_SUCCESSFULLY,227.264734,0.000010,227.264744,227.264734,227.264744,22726474.416463,10,-1.000000,""
40_updated,w0,python3action_videoprocessing_SampleVideo_50mb_taurus,0.997085,1,2000.000000,1,COMPLETED_SUCCESSFULLY,73.014720,154.250029,227.264749,72.017635,226.267664,1.466889,11,-1.000000,""
47_updated,w0,python3action_videoprocessing_SampleVideo_50mb_taurus,0.997085,1,2000.000000,1,COMPLETED_SUCCESSFULLY,73.014735,154.250029,227.264764,72.017650,226.267679,1.466889,13,-1.000000,""
40,w0,python3action_videoprocessing_SampleVideo_50mb,0.000000,1,-1.000000,1,COMPLETED_SUCCESSFULLY,227.264779,0.000010,227.264789,227.264779,227.264789,22726478.917066,11,-1.000000,""
60_updated,w0,python3action_videoprocessing_SampleVideo_50mb_taurus,0.997085,1,2000.000000,1,COMPLETED_SUCCESSFULLY,73.014765,154.250029,227.264794,72.017680,226.267709,1.466889,14,-1.000000,""
66_updated,w0,python3action_videoprocessing_SampleVideo_50mb_taurus,0.997085,1,2000.000000,1,COMPLETED_SUCCESSFULLY,73.014780,154.250029,227.264809,72.017695,226.267724,1.466889,15,-1.000000,""
47,w0,python3action_videoprocessing_SampleVideo_50mb,0.000000,1,-1.000000,1,COMPLETED_SUCCESSFULLY,227.264809,0.000010,227.264819,227.264809,227.264819,22726481.917467,13,-1.000000,""
113_updated,w0,python3action_videoprocessing_SampleVideo_50mb_taurus,0.997085,1,2000.000000,1,COMPLETED_SUCCESSFULLY,73.014795,154.250029,227.264824,72.017710,226.267739,1.466889,16,-1.000000,""
60,w0,python3action_videoprocessing_SampleVideo_50mb,0.000000,1,-1.000000,1,COMPLETED_SUCCESSFULLY,227.264839,0.000010,227.264849,227.264839,227.264849,22726484.917869,14,-1.000000,""
66,w0,python3action_videoprocessing_SampleVideo_50mb,0.000000,1,-1.000000,1,COMPLETED_SUCCESSFULLY,227.264869,0.000010,227.264879,227.264869,227.264879,22726487.918270,15,-1.000000,""
113,w0,python3action_videoprocessing_SampleVideo_50mb,0.000000,1,-1.000000,1,COMPLETED_SUCCESSFULLY,227.264899,0.000010,227.264909,227.264899,227.264909,22726490.918672,16,-1.000000,""
python3action_facedetection_job32_13,w0,python3action_facedetection_reduced_0.91,0.997085,1,2000.000000,1,COMPLETED_SUCCESSFULLY,227.264944,6.172496,233.437440,226.267859,232.440355,37.657432,15,-1.000000,""
python3action_facedetection_job33_14,w0,python3action_facedetection_reduced_0.91,0.997085,1,2000.000000,1,COMPLETED_SUCCESSFULLY,227.264959,6.172496,233.437455,226.267874,232.440370,37.657435,16,-1.000000,""
82_updated,w0,python3action_chameleon_3000_troll,0.997085,1,2000.000000,1,COMPLETED_SUCCESSFULLY,189.870329,94.000000,283.870329,188.873244,282.873244,3.009290,19,-1.000000,""
82,w0,python3action_chameleon_3000,0.000000,1,-1.000000,1,COMPLETED_SUCCESSFULLY,283.870344,0.000010,283.870354,283.870344,283.870354,28387035.401406,19,-1.000000,""
97_updated,w0,python3action_chameleon_3000_troll,0.997085,1,2000.000000,1,COMPLETED_SUCCESSFULLY,189.870389,94.000000,283.870389,188.873304,282.873304,3.009290,20,-1.000000,""
97,w0,python3action_chameleon_3000,0.000000,1,-1.000000,1,COMPLETED_SUCCESSFULLY,283.870404,0.000010,283.870414,283.870404,283.870414,28387041.402209,20,-1.000000,""
123_updated,w0,python3action_linpack_6000_orion,0.997085,1,2000.000000,1,COMPLETED_SUCCESSFULLY,218.763222,106.000000,324.763222,217.766137,323.766137,3.054398,8,-1.000000,""
123,w0,python3action_linpack_6000,0.000000,1,-1.000000,1,COMPLETED_SUCCESSFULLY,324.763237,0.000010,324.763247,324.763237,324.763247,32476324.725881,8,-1.000000,""
131_updated,w0,python3action_linpack_6000_orion,0.997085,1,2000.000000,1,COMPLETED_SUCCESSFULLY,218.763282,106.000000,324.763282,217.766197,323.766197,3.054398,9,-1.000000,""
131,w0,python3action_linpack_6000,0.000000,1,-1.000000,1,COMPLETED_SUCCESSFULLY,324.763297,0.000010,324.763307,324.763297,324.763307,32476330.726685,9,-1.000000,""
7_updated,w0,python3action_pyaes_4000_nova,0.997085,1,2000.000000,1,COMPLETED_SUCCESSFULLY,194.036986,139.600010,333.636996,193.039901,332.639911,2.382807,6,-1.000000,""
7,w0,python3action_pyaes_4000,0.000000,1,-1.000000,1,COMPLETED_SUCCESSFULLY,333.637011,0.000010,333.637021,333.637011,333.637021,33363702.100201,6,-1.000000,""
14_updated,w0,python3action_pyaes_4000_nova,0.997085,1,2000.000000,1,COMPLETED_SUCCESSFULLY,194.037016,139.600010,333.637026,193.039931,332.639941,2.382807,7,-1.000000,""
14,w0,python3action_pyaes_4000,0.000000,1,-1.000000,1,COMPLETED_SUCCESSFULLY,333.637056,0.000010,333.637066,333.637056,333.637066,33363706.600402,7,-1.000000,""
29_updated,w0,python3action_pyaes_4000_nova,0.997085,1,2000.000000,1,COMPLETED_SUCCESSFULLY,194.037076,139.600010,333.637086,193.039991,332.640001,2.382808,25,-1.000000,""
29,w0,python3action_pyaes_4000,0.000000,1,-1.000000,1,COMPLETED_SUCCESSFULLY,333.637116,0.000010,333.637126,333.637116,333.637126,33363712.601205,25,-1.000000,""
30_updated,w0,python3action_pyaes_4000_nova,0.997085,1,2000.000000,1,COMPLETED_SUCCESSFULLY,194.037121,139.600010,333.637131,193.040036,332.640046,2.382808,26,-1.000000,""
35_updated,w0,python3action_pyaes_4000_nova,0.997085,1,2000.000000,1,COMPLETED_SUCCESSFULLY,194.037151,139.600010,333.637161,193.040066,332.640076,2.382808,27,-1.000000,""
30,w0,python3action_pyaes_4000,0.000000,1,-1.000000,1,COMPLETED_SUCCESSFULLY,333.637161,0.000010,333.637171,333.637161,333.637171,33363717.101807,26,-1.000000,""
35,w0,python3action_pyaes_4000,0.000000,1,-1.000000,1,COMPLETED_SUCCESSFULLY,333.637191,0.000010,333.637201,333.637191,333.637201,33363720.102209,27,-1.000000,""
49_updated,w0,python3action_pyaes_4000_nova,0.997085,1,2000.000000,1,COMPLETED_SUCCESSFULLY,194.037196,139.600010,333.637206,193.040111,332.640121,2.382809,28,-1.000000,""
55_updated,w0,python3action_pyaes_4000_nova,0.997085,1,2000.000000,1,COMPLETED_SUCCESSFULLY,194.037226,139.600010,333.637236,193.040141,332.640151,2.382809,29,-1.000000,""
49,w0,python3action_pyaes_4000,0.000000,1,-1.000000,1,COMPLETED_SUCCESSFULLY,333.637251,0.000010,333.637261,333.637251,333.637261,33363726.103012,28,-1.000000,""
55,w0,python3action_pyaes_4000,0.000000,1,-1.000000,1,COMPLETED_SUCCESSFULLY,333.637281,0.000010,333.637291,333.637281,333.637291,33363729.103414,29,-1.000000,""
python3action_floatoperation_job15_19,w0,python3action_floatoperation,0.997085,1,2000.000000,1,COMPLETED_SUCCESSFULLY,333.637236,2.439945,336.077181,332.640151,335.080096,137.330987,27,-1.000000,""
python3action_floatoperation_job17_20,w0,python3action_floatoperation,0.997085,1,2000.000000,1,COMPLETED_SUCCESSFULLY,333.637296,2.439945,336.077241,332.640211,335.080156,137.331012,28,-1.000000,""
python3action_floatoperation_job31_21,w0,python3action_floatoperation,0.997085,1,2000.000000,1,COMPLETED_SUCCESSFULLY,333.637326,2.439945,336.077271,332.640241,335.080186,137.331024,29,-1.000000,""
144_updated,w0,python3action_facedetection_SampleVideo_30mb_nova,0.997085,1,2000.000000,1,COMPLETED_SUCCESSFULLY,191.901833,160.399990,352.301823,190.904748,351.304738,2.190179,2,-1.000000,""
144,w0,python3action_facedetection_SampleVideo_30mb,0.000000,1,-1.000000,1,COMPLETED_SUCCESSFULLY,352.301838,0.000010,352.301848,352.301838,352.301848,35230184.800201,2,-1.000000,""
158_updated,w0,python3action_facedetection_SampleVideo_30mb_nova,0.997085,1,2000.000000,1,COMPLETED_SUCCESSFULLY,191.901893,160.399990,352.301883,190.904808,351.304798,2.190180,3,-1.000000,""
158,w0,python3action_facedetection_SampleVideo_30mb,0.000000,1,-1.000000,1,COMPLETED_SUCCESSFULLY,352.301898,0.000010,352.301908,352.301898,352.301908,35230190.823706,3,-1.000000,""
169_updated,w0,python3action_facedetection_SampleVideo_30mb_nova,0.997085,1,2000.000000,1,COMPLETED_SUCCESSFULLY,191.901938,160.399990,352.301928,190.904853,351.304843,2.190180,4,-1.000000,""
169,w0,python3action_facedetection_SampleVideo_30mb,0.000000,1,-1.000000,1,COMPLETED_SUCCESSFULLY,352.301958,0.000010,352.301968,352.301958,352.301968,35230196.824509,4,-1.000000,""
176_updated,w0,python3action_facedetection_SampleVideo_30mb_nova,0.997085,1,2000.000000,1,COMPLETED_SUCCESSFULLY,191.901998,160.399990,352.301988,190.904913,351.304903,2.190180,5,-1.000000,""
176,w0,python3action_facedetection_SampleVideo_30mb,0.000000,1,-1.000000,1,COMPLETED_SUCCESSFULLY,352.302018,0.000010,352.302028,352.302018,352.302028,35230202.825313,5,-1.000000,""
python3action_pyaes_job61_1,w0,python3action_pyaes,0.997085,1,2000.000000,1,COMPLETED_SUCCESSFULLY,352.301868,2.134958,354.436826,351.304783,353.439741,165.548785,2,-1.000000,""
python3action_pyaes_job88_2,w0,python3action_pyaes,0.997085,1,2000.000000,1,COMPLETED_SUCCESSFULLY,352.301928,2.134958,354.436886,351.304843,353.439801,165.548813,3,-1.000000,""
python3action_pyaes_job93_3,w0,python3action_pyaes,0.997085,1,2000.000000,1,COMPLETED_SUCCESSFULLY,352.301988,2.134958,354.436946,351.304903,353.439861,165.548841,4,-1.000000,""
python3action_pyaes_job112_4,w0,python3action_pyaes,0.997085,1,2000.000000,1,COMPLETED_SUCCESSFULLY,352.302048,2.134958,354.437006,351.304963,353.439921,165.548869,5,-1.000000,""
32_updated,w0,python3action_facedetection_SampleVideo_50mb_taurus,0.997085,1,2000.000000,1,COMPLETED_SUCCESSFULLY,233.437455,134.600046,368.037501,232.440370,367.040416,2.726897,15,-1.000000,""
32,w0,python3action_facedetection_SampleVideo_50mb,0.000000,1,-1.000000,1,COMPLETED_SUCCESSFULLY,368.037516,0.000010,368.037526,368.037516,368.037526,36803752.649704,15,-1.000000,""
33_updated,w0,python3action_facedetection_SampleVideo_50mb_taurus,0.997085,1,2000.000000,1,COMPLETED_SUCCESSFULLY,233.437485,134.600046,368.037531,232.440400,367.040446,2.726897,16,-1.000000,""
33,w0,python3action_facedetection_SampleVideo_50mb,0.000000,1,-1.000000,1,COMPLETED_SUCCESSFULLY,368.037562,0.000010,368.037572,368.037562,368.037572,36803757.150306,16,-1.000000,""
105_updated,w0,python3action_chameleon_3000_troll,0.997085,1,2000.000000,1,COMPLETED_SUCCESSFULLY,283.870374,94.000000,377.870374,282.873289,376.873289,4.009290,19,-1.000000,""
105,w0,python3action_chameleon_3000,0.000000,1,-1.000000,1,COMPLETED_SUCCESSFULLY,377.870389,0.000010,377.870399,377.870389,377.870399,37787039.902008,19,-1.000000,""
117_updated,w0,python3action_chameleon_3000_troll,0.997085,1,2000.000000,1,COMPLETED_SUCCESSFULLY,283.870434,94.000000,377.870434,282.873349,376.873349,4.009291,20,-1.000000,""
117,w0,python3action_chameleon_3000,0.000000,1,-1.000000,1,COMPLETED_SUCCESSFULLY,377.870449,0.000010,377.870459,377.870449,377.870459,37787045.902811,20,-1.000000,""
133_updated,w0,python3action_videoprocessing_SampleVideo_50mb_taurus,0.997085,1,2000.000000,1,COMPLETED_SUCCESSFULLY,227.264764,154.250029,381.514793,226.267679,380.517708,2.466889,10,-1.000000,""
133,w0,python3action_videoprocessing_SampleVideo_50mb,0.000000,1,-1.000000,1,COMPLETED_SUCCESSFULLY,381.514808,0.000010,381.514818,381.514808,381.514818,38151481.800240,10,-1.000000,""
164_updated,w0,python3action_videoprocessing_SampleVideo_50mb_taurus,0.997085,1,2000.000000,1,COMPLETED_SUCCESSFULLY,227.264824,154.250029,381.514853,226.267739,380.517768,2.466889,11,-1.000000,""
164,w0,python3action_videoprocessing_SampleVideo_50mb,0.000000,1,-1.000000,1,COMPLETED_SUCCESSFULLY,381.514868,0.000010,381.514878,381.514868,381.514878,38151487.801043,11,-1.000000,""
171_updated,w0,python3action_videoprocessing_SampleVideo_50mb_taurus,0.997085,1,2000.000000,1,COMPLETED_SUCCESSFULLY,227.264884,154.250029,381.514913,226.267799,380.517828,2.466890,13,-1.000000,""
171,w0,python3action_videoprocessing_SampleVideo_50mb,0.000000,1,-1.000000,1,COMPLETED_SUCCESSFULLY,381.514928,0.000010,381.514938,381.514928,381.514938,38151493.801846,13,-1.000000,""
172_updated,w0,python3action_videoprocessing_SampleVideo_50mb_taurus,0.997085,1,2000.000000,1,COMPLETED_SUCCESSFULLY,227.264914,154.250029,381.514943,226.267829,380.517858,2.466890,14,-1.000000,""
172,w0,python3action_videoprocessing_SampleVideo_50mb,0.000000,1,-1.000000,1,COMPLETED_SUCCESSFULLY,381.514973,0.000010,381.514983,381.514973,381.514983,38151498.302449,14,-1.000000,""
python3action_facedetection_job80_9,w0,python3action_facedetection_reduced_0.91,0.997085,1,2000.000000,1,COMPLETED_SUCCESSFULLY,381.514838,6.172496,387.687334,380.517753,386.690249,62.647305,10,-1.000000,""
python3action_facedetection_job89_10,w0,python3action_facedetection_reduced_0.91,0.997085,1,2000.000000,1,COMPLETED_SUCCESSFULLY,381.514898,6.172496,387.687394,380.517813,386.690309,62.647315,11,-1.000000,""
python3action_facedetection_job101_11,w0,python3action_facedetection_reduced_0.91,0.997085,1,2000.000000,1,COMPLETED_SUCCESSFULLY,381.514958,6.172496,387.687454,380.517873,386.690369,62.647324,13,-1.000000,""
python3action_facedetection_job142_12,w0,python3action_facedetection_reduced_0.91,0.997085,1,2000.000000,1,COMPLETED_SUCCESSFULLY,381.515003,6.172496,387.687499,380.517918,386.690414,62.647332,14,-1.000000,""
136_updated,w0,python3action_linpack_6000_orion,0.997085,1,2000.000000,1,COMPLETED_SUCCESSFULLY,324.763267,106.000000,430.763267,323.766182,429.766182,4.054398,8,-1.000000,""
136,w0,python3action_linpack_6000,0.000000,1,-1.000000,1,COMPLETED_SUCCESSFULLY,430.763282,0.000010,430.763292,430.763282,430.763292,43076329.226484,8,-1.000000,""
160_updated,w0,python3action_linpack_6000_orion,0.997085,1,2000.000000,1,COMPLETED_SUCCESSFULLY,324.763327,106.000000,430.763327,323.766242,429.766242,4.054399,9,-1.000000,""
160,w0,python3action_linpack_6000,0.000000,1,-1.000000,1,COMPLETED_SUCCESSFULLY,430.763342,0.000010,430.763352,430.763342,430.763352,43076335.227287,9,-1.000000,""
15_updated,w0,python3action_floatoperation_200000000_nova,0.997085,1,2000.000000,1,COMPLETED_SUCCESSFULLY,336.077196,135.399990,471.477187,335.080111,470.480102,3.474743,27,-1.000000,""
15,w0,python3action_floatoperation_200000000,0.000000,1,-1.000000,1,COMPLETED_SUCCESSFULLY,471.477202,0.000010,471.477212,471.477202,471.477212,47147721.200201,27,-1.000000,""
17_updated,w0,python3action_floatoperation_200000000_nova,0.997085,1,2000.000000,1,COMPLETED_SUCCESSFULLY,336.077256,135.399990,471.477247,335.080171,470.480162,3.474743,28,-1.000000,""
17,w0,python3action_floatoperation_200000000,0.000000,1,-1.000000,1,COMPLETED_SUCCESSFULLY,471.477262,0.000010,471.477272,471.477262,471.477272,47147727.200201,28,-1.000000,""
31_updated,w0,python3action_floatoperation_200000000_nova,0.997085,1,2000.000000,1,COMPLETED_SUCCESSFULLY,336.077286,135.399990,471.477277,335.080201,470.480192,3.474743,29,-1.000000,""
31,w0,python3action_floatoperation_200000000,0.000000,1,-1.000000,1,COMPLETED_SUCCESSFULLY,471.477307,0.000010,471.477317,471.477307,471.477317,47147731.700402,29,-1.000000,""
119_updated,w0,python3action_chameleon_3000_troll,0.997085,1,2000.000000,1,COMPLETED_SUCCESSFULLY,377.870419,94.000000,471.870419,376.873334,470.873334,5.009291,19,-1.000000,""
119,w0,python3action_chameleon_3000,0.000000,1,-1.000000,1,COMPLETED_SUCCESSFULLY,471.870434,0.000010,471.870444,471.870434,471.870444,47187044.402611,19,-1.000000,""
140_updated,w0,python3action_chameleon_3000_troll,0.997085,1,2000.000000,1,COMPLETED_SUCCESSFULLY,377.870479,94.000000,471.870479,376.873394,470.873394,5.009291,20,-1.000000,""
140,w0,python3action_chameleon_3000,0.000000,1,-1.000000,1,COMPLETED_SUCCESSFULLY,471.870494,0.000010,471.870504,471.870494,471.870504,47187050.403414,20,-1.000000,""
135_updated,w0,python3action_pyaes_4000_nova,0.997085,1,2000.000000,1,COMPLETED_SUCCESSFULLY,333.637041,139.600010,473.237051,332.639956,472.239966,3.382808,6,-1.000000,""
135,w0,python3action_pyaes_4000,0.000000,1,-1.000000,1,COMPLETED_SUCCESSFULLY,473.237066,0.000010,473.237076,473.237066,473.237076,47323707.600201,6,-1.000000,""
137_updated,w0,python3action_pyaes_4000_nova,0.997085,1,2000.000000,1,COMPLETED_SUCCESSFULLY,333.637086,139.600010,473.237096,332.640001,472.240011,3.382808,7,-1.000000,""
137,w0,python3action_pyaes_4000,0.000000,1,-1.000000,1,COMPLETED_SUCCESSFULLY,473.237126,0.000010,473.237136,473.237126,473.237136,47323713.600201,7,-1.000000,""
153_updated,w0,python3action_pyaes_4000_nova,0.997085,1,2000.000000,1,COMPLETED_SUCCESSFULLY,333.637146,139.600010,473.237156,332.640061,472.240071,3.382808,25,-1.000000,""
153,w0,python3action_pyaes_4000,0.000000,1,-1.000000,1,COMPLETED_SUCCESSFULLY,473.237186,0.000010,473.237196,473.237186,473.237196,47323719.600201,25,-1.000000,""
180_updated,w0,python3action_pyaes_4000_nova,0.997085,1,2000.000000,1,COMPLETED_SUCCESSFULLY,333.637206,139.600010,473.237216,332.640121,472.240131,3.382809,26,-1.000000,""
180,w0,python3action_pyaes_4000,0.000000,1,-1.000000,1,COMPLETED_SUCCESSFULLY,473.237246,0.000010,473.237256,473.237246,473.237256,47323725.600201,26,-1.000000,""
python3action_video_processing_job16_21,w0,python3action_video_processing_reduced_0.91,0.997085,1,2000.000000,1,COMPLETED_SUCCESSFULLY,471.477337,2.614259,474.091596,470.480252,473.094511,180.966997,29,-1.000000,""
python3action_floatoperation_job106_5,w0,python3action_floatoperation,0.997085,1,2000.000000,1,COMPLETED_SUCCESSFULLY,473.237096,2.439945,475.677041,472.240011,474.679956,194.545327,6,-1.000000,""
python3action_floatoperation_job141_6,w0,python3action_floatoperation,0.997085,1,2000.000000,1,COMPLETED_SUCCESSFULLY,473.237156,2.439945,475.677101,472.240071,474.680016,194.545352,7,-1.000000,""
python3action_floatoperation_job147_17,w0,python3action_floatoperation,0.997085,1,2000.000000,1,COMPLETED_SUCCESSFULLY,473.237216,2.439945,475.677161,472.240131,474.680076,194.545377,25,-1.000000,""
python3action_floatoperation_job177_18,w0,python3action_floatoperation,0.997085,1,2000.000000,1,COMPLETED_SUCCESSFULLY,473.237276,2.439945,475.677221,472.240191,474.680136,194.545401,26,-1.000000,""
python3action_image_processing_job3_15,w0,python3action_image_processing,0.997085,1,2000.000000,1,COMPLETED_SUCCESSFULLY,471.870464,12.398880,484.269344,470.873379,483.272259,38.977090,19,-1.000000,""
python3action_image_processing_job4_16,w0,python3action_image_processing,0.997085,1,2000.000000,1,COMPLETED_SUCCESSFULLY,471.870524,12.398880,484.269404,470.873439,483.272319,38.977094,20,-1.000000,""
61_updated,w0,python3action_pyaes_4000_nova,0.997085,1,2000.000000,1,COMPLETED_SUCCESSFULLY,354.436841,139.600010,494.036851,353.439756,493.039766,3.531803,2,-1.000000,""
61,w0,python3action_pyaes_4000,0.000000,1,-1.000000,1,COMPLETED_SUCCESSFULLY,494.036866,0.000010,494.036876,494.036866,494.036876,49403687.601669,2,-1.000000,""
88_updated,w0,python3action_pyaes_4000_nova,0.997085,1,2000.000000,1,COMPLETED_SUCCESSFULLY,354.436901,139.600010,494.036911,353.439816,493.039826,3.531804,3,-1.000000,""
88,w0,python3action_pyaes_4000,0.000000,1,-1.000000,1,COMPLETED_SUCCESSFULLY,494.036926,0.000010,494.036936,494.036926,494.036936,49403693.625174,3,-1.000000,""
93_updated,w0,python3action_pyaes_4000_nova,0.997085,1,2000.000000,1,COMPLETED_SUCCESSFULLY,354.436961,139.600010,494.036971,353.439876,493.039886,3.531804,4,-1.000000,""
93,w0,python3action_pyaes_4000,0.000000,1,-1.000000,1,COMPLETED_SUCCESSFULLY,494.036986,0.000010,494.036996,494.036986,494.036996,49403699.625977,4,-1.000000,""
112_updated,w0,python3action_pyaes_4000_nova,0.997085,1,2000.000000,1,COMPLETED_SUCCESSFULLY,354.437021,139.600010,494.037031,353.439936,493.039946,3.531805,5,-1.000000,""
112,w0,python3action_pyaes_4000,0.000000,1,-1.000000,1,COMPLETED_SUCCESSFULLY,494.037046,0.000010,494.037056,494.037046,494.037056,49403705.626780,5,-1.000000,""
python3action_floatoperation_job65_1,w0,python3action_floatoperation,0.997085,1,2000.000000,1,COMPLETED_SUCCESSFULLY,494.036896,2.439945,496.476841,493.039811,495.479756,203.070027,2,-1.000000,""
python3action_floatoperation_job68_2,w0,python3action_floatoperation,0.997085,1,2000.000000,1,COMPLETED_SUCCESSFULLY,494.036956,2.439945,496.476902,493.039871,495.479817,203.070052,3,-1.000000,""
python3action_floatoperation_job73_3,w0,python3action_floatoperation,0.997085,1,2000.000000,1,COMPLETED_SUCCESSFULLY,494.037016,2.439945,496.476962,493.039931,495.479877,203.070076,4,-1.000000,""
python3action_floatoperation_job76_4,w0,python3action_floatoperation,0.997085,1,2000.000000,1,COMPLETED_SUCCESSFULLY,494.037076,2.439945,496.477022,493.039991,495.479937,203.070101,5,-1.000000,""
143_updated,w0,python3action_facedetection_SampleVideo_50mb_taurus,0.997085,1,2000.000000,1,COMPLETED_SUCCESSFULLY,368.037547,134.600046,502.637593,367.040462,501.640508,3.726897,15,-1.000000,""
143,w0,python3action_facedetection_SampleVideo_50mb,0.000000,1,-1.000000,1,COMPLETED_SUCCESSFULLY,502.637608,0.000010,502.637618,502.637608,502.637618,50263761.800201,15,-1.000000,""
python3action_image_processing_job48_13,w0,python3action_image_processing_reduced_1.73,0.997085,1,2000.000000,1,COMPLETED_SUCCESSFULLY,502.637638,0.000000,502.637638,501.640553,501.640553,4349410515479.414551,15,-1.000000,""
154_updated,w0,python3action_facedetection_SampleVideo_50mb_taurus,0.997085,1,2000.000000,1,COMPLETED_SUCCESSFULLY,368.037592,134.600046,502.637638,367.040507,501.640553,3.726897,16,-1.000000,""
154,w0,python3action_facedetection_SampleVideo_50mb,0.000000,1,-1.000000,1,COMPLETED_SUCCESSFULLY,502.637683,0.000010,502.637693,502.637683,502.637693,50263769.301205,16,-1.000000,""
python3action_image_processing_job198_14,w0,python3action_image_processing_reduced_1.73,0.997085,1,2000.000000,1,COMPLETED_SUCCESSFULLY,502.637713,0.000000,502.637713,501.640628,501.640628,4349411165844.414551,16,-1.000000,""
80_updated,w0,python3action_facedetection_SampleVideo_50mb_taurus,0.997085,1,2000.000000,1,COMPLETED_SUCCESSFULLY,387.687349,134.600046,522.287395,386.690264,521.290310,3.872884,10,-1.000000,""
80,w0,python3action_facedetection_SampleVideo_50mb,0.000000,1,-1.000000,1,COMPLETED_SUCCESSFULLY,522.287410,0.000010,522.287420,522.287410,522.287420,52228742.031071,10,-1.000000,""
89_updated,w0,python3action_facedetection_SampleVideo_50mb_taurus,0.997085,1,2000.000000,1,COMPLETED_SUCCESSFULLY,387.687409,134.600046,522.287455,386.690324,521.290370,3.872884,11,-1.000000,""
89,w0,python3action_facedetection_SampleVideo_50mb,0.000000,1,-1.000000,1,COMPLETED_SUCCESSFULLY,522.287470,0.000010,522.287480,522.287470,522.287480,52228748.031874,11,-1.000000,""
101_updated,w0,python3action_facedetection_SampleVideo_50mb_taurus,0.997085,1,2000.000000,1,COMPLETED_SUCCESSFULLY,387.687469,134.600046,522.287515,386.690384,521.290430,3.872884,13,-1.000000,""
101,w0,python3action_facedetection_SampleVideo_50mb,0.000000,1,-1.000000,1,COMPLETED_SUCCESSFULLY,522.287530,0.000010,522.287540,522.287530,522.287540,52228754.032678,13,-1.000000,""
142_updated,w0,python3action_facedetection_SampleVideo_50mb_taurus,0.997085,1,2000.000000,1,COMPLETED_SUCCESSFULLY,387.687514,134.600046,522.287560,386.690429,521.290475,3.872885,14,-1.000000,""
142,w0,python3action_facedetection_SampleVideo_50mb,0.000000,1,-1.000000,1,COMPLETED_SUCCESSFULLY,522.287590,0.000010,522.287600,522.287590,522.287600,52228760.033481,14,-1.000000,""
python3action_image_processing_job6_12,w0,python3action_image_processing_reduced_1.73,0.997085,1,2000.000000,1,COMPLETED_SUCCESSFULLY,522.287620,0.000000,522.287620,521.290535,521.290535,4522011874199.123047,14,-1.000000,""
162_updated,w0,python3action_linpack_6000_orion,0.997085,1,2000.000000,1,COMPLETED_SUCCESSFULLY,430.763312,106.000000,536.763312,429.766227,535.766227,5.054398,8,-1.000000,""
162,w0,python3action_linpack_6000,0.000000,1,-1.000000,1,COMPLETED_SUCCESSFULLY,536.763327,0.000010,536.763337,536.763327,536.763337,53676333.727087,8,-1.000000,""
182_updated,w0,python3action_linpack_6000_orion,0.997085,1,2000.000000,1,COMPLETED_SUCCESSFULLY,430.763372,106.000000,536.763372,429.766287,535.766287,5.054399,9,-1.000000,""
182,w0,python3action_linpack_6000,0.000000,1,-1.000000,1,COMPLETED_SUCCESSFULLY,536.763387,0.000010,536.763397,536.763387,536.763397,53676339.727890,9,-1.000000,""
3_updated,w0,python3action_imageprocessing_SampleImage_60mb_troll,0.997085,1,2000.000000,1,COMPLETED_SUCCESSFULLY,484.269359,62.000000,546.269359,483.272274,545.272274,8.794714,19,-1.000000,""
3,w0,python3action_imageprocessing_SampleImage_60mb,0.000000,1,-1.000000,1,COMPLETED_SUCCESSFULLY,546.269374,0.000010,546.269384,546.269374,546.269384,54626938.411992,19,-1.000000,""
4_updated,w0,python3action_imageprocessing_SampleImage_60mb_troll,0.997085,1,2000.000000,1,COMPLETED_SUCCESSFULLY,484.269419,62.000000,546.269419,483.272334,545.272334,8.794715,20,-1.000000,""
4,w0,python3action_imageprocessing_SampleImage_60mb,0.000000,1,-1.000000,1,COMPLETED_SUCCESSFULLY,546.269434,0.000010,546.269444,546.269434,546.269444,54626944.412796,20,-1.000000,""
16_updated,w0,python3action_videoprocessing_SampleVideo_30mb_nova,0.997085,1,2000.000000,1,COMPLETED_SUCCESSFULLY,474.091611,106.799980,580.891591,473.094526,579.894506,5.429725,29,-1.000000,""
16,w0,python3action_videoprocessing_SampleVideo_30mb,0.000000,1,-1.000000,1,COMPLETED_SUCCESSFULLY,580.891606,0.000010,580.891616,580.891606,580.891616,58089161.646609,29,-1.000000,""
python3action_modeltraining_job72_21,w0,python3action_modeltraining_reduced_1.94,0.997085,1,2000.000000,1,COMPLETED_SUCCESSFULLY,580.891636,0.000000,580.891636,579.894551,579.894551,196184862223178.875000,29,-1.000000,""
48_updated,w0,python3action_imageprocessing_SampleImage_60mb_taurus,0.997085,1,2000.000000,1,COMPLETED_SUCCESSFULLY,502.637668,101.500058,604.137726,501.640583,603.140641,5.942269,15,-1.000000,""
48,w0,python3action_imageprocessing_SampleImage_60mb,0.000000,1,-1.000000,1,COMPLETED_SUCCESSFULLY,604.137741,0.000010,604.137751,604.137741,604.137751,60413775.100201,15,-1.000000,""
python3action_modeltraining_job130_13,w0,python3action_modeltraining_reduced_2.88,0.997085,1,2000.000000,1,COMPLETED_SUCCESSFULLY,604.137771,0.000000,604.137771,603.140686,603.140686,86971829173563.859375,15,-1.000000,""
198_updated,w0,python3action_imageprocessing_SampleImage_60mb_taurus,0.997085,1,2000.000000,1,COMPLETED_SUCCESSFULLY,502.637743,101.500058,604.137801,501.640658,603.140716,5.942270,16,-1.000000,""
198,w0,python3action_imageprocessing_SampleImage_60mb,0.000000,1,-1.000000,1,COMPLETED_SUCCESSFULLY,604.137831,0.000010,604.137841,604.137831,604.137841,60413784.100201,16,-1.000000,""
python3action_modeltraining_job156_14,w0,python3action_modeltraining_reduced_2.88,0.997085,1,2000.000000,1,COMPLETED_SUCCESSFULLY,604.137861,0.000000,604.137861,603.140776,603.140776,86971842151406.031250,16,-1.000000,""
190_updated,w0,python3action_floatoperation_200000000_nova,0.997085,1,2000.000000,1,COMPLETED_SUCCESSFULLY,471.477232,135.399990,606.877222,470.480147,605.880137,4.474743,27,-1.000000,""
190,w0,python3action_floatoperation_200000000,0.000000,1,-1.000000,1,COMPLETED_SUCCESSFULLY,606.877237,0.000010,606.877247,606.877237,606.877247,60687724.723907,27,-1.000000,""
python3action_modeltraining_job8_19,w0,python3action_modeltraining_reduced_0.94,0.997085,1,2000.000000,1,COMPLETED_SUCCESSFULLY,606.877267,0.000000,606.877267,605.880182,605.880182,204976093973944.406250,27,-1.000000,""
199_updated,w0,python3action_floatoperation_200000000_nova,0.997085,1,2000.000000,1,COMPLETED_SUCCESSFULLY,471.477292,135.399990,606.877282,470.480207,605.880197,4.474743,28,-1.000000,""
199,w0,python3action_floatoperation_200000000,0.000000,1,-1.000000,1,COMPLETED_SUCCESSFULLY,606.877312,0.000010,606.877322,606.877312,606.877322,60687732.223907,28,-1.000000,""
python3action_modeltraining_job11_20,w0,python3action_modeltraining_reduced_0.94,0.997085,1,2000.000000,1,COMPLETED_SUCCESSFULLY,606.877342,0.000000,606.877342,605.880257,605.880257,204976119347289.593750,28,-1.000000,""
20_updated,w0,python3action_imageprocessing_SampleImage_60mb_troll,0.997085,1,2000.000000,1,COMPLETED_SUCCESSFULLY,546.269404,62.000000,608.269404,545.272319,607.272319,9.794715,19,-1.000000,""
20,w0,python3action_imageprocessing_SampleImage_60mb,0.000000,1,-1.000000,1,COMPLETED_SUCCESSFULLY,608.269419,0.000010,608.269429,608.269419,608.269429,60826942.912595,19,-1.000000,""
21_updated,w0,python3action_imageprocessing_SampleImage_60mb_troll,0.997085,1,2000.000000,1,COMPLETED_SUCCESSFULLY,546.269464,62.000000,608.269464,545.272379,607.272379,9.794716,20,-1.000000,""
21,w0,python3action_imageprocessing_SampleImage_60mb,0.000000,1,-1.000000,1,COMPLETED_SUCCESSFULLY,608.269479,0.000010,608.269489,608.269479,608.269489,60826948.913398,20,-1.000000,""
106_updated,w0,python3action_floatoperation_200000000_nova,0.997085,1,2000.000000,1,COMPLETED_SUCCESSFULLY,475.677056,135.399990,611.077046,474.679971,610.079961,4.505761,6,-1.000000,""
106,w0,python3action_floatoperation_200000000,0.000000,1,-1.000000,1,COMPLETED_SUCCESSFULLY,611.077061,0.000010,611.077071,611.077061,611.077071,61107707.130786,6,-1.000000,""
141_updated,w0,python3action_floatoperation_200000000_nova,0.997085,1,2000.000000,1,COMPLETED_SUCCESSFULLY,475.677116,135.399990,611.077106,474.680031,610.080021,4.505761,7,-1.000000,""
141,w0,python3action_floatoperation_200000000,0.000000,1,-1.000000,1,COMPLETED_SUCCESSFULLY,611.077121,0.000010,611.077131,611.077121,611.077131,61107713.131590,7,-1.000000,""
147_updated,w0,python3action_floatoperation_200000000_nova,0.997085,1,2000.000000,1,COMPLETED_SUCCESSFULLY,475.677176,135.399990,611.077166,474.680091,610.080081,4.505762,25,-1.000000,""
147,w0,python3action_floatoperation_200000000,0.000000,1,-1.000000,1,COMPLETED_SUCCESSFULLY,611.077181,0.000010,611.077191,611.077181,611.077191,61107719.132393,25,-1.000000,""
177_updated,w0,python3action_floatoperation_200000000_nova,0.997085,1,2000.000000,1,COMPLETED_SUCCESSFULLY,475.677236,135.399990,611.077227,474.680151,610.080142,4.505762,26,-1.000000,""
177,w0,python3action_floatoperation_200000000,0.000000,1,-1.000000,1,COMPLETED_SUCCESSFULLY,611.077242,0.000010,611.077252,611.077242,611.077252,61107725.200201,26,-1.000000,""
python3action_video_processing_job132_5,w0,python3action_video_processing_reduced_0.91,0.997085,1,2000.000000,1,COMPLETED_SUCCESSFULLY,611.077091,2.614259,613.691350,610.080006,612.694265,234.366366,6,-1.000000,""
python3action_video_processing_job139_6,w0,python3action_video_processing_reduced_0.91,0.997085,1,2000.000000,1,COMPLETED_SUCCESSFULLY,611.077151,2.614259,613.691410,610.080066,612.694325,234.366389,7,-1.000000,""
python3action_video_processing_job148_17,w0,python3action_video_processing_reduced_0.91,0.997085,1,2000.000000,1,COMPLETED_SUCCESSFULLY,611.077211,2.614259,613.691470,610.080126,612.694385,234.366412,25,-1.000000,""
python3action_video_processing_job157_18,w0,python3action_video_processing_reduced_0.91,0.997085,1,2000.000000,1,COMPLETED_SUCCESSFULLY,611.077272,2.614259,613.691531,610.080187,612.694446,234.366435,26,-1.000000,""
6_updated,w0,python3action_imageprocessing_SampleImage_60mb_taurus,0.997085,1,2000.000000,1,COMPLETED_SUCCESSFULLY,522.287650,101.500058,623.787708,521.290565,622.790623,6.135865,14,-1.000000,""
6,w0,python3action_imageprocessing_SampleImage_60mb,0.000000,1,-1.000000,1,COMPLETED_SUCCESSFULLY,623.787723,0.000010,623.787733,623.787723,623.787733,62378773.300832,14,-1.000000,""
python3action_modeltraining_job128_12,w0,python3action_modeltraining_reduced_2.88,0.997085,1,2000.000000,1,COMPLETED_SUCCESSFULLY,623.787753,0.000000,623.787753,622.790668,622.790668,89805322118027.015625,14,-1.000000,""
65_updated,w0,python3action_floatoperation_200000000_nova,0.997085,1,2000.000000,1,COMPLETED_SUCCESSFULLY,496.476856,135.399990,631.876847,495.479771,630.879762,4.659378,2,-1.000000,""
65,w0,python3action_floatoperation_200000000,0.000000,1,-1.000000,1,COMPLETED_SUCCESSFULLY,631.876862,0.000010,631.876872,631.876862,631.876872,63187687.200201,2,-1.000000,""
68_updated,w0,python3action_floatoperation_200000000_nova,0.997085,1,2000.000000,1,COMPLETED_SUCCESSFULLY,496.476917,135.399990,631.876907,495.479832,630.879822,4.659379,3,-1.000000,""
68,w0,python3action_floatoperation_200000000,0.000000,1,-1.000000,1,COMPLETED_SUCCESSFULLY,631.876922,0.000010,631.876932,631.876922,631.876932,63187693.223505,3,-1.000000,""
73_updated,w0,python3action_floatoperation_200000000_nova,0.997085,1,2000.000000,1,COMPLETED_SUCCESSFULLY,496.476977,135.399990,631.876967,495.479892,630.879882,4.659379,4,-1.000000,""
73,w0,python3action_floatoperation_200000000,0.000000,1,-1.000000,1,COMPLETED_SUCCESSFULLY,631.876982,0.000010,631.876992,631.876982,631.876992,63187699.223706,4,-1.000000,""
76_updated,w0,python3action_floatoperation_200000000_nova,0.997085,1,2000.000000,1,COMPLETED_SUCCESSFULLY,496.477037,135.399990,631.877027,495.479952,630.879942,4.659380,5,-1.000000,""
76,w0,python3action_floatoperation_200000000,0.000000,1,-1.000000,1,COMPLETED_SUCCESSFULLY,631.877042,0.000010,631.877052,631.877042,631.877052,63187705.223706,5,-1.000000,""
python3action_video_processing_job43_1,w0,python3action_video_processing_reduced_0.91,0.997085,1,2000.000000,1,COMPLETED_SUCCESSFULLY,631.876892,2.614259,634.491151,630.879807,633.494066,242.322657,2,-1.000000,""
python3action_video_processing_job64_2,w0,python3action_video_processing_reduced_0.91,0.997085,1,2000.000000,1,COMPLETED_SUCCESSFULLY,631.876952,2.614259,634.491211,630.879867,633.494126,242.322680,3,-1.000000,""
python3action_video_processing_job81_3,w0,python3action_video_processing_reduced_0.91,0.997085,1,2000.000000,1,COMPLETED_SUCCESSFULLY,631.877012,2.614259,634.491271,630.879927,633.494186,242.322703,4,-1.000000,""
python3action_video_processing_job110_4,w0,python3action_video_processing_reduced_0.91,0.997085,1,2000.000000,1,COMPLETED_SUCCESSFULLY,631.877072,2.614259,634.491331,630.879987,633.494246,242.322726,5,-1.000000,""
168_updated,w0,python3action_facedetection_SampleVideo_50mb_taurus,0.997085,1,2000.000000,1,COMPLETED_SUCCESSFULLY,522.287440,134.600046,656.887486,521.290355,655.890401,4.872884,10,-1.000000,""
168,w0,python3action_facedetection_SampleVideo_50mb,0.000000,1,-1.000000,1,COMPLETED_SUCCESSFULLY,656.887501,0.000010,656.887511,656.887501,656.887511,65688751.144751,10,-1.000000,""
python3action_modeltraining_job1_9,w0,python3action_modeltraining_reduced_1.94,0.997085,1,2000.000000,1,COMPLETED_SUCCESSFULLY,656.887531,0.000000,656.887531,655.890446,655.890446,94578252120741.828125,10,-1.000000,""
175_updated,w0,python3action_facedetection_SampleVideo_50mb_taurus,0.997085,1,2000.000000,1,COMPLETED_SUCCESSFULLY,522.287500,134.600046,656.887546,521.290415,655.890461,4.872884,11,-1.000000,""
175,w0,python3action_facedetection_SampleVideo_50mb,0.000000,1,-1.000000,1,COMPLETED_SUCCESSFULLY,656.887576,0.000010,656.887586,656.887576,656.887586,65688758.645755,11,-1.000000,""
189_updated,w0,python3action_facedetection_SampleVideo_50mb_taurus,0.997085,1,2000.000000,1,COMPLETED_SUCCESSFULLY,522.287560,134.600046,656.887606,521.290475,655.890521,4.872885,13,-1.000000,""
python3action_modeltraining_job5_10,w0,python3action_modeltraining_reduced_1.94,0.997085,1,2000.000000,1,COMPLETED_SUCCESSFULLY,656.887606,0.000000,656.887606,655.890521,655.890521,94578262937058.062500,11,-1.000000,""
189,w0,python3action_facedetection_SampleVideo_50mb,0.000000,1,-1.000000,1,COMPLETED_SUCCESSFULLY,656.887636,0.000010,656.887646,656.887636,656.887646,65688764.646559,13,-1.000000,""
python3action_modeltraining_job51_11,w0,python3action_modeltraining_reduced_1.94,0.997085,1,2000.000000,1,COMPLETED_SUCCESSFULLY,656.887681,0.000000,656.887681,655.890596,655.890596,94578273753374.296875,13,-1.000000,""
72_updated,w0,python3action_modeltraining_reviews100mb_nova,0.997085,1,2000.000000,1,COMPLETED_SUCCESSFULLY,580.891666,79.600010,660.491676,579.894581,659.494591,8.285107,29,-1.000000,""
72,w0,python3action_modeltraining_reviews100mb,0.000000,1,-1.000000,1,COMPLETED_SUCCESSFULLY,660.491691,0.000010,660.491701,660.491691,660.491701,66049170.124509,29,-1.000000,""
34_updated,w0,python3action_imageprocessing_SampleImage_60mb_troll,0.997085,1,2000.000000,1,COMPLETED_SUCCESSFULLY,608.269449,62.000000,670.269449,607.272364,669.272364,10.794716,19,-1.000000,""
34,w0,python3action_imageprocessing_SampleImage_60mb,0.000000,1,-1.000000,1,COMPLETED_SUCCESSFULLY,670.269464,0.000010,670.269474,670.269464,670.269474,67026947.413197,19,-1.000000,""
41_updated,w0,python3action_imageprocessing_SampleImage_60mb_troll,0.997085,1,2000.000000,1,COMPLETED_SUCCESSFULLY,608.269509,62.000000,670.269509,607.272424,669.272424,10.794717,20,-1.000000,""
41,w0,python3action_imageprocessing_SampleImage_60mb,0.000000,1,-1.000000,1,COMPLETED_SUCCESSFULLY,670.269524,0.000010,670.269534,670.269524,670.269534,67026953.414000,20,-1.000000,""
8_updated,w0,python3action_modeltraining_reviews100mb_nova,0.997085,1,2000.000000,1,COMPLETED_SUCCESSFULLY,606.877297,79.600010,686.477307,605.880212,685.480222,8.611560,27,-1.000000,""
8,w0,python3action_modeltraining_reviews100mb,0.000000,1,-1.000000,1,COMPLETED_SUCCESSFULLY,686.477322,0.000010,686.477332,686.477322,686.477332,68647733.200803,27,-1.000000,""
11_updated,w0,python3action_modeltraining_reviews100mb_nova,0.997085,1,2000.000000,1,COMPLETED_SUCCESSFULLY,606.877372,79.600010,686.477382,605.880287,685.480297,8.611560,28,-1.000000,""
11,w0,python3action_modeltraining_reviews100mb,0.000000,1,-1.000000,1,COMPLETED_SUCCESSFULLY,686.477397,0.000010,686.477407,686.477397,686.477407,68647740.701807,28,-1.000000,""
130_updated,w0,python3action_modeltraining_reviews100mb_taurus,0.997085,1,2000.000000,1,COMPLETED_SUCCESSFULLY,604.137801,88.199977,692.337778,603.140716,691.340693,7.838332,15,-1.000000,""
130,w0,python3action_modeltraining_reviews100mb,0.000000,1,-1.000000,1,COMPLETED_SUCCESSFULLY,692.337793,0.000010,692.337803,692.337793,692.337803,69233780.300201,15,-1.000000,""
156_updated,w0,python3action_modeltraining_reviews100mb_taurus,0.997085,1,2000.000000,1,COMPLETED_SUCCESSFULLY,604.137891,88.199977,692.337868,603.140806,691.340783,7.838333,16,-1.000000,""
156,w0,python3action_modeltraining_reviews100mb,0.000000,1,-1.000000,1,COMPLETED_SUCCESSFULLY,692.337883,0.000010,692.337893,692.337883,692.337893,69233789.300201,16,-1.000000,""
python3action_chameleon_job39_13,w0,python3action_chameleon,0.997085,1,2000.000000,1,COMPLETED_SUCCESSFULLY,692.337823,5.040826,697.378649,691.340738,696.381564,138.148311,15,-1.000000,""
python3action_chameleon_job94_14,w0,python3action_chameleon,0.997085,1,2000.000000,1,COMPLETED_SUCCESSFULLY,692.337913,5.040826,697.378739,691.340828,696.381654,138.148329,16,-1.000000,""
128_updated,w0,python3action_modeltraining_reviews100mb_taurus,0.997085,1,2000.000000,1,COMPLETED_SUCCESSFULLY,623.787783,88.199977,711.987760,622.790698,710.990675,8.061121,14,-1.000000,""
128,w0,python3action_modeltraining_reviews100mb,0.000000,1,-1.000000,1,COMPLETED_SUCCESSFULLY,711.987775,0.000010,711.987785,711.987775,711.987785,71198778.500201,14,-1.000000,""
python3action_chameleon_job19_12,w0,python3action_chameleon,0.997085,1,2000.000000,1,COMPLETED_SUCCESSFULLY,711.987805,5.040826,717.028631,710.990720,716.031546,142.046479,14,-1.000000,""
132_updated,w0,python3action_videoprocessing_SampleVideo_30mb_nova,0.997085,1,2000.000000,1,COMPLETED_SUCCESSFULLY,613.691365,106.799980,720.491345,612.694280,719.494260,6.736839,6,-1.000000,""
132,w0,python3action_videoprocessing_SampleVideo_30mb,0.000000,1,-1.000000,1,COMPLETED_SUCCESSFULLY,720.491360,0.000010,720.491370,720.491360,720.491370,72049137.046609,6,-1.000000,""
139_updated,w0,python3action_videoprocessing_SampleVideo_30mb_nova,0.997085,1,2000.000000,1,COMPLETED_SUCCESSFULLY,613.691425,106.799980,720.491405,612.694340,719.494320,6.736839,7,-1.000000,""
139,w0,python3action_videoprocessing_SampleVideo_30mb,0.000000,1,-1.000000,1,COMPLETED_SUCCESSFULLY,720.491420,0.000010,720.491430,720.491420,720.491430,72049143.046809,7,-1.000000,""
148_updated,w0,python3action_videoprocessing_SampleVideo_30mb_nova,0.997085,1,2000.000000,1,COMPLETED_SUCCESSFULLY,613.691485,106.799980,720.491465,612.694400,719.494380,6.736840,25,-1.000000,""
148,w0,python3action_videoprocessing_SampleVideo_30mb,0.000000,1,-1.000000,1,COMPLETED_SUCCESSFULLY,720.491480,0.000010,720.491490,720.491480,720.491490,72049149.046809,25,-1.000000,""
157_updated,w0,python3action_videoprocessing_SampleVideo_30mb_nova,0.997085,1,2000.000000,1,COMPLETED_SUCCESSFULLY,613.691546,106.799980,720.491526,612.694461,719.494441,6.736841,26,-1.000000,""
157,w0,python3action_videoprocessing_SampleVideo_30mb,0.000000,1,-1.000000,1,COMPLETED_SUCCESSFULLY,720.491541,0.000010,720.491551,720.491541,720.491551,72049155.146609,26,-1.000000,""
59_updated,w0,python3action_imageprocessing_SampleImage_60mb_troll,0.997085,1,2000.000000,1,COMPLETED_SUCCESSFULLY,670.269494,62.000000,732.269494,669.272409,731.272409,11.794716,19,-1.000000,""
59,w0,python3action_imageprocessing_SampleImage_60mb,0.000000,1,-1.000000,1,COMPLETED_SUCCESSFULLY,732.269509,0.000010,732.269519,732.269509,732.269519,73226951.913799,19,-1.000000,""
90_updated,w0,python3action_imageprocessing_SampleImage_60mb_troll,0.997085,1,2000.000000,1,COMPLETED_SUCCESSFULLY,670.269554,62.000000,732.269554,669.272469,731.272469,11.794717,20,-1.000000,""
90,w0,python3action_imageprocessing_SampleImage_60mb,0.000000,1,-1.000000,1,COMPLETED_SUCCESSFULLY,732.269569,0.000010,732.269579,732.269569,732.269579,73226957.914602,20,-1.000000,""
193_updated,w0,python3action_pyaes_3000_nova,0.997085,1,2000.000000,1,COMPLETED_SUCCESSFULLY,660.491721,78.200020,738.691741,659.494636,737.694656,9.433433,29,-1.000000,""
193,w0,python3action_pyaes_3000,0.000000,1,-1.000000,1,COMPLETED_SUCCESSFULLY,738.691756,0.000010,738.691766,738.691756,738.691766,73869176.600201,29,-1.000000,""
43_updated,w0,python3action_videoprocessing_SampleVideo_30mb_nova,0.997085,1,2000.000000,1,COMPLETED_SUCCESSFULLY,634.491166,106.799980,741.291146,633.494081,740.294061,6.931594,2,-1.000000,""
43,w0,python3action_videoprocessing_SampleVideo_30mb,0.000000,1,-1.000000,1,COMPLETED_SUCCESSFULLY,741.291161,0.000010,741.291171,741.291161,741.291171,74129117.146609,2,-1.000000,""
python3action_modeltraining_job77_1,w0,python3action_modeltraining_reduced_1.94,0.997085,1,2000.000000,1,COMPLETED_SUCCESSFULLY,741.291191,0.000000,741.291191,740.294106,740.294106,250449839396284.406250,2,-1.000000,""
64_updated,w0,python3action_videoprocessing_SampleVideo_30mb_nova,0.997085,1,2000.000000,1,COMPLETED_SUCCESSFULLY,634.491226,106.799980,741.291206,633.494141,740.294121,6.931594,3,-1.000000,""
64,w0,python3action_videoprocessing_SampleVideo_30mb,0.000000,1,-1.000000,1,COMPLETED_SUCCESSFULLY,741.291236,0.000010,741.291246,741.291236,741.291246,74129124.647010,3,-1.000000,""
81_updated,w0,python3action_videoprocessing_SampleVideo_30mb_nova,0.997085,1,2000.000000,1,COMPLETED_SUCCESSFULLY,634.491286,106.799980,741.291266,633.494201,740.294181,6.931595,4,-1.000000,""
python3action_modeltraining_job91_2,w0,python3action_modeltraining_reduced_1.94,0.997085,1,2000.000000,1,COMPLETED_SUCCESSFULLY,741.291266,0.000000,741.291266,740.294181,740.294181,250449864768271.031250,3,-1.000000,""
81,w0,python3action_videoprocessing_SampleVideo_30mb,0.000000,1,-1.000000,1,COMPLETED_SUCCESSFULLY,741.291296,0.000010,741.291306,741.291296,741.291306,74129130.647010,4,-1.000000,""
110_updated,w0,python3action_videoprocessing_SampleVideo_30mb_nova,0.997085,1,2000.000000,1,COMPLETED_SUCCESSFULLY,634.491346,106.799980,741.291326,633.494261,740.294241,6.931595,5,-1.000000,""
python3action_modeltraining_job161_3,w0,python3action_modeltraining_reduced_1.94,0.997085,1,2000.000000,1,COMPLETED_SUCCESSFULLY,741.291341,0.000000,741.291341,740.294256,740.294256,250449890142295.656250,4,-1.000000,""
110,w0,python3action_videoprocessing_SampleVideo_30mb,0.000000,1,-1.000000,1,COMPLETED_SUCCESSFULLY,741.291356,0.000010,741.291366,741.291356,741.291366,74129136.647010,5,-1.000000,""
python3action_modeltraining_job181_4,w0,python3action_modeltraining_reduced_1.94,0.997085,1,2000.000000,1,COMPLETED_SUCCESSFULLY,741.291401,0.000000,741.291401,740.294316,740.294316,250449910443689.218750,5,-1.000000,""
1_updated,w0,python3action_modeltraining_reviews100mb_taurus,0.997085,1,2000.000000,1,COMPLETED_SUCCESSFULLY,656.887561,88.199977,745.087538,655.890476,744.090453,8.436402,10,-1.000000,""
1,w0,python3action_modeltraining_reviews100mb,0.000000,1,-1.000000,1,COMPLETED_SUCCESSFULLY,745.087553,0.000010,745.087563,745.087553,745.087563,74508756.339216,10,-1.000000,""
5_updated,w0,python3action_modeltraining_reviews100mb_taurus,0.997085,1,2000.000000,1,COMPLETED_SUCCESSFULLY,656.887651,88.199977,745.087628,655.890566,744.090543,8.436403,11,-1.000000,""
5,w0,python3action_modeltraining_reviews100mb,0.000000,1,-1.000000,1,COMPLETED_SUCCESSFULLY,745.087643,0.000010,745.087653,745.087643,745.087653,74508765.340421,11,-1.000000,""
51_updated,w0,python3action_modeltraining_reviews100mb_taurus,0.997085,1,2000.000000,1,COMPLETED_SUCCESSFULLY,656.887711,88.199977,745.087688,655.890626,744.090603,8.436404,13,-1.000000,""
51,w0,python3action_modeltraining_reviews100mb,0.000000,1,-1.000000,1,COMPLETED_SUCCESSFULLY,745.087703,0.000010,745.087713,745.087703,745.087713,74508771.341224,13,-1.000000,""
python3action_chameleon_job9_10,w0,python3action_chameleon,0.997085,1,2000.000000,1,COMPLETED_SUCCESSFULLY,745.087673,5.040826,750.128499,744.090588,749.131414,148.612837,11,-1.000000,""
python3action_chameleon_job12_11,w0,python3action_chameleon,0.997085,1,2000.000000,1,COMPLETED_SUCCESSFULLY,745.087733,5.040826,750.128559,744.090648,749.131474,148.612849,13,-1.000000,""
39_updated,w0,python3action_chameleon_2000_taurus,0.997085,1,2000.000000,1,COMPLETED_SUCCESSFULLY,697.378664,64.199977,761.578641,696.381579,760.581556,11.847069,15,-1.000000,""
39,w0,python3action_chameleon_2000,0.000000,1,-1.000000,1,COMPLETED_SUCCESSFULLY,761.578656,0.000010,761.578666,761.578656,761.578666,76157866.600201,15,-1.000000,""
94_updated,w0,python3action_chameleon_2000_taurus,0.997085,1,2000.000000,1,COMPLETED_SUCCESSFULLY,697.378754,64.199977,761.578731,696.381669,760.581646,11.847070,16,-1.000000,""
94,w0,python3action_chameleon_2000,0.000000,1,-1.000000,1,COMPLETED_SUCCESSFULLY,761.578746,0.000010,761.578756,761.578746,761.578756,76157875.600201,16,-1.000000,""
118_updated,w0,python3action_pyaes_3000_nova,0.997085,1,2000.000000,1,COMPLETED_SUCCESSFULLY,686.477352,78.200020,764.677372,685.480267,763.680287,9.765730,27,-1.000000,""
118,w0,python3action_pyaes_3000,0.000000,1,-1.000000,1,COMPLETED_SUCCESSFULLY,764.677387,0.000010,764.677397,764.677387,764.677397,76467739.700201,27,-1.000000,""
184_updated,w0,python3action_pyaes_3000_nova,0.997085,1,2000.000000,1,COMPLETED_SUCCESSFULLY,686.477427,78.200020,764.677447,685.480342,763.680362,9.765731,28,-1.000000,""
184,w0,python3action_pyaes_3000,0.000000,1,-1.000000,1,COMPLETED_SUCCESSFULLY,764.677462,0.000010,764.677472,764.677462,764.677472,76467747.200201,28,-1.000000,""
19_updated,w0,python3action_chameleon_2000_taurus,0.997085,1,2000.000000,1,COMPLETED_SUCCESSFULLY,717.028646,64.199977,781.228623,716.031561,780.231538,12.153144,14,-1.000000,""
19,w0,python3action_chameleon_2000,0.000000,1,-1.000000,1,COMPLETED_SUCCESSFULLY,781.228638,0.000010,781.228648,781.228638,781.228648,78122864.800201,14,-1.000000,""
96_updated,w0,python3action_imageprocessing_SampleImage_60mb_troll,0.997085,1,2000.000000,1,COMPLETED_SUCCESSFULLY,732.269539,62.000000,794.269539,731.272454,793.272454,12.794717,19,-1.000000,""
96,w0,python3action_imageprocessing_SampleImage_60mb,0.000000,1,-1.000000,1,COMPLETED_SUCCESSFULLY,794.269554,0.000010,794.269564,794.269554,794.269564,79426956.414402,19,-1.000000,""
102_updated,w0,python3action_imageprocessing_SampleImage_60mb_troll,0.997085,1,2000.000000,1,COMPLETED_SUCCESSFULLY,732.269599,62.000000,794.269599,731.272514,793.272514,12.794718,20,-1.000000,""
102,w0,python3action_imageprocessing_SampleImage_60mb,0.000000,1,-1.000000,1,COMPLETED_SUCCESSFULLY,794.269614,0.000010,794.269624,794.269614,794.269624,79426962.415205,20,-1.000000,""
10_updated,w0,python3action_pyaes_3000_nova,0.997085,1,2000.000000,1,COMPLETED_SUCCESSFULLY,720.491390,78.200020,798.691410,719.494305,797.694325,10.200692,6,-1.000000,""
10,w0,python3action_pyaes_3000,0.000000,1,-1.000000,1,COMPLETED_SUCCESSFULLY,798.691425,0.000010,798.691435,798.691425,798.691435,79869143.501004,6,-1.000000,""
42_updated,w0,python3action_pyaes_3000_nova,0.997085,1,2000.000000,1,COMPLETED_SUCCESSFULLY,720.491450,78.200020,798.691470,719.494365,797.694385,10.200693,7,-1.000000,""
42,w0,python3action_pyaes_3000,0.000000,1,-1.000000,1,COMPLETED_SUCCESSFULLY,798.691485,0.000010,798.691495,798.691485,798.691495,79869149.501405,7,-1.000000,""
50_updated,w0,python3action_pyaes_3000_nova,0.997085,1,2000.000000,1,COMPLETED_SUCCESSFULLY,720.491510,78.200020,798.691530,719.494425,797.694445,10.200694,25,-1.000000,""
50,w0,python3action_pyaes_3000,0.000000,1,-1.000000,1,COMPLETED_SUCCESSFULLY,798.691545,0.000010,798.691555,798.691545,798.691555,79869155.501405,25,-1.000000,""
57_updated,w0,python3action_pyaes_3000_nova,0.997085,1,2000.000000,1,COMPLETED_SUCCESSFULLY,720.491571,78.200020,798.691591,719.494486,797.694506,10.200694,26,-1.000000,""
57,w0,python3action_pyaes_3000,0.000000,1,-1.000000,1,COMPLETED_SUCCESSFULLY,798.691606,0.000010,798.691616,798.691606,798.691616,79869161.601004,26,-1.000000,""
125_updated,w0,python3action_floatoperation_100000000_nova,0.997085,1,2000.000000,1,COMPLETED_SUCCESSFULLY,738.691786,66.200020,804.891806,737.694701,803.894721,12.143421,29,-1.000000,""
125,w0,python3action_floatoperation_100000000,0.000000,1,-1.000000,1,COMPLETED_SUCCESSFULLY,804.891821,0.000010,804.891831,804.891821,804.891831,80489183.100201,29,-1.000000,""
9_updated,w0,python3action_chameleon_2000_taurus,0.997085,1,2000.000000,1,COMPLETED_SUCCESSFULLY,750.128514,64.199977,814.328491,749.131429,813.331406,12.668718,11,-1.000000,""
9,w0,python3action_chameleon_2000,0.000000,1,-1.000000,1,COMPLETED_SUCCESSFULLY,814.328506,0.000010,814.328516,814.328506,814.328516,81432851.608783,11,-1.000000,""
12_updated,w0,python3action_chameleon_2000_taurus,0.997085,1,2000.000000,1,COMPLETED_SUCCESSFULLY,750.128574,64.199977,814.328551,749.131489,813.331466,12.668719,13,-1.000000,""
12,w0,python3action_chameleon_2000,0.000000,1,-1.000000,1,COMPLETED_SUCCESSFULLY,814.328566,0.000010,814.328576,814.328566,814.328576,81432857.609586,13,-1.000000,""
77_updated,w0,python3action_modeltraining_reviews100mb_nova,0.997085,1,2000.000000,1,COMPLETED_SUCCESSFULLY,741.291221,79.600010,820.891231,740.294136,819.894146,10.300176,2,-1.000000,""
77,w0,python3action_modeltraining_reviews100mb,0.000000,1,-1.000000,1,COMPLETED_SUCCESSFULLY,820.891246,0.000010,820.891256,820.891246,820.891256,82089125.623906,2,-1.000000,""
91_updated,w0,python3action_modeltraining_reviews100mb_nova,0.997085,1,2000.000000,1,COMPLETED_SUCCESSFULLY,741.291311,79.600010,820.891321,740.294226,819.894236,10.300178,3,-1.000000,""
91,w0,python3action_modeltraining_reviews100mb,0.000000,1,-1.000000,1,COMPLETED_SUCCESSFULLY,820.891336,0.000010,820.891346,820.891336,820.891346,82089134.624308,3,-1.000000,""
161_updated,w0,python3action_modeltraining_reviews100mb_nova,0.997085,1,2000.000000,1,COMPLETED_SUCCESSFULLY,741.291386,79.600010,820.891396,740.294301,819.894311,10.300179,4,-1.000000,""
161,w0,python3action_modeltraining_reviews100mb,0.000000,1,-1.000000,1,COMPLETED_SUCCESSFULLY,820.891411,0.000010,820.891421,820.891411,820.891421,82089142.124509,4,-1.000000,""
181_updated,w0,python3action_modeltraining_reviews100mb_nova,0.997085,1,2000.000000,1,COMPLETED_SUCCESSFULLY,741.291431,79.600010,820.891441,740.294346,819.894356,10.300179,5,-1.000000,""
181,w0,python3action_modeltraining_reviews100mb,0.000000,1,-1.000000,1,COMPLETED_SUCCESSFULLY,820.891471,0.000010,820.891481,820.891471,820.891481,82089148.125312,5,-1.000000,""
165_updated,w0,python3action_chameleon_2000_taurus,0.997085,1,2000.000000,1,COMPLETED_SUCCESSFULLY,761.578686,64.199977,825.778663,760.581601,824.781578,12.847070,15,-1.000000,""
165,w0,python3action_chameleon_2000,0.000000,1,-1.000000,1,COMPLETED_SUCCESSFULLY,825.778678,0.000010,825.778688,825.778678,825.778688,82577868.800201,15,-1.000000,""
185_updated,w0,python3action_chameleon_2000_taurus,0.997085,1,2000.000000,1,COMPLETED_SUCCESSFULLY,761.578776,64.199977,825.778753,760.581691,824.781668,12.847071,16,-1.000000,""
185,w0,python3action_chameleon_2000,0.000000,1,-1.000000,1,COMPLETED_SUCCESSFULLY,825.778768,0.000010,825.778778,825.778768,825.778778,82577877.800201,16,-1.000000,""
108_updated,w0,python3action_floatoperation_100000000_nova,0.997085,1,2000.000000,1,COMPLETED_SUCCESSFULLY,764.677417,66.200020,830.877437,763.680332,829.880352,12.535953,27,-1.000000,""
108,w0,python3action_floatoperation_100000000,0.000000,1,-1.000000,1,COMPLETED_SUCCESSFULLY,830.877452,0.000010,830.877462,830.877452,830.877462,83087746.200201,27,-1.000000,""
114_updated,w0,python3action_floatoperation_100000000_nova,0.997085,1,2000.000000,1,COMPLETED_SUCCESSFULLY,764.677492,66.200020,830.877512,763.680407,829.880427,12.535954,28,-1.000000,""
114,w0,python3action_floatoperation_100000000,0.000000,1,-1.000000,1,COMPLETED_SUCCESSFULLY,830.877527,0.000010,830.877537,830.877527,830.877537,83087753.700201,28,-1.000000,""
186_updated,w0,python3action_modeltraining_reviews100mb_taurus,0.997085,1,2000.000000,1,COMPLETED_SUCCESSFULLY,745.087583,88.199977,833.287560,744.090498,832.290475,9.436402,10,-1.000000,""
186,w0,python3action_modeltraining_reviews100mb,0.000000,1,-1.000000,1,COMPLETED_SUCCESSFULLY,833.287575,0.000010,833.287585,833.287575,833.287585,83328758.533279,10,-1.000000,""
python3action_chameleon_job126_9,w0,python3action_chameleon,0.997085,1,2000.000000,1,COMPLETED_SUCCESSFULLY,833.287605,5.040826,838.328431,832.290520,837.331346,166.109957,10,-1.000000,""
159_updated,w0,python3action_chameleon_2000_taurus,0.997085,1,2000.000000,1,COMPLETED_SUCCESSFULLY,781.228668,64.199977,845.428645,780.231583,844.431560,13.153144,14,-1.000000,""
159,w0,python3action_chameleon_2000,0.000000,1,-1.000000,1,COMPLETED_SUCCESSFULLY,845.428660,0.000010,845.428670,845.428660,845.428670,84542867.000201,14,-1.000000,""
134_updated,w0,python3action_modeltraining_reviews50mb_nova,0.997085,1,2000.000000,1,COMPLETED_SUCCESSFULLY,804.891851,42.399990,847.291841,803.894766,846.294756,19.959787,29,-1.000000,""
134,w0,python3action_modeltraining_reviews50mb,0.000000,1,-1.000000,1,COMPLETED_SUCCESSFULLY,847.291856,0.000010,847.291866,847.291856,847.291866,84729186.623907,29,-1.000000,""
python3action_linpack_job104_21,w0,python3action_linpack_reduced_0.85,0.997085,1,2000.000000,1,COMPLETED_SUCCESSFULLY,847.291886,0.365992,847.657878,846.294801,846.660793,2313.332722,29,-1.000000,""
152_updated,w0,python3action_imageprocessing_SampleImage_60mb_troll,0.997085,1,2000.000000,1,COMPLETED_SUCCESSFULLY,794.269584,62.000000,856.269584,793.272499,855.272499,13.794718,19,-1.000000,""
152,w0,python3action_imageprocessing_SampleImage_60mb,0.000000,1,-1.000000,1,COMPLETED_SUCCESSFULLY,856.269599,0.000010,856.269609,856.269599,856.269609,85626960.915004,19,-1.000000,""
163_updated,w0,python3action_imageprocessing_SampleImage_60mb_troll,0.997085,1,2000.000000,1,COMPLETED_SUCCESSFULLY,794.269644,62.000000,856.269644,793.272559,855.272559,13.794719,20,-1.000000,""
163,w0,python3action_imageprocessing_SampleImage_60mb,0.000000,1,-1.000000,1,COMPLETED_SUCCESSFULLY,856.269659,0.000010,856.269669,856.269659,856.269669,85626966.915807,20,-1.000000,""
63_updated,w0,python3action_imageprocessing_SampleImage_40mb_taurus,0.997085,1,2000.000000,1,COMPLETED_SUCCESSFULLY,825.778708,32.600046,858.378754,824.781623,857.381669,26.300014,15,-1.000000,""
63,w0,python3action_imageprocessing_SampleImage_40mb,0.000000,1,-1.000000,1,COMPLETED_SUCCESSFULLY,858.378769,0.000010,858.378779,858.378769,858.378779,85837877.913881,15,-1.000000,""
79_updated,w0,python3action_imageprocessing_SampleImage_40mb_taurus,0.997085,1,2000.000000,1,COMPLETED_SUCCESSFULLY,825.778798,32.600046,858.378844,824.781713,857.381759,26.300017,16,-1.000000,""
79,w0,python3action_imageprocessing_SampleImage_40mb,0.000000,1,-1.000000,1,COMPLETED_SUCCESSFULLY,858.378859,0.000010,858.378869,858.378859,858.378869,85837886.913881,16,-1.000000,""
69_updated,w0,python3action_floatoperation_100000000_nova,0.997085,1,2000.000000,1,COMPLETED_SUCCESSFULLY,798.691455,66.200020,864.891475,797.694370,863.894390,13.049760,6,-1.000000,""
69,w0,python3action_floatoperation_100000000,0.000000,1,-1.000000,1,COMPLETED_SUCCESSFULLY,864.891490,0.000010,864.891500,864.891490,864.891500,86489150.000201,6,-1.000000,""
python3action_modeltraining_job2_5,w0,python3action_modeltraining_reduced_1.94,0.997085,1,2000.000000,1,COMPLETED_SUCCESSFULLY,864.891520,0.000000,864.891520,863.894435,863.894435,292265223526186.000000,6,-1.000000,""
83_updated,w0,python3action_floatoperation_100000000_nova,0.997085,1,2000.000000,1,COMPLETED_SUCCESSFULLY,798.691515,66.200020,864.891535,797.694430,863.894450,13.049761,7,-1.000000,""
83,w0,python3action_floatoperation_100000000,0.000000,1,-1.000000,1,COMPLETED_SUCCESSFULLY,864.891565,0.000010,864.891575,864.891565,864.891575,86489157.500402,7,-1.000000,""
103_updated,w0,python3action_floatoperation_100000000_nova,0.997085,1,2000.000000,1,COMPLETED_SUCCESSFULLY,798.691575,66.200020,864.891595,797.694490,863.894510,13.049762,25,-1.000000,""
python3action_modeltraining_job67_6,w0,python3action_modeltraining_reduced_1.94,0.997085,1,2000.000000,1,COMPLETED_SUCCESSFULLY,864.891595,0.000000,864.891595,863.894510,863.894510,292265248747960.437500,7,-1.000000,""
103,w0,python3action_floatoperation_100000000,0.000000,1,-1.000000,1,COMPLETED_SUCCESSFULLY,864.891625,0.000010,864.891635,864.891625,864.891635,86489163.500201,25,-1.000000,""
107_updated,w0,python3action_floatoperation_100000000_nova,0.997085,1,2000.000000,1,COMPLETED_SUCCESSFULLY,798.691636,66.200020,864.891656,797.694551,863.894571,13.049763,26,-1.000000,""
python3action_modeltraining_job71_17,w0,python3action_modeltraining_reduced_1.94,0.997085,1,2000.000000,1,COMPLETED_SUCCESSFULLY,864.891670,0.000000,864.891670,863.894585,863.894585,292265274273555.937500,25,-1.000000,""
107,w0,python3action_floatoperation_100000000,0.000000,1,-1.000000,1,COMPLETED_SUCCESSFULLY,864.891700,0.000010,864.891710,864.891700,864.891710,86489171.001205,26,-1.000000,""
python3action_modeltraining_job85_18,w0,python3action_modeltraining_reduced_1.94,0.997085,1,2000.000000,1,COMPLETED_SUCCESSFULLY,864.891745,0.000000,864.891745,863.894660,863.894660,292265299650297.875000,26,-1.000000,""
92_updated,w0,python3action_modeltraining_reviews50mb_nova,0.997085,1,2000.000000,1,COMPLETED_SUCCESSFULLY,830.877482,42.399990,873.277472,829.880397,872.280387,20.572655,27,-1.000000,""
92,w0,python3action_modeltraining_reviews50mb,0.000000,1,-1.000000,1,COMPLETED_SUCCESSFULLY,873.277487,0.000010,873.277497,873.277487,873.277497,87327749.723907,27,-1.000000,""
129_updated,w0,python3action_modeltraining_reviews50mb_nova,0.997085,1,2000.000000,1,COMPLETED_SUCCESSFULLY,830.877557,42.399990,873.277547,829.880472,872.280462,20.572657,28,-1.000000,""
129,w0,python3action_modeltraining_reviews50mb,0.000000,1,-1.000000,1,COMPLETED_SUCCESSFULLY,873.277562,0.000010,873.277572,873.277562,873.277572,87327757.223907,28,-1.000000,""
python3action_linpack_job74_19,w0,python3action_linpack_reduced_0.85,0.997085,1,2000.000000,1,COMPLETED_SUCCESSFULLY,873.277517,0.365992,873.643509,872.280432,872.646424,2384.333305,27,-1.000000,""
python3action_linpack_job87_20,w0,python3action_linpack_reduced_0.85,0.997085,1,2000.000000,1,COMPLETED_SUCCESSFULLY,873.277592,0.365992,873.643584,872.280507,872.646499,2384.333510,28,-1.000000,""
46_updated,w0,python3action_imageprocessing_SampleImage_40mb_taurus,0.997085,1,2000.000000,1,COMPLETED_SUCCESSFULLY,845.428690,32.600046,878.028736,844.431605,877.031651,26.902773,14,-1.000000,""
46,w0,python3action_imageprocessing_SampleImage_40mb,0.000000,1,-1.000000,1,COMPLETED_SUCCESSFULLY,878.028751,0.000010,878.028761,878.028751,878.028761,87802876.113881,14,-1.000000,""
149_updated,w0,python3action_chameleon_2000_taurus,0.997085,1,2000.000000,1,COMPLETED_SUCCESSFULLY,814.328536,64.199977,878.528513,813.331451,877.531428,13.668719,11,-1.000000,""
149,w0,python3action_chameleon_2000,0.000000,1,-1.000000,1,COMPLETED_SUCCESSFULLY,878.528528,0.000010,878.528538,878.528528,878.528538,87852853.802846,11,-1.000000,""
python3action_image_processing_job27_10,w0,python3action_image_processing_reduced_2.59,0.997085,1,2000.000000,1,COMPLETED_SUCCESSFULLY,878.528558,0.000000,878.528558,877.531473,877.531473,7612276594388.428711,11,-1.000000,""
155_updated,w0,python3action_chameleon_2000_taurus,0.997085,1,2000.000000,1,COMPLETED_SUCCESSFULLY,814.328596,64.199977,878.528573,813.331511,877.531488,13.668720,13,-1.000000,""
155,w0,python3action_chameleon_2000,0.000000,1,-1.000000,1,COMPLETED_SUCCESSFULLY,878.528603,0.000010,878.528613,878.528603,878.528613,87852861.303850,13,-1.000000,""
python3action_image_processing_job36_11,w0,python3action_image_processing_reduced_2.59,0.997085,1,2000.000000,1,COMPLETED_SUCCESSFULLY,878.528633,0.000000,878.528633,877.531548,877.531548,7612277245074.119141,13,-1.000000,""
104_updated,w0,python3action_linpack_5000_nova,0.997085,1,2000.000000,1,COMPLETED_SUCCESSFULLY,847.657893,34.600010,882.257903,846.660808,881.260818,25.469959,29,-1.000000,""
104,w0,python3action_linpack_5000,0.000000,1,-1.000000,1,COMPLETED_SUCCESSFULLY,882.257918,0.000010,882.257928,882.257918,882.257928,88225792.800201,29,-1.000000,""
13_updated,w0,python3action_floatoperation_100000000_nova,0.997085,1,2000.000000,1,COMPLETED_SUCCESSFULLY,820.891276,66.200020,887.091296,819.894191,886.094211,13.385105,2,-1.000000,""
13,w0,python3action_floatoperation_100000000,0.000000,1,-1.000000,1,COMPLETED_SUCCESSFULLY,887.091311,0.000010,887.091321,887.091311,887.091321,88709132.100201,2,-1.000000,""
18_updated,w0,python3action_floatoperation_100000000_nova,0.997085,1,2000.000000,1,COMPLETED_SUCCESSFULLY,820.891366,66.200020,887.091386,819.894281,886.094301,13.385106,3,-1.000000,""
18,w0,python3action_floatoperation_100000000,0.000000,1,-1.000000,1,COMPLETED_SUCCESSFULLY,887.091401,0.000010,887.091411,887.091401,887.091411,88709141.100201,3,-1.000000,""
22_updated,w0,python3action_floatoperation_100000000_nova,0.997085,1,2000.000000,1,COMPLETED_SUCCESSFULLY,820.891441,66.200020,887.091461,819.894356,886.094376,13.385107,4,-1.000000,""
22,w0,python3action_floatoperation_100000000,0.000000,1,-1.000000,1,COMPLETED_SUCCESSFULLY,887.091476,0.000010,887.091486,887.091476,887.091486,88709148.600201,4,-1.000000,""
56_updated,w0,python3action_floatoperation_100000000_nova,0.997085,1,2000.000000,1,COMPLETED_SUCCESSFULLY,820.891501,66.200020,887.091521,819.894416,886.094436,13.385108,5,-1.000000,""
56,w0,python3action_floatoperation_100000000,0.000000,1,-1.000000,1,COMPLETED_SUCCESSFULLY,887.091536,0.000010,887.091546,887.091536,887.091546,88709154.600201,5,-1.000000,""
124_updated,w0,python3action_imageprocessing_SampleImage_40mb_taurus,0.997085,1,2000.000000,1,COMPLETED_SUCCESSFULLY,858.378799,32.600046,890.978845,857.381714,889.981760,27.300015,15,-1.000000,""
124,w0,python3action_imageprocessing_SampleImage_40mb,0.000000,1,-1.000000,1,COMPLETED_SUCCESSFULLY,890.978860,0.000010,890.978870,890.978860,890.978870,89097887.027562,15,-1.000000,""
127_updated,w0,python3action_imageprocessing_SampleImage_40mb_taurus,0.997085,1,2000.000000,1,COMPLETED_SUCCESSFULLY,858.378889,32.600046,890.978935,857.381804,889.981850,27.300018,16,-1.000000,""
127,w0,python3action_imageprocessing_SampleImage_40mb,0.000000,1,-1.000000,1,COMPLETED_SUCCESSFULLY,890.978950,0.000010,890.978960,890.978950,890.978960,89097896.027562,16,-1.000000,""
126_updated,w0,python3action_chameleon_2000_taurus,0.997085,1,2000.000000,1,COMPLETED_SUCCESSFULLY,838.328446,64.199977,902.528423,837.331361,901.531338,14.042549,10,-1.000000,""
126,w0,python3action_chameleon_2000,0.000000,1,-1.000000,1,COMPLETED_SUCCESSFULLY,902.528438,0.000010,902.528448,902.528438,902.528448,90252844.801641,10,-1.000000,""
2_updated,w0,python3action_modeltraining_reviews50mb_nova,0.997085,1,2000.000000,1,COMPLETED_SUCCESSFULLY,864.891550,42.399990,907.291540,863.894465,906.294455,21.374874,6,-1.000000,""
2,w0,python3action_modeltraining_reviews50mb,0.000000,1,-1.000000,1,COMPLETED_SUCCESSFULLY,907.291555,0.000010,907.291565,907.291555,907.291565,90729156.523505,6,-1.000000,""
67_updated,w0,python3action_modeltraining_reviews50mb_nova,0.997085,1,2000.000000,1,COMPLETED_SUCCESSFULLY,864.891640,42.399990,907.291630,863.894555,906.294545,21.374876,7,-1.000000,""
67,w0,python3action_modeltraining_reviews50mb,0.000000,1,-1.000000,1,COMPLETED_SUCCESSFULLY,907.291645,0.000010,907.291655,907.291645,907.291655,90729165.523706,7,-1.000000,""
71_updated,w0,python3action_modeltraining_reviews50mb_nova,0.997085,1,2000.000000,1,COMPLETED_SUCCESSFULLY,864.891715,42.399990,907.291705,863.894630,906.294620,21.374878,25,-1.000000,""
71,w0,python3action_modeltraining_reviews50mb,0.000000,1,-1.000000,1,COMPLETED_SUCCESSFULLY,907.291720,0.000010,907.291730,907.291720,907.291730,90729173.024710,25,-1.000000,""
85_updated,w0,python3action_modeltraining_reviews50mb_nova,0.997085,1,2000.000000,1,COMPLETED_SUCCESSFULLY,864.891775,42.399990,907.291765,863.894690,906.294680,21.374879,26,-1.000000,""
85,w0,python3action_modeltraining_reviews50mb,0.000000,1,-1.000000,1,COMPLETED_SUCCESSFULLY,907.291780,0.000010,907.291790,907.291780,907.291790,90729179.025513,26,-1.000000,""
python3action_linpack_job28_5,w0,python3action_linpack_reduced_0.85,0.997085,1,2000.000000,1,COMPLETED_SUCCESSFULLY,907.291585,0.365992,907.657577,906.294500,906.660492,2477.270001,6,-1.000000,""
python3action_linpack_job38_6,w0,python3action_linpack_reduced_0.85,0.997085,1,2000.000000,1,COMPLETED_SUCCESSFULLY,907.291675,0.365992,907.657667,906.294590,906.660582,2477.270247,7,-1.000000,""
python3action_linpack_job53_17,w0,python3action_linpack_reduced_0.85,0.997085,1,2000.000000,1,COMPLETED_SUCCESSFULLY,907.291750,0.365992,907.657742,906.294665,906.660657,2477.270452,25,-1.000000,""
python3action_linpack_job54_18,w0,python3action_linpack_reduced_0.85,0.997085,1,2000.000000,1,COMPLETED_SUCCESSFULLY,907.291810,0.365992,907.657802,906.294725,906.660717,2477.270616,26,-1.000000,""
74_updated,w0,python3action_linpack_5000_nova,0.997085,1,2000.000000,1,COMPLETED_SUCCESSFULLY,873.643524,34.600010,908.243534,872.646439,907.246449,26.220988,27,-1.000000,""
74,w0,python3action_linpack_5000,0.000000,1,-1.000000,1,COMPLETED_SUCCESSFULLY,908.243549,0.000010,908.243559,908.243549,908.243559,90824355.900201,27,-1.000000,""
87_updated,w0,python3action_linpack_5000_nova,0.997085,1,2000.000000,1,COMPLETED_SUCCESSFULLY,873.643599,34.600010,908.243609,872.646514,907.246524,26.220990,28,-1.000000,""
87,w0,python3action_linpack_5000,0.000000,1,-1.000000,1,COMPLETED_SUCCESSFULLY,908.243624,0.000010,908.243634,908.243624,908.243634,90824363.400201,28,-1.000000,""
122_updated,w0,python3action_imageprocessing_SampleImage_40mb_taurus,0.997085,1,2000.000000,1,COMPLETED_SUCCESSFULLY,878.028781,32.600046,910.628827,877.031696,909.631742,27.902775,14,-1.000000,""
122,w0,python3action_imageprocessing_SampleImage_40mb,0.000000,1,-1.000000,1,COMPLETED_SUCCESSFULLY,910.628842,0.000010,910.628852,910.628842,910.628852,91062885.227562,14,-1.000000,""
27_updated,w0,python3action_imageprocessing_SampleImage_40mb_taurus,0.997085,1,2000.000000,1,COMPLETED_SUCCESSFULLY,878.528588,32.600046,911.128634,877.531503,910.131549,27.918106,11,-1.000000,""
27,w0,python3action_imageprocessing_SampleImage_40mb,0.000000,1,-1.000000,1,COMPLETED_SUCCESSFULLY,911.128649,0.000010,911.128659,911.128649,911.128659,91112865.916928,11,-1.000000,""
36_updated,w0,python3action_imageprocessing_SampleImage_40mb_taurus,0.997085,1,2000.000000,1,COMPLETED_SUCCESSFULLY,878.528663,32.600046,911.128709,877.531578,910.131624,27.918108,13,-1.000000,""
36,w0,python3action_imageprocessing_SampleImage_40mb,0.000000,1,-1.000000,1,COMPLETED_SUCCESSFULLY,911.128724,0.000010,911.128734,911.128724,911.128734,91112873.417932,13,-1.000000,""
197_updated,w0,python3action_linpack_5000_nova,0.997085,1,2000.000000,1,COMPLETED_SUCCESSFULLY,882.257948,34.600010,916.857958,881.260863,915.860873,26.469960,29,-1.000000,""
197,w0,python3action_linpack_5000,0.000000,1,-1.000000,1,COMPLETED_SUCCESSFULLY,916.857973,0.000010,916.857983,916.857973,916.857983,91685798.300201,29,-1.000000,""
28_updated,w0,python3action_linpack_5000_nova,0.997085,1,2000.000000,1,COMPLETED_SUCCESSFULLY,907.657592,34.600010,942.257602,906.660507,941.260517,27.204053,6,-1.000000,""
28,w0,python3action_linpack_5000,0.000000,1,-1.000000,1,COMPLETED_SUCCESSFULLY,942.257617,0.000010,942.257627,942.257617,942.257627,94225762.700201,6,-1.000000,""
38_updated,w0,python3action_linpack_5000_nova,0.997085,1,2000.000000,1,COMPLETED_SUCCESSFULLY,907.657682,34.600010,942.257692,906.660597,941.260607,27.204056,7,-1.000000,""
38,w0,python3action_linpack_5000,0.000000,1,-1.000000,1,COMPLETED_SUCCESSFULLY,942.257707,0.000010,942.257717,942.257707,942.257717,94225771.700201,7,-1.000000,""
53_updated,w0,python3action_linpack_5000_nova,0.997085,1,2000.000000,1,COMPLETED_SUCCESSFULLY,907.657757,34.600010,942.257767,906.660672,941.260682,27.204058,25,-1.000000,""
53,w0,python3action_linpack_5000,0.000000,1,-1.000000,1,COMPLETED_SUCCESSFULLY,942.257782,0.000010,942.257792,942.257782,942.257792,94225779.200201,25,-1.000000,""
54_updated,w0,python3action_linpack_5000_nova,0.997085,1,2000.000000,1,COMPLETED_SUCCESSFULLY,907.657817,34.600010,942.257827,906.660732,941.260742,27.204060,26,-1.000000,""
54,w0,python3action_linpack_5000,0.000000,1,-1.000000,1,COMPLETED_SUCCESSFULLY,942.257842,0.000010,942.257852,942.257842,942.257852,94225785.200201,26,-1.000000,""
192_updated,w0,python3action_linpack_5000_nova,0.997085,1,2000.000000,1,COMPLETED_SUCCESSFULLY,908.243579,34.600010,942.843589,907.246494,941.846504,27.220990,27,-1.000000,""
192,w0,python3action_linpack_5000,0.000000,1,-1.000000,1,COMPLETED_SUCCESSFULLY,942.843604,0.000010,942.843614,942.843604,942.843614,94284361.400201,27,-1.000000,""
194_updated,w0,python3action_linpack_5000_nova,0.997085,1,2000.000000,1,COMPLETED_SUCCESSFULLY,908.243654,34.600010,942.843664,907.246569,941.846579,27.220992,28,-1.000000,""
194,w0,python3action_linpack_5000,0.000000,1,-1.000000,1,COMPLETED_SUCCESSFULLY,942.843679,0.000010,942.843689,942.843679,942.843689,94284368.900201,28,-1.000000,""
188_updated,w0,python3action_imageprocessing_SampleImage_40mb_taurus,0.997085,1,2000.000000,1,COMPLETED_SUCCESSFULLY,910.628872,32.600046,943.228918,909.631787,942.231833,28.902776,14,-1.000000,""
188,w0,python3action_imageprocessing_SampleImage_40mb,0.000000,1,-1.000000,1,COMPLETED_SUCCESSFULLY,943.228933,0.000010,943.228943,943.228933,943.228943,94322894.341242,14,-1.000000,""
100_updated,w0,python3action_imageprocessing_SampleImage_40mb_taurus,0.997085,1,2000.000000,1,COMPLETED_SUCCESSFULLY,911.128679,32.600046,943.728725,910.131594,942.731640,28.918108,11,-1.000000,""
100,w0,python3action_imageprocessing_SampleImage_40mb,0.000000,1,-1.000000,1,COMPLETED_SUCCESSFULLY,943.728740,0.000010,943.728750,943.728740,943.728750,94372875.030608,11,-1.000000,""
121_updated,w0,python3action_imageprocessing_SampleImage_40mb_taurus,0.997085,1,2000.000000,1,COMPLETED_SUCCESSFULLY,911.128754,32.600046,943.728800,910.131669,942.731715,28.918110,13,-1.000000,""
121,w0,python3action_imageprocessing_SampleImage_40mb,0.000000,1,-1.000000,1,COMPLETED_SUCCESSFULLY,943.728815,0.000010,943.728825,943.728815,943.728825,94372882.531612,13,-1.000000,""
150_updated,w0,python3action_floatoperation_100000000_nova,0.997085,1,2000.000000,1,COMPLETED_SUCCESSFULLY,887.091341,66.200020,953.291361,886.094256,952.294276,14.385106,2,-1.000000,""
150,w0,python3action_floatoperation_100000000,0.000000,1,-1.000000,1,COMPLETED_SUCCESSFULLY,953.291376,0.000010,953.291386,953.291376,953.291386,95329138.600201,2,-1.000000,""
166_updated,w0,python3action_floatoperation_100000000_nova,0.997085,1,2000.000000,1,COMPLETED_SUCCESSFULLY,887.091431,66.200020,953.291451,886.094346,952.294366,14.385107,3,-1.000000,""
166,w0,python3action_floatoperation_100000000,0.000000,1,-1.000000,1,COMPLETED_SUCCESSFULLY,953.291466,0.000010,953.291476,953.291466,953.291476,95329147.600201,3,-1.000000,""
173_updated,w0,python3action_floatoperation_100000000_nova,0.997085,1,2000.000000,1,COMPLETED_SUCCESSFULLY,887.091506,66.200020,953.291526,886.094421,952.294441,14.385108,4,-1.000000,""
173,w0,python3action_floatoperation_100000000,0.000000,1,-1.000000,1,COMPLETED_SUCCESSFULLY,953.291541,0.000010,953.291551,953.291541,953.291551,95329155.100201,4,-1.000000,""
174_updated,w0,python3action_floatoperation_100000000_nova,0.997085,1,2000.000000,1,COMPLETED_SUCCESSFULLY,887.091566,66.200020,953.291586,886.094481,952.294501,14.385109,5,-1.000000,""
174,w0,python3action_floatoperation_100000000,0.000000,1,-1.000000,1,COMPLETED_SUCCESSFULLY,953.291601,0.000010,953.291611,953.291601,953.291611,95329161.100201,5,-1.000000,""
196_updated,w0,python3action_chameleon_2000_taurus,0.997085,1,2000.000000,1,COMPLETED_SUCCESSFULLY,902.528468,64.199977,966.728445,901.531383,965.731360,15.042550,10,-1.000000,""
196,w0,python3action_chameleon_2000,0.000000,1,-1.000000,1,COMPLETED_SUCCESSFULLY,966.728460,0.000010,966.728470,966.728460,966.728470,96672847.000201,10,-1.000000,""
python3action_image_processing_job84_9,w0,python3action_image_processing_reduced_2.59,0.997085,1,2000.000000,1,COMPLETED_SUCCESSFULLY,966.728490,0.000000,966.728490,965.731405,965.731405,8377379953551.903320,10,-1.000000,""
145_updated,w0,python3action_imageprocessing_SampleImage_40mb_taurus,0.997085,1,2000.000000,1,COMPLETED_SUCCESSFULLY,943.728770,32.600046,976.328816,942.731685,975.331731,29.918109,11,-1.000000,""
145,w0,python3action_imageprocessing_SampleImage_40mb,0.000000,1,-1.000000,1,COMPLETED_SUCCESSFULLY,976.328831,0.000010,976.328841,976.328831,976.328841,97632884.144289,11,-1.000000,""
167_updated,w0,python3action_imageprocessing_SampleImage_40mb_taurus,0.997085,1,2000.000000,1,COMPLETED_SUCCESSFULLY,943.728845,32.600046,976.328891,942.731760,975.331806,29.918111,13,-1.000000,""
167,w0,python3action_imageprocessing_SampleImage_40mb,0.000000,1,-1.000000,1,COMPLETED_SUCCESSFULLY,976.328906,0.000010,976.328916,976.328906,976.328916,97632891.645293,13,-1.000000,""
170_updated,w0,python3action_linpack_5000_nova,0.997085,1,2000.000000,1,COMPLETED_SUCCESSFULLY,942.257647,34.600010,976.857657,941.260562,975.860572,28.204055,6,-1.000000,""
170,w0,python3action_linpack_5000,0.000000,1,-1.000000,1,COMPLETED_SUCCESSFULLY,976.857672,0.000010,976.857682,976.857672,976.857682,97685768.200201,6,-1.000000,""
178_updated,w0,python3action_linpack_5000_nova,0.997085,1,2000.000000,1,COMPLETED_SUCCESSFULLY,942.257737,34.600010,976.857747,941.260652,975.860662,28.204057,7,-1.000000,""
178,w0,python3action_linpack_5000,0.000000,1,-1.000000,1,COMPLETED_SUCCESSFULLY,976.857762,0.000010,976.857772,976.857762,976.857772,97685777.200201,7,-1.000000,""
179_updated,w0,python3action_linpack_5000_nova,0.997085,1,2000.000000,1,COMPLETED_SUCCESSFULLY,942.257812,34.600010,976.857822,941.260727,975.860737,28.204060,25,-1.000000,""
179,w0,python3action_linpack_5000,0.000000,1,-1.000000,1,COMPLETED_SUCCESSFULLY,976.857837,0.000010,976.857847,976.857837,976.857847,97685784.700201,25,-1.000000,""
191_updated,w0,python3action_linpack_5000_nova,0.997085,1,2000.000000,1,COMPLETED_SUCCESSFULLY,942.257872,34.600010,976.857882,941.260787,975.860797,28.204061,26,-1.000000,""
191,w0,python3action_linpack_5000,0.000000,1,-1.000000,1,COMPLETED_SUCCESSFULLY,976.857897,0.000010,976.857907,976.857897,976.857907,97685790.700201,26,-1.000000,""
146_updated,w0,python3action_modeltraining_reviews50mb_nova,0.997085,1,2000.000000,1,COMPLETED_SUCCESSFULLY,953.291406,42.399990,995.691396,952.294321,994.694311,23.459777,2,-1.000000,""
146,w0,python3action_modeltraining_reviews50mb,0.000000,1,-1.000000,1,COMPLETED_SUCCESSFULLY,995.691411,0.000010,995.691421,995.691411,995.691421,99569142.123907,2,-1.000000,""
183_updated,w0,python3action_modeltraining_reviews50mb_nova,0.997085,1,2000.000000,1,COMPLETED_SUCCESSFULLY,953.291496,42.399990,995.691486,952.294411,994.694401,23.459779,3,-1.000000,""
183,w0,python3action_modeltraining_reviews50mb,0.000000,1,-1.000000,1,COMPLETED_SUCCESSFULLY,995.691501,0.000010,995.691511,995.691501,995.691511,99569151.123907,3,-1.000000,""
187_updated,w0,python3action_modeltraining_reviews50mb_nova,0.997085,1,2000.000000,1,COMPLETED_SUCCESSFULLY,953.291571,42.399990,995.691561,952.294486,994.694476,23.459781,4,-1.000000,""
187,w0,python3action_modeltraining_reviews50mb,0.000000,1,-1.000000,1,COMPLETED_SUCCESSFULLY,995.691576,0.000010,995.691586,995.691576,995.691586,99569158.623907,4,-1.000000,""
195_updated,w0,python3action_modeltraining_reviews50mb_nova,0.997085,1,2000.000000,1,COMPLETED_SUCCESSFULLY,953.291631,42.399990,995.691621,952.294546,994.694536,23.459782,5,-1.000000,""
195,w0,python3action_modeltraining_reviews50mb,0.000000,1,-1.000000,1,COMPLETED_SUCCESSFULLY,995.691636,0.000010,995.691646,995.691636,995.691646,99569164.624108,5,-1.000000,""
python3action_linpack_job109_1,w0,python3action_linpack_reduced_0.85,0.997085,1,2000.000000,1,COMPLETED_SUCCESSFULLY,995.691441,0.365992,996.057433,994.694356,995.060348,2718.805077,2,-1.000000,""
python3action_linpack_job115_2,w0,python3action_linpack_reduced_0.85,0.997085,1,2000.000000,1,COMPLETED_SUCCESSFULLY,995.691531,0.365992,996.057523,994.694446,995.060438,2718.805323,3,-1.000000,""
python3action_linpack_job116_3,w0,python3action_linpack_reduced_0.85,0.997085,1,2000.000000,1,COMPLETED_SUCCESSFULLY,995.691606,0.365992,996.057598,994.694521,995.060513,2718.805528,4,-1.000000,""
python3action_linpack_job151_4,w0,python3action_linpack_reduced_0.85,0.997085,1,2000.000000,1,COMPLETED_SUCCESSFULLY,995.691666,0.365992,996.057658,994.694581,995.060573,2718.805692,5,-1.000000,""
84_updated,w0,python3action_imageprocessing_SampleImage_40mb_taurus,0.997085,1,2000.000000,1,COMPLETED_SUCCESSFULLY,966.728520,32.600046,999.328566,965.731435,998.331481,30.623622,10,-1.000000,""
84,w0,python3action_imageprocessing_SampleImage_40mb,0.000000,1,-1.000000,1,COMPLETED_SUCCESSFULLY,999.328581,0.000010,999.328591,999.328581,999.328591,99932859.114283,10,-1.000000,""
109_updated,w0,python3action_linpack_5000_nova,0.997085,1,2000.000000,1,COMPLETED_SUCCESSFULLY,996.057448,34.600010,1030.657458,995.060363,1029.660373,29.758962,2,-1.000000,""
109,w0,python3action_linpack_5000,0.000000,1,-1.000000,1,COMPLETED_SUCCESSFULLY,1030.657473,0.000010,1030.657483,1030.657473,1030.657483,103065748.300201,2,-1.000000,""
115_updated,w0,python3action_linpack_5000_nova,0.997085,1,2000.000000,1,COMPLETED_SUCCESSFULLY,996.057538,34.600010,1030.657548,995.060453,1029.660463,29.758965,3,-1.000000,""
115,w0,python3action_linpack_5000,0.000000,1,-1.000000,1,COMPLETED_SUCCESSFULLY,1030.657563,0.000010,1030.657573,1030.657563,1030.657573,103065757.300201,3,-1.000000,""
116_updated,w0,python3action_linpack_5000_nova,0.997085,1,2000.000000,1,COMPLETED_SUCCESSFULLY,996.057613,34.600010,1030.657623,995.060528,1029.660538,29.758967,4,-1.000000,""
116,w0,python3action_linpack_5000,0.000000,1,-1.000000,1,COMPLETED_SUCCESSFULLY,1030.657638,0.000010,1030.657648,1030.657638,1030.657648,103065764.800201,4,-1.000000,""
151_updated,w0,python3action_linpack_5000_nova,0.997085,1,2000.000000,1,COMPLETED_SUCCESSFULLY,996.057673,34.600010,1030.657683,995.060588,1029.660598,29.758968,5,-1.000000,""
151,w0,python3action_linpack_5000,0.000000,1,-1.000000,1,COMPLETED_SUCCESSFULLY,1030.657698,0.000010,1030.657708,1030.657698,1030.657708,103065770.800201,5,-1.000000,""
138_updated,w0,python3action_imageprocessing_SampleImage_40mb_taurus,0.997085,1,2000.000000,1,COMPLETED_SUCCESSFULLY,999.328611,32.600046,1031.928657,998.331526,1030.931572,31.623623,10,-1.000000,""
138,w0,python3action_imageprocessing_SampleImage_40mb,0.000000,1,-1.000000,1,COMPLETED_SUCCESSFULLY,1031.928672,0.000010,1031.928682,1031.928672,1031.928682,103192868.227963,10,-1.000000,""
