job_id,workload_name,profile,submission_time,requested_number_of_resources,requested_time,success,final_state,starting_time,execution_time,finish_time,waiting_time,turnaround_time,stretch,allocated_resources,consumed_energy,metadata
python3action_chameleon_job2_0,w0,python3action_chameleon,0.997085,1,2000.000000,1,COMPLETED_SUCCESSFULLY,1.002100,0.243006,1.245106,0.005015,0.248021,1.020637,0,-1.000000,""
python3action_chameleon_job12_1,w0,python3action_chameleon,0.997085,1,2000.000000,1,COMPLETED_SUCCESSFULLY,1.002115,0.243006,1.245121,0.005030,0.248036,1.020699,1,-1.000000,""
python3action_pyaes_job48_3,w0,python3action_pyaes,0.997085,1,2000.000000,1,COMPLETED_SUCCESSFULLY,1.002145,0.867914,1.870059,0.005060,0.872974,1.005830,4,-1.000000,""
python3action_floatoperation_job29_4,w0,python3action_floatoperation,0.997085,1,2000.000000,1,COMPLETED_SUCCESSFULLY,1.002160,1.020219,2.022379,0.005075,1.025294,1.004974,5,-1.000000,""
python3action_linpack_job26_2,w0,python3action_linpack,0.997085,1,2000.000000,1,COMPLETED_SUCCESSFULLY,1.002130,5.760927,6.763057,0.005045,5.765972,1.000876,2,-1.000000,""
python3action_linpack_job25_10,w0,python3action_linpack,0.997085,1,2000.000000,1,COMPLETED_SUCCESSFULLY,1.002250,5.760927,6.763177,0.005165,5.766092,1.000897,11,-1.000000,""
python3action_linpack_job28_11,w0,python3action_linpack,0.997085,1,2000.000000,1,COMPLETED_SUCCESSFULLY,1.002265,5.760927,6.763192,0.005180,5.766107,1.000899,12,-1.000000,""
python3action_linpack_job32_12,w0,python3action_linpack,0.997085,1,2000.000000,1,COMPLETED_SUCCESSFULLY,1.002280,5.760927,6.763207,0.005195,5.766122,1.000902,13,-1.000000,""
python3action_facedetection_job6_5,w0,python3action_facedetection,0.997085,1,2000.000000,1,COMPLETED_SUCCESSFULLY,1.002175,30.499683,31.501858,0.005090,30.504773,1.000167,6,-1.000000,""
python3action_facedetection_job78_6,w0,python3action_facedetection,0.997085,1,2000.000000,1,COMPLETED_SUCCESSFULLY,1.002190,30.499683,31.501873,0.005105,30.504788,1.000167,7,-1.000000,""
python3action_facedetection_job85_7,w0,python3action_facedetection,0.997085,1,2000.000000,1,COMPLETED_SUCCESSFULLY,1.002205,30.499683,31.501888,0.005120,30.504803,1.000168,8,-1.000000,""
python3action_facedetection_job87_8,w0,python3action_facedetection,0.997085,1,2000.000000,1,COMPLETED_SUCCESSFULLY,1.002220,30.499683,31.501903,0.005135,30.504818,1.000168,9,-1.000000,""
python3action_facedetection_job92_9,w0,python3action_facedetection,0.997085,1,2000.000000,1,COMPLETED_SUCCESSFULLY,1.002235,30.499683,31.501918,0.005150,30.504833,1.000169,10,-1.000000,""
2_updated,w0,python3action_chameleon_3000_neowise,0.997085,1,2000.000000,1,COMPLETED_SUCCESSFULLY,1.245121,55.799998,57.045119,0.248036,56.048034,1.004445,0,-1.000000,""
2,w0,python3action_chameleon_3000,0.000000,1,-1.000000,1,COMPLETED_SUCCESSFULLY,57.045134,0.000010,57.045144,57.045134,57.045144,5704514.400201,0,-1.000000,""
12_updated,w0,python3action_chameleon_3000_neowise,0.997085,1,2000.000000,1,COMPLETED_SUCCESSFULLY,1.245151,55.799998,57.045149,0.248066,56.048064,1.004446,1,-1.000000,""
12,w0,python3action_chameleon_3000,0.000000,1,-1.000000,1,COMPLETED_SUCCESSFULLY,57.045179,0.000010,57.045189,57.045179,57.045189,5704518.900402,1,-1.000000,""
48_updated,w0,python3action_pyaes_4000_troll,0.997085,1,2000.000000,1,COMPLETED_SUCCESSFULLY,1.870074,102.333333,104.203407,0.872989,103.206322,1.008531,4,-1.000000,""
48,w0,python3action_pyaes_4000,0.000000,1,-1.000000,1,COMPLETED_SUCCESSFULLY,104.203422,0.000010,104.203432,104.203422,104.203432,10420343.233735,4,-1.000000,""
29_updated,w0,python3action_floatoperation_200000000_yeti,0.997085,1,2000.000000,1,COMPLETED_SUCCESSFULLY,2.022394,106.000000,108.022394,1.025309,107.025309,1.009673,5,-1.000000,""
29,w0,python3action_floatoperation_200000000,0.000000,1,-1.000000,1,COMPLETED_SUCCESSFULLY,108.022409,0.000010,108.022419,108.022409,108.022419,10802241.936336,5,-1.000000,""
25_updated,w0,python3action_linpack_6000_orion,0.997085,1,2000.000000,1,COMPLETED_SUCCESSFULLY,6.763192,106.000000,112.763192,5.766107,111.766107,1.054397,11,-1.000000,""
25,w0,python3action_linpack_6000,0.000000,1,-1.000000,1,COMPLETED_SUCCESSFULLY,112.763207,0.000010,112.763217,112.763207,112.763217,11276321.725480,11,-1.000000,""
63_updated,w0,python3action_chameleon_3000_neowise,0.997085,1,2000.000000,1,COMPLETED_SUCCESSFULLY,57.045164,55.799998,112.845162,56.048079,111.848077,2.004446,0,-1.000000,""
63,w0,python3action_chameleon_3000,0.000000,1,-1.000000,1,COMPLETED_SUCCESSFULLY,112.845177,0.000010,112.845187,112.845177,112.845187,11284518.700201,0,-1.000000,""
104_updated,w0,python3action_chameleon_3000_neowise,0.997085,1,2000.000000,1,COMPLETED_SUCCESSFULLY,57.045209,55.799998,112.845207,56.048124,111.848122,2.004447,1,-1.000000,""
104,w0,python3action_chameleon_3000,0.000000,1,-1.000000,1,COMPLETED_SUCCESSFULLY,112.845237,0.000010,112.845247,112.845237,112.845247,11284524.700201,1,-1.000000,""
26_updated,w0,python3action_linpack_6000_taurus,0.997085,1,2000.000000,1,COMPLETED_SUCCESSFULLY,6.763072,157.600046,164.363118,5.765987,163.366033,1.036586,2,-1.000000,""
26,w0,python3action_linpack_6000,0.000000,1,-1.000000,1,COMPLETED_SUCCESSFULLY,164.363133,0.000010,164.363143,164.363133,164.363143,16436314.336951,2,-1.000000,""
28_updated,w0,python3action_linpack_6000_taurus,0.997085,1,2000.000000,1,COMPLETED_SUCCESSFULLY,6.763222,157.600046,164.363268,5.766137,163.366183,1.036587,12,-1.000000,""
28,w0,python3action_linpack_6000,0.000000,1,-1.000000,1,COMPLETED_SUCCESSFULLY,164.363283,0.000010,164.363293,164.363283,164.363293,16436329.338959,12,-1.000000,""
32_updated,w0,python3action_linpack_6000_taurus,0.997085,1,2000.000000,1,COMPLETED_SUCCESSFULLY,6.763252,157.600046,164.363298,5.766167,163.366213,1.036587,13,-1.000000,""
32,w0,python3action_linpack_6000,0.000000,1,-1.000000,1,COMPLETED_SUCCESSFULLY,164.363328,0.000010,164.363338,164.363328,164.363338,16436333.839562,13,-1.000000,""
172_updated,w0,python3action_chameleon_3000_neowise,0.997085,1,2000.000000,1,COMPLETED_SUCCESSFULLY,112.845207,55.799998,168.645205,111.848122,167.648120,3.004447,0,-1.000000,""
172,w0,python3action_chameleon_3000,0.000000,1,-1.000000,1,COMPLETED_SUCCESSFULLY,168.645220,0.000010,168.645230,168.645220,168.645230,16864523.000201,0,-1.000000,""
185_updated,w0,python3action_chameleon_3000_neowise,0.997085,1,2000.000000,1,COMPLETED_SUCCESSFULLY,112.845267,55.799998,168.645265,111.848182,167.648180,3.004448,1,-1.000000,""
185,w0,python3action_chameleon_3000,0.000000,1,-1.000000,1,COMPLETED_SUCCESSFULLY,168.645280,0.000010,168.645290,168.645280,168.645290,16864529.000201,1,-1.000000,""
python3action_modeltraining_job0_2,w0,python3action_modeltraining,0.997085,1,2000.000000,1,COMPLETED_SUCCESSFULLY,168.645310,3.471546,172.116856,167.648225,171.119771,49.292097,1,-1.000000,""
6_updated,w0,python3action_facedetection_SampleVideo_30mb_nova,0.997085,1,2000.000000,1,COMPLETED_SUCCESSFULLY,31.501873,160.399990,191.901863,30.504788,190.904778,1.190179,6,-1.000000,""
6,w0,python3action_facedetection_SampleVideo_30mb,0.000000,1,-1.000000,1,COMPLETED_SUCCESSFULLY,191.901878,0.000010,191.901888,191.901878,191.901888,19190188.800201,6,-1.000000,""
78_updated,w0,python3action_facedetection_SampleVideo_30mb_nova,0.997085,1,2000.000000,1,COMPLETED_SUCCESSFULLY,31.501903,160.399990,191.901893,30.504818,190.904808,1.190180,7,-1.000000,""
85_updated,w0,python3action_facedetection_SampleVideo_30mb_nova,0.997085,1,2000.000000,1,COMPLETED_SUCCESSFULLY,31.501918,160.399990,191.901908,30.504833,190.904823,1.190180,8,-1.000000,""
78,w0,python3action_facedetection_SampleVideo_30mb,0.000000,1,-1.000000,1,COMPLETED_SUCCESSFULLY,191.901923,0.000010,191.901933,191.901923,191.901933,19190193.276581,7,-1.000000,""
87_updated,w0,python3action_facedetection_SampleVideo_30mb_nova,0.997085,1,2000.000000,1,COMPLETED_SUCCESSFULLY,31.501948,160.399990,191.901938,30.504863,190.904853,1.190180,9,-1.000000,""
85,w0,python3action_facedetection_SampleVideo_30mb,0.000000,1,-1.000000,1,COMPLETED_SUCCESSFULLY,191.901953,0.000010,191.901963,191.901953,191.901963,19190196.300201,8,-1.000000,""
92_updated,w0,python3action_facedetection_SampleVideo_30mb_nova,0.997085,1,2000.000000,1,COMPLETED_SUCCESSFULLY,31.501963,160.399990,191.901953,30.504878,190.904868,1.190180,10,-1.000000,""
87,w0,python3action_facedetection_SampleVideo_30mb,0.000000,1,-1.000000,1,COMPLETED_SUCCESSFULLY,191.901998,0.000010,191.902008,191.901998,191.902008,19190200.800803,9,-1.000000,""
92,w0,python3action_facedetection_SampleVideo_30mb,0.000000,1,-1.000000,1,COMPLETED_SUCCESSFULLY,191.902028,0.000010,191.902038,191.902028,191.902038,19190203.801205,10,-1.000000,""
108_updated,w0,python3action_pyaes_4000_troll,0.997085,1,2000.000000,1,COMPLETED_SUCCESSFULLY,104.203452,102.333333,206.536786,103.206367,205.539701,2.008531,4,-1.000000,""
108,w0,python3action_pyaes_4000,0.000000,1,-1.000000,1,COMPLETED_SUCCESSFULLY,206.536801,0.000010,206.536811,206.536801,206.536811,20653681.100201,4,-1.000000,""
59_updated,w0,python3action_floatoperation_200000000_yeti,0.997085,1,2000.000000,1,COMPLETED_SUCCESSFULLY,108.022439,106.000000,214.022439,107.025354,213.025354,2.009673,5,-1.000000,""
59,w0,python3action_floatoperation_200000000,0.000000,1,-1.000000,1,COMPLETED_SUCCESSFULLY,214.022454,0.000010,214.022464,214.022454,214.022464,21402246.436938,5,-1.000000,""
0_updated,w0,python3action_modeltraining_reviews100mb_neowise,0.997085,1,2000.000000,1,COMPLETED_SUCCESSFULLY,172.116871,43.399999,215.516870,171.119786,214.519785,4.942852,1,-1.000000,""
0,w0,python3action_modeltraining_reviews100mb,0.000000,1,-1.000000,1,COMPLETED_SUCCESSFULLY,215.516885,0.000010,215.516895,215.516885,215.516895,21551689.500201,1,-1.000000,""
53_updated,w0,python3action_linpack_6000_orion,0.997085,1,2000.000000,1,COMPLETED_SUCCESSFULLY,112.763237,106.000000,218.763237,111.766152,217.766152,2.054398,11,-1.000000,""
53,w0,python3action_linpack_6000,0.000000,1,-1.000000,1,COMPLETED_SUCCESSFULLY,218.763252,0.000010,218.763262,218.763252,218.763262,21876326.226082,11,-1.000000,""
196_updated,w0,python3action_chameleon_3000_neowise,0.997085,1,2000.000000,1,COMPLETED_SUCCESSFULLY,168.645250,55.799998,224.445248,167.648165,223.448163,4.004448,0,-1.000000,""
196,w0,python3action_chameleon_3000,0.000000,1,-1.000000,1,COMPLETED_SUCCESSFULLY,224.445263,0.000010,224.445273,224.445263,224.445273,22444527.300201,0,-1.000000,""
python3action_modeltraining_job27_1,w0,python3action_modeltraining,0.997085,1,2000.000000,1,COMPLETED_SUCCESSFULLY,224.445293,3.471546,227.916839,223.448208,226.919754,65.365623,0,-1.000000,""
46_updated,w0,python3action_modeltraining_reviews100mb_neowise,0.997085,1,2000.000000,1,COMPLETED_SUCCESSFULLY,215.516915,43.399999,258.916914,214.519830,257.919829,5.942853,1,-1.000000,""
46,w0,python3action_modeltraining_reviews100mb,0.000000,1,-1.000000,1,COMPLETED_SUCCESSFULLY,258.916929,0.000010,258.916939,258.916929,258.916939,25891693.900201,1,-1.000000,""
27_updated,w0,python3action_modeltraining_reviews100mb_neowise,0.997085,1,2000.000000,1,COMPLETED_SUCCESSFULLY,227.916854,43.399999,271.316853,226.919769,270.319768,6.228566,0,-1.000000,""
27,w0,python3action_modeltraining_reviews100mb,0.000000,1,-1.000000,1,COMPLETED_SUCCESSFULLY,271.316868,0.000010,271.316878,271.316868,271.316878,27131687.800201,0,-1.000000,""
154_updated,w0,python3action_modeltraining_reviews100mb_neowise,0.997085,1,2000.000000,1,COMPLETED_SUCCESSFULLY,258.916959,43.399999,302.316958,257.919874,301.319873,6.942854,1,-1.000000,""
154,w0,python3action_modeltraining_reviews100mb,0.000000,1,-1.000000,1,COMPLETED_SUCCESSFULLY,302.316973,0.000010,302.316983,302.316973,302.316983,30231698.300201,1,-1.000000,""
130_updated,w0,python3action_pyaes_4000_troll,0.997085,1,2000.000000,1,COMPLETED_SUCCESSFULLY,206.536831,102.333333,308.870164,205.539746,307.873079,3.008532,4,-1.000000,""
130,w0,python3action_pyaes_4000,0.000000,1,-1.000000,1,COMPLETED_SUCCESSFULLY,308.870179,0.000010,308.870189,308.870179,308.870189,30887018.934137,4,-1.000000,""
75_updated,w0,python3action_modeltraining_reviews100mb_neowise,0.997085,1,2000.000000,1,COMPLETED_SUCCESSFULLY,271.316898,43.399999,314.716897,270.319813,313.719812,7.228567,0,-1.000000,""
75,w0,python3action_modeltraining_reviews100mb,0.000000,1,-1.000000,1,COMPLETED_SUCCESSFULLY,314.716912,0.000010,314.716922,314.716912,314.716922,31471692.200201,0,-1.000000,""
61_updated,w0,python3action_floatoperation_200000000_yeti,0.997085,1,2000.000000,1,COMPLETED_SUCCESSFULLY,214.022484,106.000000,320.022484,213.025399,319.025399,3.009674,5,-1.000000,""
61,w0,python3action_floatoperation_200000000,0.000000,1,-1.000000,1,COMPLETED_SUCCESSFULLY,320.022499,0.000010,320.022509,320.022499,320.022509,32002250.937541,5,-1.000000,""
56_updated,w0,python3action_linpack_6000_taurus,0.997085,1,2000.000000,1,COMPLETED_SUCCESSFULLY,164.363163,157.600046,321.963210,163.366078,320.966125,2.036586,2,-1.000000,""
56,w0,python3action_linpack_6000,0.000000,1,-1.000000,1,COMPLETED_SUCCESSFULLY,321.963225,0.000010,321.963235,321.963225,321.963235,32196323.500201,2,-1.000000,""
102_updated,w0,python3action_linpack_6000_taurus,0.997085,1,2000.000000,1,COMPLETED_SUCCESSFULLY,164.363313,157.600046,321.963360,163.366228,320.966275,2.036587,12,-1.000000,""
102,w0,python3action_linpack_6000,0.000000,1,-1.000000,1,COMPLETED_SUCCESSFULLY,321.963375,0.000010,321.963385,321.963375,321.963385,32196338.500201,12,-1.000000,""
107_updated,w0,python3action_linpack_6000_taurus,0.997085,1,2000.000000,1,COMPLETED_SUCCESSFULLY,164.363358,157.600046,321.963405,163.366273,320.966320,2.036588,13,-1.000000,""
107,w0,python3action_linpack_6000,0.000000,1,-1.000000,1,COMPLETED_SUCCESSFULLY,321.963435,0.000010,321.963445,321.963435,321.963445,32196344.500201,13,-1.000000,""
95_updated,w0,python3action_linpack_6000_orion,0.997085,1,2000.000000,1,COMPLETED_SUCCESSFULLY,218.763282,106.000000,324.763282,217.766197,323.766197,3.054398,11,-1.000000,""
95,w0,python3action_linpack_6000,0.000000,1,-1.000000,1,COMPLETED_SUCCESSFULLY,324.763297,0.000010,324.763307,324.763297,324.763307,32476330.726685,11,-1.000000,""
179_updated,w0,python3action_modeltraining_reviews100mb_neowise,0.997085,1,2000.000000,1,COMPLETED_SUCCESSFULLY,302.317003,43.399999,345.717002,301.319918,344.719917,7.942855,1,-1.000000,""
179,w0,python3action_modeltraining_reviews100mb,0.000000,1,-1.000000,1,COMPLETED_SUCCESSFULLY,345.717017,0.000010,345.717027,345.717017,345.717027,34571702.700201,1,-1.000000,""
101_updated,w0,python3action_facedetection_SampleVideo_30mb_nova,0.997085,1,2000.000000,1,COMPLETED_SUCCESSFULLY,191.901908,160.399990,352.301898,190.904823,351.304813,2.190180,6,-1.000000,""
101,w0,python3action_facedetection_SampleVideo_30mb,0.000000,1,-1.000000,1,COMPLETED_SUCCESSFULLY,352.301913,0.000010,352.301923,352.301913,352.301923,35230192.300201,6,-1.000000,""
112_updated,w0,python3action_facedetection_SampleVideo_30mb_nova,0.997085,1,2000.000000,1,COMPLETED_SUCCESSFULLY,191.901968,160.399990,352.301958,190.904883,351.304873,2.190180,7,-1.000000,""
112,w0,python3action_facedetection_SampleVideo_30mb,0.000000,1,-1.000000,1,COMPLETED_SUCCESSFULLY,352.301973,0.000010,352.301983,352.301973,352.301983,35230198.323706,7,-1.000000,""
122_updated,w0,python3action_facedetection_SampleVideo_30mb_nova,0.997085,1,2000.000000,1,COMPLETED_SUCCESSFULLY,191.902013,160.399990,352.302003,190.904928,351.304918,2.190180,8,-1.000000,""
122,w0,python3action_facedetection_SampleVideo_30mb,0.000000,1,-1.000000,1,COMPLETED_SUCCESSFULLY,352.302033,0.000010,352.302043,352.302033,352.302043,35230204.324509,8,-1.000000,""
123_updated,w0,python3action_facedetection_SampleVideo_30mb_nova,0.997085,1,2000.000000,1,COMPLETED_SUCCESSFULLY,191.902058,160.399990,352.302048,190.904973,351.304963,2.190181,9,-1.000000,""
126_updated,w0,python3action_facedetection_SampleVideo_30mb_nova,0.997085,1,2000.000000,1,COMPLETED_SUCCESSFULLY,191.902073,160.399990,352.302063,190.904988,351.304978,2.190181,10,-1.000000,""
123,w0,python3action_facedetection_SampleVideo_30mb,0.000000,1,-1.000000,1,COMPLETED_SUCCESSFULLY,352.302078,0.000010,352.302088,352.302078,352.302088,35230208.825112,9,-1.000000,""
126,w0,python3action_facedetection_SampleVideo_30mb,0.000000,1,-1.000000,1,COMPLETED_SUCCESSFULLY,352.302108,0.000010,352.302118,352.302108,352.302118,35230211.825513,10,-1.000000,""
python3action_video_processing_job4_7,w0,python3action_video_processing_reduced_0.91,0.997085,1,2000.000000,1,COMPLETED_SUCCESSFULLY,352.302003,2.614259,354.916262,351.304918,353.919177,135.380329,7,-1.000000,""
python3action_video_processing_job16_8,w0,python3action_video_processing_reduced_0.91,0.997085,1,2000.000000,1,COMPLETED_SUCCESSFULLY,352.302063,2.614259,354.916322,351.304978,353.919237,135.380352,8,-1.000000,""
python3action_video_processing_job37_9,w0,python3action_video_processing_reduced_0.91,0.997085,1,2000.000000,1,COMPLETED_SUCCESSFULLY,352.302123,2.614259,354.916382,351.305038,353.919297,135.380375,9,-1.000000,""
python3action_video_processing_job38_10,w0,python3action_video_processing_reduced_0.91,0.997085,1,2000.000000,1,COMPLETED_SUCCESSFULLY,352.302153,2.614259,354.916412,351.305068,353.919327,135.380387,10,-1.000000,""
176_updated,w0,python3action_modeltraining_reviews100mb_neowise,0.997085,1,2000.000000,1,COMPLETED_SUCCESSFULLY,314.716942,43.399999,358.116941,313.719857,357.119856,8.228568,0,-1.000000,""
176,w0,python3action_modeltraining_reviews100mb,0.000000,1,-1.000000,1,COMPLETED_SUCCESSFULLY,358.116956,0.000010,358.116966,358.116956,358.116966,35811696.600201,0,-1.000000,""
193_updated,w0,python3action_modeltraining_reviews100mb_neowise,0.997085,1,2000.000000,1,COMPLETED_SUCCESSFULLY,345.717047,43.399999,389.117046,344.719962,388.119961,8.942856,1,-1.000000,""
193,w0,python3action_modeltraining_reviews100mb,0.000000,1,-1.000000,1,COMPLETED_SUCCESSFULLY,389.117061,0.000010,389.117071,389.117061,389.117071,38911707.100201,1,-1.000000,""
python3action_image_processing_job19_2,w0,python3action_image_processing_reduced_0.86,0.997085,1,2000.000000,1,COMPLETED_SUCCESSFULLY,389.117091,0.000000,389.117091,388.120006,388.120006,69672238298142.156250,1,-1.000000,""
188_updated,w0,python3action_modeltraining_reviews100mb_neowise,0.997085,1,2000.000000,1,COMPLETED_SUCCESSFULLY,358.116986,43.399999,401.516985,357.119901,400.519900,9.228569,0,-1.000000,""
188,w0,python3action_modeltraining_reviews100mb,0.000000,1,-1.000000,1,COMPLETED_SUCCESSFULLY,401.517000,0.000010,401.517010,401.517000,401.517010,40151701.000201,0,-1.000000,""
python3action_image_processing_job15_1,w0,python3action_image_processing_reduced_0.86,0.997085,1,2000.000000,1,COMPLETED_SUCCESSFULLY,401.517030,0.000000,401.517030,400.519945,400.519945,71898177418830.000000,0,-1.000000,""
155_updated,w0,python3action_pyaes_4000_troll,0.997085,1,2000.000000,1,COMPLETED_SUCCESSFULLY,308.870209,102.333333,411.203543,307.873124,410.206458,4.008532,4,-1.000000,""
155,w0,python3action_pyaes_4000,0.000000,1,-1.000000,1,COMPLETED_SUCCESSFULLY,411.203558,0.000010,411.203568,411.203558,411.203568,41120356.800201,4,-1.000000,""
98_updated,w0,python3action_floatoperation_200000000_yeti,0.997085,1,2000.000000,1,COMPLETED_SUCCESSFULLY,320.022529,106.000000,426.022529,319.025444,425.025444,4.009674,5,-1.000000,""
98,w0,python3action_floatoperation_200000000,0.000000,1,-1.000000,1,COMPLETED_SUCCESSFULLY,426.022544,0.000010,426.022554,426.022544,426.022554,42602255.438144,5,-1.000000,""
19_updated,w0,python3action_imageprocessing_SampleImage_60mb_neowise,0.997085,1,2000.000000,1,COMPLETED_SUCCESSFULLY,389.117121,37.500000,426.617121,388.120036,425.620036,11.349868,1,-1.000000,""
19,w0,python3action_imageprocessing_SampleImage_60mb,0.000000,1,-1.000000,1,COMPLETED_SUCCESSFULLY,426.617136,0.000010,426.617146,426.617136,426.617146,42661714.601205,1,-1.000000,""
103_updated,w0,python3action_linpack_6000_orion,0.997085,1,2000.000000,1,COMPLETED_SUCCESSFULLY,324.763327,106.000000,430.763327,323.766242,429.766242,4.054399,11,-1.000000,""
103,w0,python3action_linpack_6000,0.000000,1,-1.000000,1,COMPLETED_SUCCESSFULLY,430.763342,0.000010,430.763352,430.763342,430.763352,43076335.227287,11,-1.000000,""
15_updated,w0,python3action_imageprocessing_SampleImage_60mb_neowise,0.997085,1,2000.000000,1,COMPLETED_SUCCESSFULLY,401.517060,37.500000,439.017060,400.519975,438.019975,11.680533,0,-1.000000,""
15,w0,python3action_imageprocessing_SampleImage_60mb,0.000000,1,-1.000000,1,COMPLETED_SUCCESSFULLY,439.017075,0.000010,439.017085,439.017075,439.017085,43901708.501205,0,-1.000000,""
52_updated,w0,python3action_imageprocessing_SampleImage_60mb_neowise,0.997085,1,2000.000000,1,COMPLETED_SUCCESSFULLY,426.617166,37.500000,464.117166,425.620081,463.120081,12.349869,1,-1.000000,""
52,w0,python3action_imageprocessing_SampleImage_60mb,0.000000,1,-1.000000,1,COMPLETED_SUCCESSFULLY,464.117181,0.000010,464.117191,464.117181,464.117191,46411719.101807,1,-1.000000,""
5_updated,w0,python3action_pyaes_3000_troll,0.997085,1,2000.000000,1,COMPLETED_SUCCESSFULLY,411.203588,57.166677,468.370265,410.206503,467.373180,8.175623,4,-1.000000,""
5,w0,python3action_pyaes_3000,0.000000,1,-1.000000,1,COMPLETED_SUCCESSFULLY,468.370280,0.000010,468.370290,468.370280,468.370290,46837029.000201,4,-1.000000,""
21_updated,w0,python3action_imageprocessing_SampleImage_60mb_neowise,0.997085,1,2000.000000,1,COMPLETED_SUCCESSFULLY,439.017105,37.500000,476.517105,438.020020,475.520020,12.680534,0,-1.000000,""
21,w0,python3action_imageprocessing_SampleImage_60mb,0.000000,1,-1.000000,1,COMPLETED_SUCCESSFULLY,476.517120,0.000010,476.517130,476.517120,476.517130,47651713.001807,0,-1.000000,""
114_updated,w0,python3action_linpack_6000_taurus,0.997085,1,2000.000000,1,COMPLETED_SUCCESSFULLY,321.963255,157.600046,479.563301,320.966170,478.566216,3.036587,2,-1.000000,""
114,w0,python3action_linpack_6000,0.000000,1,-1.000000,1,COMPLETED_SUCCESSFULLY,479.563316,0.000010,479.563326,479.563316,479.563326,47956332.613882,2,-1.000000,""
170_updated,w0,python3action_linpack_6000_taurus,0.997085,1,2000.000000,1,COMPLETED_SUCCESSFULLY,321.963405,157.600046,479.563451,320.966320,478.566366,3.036588,12,-1.000000,""
170,w0,python3action_linpack_6000,0.000000,1,-1.000000,1,COMPLETED_SUCCESSFULLY,479.563466,0.000010,479.563476,479.563466,479.563476,47956347.600201,12,-1.000000,""
171_updated,w0,python3action_linpack_6000_taurus,0.997085,1,2000.000000,1,COMPLETED_SUCCESSFULLY,321.963465,157.600046,479.563511,320.966380,478.566426,3.036588,13,-1.000000,""
171,w0,python3action_linpack_6000,0.000000,1,-1.000000,1,COMPLETED_SUCCESSFULLY,479.563526,0.000010,479.563536,479.563526,479.563536,47956353.613882,13,-1.000000,""
4_updated,w0,python3action_videoprocessing_SampleVideo_50mb_nova,0.997085,1,2000.000000,1,COMPLETED_SUCCESSFULLY,354.916277,139.600010,494.516287,353.919192,493.519202,3.535238,7,-1.000000,""
4,w0,python3action_videoprocessing_SampleVideo_50mb,0.000000,1,-1.000000,1,COMPLETED_SUCCESSFULLY,494.516302,0.000010,494.516312,494.516302,494.516312,49451631.200201,7,-1.000000,""
16_updated,w0,python3action_videoprocessing_SampleVideo_50mb_nova,0.997085,1,2000.000000,1,COMPLETED_SUCCESSFULLY,354.916337,139.600010,494.516347,353.919252,493.519262,3.535238,8,-1.000000,""
16,w0,python3action_videoprocessing_SampleVideo_50mb,0.000000,1,-1.000000,1,COMPLETED_SUCCESSFULLY,494.516362,0.000010,494.516372,494.516362,494.516372,49451637.200201,8,-1.000000,""
37_updated,w0,python3action_videoprocessing_SampleVideo_50mb_nova,0.997085,1,2000.000000,1,COMPLETED_SUCCESSFULLY,354.916397,139.600010,494.516407,353.919312,493.519322,3.535238,9,-1.000000,""
37,w0,python3action_videoprocessing_SampleVideo_50mb,0.000000,1,-1.000000,1,COMPLETED_SUCCESSFULLY,494.516422,0.000010,494.516432,494.516422,494.516432,49451643.200201,9,-1.000000,""
38_updated,w0,python3action_videoprocessing_SampleVideo_50mb_nova,0.997085,1,2000.000000,1,COMPLETED_SUCCESSFULLY,354.916427,139.600010,494.516437,353.919342,493.519352,3.535239,10,-1.000000,""
38,w0,python3action_videoprocessing_SampleVideo_50mb,0.000000,1,-1.000000,1,COMPLETED_SUCCESSFULLY,494.516467,0.000010,494.516477,494.516467,494.516477,49451647.700402,10,-1.000000,""
66_updated,w0,python3action_imageprocessing_SampleImage_60mb_neowise,0.997085,1,2000.000000,1,COMPLETED_SUCCESSFULLY,464.117211,37.500000,501.617211,463.120126,500.620126,13.349870,1,-1.000000,""
66,w0,python3action_imageprocessing_SampleImage_60mb,0.000000,1,-1.000000,1,COMPLETED_SUCCESSFULLY,501.617226,0.000010,501.617236,501.617226,501.617236,50161723.602410,1,-1.000000,""
177_updated,w0,python3action_facedetection_SampleVideo_30mb_nova,0.997085,1,2000.000000,1,COMPLETED_SUCCESSFULLY,352.301943,160.399990,512.701933,351.304858,511.704848,3.190180,6,-1.000000,""
177,w0,python3action_facedetection_SampleVideo_30mb,0.000000,1,-1.000000,1,COMPLETED_SUCCESSFULLY,512.701948,0.000010,512.701958,512.701948,512.701958,51270195.823907,6,-1.000000,""
62_updated,w0,python3action_imageprocessing_SampleImage_60mb_neowise,0.997085,1,2000.000000,1,COMPLETED_SUCCESSFULLY,476.517150,37.500000,514.017150,475.520065,513.020065,13.680535,0,-1.000000,""
62,w0,python3action_imageprocessing_SampleImage_60mb,0.000000,1,-1.000000,1,COMPLETED_SUCCESSFULLY,514.017165,0.000010,514.017175,514.017165,514.017175,51401717.502410,0,-1.000000,""
python3action_video_processing_job41_6,w0,python3action_video_processing_reduced_0.91,0.997085,1,2000.000000,1,COMPLETED_SUCCESSFULLY,512.701978,2.614259,515.316237,511.704893,514.319152,196.736150,6,-1.000000,""
7_updated,w0,python3action_pyaes_3000_troll,0.997085,1,2000.000000,1,COMPLETED_SUCCESSFULLY,468.370310,57.166677,525.536987,467.373225,524.539902,9.175624,4,-1.000000,""
7,w0,python3action_pyaes_3000,0.000000,1,-1.000000,1,COMPLETED_SUCCESSFULLY,525.537002,0.000010,525.537012,525.537002,525.537012,52553701.200201,4,-1.000000,""
100_updated,w0,python3action_floatoperation_200000000_yeti,0.997085,1,2000.000000,1,COMPLETED_SUCCESSFULLY,426.022574,106.000000,532.022574,425.025489,531.025489,5.009674,5,-1.000000,""
100,w0,python3action_floatoperation_200000000,0.000000,1,-1.000000,1,COMPLETED_SUCCESSFULLY,532.022589,0.000010,532.022599,532.022589,532.022599,53202259.938746,5,-1.000000,""
106_updated,w0,python3action_linpack_6000_orion,0.997085,1,2000.000000,1,COMPLETED_SUCCESSFULLY,430.763372,106.000000,536.763372,429.766287,535.766287,5.054399,11,-1.000000,""
106,w0,python3action_linpack_6000,0.000000,1,-1.000000,1,COMPLETED_SUCCESSFULLY,536.763387,0.000010,536.763397,536.763387,536.763397,53676339.727890,11,-1.000000,""
76_updated,w0,python3action_imageprocessing_SampleImage_60mb_neowise,0.997085,1,2000.000000,1,COMPLETED_SUCCESSFULLY,501.617256,37.500000,539.117256,500.620171,538.120171,14.349871,1,-1.000000,""
76,w0,python3action_imageprocessing_SampleImage_60mb,0.000000,1,-1.000000,1,COMPLETED_SUCCESSFULLY,539.117271,0.000010,539.117281,539.117271,539.117281,53911728.103012,1,-1.000000,""
68_updated,w0,python3action_imageprocessing_SampleImage_60mb_neowise,0.997085,1,2000.000000,1,COMPLETED_SUCCESSFULLY,514.017195,37.500000,551.517195,513.020110,550.520110,14.680536,0,-1.000000,""
68,w0,python3action_imageprocessing_SampleImage_60mb,0.000000,1,-1.000000,1,COMPLETED_SUCCESSFULLY,551.517210,0.000010,551.517220,551.517210,551.517220,55151722.003012,0,-1.000000,""
python3action_video_processing_job168_12,w0,python3action_video_processing,0.997085,1,2000.000000,1,COMPLETED_SUCCESSFULLY,479.563496,72.012455,551.575951,478.566411,550.578866,7.645606,12,-1.000000,""
python3action_facedetection_job3_13,w0,python3action_facedetection,0.997085,1,2000.000000,1,COMPLETED_SUCCESSFULLY,479.563556,72.012455,551.576011,478.566471,550.578926,7.645607,13,-1.000000,""
120_updated,w0,python3action_imageprocessing_SampleImage_60mb_neowise,0.997085,1,2000.000000,1,COMPLETED_SUCCESSFULLY,539.117301,37.500000,576.617301,538.120216,575.620216,15.349872,1,-1.000000,""
120,w0,python3action_imageprocessing_SampleImage_60mb,0.000000,1,-1.000000,1,COMPLETED_SUCCESSFULLY,576.617316,0.000010,576.617326,576.617316,576.617326,57661732.603615,1,-1.000000,""
30_updated,w0,python3action_pyaes_3000_troll,0.997085,1,2000.000000,1,COMPLETED_SUCCESSFULLY,525.537032,57.166677,582.703709,524.539947,581.706624,10.175624,4,-1.000000,""
30,w0,python3action_pyaes_3000,0.000000,1,-1.000000,1,COMPLETED_SUCCESSFULLY,582.703724,0.000010,582.703734,582.703724,582.703734,58270373.400201,4,-1.000000,""
99_updated,w0,python3action_imageprocessing_SampleImage_60mb_neowise,0.997085,1,2000.000000,1,COMPLETED_SUCCESSFULLY,551.517240,37.500000,589.017240,550.520155,588.020155,15.680537,0,-1.000000,""
99,w0,python3action_imageprocessing_SampleImage_60mb,0.000000,1,-1.000000,1,COMPLETED_SUCCESSFULLY,589.017255,0.000010,589.017265,589.017255,589.017265,58901726.503615,0,-1.000000,""
147_updated,w0,python3action_imageprocessing_SampleImage_60mb_neowise,0.997085,1,2000.000000,1,COMPLETED_SUCCESSFULLY,576.617346,37.500000,614.117346,575.620261,613.120261,16.349874,1,-1.000000,""
147,w0,python3action_imageprocessing_SampleImage_60mb,0.000000,1,-1.000000,1,COMPLETED_SUCCESSFULLY,614.117361,0.000010,614.117371,614.117361,614.117371,61411737.104217,1,-1.000000,""
140_updated,w0,python3action_imageprocessing_SampleImage_60mb_neowise,0.997085,1,2000.000000,1,COMPLETED_SUCCESSFULLY,589.017285,37.500000,626.517285,588.020200,625.520200,16.680539,0,-1.000000,""
140,w0,python3action_imageprocessing_SampleImage_60mb,0.000000,1,-1.000000,1,COMPLETED_SUCCESSFULLY,626.517300,0.000010,626.517310,626.517300,626.517310,62651731.004217,0,-1.000000,""
49_updated,w0,python3action_videoprocessing_SampleVideo_50mb_nova,0.997085,1,2000.000000,1,COMPLETED_SUCCESSFULLY,494.516332,139.600010,634.116342,493.519247,633.119257,4.535238,7,-1.000000,""
49,w0,python3action_videoprocessing_SampleVideo_50mb,0.000000,1,-1.000000,1,COMPLETED_SUCCESSFULLY,634.116357,0.000010,634.116367,634.116357,634.116367,63411636.700201,7,-1.000000,""
69_updated,w0,python3action_videoprocessing_SampleVideo_50mb_nova,0.997085,1,2000.000000,1,COMPLETED_SUCCESSFULLY,494.516392,139.600010,634.116402,493.519307,633.119317,4.535238,8,-1.000000,""
69,w0,python3action_videoprocessing_SampleVideo_50mb,0.000000,1,-1.000000,1,COMPLETED_SUCCESSFULLY,634.116417,0.000010,634.116427,634.116417,634.116427,63411642.700201,8,-1.000000,""
70_updated,w0,python3action_videoprocessing_SampleVideo_50mb_nova,0.997085,1,2000.000000,1,COMPLETED_SUCCESSFULLY,494.516452,139.600010,634.116462,493.519367,633.119377,4.535239,9,-1.000000,""
70,w0,python3action_videoprocessing_SampleVideo_50mb,0.000000,1,-1.000000,1,COMPLETED_SUCCESSFULLY,634.116477,0.000010,634.116487,634.116477,634.116487,63411648.700201,9,-1.000000,""
135_updated,w0,python3action_videoprocessing_SampleVideo_50mb_nova,0.997085,1,2000.000000,1,COMPLETED_SUCCESSFULLY,494.516497,139.600010,634.116507,493.519412,633.119422,4.535239,10,-1.000000,""
135,w0,python3action_videoprocessing_SampleVideo_50mb,0.000000,1,-1.000000,1,COMPLETED_SUCCESSFULLY,634.116537,0.000010,634.116547,634.116537,634.116547,63411654.700201,10,-1.000000,""
python3action_floatoperation_job54_9,w0,python3action_floatoperation,0.997085,1,2000.000000,1,COMPLETED_SUCCESSFULLY,634.116507,2.439945,636.556452,633.119422,635.559367,260.480991,9,-1.000000,""
python3action_floatoperation_job133_10,w0,python3action_floatoperation,0.997085,1,2000.000000,1,COMPLETED_SUCCESSFULLY,634.116567,2.439945,636.556512,633.119482,635.559427,260.481015,10,-1.000000,""
173_updated,w0,python3action_linpack_6000_taurus,0.997085,1,2000.000000,1,COMPLETED_SUCCESSFULLY,479.563346,157.600046,637.163392,478.566261,636.166307,4.036587,2,-1.000000,""
173,w0,python3action_linpack_6000,0.000000,1,-1.000000,1,COMPLETED_SUCCESSFULLY,637.163407,0.000010,637.163417,637.163407,637.163417,63716341.727562,2,-1.000000,""
157_updated,w0,python3action_floatoperation_200000000_yeti,0.997085,1,2000.000000,1,COMPLETED_SUCCESSFULLY,532.022619,106.000000,638.022619,531.025534,637.025534,6.009675,5,-1.000000,""
157,w0,python3action_floatoperation_200000000,0.000000,1,-1.000000,1,COMPLETED_SUCCESSFULLY,638.022634,0.000010,638.022644,638.022634,638.022644,63802264.439348,5,-1.000000,""
40_updated,w0,python3action_pyaes_3000_troll,0.997085,1,2000.000000,1,COMPLETED_SUCCESSFULLY,582.703754,57.166677,639.870431,581.706669,638.873346,11.175625,4,-1.000000,""
40,w0,python3action_pyaes_3000,0.000000,1,-1.000000,1,COMPLETED_SUCCESSFULLY,639.870446,0.000010,639.870456,639.870446,639.870456,63987045.600201,4,-1.000000,""
113_updated,w0,python3action_linpack_6000_orion,0.997085,1,2000.000000,1,COMPLETED_SUCCESSFULLY,536.763417,106.000000,642.763417,535.766332,641.766332,6.054399,11,-1.000000,""
113,w0,python3action_linpack_6000,0.000000,1,-1.000000,1,COMPLETED_SUCCESSFULLY,642.763432,0.000010,642.763442,642.763432,642.763442,64276344.228492,11,-1.000000,""
180_updated,w0,python3action_imageprocessing_SampleImage_60mb_neowise,0.997085,1,2000.000000,1,COMPLETED_SUCCESSFULLY,614.117391,37.500000,651.617391,613.120306,650.620306,17.349875,1,-1.000000,""
180,w0,python3action_imageprocessing_SampleImage_60mb,0.000000,1,-1.000000,1,COMPLETED_SUCCESSFULLY,651.617406,0.000010,651.617416,651.617406,651.617416,65161741.604819,1,-1.000000,""
41_updated,w0,python3action_videoprocessing_SampleVideo_50mb_nova,0.997085,1,2000.000000,1,COMPLETED_SUCCESSFULLY,515.316252,139.600010,654.916262,514.319167,653.919177,4.684234,6,-1.000000,""
41,w0,python3action_videoprocessing_SampleVideo_50mb,0.000000,1,-1.000000,1,COMPLETED_SUCCESSFULLY,654.916277,0.000010,654.916287,654.916277,654.916287,65491628.700201,6,-1.000000,""
163_updated,w0,python3action_imageprocessing_SampleImage_60mb_neowise,0.997085,1,2000.000000,1,COMPLETED_SUCCESSFULLY,626.517330,37.500000,664.017330,625.520245,663.020245,17.680540,0,-1.000000,""
163,w0,python3action_imageprocessing_SampleImage_60mb,0.000000,1,-1.000000,1,COMPLETED_SUCCESSFULLY,664.017345,0.000010,664.017355,664.017345,664.017355,66401735.504819,0,-1.000000,""
50_updated,w0,python3action_chameleon_2000_neowise,0.997085,1,2000.000000,1,COMPLETED_SUCCESSFULLY,651.617436,24.200002,675.817438,650.620351,674.820353,27.885136,1,-1.000000,""
50,w0,python3action_chameleon_2000,0.000000,1,-1.000000,1,COMPLETED_SUCCESSFULLY,675.817453,0.000010,675.817463,675.817453,675.817463,67581746.327807,1,-1.000000,""
3_updated,w0,python3action_facedetection_SampleVideo_50mb_taurus,0.997085,1,2000.000000,1,COMPLETED_SUCCESSFULLY,551.576026,134.600046,686.176073,550.578941,685.178988,5.090481,13,-1.000000,""
3,w0,python3action_facedetection_SampleVideo_50mb,0.000000,1,-1.000000,1,COMPLETED_SUCCESSFULLY,686.176088,0.000010,686.176098,686.176088,686.176098,68617609.800201,13,-1.000000,""
33_updated,w0,python3action_chameleon_2000_neowise,0.997085,1,2000.000000,1,COMPLETED_SUCCESSFULLY,664.017375,24.200002,688.217377,663.020290,687.220292,28.397530,0,-1.000000,""
33,w0,python3action_chameleon_2000,0.000000,1,-1.000000,1,COMPLETED_SUCCESSFULLY,688.217392,0.000010,688.217402,688.217392,688.217402,68821740.227807,0,-1.000000,""
44_updated,w0,python3action_pyaes_3000_troll,0.997085,1,2000.000000,1,COMPLETED_SUCCESSFULLY,639.870476,57.166677,697.037153,638.873391,696.040068,12.175626,4,-1.000000,""
44,w0,python3action_pyaes_3000,0.000000,1,-1.000000,1,COMPLETED_SUCCESSFULLY,697.037168,0.000010,697.037178,697.037168,697.037178,69703717.800201,4,-1.000000,""
60_updated,w0,python3action_chameleon_2000_neowise,0.997085,1,2000.000000,1,COMPLETED_SUCCESSFULLY,675.817483,24.200002,700.017486,674.820398,699.020401,28.885138,1,-1.000000,""
60,w0,python3action_chameleon_2000,0.000000,1,-1.000000,1,COMPLETED_SUCCESSFULLY,700.017501,0.000010,700.017511,700.017501,700.017511,70001751.100201,1,-1.000000,""
168_updated,w0,python3action_videoprocessing_SampleVideo_50mb_taurus,0.997085,1,2000.000000,1,COMPLETED_SUCCESSFULLY,551.575966,154.250029,705.825995,550.578881,704.828910,4.569392,12,-1.000000,""
168,w0,python3action_videoprocessing_SampleVideo_50mb,0.000000,1,-1.000000,1,COMPLETED_SUCCESSFULLY,705.826010,0.000010,705.826020,705.826010,705.826020,70582602.015258,12,-1.000000,""
python3action_facedetection_job8_3,w0,python3action_facedetection,0.997085,1,2000.000000,1,COMPLETED_SUCCESSFULLY,637.163437,72.012455,709.175893,636.166352,708.178808,9.834116,2,-1.000000,""
python3action_facedetection_job42_12,w0,python3action_facedetection_reduced_0.91,0.997085,1,2000.000000,1,COMPLETED_SUCCESSFULLY,705.826040,6.172496,711.998536,704.828955,711.001451,115.188642,12,-1.000000,""
57_updated,w0,python3action_chameleon_2000_neowise,0.997085,1,2000.000000,1,COMPLETED_SUCCESSFULLY,688.217422,24.200002,712.417425,687.220337,711.420340,29.397532,0,-1.000000,""
57,w0,python3action_chameleon_2000,0.000000,1,-1.000000,1,COMPLETED_SUCCESSFULLY,712.417440,0.000010,712.417450,712.417440,712.417450,71241745.000201,0,-1.000000,""
111_updated,w0,python3action_chameleon_2000_neowise,0.997085,1,2000.000000,1,COMPLETED_SUCCESSFULLY,700.017531,24.200002,724.217533,699.020446,723.220448,29.885140,1,-1.000000,""
111,w0,python3action_chameleon_2000,0.000000,1,-1.000000,1,COMPLETED_SUCCESSFULLY,724.217548,0.000010,724.217558,724.217548,724.217558,72421755.823188,1,-1.000000,""
82_updated,w0,python3action_chameleon_2000_neowise,0.997085,1,2000.000000,1,COMPLETED_SUCCESSFULLY,712.417470,24.200002,736.617472,711.420385,735.620387,30.397534,0,-1.000000,""
82,w0,python3action_chameleon_2000,0.000000,1,-1.000000,1,COMPLETED_SUCCESSFULLY,736.617487,0.000010,736.617497,736.617487,736.617497,73661749.723189,0,-1.000000,""
195_updated,w0,python3action_floatoperation_200000000_yeti,0.997085,1,2000.000000,1,COMPLETED_SUCCESSFULLY,638.022664,106.000000,744.022664,637.025579,743.025579,7.009675,5,-1.000000,""
195,w0,python3action_floatoperation_200000000,0.000000,1,-1.000000,1,COMPLETED_SUCCESSFULLY,744.022679,0.000010,744.022689,744.022679,744.022689,74402268.939951,5,-1.000000,""
python3action_pyaes_job1_5,w0,python3action_pyaes,0.997085,1,2000.000000,1,COMPLETED_SUCCESSFULLY,744.022709,0.892694,744.915404,743.025624,743.918319,833.340334,5,-1.000000,""
150_updated,w0,python3action_chameleon_2000_neowise,0.997085,1,2000.000000,1,COMPLETED_SUCCESSFULLY,724.217578,24.200002,748.417580,723.220493,747.420495,30.885142,1,-1.000000,""
150,w0,python3action_chameleon_2000,0.000000,1,-1.000000,1,COMPLETED_SUCCESSFULLY,748.417595,0.000010,748.417605,748.417595,748.417605,74841760.546176,1,-1.000000,""
132_updated,w0,python3action_linpack_6000_orion,0.997085,1,2000.000000,1,COMPLETED_SUCCESSFULLY,642.763462,106.000000,748.763462,641.766377,747.766377,7.054400,11,-1.000000,""
132,w0,python3action_linpack_6000,0.000000,1,-1.000000,1,COMPLETED_SUCCESSFULLY,748.763477,0.000010,748.763487,748.763477,748.763487,74876348.729094,11,-1.000000,""
88_updated,w0,python3action_pyaes_3000_troll,0.997085,1,2000.000000,1,COMPLETED_SUCCESSFULLY,697.037198,57.166677,754.203875,696.040113,753.206790,13.175627,4,-1.000000,""
88,w0,python3action_pyaes_3000,0.000000,1,-1.000000,1,COMPLETED_SUCCESSFULLY,754.203890,0.000010,754.203900,754.203890,754.203900,75420390.000201,4,-1.000000,""
137_updated,w0,python3action_chameleon_2000_neowise,0.997085,1,2000.000000,1,COMPLETED_SUCCESSFULLY,736.617517,24.200002,760.817519,735.620432,759.820434,31.397536,0,-1.000000,""
137,w0,python3action_chameleon_2000,0.000000,1,-1.000000,1,COMPLETED_SUCCESSFULLY,760.817534,0.000010,760.817544,760.817534,760.817544,76081754.446176,0,-1.000000,""
9_updated,w0,python3action_modeltraining_reviews50mb_neowise,0.997085,1,2000.000000,1,COMPLETED_SUCCESSFULLY,748.417625,22.799998,771.217623,747.420540,770.220538,33.781606,1,-1.000000,""
9,w0,python3action_modeltraining_reviews50mb,0.000000,1,-1.000000,1,COMPLETED_SUCCESSFULLY,771.217638,0.000010,771.217648,771.217638,771.217648,77121764.824393,1,-1.000000,""
54_updated,w0,python3action_floatoperation_200000000_nova,0.997085,1,2000.000000,1,COMPLETED_SUCCESSFULLY,636.556467,135.399990,771.956457,635.559382,770.959372,5.693940,9,-1.000000,""
54,w0,python3action_floatoperation_200000000,0.000000,1,-1.000000,1,COMPLETED_SUCCESSFULLY,771.956472,0.000010,771.956482,771.956472,771.956482,77195648.230786,9,-1.000000,""
133_updated,w0,python3action_floatoperation_200000000_nova,0.997085,1,2000.000000,1,COMPLETED_SUCCESSFULLY,636.556527,135.399990,771.956518,635.559442,770.959433,5.693940,10,-1.000000,""
133,w0,python3action_floatoperation_200000000,0.000000,1,-1.000000,1,COMPLETED_SUCCESSFULLY,771.956533,0.000010,771.956543,771.956533,771.956543,77195654.300201,10,-1.000000,""
174_updated,w0,python3action_videoprocessing_SampleVideo_50mb_nova,0.997085,1,2000.000000,1,COMPLETED_SUCCESSFULLY,634.116387,139.600010,773.716397,633.119302,772.719312,5.535238,7,-1.000000,""
174,w0,python3action_videoprocessing_SampleVideo_50mb,0.000000,1,-1.000000,1,COMPLETED_SUCCESSFULLY,773.716412,0.000010,773.716422,773.716412,773.716422,77371642.200201,7,-1.000000,""
198_updated,w0,python3action_videoprocessing_SampleVideo_50mb_nova,0.997085,1,2000.000000,1,COMPLETED_SUCCESSFULLY,634.116447,139.600010,773.716457,633.119362,772.719372,5.535239,8,-1.000000,""
198,w0,python3action_videoprocessing_SampleVideo_50mb,0.000000,1,-1.000000,1,COMPLETED_SUCCESSFULLY,773.716472,0.000010,773.716482,773.716472,773.716482,77371648.200201,8,-1.000000,""
python3action_floatoperation_job153_7,w0,python3action_floatoperation,0.997085,1,2000.000000,1,COMPLETED_SUCCESSFULLY,773.716442,2.439945,776.156387,772.719357,775.159302,317.695362,7,-1.000000,""
python3action_floatoperation_job156_8,w0,python3action_floatoperation,0.997085,1,2000.000000,1,COMPLETED_SUCCESSFULLY,773.716502,2.439945,776.156447,772.719417,775.159362,317.695386,8,-1.000000,""
192_updated,w0,python3action_chameleon_2000_neowise,0.997085,1,2000.000000,1,COMPLETED_SUCCESSFULLY,760.817564,24.200002,785.017567,759.820479,784.020482,32.397538,0,-1.000000,""
192,w0,python3action_chameleon_2000,0.000000,1,-1.000000,1,COMPLETED_SUCCESSFULLY,785.017582,0.000010,785.017592,785.017582,785.017592,78501759.200201,0,-1.000000,""
34_updated,w0,python3action_modeltraining_reviews50mb_neowise,0.997085,1,2000.000000,1,COMPLETED_SUCCESSFULLY,771.217668,22.799998,794.017666,770.220583,793.020581,34.781608,1,-1.000000,""
34,w0,python3action_modeltraining_reviews50mb,0.000000,1,-1.000000,1,COMPLETED_SUCCESSFULLY,794.017681,0.000010,794.017691,794.017681,794.017691,79401769.102610,1,-1.000000,""
138_updated,w0,python3action_videoprocessing_SampleVideo_50mb_nova,0.997085,1,2000.000000,1,COMPLETED_SUCCESSFULLY,654.916307,139.600010,794.516317,653.919222,793.519232,5.684235,6,-1.000000,""
138,w0,python3action_videoprocessing_SampleVideo_50mb,0.000000,1,-1.000000,1,COMPLETED_SUCCESSFULLY,794.516332,0.000010,794.516342,794.516332,794.516342,79451634.200201,6,-1.000000,""
python3action_floatoperation_job146_6,w0,python3action_floatoperation,0.997085,1,2000.000000,1,COMPLETED_SUCCESSFULLY,794.516362,2.439945,796.956307,793.519277,795.959222,326.220110,6,-1.000000,""
20_updated,w0,python3action_modeltraining_reviews50mb_neowise,0.997085,1,2000.000000,1,COMPLETED_SUCCESSFULLY,785.017612,22.799998,807.817610,784.020527,806.820525,35.386869,0,-1.000000,""
20,w0,python3action_modeltraining_reviews50mb,0.000000,1,-1.000000,1,COMPLETED_SUCCESSFULLY,807.817625,0.000010,807.817635,807.817625,807.817635,80781763.500201,0,-1.000000,""
89_updated,w0,python3action_pyaes_3000_troll,0.997085,1,2000.000000,1,COMPLETED_SUCCESSFULLY,754.203920,57.166677,811.370597,753.206835,810.373512,14.175627,4,-1.000000,""
89,w0,python3action_pyaes_3000,0.000000,1,-1.000000,1,COMPLETED_SUCCESSFULLY,811.370612,0.000010,811.370622,811.370612,811.370622,81137062.200201,4,-1.000000,""
45_updated,w0,python3action_modeltraining_reviews50mb_neowise,0.997085,1,2000.000000,1,COMPLETED_SUCCESSFULLY,794.017711,22.799998,816.817709,793.020626,815.820624,35.781610,1,-1.000000,""
45,w0,python3action_modeltraining_reviews50mb,0.000000,1,-1.000000,1,COMPLETED_SUCCESSFULLY,816.817724,0.000010,816.817734,816.817724,816.817734,81681773.400201,1,-1.000000,""
67_updated,w0,python3action_facedetection_SampleVideo_50mb_taurus,0.997085,1,2000.000000,1,COMPLETED_SUCCESSFULLY,686.176118,134.600046,820.776164,685.179033,819.779079,6.090481,13,-1.000000,""
67,w0,python3action_facedetection_SampleVideo_50mb,0.000000,1,-1.000000,1,COMPLETED_SUCCESSFULLY,820.776179,0.000010,820.776189,820.776179,820.776189,82077618.913881,13,-1.000000,""
36_updated,w0,python3action_modeltraining_reviews50mb_neowise,0.997085,1,2000.000000,1,COMPLETED_SUCCESSFULLY,807.817655,22.799998,830.617653,806.820570,829.620568,36.386871,0,-1.000000,""
36,w0,python3action_modeltraining_reviews50mb,0.000000,1,-1.000000,1,COMPLETED_SUCCESSFULLY,830.617668,0.000010,830.617678,830.617668,830.617678,83061767.800201,0,-1.000000,""
73_updated,w0,python3action_modeltraining_reviews50mb_neowise,0.997085,1,2000.000000,1,COMPLETED_SUCCESSFULLY,816.817754,22.799998,839.617752,815.820669,838.620667,36.781612,1,-1.000000,""
73,w0,python3action_modeltraining_reviews50mb,0.000000,1,-1.000000,1,COMPLETED_SUCCESSFULLY,839.617767,0.000010,839.617777,839.617767,839.617777,83961777.700201,1,-1.000000,""
8_updated,w0,python3action_facedetection_SampleVideo_50mb_taurus,0.997085,1,2000.000000,1,COMPLETED_SUCCESSFULLY,709.175908,134.600046,843.775954,708.178823,842.778869,6.261356,2,-1.000000,""
8,w0,python3action_facedetection_SampleVideo_50mb,0.000000,1,-1.000000,1,COMPLETED_SUCCESSFULLY,843.775969,0.000010,843.775979,843.775969,843.775979,84377597.913479,2,-1.000000,""
42_updated,w0,python3action_facedetection_SampleVideo_50mb_taurus,0.997085,1,2000.000000,1,COMPLETED_SUCCESSFULLY,711.998551,134.600046,846.598597,711.001466,845.601512,6.282327,12,-1.000000,""
42,w0,python3action_facedetection_SampleVideo_50mb,0.000000,1,-1.000000,1,COMPLETED_SUCCESSFULLY,846.598612,0.000010,846.598622,846.598612,846.598622,84659862.246089,12,-1.000000,""
1_updated,w0,python3action_pyaes_4000_yeti,0.997085,1,2000.000000,1,COMPLETED_SUCCESSFULLY,744.915419,105.500010,850.415429,743.918334,849.418344,8.051358,5,-1.000000,""
1,w0,python3action_pyaes_4000,0.000000,1,-1.000000,1,COMPLETED_SUCCESSFULLY,850.415444,0.000010,850.415454,850.415444,850.415454,85041545.421581,5,-1.000000,""
51_updated,w0,python3action_modeltraining_reviews50mb_neowise,0.997085,1,2000.000000,1,COMPLETED_SUCCESSFULLY,830.617698,22.799998,853.417696,829.620613,852.420611,37.386873,0,-1.000000,""
51,w0,python3action_modeltraining_reviews50mb,0.000000,1,-1.000000,1,COMPLETED_SUCCESSFULLY,853.417711,0.000010,853.417721,853.417711,853.417721,85341772.100201,0,-1.000000,""
149_updated,w0,python3action_linpack_6000_orion,0.997085,1,2000.000000,1,COMPLETED_SUCCESSFULLY,748.763507,106.000000,854.763507,747.766422,853.766422,8.054400,11,-1.000000,""
149,w0,python3action_linpack_6000,0.000000,1,-1.000000,1,COMPLETED_SUCCESSFULLY,854.763522,0.000010,854.763532,854.763522,854.763532,85476353.229697,11,-1.000000,""
97_updated,w0,python3action_modeltraining_reviews50mb_neowise,0.997085,1,2000.000000,1,COMPLETED_SUCCESSFULLY,839.617797,22.799998,862.417795,838.620712,861.420710,37.781614,1,-1.000000,""
97,w0,python3action_modeltraining_reviews50mb,0.000000,1,-1.000000,1,COMPLETED_SUCCESSFULLY,862.417810,0.000010,862.417820,862.417810,862.417820,86241782.000201,1,-1.000000,""
91_updated,w0,python3action_pyaes_3000_troll,0.997085,1,2000.000000,1,COMPLETED_SUCCESSFULLY,811.370642,57.166677,868.537319,810.373557,867.540234,15.175628,4,-1.000000,""
91,w0,python3action_pyaes_3000,0.000000,1,-1.000000,1,COMPLETED_SUCCESSFULLY,868.537334,0.000010,868.537344,868.537334,868.537344,86853734.400201,4,-1.000000,""
79_updated,w0,python3action_modeltraining_reviews50mb_neowise,0.997085,1,2000.000000,1,COMPLETED_SUCCESSFULLY,853.417741,22.799998,876.217739,852.420656,875.220654,38.386875,0,-1.000000,""
79,w0,python3action_modeltraining_reviews50mb,0.000000,1,-1.000000,1,COMPLETED_SUCCESSFULLY,876.217754,0.000010,876.217764,876.217754,876.217764,87621776.400201,0,-1.000000,""
24_updated,w0,python3action_videoprocessing_SampleVideo_30mb_nova,0.997085,1,2000.000000,1,COMPLETED_SUCCESSFULLY,771.956502,106.799980,878.756483,770.959417,877.759398,8.218722,9,-1.000000,""
24,w0,python3action_videoprocessing_SampleVideo_30mb,0.000000,1,-1.000000,1,COMPLETED_SUCCESSFULLY,878.756498,0.000010,878.756508,878.756498,878.756508,87875650.800201,9,-1.000000,""
35_updated,w0,python3action_videoprocessing_SampleVideo_30mb_nova,0.997085,1,2000.000000,1,COMPLETED_SUCCESSFULLY,771.956563,106.799980,878.756543,770.959478,877.759458,8.218723,10,-1.000000,""
35,w0,python3action_videoprocessing_SampleVideo_30mb,0.000000,1,-1.000000,1,COMPLETED_SUCCESSFULLY,878.756558,0.000010,878.756568,878.756558,878.756568,87875656.847010,10,-1.000000,""
148_updated,w0,python3action_modeltraining_reviews50mb_neowise,0.997085,1,2000.000000,1,COMPLETED_SUCCESSFULLY,862.417840,22.799998,885.217838,861.420755,884.220753,38.781616,1,-1.000000,""
148,w0,python3action_modeltraining_reviews50mb,0.000000,1,-1.000000,1,COMPLETED_SUCCESSFULLY,885.217853,0.000010,885.217863,885.217853,885.217863,88521786.300201,1,-1.000000,""
python3action_linpack_job10_2,w0,python3action_linpack_reduced_0.85,0.997085,1,2000.000000,1,COMPLETED_SUCCESSFULLY,885.217883,0.041658,885.259541,884.220798,884.262456,21226.689014,1,-1.000000,""
127_updated,w0,python3action_modeltraining_reviews50mb_neowise,0.997085,1,2000.000000,1,COMPLETED_SUCCESSFULLY,876.217784,22.799998,899.017782,875.220699,898.020697,39.386877,0,-1.000000,""
127,w0,python3action_modeltraining_reviews50mb,0.000000,1,-1.000000,1,COMPLETED_SUCCESSFULLY,899.017797,0.000010,899.017807,899.017797,899.017807,89901780.700201,0,-1.000000,""
10_updated,w0,python3action_linpack_5000_neowise,0.997085,1,2000.000000,1,COMPLETED_SUCCESSFULLY,885.259556,20.750000,906.009556,884.262471,905.012471,43.615059,1,-1.000000,""
10,w0,python3action_linpack_5000,0.000000,1,-1.000000,1,COMPLETED_SUCCESSFULLY,906.009571,0.000010,906.009581,906.009571,906.009581,90600958.105928,1,-1.000000,""
153_updated,w0,python3action_floatoperation_200000000_nova,0.997085,1,2000.000000,1,COMPLETED_SUCCESSFULLY,776.156402,135.399990,911.556393,775.159317,910.559308,6.724958,7,-1.000000,""
153,w0,python3action_floatoperation_200000000,0.000000,1,-1.000000,1,COMPLETED_SUCCESSFULLY,911.556408,0.000010,911.556418,911.556408,911.556418,91155641.800201,7,-1.000000,""
156_updated,w0,python3action_floatoperation_200000000_nova,0.997085,1,2000.000000,1,COMPLETED_SUCCESSFULLY,776.156462,135.399990,911.556453,775.159377,910.559368,6.724959,8,-1.000000,""
156,w0,python3action_floatoperation_200000000,0.000000,1,-1.000000,1,COMPLETED_SUCCESSFULLY,911.556468,0.000010,911.556478,911.556468,911.556478,91155647.800201,8,-1.000000,""
199_updated,w0,python3action_modeltraining_reviews50mb_neowise,0.997085,1,2000.000000,1,COMPLETED_SUCCESSFULLY,899.017827,22.799998,921.817825,898.020742,920.820740,40.386878,0,-1.000000,""
199,w0,python3action_modeltraining_reviews50mb,0.000000,1,-1.000000,1,COMPLETED_SUCCESSFULLY,921.817840,0.000010,921.817850,921.817840,921.817850,92181785.000201,0,-1.000000,""
python3action_linpack_job11_1,w0,python3action_linpack_reduced_0.85,0.997085,1,2000.000000,1,COMPLETED_SUCCESSFULLY,921.817870,0.041658,921.859528,920.820785,920.862443,22105.270409,0,-1.000000,""
124_updated,w0,python3action_pyaes_3000_troll,0.997085,1,2000.000000,1,COMPLETED_SUCCESSFULLY,868.537364,57.166677,925.704041,867.540279,924.706956,16.175629,4,-1.000000,""
124,w0,python3action_pyaes_3000,0.000000,1,-1.000000,1,COMPLETED_SUCCESSFULLY,925.704056,0.000010,925.704066,925.704056,925.704066,92570406.600201,4,-1.000000,""
17_updated,w0,python3action_linpack_5000_neowise,0.997085,1,2000.000000,1,COMPLETED_SUCCESSFULLY,906.009601,20.750000,926.759601,905.012516,925.762516,44.615061,1,-1.000000,""
17,w0,python3action_linpack_5000,0.000000,1,-1.000000,1,COMPLETED_SUCCESSFULLY,926.759616,0.000010,926.759626,926.759616,926.759626,92675962.606530,1,-1.000000,""
146_updated,w0,python3action_floatoperation_200000000_nova,0.997085,1,2000.000000,1,COMPLETED_SUCCESSFULLY,796.956322,135.399990,932.356313,795.959237,931.359228,6.878577,6,-1.000000,""
146,w0,python3action_floatoperation_200000000,0.000000,1,-1.000000,1,COMPLETED_SUCCESSFULLY,932.356328,0.000010,932.356338,932.356328,932.356338,93235633.800201,6,-1.000000,""
11_updated,w0,python3action_linpack_5000_neowise,0.997085,1,2000.000000,1,COMPLETED_SUCCESSFULLY,921.859543,20.750000,942.609543,920.862458,941.612458,45.378914,0,-1.000000,""
11,w0,python3action_linpack_5000,0.000000,1,-1.000000,1,COMPLETED_SUCCESSFULLY,942.609558,0.000010,942.609568,942.609558,942.609568,94260956.805928,0,-1.000000,""
55_updated,w0,python3action_linpack_5000_neowise,0.997085,1,2000.000000,1,COMPLETED_SUCCESSFULLY,926.759646,20.750000,947.509646,925.762561,946.512561,45.615063,1,-1.000000,""
55,w0,python3action_linpack_5000,0.000000,1,-1.000000,1,COMPLETED_SUCCESSFULLY,947.509661,0.000010,947.509671,947.509661,947.509671,94750967.107132,1,-1.000000,""
121_updated,w0,python3action_facedetection_SampleVideo_50mb_taurus,0.997085,1,2000.000000,1,COMPLETED_SUCCESSFULLY,820.776209,134.600046,955.376255,819.779124,954.379170,7.090482,13,-1.000000,""
121,w0,python3action_facedetection_SampleVideo_50mb,0.000000,1,-1.000000,1,COMPLETED_SUCCESSFULLY,955.376270,0.000010,955.376280,955.376270,955.376280,95537628.027561,13,-1.000000,""
81_updated,w0,python3action_pyaes_4000_yeti,0.997085,1,2000.000000,1,COMPLETED_SUCCESSFULLY,850.415474,105.500010,955.915484,849.418389,954.918399,9.051358,5,-1.000000,""
81,w0,python3action_pyaes_4000,0.000000,1,-1.000000,1,COMPLETED_SUCCESSFULLY,955.915499,0.000010,955.915509,955.915499,955.915509,95591550.943362,5,-1.000000,""
158_updated,w0,python3action_linpack_6000_orion,0.997085,1,2000.000000,1,COMPLETED_SUCCESSFULLY,854.763552,106.000000,960.763552,853.766467,959.766467,9.054401,11,-1.000000,""
158,w0,python3action_linpack_6000,0.000000,1,-1.000000,1,COMPLETED_SUCCESSFULLY,960.763567,0.000010,960.763577,960.763567,960.763577,96076357.730299,11,-1.000000,""
18_updated,w0,python3action_linpack_5000_neowise,0.997085,1,2000.000000,1,COMPLETED_SUCCESSFULLY,942.609588,20.750000,963.359588,941.612503,962.362503,46.378916,0,-1.000000,""
18,w0,python3action_linpack_5000,0.000000,1,-1.000000,1,COMPLETED_SUCCESSFULLY,963.359603,0.000010,963.359613,963.359603,963.359613,96335961.306530,0,-1.000000,""
86_updated,w0,python3action_linpack_5000_neowise,0.997085,1,2000.000000,1,COMPLETED_SUCCESSFULLY,947.509691,20.750000,968.259691,946.512606,967.262606,46.615065,1,-1.000000,""
86,w0,python3action_linpack_5000,0.000000,1,-1.000000,1,COMPLETED_SUCCESSFULLY,968.259706,0.000010,968.259716,968.259706,968.259716,96825971.607735,1,-1.000000,""
116_updated,w0,python3action_facedetection_SampleVideo_50mb_taurus,0.997085,1,2000.000000,1,COMPLETED_SUCCESSFULLY,843.775999,134.600046,978.376045,842.778914,977.378960,7.261357,2,-1.000000,""
116,w0,python3action_facedetection_SampleVideo_50mb,0.000000,1,-1.000000,1,COMPLETED_SUCCESSFULLY,978.376060,0.000010,978.376070,978.376060,978.376070,97837607.027160,2,-1.000000,""
119_updated,w0,python3action_facedetection_SampleVideo_50mb_taurus,0.997085,1,2000.000000,1,COMPLETED_SUCCESSFULLY,846.598642,134.600046,981.198689,845.601557,980.201604,7.282327,12,-1.000000,""
119,w0,python3action_facedetection_SampleVideo_50mb,0.000000,1,-1.000000,1,COMPLETED_SUCCESSFULLY,981.198704,0.000010,981.198714,981.198704,981.198714,98119871.400201,12,-1.000000,""
128_updated,w0,python3action_pyaes_3000_troll,0.997085,1,2000.000000,1,COMPLETED_SUCCESSFULLY,925.704086,57.166677,982.870763,924.707001,981.873678,17.175630,4,-1.000000,""
128,w0,python3action_pyaes_3000,0.000000,1,-1.000000,1,COMPLETED_SUCCESSFULLY,982.870778,0.000010,982.870788,982.870778,982.870788,98287078.800201,4,-1.000000,""
77_updated,w0,python3action_linpack_5000_neowise,0.997085,1,2000.000000,1,COMPLETED_SUCCESSFULLY,963.359633,20.750000,984.109633,962.362548,983.112548,47.378918,0,-1.000000,""
77,w0,python3action_linpack_5000,0.000000,1,-1.000000,1,COMPLETED_SUCCESSFULLY,984.109648,0.000010,984.109658,984.109648,984.109658,98410965.807132,0,-1.000000,""
71_updated,w0,python3action_videoprocessing_SampleVideo_30mb_nova,0.997085,1,2000.000000,1,COMPLETED_SUCCESSFULLY,878.756528,106.799980,985.556508,877.759443,984.559423,9.218723,9,-1.000000,""
71,w0,python3action_videoprocessing_SampleVideo_30mb,0.000000,1,-1.000000,1,COMPLETED_SUCCESSFULLY,985.556523,0.000010,985.556533,985.556523,985.556533,98555653.347010,9,-1.000000,""
72_updated,w0,python3action_videoprocessing_SampleVideo_30mb_nova,0.997085,1,2000.000000,1,COMPLETED_SUCCESSFULLY,878.756588,106.799980,985.556569,877.759503,984.559484,9.218723,10,-1.000000,""
72,w0,python3action_videoprocessing_SampleVideo_30mb,0.000000,1,-1.000000,1,COMPLETED_SUCCESSFULLY,985.556584,0.000010,985.556594,985.556584,985.556594,98555659.400201,10,-1.000000,""
115_updated,w0,python3action_linpack_5000_neowise,0.997085,1,2000.000000,1,COMPLETED_SUCCESSFULLY,968.259736,20.750000,989.009736,967.262651,988.012651,47.615068,1,-1.000000,""
115,w0,python3action_linpack_5000,0.000000,1,-1.000000,1,COMPLETED_SUCCESSFULLY,989.009751,0.000010,989.009761,989.009751,989.009761,98900976.108337,1,-1.000000,""
96_updated,w0,python3action_linpack_5000_neowise,0.997085,1,2000.000000,1,COMPLETED_SUCCESSFULLY,984.109678,20.750000,1004.859678,983.112593,1003.862593,48.378920,0,-1.000000,""
96,w0,python3action_linpack_5000,0.000000,1,-1.000000,1,COMPLETED_SUCCESSFULLY,1004.859693,0.000010,1004.859703,1004.859693,1004.859703,100485970.307735,0,-1.000000,""
164_updated,w0,python3action_linpack_5000_neowise,0.997085,1,2000.000000,1,COMPLETED_SUCCESSFULLY,989.009781,20.750000,1009.759781,988.012696,1008.762696,48.615070,1,-1.000000,""
164,w0,python3action_linpack_5000,0.000000,1,-1.000000,1,COMPLETED_SUCCESSFULLY,1009.759796,0.000010,1009.759806,1009.759796,1009.759806,100975980.608940,1,-1.000000,""
47_updated,w0,python3action_videoprocessing_SampleVideo_30mb_nova,0.997085,1,2000.000000,1,COMPLETED_SUCCESSFULLY,911.556438,106.799980,1018.356418,910.559353,1017.359333,9.525838,7,-1.000000,""
47,w0,python3action_videoprocessing_SampleVideo_30mb,0.000000,1,-1.000000,1,COMPLETED_SUCCESSFULLY,1018.356433,0.000010,1018.356443,1018.356433,1018.356443,101835644.347010,7,-1.000000,""
65_updated,w0,python3action_videoprocessing_SampleVideo_30mb_nova,0.997085,1,2000.000000,1,COMPLETED_SUCCESSFULLY,911.556498,106.799980,1018.356478,910.559413,1017.359393,9.525839,8,-1.000000,""
65,w0,python3action_videoprocessing_SampleVideo_30mb,0.000000,1,-1.000000,1,COMPLETED_SUCCESSFULLY,1018.356493,0.000010,1018.356503,1018.356493,1018.356503,101835650.347211,8,-1.000000,""
152_updated,w0,python3action_linpack_5000_neowise,0.997085,1,2000.000000,1,COMPLETED_SUCCESSFULLY,1004.859723,20.750000,1025.609723,1003.862638,1024.612638,49.378922,0,-1.000000,""
152,w0,python3action_linpack_5000,0.000000,1,-1.000000,1,COMPLETED_SUCCESSFULLY,1025.609738,0.000010,1025.609748,1025.609738,1025.609748,102560974.808337,0,-1.000000,""
167_updated,w0,python3action_linpack_5000_neowise,0.997085,1,2000.000000,1,COMPLETED_SUCCESSFULLY,1009.759826,20.750000,1030.509826,1008.762741,1029.512741,49.615072,1,-1.000000,""
167,w0,python3action_linpack_5000,0.000000,1,-1.000000,1,COMPLETED_SUCCESSFULLY,1030.509841,0.000010,1030.509851,1030.509841,1030.509851,103050985.109542,1,-1.000000,""
39_updated,w0,python3action_videoprocessing_SampleVideo_30mb_nova,0.997085,1,2000.000000,1,COMPLETED_SUCCESSFULLY,932.356358,106.799980,1039.156338,931.359273,1038.159253,9.720594,6,-1.000000,""
39,w0,python3action_videoprocessing_SampleVideo_30mb,0.000000,1,-1.000000,1,COMPLETED_SUCCESSFULLY,1039.156353,0.000010,1039.156363,1039.156353,1039.156363,103915636.347010,6,-1.000000,""
136_updated,w0,python3action_pyaes_3000_troll,0.997085,1,2000.000000,1,COMPLETED_SUCCESSFULLY,982.870808,57.166677,1040.037485,981.873723,1039.040400,18.175631,4,-1.000000,""
136,w0,python3action_pyaes_3000,0.000000,1,-1.000000,1,COMPLETED_SUCCESSFULLY,1040.037500,0.000010,1040.037510,1040.037500,1040.037510,104003751.000201,4,-1.000000,""
165_updated,w0,python3action_linpack_5000_neowise,0.997085,1,2000.000000,1,COMPLETED_SUCCESSFULLY,1025.609768,20.750000,1046.359768,1024.612683,1045.362683,50.378924,0,-1.000000,""
165,w0,python3action_linpack_5000,0.000000,1,-1.000000,1,COMPLETED_SUCCESSFULLY,1046.359783,0.000010,1046.359793,1046.359783,1046.359793,104635979.308939,0,-1.000000,""
189_updated,w0,python3action_linpack_5000_neowise,0.997085,1,2000.000000,1,COMPLETED_SUCCESSFULLY,1030.509871,20.750000,1051.259871,1029.512786,1050.262786,50.615074,1,-1.000000,""
189,w0,python3action_linpack_5000,0.000000,1,-1.000000,1,COMPLETED_SUCCESSFULLY,1051.259886,0.000010,1051.259896,1051.259886,1051.259896,105125989.610144,1,-1.000000,""
83_updated,w0,python3action_pyaes_4000_yeti,0.997085,1,2000.000000,1,COMPLETED_SUCCESSFULLY,955.915529,105.500010,1061.415540,954.918444,1060.418455,10.051359,5,-1.000000,""
83,w0,python3action_pyaes_4000,0.000000,1,-1.000000,1,COMPLETED_SUCCESSFULLY,1061.415555,0.000010,1061.415565,1061.415555,1061.415565,106141556.500201,5,-1.000000,""
162_updated,w0,python3action_linpack_6000_orion,0.997085,1,2000.000000,1,COMPLETED_SUCCESSFULLY,960.763597,106.000000,1066.763597,959.766512,1065.766512,10.054401,11,-1.000000,""
162,w0,python3action_linpack_6000,0.000000,1,-1.000000,1,COMPLETED_SUCCESSFULLY,1066.763612,0.000010,1066.763622,1066.763612,1066.763622,106676362.230901,11,-1.000000,""
181_updated,w0,python3action_linpack_5000_neowise,0.997085,1,2000.000000,1,COMPLETED_SUCCESSFULLY,1046.359813,20.750000,1067.109813,1045.362728,1066.112728,51.378927,0,-1.000000,""
181,w0,python3action_linpack_5000,0.000000,1,-1.000000,1,COMPLETED_SUCCESSFULLY,1067.109828,0.000010,1067.109838,1067.109828,1067.109838,106710983.809542,0,-1.000000,""
142_updated,w0,python3action_facedetection_SampleVideo_50mb_taurus,0.997085,1,2000.000000,1,COMPLETED_SUCCESSFULLY,955.376300,134.600046,1089.976346,954.379215,1088.979261,8.090482,13,-1.000000,""
142,w0,python3action_facedetection_SampleVideo_50mb,0.000000,1,-1.000000,1,COMPLETED_SUCCESSFULLY,1089.976361,0.000010,1089.976371,1089.976361,1089.976371,108997637.141242,13,-1.000000,""
143_updated,w0,python3action_videoprocessing_SampleVideo_30mb_nova,0.997085,1,2000.000000,1,COMPLETED_SUCCESSFULLY,985.556553,106.799980,1092.356534,984.559468,1091.359449,10.218723,9,-1.000000,""
143,w0,python3action_videoprocessing_SampleVideo_30mb,0.000000,1,-1.000000,1,COMPLETED_SUCCESSFULLY,1092.356549,0.000010,1092.356559,1092.356549,1092.356559,109235655.900201,9,-1.000000,""
190_updated,w0,python3action_videoprocessing_SampleVideo_30mb_nova,0.997085,1,2000.000000,1,COMPLETED_SUCCESSFULLY,985.556614,106.799980,1092.356594,984.559529,1091.359509,10.218724,10,-1.000000,""
190,w0,python3action_videoprocessing_SampleVideo_30mb,0.000000,1,-1.000000,1,COMPLETED_SUCCESSFULLY,1092.356609,0.000010,1092.356619,1092.356609,1092.356619,109235661.947010,10,-1.000000,""
141_updated,w0,python3action_pyaes_3000_troll,0.997085,1,2000.000000,1,COMPLETED_SUCCESSFULLY,1040.037530,57.166677,1097.204207,1039.040445,1096.207122,19.175631,4,-1.000000,""
141,w0,python3action_pyaes_3000,0.000000,1,-1.000000,1,COMPLETED_SUCCESSFULLY,1097.204222,0.000010,1097.204232,1097.204222,1097.204232,109720423.200201,4,-1.000000,""
129_updated,w0,python3action_facedetection_SampleVideo_50mb_taurus,0.997085,1,2000.000000,1,COMPLETED_SUCCESSFULLY,978.376090,134.600046,1112.976136,977.379005,1111.979051,8.261357,2,-1.000000,""
129,w0,python3action_facedetection_SampleVideo_50mb,0.000000,1,-1.000000,1,COMPLETED_SUCCESSFULLY,1112.976151,0.000010,1112.976161,1112.976151,1112.976161,111297616.140840,2,-1.000000,""
131_updated,w0,python3action_facedetection_SampleVideo_50mb_taurus,0.997085,1,2000.000000,1,COMPLETED_SUCCESSFULLY,981.198734,134.600046,1115.798780,980.201649,1114.801695,8.282328,12,-1.000000,""
131,w0,python3action_facedetection_SampleVideo_50mb,0.000000,1,-1.000000,1,COMPLETED_SUCCESSFULLY,1115.798795,0.000010,1115.798805,1115.798795,1115.798805,111579880.513881,12,-1.000000,""
118_updated,w0,python3action_videoprocessing_SampleVideo_30mb_nova,0.997085,1,2000.000000,1,COMPLETED_SUCCESSFULLY,1018.356463,106.799980,1125.156444,1017.359378,1124.159359,10.525839,7,-1.000000,""
118,w0,python3action_videoprocessing_SampleVideo_30mb,0.000000,1,-1.000000,1,COMPLETED_SUCCESSFULLY,1125.156459,0.000010,1125.156469,1125.156459,1125.156469,112515646.900201,7,-1.000000,""
139_updated,w0,python3action_videoprocessing_SampleVideo_30mb_nova,0.997085,1,2000.000000,1,COMPLETED_SUCCESSFULLY,1018.356523,106.799980,1125.156504,1017.359438,1124.159419,10.525839,8,-1.000000,""
139,w0,python3action_videoprocessing_SampleVideo_30mb,0.000000,1,-1.000000,1,COMPLETED_SUCCESSFULLY,1125.156519,0.000010,1125.156529,1125.156519,1125.156529,112515652.900201,8,-1.000000,""
74_updated,w0,python3action_videoprocessing_SampleVideo_30mb_nova,0.997085,1,2000.000000,1,COMPLETED_SUCCESSFULLY,1039.156383,106.799980,1145.956364,1038.159298,1144.959279,10.720594,6,-1.000000,""
74,w0,python3action_videoprocessing_SampleVideo_30mb,0.000000,1,-1.000000,1,COMPLETED_SUCCESSFULLY,1145.956379,0.000010,1145.956389,1145.956379,1145.956389,114595638.900201,6,-1.000000,""
151_updated,w0,python3action_pyaes_3000_troll,0.997085,1,2000.000000,1,COMPLETED_SUCCESSFULLY,1097.204252,57.166677,1154.370929,1096.207167,1153.373844,20.175632,4,-1.000000,""
151,w0,python3action_pyaes_3000,0.000000,1,-1.000000,1,COMPLETED_SUCCESSFULLY,1154.370944,0.000010,1154.370954,1154.370944,1154.370954,115437095.400201,4,-1.000000,""
43_updated,w0,python3action_floatoperation_100000000_nova,0.997085,1,2000.000000,1,COMPLETED_SUCCESSFULLY,1092.356579,66.200020,1158.556599,1091.359494,1157.559514,17.485788,9,-1.000000,""
43,w0,python3action_floatoperation_100000000,0.000000,1,-1.000000,1,COMPLETED_SUCCESSFULLY,1158.556614,0.000010,1158.556624,1158.556614,1158.556624,115855662.400201,9,-1.000000,""
58_updated,w0,python3action_floatoperation_100000000_nova,0.997085,1,2000.000000,1,COMPLETED_SUCCESSFULLY,1092.356639,66.200020,1158.556659,1091.359554,1157.559574,17.485789,10,-1.000000,""
58,w0,python3action_floatoperation_100000000,0.000000,1,-1.000000,1,COMPLETED_SUCCESSFULLY,1158.556674,0.000010,1158.556684,1158.556674,1158.556684,115855668.401004,10,-1.000000,""
117_updated,w0,python3action_pyaes_4000_yeti,0.997085,1,2000.000000,1,COMPLETED_SUCCESSFULLY,1061.415585,105.500010,1166.915595,1060.418500,1165.918510,11.051359,5,-1.000000,""
117,w0,python3action_pyaes_4000,0.000000,1,-1.000000,1,COMPLETED_SUCCESSFULLY,1166.915610,0.000010,1166.915620,1166.915610,1166.915620,116691562.021982,5,-1.000000,""
python3action_chameleon_job22_5,w0,python3action_chameleon_reduced_0.85,0.997085,1,2000.000000,1,COMPLETED_SUCCESSFULLY,1166.915640,0.133904,1167.049544,1165.918555,1166.052459,8708.111460,5,-1.000000,""
183_updated,w0,python3action_linpack_6000_orion,0.997085,1,2000.000000,1,COMPLETED_SUCCESSFULLY,1066.763642,106.000000,1172.763642,1065.766557,1171.766557,11.054401,11,-1.000000,""
183,w0,python3action_linpack_6000,0.000000,1,-1.000000,1,COMPLETED_SUCCESSFULLY,1172.763657,0.000010,1172.763667,1172.763657,1172.763667,117276366.731503,11,-1.000000,""
23_updated,w0,python3action_floatoperation_100000000_nova,0.997085,1,2000.000000,1,COMPLETED_SUCCESSFULLY,1125.156489,66.200020,1191.356509,1124.159404,1190.359424,17.981255,7,-1.000000,""
23,w0,python3action_floatoperation_100000000,0.000000,1,-1.000000,1,COMPLETED_SUCCESSFULLY,1191.356524,0.000010,1191.356534,1191.356524,1191.356534,119135653.400201,7,-1.000000,""
31_updated,w0,python3action_floatoperation_100000000_nova,0.997085,1,2000.000000,1,COMPLETED_SUCCESSFULLY,1125.156549,66.200020,1191.356569,1124.159464,1190.359484,17.981256,8,-1.000000,""
31,w0,python3action_floatoperation_100000000,0.000000,1,-1.000000,1,COMPLETED_SUCCESSFULLY,1191.356584,0.000010,1191.356594,1191.356584,1191.356594,119135659.400201,8,-1.000000,""
161_updated,w0,python3action_pyaes_3000_troll,0.997085,1,2000.000000,1,COMPLETED_SUCCESSFULLY,1154.370974,57.166677,1211.537651,1153.373889,1210.540566,21.175633,4,-1.000000,""
161,w0,python3action_pyaes_3000,0.000000,1,-1.000000,1,COMPLETED_SUCCESSFULLY,1211.537666,0.000010,1211.537676,1211.537666,1211.537676,121153767.600201,4,-1.000000,""
14_updated,w0,python3action_floatoperation_100000000_nova,0.997085,1,2000.000000,1,COMPLETED_SUCCESSFULLY,1145.956409,66.200020,1212.156429,1144.959324,1211.159344,18.295453,6,-1.000000,""
14,w0,python3action_floatoperation_100000000,0.000000,1,-1.000000,1,COMPLETED_SUCCESSFULLY,1212.156444,0.000010,1212.156454,1212.156444,1212.156454,121215645.400201,6,-1.000000,""
184_updated,w0,python3action_facedetection_SampleVideo_50mb_taurus,0.997085,1,2000.000000,1,COMPLETED_SUCCESSFULLY,1089.976391,134.600046,1224.576438,1088.979306,1223.579353,9.090482,13,-1.000000,""
184,w0,python3action_facedetection_SampleVideo_50mb,0.000000,1,-1.000000,1,COMPLETED_SUCCESSFULLY,1224.576453,0.000010,1224.576463,1224.576453,1224.576463,122457646.300201,13,-1.000000,""
python3action_image_processing_job80_13,w0,python3action_image_processing_reduced_0.86,0.997085,1,2000.000000,1,COMPLETED_SUCCESSFULLY,1224.576483,0.000000,1224.576483,1223.579398,1223.579398,10614120517671.861328,13,-1.000000,""
93_updated,w0,python3action_floatoperation_100000000_nova,0.997085,1,2000.000000,1,COMPLETED_SUCCESSFULLY,1158.556644,66.200020,1224.756664,1157.559559,1223.759579,18.485789,9,-1.000000,""
93,w0,python3action_floatoperation_100000000,0.000000,1,-1.000000,1,COMPLETED_SUCCESSFULLY,1224.756679,0.000010,1224.756689,1224.756679,1224.756689,122475668.900201,9,-1.000000,""
105_updated,w0,python3action_floatoperation_100000000_nova,0.997085,1,2000.000000,1,COMPLETED_SUCCESSFULLY,1158.556704,66.200020,1224.756724,1157.559619,1223.759639,18.485790,10,-1.000000,""
105,w0,python3action_floatoperation_100000000,0.000000,1,-1.000000,1,COMPLETED_SUCCESSFULLY,1224.756739,0.000010,1224.756749,1224.756739,1224.756749,122475674.900201,10,-1.000000,""
145_updated,w0,python3action_facedetection_SampleVideo_50mb_taurus,0.997085,1,2000.000000,1,COMPLETED_SUCCESSFULLY,1112.976181,134.600046,1247.576228,1111.979096,1246.579143,9.261357,2,-1.000000,""
145,w0,python3action_facedetection_SampleVideo_50mb,0.000000,1,-1.000000,1,COMPLETED_SUCCESSFULLY,1247.576243,0.000010,1247.576253,1247.576243,1247.576253,124757625.300201,2,-1.000000,""
160_updated,w0,python3action_facedetection_SampleVideo_50mb_taurus,0.997085,1,2000.000000,1,COMPLETED_SUCCESSFULLY,1115.798825,134.600046,1250.398871,1114.801740,1249.401786,9.282328,12,-1.000000,""
160,w0,python3action_facedetection_SampleVideo_50mb,0.000000,1,-1.000000,1,COMPLETED_SUCCESSFULLY,1250.398886,0.000010,1250.398896,1250.398886,1250.398896,125039889.627561,12,-1.000000,""
python3action_image_processing_job13_12,w0,python3action_image_processing_reduced_1.73,0.997085,1,2000.000000,1,COMPLETED_SUCCESSFULLY,1250.398916,0.000000,1250.398916,1249.401831,1249.401831,10838121035555.876953,12,-1.000000,""
80_updated,w0,python3action_imageprocessing_SampleImage_40mb_taurus,0.997085,1,2000.000000,1,COMPLETED_SUCCESSFULLY,1224.576513,32.600046,1257.176559,1223.579428,1256.179474,38.533058,13,-1.000000,""
80,w0,python3action_imageprocessing_SampleImage_40mb,0.000000,1,-1.000000,1,COMPLETED_SUCCESSFULLY,1257.176574,0.000010,1257.176584,1257.176574,1257.176584,125717658.414283,13,-1.000000,""
84_updated,w0,python3action_floatoperation_100000000_nova,0.997085,1,2000.000000,1,COMPLETED_SUCCESSFULLY,1191.356554,66.200020,1257.556574,1190.359469,1256.559489,18.981256,7,-1.000000,""
84,w0,python3action_floatoperation_100000000,0.000000,1,-1.000000,1,COMPLETED_SUCCESSFULLY,1257.556589,0.000010,1257.556599,1257.556589,1257.556599,125755659.900201,7,-1.000000,""
90_updated,w0,python3action_floatoperation_100000000_nova,0.997085,1,2000.000000,1,COMPLETED_SUCCESSFULLY,1191.356614,66.200020,1257.556634,1190.359529,1256.559549,18.981256,8,-1.000000,""
90,w0,python3action_floatoperation_100000000,0.000000,1,-1.000000,1,COMPLETED_SUCCESSFULLY,1257.556649,0.000010,1257.556659,1257.556649,1257.556659,125755665.900201,8,-1.000000,""
22_updated,w0,python3action_chameleon_3000_yeti,0.997085,1,2000.000000,1,COMPLETED_SUCCESSFULLY,1167.049559,93.000000,1260.049559,1166.052474,1259.052474,13.538199,5,-1.000000,""
22,w0,python3action_chameleon_3000,0.000000,1,-1.000000,1,COMPLETED_SUCCESSFULLY,1260.049574,0.000010,1260.049584,1260.049574,1260.049584,126004958.440039,5,-1.000000,""
166_updated,w0,python3action_pyaes_3000_troll,0.997085,1,2000.000000,1,COMPLETED_SUCCESSFULLY,1211.537696,57.166677,1268.704373,1210.540611,1267.707288,22.175634,4,-1.000000,""
166,w0,python3action_pyaes_3000,0.000000,1,-1.000000,1,COMPLETED_SUCCESSFULLY,1268.704388,0.000010,1268.704398,1268.704388,1268.704398,126870439.800201,4,-1.000000,""
64_updated,w0,python3action_floatoperation_100000000_nova,0.997085,1,2000.000000,1,COMPLETED_SUCCESSFULLY,1212.156474,66.200020,1278.356494,1211.159389,1277.359409,19.295454,6,-1.000000,""
64,w0,python3action_floatoperation_100000000,0.000000,1,-1.000000,1,COMPLETED_SUCCESSFULLY,1278.356509,0.000010,1278.356519,1278.356509,1278.356519,127835651.900201,6,-1.000000,""
187_updated,w0,python3action_linpack_6000_orion,0.997085,1,2000.000000,1,COMPLETED_SUCCESSFULLY,1172.763687,106.000000,1278.763687,1171.766602,1277.766602,12.054402,11,-1.000000,""
187,w0,python3action_linpack_6000,0.000000,1,-1.000000,1,COMPLETED_SUCCESSFULLY,1278.763702,0.000010,1278.763712,1278.763702,1278.763712,127876371.232106,11,-1.000000,""
13_updated,w0,python3action_imageprocessing_SampleImage_40mb_taurus,0.997085,1,2000.000000,1,COMPLETED_SUCCESSFULLY,1250.398946,32.600046,1282.998992,1249.401861,1282.001907,39.325156,12,-1.000000,""
13,w0,python3action_imageprocessing_SampleImage_40mb,0.000000,1,-1.000000,1,COMPLETED_SUCCESSFULLY,1282.999007,0.000010,1282.999017,1282.999007,1282.999017,128299901.741643,12,-1.000000,""
134_updated,w0,python3action_imageprocessing_SampleImage_40mb_taurus,0.997085,1,2000.000000,1,COMPLETED_SUCCESSFULLY,1257.176604,32.600046,1289.776650,1256.179519,1288.779565,39.533060,13,-1.000000,""
134,w0,python3action_imageprocessing_SampleImage_40mb,0.000000,1,-1.000000,1,COMPLETED_SUCCESSFULLY,1289.776665,0.000010,1289.776675,1289.776665,1289.776675,128977667.527963,13,-1.000000,""
178_updated,w0,python3action_floatoperation_100000000_nova,0.997085,1,2000.000000,1,COMPLETED_SUCCESSFULLY,1224.756709,66.200020,1290.956729,1223.759624,1289.959644,19.485789,9,-1.000000,""
178,w0,python3action_floatoperation_100000000,0.000000,1,-1.000000,1,COMPLETED_SUCCESSFULLY,1290.956744,0.000010,1290.956754,1290.956744,1290.956754,129095675.400201,9,-1.000000,""
186_updated,w0,python3action_floatoperation_100000000_nova,0.997085,1,2000.000000,1,COMPLETED_SUCCESSFULLY,1224.756769,66.200020,1290.956789,1223.759684,1289.959704,19.485790,10,-1.000000,""
186,w0,python3action_floatoperation_100000000,0.000000,1,-1.000000,1,COMPLETED_SUCCESSFULLY,1290.956804,0.000010,1290.956814,1290.956804,1290.956814,129095681.400201,10,-1.000000,""
109_updated,w0,python3action_imageprocessing_SampleImage_40mb_taurus,0.997085,1,2000.000000,1,COMPLETED_SUCCESSFULLY,1282.999037,32.600046,1315.599084,1282.001952,1314.601999,40.325158,12,-1.000000,""
109,w0,python3action_imageprocessing_SampleImage_40mb,0.000000,1,-1.000000,1,COMPLETED_SUCCESSFULLY,1315.599099,0.000010,1315.599109,1315.599099,1315.599109,131559910.900201,12,-1.000000,""
125_updated,w0,python3action_floatoperation_100000000_nova,0.997085,1,2000.000000,1,COMPLETED_SUCCESSFULLY,1257.556619,66.200020,1323.756639,1256.559534,1322.759554,19.981256,7,-1.000000,""
125,w0,python3action_floatoperation_100000000,0.000000,1,-1.000000,1,COMPLETED_SUCCESSFULLY,1323.756654,0.000010,1323.756664,1323.756654,1323.756664,132375666.400201,7,-1.000000,""
175_updated,w0,python3action_floatoperation_100000000_nova,0.997085,1,2000.000000,1,COMPLETED_SUCCESSFULLY,1257.556679,66.200020,1323.756699,1256.559594,1322.759614,19.981257,8,-1.000000,""
175,w0,python3action_floatoperation_100000000,0.000000,1,-1.000000,1,COMPLETED_SUCCESSFULLY,1323.756714,0.000010,1323.756724,1323.756714,1323.756724,132375672.400201,8,-1.000000,""
169_updated,w0,python3action_pyaes_3000_troll,0.997085,1,2000.000000,1,COMPLETED_SUCCESSFULLY,1268.704418,57.166677,1325.871095,1267.707333,1324.874010,23.175635,4,-1.000000,""
169,w0,python3action_pyaes_3000,0.000000,1,-1.000000,1,COMPLETED_SUCCESSFULLY,1325.871110,0.000010,1325.871120,1325.871110,1325.871120,132587112.000201,4,-1.000000,""
110_updated,w0,python3action_floatoperation_100000000_nova,0.997085,1,2000.000000,1,COMPLETED_SUCCESSFULLY,1278.356539,66.200020,1344.556559,1277.359454,1343.559474,20.295454,6,-1.000000,""
110,w0,python3action_floatoperation_100000000,0.000000,1,-1.000000,1,COMPLETED_SUCCESSFULLY,1344.556574,0.000010,1344.556584,1344.556574,1344.556584,134455658.400201,6,-1.000000,""
159_updated,w0,python3action_imageprocessing_SampleImage_40mb_taurus,0.997085,1,2000.000000,1,COMPLETED_SUCCESSFULLY,1315.599129,32.600046,1348.199175,1314.602044,1347.202090,41.325159,12,-1.000000,""
159,w0,python3action_imageprocessing_SampleImage_40mb,0.000000,1,-1.000000,1,COMPLETED_SUCCESSFULLY,1348.199190,0.000010,1348.199200,1348.199190,1348.199200,134819920.013881,12,-1.000000,""
197_updated,w0,python3action_facedetection_SampleVideo_50mb_taurus,0.997085,1,2000.000000,1,COMPLETED_SUCCESSFULLY,1247.576273,134.600046,1382.176319,1246.579188,1381.179234,10.261358,2,-1.000000,""
197,w0,python3action_facedetection_SampleVideo_50mb,0.000000,1,-1.000000,1,COMPLETED_SUCCESSFULLY,1382.176334,0.000010,1382.176344,1382.176334,1382.176344,138217634.413881,2,-1.000000,""
python3action_image_processing_job94_3,w0,python3action_image_processing_reduced_0.86,0.997085,1,2000.000000,1,COMPLETED_SUCCESSFULLY,1382.176364,0.000000,1382.176364,1381.179279,1381.179279,11981244003636.597656,2,-1.000000,""
182_updated,w0,python3action_pyaes_3000_troll,0.997085,1,2000.000000,1,COMPLETED_SUCCESSFULLY,1325.871140,57.166677,1383.037817,1324.874055,1382.040732,24.175635,4,-1.000000,""
182,w0,python3action_pyaes_3000,0.000000,1,-1.000000,1,COMPLETED_SUCCESSFULLY,1383.037832,0.000010,1383.037842,1383.037832,1383.037842,138303784.200201,4,-1.000000,""
191_updated,w0,python3action_linpack_6000_orion,0.997085,1,2000.000000,1,COMPLETED_SUCCESSFULLY,1278.763732,106.000000,1384.763732,1277.766647,1383.766647,13.054402,11,-1.000000,""
191,w0,python3action_linpack_6000,0.000000,1,-1.000000,1,COMPLETED_SUCCESSFULLY,1384.763747,0.000010,1384.763757,1384.763747,1384.763757,138476375.732708,11,-1.000000,""
194_updated,w0,python3action_floatoperation_100000000_nova,0.997085,1,2000.000000,1,COMPLETED_SUCCESSFULLY,1344.556604,66.200020,1410.756624,1343.559519,1409.759539,21.295455,6,-1.000000,""
194,w0,python3action_floatoperation_100000000,0.000000,1,-1.000000,1,COMPLETED_SUCCESSFULLY,1410.756639,0.000010,1410.756649,1410.756639,1410.756649,141075664.900201,6,-1.000000,""
94_updated,w0,python3action_imageprocessing_SampleImage_40mb_taurus,0.997085,1,2000.000000,1,COMPLETED_SUCCESSFULLY,1382.176394,32.600046,1414.776440,1381.179309,1413.779355,43.367404,2,-1.000000,""
94,w0,python3action_imageprocessing_SampleImage_40mb,0.000000,1,-1.000000,1,COMPLETED_SUCCESSFULLY,1414.776455,0.000010,1414.776465,1414.776455,1414.776465,141477646.527963,2,-1.000000,""
144_updated,w0,python3action_imageprocessing_SampleImage_40mb_taurus,0.997085,1,2000.000000,1,COMPLETED_SUCCESSFULLY,1414.776485,32.600046,1447.376531,1413.779400,1446.379446,44.367405,2,-1.000000,""
144,w0,python3action_imageprocessing_SampleImage_40mb,0.000000,1,-1.000000,1,COMPLETED_SUCCESSFULLY,1447.376546,0.000010,1447.376556,1447.376546,1447.376556,144737655.641644,2,-1.000000,""
