job_id,workload_name,profile,submission_time,requested_number_of_resources,requested_time,success,final_state,starting_time,execution_time,finish_time,waiting_time,turnaround_time,stretch,allocated_resources,consumed_energy,metadata
python3action_pyaes_job5_3,w0,python3action_pyaes,0.997085,1,2000.000000,1,COMPLETED_SUCCESSFULLY,1.002145,0.867914,1.870059,0.005060,0.872974,1.005830,4,-1.000000,""
python3action_chameleon_job0_4,w0,python3action_chameleon,0.997085,1,2000.000000,1,COMPLETED_SUCCESSFULLY,1.002160,0.892694,1.894854,0.005075,0.897769,1.005685,5,-1.000000,""
python3action_modeltraining_job35_0,w0,python3action_modeltraining,0.997085,1,2000.000000,1,COMPLETED_SUCCESSFULLY,1.002100,3.471546,4.473646,0.005015,3.476561,1.001445,0,-1.000000,""
python3action_modeltraining_job53_1,w0,python3action_modeltraining,0.997085,1,2000.000000,1,COMPLETED_SUCCESSFULLY,1.002115,3.471546,4.473661,0.005030,3.476576,1.001449,1,-1.000000,""
python3action_linpack_job29_10,w0,python3action_linpack,0.997085,1,2000.000000,1,COMPLETED_SUCCESSFULLY,1.002250,5.760927,6.763177,0.005165,5.766092,1.000897,11,-1.000000,""
python3action_facedetection_job14_5,w0,python3action_facedetection,0.997085,1,2000.000000,1,COMPLETED_SUCCESSFULLY,1.002175,30.499683,31.501858,0.005090,30.504773,1.000167,6,-1.000000,""
python3action_facedetection_job16_6,w0,python3action_facedetection,0.997085,1,2000.000000,1,COMPLETED_SUCCESSFULLY,1.002190,30.499683,31.501873,0.005105,30.504788,1.000167,7,-1.000000,""
python3action_facedetection_job68_7,w0,python3action_facedetection,0.997085,1,2000.000000,1,COMPLETED_SUCCESSFULLY,1.002205,30.499683,31.501888,0.005120,30.504803,1.000168,8,-1.000000,""
python3action_facedetection_job76_8,w0,python3action_facedetection,0.997085,1,2000.000000,1,COMPLETED_SUCCESSFULLY,1.002220,30.499683,31.501903,0.005135,30.504818,1.000168,9,-1.000000,""
python3action_facedetection_job83_9,w0,python3action_facedetection,0.997085,1,2000.000000,1,COMPLETED_SUCCESSFULLY,1.002235,30.499683,31.501918,0.005150,30.504833,1.000169,10,-1.000000,""
35_updated,w0,python3action_modeltraining_reviews100mb_neowise,0.997085,1,2000.000000,1,COMPLETED_SUCCESSFULLY,4.473661,43.399999,47.873660,3.476576,46.876575,1.080105,0,-1.000000,""
35,w0,python3action_modeltraining_reviews100mb,0.000000,1,-1.000000,1,COMPLETED_SUCCESSFULLY,47.873675,0.000010,47.873685,47.873675,47.873685,4787368.500201,0,-1.000000,""
53_updated,w0,python3action_modeltraining_reviews100mb_neowise,0.997085,1,2000.000000,1,COMPLETED_SUCCESSFULLY,4.473691,43.399999,47.873690,3.476606,46.876605,1.080106,1,-1.000000,""
53,w0,python3action_modeltraining_reviews100mb,0.000000,1,-1.000000,1,COMPLETED_SUCCESSFULLY,47.873720,0.000010,47.873730,47.873720,47.873730,4787373.000402,1,-1.000000,""
python3action_video_processing_job28_2,w0,python3action_video_processing,0.997085,1,2000.000000,1,COMPLETED_SUCCESSFULLY,1.002130,72.012455,73.014585,0.005045,72.017500,1.000070,2,-1.000000,""
python3action_video_processing_job37_11,w0,python3action_video_processing,0.997085,1,2000.000000,1,COMPLETED_SUCCESSFULLY,1.002265,72.012455,73.014720,0.005180,72.017635,1.000072,12,-1.000000,""
python3action_video_processing_job44_12,w0,python3action_video_processing,0.997085,1,2000.000000,1,COMPLETED_SUCCESSFULLY,1.002280,72.012455,73.014735,0.005195,72.017650,1.000072,13,-1.000000,""
63_updated,w0,python3action_modeltraining_reviews100mb_neowise,0.997085,1,2000.000000,1,COMPLETED_SUCCESSFULLY,47.873705,43.399999,91.273704,46.876620,90.276619,2.080106,0,-1.000000,""
63,w0,python3action_modeltraining_reviews100mb,0.000000,1,-1.000000,1,COMPLETED_SUCCESSFULLY,91.273719,0.000010,91.273729,91.273719,91.273729,9127372.900201,0,-1.000000,""
100_updated,w0,python3action_modeltraining_reviews100mb_neowise,0.997085,1,2000.000000,1,COMPLETED_SUCCESSFULLY,47.873750,43.399999,91.273749,46.876665,90.276664,2.080108,1,-1.000000,""
100,w0,python3action_modeltraining_reviews100mb,0.000000,1,-1.000000,1,COMPLETED_SUCCESSFULLY,91.273779,0.000010,91.273789,91.273779,91.273789,9127378.900201,1,-1.000000,""
0_updated,w0,python3action_chameleon_3000_yeti,0.997085,1,2000.000000,1,COMPLETED_SUCCESSFULLY,1.894869,93.000000,94.894869,0.897784,93.897784,1.009654,5,-1.000000,""
0,w0,python3action_chameleon_3000,0.000000,1,-1.000000,1,COMPLETED_SUCCESSFULLY,94.894884,0.000010,94.894894,94.894884,94.894894,9489489.449765,5,-1.000000,""
5_updated,w0,python3action_pyaes_4000_troll,0.997085,1,2000.000000,1,COMPLETED_SUCCESSFULLY,1.870074,102.333333,104.203407,0.872989,103.206322,1.008531,4,-1.000000,""
5,w0,python3action_pyaes_4000,0.000000,1,-1.000000,1,COMPLETED_SUCCESSFULLY,104.203422,0.000010,104.203432,104.203422,104.203432,10420343.233735,4,-1.000000,""
29_updated,w0,python3action_linpack_6000_orion,0.997085,1,2000.000000,1,COMPLETED_SUCCESSFULLY,6.763192,106.000000,112.763192,5.766107,111.766107,1.054397,11,-1.000000,""
29,w0,python3action_linpack_6000,0.000000,1,-1.000000,1,COMPLETED_SUCCESSFULLY,112.763207,0.000010,112.763217,112.763207,112.763217,11276321.725480,11,-1.000000,""
112_updated,w0,python3action_modeltraining_reviews100mb_neowise,0.997085,1,2000.000000,1,COMPLETED_SUCCESSFULLY,91.273749,43.399999,134.673748,90.276664,133.676663,3.080108,0,-1.000000,""
112,w0,python3action_modeltraining_reviews100mb,0.000000,1,-1.000000,1,COMPLETED_SUCCESSFULLY,134.673763,0.000010,134.673773,134.673763,134.673773,13467377.300201,0,-1.000000,""
141_updated,w0,python3action_modeltraining_reviews100mb_neowise,0.997085,1,2000.000000,1,COMPLETED_SUCCESSFULLY,91.273809,43.399999,134.673808,90.276724,133.676723,3.080109,1,-1.000000,""
141,w0,python3action_modeltraining_reviews100mb,0.000000,1,-1.000000,1,COMPLETED_SUCCESSFULLY,134.673823,0.000010,134.673833,134.673823,134.673833,13467383.300201,1,-1.000000,""
python3action_image_processing_job8_2,w0,python3action_image_processing_reduced_0.86,0.997085,1,2000.000000,1,COMPLETED_SUCCESSFULLY,134.673853,0.000000,134.673853,133.676768,133.676768,23996597679370.503906,1,-1.000000,""
8_updated,w0,python3action_imageprocessing_SampleImage_60mb_neowise,0.997085,1,2000.000000,1,COMPLETED_SUCCESSFULLY,134.673883,37.500000,172.173883,133.676798,171.176798,4.564715,1,-1.000000,""
8,w0,python3action_imageprocessing_SampleImage_60mb,0.000000,1,-1.000000,1,COMPLETED_SUCCESSFULLY,172.173898,0.000010,172.173908,172.173898,172.173908,17217390.801205,1,-1.000000,""
150_updated,w0,python3action_modeltraining_reviews100mb_neowise,0.997085,1,2000.000000,1,COMPLETED_SUCCESSFULLY,134.673793,43.399999,178.073792,133.676708,177.076707,4.080109,0,-1.000000,""
150,w0,python3action_modeltraining_reviews100mb,0.000000,1,-1.000000,1,COMPLETED_SUCCESSFULLY,178.073807,0.000010,178.073817,178.073807,178.073817,17807381.700201,0,-1.000000,""
python3action_image_processing_job13_1,w0,python3action_image_processing_reduced_0.86,0.997085,1,2000.000000,1,COMPLETED_SUCCESSFULLY,178.073837,0.000000,178.073837,177.076752,177.076752,31787420055418.234375,0,-1.000000,""
19_updated,w0,python3action_chameleon_3000_yeti,0.997085,1,2000.000000,1,COMPLETED_SUCCESSFULLY,94.894915,93.000000,187.894915,93.897830,186.897830,2.009654,5,-1.000000,""
19,w0,python3action_chameleon_3000,0.000000,1,-1.000000,1,COMPLETED_SUCCESSFULLY,187.894930,0.000010,187.894940,187.894930,187.894940,18789494.000201,5,-1.000000,""
14_updated,w0,python3action_facedetection_SampleVideo_30mb_nova,0.997085,1,2000.000000,1,COMPLETED_SUCCESSFULLY,31.501873,160.399990,191.901863,30.504788,190.904778,1.190179,6,-1.000000,""
14,w0,python3action_facedetection_SampleVideo_30mb,0.000000,1,-1.000000,1,COMPLETED_SUCCESSFULLY,191.901878,0.000010,191.901888,191.901878,191.901888,19190188.800201,6,-1.000000,""
16_updated,w0,python3action_facedetection_SampleVideo_30mb_nova,0.997085,1,2000.000000,1,COMPLETED_SUCCESSFULLY,31.501903,160.399990,191.901893,30.504818,190.904808,1.190180,7,-1.000000,""
68_updated,w0,python3action_facedetection_SampleVideo_30mb_nova,0.997085,1,2000.000000,1,COMPLETED_SUCCESSFULLY,31.501918,160.399990,191.901908,30.504833,190.904823,1.190180,8,-1.000000,""
16,w0,python3action_facedetection_SampleVideo_30mb,0.000000,1,-1.000000,1,COMPLETED_SUCCESSFULLY,191.901923,0.000010,191.901933,191.901923,191.901933,19190193.276581,7,-1.000000,""
76_updated,w0,python3action_facedetection_SampleVideo_30mb_nova,0.997085,1,2000.000000,1,COMPLETED_SUCCESSFULLY,31.501948,160.399990,191.901938,30.504863,190.904853,1.190180,9,-1.000000,""
68,w0,python3action_facedetection_SampleVideo_30mb,0.000000,1,-1.000000,1,COMPLETED_SUCCESSFULLY,191.901953,0.000010,191.901963,191.901953,191.901963,19190196.300201,8,-1.000000,""
83_updated,w0,python3action_facedetection_SampleVideo_30mb_nova,0.997085,1,2000.000000,1,COMPLETED_SUCCESSFULLY,31.501963,160.399990,191.901953,30.504878,190.904868,1.190180,10,-1.000000,""
76,w0,python3action_facedetection_SampleVideo_30mb,0.000000,1,-1.000000,1,COMPLETED_SUCCESSFULLY,191.901998,0.000010,191.902008,191.901998,191.902008,19190200.800803,9,-1.000000,""
83,w0,python3action_facedetection_SampleVideo_30mb,0.000000,1,-1.000000,1,COMPLETED_SUCCESSFULLY,191.902028,0.000010,191.902038,191.902028,191.902038,19190203.801205,10,-1.000000,""
75_updated,w0,python3action_pyaes_4000_troll,0.997085,1,2000.000000,1,COMPLETED_SUCCESSFULLY,104.203452,102.333333,206.536786,103.206367,205.539701,2.008531,4,-1.000000,""
75,w0,python3action_pyaes_4000,0.000000,1,-1.000000,1,COMPLETED_SUCCESSFULLY,206.536801,0.000010,206.536811,206.536801,206.536811,20653681.100201,4,-1.000000,""
17_updated,w0,python3action_imageprocessing_SampleImage_60mb_neowise,0.997085,1,2000.000000,1,COMPLETED_SUCCESSFULLY,172.173928,37.500000,209.673928,171.176843,208.676843,5.564716,1,-1.000000,""
17,w0,python3action_imageprocessing_SampleImage_60mb,0.000000,1,-1.000000,1,COMPLETED_SUCCESSFULLY,209.673943,0.000010,209.673953,209.673943,209.673953,20967395.301807,1,-1.000000,""
13_updated,w0,python3action_imageprocessing_SampleImage_60mb_neowise,0.997085,1,2000.000000,1,COMPLETED_SUCCESSFULLY,178.073867,37.500000,215.573867,177.076782,214.576782,5.722048,0,-1.000000,""
13,w0,python3action_imageprocessing_SampleImage_60mb,0.000000,1,-1.000000,1,COMPLETED_SUCCESSFULLY,215.573882,0.000010,215.573892,215.573882,215.573892,21557389.201205,0,-1.000000,""
36_updated,w0,python3action_linpack_6000_orion,0.997085,1,2000.000000,1,COMPLETED_SUCCESSFULLY,112.763237,106.000000,218.763237,111.766152,217.766152,2.054398,11,-1.000000,""
36,w0,python3action_linpack_6000,0.000000,1,-1.000000,1,COMPLETED_SUCCESSFULLY,218.763252,0.000010,218.763262,218.763252,218.763262,21876326.226082,11,-1.000000,""
28_updated,w0,python3action_videoprocessing_SampleVideo_50mb_taurus,0.997085,1,2000.000000,1,COMPLETED_SUCCESSFULLY,73.014600,154.250029,227.264629,72.017515,226.267544,1.466888,2,-1.000000,""
28,w0,python3action_videoprocessing_SampleVideo_50mb,0.000000,1,-1.000000,1,COMPLETED_SUCCESSFULLY,227.264644,0.000010,227.264654,227.264644,227.264654,22726465.415258,2,-1.000000,""
37_updated,w0,python3action_videoprocessing_SampleVideo_50mb_taurus,0.997085,1,2000.000000,1,COMPLETED_SUCCESSFULLY,73.014735,154.250029,227.264764,72.017650,226.267679,1.466889,12,-1.000000,""
37,w0,python3action_videoprocessing_SampleVideo_50mb,0.000000,1,-1.000000,1,COMPLETED_SUCCESSFULLY,227.264779,0.000010,227.264789,227.264779,227.264789,22726478.917066,12,-1.000000,""
44_updated,w0,python3action_videoprocessing_SampleVideo_50mb_taurus,0.997085,1,2000.000000,1,COMPLETED_SUCCESSFULLY,73.014765,154.250029,227.264794,72.017680,226.267709,1.466889,13,-1.000000,""
44,w0,python3action_videoprocessing_SampleVideo_50mb,0.000000,1,-1.000000,1,COMPLETED_SUCCESSFULLY,227.264824,0.000010,227.264834,227.264824,227.264834,22726483.417668,13,-1.000000,""
31_updated,w0,python3action_imageprocessing_SampleImage_60mb_neowise,0.997085,1,2000.000000,1,COMPLETED_SUCCESSFULLY,209.673973,37.500000,247.173973,208.676888,246.176888,6.564717,1,-1.000000,""
31,w0,python3action_imageprocessing_SampleImage_60mb,0.000000,1,-1.000000,1,COMPLETED_SUCCESSFULLY,247.173988,0.000010,247.173998,247.173988,247.173998,24717399.802410,1,-1.000000,""
20_updated,w0,python3action_imageprocessing_SampleImage_60mb_neowise,0.997085,1,2000.000000,1,COMPLETED_SUCCESSFULLY,215.573912,37.500000,253.073912,214.576827,252.076827,6.722049,0,-1.000000,""
20,w0,python3action_imageprocessing_SampleImage_60mb,0.000000,1,-1.000000,1,COMPLETED_SUCCESSFULLY,253.073927,0.000010,253.073937,253.073927,253.073937,25307393.701807,0,-1.000000,""
39_updated,w0,python3action_chameleon_3000_yeti,0.997085,1,2000.000000,1,COMPLETED_SUCCESSFULLY,187.894960,93.000000,280.894960,186.897875,279.897875,3.009655,5,-1.000000,""
39,w0,python3action_chameleon_3000,0.000000,1,-1.000000,1,COMPLETED_SUCCESSFULLY,280.894975,0.000010,280.894985,280.894975,280.894985,28089498.500803,5,-1.000000,""
102_updated,w0,python3action_imageprocessing_SampleImage_60mb_neowise,0.997085,1,2000.000000,1,COMPLETED_SUCCESSFULLY,247.174018,37.500000,284.674018,246.176933,283.676933,7.564718,1,-1.000000,""
102,w0,python3action_imageprocessing_SampleImage_60mb,0.000000,1,-1.000000,1,COMPLETED_SUCCESSFULLY,284.674033,0.000010,284.674043,284.674033,284.674043,28467404.303012,1,-1.000000,""
56_updated,w0,python3action_imageprocessing_SampleImage_60mb_neowise,0.997085,1,2000.000000,1,COMPLETED_SUCCESSFULLY,253.073957,37.500000,290.573957,252.076872,289.576872,7.722050,0,-1.000000,""
56,w0,python3action_imageprocessing_SampleImage_60mb,0.000000,1,-1.000000,1,COMPLETED_SUCCESSFULLY,290.573972,0.000010,290.573982,290.573972,290.573982,29057398.202410,0,-1.000000,""
107_updated,w0,python3action_pyaes_4000_troll,0.997085,1,2000.000000,1,COMPLETED_SUCCESSFULLY,206.536831,102.333333,308.870164,205.539746,307.873079,3.008532,4,-1.000000,""
107,w0,python3action_pyaes_4000,0.000000,1,-1.000000,1,COMPLETED_SUCCESSFULLY,308.870179,0.000010,308.870189,308.870179,308.870189,30887018.934137,4,-1.000000,""
125_updated,w0,python3action_imageprocessing_SampleImage_60mb_neowise,0.997085,1,2000.000000,1,COMPLETED_SUCCESSFULLY,284.674063,37.500000,322.174063,283.676978,321.176978,8.564719,1,-1.000000,""
125,w0,python3action_imageprocessing_SampleImage_60mb,0.000000,1,-1.000000,1,COMPLETED_SUCCESSFULLY,322.174078,0.000010,322.174088,322.174078,322.174088,32217408.803614,1,-1.000000,""
50_updated,w0,python3action_linpack_6000_orion,0.997085,1,2000.000000,1,COMPLETED_SUCCESSFULLY,218.763282,106.000000,324.763282,217.766197,323.766197,3.054398,11,-1.000000,""
50,w0,python3action_linpack_6000,0.000000,1,-1.000000,1,COMPLETED_SUCCESSFULLY,324.763297,0.000010,324.763307,324.763297,324.763307,32476330.726685,11,-1.000000,""
111_updated,w0,python3action_imageprocessing_SampleImage_60mb_neowise,0.997085,1,2000.000000,1,COMPLETED_SUCCESSFULLY,290.574002,37.500000,328.074002,289.576917,327.076917,8.722051,0,-1.000000,""
111,w0,python3action_imageprocessing_SampleImage_60mb,0.000000,1,-1.000000,1,COMPLETED_SUCCESSFULLY,328.074017,0.000010,328.074027,328.074017,328.074027,32807402.703012,0,-1.000000,""
95_updated,w0,python3action_facedetection_SampleVideo_30mb_nova,0.997085,1,2000.000000,1,COMPLETED_SUCCESSFULLY,191.901908,160.399990,352.301898,190.904823,351.304813,2.190180,6,-1.000000,""
95,w0,python3action_facedetection_SampleVideo_30mb,0.000000,1,-1.000000,1,COMPLETED_SUCCESSFULLY,352.301913,0.000010,352.301923,352.301913,352.301923,35230192.300201,6,-1.000000,""
115_updated,w0,python3action_facedetection_SampleVideo_30mb_nova,0.997085,1,2000.000000,1,COMPLETED_SUCCESSFULLY,191.901968,160.399990,352.301958,190.904883,351.304873,2.190180,7,-1.000000,""
115,w0,python3action_facedetection_SampleVideo_30mb,0.000000,1,-1.000000,1,COMPLETED_SUCCESSFULLY,352.301973,0.000010,352.301983,352.301973,352.301983,35230198.323706,7,-1.000000,""
159_updated,w0,python3action_facedetection_SampleVideo_30mb_nova,0.997085,1,2000.000000,1,COMPLETED_SUCCESSFULLY,191.902013,160.399990,352.302003,190.904928,351.304918,2.190180,8,-1.000000,""
159,w0,python3action_facedetection_SampleVideo_30mb,0.000000,1,-1.000000,1,COMPLETED_SUCCESSFULLY,352.302033,0.000010,352.302043,352.302033,352.302043,35230204.324509,8,-1.000000,""
162_updated,w0,python3action_facedetection_SampleVideo_30mb_nova,0.997085,1,2000.000000,1,COMPLETED_SUCCESSFULLY,191.902058,160.399990,352.302048,190.904973,351.304963,2.190181,9,-1.000000,""
170_updated,w0,python3action_facedetection_SampleVideo_30mb_nova,0.997085,1,2000.000000,1,COMPLETED_SUCCESSFULLY,191.902073,160.399990,352.302063,190.904988,351.304978,2.190181,10,-1.000000,""
162,w0,python3action_facedetection_SampleVideo_30mb,0.000000,1,-1.000000,1,COMPLETED_SUCCESSFULLY,352.302078,0.000010,352.302088,352.302078,352.302088,35230208.825112,9,-1.000000,""
170,w0,python3action_facedetection_SampleVideo_30mb,0.000000,1,-1.000000,1,COMPLETED_SUCCESSFULLY,352.302108,0.000010,352.302118,352.302108,352.302118,35230211.825513,10,-1.000000,""
python3action_pyaes_job1_7,w0,python3action_pyaes,0.997085,1,2000.000000,1,COMPLETED_SUCCESSFULLY,352.302003,2.134958,354.436961,351.304918,353.439876,165.548848,7,-1.000000,""
python3action_pyaes_job38_8,w0,python3action_pyaes,0.997085,1,2000.000000,1,COMPLETED_SUCCESSFULLY,352.302063,2.134958,354.437021,351.304978,353.439936,165.548876,8,-1.000000,""
python3action_pyaes_job42_9,w0,python3action_pyaes,0.997085,1,2000.000000,1,COMPLETED_SUCCESSFULLY,352.302123,2.134958,354.437081,351.305038,353.439996,165.548904,9,-1.000000,""
python3action_pyaes_job97_10,w0,python3action_pyaes,0.997085,1,2000.000000,1,COMPLETED_SUCCESSFULLY,352.302153,2.134958,354.437111,351.305068,353.440026,165.548918,10,-1.000000,""
163_updated,w0,python3action_imageprocessing_SampleImage_60mb_neowise,0.997085,1,2000.000000,1,COMPLETED_SUCCESSFULLY,322.174108,37.500000,359.674108,321.177023,358.677023,9.564721,1,-1.000000,""
163,w0,python3action_imageprocessing_SampleImage_60mb,0.000000,1,-1.000000,1,COMPLETED_SUCCESSFULLY,359.674123,0.000010,359.674133,359.674123,359.674133,35967413.304217,1,-1.000000,""
149_updated,w0,python3action_imageprocessing_SampleImage_60mb_neowise,0.997085,1,2000.000000,1,COMPLETED_SUCCESSFULLY,328.074047,37.500000,365.574047,327.076962,364.576962,9.722052,0,-1.000000,""
149,w0,python3action_imageprocessing_SampleImage_60mb,0.000000,1,-1.000000,1,COMPLETED_SUCCESSFULLY,365.574062,0.000010,365.574072,365.574062,365.574072,36557407.203615,0,-1.000000,""
147_updated,w0,python3action_chameleon_3000_yeti,0.997085,1,2000.000000,1,COMPLETED_SUCCESSFULLY,280.895005,93.000000,373.895005,279.897920,372.897920,4.009655,5,-1.000000,""
147,w0,python3action_chameleon_3000,0.000000,1,-1.000000,1,COMPLETED_SUCCESSFULLY,373.895020,0.000010,373.895030,373.895020,373.895030,37389503.001406,5,-1.000000,""
64_updated,w0,python3action_videoprocessing_SampleVideo_50mb_taurus,0.997085,1,2000.000000,1,COMPLETED_SUCCESSFULLY,227.264674,154.250029,381.514703,226.267589,380.517618,2.466888,2,-1.000000,""
64,w0,python3action_videoprocessing_SampleVideo_50mb,0.000000,1,-1.000000,1,COMPLETED_SUCCESSFULLY,381.514718,0.000010,381.514728,381.514718,381.514728,38151472.800201,2,-1.000000,""
69_updated,w0,python3action_videoprocessing_SampleVideo_50mb_taurus,0.997085,1,2000.000000,1,COMPLETED_SUCCESSFULLY,227.264809,154.250029,381.514838,226.267724,380.517753,2.466889,12,-1.000000,""
69,w0,python3action_videoprocessing_SampleVideo_50mb,0.000000,1,-1.000000,1,COMPLETED_SUCCESSFULLY,381.514853,0.000010,381.514863,381.514853,381.514863,38151486.300842,12,-1.000000,""
72_updated,w0,python3action_videoprocessing_SampleVideo_50mb_taurus,0.997085,1,2000.000000,1,COMPLETED_SUCCESSFULLY,227.264854,154.250029,381.514883,226.267769,380.517798,2.466890,13,-1.000000,""
72,w0,python3action_videoprocessing_SampleVideo_50mb,0.000000,1,-1.000000,1,COMPLETED_SUCCESSFULLY,381.514913,0.000010,381.514923,381.514913,381.514923,38151492.301645,13,-1.000000,""
184_updated,w0,python3action_imageprocessing_SampleImage_60mb_neowise,0.997085,1,2000.000000,1,COMPLETED_SUCCESSFULLY,359.674153,37.500000,397.174153,358.677068,396.177068,10.564722,1,-1.000000,""
184,w0,python3action_imageprocessing_SampleImage_60mb,0.000000,1,-1.000000,1,COMPLETED_SUCCESSFULLY,397.174168,0.000010,397.174178,397.174168,397.174178,39717417.804819,1,-1.000000,""
python3action_chameleon_job9_2,w0,python3action_chameleon,0.997085,1,2000.000000,1,COMPLETED_SUCCESSFULLY,397.174198,0.243006,397.417204,396.177113,396.420119,1631.318355,1,-1.000000,""
179_updated,w0,python3action_imageprocessing_SampleImage_60mb_neowise,0.997085,1,2000.000000,1,COMPLETED_SUCCESSFULLY,365.574092,37.500000,403.074092,364.577007,402.077007,10.722054,0,-1.000000,""
179,w0,python3action_imageprocessing_SampleImage_60mb,0.000000,1,-1.000000,1,COMPLETED_SUCCESSFULLY,403.074107,0.000010,403.074117,403.074107,403.074117,40307411.704217,0,-1.000000,""
python3action_chameleon_job4_1,w0,python3action_chameleon,0.997085,1,2000.000000,1,COMPLETED_SUCCESSFULLY,403.074137,0.243006,403.317143,402.077052,402.320058,1655.597341,0,-1.000000,""
110_updated,w0,python3action_pyaes_4000_troll,0.997085,1,2000.000000,1,COMPLETED_SUCCESSFULLY,308.870209,102.333333,411.203543,307.873124,410.206458,4.008532,4,-1.000000,""
110,w0,python3action_pyaes_4000,0.000000,1,-1.000000,1,COMPLETED_SUCCESSFULLY,411.203558,0.000010,411.203568,411.203558,411.203568,41120356.800201,4,-1.000000,""
9_updated,w0,python3action_chameleon_2000_neowise,0.997085,1,2000.000000,1,COMPLETED_SUCCESSFULLY,397.417219,24.200002,421.617221,396.420134,420.620136,17.380996,1,-1.000000,""
9,w0,python3action_chameleon_2000,0.000000,1,-1.000000,1,COMPLETED_SUCCESSFULLY,421.617236,0.000010,421.617246,421.617236,421.617246,42161724.626224,1,-1.000000,""
4_updated,w0,python3action_chameleon_2000_neowise,0.997085,1,2000.000000,1,COMPLETED_SUCCESSFULLY,403.317158,24.200002,427.517160,402.320073,426.520075,17.624795,0,-1.000000,""
4,w0,python3action_chameleon_2000,0.000000,1,-1.000000,1,COMPLETED_SUCCESSFULLY,427.517175,0.000010,427.517185,427.517175,427.517185,42751718.525622,0,-1.000000,""
57_updated,w0,python3action_linpack_6000_orion,0.997085,1,2000.000000,1,COMPLETED_SUCCESSFULLY,324.763327,106.000000,430.763327,323.766242,429.766242,4.054399,11,-1.000000,""
57,w0,python3action_linpack_6000,0.000000,1,-1.000000,1,COMPLETED_SUCCESSFULLY,430.763342,0.000010,430.763352,430.763342,430.763352,43076335.227287,11,-1.000000,""
22_updated,w0,python3action_chameleon_2000_neowise,0.997085,1,2000.000000,1,COMPLETED_SUCCESSFULLY,421.617266,24.200002,445.817268,420.620181,444.820183,18.380998,1,-1.000000,""
22,w0,python3action_chameleon_2000,0.000000,1,-1.000000,1,COMPLETED_SUCCESSFULLY,445.817283,0.000010,445.817293,445.817283,445.817293,44581729.349212,1,-1.000000,""
18_updated,w0,python3action_chameleon_2000_neowise,0.997085,1,2000.000000,1,COMPLETED_SUCCESSFULLY,427.517205,24.200002,451.717207,426.520120,450.720122,18.624797,0,-1.000000,""
18,w0,python3action_chameleon_2000,0.000000,1,-1.000000,1,COMPLETED_SUCCESSFULLY,451.717222,0.000010,451.717232,451.717222,451.717232,45171723.248610,0,-1.000000,""
167_updated,w0,python3action_chameleon_3000_yeti,0.997085,1,2000.000000,1,COMPLETED_SUCCESSFULLY,373.895050,93.000000,466.895050,372.897965,465.897965,5.009656,5,-1.000000,""
167,w0,python3action_chameleon_3000,0.000000,1,-1.000000,1,COMPLETED_SUCCESSFULLY,466.895065,0.000010,466.895075,466.895065,466.895075,46689507.502008,5,-1.000000,""
54_updated,w0,python3action_chameleon_2000_neowise,0.997085,1,2000.000000,1,COMPLETED_SUCCESSFULLY,445.817313,24.200002,470.017316,444.820228,469.020231,19.380999,1,-1.000000,""
54,w0,python3action_chameleon_2000,0.000000,1,-1.000000,1,COMPLETED_SUCCESSFULLY,470.017331,0.000010,470.017341,470.017331,470.017341,47001734.100201,1,-1.000000,""
25_updated,w0,python3action_chameleon_2000_neowise,0.997085,1,2000.000000,1,COMPLETED_SUCCESSFULLY,451.717252,24.200002,475.917255,450.720167,474.920170,19.624799,0,-1.000000,""
25,w0,python3action_chameleon_2000,0.000000,1,-1.000000,1,COMPLETED_SUCCESSFULLY,475.917270,0.000010,475.917280,475.917270,475.917280,47591728.000201,0,-1.000000,""
1_updated,w0,python3action_pyaes_4000_nova,0.997085,1,2000.000000,1,COMPLETED_SUCCESSFULLY,354.436976,139.600010,494.036986,353.439891,493.039901,3.531804,7,-1.000000,""
1,w0,python3action_pyaes_4000,0.000000,1,-1.000000,1,COMPLETED_SUCCESSFULLY,494.037001,0.000010,494.037011,494.037001,494.037011,49403701.125174,7,-1.000000,""
38_updated,w0,python3action_pyaes_4000_nova,0.997085,1,2000.000000,1,COMPLETED_SUCCESSFULLY,354.437036,139.600010,494.037046,353.439951,493.039961,3.531805,8,-1.000000,""
38,w0,python3action_pyaes_4000,0.000000,1,-1.000000,1,COMPLETED_SUCCESSFULLY,494.037061,0.000010,494.037071,494.037061,494.037071,49403707.125977,8,-1.000000,""
42_updated,w0,python3action_pyaes_4000_nova,0.997085,1,2000.000000,1,COMPLETED_SUCCESSFULLY,354.437096,139.600010,494.037106,353.440011,493.040021,3.531805,9,-1.000000,""
42,w0,python3action_pyaes_4000,0.000000,1,-1.000000,1,COMPLETED_SUCCESSFULLY,494.037121,0.000010,494.037131,494.037121,494.037131,49403713.126780,9,-1.000000,""
97_updated,w0,python3action_pyaes_4000_nova,0.997085,1,2000.000000,1,COMPLETED_SUCCESSFULLY,354.437127,139.600010,494.037136,353.440042,493.040051,3.531805,10,-1.000000,""
97,w0,python3action_pyaes_4000,0.000000,1,-1.000000,1,COMPLETED_SUCCESSFULLY,494.037166,0.000010,494.037176,494.037166,494.037176,49403717.627383,10,-1.000000,""
93_updated,w0,python3action_chameleon_2000_neowise,0.997085,1,2000.000000,1,COMPLETED_SUCCESSFULLY,470.017361,24.200002,494.217363,469.020276,493.220278,20.381001,1,-1.000000,""
93,w0,python3action_chameleon_2000,0.000000,1,-1.000000,1,COMPLETED_SUCCESSFULLY,494.217378,0.000010,494.217388,494.217378,494.217388,49421738.823189,1,-1.000000,""
python3action_floatoperation_job7_7,w0,python3action_floatoperation,0.997085,1,2000.000000,1,COMPLETED_SUCCESSFULLY,494.037031,2.439945,496.476977,493.039946,495.479892,203.070082,7,-1.000000,""
python3action_floatoperation_job40_8,w0,python3action_floatoperation,0.997085,1,2000.000000,1,COMPLETED_SUCCESSFULLY,494.037091,2.439945,496.477037,493.040006,495.479952,203.070107,8,-1.000000,""
python3action_floatoperation_job45_9,w0,python3action_floatoperation,0.997085,1,2000.000000,1,COMPLETED_SUCCESSFULLY,494.037151,2.439945,496.477097,493.040066,495.480012,203.070131,9,-1.000000,""
python3action_floatoperation_job70_10,w0,python3action_floatoperation,0.997085,1,2000.000000,1,COMPLETED_SUCCESSFULLY,494.037196,2.439945,496.477142,493.040111,495.480057,203.070150,10,-1.000000,""
58_updated,w0,python3action_chameleon_2000_neowise,0.997085,1,2000.000000,1,COMPLETED_SUCCESSFULLY,475.917300,24.200002,500.117302,474.920215,499.120217,20.624800,0,-1.000000,""
58,w0,python3action_chameleon_2000,0.000000,1,-1.000000,1,COMPLETED_SUCCESSFULLY,500.117317,0.000010,500.117327,500.117317,500.117327,50011732.723189,0,-1.000000,""
195_updated,w0,python3action_facedetection_SampleVideo_30mb_nova,0.997085,1,2000.000000,1,COMPLETED_SUCCESSFULLY,352.301943,160.399990,512.701933,351.304858,511.704848,3.190180,6,-1.000000,""
195,w0,python3action_facedetection_SampleVideo_30mb,0.000000,1,-1.000000,1,COMPLETED_SUCCESSFULLY,512.701948,0.000010,512.701958,512.701948,512.701958,51270195.823907,6,-1.000000,""
113_updated,w0,python3action_pyaes_4000_troll,0.997085,1,2000.000000,1,COMPLETED_SUCCESSFULLY,411.203588,102.333333,513.536921,410.206503,512.539836,5.008533,4,-1.000000,""
113,w0,python3action_pyaes_4000,0.000000,1,-1.000000,1,COMPLETED_SUCCESSFULLY,513.536936,0.000010,513.536946,513.536936,513.536946,51353694.634137,4,-1.000000,""
python3action_pyaes_job158_6,w0,python3action_pyaes,0.997085,1,2000.000000,1,COMPLETED_SUCCESSFULLY,512.701978,2.134958,514.836936,511.704893,513.839851,240.679111,6,-1.000000,""
120_updated,w0,python3action_chameleon_2000_neowise,0.997085,1,2000.000000,1,COMPLETED_SUCCESSFULLY,494.217408,24.200002,518.417410,493.220323,517.420325,21.381003,1,-1.000000,""
120,w0,python3action_chameleon_2000,0.000000,1,-1.000000,1,COMPLETED_SUCCESSFULLY,518.417425,0.000010,518.417435,518.417425,518.417435,51841743.546176,1,-1.000000,""
116_updated,w0,python3action_chameleon_2000_neowise,0.997085,1,2000.000000,1,COMPLETED_SUCCESSFULLY,500.117347,24.200002,524.317349,499.120262,523.320264,21.624802,0,-1.000000,""
116,w0,python3action_chameleon_2000,0.000000,1,-1.000000,1,COMPLETED_SUCCESSFULLY,524.317364,0.000010,524.317374,524.317364,524.317374,52431737.446176,0,-1.000000,""
85_updated,w0,python3action_videoprocessing_SampleVideo_50mb_taurus,0.997085,1,2000.000000,1,COMPLETED_SUCCESSFULLY,381.514748,154.250029,535.764777,380.517663,534.767692,3.466889,2,-1.000000,""
85,w0,python3action_videoprocessing_SampleVideo_50mb,0.000000,1,-1.000000,1,COMPLETED_SUCCESSFULLY,535.764792,0.000010,535.764802,535.764792,535.764802,53576480.200201,2,-1.000000,""
86_updated,w0,python3action_videoprocessing_SampleVideo_50mb_taurus,0.997085,1,2000.000000,1,COMPLETED_SUCCESSFULLY,381.514883,154.250029,535.764912,380.517798,534.767827,3.466890,12,-1.000000,""
86,w0,python3action_videoprocessing_SampleVideo_50mb,0.000000,1,-1.000000,1,COMPLETED_SUCCESSFULLY,535.764927,0.000010,535.764937,535.764927,535.764937,53576493.700201,12,-1.000000,""
87_updated,w0,python3action_videoprocessing_SampleVideo_50mb_taurus,0.997085,1,2000.000000,1,COMPLETED_SUCCESSFULLY,381.514943,154.250029,535.764972,380.517858,534.767887,3.466890,13,-1.000000,""
87,w0,python3action_videoprocessing_SampleVideo_50mb,0.000000,1,-1.000000,1,COMPLETED_SUCCESSFULLY,535.764987,0.000010,535.764997,535.764987,535.764997,53576499.700201,13,-1.000000,""
67_updated,w0,python3action_linpack_6000_orion,0.997085,1,2000.000000,1,COMPLETED_SUCCESSFULLY,430.763372,106.000000,536.763372,429.766287,535.766287,5.054399,11,-1.000000,""
67,w0,python3action_linpack_6000,0.000000,1,-1.000000,1,COMPLETED_SUCCESSFULLY,536.763387,0.000010,536.763397,536.763387,536.763397,53676339.727890,11,-1.000000,""
151_updated,w0,python3action_chameleon_2000_neowise,0.997085,1,2000.000000,1,COMPLETED_SUCCESSFULLY,518.417455,24.200002,542.617458,517.420370,541.620373,22.381005,1,-1.000000,""
151,w0,python3action_chameleon_2000,0.000000,1,-1.000000,1,COMPLETED_SUCCESSFULLY,542.617473,0.000010,542.617483,542.617473,542.617483,54261748.300201,1,-1.000000,""
126_updated,w0,python3action_chameleon_2000_neowise,0.997085,1,2000.000000,1,COMPLETED_SUCCESSFULLY,524.317394,24.200002,548.517397,523.320309,547.520312,22.624804,0,-1.000000,""
126,w0,python3action_chameleon_2000,0.000000,1,-1.000000,1,COMPLETED_SUCCESSFULLY,548.517412,0.000010,548.517422,548.517412,548.517422,54851742.200201,0,-1.000000,""
171_updated,w0,python3action_chameleon_3000_yeti,0.997085,1,2000.000000,1,COMPLETED_SUCCESSFULLY,466.895095,93.000000,559.895095,465.898010,558.898010,6.009656,5,-1.000000,""
171,w0,python3action_chameleon_3000,0.000000,1,-1.000000,1,COMPLETED_SUCCESSFULLY,559.895110,0.000010,559.895120,559.895110,559.895120,55989512.002611,5,-1.000000,""
181_updated,w0,python3action_chameleon_2000_neowise,0.997085,1,2000.000000,1,COMPLETED_SUCCESSFULLY,542.617503,24.200002,566.817505,541.620418,565.820420,23.381007,1,-1.000000,""
181,w0,python3action_chameleon_2000,0.000000,1,-1.000000,1,COMPLETED_SUCCESSFULLY,566.817520,0.000010,566.817530,566.817520,566.817530,56681753.023188,1,-1.000000,""
175_updated,w0,python3action_chameleon_2000_neowise,0.997085,1,2000.000000,1,COMPLETED_SUCCESSFULLY,548.517442,24.200002,572.717444,547.520357,571.720359,23.624806,0,-1.000000,""
175,w0,python3action_chameleon_2000,0.000000,1,-1.000000,1,COMPLETED_SUCCESSFULLY,572.717459,0.000010,572.717469,572.717459,572.717469,57271746.923188,0,-1.000000,""
24_updated,w0,python3action_modeltraining_reviews50mb_neowise,0.997085,1,2000.000000,1,COMPLETED_SUCCESSFULLY,566.817550,22.799998,589.617548,565.820465,588.620463,25.816689,1,-1.000000,""
24,w0,python3action_modeltraining_reviews50mb,0.000000,1,-1.000000,1,COMPLETED_SUCCESSFULLY,589.617563,0.000010,589.617573,589.617563,589.617573,58961757.301406,1,-1.000000,""
197_updated,w0,python3action_chameleon_2000_neowise,0.997085,1,2000.000000,1,COMPLETED_SUCCESSFULLY,572.717489,24.200002,596.917491,571.720404,595.920406,24.624808,0,-1.000000,""
197,w0,python3action_chameleon_2000,0.000000,1,-1.000000,1,COMPLETED_SUCCESSFULLY,596.917506,0.000010,596.917516,596.917506,596.917516,59691751.646176,0,-1.000000,""
101_updated,w0,python3action_modeltraining_reviews50mb_neowise,0.997085,1,2000.000000,1,COMPLETED_SUCCESSFULLY,589.617593,22.799998,612.417591,588.620508,611.420506,26.816691,1,-1.000000,""
101,w0,python3action_modeltraining_reviews50mb,0.000000,1,-1.000000,1,COMPLETED_SUCCESSFULLY,612.417606,0.000010,612.417616,612.417606,612.417616,61241761.600201,1,-1.000000,""
124_updated,w0,python3action_pyaes_4000_troll,0.997085,1,2000.000000,1,COMPLETED_SUCCESSFULLY,513.536966,102.333333,615.870300,512.539881,614.873215,6.008533,4,-1.000000,""
124,w0,python3action_pyaes_4000,0.000000,1,-1.000000,1,COMPLETED_SUCCESSFULLY,615.870315,0.000010,615.870325,615.870315,615.870325,61587032.500201,4,-1.000000,""
27_updated,w0,python3action_modeltraining_reviews50mb_neowise,0.997085,1,2000.000000,1,COMPLETED_SUCCESSFULLY,596.917536,22.799998,619.717534,595.920451,618.720449,27.136864,0,-1.000000,""
27,w0,python3action_modeltraining_reviews50mb,0.000000,1,-1.000000,1,COMPLETED_SUCCESSFULLY,619.717549,0.000010,619.717559,619.717549,619.717559,61971755.924393,0,-1.000000,""
7_updated,w0,python3action_floatoperation_200000000_nova,0.997085,1,2000.000000,1,COMPLETED_SUCCESSFULLY,496.476992,135.399990,631.876982,495.479907,630.879897,4.659379,7,-1.000000,""
7,w0,python3action_floatoperation_200000000,0.000000,1,-1.000000,1,COMPLETED_SUCCESSFULLY,631.876997,0.000010,631.877007,631.876997,631.877007,63187700.723505,7,-1.000000,""
40_updated,w0,python3action_floatoperation_200000000_nova,0.997085,1,2000.000000,1,COMPLETED_SUCCESSFULLY,496.477052,135.399990,631.877042,495.479967,630.879957,4.659380,8,-1.000000,""
40,w0,python3action_floatoperation_200000000,0.000000,1,-1.000000,1,COMPLETED_SUCCESSFULLY,631.877057,0.000010,631.877067,631.877057,631.877067,63187706.723706,8,-1.000000,""
45_updated,w0,python3action_floatoperation_200000000_nova,0.997085,1,2000.000000,1,COMPLETED_SUCCESSFULLY,496.477112,135.399990,631.877102,495.480027,630.880017,4.659380,9,-1.000000,""
45,w0,python3action_floatoperation_200000000,0.000000,1,-1.000000,1,COMPLETED_SUCCESSFULLY,631.877117,0.000010,631.877127,631.877117,631.877127,63187712.723706,9,-1.000000,""
70_updated,w0,python3action_floatoperation_200000000_nova,0.997085,1,2000.000000,1,COMPLETED_SUCCESSFULLY,496.477157,135.399990,631.877147,495.480072,630.880062,4.659380,10,-1.000000,""
70,w0,python3action_floatoperation_200000000,0.000000,1,-1.000000,1,COMPLETED_SUCCESSFULLY,631.877177,0.000010,631.877187,631.877177,631.877187,63187718.723907,10,-1.000000,""
157_updated,w0,python3action_modeltraining_reviews50mb_neowise,0.997085,1,2000.000000,1,COMPLETED_SUCCESSFULLY,612.417636,22.799998,635.217634,611.420551,634.220549,27.816693,1,-1.000000,""
157,w0,python3action_modeltraining_reviews50mb,0.000000,1,-1.000000,1,COMPLETED_SUCCESSFULLY,635.217649,0.000010,635.217659,635.217649,635.217659,63521765.900201,1,-1.000000,""
108_updated,w0,python3action_modeltraining_reviews50mb_neowise,0.997085,1,2000.000000,1,COMPLETED_SUCCESSFULLY,619.717579,22.799998,642.517577,618.720494,641.520492,28.136866,0,-1.000000,""
108,w0,python3action_modeltraining_reviews50mb,0.000000,1,-1.000000,1,COMPLETED_SUCCESSFULLY,642.517592,0.000010,642.517602,642.517592,642.517602,64251760.202610,0,-1.000000,""
77_updated,w0,python3action_linpack_6000_orion,0.997085,1,2000.000000,1,COMPLETED_SUCCESSFULLY,536.763417,106.000000,642.763417,535.766332,641.766332,6.054399,11,-1.000000,""
77,w0,python3action_linpack_6000,0.000000,1,-1.000000,1,COMPLETED_SUCCESSFULLY,642.763432,0.000010,642.763442,642.763432,642.763442,64276344.228492,11,-1.000000,""
158_updated,w0,python3action_pyaes_4000_nova,0.997085,1,2000.000000,1,COMPLETED_SUCCESSFULLY,514.836951,139.600010,654.436961,513.839866,653.439876,4.680801,6,-1.000000,""
158,w0,python3action_pyaes_4000,0.000000,1,-1.000000,1,COMPLETED_SUCCESSFULLY,654.436976,0.000010,654.436986,654.436976,654.436986,65443698.625375,6,-1.000000,""
python3action_floatoperation_job114_6,w0,python3action_floatoperation,0.997085,1,2000.000000,1,COMPLETED_SUCCESSFULLY,654.437006,2.439945,656.876952,653.439921,655.879867,268.809251,6,-1.000000,""
182_updated,w0,python3action_modeltraining_reviews50mb_neowise,0.997085,1,2000.000000,1,COMPLETED_SUCCESSFULLY,635.217679,22.799998,658.017677,634.220594,657.020592,28.816695,1,-1.000000,""
182,w0,python3action_modeltraining_reviews50mb,0.000000,1,-1.000000,1,COMPLETED_SUCCESSFULLY,658.017692,0.000010,658.017702,658.017692,658.017702,65801770.200201,1,-1.000000,""
180_updated,w0,python3action_modeltraining_reviews50mb_neowise,0.997085,1,2000.000000,1,COMPLETED_SUCCESSFULLY,642.517622,22.799998,665.317620,641.520537,664.320535,29.136868,0,-1.000000,""
180,w0,python3action_modeltraining_reviews50mb,0.000000,1,-1.000000,1,COMPLETED_SUCCESSFULLY,665.317635,0.000010,665.317645,665.317635,665.317645,66531764.500201,0,-1.000000,""
194_updated,w0,python3action_modeltraining_reviews50mb_neowise,0.997085,1,2000.000000,1,COMPLETED_SUCCESSFULLY,658.017722,22.799998,680.817720,657.020637,679.820635,29.816697,1,-1.000000,""
194,w0,python3action_modeltraining_reviews50mb,0.000000,1,-1.000000,1,COMPLETED_SUCCESSFULLY,680.817735,0.000010,680.817745,680.817735,680.817745,68081774.500201,1,-1.000000,""
192_updated,w0,python3action_modeltraining_reviews50mb_neowise,0.997085,1,2000.000000,1,COMPLETED_SUCCESSFULLY,665.317665,22.799998,688.117663,664.320580,687.120578,30.136870,0,-1.000000,""
192,w0,python3action_modeltraining_reviews50mb,0.000000,1,-1.000000,1,COMPLETED_SUCCESSFULLY,688.117678,0.000010,688.117688,688.117678,688.117688,68811768.800201,0,-1.000000,""
90_updated,w0,python3action_videoprocessing_SampleVideo_50mb_taurus,0.997085,1,2000.000000,1,COMPLETED_SUCCESSFULLY,535.764822,154.250029,690.014851,534.767737,689.017766,4.466889,2,-1.000000,""
90,w0,python3action_videoprocessing_SampleVideo_50mb,0.000000,1,-1.000000,1,COMPLETED_SUCCESSFULLY,690.014866,0.000010,690.014876,690.014866,690.014876,69001487.600201,2,-1.000000,""
117_updated,w0,python3action_videoprocessing_SampleVideo_50mb_taurus,0.997085,1,2000.000000,1,COMPLETED_SUCCESSFULLY,535.764957,154.250029,690.014986,534.767872,689.017901,4.466890,12,-1.000000,""
117,w0,python3action_videoprocessing_SampleVideo_50mb,0.000000,1,-1.000000,1,COMPLETED_SUCCESSFULLY,690.015001,0.000010,690.015011,690.015001,690.015011,69001501.100201,12,-1.000000,""
122_updated,w0,python3action_videoprocessing_SampleVideo_50mb_taurus,0.997085,1,2000.000000,1,COMPLETED_SUCCESSFULLY,535.765017,154.250029,690.015046,534.767932,689.017961,4.466890,13,-1.000000,""
122,w0,python3action_videoprocessing_SampleVideo_50mb,0.000000,1,-1.000000,1,COMPLETED_SUCCESSFULLY,690.015061,0.000010,690.015071,690.015061,690.015071,69001507.100201,13,-1.000000,""
142_updated,w0,python3action_pyaes_4000_troll,0.997085,1,2000.000000,1,COMPLETED_SUCCESSFULLY,615.870345,102.333333,718.203678,614.873260,717.206593,7.008533,4,-1.000000,""
142,w0,python3action_pyaes_4000,0.000000,1,-1.000000,1,COMPLETED_SUCCESSFULLY,718.203693,0.000010,718.203703,718.203693,718.203703,71820370.334136,4,-1.000000,""
79_updated,w0,python3action_linpack_6000_orion,0.997085,1,2000.000000,1,COMPLETED_SUCCESSFULLY,642.763462,106.000000,748.763462,641.766377,747.766377,7.054400,11,-1.000000,""
79,w0,python3action_linpack_6000,0.000000,1,-1.000000,1,COMPLETED_SUCCESSFULLY,748.763477,0.000010,748.763487,748.763477,748.763487,74876348.729094,11,-1.000000,""
133_updated,w0,python3action_floatoperation_200000000_nova,0.997085,1,2000.000000,1,COMPLETED_SUCCESSFULLY,631.877027,135.399990,767.277017,630.879942,766.279932,5.659380,7,-1.000000,""
133,w0,python3action_floatoperation_200000000,0.000000,1,-1.000000,1,COMPLETED_SUCCESSFULLY,767.277032,0.000010,767.277042,767.277032,767.277042,76727704.247211,7,-1.000000,""
144_updated,w0,python3action_floatoperation_200000000_nova,0.997085,1,2000.000000,1,COMPLETED_SUCCESSFULLY,631.877087,135.399990,767.277077,630.880002,766.279992,5.659380,8,-1.000000,""
144,w0,python3action_floatoperation_200000000,0.000000,1,-1.000000,1,COMPLETED_SUCCESSFULLY,767.277092,0.000010,767.277102,767.277092,767.277102,76727710.247613,8,-1.000000,""
161_updated,w0,python3action_floatoperation_200000000_nova,0.997085,1,2000.000000,1,COMPLETED_SUCCESSFULLY,631.877147,135.399990,767.277137,630.880062,766.280052,5.659380,9,-1.000000,""
161,w0,python3action_floatoperation_200000000,0.000000,1,-1.000000,1,COMPLETED_SUCCESSFULLY,767.277152,0.000010,767.277162,767.277152,767.277162,76727716.247010,9,-1.000000,""
185_updated,w0,python3action_floatoperation_200000000_nova,0.997085,1,2000.000000,1,COMPLETED_SUCCESSFULLY,631.877207,135.399990,767.277197,630.880122,766.280112,5.659381,10,-1.000000,""
185,w0,python3action_floatoperation_200000000,0.000000,1,-1.000000,1,COMPLETED_SUCCESSFULLY,767.277212,0.000010,767.277222,767.277212,767.277222,76727722.247813,10,-1.000000,""
python3action_video_processing_job26_7,w0,python3action_video_processing_reduced_0.91,0.997085,1,2000.000000,1,COMPLETED_SUCCESSFULLY,767.277062,2.614259,769.891321,766.279977,768.894236,294.115611,7,-1.000000,""
python3action_video_processing_job30_8,w0,python3action_video_processing_reduced_0.91,0.997085,1,2000.000000,1,COMPLETED_SUCCESSFULLY,767.277122,2.614259,769.891381,766.280037,768.894296,294.115634,8,-1.000000,""
python3action_video_processing_job32_9,w0,python3action_video_processing_reduced_0.91,0.997085,1,2000.000000,1,COMPLETED_SUCCESSFULLY,767.277182,2.614259,769.891441,766.280097,768.894356,294.115657,9,-1.000000,""
python3action_video_processing_job34_10,w0,python3action_video_processing_reduced_0.91,0.997085,1,2000.000000,1,COMPLETED_SUCCESSFULLY,767.277242,2.614259,769.891501,766.280157,768.894416,294.115680,10,-1.000000,""
114_updated,w0,python3action_floatoperation_200000000_nova,0.997085,1,2000.000000,1,COMPLETED_SUCCESSFULLY,656.876967,135.399990,792.276957,655.879882,791.279872,5.844017,6,-1.000000,""
114,w0,python3action_floatoperation_200000000,0.000000,1,-1.000000,1,COMPLETED_SUCCESSFULLY,792.276972,0.000010,792.276982,792.276972,792.276982,79227698.223505,6,-1.000000,""
python3action_video_processing_job12_6,w0,python3action_video_processing_reduced_0.91,0.997085,1,2000.000000,1,COMPLETED_SUCCESSFULLY,792.277002,2.614259,794.891261,791.279917,793.894176,303.678529,6,-1.000000,""
198_updated,w0,python3action_pyaes_4000_troll,0.997085,1,2000.000000,1,COMPLETED_SUCCESSFULLY,718.203723,102.333333,820.537057,717.206638,819.539972,8.008534,4,-1.000000,""
198,w0,python3action_pyaes_4000,0.000000,1,-1.000000,1,COMPLETED_SUCCESSFULLY,820.537072,0.000010,820.537082,820.537072,820.537082,82053708.200201,4,-1.000000,""
139_updated,w0,python3action_videoprocessing_SampleVideo_50mb_taurus,0.997085,1,2000.000000,1,COMPLETED_SUCCESSFULLY,690.014896,154.250029,844.264925,689.017811,843.267840,5.466889,2,-1.000000,""
139,w0,python3action_videoprocessing_SampleVideo_50mb,0.000000,1,-1.000000,1,COMPLETED_SUCCESSFULLY,844.264940,0.000010,844.264950,844.264940,844.264950,84426495.000201,2,-1.000000,""
187_updated,w0,python3action_videoprocessing_SampleVideo_50mb_taurus,0.997085,1,2000.000000,1,COMPLETED_SUCCESSFULLY,690.015031,154.250029,844.265060,689.017946,843.267975,5.466890,12,-1.000000,""
187,w0,python3action_videoprocessing_SampleVideo_50mb,0.000000,1,-1.000000,1,COMPLETED_SUCCESSFULLY,844.265075,0.000010,844.265085,844.265075,844.265085,84426508.500201,12,-1.000000,""
188_updated,w0,python3action_videoprocessing_SampleVideo_50mb_taurus,0.997085,1,2000.000000,1,COMPLETED_SUCCESSFULLY,690.015091,154.250029,844.265120,689.018006,843.268035,5.466891,13,-1.000000,""
188,w0,python3action_videoprocessing_SampleVideo_50mb,0.000000,1,-1.000000,1,COMPLETED_SUCCESSFULLY,844.265135,0.000010,844.265145,844.265135,844.265145,84426514.500201,13,-1.000000,""
python3action_facedetection_job23_3,w0,python3action_facedetection_reduced_0.91,0.997085,1,2000.000000,1,COMPLETED_SUCCESSFULLY,844.264970,6.172496,850.437466,843.267885,849.440381,137.616996,2,-1.000000,""
python3action_facedetection_job43_12,w0,python3action_facedetection_reduced_0.91,0.997085,1,2000.000000,1,COMPLETED_SUCCESSFULLY,844.265105,6.172496,850.437601,843.268020,849.440516,137.617018,12,-1.000000,""
python3action_facedetection_job52_13,w0,python3action_facedetection_reduced_0.91,0.997085,1,2000.000000,1,COMPLETED_SUCCESSFULLY,844.265165,6.172496,850.437661,843.268080,849.440576,137.617028,13,-1.000000,""
91_updated,w0,python3action_linpack_6000_orion,0.997085,1,2000.000000,1,COMPLETED_SUCCESSFULLY,748.763507,106.000000,854.763507,747.766422,853.766422,8.054400,11,-1.000000,""
91,w0,python3action_linpack_6000,0.000000,1,-1.000000,1,COMPLETED_SUCCESSFULLY,854.763522,0.000010,854.763532,854.763522,854.763532,85476353.229697,11,-1.000000,""
26_updated,w0,python3action_videoprocessing_SampleVideo_30mb_nova,0.997085,1,2000.000000,1,COMPLETED_SUCCESSFULLY,769.891336,106.799980,876.691316,768.894251,875.694231,8.199386,7,-1.000000,""
26,w0,python3action_videoprocessing_SampleVideo_30mb,0.000000,1,-1.000000,1,COMPLETED_SUCCESSFULLY,876.691331,0.000010,876.691341,876.691331,876.691341,87669134.146609,7,-1.000000,""
30_updated,w0,python3action_videoprocessing_SampleVideo_30mb_nova,0.997085,1,2000.000000,1,COMPLETED_SUCCESSFULLY,769.891396,106.799980,876.691376,768.894311,875.694291,8.199386,8,-1.000000,""
30,w0,python3action_videoprocessing_SampleVideo_30mb,0.000000,1,-1.000000,1,COMPLETED_SUCCESSFULLY,876.691391,0.000010,876.691401,876.691391,876.691401,87669140.146810,8,-1.000000,""
32_updated,w0,python3action_videoprocessing_SampleVideo_30mb_nova,0.997085,1,2000.000000,1,COMPLETED_SUCCESSFULLY,769.891456,106.799980,876.691436,768.894371,875.694351,8.199387,9,-1.000000,""
32,w0,python3action_videoprocessing_SampleVideo_30mb,0.000000,1,-1.000000,1,COMPLETED_SUCCESSFULLY,876.691451,0.000010,876.691461,876.691451,876.691461,87669146.146810,9,-1.000000,""
34_updated,w0,python3action_videoprocessing_SampleVideo_30mb_nova,0.997085,1,2000.000000,1,COMPLETED_SUCCESSFULLY,769.891516,106.799980,876.691496,768.894431,875.694411,8.199387,10,-1.000000,""
34,w0,python3action_videoprocessing_SampleVideo_30mb,0.000000,1,-1.000000,1,COMPLETED_SUCCESSFULLY,876.691511,0.000010,876.691521,876.691511,876.691521,87669152.146810,10,-1.000000,""
2_updated,w0,python3action_pyaes_3000_troll,0.997085,1,2000.000000,1,COMPLETED_SUCCESSFULLY,820.537102,57.166677,877.703779,819.540017,876.706694,15.335974,4,-1.000000,""
2,w0,python3action_pyaes_3000,0.000000,1,-1.000000,1,COMPLETED_SUCCESSFULLY,877.703794,0.000010,877.703804,877.703794,877.703804,87770380.400201,4,-1.000000,""
12_updated,w0,python3action_videoprocessing_SampleVideo_30mb_nova,0.997085,1,2000.000000,1,COMPLETED_SUCCESSFULLY,794.891276,106.799980,901.691256,793.894191,900.694171,8.433468,6,-1.000000,""
12,w0,python3action_videoprocessing_SampleVideo_30mb,0.000000,1,-1.000000,1,COMPLETED_SUCCESSFULLY,901.691271,0.000010,901.691281,901.691271,901.691281,90169128.146609,6,-1.000000,""
6_updated,w0,python3action_pyaes_3000_troll,0.997085,1,2000.000000,1,COMPLETED_SUCCESSFULLY,877.703824,57.166677,934.870501,876.706739,933.873416,16.335975,4,-1.000000,""
6,w0,python3action_pyaes_3000,0.000000,1,-1.000000,1,COMPLETED_SUCCESSFULLY,934.870516,0.000010,934.870526,934.870516,934.870526,93487052.600201,4,-1.000000,""
96_updated,w0,python3action_linpack_6000_orion,0.997085,1,2000.000000,1,COMPLETED_SUCCESSFULLY,854.763552,106.000000,960.763552,853.766467,959.766467,9.054401,11,-1.000000,""
96,w0,python3action_linpack_6000,0.000000,1,-1.000000,1,COMPLETED_SUCCESSFULLY,960.763567,0.000010,960.763577,960.763567,960.763577,96076357.730299,11,-1.000000,""
66_updated,w0,python3action_videoprocessing_SampleVideo_30mb_nova,0.997085,1,2000.000000,1,COMPLETED_SUCCESSFULLY,876.691361,106.799980,983.491342,875.694276,982.494257,9.199386,7,-1.000000,""
66,w0,python3action_videoprocessing_SampleVideo_30mb,0.000000,1,-1.000000,1,COMPLETED_SUCCESSFULLY,983.491357,0.000010,983.491367,983.491357,983.491367,98349136.700201,7,-1.000000,""
81_updated,w0,python3action_videoprocessing_SampleVideo_30mb_nova,0.997085,1,2000.000000,1,COMPLETED_SUCCESSFULLY,876.691421,106.799980,983.491402,875.694336,982.494317,9.199387,8,-1.000000,""
81,w0,python3action_videoprocessing_SampleVideo_30mb,0.000000,1,-1.000000,1,COMPLETED_SUCCESSFULLY,983.491417,0.000010,983.491427,983.491417,983.491427,98349142.700201,8,-1.000000,""
92_updated,w0,python3action_videoprocessing_SampleVideo_30mb_nova,0.997085,1,2000.000000,1,COMPLETED_SUCCESSFULLY,876.691481,106.799980,983.491462,875.694396,982.494377,9.199387,9,-1.000000,""
92,w0,python3action_videoprocessing_SampleVideo_30mb,0.000000,1,-1.000000,1,COMPLETED_SUCCESSFULLY,983.491477,0.000010,983.491487,983.491477,983.491487,98349148.700201,9,-1.000000,""
94_updated,w0,python3action_videoprocessing_SampleVideo_30mb_nova,0.997085,1,2000.000000,1,COMPLETED_SUCCESSFULLY,876.691541,106.799980,983.491522,875.694456,982.494437,9.199388,10,-1.000000,""
94,w0,python3action_videoprocessing_SampleVideo_30mb,0.000000,1,-1.000000,1,COMPLETED_SUCCESSFULLY,983.491537,0.000010,983.491547,983.491537,983.491547,98349154.700201,10,-1.000000,""
23_updated,w0,python3action_facedetection_SampleVideo_50mb_taurus,0.997085,1,2000.000000,1,COMPLETED_SUCCESSFULLY,850.437481,134.600046,985.037527,849.440396,984.040442,7.310848,2,-1.000000,""
23,w0,python3action_facedetection_SampleVideo_50mb,0.000000,1,-1.000000,1,COMPLETED_SUCCESSFULLY,985.037542,0.000010,985.037552,985.037542,985.037552,98503755.231032,2,-1.000000,""
43_updated,w0,python3action_facedetection_SampleVideo_50mb_taurus,0.997085,1,2000.000000,1,COMPLETED_SUCCESSFULLY,850.437616,134.600046,985.037662,849.440531,984.040577,7.310849,12,-1.000000,""
43,w0,python3action_facedetection_SampleVideo_50mb,0.000000,1,-1.000000,1,COMPLETED_SUCCESSFULLY,985.037677,0.000010,985.037687,985.037677,985.037687,98503768.731032,12,-1.000000,""
52_updated,w0,python3action_facedetection_SampleVideo_50mb_taurus,0.997085,1,2000.000000,1,COMPLETED_SUCCESSFULLY,850.437676,134.600046,985.037722,849.440591,984.040637,7.310849,13,-1.000000,""
52,w0,python3action_facedetection_SampleVideo_50mb,0.000000,1,-1.000000,1,COMPLETED_SUCCESSFULLY,985.037737,0.000010,985.037747,985.037737,985.037747,98503774.731232,13,-1.000000,""
49_updated,w0,python3action_pyaes_3000_troll,0.997085,1,2000.000000,1,COMPLETED_SUCCESSFULLY,934.870546,57.166677,992.037223,933.873461,991.040138,17.335976,4,-1.000000,""
49,w0,python3action_pyaes_3000,0.000000,1,-1.000000,1,COMPLETED_SUCCESSFULLY,992.037238,0.000010,992.037248,992.037238,992.037248,99203724.800201,4,-1.000000,""
51_updated,w0,python3action_videoprocessing_SampleVideo_30mb_nova,0.997085,1,2000.000000,1,COMPLETED_SUCCESSFULLY,901.691301,106.799980,1008.491282,900.694216,1007.494197,9.433468,6,-1.000000,""
51,w0,python3action_videoprocessing_SampleVideo_30mb,0.000000,1,-1.000000,1,COMPLETED_SUCCESSFULLY,1008.491297,0.000010,1008.491307,1008.491297,1008.491307,100849130.700201,6,-1.000000,""
80_updated,w0,python3action_pyaes_3000_troll,0.997085,1,2000.000000,1,COMPLETED_SUCCESSFULLY,992.037268,57.166677,1049.203945,991.040183,1048.206860,18.335977,4,-1.000000,""
80,w0,python3action_pyaes_3000,0.000000,1,-1.000000,1,COMPLETED_SUCCESSFULLY,1049.203960,0.000010,1049.203970,1049.203960,1049.203970,104920397.000201,4,-1.000000,""
169_updated,w0,python3action_linpack_6000_orion,0.997085,1,2000.000000,1,COMPLETED_SUCCESSFULLY,960.763597,106.000000,1066.763597,959.766512,1065.766512,10.054401,11,-1.000000,""
169,w0,python3action_linpack_6000,0.000000,1,-1.000000,1,COMPLETED_SUCCESSFULLY,1066.763612,0.000010,1066.763622,1066.763612,1066.763622,106676362.230901,11,-1.000000,""
138_updated,w0,python3action_videoprocessing_SampleVideo_30mb_nova,0.997085,1,2000.000000,1,COMPLETED_SUCCESSFULLY,983.491387,106.799980,1090.291367,982.494302,1089.294282,10.199387,7,-1.000000,""
138,w0,python3action_videoprocessing_SampleVideo_30mb,0.000000,1,-1.000000,1,COMPLETED_SUCCESSFULLY,1090.291382,0.000010,1090.291392,1090.291382,1090.291392,109029139.247010,7,-1.000000,""
145_updated,w0,python3action_videoprocessing_SampleVideo_30mb_nova,0.997085,1,2000.000000,1,COMPLETED_SUCCESSFULLY,983.491447,106.799980,1090.291427,982.494362,1089.294342,10.199387,8,-1.000000,""
145,w0,python3action_videoprocessing_SampleVideo_30mb,0.000000,1,-1.000000,1,COMPLETED_SUCCESSFULLY,1090.291442,0.000010,1090.291452,1090.291442,1090.291452,109029145.247211,8,-1.000000,""
153_updated,w0,python3action_videoprocessing_SampleVideo_30mb_nova,0.997085,1,2000.000000,1,COMPLETED_SUCCESSFULLY,983.491507,106.799980,1090.291487,982.494422,1089.294402,10.199388,9,-1.000000,""
153,w0,python3action_videoprocessing_SampleVideo_30mb,0.000000,1,-1.000000,1,COMPLETED_SUCCESSFULLY,1090.291502,0.000010,1090.291512,1090.291502,1090.291512,109029151.247211,9,-1.000000,""
156_updated,w0,python3action_videoprocessing_SampleVideo_30mb_nova,0.997085,1,2000.000000,1,COMPLETED_SUCCESSFULLY,983.491567,106.799980,1090.291547,982.494482,1089.294462,10.199388,10,-1.000000,""
156,w0,python3action_videoprocessing_SampleVideo_30mb,0.000000,1,-1.000000,1,COMPLETED_SUCCESSFULLY,1090.291562,0.000010,1090.291572,1090.291562,1090.291572,109029157.247211,10,-1.000000,""
82_updated,w0,python3action_pyaes_3000_troll,0.997085,1,2000.000000,1,COMPLETED_SUCCESSFULLY,1049.203990,57.166677,1106.370667,1048.206905,1105.373582,19.335978,4,-1.000000,""
82,w0,python3action_pyaes_3000,0.000000,1,-1.000000,1,COMPLETED_SUCCESSFULLY,1106.370682,0.000010,1106.370692,1106.370682,1106.370692,110637069.200201,4,-1.000000,""
105_updated,w0,python3action_videoprocessing_SampleVideo_30mb_nova,0.997085,1,2000.000000,1,COMPLETED_SUCCESSFULLY,1008.491327,106.799980,1115.291307,1007.494242,1114.294222,10.433468,6,-1.000000,""
105,w0,python3action_videoprocessing_SampleVideo_30mb,0.000000,1,-1.000000,1,COMPLETED_SUCCESSFULLY,1115.291322,0.000010,1115.291332,1115.291322,1115.291332,111529133.247010,6,-1.000000,""
59_updated,w0,python3action_facedetection_SampleVideo_50mb_taurus,0.997085,1,2000.000000,1,COMPLETED_SUCCESSFULLY,985.037572,134.600046,1119.637618,984.040487,1118.640533,8.310848,2,-1.000000,""
59,w0,python3action_facedetection_SampleVideo_50mb,0.000000,1,-1.000000,1,COMPLETED_SUCCESSFULLY,1119.637633,0.000010,1119.637643,1119.637633,1119.637643,111963764.344712,2,-1.000000,""
60_updated,w0,python3action_facedetection_SampleVideo_50mb_taurus,0.997085,1,2000.000000,1,COMPLETED_SUCCESSFULLY,985.037707,134.600046,1119.637753,984.040622,1118.640668,8.310849,12,-1.000000,""
60,w0,python3action_facedetection_SampleVideo_50mb,0.000000,1,-1.000000,1,COMPLETED_SUCCESSFULLY,1119.637768,0.000010,1119.637778,1119.637768,1119.637778,111963777.844712,12,-1.000000,""
78_updated,w0,python3action_facedetection_SampleVideo_50mb_taurus,0.997085,1,2000.000000,1,COMPLETED_SUCCESSFULLY,985.037767,134.600046,1119.637813,984.040682,1118.640728,8.310850,13,-1.000000,""
78,w0,python3action_facedetection_SampleVideo_50mb,0.000000,1,-1.000000,1,COMPLETED_SUCCESSFULLY,1119.637828,0.000010,1119.637838,1119.637828,1119.637838,111963783.845114,13,-1.000000,""
python3action_linpack_job10_13,w0,python3action_linpack,0.997085,1,2000.000000,1,COMPLETED_SUCCESSFULLY,1119.637858,5.760927,1125.398786,1118.640773,1124.401701,195.177210,13,-1.000000,""
88_updated,w0,python3action_pyaes_3000_troll,0.997085,1,2000.000000,1,COMPLETED_SUCCESSFULLY,1106.370712,57.166677,1163.537389,1105.373627,1162.540304,20.335978,4,-1.000000,""
88,w0,python3action_pyaes_3000,0.000000,1,-1.000000,1,COMPLETED_SUCCESSFULLY,1163.537404,0.000010,1163.537414,1163.537404,1163.537414,116353741.400201,4,-1.000000,""
10_updated,w0,python3action_linpack_5000_taurus,0.997085,1,2000.000000,1,COMPLETED_SUCCESSFULLY,1125.398801,38.500058,1163.898859,1124.401716,1162.901774,30.205196,13,-1.000000,""
10,w0,python3action_linpack_5000,0.000000,1,-1.000000,1,COMPLETED_SUCCESSFULLY,1163.898874,0.000010,1163.898884,1163.898874,1163.898884,116389888.400201,13,-1.000000,""
172_updated,w0,python3action_linpack_6000_orion,0.997085,1,2000.000000,1,COMPLETED_SUCCESSFULLY,1066.763642,106.000000,1172.763642,1065.766557,1171.766557,11.054401,11,-1.000000,""
172,w0,python3action_linpack_6000,0.000000,1,-1.000000,1,COMPLETED_SUCCESSFULLY,1172.763657,0.000010,1172.763667,1172.763657,1172.763667,117276366.731504,11,-1.000000,""
173_updated,w0,python3action_videoprocessing_SampleVideo_30mb_nova,0.997085,1,2000.000000,1,COMPLETED_SUCCESSFULLY,1090.291412,106.799980,1197.091393,1089.294327,1196.094308,11.199387,7,-1.000000,""
173,w0,python3action_videoprocessing_SampleVideo_30mb,0.000000,1,-1.000000,1,COMPLETED_SUCCESSFULLY,1197.091408,0.000010,1197.091418,1197.091408,1197.091418,119709141.800201,7,-1.000000,""
python3action_modeltraining_job15_7,w0,python3action_modeltraining_reduced_1.94,0.997085,1,2000.000000,1,COMPLETED_SUCCESSFULLY,1197.091438,0.000000,1197.091438,1196.094353,1196.094353,24467342307858.394531,7,-1.000000,""
189_updated,w0,python3action_videoprocessing_SampleVideo_30mb_nova,0.997085,1,2000.000000,1,COMPLETED_SUCCESSFULLY,1090.291472,106.799980,1197.091453,1089.294387,1196.094368,11.199388,8,-1.000000,""
189,w0,python3action_videoprocessing_SampleVideo_30mb,0.000000,1,-1.000000,1,COMPLETED_SUCCESSFULLY,1197.091483,0.000010,1197.091493,1197.091483,1197.091493,119709149.300402,8,-1.000000,""
190_updated,w0,python3action_videoprocessing_SampleVideo_30mb_nova,0.997085,1,2000.000000,1,COMPLETED_SUCCESSFULLY,1090.291532,106.799980,1197.091513,1089.294447,1196.094428,11.199388,9,-1.000000,""
python3action_modeltraining_job48_8,w0,python3action_modeltraining_reduced_1.94,0.997085,1,2000.000000,1,COMPLETED_SUCCESSFULLY,1197.091513,0.000000,1197.091513,1196.094428,1196.094428,24467343840714.292969,8,-1.000000,""
190,w0,python3action_videoprocessing_SampleVideo_30mb,0.000000,1,-1.000000,1,COMPLETED_SUCCESSFULLY,1197.091543,0.000010,1197.091553,1197.091543,1197.091553,119709155.300201,9,-1.000000,""
196_updated,w0,python3action_videoprocessing_SampleVideo_30mb_nova,0.997085,1,2000.000000,1,COMPLETED_SUCCESSFULLY,1090.291592,106.799980,1197.091573,1089.294507,1196.094488,11.199389,10,-1.000000,""
python3action_modeltraining_job73_9,w0,python3action_modeltraining_reduced_1.94,0.997085,1,2000.000000,1,COMPLETED_SUCCESSFULLY,1197.091588,0.000000,1197.091588,1196.094503,1196.094503,24467345376180.785156,9,-1.000000,""
196,w0,python3action_videoprocessing_SampleVideo_30mb,0.000000,1,-1.000000,1,COMPLETED_SUCCESSFULLY,1197.091603,0.000010,1197.091613,1197.091603,1197.091613,119709161.300402,10,-1.000000,""
python3action_modeltraining_job74_10,w0,python3action_modeltraining_reduced_1.94,0.997085,1,2000.000000,1,COMPLETED_SUCCESSFULLY,1197.091648,0.000000,1197.091648,1196.094563,1196.094563,24467346603706.906250,10,-1.000000,""
135_updated,w0,python3action_linpack_5000_taurus,0.997085,1,2000.000000,1,COMPLETED_SUCCESSFULLY,1163.898904,38.500058,1202.398962,1162.901819,1201.401877,31.205197,13,-1.000000,""
135,w0,python3action_linpack_5000,0.000000,1,-1.000000,1,COMPLETED_SUCCESSFULLY,1202.398977,0.000010,1202.398987,1202.398977,1202.398987,120239898.700201,13,-1.000000,""
python3action_image_processing_job21_13,w0,python3action_image_processing_reduced_1.73,0.997085,1,2000.000000,1,COMPLETED_SUCCESSFULLY,1202.399007,0.000000,1202.399007,1201.401922,1201.401922,10421738720932.427734,13,-1.000000,""
89_updated,w0,python3action_pyaes_3000_troll,0.997085,1,2000.000000,1,COMPLETED_SUCCESSFULLY,1163.537434,57.166677,1220.704111,1162.540349,1219.707026,21.335979,4,-1.000000,""
89,w0,python3action_pyaes_3000,0.000000,1,-1.000000,1,COMPLETED_SUCCESSFULLY,1220.704126,0.000010,1220.704136,1220.704126,1220.704136,122070413.600201,4,-1.000000,""
166_updated,w0,python3action_videoprocessing_SampleVideo_30mb_nova,0.997085,1,2000.000000,1,COMPLETED_SUCCESSFULLY,1115.291352,106.799980,1222.091333,1114.294267,1221.094248,11.433469,6,-1.000000,""
166,w0,python3action_videoprocessing_SampleVideo_30mb,0.000000,1,-1.000000,1,COMPLETED_SUCCESSFULLY,1222.091348,0.000010,1222.091358,1222.091348,1222.091358,122209135.800201,6,-1.000000,""
21_updated,w0,python3action_imageprocessing_SampleImage_40mb_taurus,0.997085,1,2000.000000,1,COMPLETED_SUCCESSFULLY,1202.399037,32.600046,1234.999083,1201.401952,1234.001998,37.852768,13,-1.000000,""
21,w0,python3action_imageprocessing_SampleImage_40mb,0.000000,1,-1.000000,1,COMPLETED_SUCCESSFULLY,1234.999098,0.000010,1234.999108,1234.999098,1234.999108,123499910.814283,13,-1.000000,""
104_updated,w0,python3action_facedetection_SampleVideo_50mb_taurus,0.997085,1,2000.000000,1,COMPLETED_SUCCESSFULLY,1119.637663,134.600046,1254.237710,1118.640578,1253.240625,9.310848,2,-1.000000,""
104,w0,python3action_facedetection_SampleVideo_50mb,0.000000,1,-1.000000,1,COMPLETED_SUCCESSFULLY,1254.237725,0.000010,1254.237735,1254.237725,1254.237735,125423773.500201,2,-1.000000,""
106_updated,w0,python3action_facedetection_SampleVideo_50mb_taurus,0.997085,1,2000.000000,1,COMPLETED_SUCCESSFULLY,1119.637798,134.600046,1254.237845,1118.640713,1253.240760,9.310849,12,-1.000000,""
106,w0,python3action_facedetection_SampleVideo_50mb,0.000000,1,-1.000000,1,COMPLETED_SUCCESSFULLY,1254.237860,0.000010,1254.237870,1254.237860,1254.237870,125423787.000201,12,-1.000000,""
python3action_linpack_job47_3,w0,python3action_linpack,0.997085,1,2000.000000,1,COMPLETED_SUCCESSFULLY,1254.237755,5.760927,1259.998682,1253.240670,1259.001597,218.541486,2,-1.000000,""
python3action_linpack_job130_12,w0,python3action_linpack,0.997085,1,2000.000000,1,COMPLETED_SUCCESSFULLY,1254.237890,5.760927,1259.998817,1253.240805,1259.001732,218.541509,12,-1.000000,""
65_updated,w0,python3action_imageprocessing_SampleImage_40mb_taurus,0.997085,1,2000.000000,1,COMPLETED_SUCCESSFULLY,1234.999128,32.600046,1267.599174,1234.002043,1266.602089,38.852770,13,-1.000000,""
65,w0,python3action_imageprocessing_SampleImage_40mb,0.000000,1,-1.000000,1,COMPLETED_SUCCESSFULLY,1267.599189,0.000010,1267.599199,1267.599189,1267.599199,126759919.927963,13,-1.000000,""
15_updated,w0,python3action_modeltraining_reviews100mb_nova,0.997085,1,2000.000000,1,COMPLETED_SUCCESSFULLY,1197.091468,79.600010,1276.691478,1196.094383,1275.694393,16.026310,7,-1.000000,""
15,w0,python3action_modeltraining_reviews100mb,0.000000,1,-1.000000,1,COMPLETED_SUCCESSFULLY,1276.691493,0.000010,1276.691503,1276.691493,1276.691503,127669150.300201,7,-1.000000,""
48_updated,w0,python3action_modeltraining_reviews100mb_nova,0.997085,1,2000.000000,1,COMPLETED_SUCCESSFULLY,1197.091558,79.600010,1276.691568,1196.094473,1275.694483,16.026311,8,-1.000000,""
48,w0,python3action_modeltraining_reviews100mb,0.000000,1,-1.000000,1,COMPLETED_SUCCESSFULLY,1276.691583,0.000010,1276.691593,1276.691583,1276.691593,127669159.300201,8,-1.000000,""
73_updated,w0,python3action_modeltraining_reviews100mb_nova,0.997085,1,2000.000000,1,COMPLETED_SUCCESSFULLY,1197.091633,79.600010,1276.691643,1196.094548,1275.694558,16.026312,9,-1.000000,""
73,w0,python3action_modeltraining_reviews100mb,0.000000,1,-1.000000,1,COMPLETED_SUCCESSFULLY,1276.691658,0.000010,1276.691668,1276.691658,1276.691668,127669166.800201,9,-1.000000,""
74_updated,w0,python3action_modeltraining_reviews100mb_nova,0.997085,1,2000.000000,1,COMPLETED_SUCCESSFULLY,1197.091678,79.600010,1276.691688,1196.094593,1275.694603,16.026312,10,-1.000000,""
74,w0,python3action_modeltraining_reviews100mb,0.000000,1,-1.000000,1,COMPLETED_SUCCESSFULLY,1276.691718,0.000010,1276.691728,1276.691718,1276.691728,127669172.800201,10,-1.000000,""
98_updated,w0,python3action_pyaes_3000_troll,0.997085,1,2000.000000,1,COMPLETED_SUCCESSFULLY,1220.704156,57.166677,1277.870833,1219.707071,1276.873748,22.335980,4,-1.000000,""
98,w0,python3action_pyaes_3000,0.000000,1,-1.000000,1,COMPLETED_SUCCESSFULLY,1277.870848,0.000010,1277.870858,1277.870848,1277.870858,127787085.800201,4,-1.000000,""
193_updated,w0,python3action_linpack_6000_orion,0.997085,1,2000.000000,1,COMPLETED_SUCCESSFULLY,1172.763687,106.000000,1278.763687,1171.766602,1277.766602,12.054402,11,-1.000000,""
193,w0,python3action_linpack_6000,0.000000,1,-1.000000,1,COMPLETED_SUCCESSFULLY,1278.763702,0.000010,1278.763712,1278.763702,1278.763712,127876371.232106,11,-1.000000,""
47_updated,w0,python3action_linpack_5000_taurus,0.997085,1,2000.000000,1,COMPLETED_SUCCESSFULLY,1259.998697,38.500058,1298.498755,1259.001612,1297.501670,33.701292,2,-1.000000,""
47,w0,python3action_linpack_5000,0.000000,1,-1.000000,1,COMPLETED_SUCCESSFULLY,1298.498770,0.000010,1298.498780,1298.498770,1298.498780,129849878.000201,2,-1.000000,""
130_updated,w0,python3action_linpack_5000_taurus,0.997085,1,2000.000000,1,COMPLETED_SUCCESSFULLY,1259.998832,38.500058,1298.498890,1259.001747,1297.501805,33.701295,12,-1.000000,""
130,w0,python3action_linpack_5000,0.000000,1,-1.000000,1,COMPLETED_SUCCESSFULLY,1298.498905,0.000010,1298.498915,1298.498905,1298.498915,129849891.500201,12,-1.000000,""
python3action_image_processing_job11_12,w0,python3action_image_processing_reduced_1.73,0.997085,1,2000.000000,1,COMPLETED_SUCCESSFULLY,1298.498935,0.000000,1298.498935,1297.501850,1297.501850,11255371764438.830078,12,-1.000000,""
119_updated,w0,python3action_imageprocessing_SampleImage_40mb_taurus,0.997085,1,2000.000000,1,COMPLETED_SUCCESSFULLY,1267.599219,32.600046,1300.199265,1266.602134,1299.202180,39.852771,13,-1.000000,""
119,w0,python3action_imageprocessing_SampleImage_40mb,0.000000,1,-1.000000,1,COMPLETED_SUCCESSFULLY,1300.199280,0.000010,1300.199290,1300.199280,1300.199290,130019929.041644,13,-1.000000,""
46_updated,w0,python3action_linpack_5000_orion,0.997085,1,2000.000000,1,COMPLETED_SUCCESSFULLY,1278.763732,36.199977,1314.963709,1277.766647,1313.966624,36.297444,11,-1.000000,""
46,w0,python3action_linpack_5000,0.000000,1,-1.000000,1,COMPLETED_SUCCESSFULLY,1314.963724,0.000010,1314.963734,1314.963724,1314.963734,131496373.426169,11,-1.000000,""
199_updated,w0,python3action_videoprocessing_SampleVideo_30mb_nova,0.997085,1,2000.000000,1,COMPLETED_SUCCESSFULLY,1222.091378,106.799980,1328.891358,1221.094293,1327.894273,12.433469,6,-1.000000,""
199,w0,python3action_videoprocessing_SampleVideo_30mb,0.000000,1,-1.000000,1,COMPLETED_SUCCESSFULLY,1328.891373,0.000010,1328.891383,1328.891373,1328.891383,132889138.347010,6,-1.000000,""
python3action_modeltraining_job109_6,w0,python3action_modeltraining_reduced_1.94,0.997085,1,2000.000000,1,COMPLETED_SUCCESSFULLY,1328.891403,0.000000,1328.891403,1327.894318,1327.894318,27163446392930.859375,6,-1.000000,""
11_updated,w0,python3action_imageprocessing_SampleImage_40mb_taurus,0.997085,1,2000.000000,1,COMPLETED_SUCCESSFULLY,1298.498965,32.600046,1331.099011,1297.501880,1330.101926,40.800615,12,-1.000000,""
11,w0,python3action_imageprocessing_SampleImage_40mb,0.000000,1,-1.000000,1,COMPLETED_SUCCESSFULLY,1331.099026,0.000010,1331.099036,1331.099026,1331.099036,133109903.614283,12,-1.000000,""
127_updated,w0,python3action_imageprocessing_SampleImage_40mb_taurus,0.997085,1,2000.000000,1,COMPLETED_SUCCESSFULLY,1300.199310,32.600046,1332.799357,1299.202225,1331.802272,40.852773,13,-1.000000,""
127,w0,python3action_imageprocessing_SampleImage_40mb,0.000000,1,-1.000000,1,COMPLETED_SUCCESSFULLY,1332.799372,0.000010,1332.799382,1332.799372,1332.799382,133279938.200201,13,-1.000000,""
103_updated,w0,python3action_pyaes_3000_troll,0.997085,1,2000.000000,1,COMPLETED_SUCCESSFULLY,1277.870878,57.166677,1335.037555,1276.873793,1334.040470,23.335981,4,-1.000000,""
103,w0,python3action_pyaes_3000,0.000000,1,-1.000000,1,COMPLETED_SUCCESSFULLY,1335.037570,0.000010,1335.037580,1335.037570,1335.037580,133503758.000201,4,-1.000000,""
140_updated,w0,python3action_linpack_5000_taurus,0.997085,1,2000.000000,1,COMPLETED_SUCCESSFULLY,1298.498800,38.500058,1336.998858,1297.501715,1336.001773,34.701293,2,-1.000000,""
140,w0,python3action_linpack_5000,0.000000,1,-1.000000,1,COMPLETED_SUCCESSFULLY,1336.998873,0.000010,1336.998883,1336.998873,1336.998883,133699888.300201,2,-1.000000,""
python3action_image_processing_job33_3,w0,python3action_image_processing_reduced_1.73,0.997085,1,2000.000000,1,COMPLETED_SUCCESSFULLY,1336.998903,0.000000,1336.998903,1336.001818,1336.001818,11589345432959.570312,2,-1.000000,""
3_updated,w0,python3action_floatoperation_100000000_nova,0.997085,1,2000.000000,1,COMPLETED_SUCCESSFULLY,1276.691613,66.200020,1342.891633,1275.694528,1341.894548,20.270304,8,-1.000000,""
3,w0,python3action_floatoperation_100000000,0.000000,1,-1.000000,1,COMPLETED_SUCCESSFULLY,1342.891648,0.000010,1342.891658,1342.891648,1342.891658,134289165.800201,8,-1.000000,""
41_updated,w0,python3action_floatoperation_100000000_nova,0.997085,1,2000.000000,1,COMPLETED_SUCCESSFULLY,1276.691688,66.200020,1342.891707,1275.694603,1341.894622,20.270306,9,-1.000000,""
41,w0,python3action_floatoperation_100000000,0.000000,1,-1.000000,1,COMPLETED_SUCCESSFULLY,1342.891722,0.000010,1342.891732,1342.891722,1342.891732,134289173.232496,9,-1.000000,""
55_updated,w0,python3action_floatoperation_100000000_nova,0.997085,1,2000.000000,1,COMPLETED_SUCCESSFULLY,1276.691748,66.200020,1342.891768,1275.694663,1341.894683,20.270306,10,-1.000000,""
55,w0,python3action_floatoperation_100000000,0.000000,1,-1.000000,1,COMPLETED_SUCCESSFULLY,1342.891783,0.000010,1342.891793,1342.891783,1342.891793,134289179.300201,10,-1.000000,""
71_updated,w0,python3action_linpack_5000_orion,0.997085,1,2000.000000,1,COMPLETED_SUCCESSFULLY,1314.963754,36.199977,1351.163731,1313.966669,1350.166646,37.297445,11,-1.000000,""
71,w0,python3action_linpack_5000,0.000000,1,-1.000000,1,COMPLETED_SUCCESSFULLY,1351.163746,0.000010,1351.163756,1351.163746,1351.163756,135116375.620233,11,-1.000000,""
131_updated,w0,python3action_modeltraining_reviews100mb_nova,0.997085,1,2000.000000,1,COMPLETED_SUCCESSFULLY,1276.691523,79.600010,1356.291533,1275.694438,1355.294448,17.026310,7,-1.000000,""
131,w0,python3action_modeltraining_reviews100mb,0.000000,1,-1.000000,1,COMPLETED_SUCCESSFULLY,1356.291548,0.000010,1356.291558,1356.291548,1356.291558,135629155.800201,7,-1.000000,""
62_updated,w0,python3action_imageprocessing_SampleImage_40mb_taurus,0.997085,1,2000.000000,1,COMPLETED_SUCCESSFULLY,1331.099056,32.600046,1363.699102,1330.101971,1362.702017,41.800616,12,-1.000000,""
62,w0,python3action_imageprocessing_SampleImage_40mb,0.000000,1,-1.000000,1,COMPLETED_SUCCESSFULLY,1363.699117,0.000010,1363.699127,1363.699117,1363.699127,136369912.727963,12,-1.000000,""
136_updated,w0,python3action_imageprocessing_SampleImage_40mb_taurus,0.997085,1,2000.000000,1,COMPLETED_SUCCESSFULLY,1332.799402,32.600046,1365.399448,1331.802317,1364.402363,41.852774,13,-1.000000,""
136,w0,python3action_imageprocessing_SampleImage_40mb,0.000000,1,-1.000000,1,COMPLETED_SUCCESSFULLY,1365.399463,0.000010,1365.399473,1365.399463,1365.399473,136539947.313881,13,-1.000000,""
33_updated,w0,python3action_imageprocessing_SampleImage_40mb_taurus,0.997085,1,2000.000000,1,COMPLETED_SUCCESSFULLY,1336.998933,32.600046,1369.598979,1336.001848,1368.601894,41.981594,2,-1.000000,""
33,w0,python3action_imageprocessing_SampleImage_40mb,0.000000,1,-1.000000,1,COMPLETED_SUCCESSFULLY,1369.598994,0.000010,1369.599004,1369.598994,1369.599004,136959900.414283,2,-1.000000,""
143_updated,w0,python3action_linpack_5000_orion,0.997085,1,2000.000000,1,COMPLETED_SUCCESSFULLY,1351.163776,36.199977,1387.363753,1350.166691,1386.366668,38.297446,11,-1.000000,""
143,w0,python3action_linpack_5000,0.000000,1,-1.000000,1,COMPLETED_SUCCESSFULLY,1387.363768,0.000010,1387.363778,1387.363768,1387.363778,138736377.814296,11,-1.000000,""
128_updated,w0,python3action_pyaes_3000_troll,0.997085,1,2000.000000,1,COMPLETED_SUCCESSFULLY,1335.037600,57.166677,1392.204277,1334.040515,1391.207192,24.335982,4,-1.000000,""
128,w0,python3action_pyaes_3000,0.000000,1,-1.000000,1,COMPLETED_SUCCESSFULLY,1392.204292,0.000010,1392.204302,1392.204292,1392.204302,139220430.200201,4,-1.000000,""
118_updated,w0,python3action_imageprocessing_SampleImage_40mb_taurus,0.997085,1,2000.000000,1,COMPLETED_SUCCESSFULLY,1363.699147,32.600046,1396.299193,1362.702062,1395.302108,42.800618,12,-1.000000,""
118,w0,python3action_imageprocessing_SampleImage_40mb,0.000000,1,-1.000000,1,COMPLETED_SUCCESSFULLY,1396.299208,0.000010,1396.299218,1396.299208,1396.299218,139629921.841644,12,-1.000000,""
155_updated,w0,python3action_imageprocessing_SampleImage_40mb_taurus,0.997085,1,2000.000000,1,COMPLETED_SUCCESSFULLY,1365.399493,32.600046,1397.999539,1364.402408,1397.002454,42.852775,13,-1.000000,""
155,w0,python3action_imageprocessing_SampleImage_40mb,0.000000,1,-1.000000,1,COMPLETED_SUCCESSFULLY,1397.999554,0.000010,1397.999564,1397.999554,1397.999564,139799956.427562,13,-1.000000,""
99_updated,w0,python3action_imageprocessing_SampleImage_40mb_taurus,0.997085,1,2000.000000,1,COMPLETED_SUCCESSFULLY,1369.599024,32.600046,1402.199070,1368.601939,1401.201985,42.981595,2,-1.000000,""
99,w0,python3action_imageprocessing_SampleImage_40mb,0.000000,1,-1.000000,1,COMPLETED_SUCCESSFULLY,1402.199085,0.000010,1402.199095,1402.199085,1402.199095,140219909.527963,2,-1.000000,""
109_updated,w0,python3action_modeltraining_reviews100mb_nova,0.997085,1,2000.000000,1,COMPLETED_SUCCESSFULLY,1328.891433,79.600010,1408.491443,1327.894348,1407.494358,17.682088,6,-1.000000,""
109,w0,python3action_modeltraining_reviews100mb,0.000000,1,-1.000000,1,COMPLETED_SUCCESSFULLY,1408.491458,0.000010,1408.491468,1408.491458,1408.491468,140849146.824911,6,-1.000000,""
129_updated,w0,python3action_floatoperation_100000000_nova,0.997085,1,2000.000000,1,COMPLETED_SUCCESSFULLY,1342.891678,66.200020,1409.091698,1341.894593,1408.094613,21.270305,8,-1.000000,""
129,w0,python3action_floatoperation_100000000,0.000000,1,-1.000000,1,COMPLETED_SUCCESSFULLY,1409.091713,0.000010,1409.091723,1409.091713,1409.091723,140909172.300201,8,-1.000000,""
146_updated,w0,python3action_floatoperation_100000000_nova,0.997085,1,2000.000000,1,COMPLETED_SUCCESSFULLY,1342.891752,66.200020,1409.091772,1341.894667,1408.094687,21.270306,9,-1.000000,""
146,w0,python3action_floatoperation_100000000,0.000000,1,-1.000000,1,COMPLETED_SUCCESSFULLY,1409.091787,0.000010,1409.091797,1409.091787,1409.091797,140909179.700201,9,-1.000000,""
154_updated,w0,python3action_floatoperation_100000000_nova,0.997085,1,2000.000000,1,COMPLETED_SUCCESSFULLY,1342.891813,66.200020,1409.091833,1341.894728,1408.094748,21.270307,10,-1.000000,""
154,w0,python3action_floatoperation_100000000,0.000000,1,-1.000000,1,COMPLETED_SUCCESSFULLY,1409.091848,0.000010,1409.091858,1409.091848,1409.091858,140909185.800201,10,-1.000000,""
84_updated,w0,python3action_floatoperation_100000000_nova,0.997085,1,2000.000000,1,COMPLETED_SUCCESSFULLY,1356.291578,66.200020,1422.491598,1355.294493,1421.494513,21.472720,7,-1.000000,""
84,w0,python3action_floatoperation_100000000,0.000000,1,-1.000000,1,COMPLETED_SUCCESSFULLY,1422.491613,0.000010,1422.491623,1422.491613,1422.491623,142249162.300201,7,-1.000000,""
152_updated,w0,python3action_linpack_5000_orion,0.997085,1,2000.000000,1,COMPLETED_SUCCESSFULLY,1387.363798,36.199977,1423.563775,1386.366713,1422.566690,39.297447,11,-1.000000,""
152,w0,python3action_linpack_5000,0.000000,1,-1.000000,1,COMPLETED_SUCCESSFULLY,1423.563790,0.000010,1423.563800,1423.563790,1423.563800,142356380.008359,11,-1.000000,""
123_updated,w0,python3action_imageprocessing_SampleImage_40mb_taurus,0.997085,1,2000.000000,1,COMPLETED_SUCCESSFULLY,1396.299238,32.600046,1428.899285,1395.302153,1427.902200,43.800619,12,-1.000000,""
123,w0,python3action_imageprocessing_SampleImage_40mb,0.000000,1,-1.000000,1,COMPLETED_SUCCESSFULLY,1428.899300,0.000010,1428.899310,1428.899300,1428.899310,142889931.000201,12,-1.000000,""
121_updated,w0,python3action_imageprocessing_SampleImage_40mb_taurus,0.997085,1,2000.000000,1,COMPLETED_SUCCESSFULLY,1402.199115,32.600046,1434.799161,1401.202030,1433.802076,43.981597,2,-1.000000,""
121,w0,python3action_imageprocessing_SampleImage_40mb,0.000000,1,-1.000000,1,COMPLETED_SUCCESSFULLY,1434.799176,0.000010,1434.799186,1434.799176,1434.799186,143479918.641644,2,-1.000000,""
165_updated,w0,python3action_pyaes_3000_troll,0.997085,1,2000.000000,1,COMPLETED_SUCCESSFULLY,1392.204322,57.166677,1449.370999,1391.207237,1448.373914,25.335982,4,-1.000000,""
165,w0,python3action_pyaes_3000,0.000000,1,-1.000000,1,COMPLETED_SUCCESSFULLY,1449.371014,0.000010,1449.371024,1449.371014,1449.371024,144937102.400201,4,-1.000000,""
168_updated,w0,python3action_linpack_5000_orion,0.997085,1,2000.000000,1,COMPLETED_SUCCESSFULLY,1423.563820,36.199977,1459.763797,1422.566735,1458.766712,40.297449,11,-1.000000,""
168,w0,python3action_linpack_5000,0.000000,1,-1.000000,1,COMPLETED_SUCCESSFULLY,1459.763812,0.000010,1459.763822,1459.763812,1459.763822,145976382.202423,11,-1.000000,""
134_updated,w0,python3action_imageprocessing_SampleImage_40mb_taurus,0.997085,1,2000.000000,1,COMPLETED_SUCCESSFULLY,1428.899330,32.600046,1461.499376,1427.902245,1460.502291,44.800620,12,-1.000000,""
134,w0,python3action_imageprocessing_SampleImage_40mb,0.000000,1,-1.000000,1,COMPLETED_SUCCESSFULLY,1461.499391,0.000010,1461.499401,1461.499391,1461.499401,146149940.113881,12,-1.000000,""
132_updated,w0,python3action_imageprocessing_SampleImage_40mb_taurus,0.997085,1,2000.000000,1,COMPLETED_SUCCESSFULLY,1434.799206,32.600046,1467.399253,1433.802121,1466.402168,44.981598,2,-1.000000,""
132,w0,python3action_imageprocessing_SampleImage_40mb,0.000000,1,-1.000000,1,COMPLETED_SUCCESSFULLY,1467.399268,0.000010,1467.399278,1467.399268,1467.399278,146739927.800201,2,-1.000000,""
61_updated,w0,python3action_floatoperation_100000000_nova,0.997085,1,2000.000000,1,COMPLETED_SUCCESSFULLY,1408.491488,66.200020,1474.691508,1407.494403,1473.694423,22.261238,6,-1.000000,""
61,w0,python3action_floatoperation_100000000,0.000000,1,-1.000000,1,COMPLETED_SUCCESSFULLY,1474.691523,0.000010,1474.691533,1474.691523,1474.691533,147469153.300201,6,-1.000000,""
177_updated,w0,python3action_floatoperation_100000000_nova,0.997085,1,2000.000000,1,COMPLETED_SUCCESSFULLY,1409.091743,66.200020,1475.291763,1408.094658,1474.294678,22.270306,8,-1.000000,""
177,w0,python3action_floatoperation_100000000,0.000000,1,-1.000000,1,COMPLETED_SUCCESSFULLY,1475.291778,0.000010,1475.291788,1475.291778,1475.291788,147529178.800201,8,-1.000000,""
183_updated,w0,python3action_floatoperation_100000000_nova,0.997085,1,2000.000000,1,COMPLETED_SUCCESSFULLY,1409.091817,66.200020,1475.291837,1408.094732,1474.294752,22.270307,9,-1.000000,""
183,w0,python3action_floatoperation_100000000,0.000000,1,-1.000000,1,COMPLETED_SUCCESSFULLY,1475.291852,0.000010,1475.291862,1475.291852,1475.291862,147529186.200201,9,-1.000000,""
186_updated,w0,python3action_floatoperation_100000000_nova,0.997085,1,2000.000000,1,COMPLETED_SUCCESSFULLY,1409.091878,66.200020,1475.291898,1408.094793,1474.294813,22.270308,10,-1.000000,""
186,w0,python3action_floatoperation_100000000,0.000000,1,-1.000000,1,COMPLETED_SUCCESSFULLY,1475.291913,0.000010,1475.291923,1475.291913,1475.291923,147529192.300201,10,-1.000000,""
174_updated,w0,python3action_floatoperation_100000000_nova,0.997085,1,2000.000000,1,COMPLETED_SUCCESSFULLY,1422.491643,66.200020,1488.691663,1421.494558,1487.694578,22.472721,7,-1.000000,""
174,w0,python3action_floatoperation_100000000,0.000000,1,-1.000000,1,COMPLETED_SUCCESSFULLY,1488.691678,0.000010,1488.691688,1488.691678,1488.691688,148869168.800201,7,-1.000000,""
148_updated,w0,python3action_imageprocessing_SampleImage_40mb_taurus,0.997085,1,2000.000000,1,COMPLETED_SUCCESSFULLY,1461.499421,32.600046,1494.099467,1460.502336,1493.102382,45.800622,12,-1.000000,""
148,w0,python3action_imageprocessing_SampleImage_40mb,0.000000,1,-1.000000,1,COMPLETED_SUCCESSFULLY,1494.099482,0.000010,1494.099492,1494.099482,1494.099492,149409949.227562,12,-1.000000,""
137_updated,w0,python3action_imageprocessing_SampleImage_40mb_taurus,0.997085,1,2000.000000,1,COMPLETED_SUCCESSFULLY,1467.399298,32.600046,1499.999344,1466.402213,1499.002259,45.981599,2,-1.000000,""
137,w0,python3action_imageprocessing_SampleImage_40mb,0.000000,1,-1.000000,1,COMPLETED_SUCCESSFULLY,1499.999359,0.000010,1499.999369,1499.999359,1499.999369,149999936.913881,2,-1.000000,""
178_updated,w0,python3action_pyaes_3000_troll,0.997085,1,2000.000000,1,COMPLETED_SUCCESSFULLY,1449.371044,57.166677,1506.537721,1448.373959,1505.540636,26.335983,4,-1.000000,""
178,w0,python3action_pyaes_3000,0.000000,1,-1.000000,1,COMPLETED_SUCCESSFULLY,1506.537736,0.000010,1506.537746,1506.537736,1506.537746,150653774.600201,4,-1.000000,""
176_updated,w0,python3action_imageprocessing_SampleImage_40mb_taurus,0.997085,1,2000.000000,1,COMPLETED_SUCCESSFULLY,1494.099512,32.600046,1526.699558,1493.102427,1525.702473,46.800623,12,-1.000000,""
176,w0,python3action_imageprocessing_SampleImage_40mb,0.000000,1,-1.000000,1,COMPLETED_SUCCESSFULLY,1526.699573,0.000010,1526.699583,1526.699573,1526.699583,152669958.341242,12,-1.000000,""
160_updated,w0,python3action_imageprocessing_SampleImage_40mb_taurus,0.997085,1,2000.000000,1,COMPLETED_SUCCESSFULLY,1499.999389,32.600046,1532.599435,1499.002304,1531.602350,46.981601,2,-1.000000,""
160,w0,python3action_imageprocessing_SampleImage_40mb,0.000000,1,-1.000000,1,COMPLETED_SUCCESSFULLY,1532.599450,0.000010,1532.599460,1532.599450,1532.599460,153259946.027562,2,-1.000000,""
164_updated,w0,python3action_floatoperation_100000000_nova,0.997085,1,2000.000000,1,COMPLETED_SUCCESSFULLY,1474.691553,66.200020,1540.891573,1473.694468,1539.894488,23.261239,6,-1.000000,""
164,w0,python3action_floatoperation_100000000,0.000000,1,-1.000000,1,COMPLETED_SUCCESSFULLY,1540.891588,0.000010,1540.891598,1540.891588,1540.891598,154089159.800201,6,-1.000000,""
191_updated,w0,python3action_floatoperation_100000000_nova,0.997085,1,2000.000000,1,COMPLETED_SUCCESSFULLY,1540.891618,66.200020,1607.091638,1539.894533,1606.094553,24.261240,6,-1.000000,""
191,w0,python3action_floatoperation_100000000,0.000000,1,-1.000000,1,COMPLETED_SUCCESSFULLY,1607.091653,0.000010,1607.091663,1607.091653,1607.091663,160709166.300201,6,-1.000000,""
