job_id,workload_name,profile,submission_time,requested_number_of_resources,requested_time,success,final_state,starting_time,execution_time,finish_time,waiting_time,turnaround_time,stretch,allocated_resources,consumed_energy,metadata
python3action_chameleon_job0_14,w0,python3action_chameleon,0.997085,1,2000.000000,1,COMPLETED_SUCCESSFULLY,1.002310,0.867914,1.870224,0.005225,0.873139,1.006020,19,-1.000000,""
python3action_chameleon_job3_15,w0,python3action_chameleon,0.997085,1,2000.000000,1,COMPLETED_SUCCESSFULLY,1.002325,0.867914,1.870239,0.005240,0.873154,1.006038,20,-1.000000,""
python3action_linpack_job14_6,w0,python3action_linpack,0.997085,1,2000.000000,1,COMPLETED_SUCCESSFULLY,1.002190,5.760927,6.763117,0.005105,5.766032,1.000886,8,-1.000000,""
python3action_linpack_job72_7,w0,python3action_linpack,0.997085,1,2000.000000,1,COMPLETED_SUCCESSFULLY,1.002205,5.760927,6.763132,0.005120,5.766047,1.000889,9,-1.000000,""
python3action_facedetection_job35_0,w0,python3action_facedetection,0.997085,1,2000.000000,1,COMPLETED_SUCCESSFULLY,1.002100,30.499683,31.501783,0.005015,30.504698,1.000164,2,-1.000000,""
python3action_facedetection_job47_1,w0,python3action_facedetection,0.997085,1,2000.000000,1,COMPLETED_SUCCESSFULLY,1.002115,30.499683,31.501798,0.005030,30.504713,1.000165,3,-1.000000,""
python3action_facedetection_job54_2,w0,python3action_facedetection,0.997085,1,2000.000000,1,COMPLETED_SUCCESSFULLY,1.002130,30.499683,31.501813,0.005045,30.504728,1.000165,4,-1.000000,""
python3action_facedetection_job67_3,w0,python3action_facedetection,0.997085,1,2000.000000,1,COMPLETED_SUCCESSFULLY,1.002145,30.499683,31.501828,0.005060,30.504743,1.000166,5,-1.000000,""
python3action_facedetection_job69_4,w0,python3action_facedetection,0.997085,1,2000.000000,1,COMPLETED_SUCCESSFULLY,1.002160,30.499683,31.501843,0.005075,30.504758,1.000166,6,-1.000000,""
python3action_facedetection_job74_5,w0,python3action_facedetection,0.997085,1,2000.000000,1,COMPLETED_SUCCESSFULLY,1.002175,30.499683,31.501858,0.005090,30.504773,1.000167,7,-1.000000,""
python3action_facedetection_job91_16,w0,python3action_facedetection,0.997085,1,2000.000000,1,COMPLETED_SUCCESSFULLY,1.002340,30.499683,31.502023,0.005255,30.504938,1.000172,25,-1.000000,""
python3action_facedetection_job114_17,w0,python3action_facedetection,0.997085,1,2000.000000,1,COMPLETED_SUCCESSFULLY,1.002355,30.499683,31.502038,0.005270,30.504953,1.000173,26,-1.000000,""
python3action_facedetection_job121_18,w0,python3action_facedetection,0.997085,1,2000.000000,1,COMPLETED_SUCCESSFULLY,1.002370,30.499683,31.502053,0.005285,30.504968,1.000173,27,-1.000000,""
python3action_facedetection_job145_19,w0,python3action_facedetection,0.997085,1,2000.000000,1,COMPLETED_SUCCESSFULLY,1.002385,30.499683,31.502068,0.005300,30.504983,1.000174,28,-1.000000,""
python3action_facedetection_job150_20,w0,python3action_facedetection,0.997085,1,2000.000000,1,COMPLETED_SUCCESSFULLY,1.002400,30.499683,31.502083,0.005315,30.504998,1.000174,29,-1.000000,""
python3action_video_processing_job16_8,w0,python3action_video_processing,0.997085,1,2000.000000,1,COMPLETED_SUCCESSFULLY,1.002220,72.012455,73.014675,0.005135,72.017590,1.000071,10,-1.000000,""
python3action_video_processing_job18_9,w0,python3action_video_processing,0.997085,1,2000.000000,1,COMPLETED_SUCCESSFULLY,1.002235,72.012455,73.014690,0.005150,72.017605,1.000072,11,-1.000000,""
python3action_video_processing_job49_10,w0,python3action_video_processing,0.997085,1,2000.000000,1,COMPLETED_SUCCESSFULLY,1.002250,72.012455,73.014705,0.005165,72.017620,1.000072,13,-1.000000,""
python3action_video_processing_job82_11,w0,python3action_video_processing,0.997085,1,2000.000000,1,COMPLETED_SUCCESSFULLY,1.002265,72.012455,73.014720,0.005180,72.017635,1.000072,14,-1.000000,""
python3action_video_processing_job86_12,w0,python3action_video_processing,0.997085,1,2000.000000,1,COMPLETED_SUCCESSFULLY,1.002280,72.012455,73.014735,0.005195,72.017650,1.000072,15,-1.000000,""
python3action_video_processing_job88_13,w0,python3action_video_processing,0.997085,1,2000.000000,1,COMPLETED_SUCCESSFULLY,1.002295,72.012455,73.014750,0.005210,72.017665,1.000072,16,-1.000000,""
0_updated,w0,python3action_chameleon_3000_troll,0.997085,1,2000.000000,1,COMPLETED_SUCCESSFULLY,1.870239,94.000000,95.870239,0.873154,94.873154,1.009289,19,-1.000000,""
0,w0,python3action_chameleon_3000,0.000000,1,-1.000000,1,COMPLETED_SUCCESSFULLY,95.870254,0.000010,95.870264,95.870254,95.870264,9587026.400201,19,-1.000000,""
3_updated,w0,python3action_chameleon_3000_troll,0.997085,1,2000.000000,1,COMPLETED_SUCCESSFULLY,1.870269,94.000000,95.870269,0.873184,94.873184,1.009289,20,-1.000000,""
3,w0,python3action_chameleon_3000,0.000000,1,-1.000000,1,COMPLETED_SUCCESSFULLY,95.870299,0.000010,95.870309,95.870299,95.870309,9587030.900803,20,-1.000000,""
14_updated,w0,python3action_linpack_6000_orion,0.997085,1,2000.000000,1,COMPLETED_SUCCESSFULLY,6.763132,106.000000,112.763132,5.766047,111.766047,1.054397,8,-1.000000,""
14,w0,python3action_linpack_6000,0.000000,1,-1.000000,1,COMPLETED_SUCCESSFULLY,112.763147,0.000010,112.763157,112.763147,112.763157,11276315.724677,8,-1.000000,""
72_updated,w0,python3action_linpack_6000_orion,0.997085,1,2000.000000,1,COMPLETED_SUCCESSFULLY,6.763162,106.000000,112.763162,5.766077,111.766077,1.054397,9,-1.000000,""
72,w0,python3action_linpack_6000,0.000000,1,-1.000000,1,COMPLETED_SUCCESSFULLY,112.763192,0.000010,112.763202,112.763192,112.763202,11276320.225279,9,-1.000000,""
56_updated,w0,python3action_chameleon_3000_troll,0.997085,1,2000.000000,1,COMPLETED_SUCCESSFULLY,95.870284,94.000000,189.870284,94.873199,188.873199,2.009289,19,-1.000000,""
56,w0,python3action_chameleon_3000,0.000000,1,-1.000000,1,COMPLETED_SUCCESSFULLY,189.870299,0.000010,189.870309,189.870299,189.870309,18987030.900803,19,-1.000000,""
93_updated,w0,python3action_chameleon_3000_troll,0.997085,1,2000.000000,1,COMPLETED_SUCCESSFULLY,95.870329,94.000000,189.870329,94.873244,188.873244,2.009290,20,-1.000000,""
93,w0,python3action_chameleon_3000,0.000000,1,-1.000000,1,COMPLETED_SUCCESSFULLY,189.870359,0.000010,189.870369,189.870359,189.870369,18987036.901606,20,-1.000000,""
35_updated,w0,python3action_facedetection_SampleVideo_30mb_nova,0.997085,1,2000.000000,1,COMPLETED_SUCCESSFULLY,31.501798,160.399990,191.901788,30.504713,190.904703,1.190179,2,-1.000000,""
35,w0,python3action_facedetection_SampleVideo_30mb,0.000000,1,-1.000000,1,COMPLETED_SUCCESSFULLY,191.901803,0.000010,191.901813,191.901803,191.901813,19190181.300201,2,-1.000000,""
47_updated,w0,python3action_facedetection_SampleVideo_30mb_nova,0.997085,1,2000.000000,1,COMPLETED_SUCCESSFULLY,31.501828,160.399990,191.901818,30.504743,190.904733,1.190179,3,-1.000000,""
54_updated,w0,python3action_facedetection_SampleVideo_30mb_nova,0.997085,1,2000.000000,1,COMPLETED_SUCCESSFULLY,31.501843,160.399990,191.901833,30.504758,190.904748,1.190179,4,-1.000000,""
47,w0,python3action_facedetection_SampleVideo_30mb,0.000000,1,-1.000000,1,COMPLETED_SUCCESSFULLY,191.901848,0.000010,191.901858,191.901848,191.901858,19190185.775577,3,-1.000000,""
67_updated,w0,python3action_facedetection_SampleVideo_30mb_nova,0.997085,1,2000.000000,1,COMPLETED_SUCCESSFULLY,31.501873,160.399990,191.901863,30.504788,190.904778,1.190179,5,-1.000000,""
54,w0,python3action_facedetection_SampleVideo_30mb,0.000000,1,-1.000000,1,COMPLETED_SUCCESSFULLY,191.901878,0.000010,191.901888,191.901878,191.901888,19190188.800201,4,-1.000000,""
69_updated,w0,python3action_facedetection_SampleVideo_30mb_nova,0.997085,1,2000.000000,1,COMPLETED_SUCCESSFULLY,31.501888,160.399990,191.901878,30.504803,190.904793,1.190180,6,-1.000000,""
74_updated,w0,python3action_facedetection_SampleVideo_30mb_nova,0.997085,1,2000.000000,1,COMPLETED_SUCCESSFULLY,31.501903,160.399990,191.901893,30.504818,190.904808,1.190180,7,-1.000000,""
67,w0,python3action_facedetection_SampleVideo_30mb,0.000000,1,-1.000000,1,COMPLETED_SUCCESSFULLY,191.901923,0.000010,191.901933,191.901923,191.901933,19190193.300803,5,-1.000000,""
69,w0,python3action_facedetection_SampleVideo_30mb,0.000000,1,-1.000000,1,COMPLETED_SUCCESSFULLY,191.901953,0.000010,191.901963,191.901953,191.901963,19190196.301205,6,-1.000000,""
74,w0,python3action_facedetection_SampleVideo_30mb,0.000000,1,-1.000000,1,COMPLETED_SUCCESSFULLY,191.901968,0.000010,191.901978,191.901968,191.901978,19190197.801406,7,-1.000000,""
91_updated,w0,python3action_facedetection_SampleVideo_30mb_nova,0.997085,1,2000.000000,1,COMPLETED_SUCCESSFULLY,31.502038,160.399990,191.902028,30.504953,190.904943,1.190181,25,-1.000000,""
114_updated,w0,python3action_facedetection_SampleVideo_30mb_nova,0.997085,1,2000.000000,1,COMPLETED_SUCCESSFULLY,31.502068,160.399990,191.902058,30.504983,190.904973,1.190181,26,-1.000000,""
91,w0,python3action_facedetection_SampleVideo_30mb,0.000000,1,-1.000000,1,COMPLETED_SUCCESSFULLY,191.902058,0.000010,191.902068,191.902058,191.902068,19190206.778388,25,-1.000000,""
121_updated,w0,python3action_facedetection_SampleVideo_30mb_nova,0.997085,1,2000.000000,1,COMPLETED_SUCCESSFULLY,31.502083,160.399990,191.902073,30.504998,190.904988,1.190181,27,-1.000000,""
114,w0,python3action_facedetection_SampleVideo_30mb,0.000000,1,-1.000000,1,COMPLETED_SUCCESSFULLY,191.902088,0.000010,191.902098,191.902088,191.902098,19190209.800201,26,-1.000000,""
145_updated,w0,python3action_facedetection_SampleVideo_30mb_nova,0.997085,1,2000.000000,1,COMPLETED_SUCCESSFULLY,31.502113,160.399990,191.902103,30.505028,190.905018,1.190181,28,-1.000000,""
121,w0,python3action_facedetection_SampleVideo_30mb,0.000000,1,-1.000000,1,COMPLETED_SUCCESSFULLY,191.902118,0.000010,191.902128,191.902118,191.902128,19190212.800602,27,-1.000000,""
150_updated,w0,python3action_facedetection_SampleVideo_30mb_nova,0.997085,1,2000.000000,1,COMPLETED_SUCCESSFULLY,31.502128,160.399990,191.902118,30.505043,190.905033,1.190181,29,-1.000000,""
145,w0,python3action_facedetection_SampleVideo_30mb,0.000000,1,-1.000000,1,COMPLETED_SUCCESSFULLY,191.902163,0.000010,191.902173,191.902163,191.902173,19190217.301205,28,-1.000000,""
150,w0,python3action_facedetection_SampleVideo_30mb,0.000000,1,-1.000000,1,COMPLETED_SUCCESSFULLY,191.902193,0.000010,191.902203,191.902193,191.902203,19190220.301606,29,-1.000000,""
python3action_pyaes_job13_4,w0,python3action_pyaes,0.997085,1,2000.000000,1,COMPLETED_SUCCESSFULLY,191.901998,2.134958,194.036956,190.904913,193.039871,90.418570,5,-1.000000,""
python3action_pyaes_job26_5,w0,python3action_pyaes,0.997085,1,2000.000000,1,COMPLETED_SUCCESSFULLY,191.902013,2.134958,194.036971,190.904928,193.039886,90.418577,6,-1.000000,""
python3action_pyaes_job58_6,w0,python3action_pyaes,0.997085,1,2000.000000,1,COMPLETED_SUCCESSFULLY,191.902028,2.134958,194.036986,190.904943,193.039901,90.418584,7,-1.000000,""
python3action_pyaes_job106_17,w0,python3action_pyaes,0.997085,1,2000.000000,1,COMPLETED_SUCCESSFULLY,191.902103,2.134958,194.037061,190.905018,193.039976,90.418619,25,-1.000000,""
python3action_pyaes_job111_18,w0,python3action_pyaes,0.997085,1,2000.000000,1,COMPLETED_SUCCESSFULLY,191.902148,2.134958,194.037106,190.905063,193.040021,90.418640,26,-1.000000,""
python3action_pyaes_job117_19,w0,python3action_pyaes,0.997085,1,2000.000000,1,COMPLETED_SUCCESSFULLY,191.902178,2.134958,194.037136,190.905093,193.040051,90.418654,27,-1.000000,""
python3action_pyaes_job118_20,w0,python3action_pyaes,0.997085,1,2000.000000,1,COMPLETED_SUCCESSFULLY,191.902223,2.134958,194.037181,190.905138,193.040096,90.418676,28,-1.000000,""
python3action_pyaes_job124_21,w0,python3action_pyaes,0.997085,1,2000.000000,1,COMPLETED_SUCCESSFULLY,191.902238,2.134958,194.037196,190.905153,193.040111,90.418683,29,-1.000000,""
100_updated,w0,python3action_linpack_6000_orion,0.997085,1,2000.000000,1,COMPLETED_SUCCESSFULLY,112.763177,106.000000,218.763177,111.766092,217.766092,2.054397,8,-1.000000,""
100,w0,python3action_linpack_6000,0.000000,1,-1.000000,1,COMPLETED_SUCCESSFULLY,218.763192,0.000010,218.763202,218.763192,218.763202,21876320.225279,8,-1.000000,""
109_updated,w0,python3action_linpack_6000_orion,0.997085,1,2000.000000,1,COMPLETED_SUCCESSFULLY,112.763222,106.000000,218.763222,111.766137,217.766137,2.054398,9,-1.000000,""
109,w0,python3action_linpack_6000,0.000000,1,-1.000000,1,COMPLETED_SUCCESSFULLY,218.763252,0.000010,218.763262,218.763252,218.763262,21876326.226082,9,-1.000000,""
16_updated,w0,python3action_videoprocessing_SampleVideo_50mb_taurus,0.997085,1,2000.000000,1,COMPLETED_SUCCESSFULLY,73.014690,154.250029,227.264719,72.017605,226.267634,1.466889,10,-1.000000,""
16,w0,python3action_videoprocessing_SampleVideo_50mb,0.000000,1,-1.000000,1,COMPLETED_SUCCESSFULLY,227.264734,0.000010,227.264744,227.264734,227.264744,22726474.416463,10,-1.000000,""
18_updated,w0,python3action_videoprocessing_SampleVideo_50mb_taurus,0.997085,1,2000.000000,1,COMPLETED_SUCCESSFULLY,73.014720,154.250029,227.264749,72.017635,226.267664,1.466889,11,-1.000000,""
49_updated,w0,python3action_videoprocessing_SampleVideo_50mb_taurus,0.997085,1,2000.000000,1,COMPLETED_SUCCESSFULLY,73.014735,154.250029,227.264764,72.017650,226.267679,1.466889,13,-1.000000,""
18,w0,python3action_videoprocessing_SampleVideo_50mb,0.000000,1,-1.000000,1,COMPLETED_SUCCESSFULLY,227.264779,0.000010,227.264789,227.264779,227.264789,22726478.917066,11,-1.000000,""
82_updated,w0,python3action_videoprocessing_SampleVideo_50mb_taurus,0.997085,1,2000.000000,1,COMPLETED_SUCCESSFULLY,73.014765,154.250029,227.264794,72.017680,226.267709,1.466889,14,-1.000000,""
86_updated,w0,python3action_videoprocessing_SampleVideo_50mb_taurus,0.997085,1,2000.000000,1,COMPLETED_SUCCESSFULLY,73.014780,154.250029,227.264809,72.017695,226.267724,1.466889,15,-1.000000,""
49,w0,python3action_videoprocessing_SampleVideo_50mb,0.000000,1,-1.000000,1,COMPLETED_SUCCESSFULLY,227.264809,0.000010,227.264819,227.264809,227.264819,22726481.917467,13,-1.000000,""
88_updated,w0,python3action_videoprocessing_SampleVideo_50mb_taurus,0.997085,1,2000.000000,1,COMPLETED_SUCCESSFULLY,73.014795,154.250029,227.264824,72.017710,226.267739,1.466889,16,-1.000000,""
82,w0,python3action_videoprocessing_SampleVideo_50mb,0.000000,1,-1.000000,1,COMPLETED_SUCCESSFULLY,227.264839,0.000010,227.264849,227.264839,227.264849,22726484.917869,14,-1.000000,""
86,w0,python3action_videoprocessing_SampleVideo_50mb,0.000000,1,-1.000000,1,COMPLETED_SUCCESSFULLY,227.264869,0.000010,227.264879,227.264869,227.264879,22726487.918270,15,-1.000000,""
88,w0,python3action_videoprocessing_SampleVideo_50mb,0.000000,1,-1.000000,1,COMPLETED_SUCCESSFULLY,227.264899,0.000010,227.264909,227.264899,227.264909,22726490.918672,16,-1.000000,""
95_updated,w0,python3action_chameleon_3000_troll,0.997085,1,2000.000000,1,COMPLETED_SUCCESSFULLY,189.870329,94.000000,283.870329,188.873244,282.873244,3.009290,19,-1.000000,""
95,w0,python3action_chameleon_3000,0.000000,1,-1.000000,1,COMPLETED_SUCCESSFULLY,283.870344,0.000010,283.870354,283.870344,283.870354,28387035.401406,19,-1.000000,""
98_updated,w0,python3action_chameleon_3000_troll,0.997085,1,2000.000000,1,COMPLETED_SUCCESSFULLY,189.870389,94.000000,283.870389,188.873304,282.873304,3.009290,20,-1.000000,""
98,w0,python3action_chameleon_3000,0.000000,1,-1.000000,1,COMPLETED_SUCCESSFULLY,283.870404,0.000010,283.870414,283.870404,283.870414,28387041.402209,20,-1.000000,""
116_updated,w0,python3action_linpack_6000_orion,0.997085,1,2000.000000,1,COMPLETED_SUCCESSFULLY,218.763222,106.000000,324.763222,217.766137,323.766137,3.054398,8,-1.000000,""
116,w0,python3action_linpack_6000,0.000000,1,-1.000000,1,COMPLETED_SUCCESSFULLY,324.763237,0.000010,324.763247,324.763237,324.763247,32476324.725881,8,-1.000000,""
120_updated,w0,python3action_linpack_6000_orion,0.997085,1,2000.000000,1,COMPLETED_SUCCESSFULLY,218.763282,106.000000,324.763282,217.766197,323.766197,3.054398,9,-1.000000,""
120,w0,python3action_linpack_6000,0.000000,1,-1.000000,1,COMPLETED_SUCCESSFULLY,324.763297,0.000010,324.763307,324.763297,324.763307,32476330.726685,9,-1.000000,""
13_updated,w0,python3action_pyaes_4000_nova,0.997085,1,2000.000000,1,COMPLETED_SUCCESSFULLY,194.036971,139.600010,333.636981,193.039886,332.639896,2.382807,5,-1.000000,""
13,w0,python3action_pyaes_4000,0.000000,1,-1.000000,1,COMPLETED_SUCCESSFULLY,333.636996,0.000010,333.637006,333.636996,333.637006,33363700.602873,5,-1.000000,""
26_updated,w0,python3action_pyaes_4000_nova,0.997085,1,2000.000000,1,COMPLETED_SUCCESSFULLY,194.037001,139.600010,333.637011,193.039916,332.639926,2.382807,6,-1.000000,""
58_updated,w0,python3action_pyaes_4000_nova,0.997085,1,2000.000000,1,COMPLETED_SUCCESSFULLY,194.037016,139.600010,333.637026,193.039931,332.639941,2.382807,7,-1.000000,""
26,w0,python3action_pyaes_4000,0.000000,1,-1.000000,1,COMPLETED_SUCCESSFULLY,333.637041,0.000010,333.637051,333.637041,333.637051,33363705.079655,6,-1.000000,""
58,w0,python3action_pyaes_4000,0.000000,1,-1.000000,1,COMPLETED_SUCCESSFULLY,333.637071,0.000010,333.637081,333.637071,333.637081,33363708.100201,7,-1.000000,""
106_updated,w0,python3action_pyaes_4000_nova,0.997085,1,2000.000000,1,COMPLETED_SUCCESSFULLY,194.037076,139.600010,333.637086,193.039991,332.640001,2.382808,25,-1.000000,""
111_updated,w0,python3action_pyaes_4000_nova,0.997085,1,2000.000000,1,COMPLETED_SUCCESSFULLY,194.037121,139.600010,333.637131,193.040036,332.640046,2.382808,26,-1.000000,""
106,w0,python3action_pyaes_4000,0.000000,1,-1.000000,1,COMPLETED_SUCCESSFULLY,333.637131,0.000010,333.637141,333.637131,333.637141,33363714.101004,25,-1.000000,""
117_updated,w0,python3action_pyaes_4000_nova,0.997085,1,2000.000000,1,COMPLETED_SUCCESSFULLY,194.037151,139.600010,333.637161,193.040066,332.640076,2.382808,27,-1.000000,""
111,w0,python3action_pyaes_4000,0.000000,1,-1.000000,1,COMPLETED_SUCCESSFULLY,333.637161,0.000010,333.637171,333.637161,333.637171,33363717.101406,26,-1.000000,""
118_updated,w0,python3action_pyaes_4000_nova,0.997085,1,2000.000000,1,COMPLETED_SUCCESSFULLY,194.037196,139.600010,333.637206,193.040111,332.640121,2.382809,28,-1.000000,""
117,w0,python3action_pyaes_4000,0.000000,1,-1.000000,1,COMPLETED_SUCCESSFULLY,333.637206,0.000010,333.637216,333.637206,333.637216,33363721.602008,27,-1.000000,""
124_updated,w0,python3action_pyaes_4000_nova,0.997085,1,2000.000000,1,COMPLETED_SUCCESSFULLY,194.037226,139.600010,333.637236,193.040141,332.640151,2.382809,29,-1.000000,""
118,w0,python3action_pyaes_4000,0.000000,1,-1.000000,1,COMPLETED_SUCCESSFULLY,333.637251,0.000010,333.637261,333.637251,333.637261,33363726.102610,28,-1.000000,""
124,w0,python3action_pyaes_4000,0.000000,1,-1.000000,1,COMPLETED_SUCCESSFULLY,333.637281,0.000010,333.637291,333.637281,333.637291,33363729.103012,29,-1.000000,""
python3action_floatoperation_job28_4,w0,python3action_floatoperation,0.997085,1,2000.000000,1,COMPLETED_SUCCESSFULLY,333.637026,2.439945,336.076971,332.639941,335.079886,137.330901,5,-1.000000,""
python3action_floatoperation_job48_5,w0,python3action_floatoperation,0.997085,1,2000.000000,1,COMPLETED_SUCCESSFULLY,333.637086,2.439945,336.077031,332.640001,335.079946,137.330926,6,-1.000000,""
python3action_floatoperation_job61_6,w0,python3action_floatoperation,0.997085,1,2000.000000,1,COMPLETED_SUCCESSFULLY,333.637116,2.439945,336.077061,332.640031,335.079976,137.330938,7,-1.000000,""
python3action_floatoperation_job63_17,w0,python3action_floatoperation,0.997085,1,2000.000000,1,COMPLETED_SUCCESSFULLY,333.637176,2.439945,336.077121,332.640091,335.080036,137.330963,25,-1.000000,""
python3action_floatoperation_job64_18,w0,python3action_floatoperation,0.997085,1,2000.000000,1,COMPLETED_SUCCESSFULLY,333.637221,2.439945,336.077166,332.640136,335.080081,137.330981,26,-1.000000,""
python3action_floatoperation_job73_19,w0,python3action_floatoperation,0.997085,1,2000.000000,1,COMPLETED_SUCCESSFULLY,333.637266,2.439945,336.077211,332.640181,335.080126,137.331000,27,-1.000000,""
python3action_floatoperation_job89_20,w0,python3action_floatoperation,0.997085,1,2000.000000,1,COMPLETED_SUCCESSFULLY,333.637311,2.439945,336.077256,332.640226,335.080171,137.331018,28,-1.000000,""
python3action_floatoperation_job107_21,w0,python3action_floatoperation,0.997085,1,2000.000000,1,COMPLETED_SUCCESSFULLY,333.637326,2.439945,336.077271,332.640241,335.080186,137.331024,29,-1.000000,""
174_updated,w0,python3action_facedetection_SampleVideo_30mb_nova,0.997085,1,2000.000000,1,COMPLETED_SUCCESSFULLY,191.901833,160.399990,352.301823,190.904748,351.304738,2.190179,2,-1.000000,""
174,w0,python3action_facedetection_SampleVideo_30mb,0.000000,1,-1.000000,1,COMPLETED_SUCCESSFULLY,352.301838,0.000010,352.301848,352.301838,352.301848,35230184.800201,2,-1.000000,""
180_updated,w0,python3action_facedetection_SampleVideo_30mb_nova,0.997085,1,2000.000000,1,COMPLETED_SUCCESSFULLY,191.901893,160.399990,352.301883,190.904808,351.304798,2.190180,3,-1.000000,""
180,w0,python3action_facedetection_SampleVideo_30mb,0.000000,1,-1.000000,1,COMPLETED_SUCCESSFULLY,352.301898,0.000010,352.301908,352.301898,352.301908,35230190.823706,3,-1.000000,""
184_updated,w0,python3action_facedetection_SampleVideo_30mb_nova,0.997085,1,2000.000000,1,COMPLETED_SUCCESSFULLY,191.901938,160.399990,352.301928,190.904853,351.304843,2.190180,4,-1.000000,""
184,w0,python3action_facedetection_SampleVideo_30mb,0.000000,1,-1.000000,1,COMPLETED_SUCCESSFULLY,352.301958,0.000010,352.301968,352.301958,352.301968,35230196.824509,4,-1.000000,""
python3action_pyaes_job159_1,w0,python3action_pyaes,0.997085,1,2000.000000,1,COMPLETED_SUCCESSFULLY,352.301868,2.134958,354.436826,351.304783,353.439741,165.548785,2,-1.000000,""
python3action_pyaes_job190_2,w0,python3action_pyaes,0.997085,1,2000.000000,1,COMPLETED_SUCCESSFULLY,352.301928,2.134958,354.436886,351.304843,353.439801,165.548813,3,-1.000000,""
python3action_floatoperation_job21_3,w0,python3action_floatoperation,0.997085,1,2000.000000,1,COMPLETED_SUCCESSFULLY,352.301988,2.439945,354.741934,351.304903,353.744849,144.980647,4,-1.000000,""
102_updated,w0,python3action_chameleon_3000_troll,0.997085,1,2000.000000,1,COMPLETED_SUCCESSFULLY,283.870374,94.000000,377.870374,282.873289,376.873289,4.009290,19,-1.000000,""
102,w0,python3action_chameleon_3000,0.000000,1,-1.000000,1,COMPLETED_SUCCESSFULLY,377.870389,0.000010,377.870399,377.870389,377.870399,37787039.902008,19,-1.000000,""
125_updated,w0,python3action_chameleon_3000_troll,0.997085,1,2000.000000,1,COMPLETED_SUCCESSFULLY,283.870434,94.000000,377.870434,282.873349,376.873349,4.009291,20,-1.000000,""
125,w0,python3action_chameleon_3000,0.000000,1,-1.000000,1,COMPLETED_SUCCESSFULLY,377.870449,0.000010,377.870459,377.870449,377.870459,37787045.902811,20,-1.000000,""
90_updated,w0,python3action_videoprocessing_SampleVideo_50mb_taurus,0.997085,1,2000.000000,1,COMPLETED_SUCCESSFULLY,227.264764,154.250029,381.514793,226.267679,380.517708,2.466889,10,-1.000000,""
90,w0,python3action_videoprocessing_SampleVideo_50mb,0.000000,1,-1.000000,1,COMPLETED_SUCCESSFULLY,381.514808,0.000010,381.514818,381.514808,381.514818,38151481.800240,10,-1.000000,""
96_updated,w0,python3action_videoprocessing_SampleVideo_50mb_taurus,0.997085,1,2000.000000,1,COMPLETED_SUCCESSFULLY,227.264824,154.250029,381.514853,226.267739,380.517768,2.466889,11,-1.000000,""
96,w0,python3action_videoprocessing_SampleVideo_50mb,0.000000,1,-1.000000,1,COMPLETED_SUCCESSFULLY,381.514868,0.000010,381.514878,381.514868,381.514878,38151487.801043,11,-1.000000,""
115_updated,w0,python3action_videoprocessing_SampleVideo_50mb_taurus,0.997085,1,2000.000000,1,COMPLETED_SUCCESSFULLY,227.264884,154.250029,381.514913,226.267799,380.517828,2.466890,13,-1.000000,""
115,w0,python3action_videoprocessing_SampleVideo_50mb,0.000000,1,-1.000000,1,COMPLETED_SUCCESSFULLY,381.514928,0.000010,381.514938,381.514928,381.514938,38151493.801846,13,-1.000000,""
151_updated,w0,python3action_videoprocessing_SampleVideo_50mb_taurus,0.997085,1,2000.000000,1,COMPLETED_SUCCESSFULLY,227.264914,154.250029,381.514943,226.267829,380.517858,2.466890,14,-1.000000,""
161_updated,w0,python3action_videoprocessing_SampleVideo_50mb_taurus,0.997085,1,2000.000000,1,COMPLETED_SUCCESSFULLY,227.264944,154.250029,381.514973,226.267859,380.517888,2.466890,15,-1.000000,""
151,w0,python3action_videoprocessing_SampleVideo_50mb,0.000000,1,-1.000000,1,COMPLETED_SUCCESSFULLY,381.514973,0.000010,381.514983,381.514973,381.514983,38151498.302449,14,-1.000000,""
166_updated,w0,python3action_videoprocessing_SampleVideo_50mb_taurus,0.997085,1,2000.000000,1,COMPLETED_SUCCESSFULLY,227.264959,154.250029,381.514988,226.267874,380.517903,2.466890,16,-1.000000,""
161,w0,python3action_videoprocessing_SampleVideo_50mb,0.000000,1,-1.000000,1,COMPLETED_SUCCESSFULLY,381.515003,0.000010,381.515013,381.515003,381.515013,38151501.302850,15,-1.000000,""
166,w0,python3action_videoprocessing_SampleVideo_50mb,0.000000,1,-1.000000,1,COMPLETED_SUCCESSFULLY,381.515033,0.000010,381.515043,381.515033,381.515043,38151504.303252,16,-1.000000,""
python3action_facedetection_job65_12,w0,python3action_facedetection_reduced_0.91,0.997085,1,2000.000000,1,COMPLETED_SUCCESSFULLY,381.515018,6.172496,387.687514,380.517933,386.690429,62.647334,14,-1.000000,""
python3action_facedetection_job83_13,w0,python3action_facedetection_reduced_0.91,0.997085,1,2000.000000,1,COMPLETED_SUCCESSFULLY,381.515063,6.172496,387.687559,380.517978,386.690474,62.647341,15,-1.000000,""
python3action_facedetection_job85_14,w0,python3action_facedetection_reduced_0.91,0.997085,1,2000.000000,1,COMPLETED_SUCCESSFULLY,381.515078,6.172496,387.687574,380.517993,386.690489,62.647344,16,-1.000000,""
134_updated,w0,python3action_linpack_6000_orion,0.997085,1,2000.000000,1,COMPLETED_SUCCESSFULLY,324.763267,106.000000,430.763267,323.766182,429.766182,4.054398,8,-1.000000,""
134,w0,python3action_linpack_6000,0.000000,1,-1.000000,1,COMPLETED_SUCCESSFULLY,430.763282,0.000010,430.763292,430.763282,430.763292,43076329.226484,8,-1.000000,""
137_updated,w0,python3action_linpack_6000_orion,0.997085,1,2000.000000,1,COMPLETED_SUCCESSFULLY,324.763327,106.000000,430.763327,323.766242,429.766242,4.054399,9,-1.000000,""
137,w0,python3action_linpack_6000,0.000000,1,-1.000000,1,COMPLETED_SUCCESSFULLY,430.763342,0.000010,430.763352,430.763342,430.763352,43076335.227287,9,-1.000000,""
28_updated,w0,python3action_floatoperation_200000000_nova,0.997085,1,2000.000000,1,COMPLETED_SUCCESSFULLY,336.076986,135.399990,471.476976,335.079901,470.479891,3.474741,5,-1.000000,""
28,w0,python3action_floatoperation_200000000,0.000000,1,-1.000000,1,COMPLETED_SUCCESSFULLY,471.476991,0.000010,471.477001,471.476991,471.477001,47147700.132340,5,-1.000000,""
48_updated,w0,python3action_floatoperation_200000000_nova,0.997085,1,2000.000000,1,COMPLETED_SUCCESSFULLY,336.077046,135.399990,471.477037,335.079961,470.479952,3.474741,6,-1.000000,""
48,w0,python3action_floatoperation_200000000,0.000000,1,-1.000000,1,COMPLETED_SUCCESSFULLY,471.477052,0.000010,471.477062,471.477052,471.477062,47147706.200201,6,-1.000000,""
61_updated,w0,python3action_floatoperation_200000000_nova,0.997085,1,2000.000000,1,COMPLETED_SUCCESSFULLY,336.077076,135.399990,471.477067,335.079991,470.479982,3.474742,7,-1.000000,""
61,w0,python3action_floatoperation_200000000,0.000000,1,-1.000000,1,COMPLETED_SUCCESSFULLY,471.477097,0.000010,471.477107,471.477097,471.477107,47147710.700402,7,-1.000000,""
63_updated,w0,python3action_floatoperation_200000000_nova,0.997085,1,2000.000000,1,COMPLETED_SUCCESSFULLY,336.077136,135.399990,471.477127,335.080051,470.480042,3.474742,25,-1.000000,""
63,w0,python3action_floatoperation_200000000,0.000000,1,-1.000000,1,COMPLETED_SUCCESSFULLY,471.477157,0.000010,471.477167,471.477157,471.477167,47147716.700201,25,-1.000000,""
64_updated,w0,python3action_floatoperation_200000000_nova,0.997085,1,2000.000000,1,COMPLETED_SUCCESSFULLY,336.077181,135.399990,471.477172,335.080096,470.480087,3.474742,26,-1.000000,""
64,w0,python3action_floatoperation_200000000,0.000000,1,-1.000000,1,COMPLETED_SUCCESSFULLY,471.477202,0.000010,471.477212,471.477202,471.477212,47147721.200402,26,-1.000000,""
73_updated,w0,python3action_floatoperation_200000000_nova,0.997085,1,2000.000000,1,COMPLETED_SUCCESSFULLY,336.077226,135.399990,471.477217,335.080141,470.480132,3.474743,27,-1.000000,""
73,w0,python3action_floatoperation_200000000,0.000000,1,-1.000000,1,COMPLETED_SUCCESSFULLY,471.477247,0.000010,471.477257,471.477247,471.477257,47147725.700402,27,-1.000000,""
89_updated,w0,python3action_floatoperation_200000000_nova,0.997085,1,2000.000000,1,COMPLETED_SUCCESSFULLY,336.077271,135.399990,471.477262,335.080186,470.480177,3.474743,28,-1.000000,""
107_updated,w0,python3action_floatoperation_200000000_nova,0.997085,1,2000.000000,1,COMPLETED_SUCCESSFULLY,336.077301,135.399990,471.477292,335.080216,470.480207,3.474743,29,-1.000000,""
89,w0,python3action_floatoperation_200000000,0.000000,1,-1.000000,1,COMPLETED_SUCCESSFULLY,471.477292,0.000010,471.477302,471.477292,471.477302,47147730.156701,28,-1.000000,""
107,w0,python3action_floatoperation_200000000,0.000000,1,-1.000000,1,COMPLETED_SUCCESSFULLY,471.477322,0.000010,471.477332,471.477322,471.477332,47147733.200201,29,-1.000000,""
158_updated,w0,python3action_chameleon_3000_troll,0.997085,1,2000.000000,1,COMPLETED_SUCCESSFULLY,377.870419,94.000000,471.870419,376.873334,470.873334,5.009291,19,-1.000000,""
158,w0,python3action_chameleon_3000,0.000000,1,-1.000000,1,COMPLETED_SUCCESSFULLY,471.870434,0.000010,471.870444,471.870434,471.870444,47187044.402611,19,-1.000000,""
173_updated,w0,python3action_chameleon_3000_troll,0.997085,1,2000.000000,1,COMPLETED_SUCCESSFULLY,377.870479,94.000000,471.870479,376.873394,470.873394,5.009291,20,-1.000000,""
173,w0,python3action_chameleon_3000,0.000000,1,-1.000000,1,COMPLETED_SUCCESSFULLY,471.870494,0.000010,471.870504,471.870494,471.870504,47187050.403414,20,-1.000000,""
python3action_video_processing_job5_18,w0,python3action_video_processing_reduced_0.91,0.997085,1,2000.000000,1,COMPLETED_SUCCESSFULLY,471.477232,2.614259,474.091491,470.480147,473.094406,180.966957,26,-1.000000,""
python3action_video_processing_job10_19,w0,python3action_video_processing_reduced_0.91,0.997085,1,2000.000000,1,COMPLETED_SUCCESSFULLY,471.477277,2.614259,474.091536,470.480192,473.094451,180.966974,27,-1.000000,""
python3action_video_processing_job17_20,w0,python3action_video_processing_reduced_0.91,0.997085,1,2000.000000,1,COMPLETED_SUCCESSFULLY,471.477337,2.614259,474.091596,470.480252,473.094511,180.966997,28,-1.000000,""
python3action_video_processing_job31_21,w0,python3action_video_processing_reduced_0.91,0.997085,1,2000.000000,1,COMPLETED_SUCCESSFULLY,471.477367,2.614259,474.091626,470.480282,473.094541,180.967009,29,-1.000000,""
21_updated,w0,python3action_floatoperation_200000000_nova,0.997085,1,2000.000000,1,COMPLETED_SUCCESSFULLY,354.741949,135.399990,490.141939,353.744864,489.144854,3.612592,4,-1.000000,""
21,w0,python3action_floatoperation_200000000,0.000000,1,-1.000000,1,COMPLETED_SUCCESSFULLY,490.141954,0.000010,490.141964,490.141954,490.141964,49014196.423506,4,-1.000000,""
159_updated,w0,python3action_pyaes_4000_nova,0.997085,1,2000.000000,1,COMPLETED_SUCCESSFULLY,354.436841,139.600010,494.036851,353.439756,493.039766,3.531803,2,-1.000000,""
159,w0,python3action_pyaes_4000,0.000000,1,-1.000000,1,COMPLETED_SUCCESSFULLY,494.036866,0.000010,494.036876,494.036866,494.036876,49403687.601669,2,-1.000000,""
190_updated,w0,python3action_pyaes_4000_nova,0.997085,1,2000.000000,1,COMPLETED_SUCCESSFULLY,354.436901,139.600010,494.036911,353.439816,493.039826,3.531804,3,-1.000000,""
190,w0,python3action_pyaes_4000,0.000000,1,-1.000000,1,COMPLETED_SUCCESSFULLY,494.036926,0.000010,494.036936,494.036926,494.036936,49403693.625174,3,-1.000000,""
python3action_floatoperation_job122_1,w0,python3action_floatoperation,0.997085,1,2000.000000,1,COMPLETED_SUCCESSFULLY,494.036896,2.439945,496.476841,493.039811,495.479756,203.070027,2,-1.000000,""
python3action_floatoperation_job128_2,w0,python3action_floatoperation,0.997085,1,2000.000000,1,COMPLETED_SUCCESSFULLY,494.036956,2.439945,496.476902,493.039871,495.479817,203.070052,3,-1.000000,""
65_updated,w0,python3action_facedetection_SampleVideo_50mb_taurus,0.997085,1,2000.000000,1,COMPLETED_SUCCESSFULLY,387.687529,134.600046,522.287575,386.690444,521.290490,3.872885,14,-1.000000,""
65,w0,python3action_facedetection_SampleVideo_50mb,0.000000,1,-1.000000,1,COMPLETED_SUCCESSFULLY,522.287590,0.000010,522.287600,522.287590,522.287600,52228760.033481,14,-1.000000,""
83_updated,w0,python3action_facedetection_SampleVideo_50mb_taurus,0.997085,1,2000.000000,1,COMPLETED_SUCCESSFULLY,387.687574,134.600046,522.287620,386.690489,521.290535,3.872885,15,-1.000000,""
python3action_image_processing_job6_12,w0,python3action_image_processing_reduced_1.73,0.997085,1,2000.000000,1,COMPLETED_SUCCESSFULLY,522.287620,0.000000,522.287620,521.290535,521.290535,4522011874199.115234,14,-1.000000,""
85_updated,w0,python3action_facedetection_SampleVideo_50mb_taurus,0.997085,1,2000.000000,1,COMPLETED_SUCCESSFULLY,387.687604,134.600046,522.287650,386.690519,521.290565,3.872885,16,-1.000000,""
83,w0,python3action_facedetection_SampleVideo_50mb,0.000000,1,-1.000000,1,COMPLETED_SUCCESSFULLY,522.287650,0.000010,522.287660,522.287650,522.287660,52228766.034284,15,-1.000000,""
85,w0,python3action_facedetection_SampleVideo_50mb,0.000000,1,-1.000000,1,COMPLETED_SUCCESSFULLY,522.287695,0.000010,522.287705,522.287695,522.287705,52228770.534886,16,-1.000000,""
python3action_image_processing_job40_13,w0,python3action_image_processing_reduced_1.73,0.997085,1,2000.000000,1,COMPLETED_SUCCESSFULLY,522.287710,0.000000,522.287710,521.290625,521.290625,4522012655021.943359,15,-1.000000,""
python3action_image_processing_job45_14,w0,python3action_image_processing_reduced_1.73,0.997085,1,2000.000000,1,COMPLETED_SUCCESSFULLY,522.287740,0.000000,522.287740,521.290655,521.290655,4522012915296.219727,16,-1.000000,""
179_updated,w0,python3action_videoprocessing_SampleVideo_50mb_taurus,0.997085,1,2000.000000,1,COMPLETED_SUCCESSFULLY,381.514838,154.250029,535.764867,380.517753,534.767782,3.466889,10,-1.000000,""
179,w0,python3action_videoprocessing_SampleVideo_50mb,0.000000,1,-1.000000,1,COMPLETED_SUCCESSFULLY,535.764882,0.000010,535.764892,535.764882,535.764892,53576489.200201,10,-1.000000,""
191_updated,w0,python3action_videoprocessing_SampleVideo_50mb_taurus,0.997085,1,2000.000000,1,COMPLETED_SUCCESSFULLY,381.514898,154.250029,535.764927,380.517813,534.767842,3.466890,11,-1.000000,""
191,w0,python3action_videoprocessing_SampleVideo_50mb,0.000000,1,-1.000000,1,COMPLETED_SUCCESSFULLY,535.764942,0.000010,535.764952,535.764942,535.764952,53576495.200201,11,-1.000000,""
193_updated,w0,python3action_videoprocessing_SampleVideo_50mb_taurus,0.997085,1,2000.000000,1,COMPLETED_SUCCESSFULLY,381.514958,154.250029,535.764987,380.517873,534.767902,3.466890,13,-1.000000,""
193,w0,python3action_videoprocessing_SampleVideo_50mb,0.000000,1,-1.000000,1,COMPLETED_SUCCESSFULLY,535.765002,0.000010,535.765012,535.765002,535.765012,53576501.200201,13,-1.000000,""
138_updated,w0,python3action_linpack_6000_orion,0.997085,1,2000.000000,1,COMPLETED_SUCCESSFULLY,430.763312,106.000000,536.763312,429.766227,535.766227,5.054398,8,-1.000000,""
138,w0,python3action_linpack_6000,0.000000,1,-1.000000,1,COMPLETED_SUCCESSFULLY,536.763327,0.000010,536.763337,536.763327,536.763337,53676333.727087,8,-1.000000,""
153_updated,w0,python3action_linpack_6000_orion,0.997085,1,2000.000000,1,COMPLETED_SUCCESSFULLY,430.763372,106.000000,536.763372,429.766287,535.766287,5.054399,9,-1.000000,""
153,w0,python3action_linpack_6000,0.000000,1,-1.000000,1,COMPLETED_SUCCESSFULLY,536.763387,0.000010,536.763397,536.763387,536.763397,53676339.727890,9,-1.000000,""
python3action_facedetection_job131_9,w0,python3action_facedetection_reduced_0.91,0.997085,1,2000.000000,1,COMPLETED_SUCCESSFULLY,535.764912,6.172496,541.937408,534.767827,540.940323,87.637207,10,-1.000000,""
python3action_facedetection_job133_10,w0,python3action_facedetection_reduced_0.91,0.997085,1,2000.000000,1,COMPLETED_SUCCESSFULLY,535.764972,6.172496,541.937468,534.767887,540.940383,87.637217,11,-1.000000,""
python3action_facedetection_job135_11,w0,python3action_facedetection_reduced_0.91,0.997085,1,2000.000000,1,COMPLETED_SUCCESSFULLY,535.765032,6.172496,541.937528,534.767947,540.940443,87.637226,13,-1.000000,""
186_updated,w0,python3action_chameleon_3000_troll,0.997085,1,2000.000000,1,COMPLETED_SUCCESSFULLY,471.870464,94.000000,565.870464,470.873379,564.873379,6.009291,19,-1.000000,""
186,w0,python3action_chameleon_3000,0.000000,1,-1.000000,1,COMPLETED_SUCCESSFULLY,565.870479,0.000010,565.870489,565.870479,565.870489,56587048.903213,19,-1.000000,""
199_updated,w0,python3action_chameleon_3000_troll,0.997085,1,2000.000000,1,COMPLETED_SUCCESSFULLY,471.870524,94.000000,565.870524,470.873439,564.873439,6.009292,20,-1.000000,""
199,w0,python3action_chameleon_3000,0.000000,1,-1.000000,1,COMPLETED_SUCCESSFULLY,565.870539,0.000010,565.870549,565.870539,565.870549,56587054.904017,20,-1.000000,""
python3action_image_processing_job24_15,w0,python3action_image_processing,0.997085,1,2000.000000,1,COMPLETED_SUCCESSFULLY,565.870509,12.398880,578.269389,564.873424,577.272304,46.558423,19,-1.000000,""
python3action_image_processing_job59_16,w0,python3action_image_processing,0.997085,1,2000.000000,1,COMPLETED_SUCCESSFULLY,565.870569,12.398880,578.269449,564.873484,577.272364,46.558428,20,-1.000000,""
5_updated,w0,python3action_videoprocessing_SampleVideo_30mb_nova,0.997085,1,2000.000000,1,COMPLETED_SUCCESSFULLY,474.091506,106.799980,580.891486,473.094421,579.894401,5.429724,26,-1.000000,""
5,w0,python3action_videoprocessing_SampleVideo_30mb,0.000000,1,-1.000000,1,COMPLETED_SUCCESSFULLY,580.891501,0.000010,580.891511,580.891501,580.891511,58089151.146609,26,-1.000000,""
10_updated,w0,python3action_videoprocessing_SampleVideo_30mb_nova,0.997085,1,2000.000000,1,COMPLETED_SUCCESSFULLY,474.091551,106.799980,580.891531,473.094466,579.894446,5.429724,27,-1.000000,""
python3action_modeltraining_job60_18,w0,python3action_modeltraining_reduced_1.94,0.997085,1,2000.000000,1,COMPLETED_SUCCESSFULLY,580.891531,0.000000,580.891531,579.894446,579.894446,11862338358553.376953,26,-1.000000,""
10,w0,python3action_videoprocessing_SampleVideo_30mb,0.000000,1,-1.000000,1,COMPLETED_SUCCESSFULLY,580.891561,0.000010,580.891571,580.891561,580.891571,58089157.147010,27,-1.000000,""
17_updated,w0,python3action_videoprocessing_SampleVideo_30mb_nova,0.997085,1,2000.000000,1,COMPLETED_SUCCESSFULLY,474.091611,106.799980,580.891591,473.094526,579.894506,5.429725,28,-1.000000,""
python3action_modeltraining_job71_19,w0,python3action_modeltraining_reduced_1.94,0.997085,1,2000.000000,1,COMPLETED_SUCCESSFULLY,580.891606,0.000000,580.891606,579.894521,579.894521,11862339892796.722656,27,-1.000000,""
31_updated,w0,python3action_videoprocessing_SampleVideo_30mb_nova,0.997085,1,2000.000000,1,COMPLETED_SUCCESSFULLY,474.091641,106.799980,580.891621,473.094556,579.894536,5.429725,29,-1.000000,""
17,w0,python3action_videoprocessing_SampleVideo_30mb,0.000000,1,-1.000000,1,COMPLETED_SUCCESSFULLY,580.891621,0.000010,580.891631,580.891621,580.891631,58089163.146609,28,-1.000000,""
31,w0,python3action_videoprocessing_SampleVideo_30mb,0.000000,1,-1.000000,1,COMPLETED_SUCCESSFULLY,580.891666,0.000010,580.891676,580.891666,580.891676,58089167.647211,29,-1.000000,""
python3action_modeltraining_job113_20,w0,python3action_modeltraining_reduced_1.94,0.997085,1,2000.000000,1,COMPLETED_SUCCESSFULLY,580.891681,0.000000,580.891681,579.894596,579.894596,11862341427122.222656,28,-1.000000,""
python3action_modeltraining_job155_21,w0,python3action_modeltraining_reduced_1.94,0.997085,1,2000.000000,1,COMPLETED_SUCCESSFULLY,580.891711,0.000000,580.891711,579.894626,579.894626,11862342040885.285156,29,-1.000000,""
143_updated,w0,python3action_floatoperation_200000000_nova,0.997085,1,2000.000000,1,COMPLETED_SUCCESSFULLY,471.477021,135.399990,606.877012,470.479936,605.879927,4.474741,5,-1.000000,""
143,w0,python3action_floatoperation_200000000,0.000000,1,-1.000000,1,COMPLETED_SUCCESSFULLY,606.877027,0.000010,606.877037,606.877027,606.877037,60687703.700201,5,-1.000000,""
167_updated,w0,python3action_floatoperation_200000000_nova,0.997085,1,2000.000000,1,COMPLETED_SUCCESSFULLY,471.477082,135.399990,606.877072,470.479997,605.879987,4.474742,6,-1.000000,""
167,w0,python3action_floatoperation_200000000,0.000000,1,-1.000000,1,COMPLETED_SUCCESSFULLY,606.877087,0.000010,606.877097,606.877087,606.877097,60687709.723505,6,-1.000000,""
183_updated,w0,python3action_floatoperation_200000000_nova,0.997085,1,2000.000000,1,COMPLETED_SUCCESSFULLY,471.477127,135.399990,606.877117,470.480042,605.880032,4.474742,7,-1.000000,""
183,w0,python3action_floatoperation_200000000,0.000000,1,-1.000000,1,COMPLETED_SUCCESSFULLY,606.877147,0.000010,606.877157,606.877147,606.877157,60687715.700201,7,-1.000000,""
python3action_modeltraining_job8_6,w0,python3action_modeltraining_reduced_0.94,0.997085,1,2000.000000,1,COMPLETED_SUCCESSFULLY,606.877177,0.000000,606.877177,605.880092,605.880092,12393901510672.927734,7,-1.000000,""
185_updated,w0,python3action_floatoperation_200000000_nova,0.997085,1,2000.000000,1,COMPLETED_SUCCESSFULLY,471.477187,135.399990,606.877177,470.480102,605.880092,4.474743,25,-1.000000,""
185,w0,python3action_floatoperation_200000000,0.000000,1,-1.000000,1,COMPLETED_SUCCESSFULLY,606.877222,0.000010,606.877232,606.877222,606.877232,60687723.201205,25,-1.000000,""
python3action_modeltraining_job27_17,w0,python3action_modeltraining_reduced_0.94,0.997085,1,2000.000000,1,COMPLETED_SUCCESSFULLY,606.877252,0.000000,606.877252,605.880167,605.880167,12393903045080.580078,25,-1.000000,""
python3action_video_processing_job144_4,w0,python3action_video_processing_reduced_0.91,0.997085,1,2000.000000,1,COMPLETED_SUCCESSFULLY,606.877057,2.614259,609.491316,605.879972,608.494231,232.759779,5,-1.000000,""
python3action_video_processing_job156_5,w0,python3action_video_processing_reduced_0.91,0.997085,1,2000.000000,1,COMPLETED_SUCCESSFULLY,606.877117,2.614259,609.491375,605.880032,608.494290,232.759802,6,-1.000000,""
6_updated,w0,python3action_imageprocessing_SampleImage_60mb_taurus,0.997085,1,2000.000000,1,COMPLETED_SUCCESSFULLY,522.287665,101.500058,623.787723,521.290580,622.790638,6.135865,14,-1.000000,""
6,w0,python3action_imageprocessing_SampleImage_60mb,0.000000,1,-1.000000,1,COMPLETED_SUCCESSFULLY,623.787738,0.000010,623.787748,623.787738,623.787748,62378774.801033,14,-1.000000,""
python3action_modeltraining_job126_12,w0,python3action_modeltraining_reduced_2.88,0.997085,1,2000.000000,1,COMPLETED_SUCCESSFULLY,623.787768,0.000000,623.787768,622.790683,622.790683,5402489922248.179688,14,-1.000000,""
40_updated,w0,python3action_imageprocessing_SampleImage_60mb_taurus,0.997085,1,2000.000000,1,COMPLETED_SUCCESSFULLY,522.287755,101.500058,623.787813,521.290670,622.790728,6.135866,15,-1.000000,""
40,w0,python3action_imageprocessing_SampleImage_60mb,0.000000,1,-1.000000,1,COMPLETED_SUCCESSFULLY,623.787828,0.000010,623.787838,623.787828,623.787838,62378783.802238,15,-1.000000,""
45_updated,w0,python3action_imageprocessing_SampleImage_60mb_taurus,0.997085,1,2000.000000,1,COMPLETED_SUCCESSFULLY,522.287785,101.500058,623.787843,521.290700,622.790758,6.135866,16,-1.000000,""
45,w0,python3action_imageprocessing_SampleImage_60mb,0.000000,1,-1.000000,1,COMPLETED_SUCCESSFULLY,623.787873,0.000010,623.787883,623.787873,623.787883,62378788.302840,16,-1.000000,""
130_updated,w0,python3action_floatoperation_200000000_nova,0.997085,1,2000.000000,1,COMPLETED_SUCCESSFULLY,490.141984,135.399990,625.541974,489.144899,624.544889,4.612592,4,-1.000000,""
130,w0,python3action_floatoperation_200000000,0.000000,1,-1.000000,1,COMPLETED_SUCCESSFULLY,625.541989,0.000010,625.541999,625.541989,625.541999,62554199.947211,4,-1.000000,""
python3action_video_processing_job92_3,w0,python3action_video_processing_reduced_0.91,0.997085,1,2000.000000,1,COMPLETED_SUCCESSFULLY,625.542019,2.614259,628.156278,624.544934,627.159193,239.899456,4,-1.000000,""
python3action_chameleon_job4_13,w0,python3action_chameleon,0.997085,1,2000.000000,1,COMPLETED_SUCCESSFULLY,623.787858,5.040826,628.828684,622.790773,627.831599,124.549356,15,-1.000000,""
python3action_chameleon_job7_14,w0,python3action_chameleon,0.997085,1,2000.000000,1,COMPLETED_SUCCESSFULLY,623.787903,5.040826,628.828729,622.790818,627.831644,124.549365,16,-1.000000,""
122_updated,w0,python3action_floatoperation_200000000_nova,0.997085,1,2000.000000,1,COMPLETED_SUCCESSFULLY,496.476856,135.399990,631.876847,495.479771,630.879762,4.659378,2,-1.000000,""
122,w0,python3action_floatoperation_200000000,0.000000,1,-1.000000,1,COMPLETED_SUCCESSFULLY,631.876862,0.000010,631.876872,631.876862,631.876872,63187687.200201,2,-1.000000,""
128_updated,w0,python3action_floatoperation_200000000_nova,0.997085,1,2000.000000,1,COMPLETED_SUCCESSFULLY,496.476917,135.399990,631.876907,495.479832,630.879822,4.659379,3,-1.000000,""
128,w0,python3action_floatoperation_200000000,0.000000,1,-1.000000,1,COMPLETED_SUCCESSFULLY,631.876922,0.000010,631.876932,631.876922,631.876932,63187693.223505,3,-1.000000,""
python3action_video_processing_job50_1,w0,python3action_video_processing_reduced_0.91,0.997085,1,2000.000000,1,COMPLETED_SUCCESSFULLY,631.876892,2.614259,634.491151,630.879807,633.494066,242.322657,2,-1.000000,""
python3action_video_processing_job77_2,w0,python3action_video_processing_reduced_0.91,0.997085,1,2000.000000,1,COMPLETED_SUCCESSFULLY,631.876952,2.614259,634.491211,630.879867,633.494126,242.322680,3,-1.000000,""
24_updated,w0,python3action_imageprocessing_SampleImage_60mb_troll,0.997085,1,2000.000000,1,COMPLETED_SUCCESSFULLY,578.269404,62.000000,640.269404,577.272319,639.272319,10.310844,19,-1.000000,""
24,w0,python3action_imageprocessing_SampleImage_60mb,0.000000,1,-1.000000,1,COMPLETED_SUCCESSFULLY,640.269419,0.000010,640.269429,640.269419,640.269429,64026942.912594,19,-1.000000,""
59_updated,w0,python3action_imageprocessing_SampleImage_60mb_troll,0.997085,1,2000.000000,1,COMPLETED_SUCCESSFULLY,578.269464,62.000000,640.269464,577.272379,639.272379,10.310845,20,-1.000000,""
59,w0,python3action_imageprocessing_SampleImage_60mb,0.000000,1,-1.000000,1,COMPLETED_SUCCESSFULLY,640.269479,0.000010,640.269489,640.269479,640.269489,64026948.913398,20,-1.000000,""
154_updated,w0,python3action_linpack_6000_orion,0.997085,1,2000.000000,1,COMPLETED_SUCCESSFULLY,536.763357,106.000000,642.763357,535.766272,641.766272,6.054399,8,-1.000000,""
154,w0,python3action_linpack_6000,0.000000,1,-1.000000,1,COMPLETED_SUCCESSFULLY,642.763372,0.000010,642.763382,642.763372,642.763382,64276338.227689,8,-1.000000,""
160_updated,w0,python3action_linpack_6000_orion,0.997085,1,2000.000000,1,COMPLETED_SUCCESSFULLY,536.763417,106.000000,642.763417,535.766332,641.766332,6.054399,9,-1.000000,""
160,w0,python3action_linpack_6000,0.000000,1,-1.000000,1,COMPLETED_SUCCESSFULLY,642.763432,0.000010,642.763442,642.763432,642.763442,64276344.228492,9,-1.000000,""
60_updated,w0,python3action_modeltraining_reviews100mb_nova,0.997085,1,2000.000000,1,COMPLETED_SUCCESSFULLY,580.891576,79.600010,660.491586,579.894491,659.494501,8.285106,26,-1.000000,""
60,w0,python3action_modeltraining_reviews100mb,0.000000,1,-1.000000,1,COMPLETED_SUCCESSFULLY,660.491601,0.000010,660.491611,660.491601,660.491611,66049161.124308,26,-1.000000,""
71_updated,w0,python3action_modeltraining_reviews100mb_nova,0.997085,1,2000.000000,1,COMPLETED_SUCCESSFULLY,580.891651,79.600010,660.491661,579.894566,659.494576,8.285107,27,-1.000000,""
71,w0,python3action_modeltraining_reviews100mb,0.000000,1,-1.000000,1,COMPLETED_SUCCESSFULLY,660.491676,0.000010,660.491686,660.491676,660.491686,66049168.624107,27,-1.000000,""
113_updated,w0,python3action_modeltraining_reviews100mb_nova,0.997085,1,2000.000000,1,COMPLETED_SUCCESSFULLY,580.891726,79.600010,660.491736,579.894641,659.494651,8.285108,28,-1.000000,""
113,w0,python3action_modeltraining_reviews100mb,0.000000,1,-1.000000,1,COMPLETED_SUCCESSFULLY,660.491751,0.000010,660.491761,660.491751,660.491761,66049176.125111,28,-1.000000,""
155_updated,w0,python3action_modeltraining_reviews100mb_nova,0.997085,1,2000.000000,1,COMPLETED_SUCCESSFULLY,580.891756,79.600010,660.491766,579.894671,659.494681,8.285108,29,-1.000000,""
155,w0,python3action_modeltraining_reviews100mb,0.000000,1,-1.000000,1,COMPLETED_SUCCESSFULLY,660.491796,0.000010,660.491806,660.491796,660.491806,66049180.625714,29,-1.000000,""
131_updated,w0,python3action_facedetection_SampleVideo_50mb_taurus,0.997085,1,2000.000000,1,COMPLETED_SUCCESSFULLY,541.937423,134.600046,676.537469,540.940338,675.540384,5.018872,10,-1.000000,""
131,w0,python3action_facedetection_SampleVideo_50mb,0.000000,1,-1.000000,1,COMPLETED_SUCCESSFULLY,676.537484,0.000010,676.537494,676.537484,676.537494,67653749.431032,10,-1.000000,""
python3action_image_processing_job66_9,w0,python3action_image_processing_reduced_1.73,0.997085,1,2000.000000,1,COMPLETED_SUCCESSFULLY,676.537514,0.000000,676.537514,675.540429,675.540429,5860075400899.607422,10,-1.000000,""
133_updated,w0,python3action_facedetection_SampleVideo_50mb_taurus,0.997085,1,2000.000000,1,COMPLETED_SUCCESSFULLY,541.937483,134.600046,676.537529,540.940398,675.540444,5.018872,11,-1.000000,""
133,w0,python3action_facedetection_SampleVideo_50mb,0.000000,1,-1.000000,1,COMPLETED_SUCCESSFULLY,676.537559,0.000010,676.537569,676.537559,676.537569,67653756.931433,11,-1.000000,""
135_updated,w0,python3action_facedetection_SampleVideo_50mb_taurus,0.997085,1,2000.000000,1,COMPLETED_SUCCESSFULLY,541.937543,134.600046,676.537589,540.940458,675.540504,5.018873,13,-1.000000,""
python3action_image_processing_job157_10,w0,python3action_image_processing_reduced_1.73,0.997085,1,2000.000000,1,COMPLETED_SUCCESSFULLY,676.537589,0.000000,676.537589,675.540504,675.540504,5860076051463.366211,11,-1.000000,""
135,w0,python3action_facedetection_SampleVideo_50mb,0.000000,1,-1.000000,1,COMPLETED_SUCCESSFULLY,676.537619,0.000010,676.537629,676.537619,676.537629,67653762.931433,13,-1.000000,""
python3action_image_processing_job176_11,w0,python3action_image_processing_reduced_1.73,0.997085,1,2000.000000,1,COMPLETED_SUCCESSFULLY,676.537664,0.000000,676.537664,675.540579,675.540579,5860076702149.056641,13,-1.000000,""
8_updated,w0,python3action_modeltraining_reviews100mb_nova,0.997085,1,2000.000000,1,COMPLETED_SUCCESSFULLY,606.877207,79.600010,686.477217,605.880122,685.480132,8.611558,7,-1.000000,""
8,w0,python3action_modeltraining_reviews100mb,0.000000,1,-1.000000,1,COMPLETED_SUCCESSFULLY,686.477232,0.000010,686.477242,686.477232,686.477242,68647724.200201,7,-1.000000,""
27_updated,w0,python3action_modeltraining_reviews100mb_nova,0.997085,1,2000.000000,1,COMPLETED_SUCCESSFULLY,606.877282,79.600010,686.477292,605.880197,685.480207,8.611559,25,-1.000000,""
27,w0,python3action_modeltraining_reviews100mb,0.000000,1,-1.000000,1,COMPLETED_SUCCESSFULLY,686.477307,0.000010,686.477317,686.477307,686.477317,68647731.700201,25,-1.000000,""
4_updated,w0,python3action_chameleon_2000_taurus,0.997085,1,2000.000000,1,COMPLETED_SUCCESSFULLY,628.828699,64.199977,693.028676,627.831614,692.031591,10.779312,15,-1.000000,""
4,w0,python3action_chameleon_2000,0.000000,1,-1.000000,1,COMPLETED_SUCCESSFULLY,693.028691,0.000010,693.028701,693.028691,693.028701,69302870.100201,15,-1.000000,""
7_updated,w0,python3action_chameleon_2000_taurus,0.997085,1,2000.000000,1,COMPLETED_SUCCESSFULLY,628.828744,64.199977,693.028721,627.831659,692.031636,10.779313,16,-1.000000,""
7,w0,python3action_chameleon_2000,0.000000,1,-1.000000,1,COMPLETED_SUCCESSFULLY,693.028751,0.000010,693.028761,693.028751,693.028761,69302876.100201,16,-1.000000,""
87_updated,w0,python3action_imageprocessing_SampleImage_60mb_troll,0.997085,1,2000.000000,1,COMPLETED_SUCCESSFULLY,640.269449,62.000000,702.269449,639.272364,701.272364,11.310845,19,-1.000000,""
87,w0,python3action_imageprocessing_SampleImage_60mb,0.000000,1,-1.000000,1,COMPLETED_SUCCESSFULLY,702.269464,0.000010,702.269474,702.269464,702.269474,70226947.413197,19,-1.000000,""
177_updated,w0,python3action_imageprocessing_SampleImage_60mb_troll,0.997085,1,2000.000000,1,COMPLETED_SUCCESSFULLY,640.269509,62.000000,702.269509,639.272424,701.272424,11.310846,20,-1.000000,""
177,w0,python3action_imageprocessing_SampleImage_60mb,0.000000,1,-1.000000,1,COMPLETED_SUCCESSFULLY,702.269524,0.000010,702.269534,702.269524,702.269534,70226953.414000,20,-1.000000,""
126_updated,w0,python3action_modeltraining_reviews100mb_taurus,0.997085,1,2000.000000,1,COMPLETED_SUCCESSFULLY,623.787798,88.199977,711.987775,622.790713,710.990690,8.061121,14,-1.000000,""
126,w0,python3action_modeltraining_reviews100mb,0.000000,1,-1.000000,1,COMPLETED_SUCCESSFULLY,711.987790,0.000010,711.987800,711.987790,711.987800,71198780.000201,14,-1.000000,""
144_updated,w0,python3action_videoprocessing_SampleVideo_30mb_nova,0.997085,1,2000.000000,1,COMPLETED_SUCCESSFULLY,609.491331,106.799980,716.291311,608.494246,715.294226,6.697513,5,-1.000000,""
144,w0,python3action_videoprocessing_SampleVideo_30mb,0.000000,1,-1.000000,1,COMPLETED_SUCCESSFULLY,716.291326,0.000010,716.291336,716.291326,716.291336,71629133.646609,5,-1.000000,""
python3action_modeltraining_job181_4,w0,python3action_modeltraining_reduced_1.94,0.997085,1,2000.000000,1,COMPLETED_SUCCESSFULLY,716.291356,0.000000,716.291356,715.294271,715.294271,14632081279311.492188,5,-1.000000,""
156_updated,w0,python3action_videoprocessing_SampleVideo_30mb_nova,0.997085,1,2000.000000,1,COMPLETED_SUCCESSFULLY,609.491390,106.799980,716.291371,608.494305,715.294286,6.697513,6,-1.000000,""
156,w0,python3action_videoprocessing_SampleVideo_30mb,0.000000,1,-1.000000,1,COMPLETED_SUCCESSFULLY,716.291401,0.000010,716.291411,716.291401,716.291411,71629141.100402,6,-1.000000,""
python3action_chameleon_job29_12,w0,python3action_chameleon,0.997085,1,2000.000000,1,COMPLETED_SUCCESSFULLY,711.987820,5.040826,717.028646,710.990735,716.031561,142.046482,14,-1.000000,""
92_updated,w0,python3action_videoprocessing_SampleVideo_30mb_nova,0.997085,1,2000.000000,1,COMPLETED_SUCCESSFULLY,628.156293,106.799980,734.956273,627.159208,733.959188,6.872278,4,-1.000000,""
92,w0,python3action_videoprocessing_SampleVideo_30mb,0.000000,1,-1.000000,1,COMPLETED_SUCCESSFULLY,734.956288,0.000010,734.956298,734.956288,734.956298,73495629.846609,4,-1.000000,""
python3action_modeltraining_job178_3,w0,python3action_modeltraining_reduced_1.94,0.997085,1,2000.000000,1,COMPLETED_SUCCESSFULLY,734.956318,0.000000,734.956318,733.959233,733.959233,15013892307237.029297,4,-1.000000,""
70_updated,w0,python3action_pyaes_3000_nova,0.997085,1,2000.000000,1,COMPLETED_SUCCESSFULLY,660.491631,78.200020,738.691651,659.494546,737.694566,9.433432,26,-1.000000,""
70,w0,python3action_pyaes_3000,0.000000,1,-1.000000,1,COMPLETED_SUCCESSFULLY,738.691666,0.000010,738.691676,738.691666,738.691676,73869167.600201,26,-1.000000,""
105_updated,w0,python3action_pyaes_3000_nova,0.997085,1,2000.000000,1,COMPLETED_SUCCESSFULLY,660.491706,78.200020,738.691726,659.494621,737.694641,9.433433,27,-1.000000,""
105,w0,python3action_pyaes_3000,0.000000,1,-1.000000,1,COMPLETED_SUCCESSFULLY,738.691741,0.000010,738.691751,738.691741,738.691751,73869175.100201,27,-1.000000,""
110_updated,w0,python3action_pyaes_3000_nova,0.997085,1,2000.000000,1,COMPLETED_SUCCESSFULLY,660.491781,78.200020,738.691801,659.494696,737.694716,9.433434,28,-1.000000,""
110,w0,python3action_pyaes_3000,0.000000,1,-1.000000,1,COMPLETED_SUCCESSFULLY,738.691816,0.000010,738.691826,738.691816,738.691826,73869182.600201,28,-1.000000,""
123_updated,w0,python3action_pyaes_3000_nova,0.997085,1,2000.000000,1,COMPLETED_SUCCESSFULLY,660.491826,78.200020,738.691846,659.494741,737.694761,9.433434,29,-1.000000,""
123,w0,python3action_pyaes_3000,0.000000,1,-1.000000,1,COMPLETED_SUCCESSFULLY,738.691876,0.000010,738.691886,738.691876,738.691886,73869188.600201,29,-1.000000,""
50_updated,w0,python3action_videoprocessing_SampleVideo_30mb_nova,0.997085,1,2000.000000,1,COMPLETED_SUCCESSFULLY,634.491166,106.799980,741.291146,633.494081,740.294061,6.931594,2,-1.000000,""
50,w0,python3action_videoprocessing_SampleVideo_30mb,0.000000,1,-1.000000,1,COMPLETED_SUCCESSFULLY,741.291161,0.000010,741.291171,741.291161,741.291171,74129117.146609,2,-1.000000,""
python3action_modeltraining_job163_1,w0,python3action_modeltraining_reduced_1.94,0.997085,1,2000.000000,1,COMPLETED_SUCCESSFULLY,741.291191,0.000000,741.291191,740.294106,740.294106,15143478661171.621094,2,-1.000000,""
77_updated,w0,python3action_videoprocessing_SampleVideo_30mb_nova,0.997085,1,2000.000000,1,COMPLETED_SUCCESSFULLY,634.491226,106.799980,741.291206,633.494141,740.294121,6.931594,3,-1.000000,""
77,w0,python3action_videoprocessing_SampleVideo_30mb,0.000000,1,-1.000000,1,COMPLETED_SUCCESSFULLY,741.291236,0.000010,741.291246,741.291236,741.291246,74129124.647010,3,-1.000000,""
python3action_modeltraining_job169_2,w0,python3action_modeltraining_reduced_1.94,0.997085,1,2000.000000,1,COMPLETED_SUCCESSFULLY,741.291266,0.000000,741.291266,740.294181,740.294181,15143480195456.046875,3,-1.000000,""
194_updated,w0,python3action_linpack_6000_orion,0.997085,1,2000.000000,1,COMPLETED_SUCCESSFULLY,642.763402,106.000000,748.763402,641.766317,747.766317,7.054399,8,-1.000000,""
194,w0,python3action_linpack_6000,0.000000,1,-1.000000,1,COMPLETED_SUCCESSFULLY,748.763417,0.000010,748.763427,748.763417,748.763427,74876342.728291,8,-1.000000,""
196_updated,w0,python3action_linpack_6000_orion,0.997085,1,2000.000000,1,COMPLETED_SUCCESSFULLY,642.763462,106.000000,748.763462,641.766377,747.766377,7.054400,9,-1.000000,""
196,w0,python3action_linpack_6000,0.000000,1,-1.000000,1,COMPLETED_SUCCESSFULLY,748.763477,0.000010,748.763487,748.763477,748.763487,74876348.729094,9,-1.000000,""
43_updated,w0,python3action_chameleon_2000_taurus,0.997085,1,2000.000000,1,COMPLETED_SUCCESSFULLY,693.028721,64.199977,757.228698,692.031636,756.231613,11.779313,15,-1.000000,""
43,w0,python3action_chameleon_2000,0.000000,1,-1.000000,1,COMPLETED_SUCCESSFULLY,757.228713,0.000010,757.228723,757.228713,757.228723,75722872.300201,15,-1.000000,""
44_updated,w0,python3action_chameleon_2000_taurus,0.997085,1,2000.000000,1,COMPLETED_SUCCESSFULLY,693.028781,64.199977,757.228758,692.031696,756.231673,11.779314,16,-1.000000,""
44,w0,python3action_chameleon_2000,0.000000,1,-1.000000,1,COMPLETED_SUCCESSFULLY,757.228773,0.000010,757.228783,757.228773,757.228783,75722878.300201,16,-1.000000,""
34_updated,w0,python3action_pyaes_3000_nova,0.997085,1,2000.000000,1,COMPLETED_SUCCESSFULLY,686.477262,78.200020,764.677282,685.480177,763.680197,9.765729,7,-1.000000,""
34,w0,python3action_pyaes_3000,0.000000,1,-1.000000,1,COMPLETED_SUCCESSFULLY,764.677297,0.000010,764.677307,764.677297,764.677307,76467730.700201,7,-1.000000,""
53_updated,w0,python3action_pyaes_3000_nova,0.997085,1,2000.000000,1,COMPLETED_SUCCESSFULLY,686.477337,78.200020,764.677357,685.480252,763.680272,9.765730,25,-1.000000,""
53,w0,python3action_pyaes_3000,0.000000,1,-1.000000,1,COMPLETED_SUCCESSFULLY,764.677372,0.000010,764.677382,764.677372,764.677382,76467738.200201,25,-1.000000,""
66_updated,w0,python3action_imageprocessing_SampleImage_60mb_taurus,0.997085,1,2000.000000,1,COMPLETED_SUCCESSFULLY,676.537544,101.500058,778.037602,675.540459,777.040517,7.655567,10,-1.000000,""
66,w0,python3action_imageprocessing_SampleImage_60mb,0.000000,1,-1.000000,1,COMPLETED_SUCCESSFULLY,778.037617,0.000010,778.037627,778.037617,778.037627,77803762.700201,10,-1.000000,""
157_updated,w0,python3action_imageprocessing_SampleImage_60mb_taurus,0.997085,1,2000.000000,1,COMPLETED_SUCCESSFULLY,676.537634,101.500058,778.037692,675.540549,777.040607,7.655568,11,-1.000000,""
157,w0,python3action_imageprocessing_SampleImage_60mb,0.000000,1,-1.000000,1,COMPLETED_SUCCESSFULLY,778.037707,0.000010,778.037717,778.037707,778.037717,77803771.700201,11,-1.000000,""
176_updated,w0,python3action_imageprocessing_SampleImage_60mb_taurus,0.997085,1,2000.000000,1,COMPLETED_SUCCESSFULLY,676.537694,101.500058,778.037752,675.540609,777.040667,7.655569,13,-1.000000,""
176,w0,python3action_imageprocessing_SampleImage_60mb,0.000000,1,-1.000000,1,COMPLETED_SUCCESSFULLY,778.037767,0.000010,778.037777,778.037767,778.037777,77803777.700201,13,-1.000000,""
29_updated,w0,python3action_chameleon_2000_taurus,0.997085,1,2000.000000,1,COMPLETED_SUCCESSFULLY,717.028661,64.199977,781.228638,716.031576,780.231553,12.153144,14,-1.000000,""
29,w0,python3action_chameleon_2000,0.000000,1,-1.000000,1,COMPLETED_SUCCESSFULLY,781.228653,0.000010,781.228663,781.228653,781.228663,78122866.300201,14,-1.000000,""
python3action_chameleon_job9_9,w0,python3action_chameleon,0.997085,1,2000.000000,1,COMPLETED_SUCCESSFULLY,778.037647,5.040826,783.078473,777.040562,782.081388,155.149459,10,-1.000000,""
python3action_chameleon_job19_10,w0,python3action_chameleon,0.997085,1,2000.000000,1,COMPLETED_SUCCESSFULLY,778.037737,5.040826,783.078563,777.040652,782.081478,155.149477,11,-1.000000,""
python3action_chameleon_job20_11,w0,python3action_chameleon,0.997085,1,2000.000000,1,COMPLETED_SUCCESSFULLY,778.037797,5.040826,783.078623,777.040712,782.081538,155.149489,13,-1.000000,""
30_updated,w0,python3action_pyaes_3000_nova,0.997085,1,2000.000000,1,COMPLETED_SUCCESSFULLY,716.291431,78.200020,794.491451,715.294346,793.494366,10.146984,6,-1.000000,""
30,w0,python3action_pyaes_3000,0.000000,1,-1.000000,1,COMPLETED_SUCCESSFULLY,794.491466,0.000010,794.491476,794.491466,794.491476,79449147.600201,6,-1.000000,""
181_updated,w0,python3action_modeltraining_reviews100mb_nova,0.997085,1,2000.000000,1,COMPLETED_SUCCESSFULLY,716.291386,79.600010,795.891396,715.294301,794.894311,9.986108,5,-1.000000,""
181,w0,python3action_modeltraining_reviews100mb,0.000000,1,-1.000000,1,COMPLETED_SUCCESSFULLY,795.891411,0.000010,795.891421,795.891411,795.891421,79589142.100201,5,-1.000000,""
52_updated,w0,python3action_floatoperation_100000000_nova,0.997085,1,2000.000000,1,COMPLETED_SUCCESSFULLY,738.691696,66.200020,804.891716,737.694611,803.894631,12.143420,26,-1.000000,""
52,w0,python3action_floatoperation_100000000,0.000000,1,-1.000000,1,COMPLETED_SUCCESSFULLY,804.891731,0.000010,804.891741,804.891731,804.891741,80489174.100201,26,-1.000000,""
57_updated,w0,python3action_floatoperation_100000000_nova,0.997085,1,2000.000000,1,COMPLETED_SUCCESSFULLY,738.691771,66.200020,804.891791,737.694686,803.894706,12.143421,27,-1.000000,""
57,w0,python3action_floatoperation_100000000,0.000000,1,-1.000000,1,COMPLETED_SUCCESSFULLY,804.891806,0.000010,804.891816,804.891806,804.891816,80489181.600201,27,-1.000000,""
62_updated,w0,python3action_floatoperation_100000000_nova,0.997085,1,2000.000000,1,COMPLETED_SUCCESSFULLY,738.691846,66.200020,804.891865,737.694761,803.894780,12.143422,28,-1.000000,""
62,w0,python3action_floatoperation_100000000,0.000000,1,-1.000000,1,COMPLETED_SUCCESSFULLY,804.891880,0.000010,804.891890,804.891880,804.891890,80489189.034102,28,-1.000000,""
68_updated,w0,python3action_floatoperation_100000000_nova,0.997085,1,2000.000000,1,COMPLETED_SUCCESSFULLY,738.691906,66.200020,804.891926,737.694821,803.894841,12.143423,29,-1.000000,""
68,w0,python3action_floatoperation_100000000,0.000000,1,-1.000000,1,COMPLETED_SUCCESSFULLY,804.891941,0.000010,804.891951,804.891941,804.891951,80489195.100201,29,-1.000000,""
178_updated,w0,python3action_modeltraining_reviews100mb_nova,0.997085,1,2000.000000,1,COMPLETED_SUCCESSFULLY,734.956348,79.600010,814.556358,733.959263,813.559273,10.220593,4,-1.000000,""
178,w0,python3action_modeltraining_reviews100mb,0.000000,1,-1.000000,1,COMPLETED_SUCCESSFULLY,814.556373,0.000010,814.556383,814.556373,814.556383,81455638.324509,4,-1.000000,""
163_updated,w0,python3action_modeltraining_reviews100mb_nova,0.997085,1,2000.000000,1,COMPLETED_SUCCESSFULLY,741.291221,79.600010,820.891231,740.294136,819.894146,10.300176,2,-1.000000,""
163,w0,python3action_modeltraining_reviews100mb,0.000000,1,-1.000000,1,COMPLETED_SUCCESSFULLY,820.891246,0.000010,820.891256,820.891246,820.891256,82089125.623906,2,-1.000000,""
169_updated,w0,python3action_modeltraining_reviews100mb_nova,0.997085,1,2000.000000,1,COMPLETED_SUCCESSFULLY,741.291296,79.600010,820.891306,740.294211,819.894221,10.300177,3,-1.000000,""
169,w0,python3action_modeltraining_reviews100mb,0.000000,1,-1.000000,1,COMPLETED_SUCCESSFULLY,820.891321,0.000010,820.891331,820.891321,820.891331,82089133.124910,3,-1.000000,""
101_updated,w0,python3action_chameleon_2000_taurus,0.997085,1,2000.000000,1,COMPLETED_SUCCESSFULLY,757.228743,64.199977,821.428720,756.231658,820.431635,12.779314,15,-1.000000,""
101,w0,python3action_chameleon_2000,0.000000,1,-1.000000,1,COMPLETED_SUCCESSFULLY,821.428735,0.000010,821.428745,821.428735,821.428745,82142874.500201,15,-1.000000,""
136_updated,w0,python3action_chameleon_2000_taurus,0.997085,1,2000.000000,1,COMPLETED_SUCCESSFULLY,757.228803,64.199977,821.428780,756.231718,820.431695,12.779314,16,-1.000000,""
136,w0,python3action_chameleon_2000,0.000000,1,-1.000000,1,COMPLETED_SUCCESSFULLY,821.428795,0.000010,821.428805,821.428795,821.428805,82142880.500201,16,-1.000000,""
42_updated,w0,python3action_floatoperation_100000000_nova,0.997085,1,2000.000000,1,COMPLETED_SUCCESSFULLY,764.677327,66.200020,830.877347,763.680242,829.880262,12.535952,7,-1.000000,""
42,w0,python3action_floatoperation_100000000,0.000000,1,-1.000000,1,COMPLETED_SUCCESSFULLY,830.877362,0.000010,830.877372,830.877362,830.877372,83087737.200201,7,-1.000000,""
46_updated,w0,python3action_floatoperation_100000000_nova,0.997085,1,2000.000000,1,COMPLETED_SUCCESSFULLY,764.677402,66.200020,830.877422,763.680317,829.880337,12.535953,25,-1.000000,""
46,w0,python3action_floatoperation_100000000,0.000000,1,-1.000000,1,COMPLETED_SUCCESSFULLY,830.877437,0.000010,830.877447,830.877437,830.877447,83087744.700201,25,-1.000000,""
84_updated,w0,python3action_chameleon_2000_taurus,0.997085,1,2000.000000,1,COMPLETED_SUCCESSFULLY,781.228683,64.199977,845.428660,780.231598,844.431575,13.153145,14,-1.000000,""
84,w0,python3action_chameleon_2000,0.000000,1,-1.000000,1,COMPLETED_SUCCESSFULLY,845.428675,0.000010,845.428685,845.428675,845.428685,84542868.500201,14,-1.000000,""
9_updated,w0,python3action_chameleon_2000_taurus,0.997085,1,2000.000000,1,COMPLETED_SUCCESSFULLY,783.078488,64.199977,847.278465,782.081403,846.281380,13.181958,10,-1.000000,""
9,w0,python3action_chameleon_2000,0.000000,1,-1.000000,1,COMPLETED_SUCCESSFULLY,847.278480,0.000010,847.278490,847.278480,847.278490,84727849.000201,10,-1.000000,""
19_updated,w0,python3action_chameleon_2000_taurus,0.997085,1,2000.000000,1,COMPLETED_SUCCESSFULLY,783.078578,64.199977,847.278555,782.081493,846.281470,13.181959,11,-1.000000,""
19,w0,python3action_chameleon_2000,0.000000,1,-1.000000,1,COMPLETED_SUCCESSFULLY,847.278570,0.000010,847.278580,847.278570,847.278580,84727858.000201,11,-1.000000,""
20_updated,w0,python3action_chameleon_2000_taurus,0.997085,1,2000.000000,1,COMPLETED_SUCCESSFULLY,783.078638,64.199977,847.278615,782.081553,846.281530,13.181960,13,-1.000000,""
20,w0,python3action_chameleon_2000,0.000000,1,-1.000000,1,COMPLETED_SUCCESSFULLY,847.278630,0.000010,847.278640,847.278630,847.278640,84727864.000201,13,-1.000000,""
11_updated,w0,python3action_modeltraining_reviews50mb_nova,0.997085,1,2000.000000,1,COMPLETED_SUCCESSFULLY,804.891836,42.399990,847.291826,803.894751,846.294741,19.959786,27,-1.000000,""
11,w0,python3action_modeltraining_reviews50mb,0.000000,1,-1.000000,1,COMPLETED_SUCCESSFULLY,847.291841,0.000010,847.291851,847.291841,847.291851,84729185.123907,27,-1.000000,""
15_updated,w0,python3action_modeltraining_reviews50mb_nova,0.997085,1,2000.000000,1,COMPLETED_SUCCESSFULLY,804.891910,42.399990,847.291901,803.894825,846.294816,19.959788,28,-1.000000,""
15,w0,python3action_modeltraining_reviews50mb,0.000000,1,-1.000000,1,COMPLETED_SUCCESSFULLY,847.291916,0.000010,847.291926,847.291916,847.291926,84729192.600201,28,-1.000000,""
22_updated,w0,python3action_modeltraining_reviews50mb_nova,0.997085,1,2000.000000,1,COMPLETED_SUCCESSFULLY,804.891971,42.399990,847.291961,803.894886,846.294876,19.959789,29,-1.000000,""
22,w0,python3action_modeltraining_reviews50mb,0.000000,1,-1.000000,1,COMPLETED_SUCCESSFULLY,847.291976,0.000010,847.291986,847.291976,847.291986,84729198.623907,29,-1.000000,""
python3action_linpack_job1_20,w0,python3action_linpack_reduced_0.85,0.997085,1,2000.000000,1,COMPLETED_SUCCESSFULLY,847.291946,0.365992,847.657938,846.294861,846.660853,2313.332885,28,-1.000000,""
python3action_linpack_job12_21,w0,python3action_linpack_reduced_0.85,0.997085,1,2000.000000,1,COMPLETED_SUCCESSFULLY,847.292006,0.365992,847.657998,846.294921,846.660913,2313.333049,29,-1.000000,""
39_updated,w0,python3action_floatoperation_100000000_nova,0.997085,1,2000.000000,1,COMPLETED_SUCCESSFULLY,794.491496,66.200020,860.691516,793.494411,859.694431,12.986317,6,-1.000000,""
39,w0,python3action_floatoperation_100000000,0.000000,1,-1.000000,1,COMPLETED_SUCCESSFULLY,860.691531,0.000010,860.691541,860.691531,860.691541,86069154.100201,6,-1.000000,""
38_updated,w0,python3action_floatoperation_100000000_nova,0.997085,1,2000.000000,1,COMPLETED_SUCCESSFULLY,795.891441,66.200020,862.091461,794.894356,861.094376,13.007464,5,-1.000000,""
38,w0,python3action_floatoperation_100000000,0.000000,1,-1.000000,1,COMPLETED_SUCCESSFULLY,862.091476,0.000010,862.091486,862.091476,862.091486,86209148.600201,5,-1.000000,""
198_updated,w0,python3action_floatoperation_100000000_nova,0.997085,1,2000.000000,1,COMPLETED_SUCCESSFULLY,804.891761,66.200020,871.091781,803.894676,870.094696,13.143421,26,-1.000000,""
198,w0,python3action_floatoperation_100000000,0.000000,1,-1.000000,1,COMPLETED_SUCCESSFULLY,871.091796,0.000010,871.091806,871.091796,871.091806,87109180.600201,26,-1.000000,""
33_updated,w0,python3action_floatoperation_100000000_nova,0.997085,1,2000.000000,1,COMPLETED_SUCCESSFULLY,814.556403,66.200020,880.756423,813.559318,879.759338,13.289412,4,-1.000000,""
33,w0,python3action_floatoperation_100000000,0.000000,1,-1.000000,1,COMPLETED_SUCCESSFULLY,880.756438,0.000010,880.756448,880.756438,880.756448,88075644.800201,4,-1.000000,""
1_updated,w0,python3action_linpack_5000_nova,0.997085,1,2000.000000,1,COMPLETED_SUCCESSFULLY,847.657953,34.600010,882.257963,846.660868,881.260878,25.469960,28,-1.000000,""
1,w0,python3action_linpack_5000,0.000000,1,-1.000000,1,COMPLETED_SUCCESSFULLY,882.257978,0.000010,882.257988,882.257978,882.257988,88225798.800201,28,-1.000000,""
12_updated,w0,python3action_linpack_5000_nova,0.997085,1,2000.000000,1,COMPLETED_SUCCESSFULLY,847.658013,34.600010,882.258023,846.660928,881.260938,25.469962,29,-1.000000,""
12,w0,python3action_linpack_5000,0.000000,1,-1.000000,1,COMPLETED_SUCCESSFULLY,882.258038,0.000010,882.258048,882.258038,882.258048,88225804.800201,29,-1.000000,""
175_updated,w0,python3action_chameleon_2000_taurus,0.997085,1,2000.000000,1,COMPLETED_SUCCESSFULLY,821.428765,64.199977,885.628742,820.431680,884.631657,13.779314,15,-1.000000,""
175,w0,python3action_chameleon_2000,0.000000,1,-1.000000,1,COMPLETED_SUCCESSFULLY,885.628757,0.000010,885.628767,885.628757,885.628767,88562876.700201,15,-1.000000,""
189_updated,w0,python3action_chameleon_2000_taurus,0.997085,1,2000.000000,1,COMPLETED_SUCCESSFULLY,821.428825,64.199977,885.628802,820.431740,884.631717,13.779315,16,-1.000000,""
189,w0,python3action_chameleon_2000,0.000000,1,-1.000000,1,COMPLETED_SUCCESSFULLY,885.628817,0.000010,885.628827,885.628817,885.628827,88562882.700201,16,-1.000000,""
25_updated,w0,python3action_floatoperation_100000000_nova,0.997085,1,2000.000000,1,COMPLETED_SUCCESSFULLY,820.891351,66.200020,887.091371,819.894266,886.094286,13.385106,3,-1.000000,""
25,w0,python3action_floatoperation_100000000,0.000000,1,-1.000000,1,COMPLETED_SUCCESSFULLY,887.091386,0.000010,887.091396,887.091386,887.091396,88709139.600201,3,-1.000000,""
182_updated,w0,python3action_modeltraining_reviews50mb_nova,0.997085,1,2000.000000,1,COMPLETED_SUCCESSFULLY,847.291871,42.399990,889.691861,846.294786,888.694776,20.959787,27,-1.000000,""
182,w0,python3action_modeltraining_reviews50mb,0.000000,1,-1.000000,1,COMPLETED_SUCCESSFULLY,889.691876,0.000010,889.691886,889.691876,889.691886,88969188.647613,27,-1.000000,""
python3action_linpack_job188_19,w0,python3action_linpack_reduced_0.85,0.997085,1,2000.000000,1,COMPLETED_SUCCESSFULLY,889.691906,0.365992,890.057898,888.694821,889.060813,2429.182369,27,-1.000000,""
152_updated,w0,python3action_floatoperation_100000000_nova,0.997085,1,2000.000000,1,COMPLETED_SUCCESSFULLY,830.877392,66.200020,897.077412,829.880307,896.080327,13.535953,7,-1.000000,""
152,w0,python3action_floatoperation_100000000,0.000000,1,-1.000000,1,COMPLETED_SUCCESSFULLY,897.077427,0.000010,897.077437,897.077427,897.077437,89707743.700201,7,-1.000000,""
192_updated,w0,python3action_floatoperation_100000000_nova,0.997085,1,2000.000000,1,COMPLETED_SUCCESSFULLY,830.877467,66.200020,897.077487,829.880382,896.080402,13.535954,25,-1.000000,""
192,w0,python3action_floatoperation_100000000,0.000000,1,-1.000000,1,COMPLETED_SUCCESSFULLY,897.077502,0.000010,897.077512,897.077502,897.077512,89707751.200201,25,-1.000000,""
142_updated,w0,python3action_pyaes_3000_nova,0.997085,1,2000.000000,1,COMPLETED_SUCCESSFULLY,820.891276,78.200020,899.091296,819.894191,898.094211,11.484578,2,-1.000000,""
142,w0,python3action_pyaes_3000,0.000000,1,-1.000000,1,COMPLETED_SUCCESSFULLY,899.091311,0.000010,899.091321,899.091311,899.091321,89909132.100201,2,-1.000000,""
171_updated,w0,python3action_chameleon_2000_taurus,0.997085,1,2000.000000,1,COMPLETED_SUCCESSFULLY,845.428705,64.199977,909.628682,844.431620,908.631597,14.153145,14,-1.000000,""
171,w0,python3action_chameleon_2000,0.000000,1,-1.000000,1,COMPLETED_SUCCESSFULLY,909.628697,0.000010,909.628707,909.628697,909.628707,90962870.700201,14,-1.000000,""
75_updated,w0,python3action_chameleon_2000_taurus,0.997085,1,2000.000000,1,COMPLETED_SUCCESSFULLY,847.278510,64.199977,911.478487,846.281425,910.481402,14.181958,10,-1.000000,""
75,w0,python3action_chameleon_2000,0.000000,1,-1.000000,1,COMPLETED_SUCCESSFULLY,911.478502,0.000010,911.478512,911.478502,911.478512,91147851.200201,10,-1.000000,""
79_updated,w0,python3action_chameleon_2000_taurus,0.997085,1,2000.000000,1,COMPLETED_SUCCESSFULLY,847.278600,64.199977,911.478577,846.281515,910.481492,14.181960,11,-1.000000,""
79,w0,python3action_chameleon_2000,0.000000,1,-1.000000,1,COMPLETED_SUCCESSFULLY,911.478592,0.000010,911.478602,911.478592,911.478602,91147860.200201,11,-1.000000,""
80_updated,w0,python3action_chameleon_2000_taurus,0.997085,1,2000.000000,1,COMPLETED_SUCCESSFULLY,847.278660,64.199977,911.478637,846.281575,910.481552,14.181961,13,-1.000000,""
80,w0,python3action_chameleon_2000,0.000000,1,-1.000000,1,COMPLETED_SUCCESSFULLY,911.478652,0.000010,911.478662,911.478652,911.478662,91147866.200201,13,-1.000000,""
168_updated,w0,python3action_modeltraining_reviews50mb_nova,0.997085,1,2000.000000,1,COMPLETED_SUCCESSFULLY,871.091826,42.399990,913.491816,870.094741,912.494731,21.521107,26,-1.000000,""
168,w0,python3action_modeltraining_reviews50mb,0.000000,1,-1.000000,1,COMPLETED_SUCCESSFULLY,913.491831,0.000010,913.491841,913.491831,913.491841,91349184.123907,26,-1.000000,""
python3action_linpack_job148_18,w0,python3action_linpack_reduced_0.85,0.997085,1,2000.000000,1,COMPLETED_SUCCESSFULLY,913.491861,0.365992,913.857853,912.494776,912.860768,2494.211026,26,-1.000000,""
195_updated,w0,python3action_linpack_5000_nova,0.997085,1,2000.000000,1,COMPLETED_SUCCESSFULLY,882.258008,34.600010,916.858018,881.260923,915.860933,26.469962,28,-1.000000,""
195,w0,python3action_linpack_5000,0.000000,1,-1.000000,1,COMPLETED_SUCCESSFULLY,916.858033,0.000010,916.858043,916.858033,916.858043,91685804.300201,28,-1.000000,""
197_updated,w0,python3action_linpack_5000_nova,0.997085,1,2000.000000,1,COMPLETED_SUCCESSFULLY,882.258068,34.600010,916.858078,881.260983,915.860993,26.469963,29,-1.000000,""
197,w0,python3action_linpack_5000,0.000000,1,-1.000000,1,COMPLETED_SUCCESSFULLY,916.858093,0.000010,916.858103,916.858093,916.858103,91685810.300201,29,-1.000000,""
97_updated,w0,python3action_imageprocessing_SampleImage_40mb_taurus,0.997085,1,2000.000000,1,COMPLETED_SUCCESSFULLY,885.628787,32.600046,918.228833,884.631702,917.231748,28.135903,15,-1.000000,""
97,w0,python3action_imageprocessing_SampleImage_40mb,0.000000,1,-1.000000,1,COMPLETED_SUCCESSFULLY,918.228848,0.000010,918.228858,918.228848,918.228858,91822885.813881,15,-1.000000,""
99_updated,w0,python3action_imageprocessing_SampleImage_40mb_taurus,0.997085,1,2000.000000,1,COMPLETED_SUCCESSFULLY,885.628847,32.600046,918.228893,884.631762,917.231808,28.135905,16,-1.000000,""
99,w0,python3action_imageprocessing_SampleImage_40mb,0.000000,1,-1.000000,1,COMPLETED_SUCCESSFULLY,918.228908,0.000010,918.228918,918.228908,918.228918,91822891.814082,16,-1.000000,""
188_updated,w0,python3action_linpack_5000_nova,0.997085,1,2000.000000,1,COMPLETED_SUCCESSFULLY,890.057913,34.600010,924.657923,889.060828,923.660838,26.695392,27,-1.000000,""
188,w0,python3action_linpack_5000,0.000000,1,-1.000000,1,COMPLETED_SUCCESSFULLY,924.657938,0.000010,924.657948,924.657938,924.657948,92465794.804719,27,-1.000000,""
140_updated,w0,python3action_floatoperation_100000000_nova,0.997085,1,2000.000000,1,COMPLETED_SUCCESSFULLY,860.691561,66.200020,926.891581,859.694476,925.894496,13.986318,6,-1.000000,""
140,w0,python3action_floatoperation_100000000,0.000000,1,-1.000000,1,COMPLETED_SUCCESSFULLY,926.891596,0.000010,926.891606,926.891596,926.891606,92689160.600201,6,-1.000000,""
python3action_modeltraining_job108_5,w0,python3action_modeltraining_reduced_1.94,0.997085,1,2000.000000,1,COMPLETED_SUCCESSFULLY,926.891626,0.000000,926.891626,925.894541,925.894541,18940126770799.992188,6,-1.000000,""
127_updated,w0,python3action_floatoperation_100000000_nova,0.997085,1,2000.000000,1,COMPLETED_SUCCESSFULLY,862.091506,66.200020,928.291526,861.094421,927.294441,14.007465,5,-1.000000,""
127,w0,python3action_floatoperation_100000000,0.000000,1,-1.000000,1,COMPLETED_SUCCESSFULLY,928.291541,0.000010,928.291551,928.291541,928.291551,92829155.100201,5,-1.000000,""
162_updated,w0,python3action_modeltraining_reviews50mb_nova,0.997085,1,2000.000000,1,COMPLETED_SUCCESSFULLY,897.077457,42.399990,939.477447,896.080372,938.480362,22.133976,7,-1.000000,""
162,w0,python3action_modeltraining_reviews50mb,0.000000,1,-1.000000,1,COMPLETED_SUCCESSFULLY,939.477462,0.000010,939.477472,939.477462,939.477472,93947747.223907,7,-1.000000,""
165_updated,w0,python3action_modeltraining_reviews50mb_nova,0.997085,1,2000.000000,1,COMPLETED_SUCCESSFULLY,897.077532,42.399990,939.477522,896.080447,938.480437,22.133978,25,-1.000000,""
165,w0,python3action_modeltraining_reviews50mb,0.000000,1,-1.000000,1,COMPLETED_SUCCESSFULLY,939.477537,0.000010,939.477547,939.477537,939.477547,93947754.723907,25,-1.000000,""
python3action_linpack_job141_6,w0,python3action_linpack_reduced_0.85,0.997085,1,2000.000000,1,COMPLETED_SUCCESSFULLY,939.477492,0.365992,939.843484,938.480407,938.846399,2565.211609,7,-1.000000,""
python3action_linpack_job146_17,w0,python3action_linpack_reduced_0.85,0.997085,1,2000.000000,1,COMPLETED_SUCCESSFULLY,939.477567,0.365992,939.843559,938.480482,938.846474,2565.211814,25,-1.000000,""
78_updated,w0,python3action_imageprocessing_SampleImage_40mb_taurus,0.997085,1,2000.000000,1,COMPLETED_SUCCESSFULLY,909.628727,32.600046,942.228773,908.631642,941.231688,28.872097,14,-1.000000,""
78,w0,python3action_imageprocessing_SampleImage_40mb,0.000000,1,-1.000000,1,COMPLETED_SUCCESSFULLY,942.228788,0.000010,942.228798,942.228788,942.228798,94222879.813881,14,-1.000000,""
119_updated,w0,python3action_floatoperation_100000000_nova,0.997085,1,2000.000000,1,COMPLETED_SUCCESSFULLY,880.756468,66.200020,946.956488,879.759383,945.959403,14.289413,4,-1.000000,""
119,w0,python3action_floatoperation_100000000,0.000000,1,-1.000000,1,COMPLETED_SUCCESSFULLY,946.956503,0.000010,946.956513,946.956503,946.956513,94695651.300201,4,-1.000000,""
148_updated,w0,python3action_linpack_5000_nova,0.997085,1,2000.000000,1,COMPLETED_SUCCESSFULLY,913.857868,34.600010,948.457878,912.860783,947.460793,27.383252,26,-1.000000,""
148,w0,python3action_linpack_5000,0.000000,1,-1.000000,1,COMPLETED_SUCCESSFULLY,948.457893,0.000010,948.457903,948.457893,948.457903,94845790.300201,26,-1.000000,""
172_updated,w0,python3action_imageprocessing_SampleImage_40mb_taurus,0.997085,1,2000.000000,1,COMPLETED_SUCCESSFULLY,918.228878,32.600046,950.828924,917.231793,949.831839,29.135905,15,-1.000000,""
172,w0,python3action_imageprocessing_SampleImage_40mb,0.000000,1,-1.000000,1,COMPLETED_SUCCESSFULLY,950.828939,0.000010,950.828949,950.828939,950.828949,95082894.927562,15,-1.000000,""
187_updated,w0,python3action_imageprocessing_SampleImage_40mb_taurus,0.997085,1,2000.000000,1,COMPLETED_SUCCESSFULLY,918.228938,32.600046,950.828984,917.231853,949.831899,29.135907,16,-1.000000,""
187,w0,python3action_imageprocessing_SampleImage_40mb,0.000000,1,-1.000000,1,COMPLETED_SUCCESSFULLY,950.828999,0.000010,950.829009,950.828999,950.829009,95082900.927762,16,-1.000000,""
112_updated,w0,python3action_floatoperation_100000000_nova,0.997085,1,2000.000000,1,COMPLETED_SUCCESSFULLY,887.091416,66.200020,953.291436,886.094331,952.294351,14.385107,3,-1.000000,""
112,w0,python3action_floatoperation_100000000,0.000000,1,-1.000000,1,COMPLETED_SUCCESSFULLY,953.291451,0.000010,953.291461,953.291451,953.291461,95329146.100201,3,-1.000000,""
94_updated,w0,python3action_floatoperation_100000000_nova,0.997085,1,2000.000000,1,COMPLETED_SUCCESSFULLY,899.091341,66.200020,965.291361,898.094256,964.294276,14.566374,2,-1.000000,""
94,w0,python3action_floatoperation_100000000,0.000000,1,-1.000000,1,COMPLETED_SUCCESSFULLY,965.291376,0.000010,965.291386,965.291376,965.291386,96529138.600201,2,-1.000000,""
108_updated,w0,python3action_modeltraining_reviews50mb_nova,0.997085,1,2000.000000,1,COMPLETED_SUCCESSFULLY,926.891656,42.399990,969.291646,925.894571,968.294561,22.837141,6,-1.000000,""
108,w0,python3action_modeltraining_reviews50mb,0.000000,1,-1.000000,1,COMPLETED_SUCCESSFULLY,969.291661,0.000010,969.291671,969.291661,969.291671,96929167.124308,6,-1.000000,""
python3action_linpack_job132_5,w0,python3action_linpack_reduced_0.85,0.997085,1,2000.000000,1,COMPLETED_SUCCESSFULLY,969.291691,0.365992,969.657683,968.294606,968.660598,2646.672996,6,-1.000000,""
81_updated,w0,python3action_modeltraining_reviews50mb_nova,0.997085,1,2000.000000,1,COMPLETED_SUCCESSFULLY,928.291571,42.399990,970.691561,927.294486,969.694476,22.870158,5,-1.000000,""
81,w0,python3action_modeltraining_reviews50mb,0.000000,1,-1.000000,1,COMPLETED_SUCCESSFULLY,970.691576,0.000010,970.691586,970.691576,970.691586,97069158.623907,5,-1.000000,""
python3action_linpack_job104_4,w0,python3action_linpack_reduced_0.85,0.997085,1,2000.000000,1,COMPLETED_SUCCESSFULLY,970.691606,0.365992,971.057598,969.694521,970.060513,2650.497986,5,-1.000000,""
141_updated,w0,python3action_linpack_5000_nova,0.997085,1,2000.000000,1,COMPLETED_SUCCESSFULLY,939.843499,34.600010,974.443509,938.846414,973.446424,28.134282,7,-1.000000,""
141,w0,python3action_linpack_5000,0.000000,1,-1.000000,1,COMPLETED_SUCCESSFULLY,974.443524,0.000010,974.443534,974.443524,974.443534,97444353.400201,7,-1.000000,""
146_updated,w0,python3action_linpack_5000_nova,0.997085,1,2000.000000,1,COMPLETED_SUCCESSFULLY,939.843574,34.600010,974.443584,938.846489,973.446499,28.134284,25,-1.000000,""
146,w0,python3action_linpack_5000,0.000000,1,-1.000000,1,COMPLETED_SUCCESSFULLY,974.443599,0.000010,974.443609,974.443599,974.443609,97444360.900201,25,-1.000000,""
170_updated,w0,python3action_imageprocessing_SampleImage_40mb_taurus,0.997085,1,2000.000000,1,COMPLETED_SUCCESSFULLY,942.228818,32.600046,974.828864,941.231733,973.831779,29.872098,14,-1.000000,""
170,w0,python3action_imageprocessing_SampleImage_40mb,0.000000,1,-1.000000,1,COMPLETED_SUCCESSFULLY,974.828879,0.000010,974.828889,974.828879,974.828889,97482888.927562,14,-1.000000,""
147_updated,w0,python3action_chameleon_2000_taurus,0.997085,1,2000.000000,1,COMPLETED_SUCCESSFULLY,911.478532,64.199977,975.678509,910.481447,974.681424,15.181959,10,-1.000000,""
147,w0,python3action_chameleon_2000,0.000000,1,-1.000000,1,COMPLETED_SUCCESSFULLY,975.678524,0.000010,975.678534,975.678524,975.678534,97567853.400201,10,-1.000000,""
149_updated,w0,python3action_chameleon_2000_taurus,0.997085,1,2000.000000,1,COMPLETED_SUCCESSFULLY,911.478622,64.199977,975.678599,910.481537,974.681514,15.181961,11,-1.000000,""
149,w0,python3action_chameleon_2000,0.000000,1,-1.000000,1,COMPLETED_SUCCESSFULLY,975.678614,0.000010,975.678624,975.678614,975.678624,97567862.400201,11,-1.000000,""
164_updated,w0,python3action_chameleon_2000_taurus,0.997085,1,2000.000000,1,COMPLETED_SUCCESSFULLY,911.478682,64.199977,975.678659,910.481597,974.681574,15.181961,13,-1.000000,""
164,w0,python3action_chameleon_2000,0.000000,1,-1.000000,1,COMPLETED_SUCCESSFULLY,975.678674,0.000010,975.678684,975.678674,975.678684,97567868.400201,13,-1.000000,""
76_updated,w0,python3action_modeltraining_reviews50mb_nova,0.997085,1,2000.000000,1,COMPLETED_SUCCESSFULLY,946.956533,42.399990,989.356523,945.959448,988.359438,23.310369,4,-1.000000,""
76,w0,python3action_modeltraining_reviews50mb,0.000000,1,-1.000000,1,COMPLETED_SUCCESSFULLY,989.356538,0.000010,989.356548,989.356538,989.356548,98935654.823907,4,-1.000000,""
python3action_linpack_job51_3,w0,python3action_linpack,0.997085,1,2000.000000,1,COMPLETED_SUCCESSFULLY,989.356568,2.439945,991.796514,988.359483,990.799429,406.074444,4,-1.000000,""
41_updated,w0,python3action_modeltraining_reviews50mb_nova,0.997085,1,2000.000000,1,COMPLETED_SUCCESSFULLY,953.291481,42.399990,995.691471,952.294396,994.694386,23.459779,3,-1.000000,""
41,w0,python3action_modeltraining_reviews50mb,0.000000,1,-1.000000,1,COMPLETED_SUCCESSFULLY,995.691486,0.000010,995.691496,995.691486,995.691496,99569149.623907,3,-1.000000,""
python3action_linpack_job36_2,w0,python3action_linpack_reduced_0.85,0.997085,1,2000.000000,1,COMPLETED_SUCCESSFULLY,995.691516,0.365992,996.057508,994.694431,995.060423,2718.805282,3,-1.000000,""
132_updated,w0,python3action_linpack_5000_nova,0.997085,1,2000.000000,1,COMPLETED_SUCCESSFULLY,969.657698,34.600010,1004.257708,968.660613,1003.260623,28.995964,6,-1.000000,""
132,w0,python3action_linpack_5000,0.000000,1,-1.000000,1,COMPLETED_SUCCESSFULLY,1004.257723,0.000010,1004.257733,1004.257723,1004.257733,100425773.300201,6,-1.000000,""
104_updated,w0,python3action_linpack_5000_nova,0.997085,1,2000.000000,1,COMPLETED_SUCCESSFULLY,971.057613,34.600010,1005.657623,970.060528,1004.660538,29.036424,5,-1.000000,""
104,w0,python3action_linpack_5000,0.000000,1,-1.000000,1,COMPLETED_SUCCESSFULLY,1005.657638,0.000010,1005.657648,1005.657638,1005.657648,100565764.800201,5,-1.000000,""
37_updated,w0,python3action_modeltraining_reviews50mb_nova,0.997085,1,2000.000000,1,COMPLETED_SUCCESSFULLY,965.291406,42.399990,1007.691396,964.294321,1006.694311,23.742796,2,-1.000000,""
37,w0,python3action_modeltraining_reviews50mb,0.000000,1,-1.000000,1,COMPLETED_SUCCESSFULLY,1007.691411,0.000010,1007.691421,1007.691411,1007.691421,100769142.123907,2,-1.000000,""
python3action_linpack_job23_1,w0,python3action_linpack_reduced_0.85,0.997085,1,2000.000000,1,COMPLETED_SUCCESSFULLY,1007.691441,0.365992,1008.057433,1006.694356,1007.060348,2751.592698,2,-1.000000,""
2_updated,w0,python3action_imageprocessing_SampleImage_40mb_taurus,0.997085,1,2000.000000,1,COMPLETED_SUCCESSFULLY,975.678554,32.600046,1008.278600,974.681469,1007.281515,30.898162,10,-1.000000,""
2,w0,python3action_imageprocessing_SampleImage_40mb,0.000000,1,-1.000000,1,COMPLETED_SUCCESSFULLY,1008.278615,0.000010,1008.278625,1008.278615,1008.278625,100827862.513881,10,-1.000000,""
32_updated,w0,python3action_imageprocessing_SampleImage_40mb_taurus,0.997085,1,2000.000000,1,COMPLETED_SUCCESSFULLY,975.678644,32.600046,1008.278690,974.681559,1007.281605,30.898165,11,-1.000000,""
32,w0,python3action_imageprocessing_SampleImage_40mb,0.000000,1,-1.000000,1,COMPLETED_SUCCESSFULLY,1008.278705,0.000010,1008.278715,1008.278705,1008.278715,100827871.513881,11,-1.000000,""
55_updated,w0,python3action_imageprocessing_SampleImage_40mb_taurus,0.997085,1,2000.000000,1,COMPLETED_SUCCESSFULLY,975.678704,32.600046,1008.278750,974.681619,1007.281665,30.898167,13,-1.000000,""
55,w0,python3action_imageprocessing_SampleImage_40mb,0.000000,1,-1.000000,1,COMPLETED_SUCCESSFULLY,1008.278765,0.000010,1008.278775,1008.278765,1008.278775,100827877.514082,13,-1.000000,""
51_updated,w0,python3action_linpack_5000_nova,0.997085,1,2000.000000,1,COMPLETED_SUCCESSFULLY,991.796529,34.600010,1026.396539,990.799444,1025.399454,29.635814,4,-1.000000,""
51,w0,python3action_linpack_5000,0.000000,1,-1.000000,1,COMPLETED_SUCCESSFULLY,1026.396554,0.000010,1026.396564,1026.396554,1026.396564,102639656.400201,4,-1.000000,""
36_updated,w0,python3action_linpack_5000_nova,0.997085,1,2000.000000,1,COMPLETED_SUCCESSFULLY,996.057523,34.600010,1030.657533,995.060438,1029.660448,29.758964,3,-1.000000,""
36,w0,python3action_linpack_5000,0.000000,1,-1.000000,1,COMPLETED_SUCCESSFULLY,1030.657548,0.000010,1030.657558,1030.657548,1030.657558,103065755.800201,3,-1.000000,""
103_updated,w0,python3action_imageprocessing_SampleImage_40mb_taurus,0.997085,1,2000.000000,1,COMPLETED_SUCCESSFULLY,1008.278645,32.600046,1040.878691,1007.281560,1039.881606,31.898164,10,-1.000000,""
103,w0,python3action_imageprocessing_SampleImage_40mb,0.000000,1,-1.000000,1,COMPLETED_SUCCESSFULLY,1040.878706,0.000010,1040.878716,1040.878706,1040.878716,104087871.627562,10,-1.000000,""
129_updated,w0,python3action_imageprocessing_SampleImage_40mb_taurus,0.997085,1,2000.000000,1,COMPLETED_SUCCESSFULLY,1008.278735,32.600046,1040.878781,1007.281650,1039.881696,31.898166,11,-1.000000,""
129,w0,python3action_imageprocessing_SampleImage_40mb,0.000000,1,-1.000000,1,COMPLETED_SUCCESSFULLY,1040.878796,0.000010,1040.878806,1040.878796,1040.878806,104087880.627562,11,-1.000000,""
139_updated,w0,python3action_imageprocessing_SampleImage_40mb_taurus,0.997085,1,2000.000000,1,COMPLETED_SUCCESSFULLY,1008.278795,32.600046,1040.878841,1007.281710,1039.881756,31.898168,13,-1.000000,""
139,w0,python3action_imageprocessing_SampleImage_40mb,0.000000,1,-1.000000,1,COMPLETED_SUCCESSFULLY,1040.878856,0.000010,1040.878866,1040.878856,1040.878866,104087886.627762,13,-1.000000,""
23_updated,w0,python3action_linpack_5000_nova,0.997085,1,2000.000000,1,COMPLETED_SUCCESSFULLY,1008.057448,34.600010,1042.657458,1007.060363,1041.660373,30.105783,2,-1.000000,""
23,w0,python3action_linpack_5000,0.000000,1,-1.000000,1,COMPLETED_SUCCESSFULLY,1042.657473,0.000010,1042.657483,1042.657473,1042.657483,104265748.300201,2,-1.000000,""
