job_id,workload_name,profile,submission_time,requested_number_of_resources,requested_time,success,final_state,starting_time,execution_time,finish_time,waiting_time,turnaround_time,stretch,allocated_resources,consumed_energy,metadata
python3action_chameleon_job9_0,w0,python3action_chameleon,0.997085,1,2000.000000,1,COMPLETED_SUCCESSFULLY,1.002100,0.243006,1.245106,0.005015,0.248021,1.020637,0,-1.000000,""
python3action_chameleon_job76_1,w0,python3action_chameleon,0.997085,1,2000.000000,1,COMPLETED_SUCCESSFULLY,1.002115,0.243006,1.245121,0.005030,0.248036,1.020699,1,-1.000000,""
python3action_pyaes_job103_3,w0,python3action_pyaes,0.997085,1,2000.000000,1,COMPLETED_SUCCESSFULLY,1.002145,0.867914,1.870059,0.005060,0.872974,1.005830,4,-1.000000,""
python3action_pyaes_job30_4,w0,python3action_pyaes,0.997085,1,2000.000000,1,COMPLETED_SUCCESSFULLY,1.002160,0.892694,1.894854,0.005075,0.897769,1.005685,5,-1.000000,""
python3action_linpack_job38_2,w0,python3action_linpack,0.997085,1,2000.000000,1,COMPLETED_SUCCESSFULLY,1.002130,5.760927,6.763057,0.005045,5.765972,1.000876,2,-1.000000,""
python3action_linpack_job18_10,w0,python3action_linpack,0.997085,1,2000.000000,1,COMPLETED_SUCCESSFULLY,1.002250,5.760927,6.763177,0.005165,5.766092,1.000897,11,-1.000000,""
python3action_linpack_job56_11,w0,python3action_linpack,0.997085,1,2000.000000,1,COMPLETED_SUCCESSFULLY,1.002265,5.760927,6.763192,0.005180,5.766107,1.000899,12,-1.000000,""
python3action_linpack_job67_12,w0,python3action_linpack,0.997085,1,2000.000000,1,COMPLETED_SUCCESSFULLY,1.002280,5.760927,6.763207,0.005195,5.766122,1.000902,13,-1.000000,""
python3action_facedetection_job3_5,w0,python3action_facedetection,0.997085,1,2000.000000,1,COMPLETED_SUCCESSFULLY,1.002175,30.499683,31.501858,0.005090,30.504773,1.000167,6,-1.000000,""
python3action_facedetection_job14_6,w0,python3action_facedetection,0.997085,1,2000.000000,1,COMPLETED_SUCCESSFULLY,1.002190,30.499683,31.501873,0.005105,30.504788,1.000167,7,-1.000000,""
python3action_facedetection_job28_7,w0,python3action_facedetection,0.997085,1,2000.000000,1,COMPLETED_SUCCESSFULLY,1.002205,30.499683,31.501888,0.005120,30.504803,1.000168,8,-1.000000,""
python3action_facedetection_job65_8,w0,python3action_facedetection,0.997085,1,2000.000000,1,COMPLETED_SUCCESSFULLY,1.002220,30.499683,31.501903,0.005135,30.504818,1.000168,9,-1.000000,""
python3action_facedetection_job74_9,w0,python3action_facedetection,0.997085,1,2000.000000,1,COMPLETED_SUCCESSFULLY,1.002235,30.499683,31.501918,0.005150,30.504833,1.000169,10,-1.000000,""
9_updated,w0,python3action_chameleon_3000_neowise,0.997085,1,2000.000000,1,COMPLETED_SUCCESSFULLY,1.245121,55.799998,57.045119,0.248036,56.048034,1.004445,0,-1.000000,""
9,w0,python3action_chameleon_3000,0.000000,1,-1.000000,1,COMPLETED_SUCCESSFULLY,57.045134,0.000010,57.045144,57.045134,57.045144,5704514.400201,0,-1.000000,""
76_updated,w0,python3action_chameleon_3000_neowise,0.997085,1,2000.000000,1,COMPLETED_SUCCESSFULLY,1.245151,55.799998,57.045149,0.248066,56.048064,1.004446,1,-1.000000,""
76,w0,python3action_chameleon_3000,0.000000,1,-1.000000,1,COMPLETED_SUCCESSFULLY,57.045179,0.000010,57.045189,57.045179,57.045189,5704518.900402,1,-1.000000,""
103_updated,w0,python3action_pyaes_4000_troll,0.997085,1,2000.000000,1,COMPLETED_SUCCESSFULLY,1.870074,102.333333,104.203407,0.872989,103.206322,1.008531,4,-1.000000,""
103,w0,python3action_pyaes_4000,0.000000,1,-1.000000,1,COMPLETED_SUCCESSFULLY,104.203422,0.000010,104.203432,104.203422,104.203432,10420343.233735,4,-1.000000,""
30_updated,w0,python3action_pyaes_4000_yeti,0.997085,1,2000.000000,1,COMPLETED_SUCCESSFULLY,1.894869,105.500010,107.394880,0.897784,106.397795,1.008510,5,-1.000000,""
30,w0,python3action_pyaes_4000,0.000000,1,-1.000000,1,COMPLETED_SUCCESSFULLY,107.394895,0.000010,107.394905,107.394895,107.394905,10739490.500201,5,-1.000000,""
18_updated,w0,python3action_linpack_6000_orion,0.997085,1,2000.000000,1,COMPLETED_SUCCESSFULLY,6.763192,106.000000,112.763192,5.766107,111.766107,1.054397,11,-1.000000,""
18,w0,python3action_linpack_6000,0.000000,1,-1.000000,1,COMPLETED_SUCCESSFULLY,112.763207,0.000010,112.763217,112.763207,112.763217,11276321.725480,11,-1.000000,""
117_updated,w0,python3action_chameleon_3000_neowise,0.997085,1,2000.000000,1,COMPLETED_SUCCESSFULLY,57.045164,55.799998,112.845162,56.048079,111.848077,2.004446,0,-1.000000,""
117,w0,python3action_chameleon_3000,0.000000,1,-1.000000,1,COMPLETED_SUCCESSFULLY,112.845177,0.000010,112.845187,112.845177,112.845187,11284518.700201,0,-1.000000,""
135_updated,w0,python3action_chameleon_3000_neowise,0.997085,1,2000.000000,1,COMPLETED_SUCCESSFULLY,57.045209,55.799998,112.845207,56.048124,111.848122,2.004447,1,-1.000000,""
135,w0,python3action_chameleon_3000,0.000000,1,-1.000000,1,COMPLETED_SUCCESSFULLY,112.845237,0.000010,112.845247,112.845237,112.845247,11284524.700201,1,-1.000000,""
python3action_modeltraining_job0_2,w0,python3action_modeltraining,0.997085,1,2000.000000,1,COMPLETED_SUCCESSFULLY,112.845267,3.471546,116.316813,111.848182,115.319728,33.218553,1,-1.000000,""
0_updated,w0,python3action_modeltraining_reviews100mb_neowise,0.997085,1,2000.000000,1,COMPLETED_SUCCESSFULLY,116.316828,43.399999,159.716827,115.319743,158.719742,3.657137,1,-1.000000,""
0,w0,python3action_modeltraining_reviews100mb,0.000000,1,-1.000000,1,COMPLETED_SUCCESSFULLY,159.716842,0.000010,159.716852,159.716842,159.716852,15971685.200201,1,-1.000000,""
38_updated,w0,python3action_linpack_6000_taurus,0.997085,1,2000.000000,1,COMPLETED_SUCCESSFULLY,6.763072,157.600046,164.363118,5.765987,163.366033,1.036586,2,-1.000000,""
38,w0,python3action_linpack_6000,0.000000,1,-1.000000,1,COMPLETED_SUCCESSFULLY,164.363133,0.000010,164.363143,164.363133,164.363143,16436314.336951,2,-1.000000,""
56_updated,w0,python3action_linpack_6000_taurus,0.997085,1,2000.000000,1,COMPLETED_SUCCESSFULLY,6.763222,157.600046,164.363268,5.766137,163.366183,1.036587,12,-1.000000,""
56,w0,python3action_linpack_6000,0.000000,1,-1.000000,1,COMPLETED_SUCCESSFULLY,164.363283,0.000010,164.363293,164.363283,164.363293,16436329.338959,12,-1.000000,""
67_updated,w0,python3action_linpack_6000_taurus,0.997085,1,2000.000000,1,COMPLETED_SUCCESSFULLY,6.763252,157.600046,164.363298,5.766167,163.366213,1.036587,13,-1.000000,""
67,w0,python3action_linpack_6000,0.000000,1,-1.000000,1,COMPLETED_SUCCESSFULLY,164.363328,0.000010,164.363338,164.363328,164.363338,16436333.839562,13,-1.000000,""
140_updated,w0,python3action_chameleon_3000_neowise,0.997085,1,2000.000000,1,COMPLETED_SUCCESSFULLY,112.845207,55.799998,168.645205,111.848122,167.648120,3.004447,0,-1.000000,""
140,w0,python3action_chameleon_3000,0.000000,1,-1.000000,1,COMPLETED_SUCCESSFULLY,168.645220,0.000010,168.645230,168.645220,168.645230,16864523.000201,0,-1.000000,""
python3action_modeltraining_job5_1,w0,python3action_modeltraining,0.997085,1,2000.000000,1,COMPLETED_SUCCESSFULLY,168.645250,3.471546,172.116796,167.648165,171.119711,49.292079,0,-1.000000,""
3_updated,w0,python3action_facedetection_SampleVideo_30mb_nova,0.997085,1,2000.000000,1,COMPLETED_SUCCESSFULLY,31.501873,160.399990,191.901863,30.504788,190.904778,1.190179,6,-1.000000,""
3,w0,python3action_facedetection_SampleVideo_30mb,0.000000,1,-1.000000,1,COMPLETED_SUCCESSFULLY,191.901878,0.000010,191.901888,191.901878,191.901888,19190188.800201,6,-1.000000,""
14_updated,w0,python3action_facedetection_SampleVideo_30mb_nova,0.997085,1,2000.000000,1,COMPLETED_SUCCESSFULLY,31.501903,160.399990,191.901893,30.504818,190.904808,1.190180,7,-1.000000,""
28_updated,w0,python3action_facedetection_SampleVideo_30mb_nova,0.997085,1,2000.000000,1,COMPLETED_SUCCESSFULLY,31.501918,160.399990,191.901908,30.504833,190.904823,1.190180,8,-1.000000,""
14,w0,python3action_facedetection_SampleVideo_30mb,0.000000,1,-1.000000,1,COMPLETED_SUCCESSFULLY,191.901923,0.000010,191.901933,191.901923,191.901933,19190193.276581,7,-1.000000,""
65_updated,w0,python3action_facedetection_SampleVideo_30mb_nova,0.997085,1,2000.000000,1,COMPLETED_SUCCESSFULLY,31.501948,160.399990,191.901938,30.504863,190.904853,1.190180,9,-1.000000,""
28,w0,python3action_facedetection_SampleVideo_30mb,0.000000,1,-1.000000,1,COMPLETED_SUCCESSFULLY,191.901953,0.000010,191.901963,191.901953,191.901963,19190196.300201,8,-1.000000,""
74_updated,w0,python3action_facedetection_SampleVideo_30mb_nova,0.997085,1,2000.000000,1,COMPLETED_SUCCESSFULLY,31.501963,160.399990,191.901953,30.504878,190.904868,1.190180,10,-1.000000,""
65,w0,python3action_facedetection_SampleVideo_30mb,0.000000,1,-1.000000,1,COMPLETED_SUCCESSFULLY,191.901998,0.000010,191.902008,191.901998,191.902008,19190200.800803,9,-1.000000,""
74,w0,python3action_facedetection_SampleVideo_30mb,0.000000,1,-1.000000,1,COMPLETED_SUCCESSFULLY,191.902028,0.000010,191.902038,191.902028,191.902038,19190203.801205,10,-1.000000,""
32_updated,w0,python3action_modeltraining_reviews100mb_neowise,0.997085,1,2000.000000,1,COMPLETED_SUCCESSFULLY,159.716872,43.399999,203.116871,158.719787,202.119786,4.657138,1,-1.000000,""
32,w0,python3action_modeltraining_reviews100mb,0.000000,1,-1.000000,1,COMPLETED_SUCCESSFULLY,203.116886,0.000010,203.116896,203.116886,203.116896,20311689.600201,1,-1.000000,""
119_updated,w0,python3action_pyaes_4000_troll,0.997085,1,2000.000000,1,COMPLETED_SUCCESSFULLY,104.203452,102.333333,206.536786,103.206367,205.539701,2.008531,4,-1.000000,""
119,w0,python3action_pyaes_4000,0.000000,1,-1.000000,1,COMPLETED_SUCCESSFULLY,206.536801,0.000010,206.536811,206.536801,206.536811,20653681.100201,4,-1.000000,""
33_updated,w0,python3action_pyaes_4000_yeti,0.997085,1,2000.000000,1,COMPLETED_SUCCESSFULLY,107.394925,105.500010,212.894935,106.397840,211.897850,2.008510,5,-1.000000,""
33,w0,python3action_pyaes_4000,0.000000,1,-1.000000,1,COMPLETED_SUCCESSFULLY,212.894950,0.000010,212.894960,212.894950,212.894960,21289496.021982,5,-1.000000,""
5_updated,w0,python3action_modeltraining_reviews100mb_neowise,0.997085,1,2000.000000,1,COMPLETED_SUCCESSFULLY,172.116811,43.399999,215.516810,171.119726,214.519725,4.942851,0,-1.000000,""
5,w0,python3action_modeltraining_reviews100mb,0.000000,1,-1.000000,1,COMPLETED_SUCCESSFULLY,215.516825,0.000010,215.516835,215.516825,215.516835,21551683.500201,0,-1.000000,""
31_updated,w0,python3action_linpack_6000_orion,0.997085,1,2000.000000,1,COMPLETED_SUCCESSFULLY,112.763237,106.000000,218.763237,111.766152,217.766152,2.054398,11,-1.000000,""
31,w0,python3action_linpack_6000,0.000000,1,-1.000000,1,COMPLETED_SUCCESSFULLY,218.763252,0.000010,218.763262,218.763252,218.763262,21876326.226082,11,-1.000000,""
python3action_video_processing_job20_13,w0,python3action_video_processing,0.997085,1,2000.000000,1,COMPLETED_SUCCESSFULLY,164.363358,72.012455,236.375814,163.366273,235.378729,3.268584,13,-1.000000,""
73_updated,w0,python3action_modeltraining_reviews100mb_neowise,0.997085,1,2000.000000,1,COMPLETED_SUCCESSFULLY,203.116916,43.399999,246.516915,202.119831,245.519830,5.657139,1,-1.000000,""
73,w0,python3action_modeltraining_reviews100mb,0.000000,1,-1.000000,1,COMPLETED_SUCCESSFULLY,246.516930,0.000010,246.516940,246.516930,246.516940,24651694.000201,1,-1.000000,""
57_updated,w0,python3action_modeltraining_reviews100mb_neowise,0.997085,1,2000.000000,1,COMPLETED_SUCCESSFULLY,215.516855,43.399999,258.916854,214.519770,257.919769,5.942852,0,-1.000000,""
57,w0,python3action_modeltraining_reviews100mb,0.000000,1,-1.000000,1,COMPLETED_SUCCESSFULLY,258.916869,0.000010,258.916879,258.916869,258.916879,25891687.900201,0,-1.000000,""
134_updated,w0,python3action_modeltraining_reviews100mb_neowise,0.997085,1,2000.000000,1,COMPLETED_SUCCESSFULLY,246.516960,43.399999,289.916959,245.519875,288.919874,6.657140,1,-1.000000,""
134,w0,python3action_modeltraining_reviews100mb,0.000000,1,-1.000000,1,COMPLETED_SUCCESSFULLY,289.916974,0.000010,289.916984,289.916974,289.916984,28991698.400201,1,-1.000000,""
107_updated,w0,python3action_modeltraining_reviews100mb_neowise,0.997085,1,2000.000000,1,COMPLETED_SUCCESSFULLY,258.916899,43.399999,302.316898,257.919814,301.319813,6.942853,0,-1.000000,""
107,w0,python3action_modeltraining_reviews100mb,0.000000,1,-1.000000,1,COMPLETED_SUCCESSFULLY,302.316913,0.000010,302.316923,302.316913,302.316923,30231692.300201,0,-1.000000,""
149_updated,w0,python3action_pyaes_4000_troll,0.997085,1,2000.000000,1,COMPLETED_SUCCESSFULLY,206.536831,102.333333,308.870164,205.539746,307.873079,3.008532,4,-1.000000,""
149,w0,python3action_pyaes_4000,0.000000,1,-1.000000,1,COMPLETED_SUCCESSFULLY,308.870179,0.000010,308.870189,308.870179,308.870189,30887018.934137,4,-1.000000,""
89_updated,w0,python3action_pyaes_4000_yeti,0.997085,1,2000.000000,1,COMPLETED_SUCCESSFULLY,212.894980,105.500010,318.394990,211.897895,317.397905,3.008511,5,-1.000000,""
89,w0,python3action_pyaes_4000,0.000000,1,-1.000000,1,COMPLETED_SUCCESSFULLY,318.395005,0.000010,318.395015,318.395005,318.395015,31839501.543764,5,-1.000000,""
68_updated,w0,python3action_linpack_6000_taurus,0.997085,1,2000.000000,1,COMPLETED_SUCCESSFULLY,164.363163,157.600046,321.963210,163.366078,320.966125,2.036586,2,-1.000000,""
68,w0,python3action_linpack_6000,0.000000,1,-1.000000,1,COMPLETED_SUCCESSFULLY,321.963225,0.000010,321.963235,321.963225,321.963235,32196323.500201,2,-1.000000,""
173_updated,w0,python3action_linpack_6000_taurus,0.997085,1,2000.000000,1,COMPLETED_SUCCESSFULLY,164.363313,157.600046,321.963360,163.366228,320.966275,2.036587,12,-1.000000,""
173,w0,python3action_linpack_6000,0.000000,1,-1.000000,1,COMPLETED_SUCCESSFULLY,321.963375,0.000010,321.963385,321.963375,321.963385,32196338.500201,12,-1.000000,""
44_updated,w0,python3action_linpack_6000_orion,0.997085,1,2000.000000,1,COMPLETED_SUCCESSFULLY,218.763282,106.000000,324.763282,217.766197,323.766197,3.054398,11,-1.000000,""
44,w0,python3action_linpack_6000,0.000000,1,-1.000000,1,COMPLETED_SUCCESSFULLY,324.763297,0.000010,324.763307,324.763297,324.763307,32476330.726685,11,-1.000000,""
171_updated,w0,python3action_modeltraining_reviews100mb_neowise,0.997085,1,2000.000000,1,COMPLETED_SUCCESSFULLY,289.917004,43.399999,333.317003,288.919919,332.319918,7.657141,1,-1.000000,""
171,w0,python3action_modeltraining_reviews100mb,0.000000,1,-1.000000,1,COMPLETED_SUCCESSFULLY,333.317018,0.000010,333.317028,333.317018,333.317028,33331702.800201,1,-1.000000,""
154_updated,w0,python3action_modeltraining_reviews100mb_neowise,0.997085,1,2000.000000,1,COMPLETED_SUCCESSFULLY,302.316943,43.399999,345.716942,301.319858,344.719857,7.942854,0,-1.000000,""
154,w0,python3action_modeltraining_reviews100mb,0.000000,1,-1.000000,1,COMPLETED_SUCCESSFULLY,345.716957,0.000010,345.716967,345.716957,345.716967,34571696.700201,0,-1.000000,""
78_updated,w0,python3action_facedetection_SampleVideo_30mb_nova,0.997085,1,2000.000000,1,COMPLETED_SUCCESSFULLY,191.901908,160.399990,352.301898,190.904823,351.304813,2.190180,6,-1.000000,""
78,w0,python3action_facedetection_SampleVideo_30mb,0.000000,1,-1.000000,1,COMPLETED_SUCCESSFULLY,352.301913,0.000010,352.301923,352.301913,352.301923,35230192.300201,6,-1.000000,""
90_updated,w0,python3action_facedetection_SampleVideo_30mb_nova,0.997085,1,2000.000000,1,COMPLETED_SUCCESSFULLY,191.901968,160.399990,352.301958,190.904883,351.304873,2.190180,7,-1.000000,""
90,w0,python3action_facedetection_SampleVideo_30mb,0.000000,1,-1.000000,1,COMPLETED_SUCCESSFULLY,352.301973,0.000010,352.301983,352.301973,352.301983,35230198.323706,7,-1.000000,""
122_updated,w0,python3action_facedetection_SampleVideo_30mb_nova,0.997085,1,2000.000000,1,COMPLETED_SUCCESSFULLY,191.902013,160.399990,352.302003,190.904928,351.304918,2.190180,8,-1.000000,""
122,w0,python3action_facedetection_SampleVideo_30mb,0.000000,1,-1.000000,1,COMPLETED_SUCCESSFULLY,352.302033,0.000010,352.302043,352.302033,352.302043,35230204.324509,8,-1.000000,""
136_updated,w0,python3action_facedetection_SampleVideo_30mb_nova,0.997085,1,2000.000000,1,COMPLETED_SUCCESSFULLY,191.902058,160.399990,352.302048,190.904973,351.304963,2.190181,9,-1.000000,""
145_updated,w0,python3action_facedetection_SampleVideo_30mb_nova,0.997085,1,2000.000000,1,COMPLETED_SUCCESSFULLY,191.902073,160.399990,352.302063,190.904988,351.304978,2.190181,10,-1.000000,""
136,w0,python3action_facedetection_SampleVideo_30mb,0.000000,1,-1.000000,1,COMPLETED_SUCCESSFULLY,352.302078,0.000010,352.302088,352.302078,352.302088,35230208.825112,9,-1.000000,""
145,w0,python3action_facedetection_SampleVideo_30mb,0.000000,1,-1.000000,1,COMPLETED_SUCCESSFULLY,352.302108,0.000010,352.302118,352.302108,352.302118,35230211.825513,10,-1.000000,""
python3action_video_processing_job4_9,w0,python3action_video_processing_reduced_0.91,0.997085,1,2000.000000,1,COMPLETED_SUCCESSFULLY,352.302123,2.614259,354.916382,351.305038,353.919297,135.380375,9,-1.000000,""
python3action_video_processing_job7_10,w0,python3action_video_processing_reduced_0.91,0.997085,1,2000.000000,1,COMPLETED_SUCCESSFULLY,352.302153,2.614259,354.916412,351.305068,353.919327,135.380387,10,-1.000000,""
184_updated,w0,python3action_modeltraining_reviews100mb_neowise,0.997085,1,2000.000000,1,COMPLETED_SUCCESSFULLY,333.317048,43.399999,376.717047,332.319963,375.719962,8.657142,1,-1.000000,""
184,w0,python3action_modeltraining_reviews100mb,0.000000,1,-1.000000,1,COMPLETED_SUCCESSFULLY,376.717062,0.000010,376.717072,376.717062,376.717072,37671707.200201,1,-1.000000,""
python3action_image_processing_job22_2,w0,python3action_image_processing_reduced_0.86,0.997085,1,2000.000000,1,COMPLETED_SUCCESSFULLY,376.717092,0.000000,376.717092,375.720007,375.720007,67446288406728.148438,1,-1.000000,""
181_updated,w0,python3action_modeltraining_reviews100mb_neowise,0.997085,1,2000.000000,1,COMPLETED_SUCCESSFULLY,345.716987,43.399999,389.116986,344.719902,388.119901,8.942855,0,-1.000000,""
181,w0,python3action_modeltraining_reviews100mb,0.000000,1,-1.000000,1,COMPLETED_SUCCESSFULLY,389.117001,0.000010,389.117011,389.117001,389.117011,38911701.100201,0,-1.000000,""
python3action_image_processing_job8_1,w0,python3action_image_processing_reduced_0.86,0.997085,1,2000.000000,1,COMPLETED_SUCCESSFULLY,389.117031,0.000000,389.117031,388.119946,388.119946,69672227527416.007812,0,-1.000000,""
20_updated,w0,python3action_videoprocessing_SampleVideo_50mb_taurus,0.997085,1,2000.000000,1,COMPLETED_SUCCESSFULLY,236.375829,154.250029,390.625858,235.378744,389.628773,2.525956,13,-1.000000,""
20,w0,python3action_videoprocessing_SampleVideo_50mb,0.000000,1,-1.000000,1,COMPLETED_SUCCESSFULLY,390.625873,0.000010,390.625883,390.625873,390.625883,39062588.300201,13,-1.000000,""
python3action_video_processing_job34_3,w0,python3action_video_processing,0.997085,1,2000.000000,1,COMPLETED_SUCCESSFULLY,321.963255,72.012455,393.975710,320.966170,392.978625,5.457092,2,-1.000000,""
python3action_video_processing_job47_12,w0,python3action_video_processing,0.997085,1,2000.000000,1,COMPLETED_SUCCESSFULLY,321.963405,72.012455,393.975860,320.966320,392.978775,5.457095,12,-1.000000,""
194_updated,w0,python3action_pyaes_4000_troll,0.997085,1,2000.000000,1,COMPLETED_SUCCESSFULLY,308.870209,102.333333,411.203543,307.873124,410.206458,4.008532,4,-1.000000,""
194,w0,python3action_pyaes_4000,0.000000,1,-1.000000,1,COMPLETED_SUCCESSFULLY,411.203558,0.000010,411.203568,411.203558,411.203568,41120356.800201,4,-1.000000,""
22_updated,w0,python3action_imageprocessing_SampleImage_60mb_neowise,0.997085,1,2000.000000,1,COMPLETED_SUCCESSFULLY,376.717122,37.500000,414.217122,375.720037,413.220037,11.019201,1,-1.000000,""
22,w0,python3action_imageprocessing_SampleImage_60mb,0.000000,1,-1.000000,1,COMPLETED_SUCCESSFULLY,414.217137,0.000010,414.217147,414.217137,414.217147,41421714.701205,1,-1.000000,""
112_updated,w0,python3action_pyaes_4000_yeti,0.997085,1,2000.000000,1,COMPLETED_SUCCESSFULLY,318.395035,105.500010,423.895046,317.397950,422.897961,4.008511,5,-1.000000,""
112,w0,python3action_pyaes_4000,0.000000,1,-1.000000,1,COMPLETED_SUCCESSFULLY,423.895061,0.000010,423.895071,423.895061,423.895071,42389507.100201,5,-1.000000,""
8_updated,w0,python3action_imageprocessing_SampleImage_60mb_neowise,0.997085,1,2000.000000,1,COMPLETED_SUCCESSFULLY,389.117061,37.500000,426.617061,388.119976,425.619976,11.349866,0,-1.000000,""
8,w0,python3action_imageprocessing_SampleImage_60mb,0.000000,1,-1.000000,1,COMPLETED_SUCCESSFULLY,426.617076,0.000010,426.617086,426.617076,426.617086,42661708.601205,0,-1.000000,""
45_updated,w0,python3action_linpack_6000_orion,0.997085,1,2000.000000,1,COMPLETED_SUCCESSFULLY,324.763327,106.000000,430.763327,323.766242,429.766242,4.054399,11,-1.000000,""
45,w0,python3action_linpack_6000,0.000000,1,-1.000000,1,COMPLETED_SUCCESSFULLY,430.763342,0.000010,430.763352,430.763342,430.763352,43076335.227287,11,-1.000000,""
93_updated,w0,python3action_imageprocessing_SampleImage_60mb_neowise,0.997085,1,2000.000000,1,COMPLETED_SUCCESSFULLY,414.217167,37.500000,451.717167,413.220082,450.720082,12.019202,1,-1.000000,""
93,w0,python3action_imageprocessing_SampleImage_60mb,0.000000,1,-1.000000,1,COMPLETED_SUCCESSFULLY,451.717182,0.000010,451.717192,451.717182,451.717192,45171719.201807,1,-1.000000,""
81_updated,w0,python3action_imageprocessing_SampleImage_60mb_neowise,0.997085,1,2000.000000,1,COMPLETED_SUCCESSFULLY,426.617106,37.500000,464.117106,425.620021,463.120021,12.349867,0,-1.000000,""
81,w0,python3action_imageprocessing_SampleImage_60mb,0.000000,1,-1.000000,1,COMPLETED_SUCCESSFULLY,464.117121,0.000010,464.117131,464.117121,464.117131,46411713.101807,0,-1.000000,""
2_updated,w0,python3action_pyaes_3000_troll,0.997085,1,2000.000000,1,COMPLETED_SUCCESSFULLY,411.203588,57.166677,468.370265,410.206503,467.373180,8.175623,4,-1.000000,""
2,w0,python3action_pyaes_3000,0.000000,1,-1.000000,1,COMPLETED_SUCCESSFULLY,468.370280,0.000010,468.370290,468.370280,468.370290,46837029.000201,4,-1.000000,""
127_updated,w0,python3action_imageprocessing_SampleImage_60mb_neowise,0.997085,1,2000.000000,1,COMPLETED_SUCCESSFULLY,451.717212,37.500000,489.217212,450.720127,488.220127,13.019203,1,-1.000000,""
127,w0,python3action_imageprocessing_SampleImage_60mb,0.000000,1,-1.000000,1,COMPLETED_SUCCESSFULLY,489.217227,0.000010,489.217237,489.217227,489.217237,48921723.702410,1,-1.000000,""
4_updated,w0,python3action_videoprocessing_SampleVideo_50mb_nova,0.997085,1,2000.000000,1,COMPLETED_SUCCESSFULLY,354.916397,139.600010,494.516407,353.919312,493.519322,3.535238,9,-1.000000,""
4,w0,python3action_videoprocessing_SampleVideo_50mb,0.000000,1,-1.000000,1,COMPLETED_SUCCESSFULLY,494.516422,0.000010,494.516432,494.516422,494.516432,49451643.200201,9,-1.000000,""
7_updated,w0,python3action_videoprocessing_SampleVideo_50mb_nova,0.997085,1,2000.000000,1,COMPLETED_SUCCESSFULLY,354.916427,139.600010,494.516437,353.919342,493.519352,3.535239,10,-1.000000,""
7,w0,python3action_videoprocessing_SampleVideo_50mb,0.000000,1,-1.000000,1,COMPLETED_SUCCESSFULLY,494.516467,0.000010,494.516477,494.516467,494.516477,49451647.700402,10,-1.000000,""
109_updated,w0,python3action_imageprocessing_SampleImage_60mb_neowise,0.997085,1,2000.000000,1,COMPLETED_SUCCESSFULLY,464.117151,37.500000,501.617151,463.120066,500.620066,13.349868,0,-1.000000,""
109,w0,python3action_imageprocessing_SampleImage_60mb,0.000000,1,-1.000000,1,COMPLETED_SUCCESSFULLY,501.617166,0.000010,501.617176,501.617166,501.617176,50161717.602410,0,-1.000000,""
155_updated,w0,python3action_facedetection_SampleVideo_30mb_nova,0.997085,1,2000.000000,1,COMPLETED_SUCCESSFULLY,352.301943,160.399990,512.701933,351.304858,511.704848,3.190180,6,-1.000000,""
155,w0,python3action_facedetection_SampleVideo_30mb,0.000000,1,-1.000000,1,COMPLETED_SUCCESSFULLY,512.701948,0.000010,512.701958,512.701948,512.701958,51270195.823907,6,-1.000000,""
162_updated,w0,python3action_facedetection_SampleVideo_30mb_nova,0.997085,1,2000.000000,1,COMPLETED_SUCCESSFULLY,352.302003,160.399990,512.701993,351.304918,511.704908,3.190180,7,-1.000000,""
162,w0,python3action_facedetection_SampleVideo_30mb,0.000000,1,-1.000000,1,COMPLETED_SUCCESSFULLY,512.702008,0.000010,512.702018,512.702008,512.702018,51270201.847412,7,-1.000000,""
190_updated,w0,python3action_facedetection_SampleVideo_30mb_nova,0.997085,1,2000.000000,1,COMPLETED_SUCCESSFULLY,352.302063,160.399990,512.702053,351.304978,511.704968,3.190181,8,-1.000000,""
190,w0,python3action_facedetection_SampleVideo_30mb,0.000000,1,-1.000000,1,COMPLETED_SUCCESSFULLY,512.702068,0.000010,512.702078,512.702068,512.702078,51270207.848216,8,-1.000000,""
python3action_video_processing_job26_6,w0,python3action_video_processing_reduced_0.91,0.997085,1,2000.000000,1,COMPLETED_SUCCESSFULLY,512.701978,2.614259,515.316237,511.704893,514.319152,196.736150,6,-1.000000,""
python3action_video_processing_job80_7,w0,python3action_video_processing_reduced_0.91,0.997085,1,2000.000000,1,COMPLETED_SUCCESSFULLY,512.702038,2.614259,515.316297,511.704953,514.319212,196.736173,7,-1.000000,""
python3action_video_processing_job85_8,w0,python3action_video_processing_reduced_0.91,0.997085,1,2000.000000,1,COMPLETED_SUCCESSFULLY,512.702098,2.614259,515.316357,511.705013,514.319272,196.736196,8,-1.000000,""
29_updated,w0,python3action_pyaes_3000_troll,0.997085,1,2000.000000,1,COMPLETED_SUCCESSFULLY,468.370310,57.166677,525.536987,467.373225,524.539902,9.175624,4,-1.000000,""
29,w0,python3action_pyaes_3000,0.000000,1,-1.000000,1,COMPLETED_SUCCESSFULLY,525.537002,0.000010,525.537012,525.537002,525.537012,52553701.200201,4,-1.000000,""
153_updated,w0,python3action_imageprocessing_SampleImage_60mb_neowise,0.997085,1,2000.000000,1,COMPLETED_SUCCESSFULLY,489.217257,37.500000,526.717257,488.220172,525.720172,14.019205,1,-1.000000,""
153,w0,python3action_imageprocessing_SampleImage_60mb,0.000000,1,-1.000000,1,COMPLETED_SUCCESSFULLY,526.717272,0.000010,526.717282,526.717272,526.717282,52671728.203012,1,-1.000000,""
157_updated,w0,python3action_pyaes_4000_yeti,0.997085,1,2000.000000,1,COMPLETED_SUCCESSFULLY,423.895091,105.500010,529.395101,422.898006,528.398016,5.008512,5,-1.000000,""
157,w0,python3action_pyaes_4000,0.000000,1,-1.000000,1,COMPLETED_SUCCESSFULLY,529.395116,0.000010,529.395126,529.395116,529.395126,52939512.621983,5,-1.000000,""
72_updated,w0,python3action_linpack_6000_orion,0.997085,1,2000.000000,1,COMPLETED_SUCCESSFULLY,430.763372,106.000000,536.763372,429.766287,535.766287,5.054399,11,-1.000000,""
72,w0,python3action_linpack_6000,0.000000,1,-1.000000,1,COMPLETED_SUCCESSFULLY,536.763387,0.000010,536.763397,536.763387,536.763397,53676339.727890,11,-1.000000,""
137_updated,w0,python3action_imageprocessing_SampleImage_60mb_neowise,0.997085,1,2000.000000,1,COMPLETED_SUCCESSFULLY,501.617196,37.500000,539.117196,500.620111,538.120111,14.349870,0,-1.000000,""
137,w0,python3action_imageprocessing_SampleImage_60mb,0.000000,1,-1.000000,1,COMPLETED_SUCCESSFULLY,539.117211,0.000010,539.117221,539.117211,539.117221,53911722.103012,0,-1.000000,""
66_updated,w0,python3action_videoprocessing_SampleVideo_50mb_taurus,0.997085,1,2000.000000,1,COMPLETED_SUCCESSFULLY,390.625903,154.250029,544.875932,389.628818,543.878847,3.525956,13,-1.000000,""
66,w0,python3action_videoprocessing_SampleVideo_50mb,0.000000,1,-1.000000,1,COMPLETED_SUCCESSFULLY,544.875947,0.000010,544.875957,544.875947,544.875957,54487595.700201,13,-1.000000,""
34_updated,w0,python3action_videoprocessing_SampleVideo_50mb_taurus,0.997085,1,2000.000000,1,COMPLETED_SUCCESSFULLY,393.975725,154.250029,548.225754,392.978640,547.228669,3.547673,2,-1.000000,""
34,w0,python3action_videoprocessing_SampleVideo_50mb,0.000000,1,-1.000000,1,COMPLETED_SUCCESSFULLY,548.225769,0.000010,548.225779,548.225769,548.225779,54822577.915259,2,-1.000000,""
47_updated,w0,python3action_videoprocessing_SampleVideo_50mb_taurus,0.997085,1,2000.000000,1,COMPLETED_SUCCESSFULLY,393.975875,154.250029,548.225904,392.978790,547.228819,3.547674,12,-1.000000,""
47,w0,python3action_videoprocessing_SampleVideo_50mb,0.000000,1,-1.000000,1,COMPLETED_SUCCESSFULLY,548.225919,0.000010,548.225929,548.225919,548.225929,54822592.915259,12,-1.000000,""
python3action_facedetection_job6_13,w0,python3action_facedetection_reduced_0.91,0.997085,1,2000.000000,1,COMPLETED_SUCCESSFULLY,544.875977,6.172496,551.048473,543.878892,550.051388,89.113281,13,-1.000000,""
168_updated,w0,python3action_imageprocessing_SampleImage_60mb_neowise,0.997085,1,2000.000000,1,COMPLETED_SUCCESSFULLY,526.717302,37.500000,564.217302,525.720217,563.220217,15.019206,1,-1.000000,""
168,w0,python3action_imageprocessing_SampleImage_60mb,0.000000,1,-1.000000,1,COMPLETED_SUCCESSFULLY,564.217317,0.000010,564.217327,564.217317,564.217327,56421732.703615,1,-1.000000,""
166_updated,w0,python3action_imageprocessing_SampleImage_60mb_neowise,0.997085,1,2000.000000,1,COMPLETED_SUCCESSFULLY,539.117241,37.500000,576.617241,538.120156,575.620156,15.349871,0,-1.000000,""
166,w0,python3action_imageprocessing_SampleImage_60mb,0.000000,1,-1.000000,1,COMPLETED_SUCCESSFULLY,576.617256,0.000010,576.617266,576.617256,576.617266,57661726.603615,0,-1.000000,""
64_updated,w0,python3action_pyaes_3000_troll,0.997085,1,2000.000000,1,COMPLETED_SUCCESSFULLY,525.537032,57.166677,582.703709,524.539947,581.706624,10.175624,4,-1.000000,""
64,w0,python3action_pyaes_3000,0.000000,1,-1.000000,1,COMPLETED_SUCCESSFULLY,582.703724,0.000010,582.703734,582.703724,582.703734,58270373.400201,4,-1.000000,""
40_updated,w0,python3action_chameleon_2000_neowise,0.997085,1,2000.000000,1,COMPLETED_SUCCESSFULLY,564.217347,24.200002,588.417349,563.220262,587.420264,24.273562,1,-1.000000,""
40,w0,python3action_chameleon_2000,0.000000,1,-1.000000,1,COMPLETED_SUCCESSFULLY,588.417364,0.000010,588.417374,588.417364,588.417374,58841737.426602,1,-1.000000,""
36_updated,w0,python3action_chameleon_2000_neowise,0.997085,1,2000.000000,1,COMPLETED_SUCCESSFULLY,576.617286,24.200002,600.817288,575.620201,599.820203,24.785957,0,-1.000000,""
36,w0,python3action_chameleon_2000,0.000000,1,-1.000000,1,COMPLETED_SUCCESSFULLY,600.817303,0.000010,600.817313,600.817303,600.817313,60081731.326602,0,-1.000000,""
59_updated,w0,python3action_chameleon_2000_neowise,0.997085,1,2000.000000,1,COMPLETED_SUCCESSFULLY,588.417394,24.200002,612.617396,587.420309,611.620311,25.273564,1,-1.000000,""
59,w0,python3action_chameleon_2000,0.000000,1,-1.000000,1,COMPLETED_SUCCESSFULLY,612.617411,0.000010,612.617421,612.617411,612.617421,61261742.149590,1,-1.000000,""
41_updated,w0,python3action_chameleon_2000_neowise,0.997085,1,2000.000000,1,COMPLETED_SUCCESSFULLY,600.817333,24.200002,625.017335,599.820248,624.020250,25.785958,0,-1.000000,""
41,w0,python3action_chameleon_2000,0.000000,1,-1.000000,1,COMPLETED_SUCCESSFULLY,625.017350,0.000010,625.017360,625.017350,625.017360,62501736.049590,0,-1.000000,""
116_updated,w0,python3action_videoprocessing_SampleVideo_50mb_nova,0.997085,1,2000.000000,1,COMPLETED_SUCCESSFULLY,494.516452,139.600010,634.116462,493.519367,633.119377,4.535239,9,-1.000000,""
116,w0,python3action_videoprocessing_SampleVideo_50mb,0.000000,1,-1.000000,1,COMPLETED_SUCCESSFULLY,634.116477,0.000010,634.116487,634.116477,634.116487,63411648.700201,9,-1.000000,""
138_updated,w0,python3action_videoprocessing_SampleVideo_50mb_nova,0.997085,1,2000.000000,1,COMPLETED_SUCCESSFULLY,494.516497,139.600010,634.116507,493.519412,633.119422,4.535239,10,-1.000000,""
138,w0,python3action_videoprocessing_SampleVideo_50mb,0.000000,1,-1.000000,1,COMPLETED_SUCCESSFULLY,634.116537,0.000010,634.116547,634.116537,634.116547,63411654.700201,10,-1.000000,""
174_updated,w0,python3action_pyaes_4000_yeti,0.997085,1,2000.000000,1,COMPLETED_SUCCESSFULLY,529.395146,105.500010,634.895156,528.398061,633.898071,6.008512,5,-1.000000,""
174,w0,python3action_pyaes_4000,0.000000,1,-1.000000,1,COMPLETED_SUCCESSFULLY,634.895171,0.000010,634.895181,634.895171,634.895181,63489518.143764,5,-1.000000,""
python3action_chameleon_job25_5,w0,python3action_chameleon_reduced_0.85,0.997085,1,2000.000000,1,COMPLETED_SUCCESSFULLY,634.895201,0.133904,635.029106,633.898116,634.032021,4734.968363,5,-1.000000,""
python3action_floatoperation_job12_9,w0,python3action_floatoperation,0.997085,1,2000.000000,1,COMPLETED_SUCCESSFULLY,634.116507,2.439945,636.556452,633.119422,635.559367,260.480991,9,-1.000000,""
python3action_floatoperation_job15_10,w0,python3action_floatoperation,0.997085,1,2000.000000,1,COMPLETED_SUCCESSFULLY,634.116567,2.439945,636.556512,633.119482,635.559427,260.481015,10,-1.000000,""
88_updated,w0,python3action_chameleon_2000_neowise,0.997085,1,2000.000000,1,COMPLETED_SUCCESSFULLY,612.617441,24.200002,636.817444,611.620356,635.820359,26.273566,1,-1.000000,""
88,w0,python3action_chameleon_2000,0.000000,1,-1.000000,1,COMPLETED_SUCCESSFULLY,636.817459,0.000010,636.817469,636.817459,636.817469,63681746.900201,1,-1.000000,""
71_updated,w0,python3action_pyaes_3000_troll,0.997085,1,2000.000000,1,COMPLETED_SUCCESSFULLY,582.703754,57.166677,639.870431,581.706669,638.873346,11.175625,4,-1.000000,""
71,w0,python3action_pyaes_3000,0.000000,1,-1.000000,1,COMPLETED_SUCCESSFULLY,639.870446,0.000010,639.870456,639.870446,639.870456,63987045.600201,4,-1.000000,""
82_updated,w0,python3action_linpack_6000_orion,0.997085,1,2000.000000,1,COMPLETED_SUCCESSFULLY,536.763417,106.000000,642.763417,535.766332,641.766332,6.054399,11,-1.000000,""
82,w0,python3action_linpack_6000,0.000000,1,-1.000000,1,COMPLETED_SUCCESSFULLY,642.763432,0.000010,642.763442,642.763432,642.763442,64276344.228492,11,-1.000000,""
75_updated,w0,python3action_chameleon_2000_neowise,0.997085,1,2000.000000,1,COMPLETED_SUCCESSFULLY,625.017380,24.200002,649.217383,624.020295,648.220298,26.785960,0,-1.000000,""
75,w0,python3action_chameleon_2000,0.000000,1,-1.000000,1,COMPLETED_SUCCESSFULLY,649.217398,0.000010,649.217408,649.217398,649.217408,64921740.800201,0,-1.000000,""
26_updated,w0,python3action_videoprocessing_SampleVideo_50mb_nova,0.997085,1,2000.000000,1,COMPLETED_SUCCESSFULLY,515.316252,139.600010,654.916262,514.319167,653.919177,4.684234,6,-1.000000,""
26,w0,python3action_videoprocessing_SampleVideo_50mb,0.000000,1,-1.000000,1,COMPLETED_SUCCESSFULLY,654.916277,0.000010,654.916287,654.916277,654.916287,65491628.700201,6,-1.000000,""
80_updated,w0,python3action_videoprocessing_SampleVideo_50mb_nova,0.997085,1,2000.000000,1,COMPLETED_SUCCESSFULLY,515.316312,139.600010,654.916322,514.319227,653.919237,4.684235,7,-1.000000,""
80,w0,python3action_videoprocessing_SampleVideo_50mb,0.000000,1,-1.000000,1,COMPLETED_SUCCESSFULLY,654.916337,0.000010,654.916347,654.916337,654.916347,65491634.700201,7,-1.000000,""
85_updated,w0,python3action_videoprocessing_SampleVideo_50mb_nova,0.997085,1,2000.000000,1,COMPLETED_SUCCESSFULLY,515.316372,139.600010,654.916382,514.319287,653.919297,4.684235,8,-1.000000,""
85,w0,python3action_videoprocessing_SampleVideo_50mb,0.000000,1,-1.000000,1,COMPLETED_SUCCESSFULLY,654.916397,0.000010,654.916407,654.916397,654.916407,65491640.700201,8,-1.000000,""
python3action_floatoperation_job10_8,w0,python3action_floatoperation,0.997085,1,2000.000000,1,COMPLETED_SUCCESSFULLY,654.916427,2.439945,657.356372,653.919342,656.359287,269.005739,8,-1.000000,""
100_updated,w0,python3action_chameleon_2000_neowise,0.997085,1,2000.000000,1,COMPLETED_SUCCESSFULLY,636.817489,24.200002,661.017491,635.820404,660.020406,27.273568,1,-1.000000,""
100,w0,python3action_chameleon_2000,0.000000,1,-1.000000,1,COMPLETED_SUCCESSFULLY,661.017506,0.000010,661.017516,661.017506,661.017516,66101751.623188,1,-1.000000,""
92_updated,w0,python3action_chameleon_2000_neowise,0.997085,1,2000.000000,1,COMPLETED_SUCCESSFULLY,649.217428,24.200002,673.417430,648.220343,672.420345,27.785962,0,-1.000000,""
92,w0,python3action_chameleon_2000,0.000000,1,-1.000000,1,COMPLETED_SUCCESSFULLY,673.417445,0.000010,673.417455,673.417445,673.417455,67341745.523188,0,-1.000000,""
164_updated,w0,python3action_chameleon_2000_neowise,0.997085,1,2000.000000,1,COMPLETED_SUCCESSFULLY,661.017536,24.200002,685.217538,660.020451,684.220453,28.273570,1,-1.000000,""
164,w0,python3action_chameleon_2000,0.000000,1,-1.000000,1,COMPLETED_SUCCESSFULLY,685.217553,0.000010,685.217563,685.217553,685.217563,68521756.346176,1,-1.000000,""
6_updated,w0,python3action_facedetection_SampleVideo_50mb_taurus,0.997085,1,2000.000000,1,COMPLETED_SUCCESSFULLY,551.048488,134.600046,685.648534,550.051403,684.651449,5.086562,13,-1.000000,""
6,w0,python3action_facedetection_SampleVideo_50mb,0.000000,1,-1.000000,1,COMPLETED_SUCCESSFULLY,685.648549,0.000010,685.648559,685.648549,685.648559,68564855.931032,13,-1.000000,""
97_updated,w0,python3action_pyaes_3000_troll,0.997085,1,2000.000000,1,COMPLETED_SUCCESSFULLY,639.870476,57.166677,697.037153,638.873391,696.040068,12.175626,4,-1.000000,""
97,w0,python3action_pyaes_3000,0.000000,1,-1.000000,1,COMPLETED_SUCCESSFULLY,697.037168,0.000010,697.037178,697.037168,697.037178,69703717.800201,4,-1.000000,""
124_updated,w0,python3action_chameleon_2000_neowise,0.997085,1,2000.000000,1,COMPLETED_SUCCESSFULLY,673.417475,24.200002,697.617477,672.420390,696.620392,28.785964,0,-1.000000,""
124,w0,python3action_chameleon_2000,0.000000,1,-1.000000,1,COMPLETED_SUCCESSFULLY,697.617492,0.000010,697.617502,697.617492,697.617502,69761750.246176,0,-1.000000,""
150_updated,w0,python3action_videoprocessing_SampleVideo_50mb_taurus,0.997085,1,2000.000000,1,COMPLETED_SUCCESSFULLY,548.225799,154.250029,702.475828,547.228714,701.478743,4.547673,2,-1.000000,""
150,w0,python3action_videoprocessing_SampleVideo_50mb,0.000000,1,-1.000000,1,COMPLETED_SUCCESSFULLY,702.475843,0.000010,702.475853,702.475843,702.475853,70247585.300201,2,-1.000000,""
193_updated,w0,python3action_videoprocessing_SampleVideo_50mb_taurus,0.997085,1,2000.000000,1,COMPLETED_SUCCESSFULLY,548.225949,154.250029,702.475978,547.228864,701.478893,4.547674,12,-1.000000,""
193,w0,python3action_videoprocessing_SampleVideo_50mb,0.000000,1,-1.000000,1,COMPLETED_SUCCESSFULLY,702.475993,0.000010,702.476003,702.475993,702.476003,70247600.300201,12,-1.000000,""
python3action_facedetection_job11_3,w0,python3action_facedetection_reduced_0.91,0.997085,1,2000.000000,1,COMPLETED_SUCCESSFULLY,702.475873,6.172496,708.648369,701.478788,707.651284,114.645885,2,-1.000000,""
python3action_facedetection_job16_12,w0,python3action_facedetection_reduced_0.91,0.997085,1,2000.000000,1,COMPLETED_SUCCESSFULLY,702.476023,6.172496,708.648519,701.478938,707.651434,114.645909,12,-1.000000,""
179_updated,w0,python3action_chameleon_2000_neowise,0.997085,1,2000.000000,1,COMPLETED_SUCCESSFULLY,685.217583,24.200002,709.417586,684.220498,708.420501,29.273572,1,-1.000000,""
179,w0,python3action_chameleon_2000,0.000000,1,-1.000000,1,COMPLETED_SUCCESSFULLY,709.417601,0.000010,709.417611,709.417601,709.417611,70941761.100201,1,-1.000000,""
178_updated,w0,python3action_chameleon_2000_neowise,0.997085,1,2000.000000,1,COMPLETED_SUCCESSFULLY,697.617522,24.200002,721.817525,696.620437,720.820440,29.785966,0,-1.000000,""
178,w0,python3action_chameleon_2000,0.000000,1,-1.000000,1,COMPLETED_SUCCESSFULLY,721.817540,0.000010,721.817550,721.817540,721.817550,72181755.000201,0,-1.000000,""
25_updated,w0,python3action_chameleon_3000_yeti,0.997085,1,2000.000000,1,COMPLETED_SUCCESSFULLY,635.029121,93.000000,728.029121,634.032036,727.032036,7.817549,5,-1.000000,""
25,w0,python3action_chameleon_3000,0.000000,1,-1.000000,1,COMPLETED_SUCCESSFULLY,728.029136,0.000010,728.029146,728.029136,728.029146,72802914.600401,5,-1.000000,""
23_updated,w0,python3action_modeltraining_reviews50mb_neowise,0.997085,1,2000.000000,1,COMPLETED_SUCCESSFULLY,709.417631,22.799998,732.217629,708.420546,731.220544,32.071080,1,-1.000000,""
23,w0,python3action_modeltraining_reviews50mb,0.000000,1,-1.000000,1,COMPLETED_SUCCESSFULLY,732.217644,0.000010,732.217654,732.217644,732.217654,73221765.400201,1,-1.000000,""
1_updated,w0,python3action_modeltraining_reviews50mb_neowise,0.997085,1,2000.000000,1,COMPLETED_SUCCESSFULLY,721.817570,22.799998,744.617568,720.820485,743.620483,32.614937,0,-1.000000,""
1,w0,python3action_modeltraining_reviews50mb,0.000000,1,-1.000000,1,COMPLETED_SUCCESSFULLY,744.617583,0.000010,744.617593,744.617583,744.617593,74461759.300201,0,-1.000000,""
102_updated,w0,python3action_linpack_6000_orion,0.997085,1,2000.000000,1,COMPLETED_SUCCESSFULLY,642.763462,106.000000,748.763462,641.766377,747.766377,7.054400,11,-1.000000,""
102,w0,python3action_linpack_6000,0.000000,1,-1.000000,1,COMPLETED_SUCCESSFULLY,748.763477,0.000010,748.763487,748.763477,748.763487,74876348.729094,11,-1.000000,""
101_updated,w0,python3action_pyaes_3000_troll,0.997085,1,2000.000000,1,COMPLETED_SUCCESSFULLY,697.037198,57.166677,754.203875,696.040113,753.206790,13.175627,4,-1.000000,""
101,w0,python3action_pyaes_3000,0.000000,1,-1.000000,1,COMPLETED_SUCCESSFULLY,754.203890,0.000010,754.203900,754.203890,754.203900,75420390.000201,4,-1.000000,""
96_updated,w0,python3action_modeltraining_reviews50mb_neowise,0.997085,1,2000.000000,1,COMPLETED_SUCCESSFULLY,732.217674,22.799998,755.017672,731.220589,754.020587,33.071082,1,-1.000000,""
96,w0,python3action_modeltraining_reviews50mb,0.000000,1,-1.000000,1,COMPLETED_SUCCESSFULLY,755.017687,0.000010,755.017697,755.017687,755.017697,75501769.700201,1,-1.000000,""
77_updated,w0,python3action_modeltraining_reviews50mb_neowise,0.997085,1,2000.000000,1,COMPLETED_SUCCESSFULLY,744.617613,22.799998,767.417611,743.620528,766.420526,33.614939,0,-1.000000,""
77,w0,python3action_modeltraining_reviews50mb,0.000000,1,-1.000000,1,COMPLETED_SUCCESSFULLY,767.417626,0.000010,767.417636,767.417626,767.417636,76741763.600201,0,-1.000000,""
12_updated,w0,python3action_floatoperation_200000000_nova,0.997085,1,2000.000000,1,COMPLETED_SUCCESSFULLY,636.556467,135.399990,771.956457,635.559382,770.959372,5.693940,9,-1.000000,""
12,w0,python3action_floatoperation_200000000,0.000000,1,-1.000000,1,COMPLETED_SUCCESSFULLY,771.956472,0.000010,771.956482,771.956472,771.956482,77195648.230785,9,-1.000000,""
15_updated,w0,python3action_floatoperation_200000000_nova,0.997085,1,2000.000000,1,COMPLETED_SUCCESSFULLY,636.556527,135.399990,771.956518,635.559442,770.959433,5.693940,10,-1.000000,""
15,w0,python3action_floatoperation_200000000,0.000000,1,-1.000000,1,COMPLETED_SUCCESSFULLY,771.956533,0.000010,771.956543,771.956533,771.956543,77195654.300201,10,-1.000000,""
128_updated,w0,python3action_modeltraining_reviews50mb_neowise,0.997085,1,2000.000000,1,COMPLETED_SUCCESSFULLY,755.017717,22.799998,777.817715,754.020632,776.820630,34.071084,1,-1.000000,""
128,w0,python3action_modeltraining_reviews50mb,0.000000,1,-1.000000,1,COMPLETED_SUCCESSFULLY,777.817730,0.000010,777.817740,777.817730,777.817740,77781774.000201,1,-1.000000,""
120_updated,w0,python3action_modeltraining_reviews50mb_neowise,0.997085,1,2000.000000,1,COMPLETED_SUCCESSFULLY,767.417656,22.799998,790.217654,766.420571,789.220569,34.614941,0,-1.000000,""
120,w0,python3action_modeltraining_reviews50mb,0.000000,1,-1.000000,1,COMPLETED_SUCCESSFULLY,790.217669,0.000010,790.217679,790.217669,790.217679,79021767.900201,0,-1.000000,""
10_updated,w0,python3action_floatoperation_200000000_nova,0.997085,1,2000.000000,1,COMPLETED_SUCCESSFULLY,657.356387,135.399990,792.756378,656.359302,791.759293,5.847558,8,-1.000000,""
10,w0,python3action_floatoperation_200000000,0.000000,1,-1.000000,1,COMPLETED_SUCCESSFULLY,792.756393,0.000010,792.756403,792.756393,792.756403,79275640.300201,8,-1.000000,""
165_updated,w0,python3action_videoprocessing_SampleVideo_50mb_nova,0.997085,1,2000.000000,1,COMPLETED_SUCCESSFULLY,654.916307,139.600010,794.516317,653.919222,793.519232,5.684235,6,-1.000000,""
165,w0,python3action_videoprocessing_SampleVideo_50mb,0.000000,1,-1.000000,1,COMPLETED_SUCCESSFULLY,794.516332,0.000010,794.516342,794.516332,794.516342,79451634.200201,6,-1.000000,""
196_updated,w0,python3action_videoprocessing_SampleVideo_50mb_nova,0.997085,1,2000.000000,1,COMPLETED_SUCCESSFULLY,654.916367,139.600010,794.516377,653.919282,793.519292,5.684235,7,-1.000000,""
196,w0,python3action_videoprocessing_SampleVideo_50mb,0.000000,1,-1.000000,1,COMPLETED_SUCCESSFULLY,794.516392,0.000010,794.516402,794.516392,794.516402,79451640.200201,7,-1.000000,""
python3action_floatoperation_job42_6,w0,python3action_floatoperation,0.997085,1,2000.000000,1,COMPLETED_SUCCESSFULLY,794.516362,2.439945,796.956307,793.519277,795.959222,326.220110,6,-1.000000,""
python3action_floatoperation_job69_7,w0,python3action_floatoperation,0.997085,1,2000.000000,1,COMPLETED_SUCCESSFULLY,794.516422,2.439945,796.956367,793.519337,795.959282,326.220135,7,-1.000000,""
172_updated,w0,python3action_modeltraining_reviews50mb_neowise,0.997085,1,2000.000000,1,COMPLETED_SUCCESSFULLY,777.817760,22.799998,800.617758,776.820675,799.620673,35.071086,1,-1.000000,""
172,w0,python3action_modeltraining_reviews50mb,0.000000,1,-1.000000,1,COMPLETED_SUCCESSFULLY,800.617773,0.000010,800.617783,800.617773,800.617783,80061778.300201,1,-1.000000,""
111_updated,w0,python3action_pyaes_3000_troll,0.997085,1,2000.000000,1,COMPLETED_SUCCESSFULLY,754.203920,57.166677,811.370597,753.206835,810.373512,14.175627,4,-1.000000,""
111,w0,python3action_pyaes_3000,0.000000,1,-1.000000,1,COMPLETED_SUCCESSFULLY,811.370612,0.000010,811.370622,811.370612,811.370622,81137062.200201,4,-1.000000,""
151_updated,w0,python3action_modeltraining_reviews50mb_neowise,0.997085,1,2000.000000,1,COMPLETED_SUCCESSFULLY,790.217699,22.799998,813.017697,789.220614,812.020612,35.614943,0,-1.000000,""
151,w0,python3action_modeltraining_reviews50mb,0.000000,1,-1.000000,1,COMPLETED_SUCCESSFULLY,813.017712,0.000010,813.017722,813.017712,813.017722,81301772.200201,0,-1.000000,""
49_updated,w0,python3action_facedetection_SampleVideo_50mb_taurus,0.997085,1,2000.000000,1,COMPLETED_SUCCESSFULLY,685.648579,134.600046,820.248625,684.651494,819.251540,6.086562,13,-1.000000,""
49,w0,python3action_facedetection_SampleVideo_50mb,0.000000,1,-1.000000,1,COMPLETED_SUCCESSFULLY,820.248640,0.000010,820.248650,820.248640,820.248650,82024865.044712,13,-1.000000,""
39_updated,w0,python3action_chameleon_3000_yeti,0.997085,1,2000.000000,1,COMPLETED_SUCCESSFULLY,728.029166,93.000000,821.029166,727.032081,820.032081,8.817549,5,-1.000000,""
39,w0,python3action_chameleon_3000,0.000000,1,-1.000000,1,COMPLETED_SUCCESSFULLY,821.029181,0.000010,821.029191,821.029181,821.029191,82102919.101004,5,-1.000000,""
185_updated,w0,python3action_modeltraining_reviews50mb_neowise,0.997085,1,2000.000000,1,COMPLETED_SUCCESSFULLY,800.617803,22.799998,823.417801,799.620718,822.420716,36.071088,1,-1.000000,""
185,w0,python3action_modeltraining_reviews50mb,0.000000,1,-1.000000,1,COMPLETED_SUCCESSFULLY,823.417816,0.000010,823.417826,823.417816,823.417826,82341782.600201,1,-1.000000,""
python3action_linpack_job17_2,w0,python3action_linpack_reduced_0.85,0.997085,1,2000.000000,1,COMPLETED_SUCCESSFULLY,823.417846,0.041658,823.459504,822.420761,822.462419,19743.181309,1,-1.000000,""
182_updated,w0,python3action_modeltraining_reviews50mb_neowise,0.997085,1,2000.000000,1,COMPLETED_SUCCESSFULLY,813.017742,22.799998,835.817740,812.020657,834.820655,36.614945,0,-1.000000,""
182,w0,python3action_modeltraining_reviews50mb,0.000000,1,-1.000000,1,COMPLETED_SUCCESSFULLY,835.817755,0.000010,835.817765,835.817755,835.817765,83581776.500201,0,-1.000000,""
python3action_linpack_job13_1,w0,python3action_linpack_reduced_0.85,0.997085,1,2000.000000,1,COMPLETED_SUCCESSFULLY,835.817785,0.041658,835.859443,834.820700,834.862358,20040.841407,0,-1.000000,""
11_updated,w0,python3action_facedetection_SampleVideo_50mb_taurus,0.997085,1,2000.000000,1,COMPLETED_SUCCESSFULLY,708.648384,134.600046,843.248430,707.651299,842.251345,6.257437,2,-1.000000,""
11,w0,python3action_facedetection_SampleVideo_50mb,0.000000,1,-1.000000,1,COMPLETED_SUCCESSFULLY,843.248445,0.000010,843.248455,843.248445,843.248455,84324845.531032,2,-1.000000,""
16_updated,w0,python3action_facedetection_SampleVideo_50mb_taurus,0.997085,1,2000.000000,1,COMPLETED_SUCCESSFULLY,708.648534,134.600046,843.248580,707.651449,842.251495,6.257438,12,-1.000000,""
16,w0,python3action_facedetection_SampleVideo_50mb,0.000000,1,-1.000000,1,COMPLETED_SUCCESSFULLY,843.248595,0.000010,843.248605,843.248595,843.248605,84324860.531032,12,-1.000000,""
17_updated,w0,python3action_linpack_5000_neowise,0.997085,1,2000.000000,1,COMPLETED_SUCCESSFULLY,823.459519,20.750000,844.209519,822.462434,843.212434,40.636744,1,-1.000000,""
17,w0,python3action_linpack_5000,0.000000,1,-1.000000,1,COMPLETED_SUCCESSFULLY,844.209534,0.000010,844.209544,844.209534,844.209544,84420954.405928,1,-1.000000,""
108_updated,w0,python3action_linpack_6000_orion,0.997085,1,2000.000000,1,COMPLETED_SUCCESSFULLY,748.763507,106.000000,854.763507,747.766422,853.766422,8.054400,11,-1.000000,""
108,w0,python3action_linpack_6000,0.000000,1,-1.000000,1,COMPLETED_SUCCESSFULLY,854.763522,0.000010,854.763532,854.763522,854.763532,85476353.229696,11,-1.000000,""
13_updated,w0,python3action_linpack_5000_neowise,0.997085,1,2000.000000,1,COMPLETED_SUCCESSFULLY,835.859458,20.750000,856.609458,834.862373,855.612373,41.234331,0,-1.000000,""
13,w0,python3action_linpack_5000,0.000000,1,-1.000000,1,COMPLETED_SUCCESSFULLY,856.609473,0.000010,856.609483,856.609473,856.609483,85660948.305928,0,-1.000000,""
48_updated,w0,python3action_linpack_5000_neowise,0.997085,1,2000.000000,1,COMPLETED_SUCCESSFULLY,844.209564,20.750000,864.959564,843.212479,863.962479,41.636746,1,-1.000000,""
48,w0,python3action_linpack_5000,0.000000,1,-1.000000,1,COMPLETED_SUCCESSFULLY,864.959579,0.000010,864.959589,864.959579,864.959589,86495958.906530,1,-1.000000,""
118_updated,w0,python3action_pyaes_3000_troll,0.997085,1,2000.000000,1,COMPLETED_SUCCESSFULLY,811.370642,57.166677,868.537319,810.373557,867.540234,15.175628,4,-1.000000,""
118,w0,python3action_pyaes_3000,0.000000,1,-1.000000,1,COMPLETED_SUCCESSFULLY,868.537334,0.000010,868.537344,868.537334,868.537344,86853734.400201,4,-1.000000,""
21_updated,w0,python3action_linpack_5000_neowise,0.997085,1,2000.000000,1,COMPLETED_SUCCESSFULLY,856.609503,20.750000,877.359503,855.612418,876.362418,42.234333,0,-1.000000,""
21,w0,python3action_linpack_5000,0.000000,1,-1.000000,1,COMPLETED_SUCCESSFULLY,877.359518,0.000010,877.359528,877.359518,877.359528,87735952.806530,0,-1.000000,""
84_updated,w0,python3action_linpack_5000_neowise,0.997085,1,2000.000000,1,COMPLETED_SUCCESSFULLY,864.959609,20.750000,885.709609,863.962524,884.712524,42.636748,1,-1.000000,""
84,w0,python3action_linpack_5000,0.000000,1,-1.000000,1,COMPLETED_SUCCESSFULLY,885.709624,0.000010,885.709634,885.709624,885.709634,88570963.407132,1,-1.000000,""
51_updated,w0,python3action_linpack_5000_neowise,0.997085,1,2000.000000,1,COMPLETED_SUCCESSFULLY,877.359548,20.750000,898.109548,876.362463,897.112463,43.234336,0,-1.000000,""
51,w0,python3action_linpack_5000,0.000000,1,-1.000000,1,COMPLETED_SUCCESSFULLY,898.109563,0.000010,898.109573,898.109563,898.109573,89810957.307132,0,-1.000000,""
98_updated,w0,python3action_linpack_5000_neowise,0.997085,1,2000.000000,1,COMPLETED_SUCCESSFULLY,885.709654,20.750000,906.459654,884.712569,905.462569,43.636750,1,-1.000000,""
98,w0,python3action_linpack_5000,0.000000,1,-1.000000,1,COMPLETED_SUCCESSFULLY,906.459669,0.000010,906.459679,906.459669,906.459679,90645967.907735,1,-1.000000,""
99_updated,w0,python3action_floatoperation_200000000_nova,0.997085,1,2000.000000,1,COMPLETED_SUCCESSFULLY,771.956502,135.399990,907.356493,770.959417,906.359408,6.693940,9,-1.000000,""
99,w0,python3action_floatoperation_200000000,0.000000,1,-1.000000,1,COMPLETED_SUCCESSFULLY,907.356508,0.000010,907.356518,907.356508,907.356518,90735651.800201,9,-1.000000,""
156_updated,w0,python3action_floatoperation_200000000_nova,0.997085,1,2000.000000,1,COMPLETED_SUCCESSFULLY,771.956563,135.399990,907.356553,770.959478,906.359468,6.693940,10,-1.000000,""
156,w0,python3action_floatoperation_200000000,0.000000,1,-1.000000,1,COMPLETED_SUCCESSFULLY,907.356568,0.000010,907.356578,907.356568,907.356578,90735657.823907,10,-1.000000,""
53_updated,w0,python3action_chameleon_3000_yeti,0.997085,1,2000.000000,1,COMPLETED_SUCCESSFULLY,821.029211,93.000000,914.029211,820.032126,913.032126,9.817550,5,-1.000000,""
53,w0,python3action_chameleon_3000,0.000000,1,-1.000000,1,COMPLETED_SUCCESSFULLY,914.029226,0.000010,914.029236,914.029226,914.029236,91402923.601606,5,-1.000000,""
91_updated,w0,python3action_linpack_5000_neowise,0.997085,1,2000.000000,1,COMPLETED_SUCCESSFULLY,898.109593,20.750000,918.859593,897.112508,917.862508,44.234338,0,-1.000000,""
91,w0,python3action_linpack_5000,0.000000,1,-1.000000,1,COMPLETED_SUCCESSFULLY,918.859608,0.000010,918.859618,918.859608,918.859618,91885961.807735,0,-1.000000,""
130_updated,w0,python3action_pyaes_3000_troll,0.997085,1,2000.000000,1,COMPLETED_SUCCESSFULLY,868.537364,57.166677,925.704041,867.540279,924.706956,16.175629,4,-1.000000,""
130,w0,python3action_pyaes_3000,0.000000,1,-1.000000,1,COMPLETED_SUCCESSFULLY,925.704056,0.000010,925.704066,925.704056,925.704066,92570406.600201,4,-1.000000,""
106_updated,w0,python3action_linpack_5000_neowise,0.997085,1,2000.000000,1,COMPLETED_SUCCESSFULLY,906.459699,20.750000,927.209699,905.462614,926.212614,44.636752,1,-1.000000,""
106,w0,python3action_linpack_5000,0.000000,1,-1.000000,1,COMPLETED_SUCCESSFULLY,927.209714,0.000010,927.209724,927.209714,927.209724,92720972.408337,1,-1.000000,""
70_updated,w0,python3action_floatoperation_200000000_nova,0.997085,1,2000.000000,1,COMPLETED_SUCCESSFULLY,792.756423,135.399990,928.156413,791.759338,927.159328,6.847558,8,-1.000000,""
70,w0,python3action_floatoperation_200000000,0.000000,1,-1.000000,1,COMPLETED_SUCCESSFULLY,928.156428,0.000010,928.156438,928.156428,928.156438,92815643.823907,8,-1.000000,""
42_updated,w0,python3action_floatoperation_200000000_nova,0.997085,1,2000.000000,1,COMPLETED_SUCCESSFULLY,796.956322,135.399990,932.356313,795.959237,931.359228,6.878577,6,-1.000000,""
42,w0,python3action_floatoperation_200000000,0.000000,1,-1.000000,1,COMPLETED_SUCCESSFULLY,932.356328,0.000010,932.356338,932.356328,932.356338,93235633.800201,6,-1.000000,""
69_updated,w0,python3action_floatoperation_200000000_nova,0.997085,1,2000.000000,1,COMPLETED_SUCCESSFULLY,796.956382,135.399990,932.356373,795.959297,931.359288,6.878577,7,-1.000000,""
69,w0,python3action_floatoperation_200000000,0.000000,1,-1.000000,1,COMPLETED_SUCCESSFULLY,932.356388,0.000010,932.356398,932.356388,932.356398,93235639.800201,7,-1.000000,""
104_updated,w0,python3action_linpack_5000_neowise,0.997085,1,2000.000000,1,COMPLETED_SUCCESSFULLY,918.859638,20.750000,939.609638,917.862553,938.612553,45.234340,0,-1.000000,""
104,w0,python3action_linpack_5000,0.000000,1,-1.000000,1,COMPLETED_SUCCESSFULLY,939.609653,0.000010,939.609663,939.609653,939.609663,93960966.308337,0,-1.000000,""
115_updated,w0,python3action_linpack_5000_neowise,0.997085,1,2000.000000,1,COMPLETED_SUCCESSFULLY,927.209744,20.750000,947.959744,926.212659,946.962659,45.636755,1,-1.000000,""
115,w0,python3action_linpack_5000,0.000000,1,-1.000000,1,COMPLETED_SUCCESSFULLY,947.959759,0.000010,947.959769,947.959759,947.959769,94795976.908940,1,-1.000000,""
60_updated,w0,python3action_facedetection_SampleVideo_50mb_taurus,0.997085,1,2000.000000,1,COMPLETED_SUCCESSFULLY,820.248670,134.600046,954.848717,819.251585,953.851632,7.086562,13,-1.000000,""
60,w0,python3action_facedetection_SampleVideo_50mb,0.000000,1,-1.000000,1,COMPLETED_SUCCESSFULLY,954.848732,0.000010,954.848742,954.848732,954.848742,95484874.200201,13,-1.000000,""
110_updated,w0,python3action_linpack_5000_neowise,0.997085,1,2000.000000,1,COMPLETED_SUCCESSFULLY,939.609683,20.750000,960.359683,938.612598,959.362598,46.234342,0,-1.000000,""
110,w0,python3action_linpack_5000,0.000000,1,-1.000000,1,COMPLETED_SUCCESSFULLY,960.359698,0.000010,960.359708,960.359698,960.359708,96035970.808940,0,-1.000000,""
123_updated,w0,python3action_linpack_6000_orion,0.997085,1,2000.000000,1,COMPLETED_SUCCESSFULLY,854.763552,106.000000,960.763552,853.766467,959.766467,9.054401,11,-1.000000,""
123,w0,python3action_linpack_6000,0.000000,1,-1.000000,1,COMPLETED_SUCCESSFULLY,960.763567,0.000010,960.763577,960.763567,960.763577,96076357.730299,11,-1.000000,""
133_updated,w0,python3action_linpack_5000_neowise,0.997085,1,2000.000000,1,COMPLETED_SUCCESSFULLY,947.959789,20.750000,968.709789,946.962704,967.712704,46.636757,1,-1.000000,""
133,w0,python3action_linpack_5000,0.000000,1,-1.000000,1,COMPLETED_SUCCESSFULLY,968.709804,0.000010,968.709814,968.709804,968.709814,96870981.409542,1,-1.000000,""
50_updated,w0,python3action_facedetection_SampleVideo_50mb_taurus,0.997085,1,2000.000000,1,COMPLETED_SUCCESSFULLY,843.248475,134.600046,977.848521,842.251390,976.851436,7.257438,2,-1.000000,""
50,w0,python3action_facedetection_SampleVideo_50mb,0.000000,1,-1.000000,1,COMPLETED_SUCCESSFULLY,977.848536,0.000010,977.848546,977.848536,977.848546,97784854.644712,2,-1.000000,""
54_updated,w0,python3action_facedetection_SampleVideo_50mb_taurus,0.997085,1,2000.000000,1,COMPLETED_SUCCESSFULLY,843.248625,134.600046,977.848671,842.251540,976.851586,7.257439,12,-1.000000,""
54,w0,python3action_facedetection_SampleVideo_50mb,0.000000,1,-1.000000,1,COMPLETED_SUCCESSFULLY,977.848686,0.000010,977.848696,977.848686,977.848696,97784869.644712,12,-1.000000,""
121_updated,w0,python3action_linpack_5000_neowise,0.997085,1,2000.000000,1,COMPLETED_SUCCESSFULLY,960.359728,20.750000,981.109728,959.362643,980.112643,47.234344,0,-1.000000,""
121,w0,python3action_linpack_5000,0.000000,1,-1.000000,1,COMPLETED_SUCCESSFULLY,981.109743,0.000010,981.109753,981.109743,981.109753,98110975.309542,0,-1.000000,""
132_updated,w0,python3action_pyaes_3000_troll,0.997085,1,2000.000000,1,COMPLETED_SUCCESSFULLY,925.704086,57.166677,982.870763,924.707001,981.873678,17.175630,4,-1.000000,""
132,w0,python3action_pyaes_3000,0.000000,1,-1.000000,1,COMPLETED_SUCCESSFULLY,982.870778,0.000010,982.870788,982.870778,982.870788,98287078.800201,4,-1.000000,""
146_updated,w0,python3action_linpack_5000_neowise,0.997085,1,2000.000000,1,COMPLETED_SUCCESSFULLY,981.109773,20.750000,1001.859773,980.112688,1000.862688,48.234346,0,-1.000000,""
146,w0,python3action_linpack_5000,0.000000,1,-1.000000,1,COMPLETED_SUCCESSFULLY,1001.859788,0.000010,1001.859798,1001.859788,1001.859798,100185979.810144,0,-1.000000,""
62_updated,w0,python3action_chameleon_3000_yeti,0.997085,1,2000.000000,1,COMPLETED_SUCCESSFULLY,914.029256,93.000000,1007.029256,913.032171,1006.032171,10.817550,5,-1.000000,""
62,w0,python3action_chameleon_3000,0.000000,1,-1.000000,1,COMPLETED_SUCCESSFULLY,1007.029271,0.000010,1007.029281,1007.029271,1007.029281,100702928.102208,5,-1.000000,""
43_updated,w0,python3action_videoprocessing_SampleVideo_30mb_nova,0.997085,1,2000.000000,1,COMPLETED_SUCCESSFULLY,907.356538,106.799980,1014.156518,906.359453,1013.159433,9.486513,9,-1.000000,""
43,w0,python3action_videoprocessing_SampleVideo_30mb,0.000000,1,-1.000000,1,COMPLETED_SUCCESSFULLY,1014.156533,0.000010,1014.156543,1014.156533,1014.156543,101415654.347010,9,-1.000000,""
55_updated,w0,python3action_videoprocessing_SampleVideo_30mb_nova,0.997085,1,2000.000000,1,COMPLETED_SUCCESSFULLY,907.356598,106.799980,1014.156579,906.359513,1013.159494,9.486514,10,-1.000000,""
55,w0,python3action_videoprocessing_SampleVideo_30mb,0.000000,1,-1.000000,1,COMPLETED_SUCCESSFULLY,1014.156594,0.000010,1014.156604,1014.156594,1014.156604,101415660.400201,10,-1.000000,""
27_updated,w0,python3action_videoprocessing_SampleVideo_30mb_nova,0.997085,1,2000.000000,1,COMPLETED_SUCCESSFULLY,928.156458,106.799980,1034.956439,927.159373,1033.959354,9.681269,8,-1.000000,""
27,w0,python3action_videoprocessing_SampleVideo_30mb,0.000000,1,-1.000000,1,COMPLETED_SUCCESSFULLY,1034.956454,0.000010,1034.956464,1034.956454,1034.956464,103495646.400201,8,-1.000000,""
141_updated,w0,python3action_pyaes_3000_troll,0.997085,1,2000.000000,1,COMPLETED_SUCCESSFULLY,982.870808,57.166677,1040.037485,981.873723,1039.040400,18.175631,4,-1.000000,""
141,w0,python3action_pyaes_3000,0.000000,1,-1.000000,1,COMPLETED_SUCCESSFULLY,1040.037500,0.000010,1040.037510,1040.037500,1040.037510,104003751.000201,4,-1.000000,""
125_updated,w0,python3action_linpack_6000_orion,0.997085,1,2000.000000,1,COMPLETED_SUCCESSFULLY,960.763597,106.000000,1066.763597,959.766512,1065.766512,10.054401,11,-1.000000,""
125,w0,python3action_linpack_6000,0.000000,1,-1.000000,1,COMPLETED_SUCCESSFULLY,1066.763612,0.000010,1066.763622,1066.763612,1066.763622,106676362.230901,11,-1.000000,""
163_updated,w0,python3action_floatoperation_200000000_nova,0.997085,1,2000.000000,1,COMPLETED_SUCCESSFULLY,932.356358,135.399990,1067.756348,931.359273,1066.759263,7.878577,6,-1.000000,""
163,w0,python3action_floatoperation_200000000,0.000000,1,-1.000000,1,COMPLETED_SUCCESSFULLY,1067.756363,0.000010,1067.756373,1067.756363,1067.756373,106775637.323907,6,-1.000000,""
169_updated,w0,python3action_floatoperation_200000000_nova,0.997085,1,2000.000000,1,COMPLETED_SUCCESSFULLY,932.356418,135.399990,1067.756408,931.359333,1066.759323,7.878578,7,-1.000000,""
169,w0,python3action_floatoperation_200000000,0.000000,1,-1.000000,1,COMPLETED_SUCCESSFULLY,1067.756423,0.000010,1067.756433,1067.756423,1067.756433,106775643.324107,7,-1.000000,""
167_updated,w0,python3action_facedetection_SampleVideo_50mb_taurus,0.997085,1,2000.000000,1,COMPLETED_SUCCESSFULLY,954.848762,134.600046,1089.448808,953.851677,1088.451723,8.086563,13,-1.000000,""
167,w0,python3action_facedetection_SampleVideo_50mb,0.000000,1,-1.000000,1,COMPLETED_SUCCESSFULLY,1089.448823,0.000010,1089.448833,1089.448823,1089.448833,108944883.313881,13,-1.000000,""
python3action_image_processing_job19_13,w0,python3action_image_processing_reduced_1.73,0.997085,1,2000.000000,1,COMPLETED_SUCCESSFULLY,1089.448853,0.000000,1089.448853,1088.451768,1088.451768,9441935900169.718750,13,-1.000000,""
161_updated,w0,python3action_pyaes_3000_troll,0.997085,1,2000.000000,1,COMPLETED_SUCCESSFULLY,1040.037530,57.166677,1097.204207,1039.040445,1096.207122,19.175631,4,-1.000000,""
161,w0,python3action_pyaes_3000,0.000000,1,-1.000000,1,COMPLETED_SUCCESSFULLY,1097.204222,0.000010,1097.204232,1097.204222,1097.204232,109720423.200201,4,-1.000000,""
87_updated,w0,python3action_chameleon_3000_yeti,0.997085,1,2000.000000,1,COMPLETED_SUCCESSFULLY,1007.029301,93.000000,1100.029301,1006.032216,1099.032216,11.817551,5,-1.000000,""
87,w0,python3action_chameleon_3000,0.000000,1,-1.000000,1,COMPLETED_SUCCESSFULLY,1100.029316,0.000010,1100.029326,1100.029316,1100.029326,110002932.602811,5,-1.000000,""
126_updated,w0,python3action_facedetection_SampleVideo_50mb_taurus,0.997085,1,2000.000000,1,COMPLETED_SUCCESSFULLY,977.848566,134.600046,1112.448613,976.851481,1111.451528,8.257438,2,-1.000000,""
126,w0,python3action_facedetection_SampleVideo_50mb,0.000000,1,-1.000000,1,COMPLETED_SUCCESSFULLY,1112.448628,0.000010,1112.448638,1112.448628,1112.448638,111244863.800201,2,-1.000000,""
152_updated,w0,python3action_facedetection_SampleVideo_50mb_taurus,0.997085,1,2000.000000,1,COMPLETED_SUCCESSFULLY,977.848716,134.600046,1112.448763,976.851631,1111.451678,8.257439,12,-1.000000,""
152,w0,python3action_facedetection_SampleVideo_50mb,0.000000,1,-1.000000,1,COMPLETED_SUCCESSFULLY,1112.448778,0.000010,1112.448788,1112.448778,1112.448788,111244878.800201,12,-1.000000,""
158_updated,w0,python3action_videoprocessing_SampleVideo_30mb_nova,0.997085,1,2000.000000,1,COMPLETED_SUCCESSFULLY,1014.156563,106.799980,1120.956544,1013.159478,1119.959459,10.486514,9,-1.000000,""
158,w0,python3action_videoprocessing_SampleVideo_30mb,0.000000,1,-1.000000,1,COMPLETED_SUCCESSFULLY,1120.956559,0.000010,1120.956569,1120.956559,1120.956569,112095656.900201,9,-1.000000,""
180_updated,w0,python3action_videoprocessing_SampleVideo_30mb_nova,0.997085,1,2000.000000,1,COMPLETED_SUCCESSFULLY,1014.156624,106.799980,1120.956604,1013.159539,1119.959519,10.486514,10,-1.000000,""
180,w0,python3action_videoprocessing_SampleVideo_30mb,0.000000,1,-1.000000,1,COMPLETED_SUCCESSFULLY,1120.956619,0.000010,1120.956629,1120.956619,1120.956629,112095662.947010,10,-1.000000,""
19_updated,w0,python3action_imageprocessing_SampleImage_40mb_taurus,0.997085,1,2000.000000,1,COMPLETED_SUCCESSFULLY,1089.448883,32.600046,1122.048929,1088.451798,1121.051844,34.388045,13,-1.000000,""
19,w0,python3action_imageprocessing_SampleImage_40mb,0.000000,1,-1.000000,1,COMPLETED_SUCCESSFULLY,1122.048944,0.000010,1122.048954,1122.048944,1122.048954,112204895.427963,13,-1.000000,""
147_updated,w0,python3action_videoprocessing_SampleVideo_30mb_nova,0.997085,1,2000.000000,1,COMPLETED_SUCCESSFULLY,1034.956484,106.799980,1141.756464,1033.959399,1140.759379,10.681270,8,-1.000000,""
147,w0,python3action_videoprocessing_SampleVideo_30mb,0.000000,1,-1.000000,1,COMPLETED_SUCCESSFULLY,1141.756479,0.000010,1141.756489,1141.756479,1141.756489,114175648.947010,8,-1.000000,""
183_updated,w0,python3action_pyaes_3000_troll,0.997085,1,2000.000000,1,COMPLETED_SUCCESSFULLY,1097.204252,57.166677,1154.370929,1096.207167,1153.373844,20.175632,4,-1.000000,""
183,w0,python3action_pyaes_3000,0.000000,1,-1.000000,1,COMPLETED_SUCCESSFULLY,1154.370944,0.000010,1154.370954,1154.370944,1154.370954,115437095.400201,4,-1.000000,""
37_updated,w0,python3action_imageprocessing_SampleImage_40mb_taurus,0.997085,1,2000.000000,1,COMPLETED_SUCCESSFULLY,1122.048974,32.600046,1154.649020,1121.051889,1153.651935,35.388046,13,-1.000000,""
37,w0,python3action_imageprocessing_SampleImage_40mb,0.000000,1,-1.000000,1,COMPLETED_SUCCESSFULLY,1154.649035,0.000010,1154.649045,1154.649035,1154.649045,115464904.541644,13,-1.000000,""
159_updated,w0,python3action_linpack_6000_orion,0.997085,1,2000.000000,1,COMPLETED_SUCCESSFULLY,1066.763642,106.000000,1172.763642,1065.766557,1171.766557,11.054401,11,-1.000000,""
159,w0,python3action_linpack_6000,0.000000,1,-1.000000,1,COMPLETED_SUCCESSFULLY,1172.763657,0.000010,1172.763667,1172.763657,1172.763667,117276366.731503,11,-1.000000,""
79_updated,w0,python3action_videoprocessing_SampleVideo_30mb_nova,0.997085,1,2000.000000,1,COMPLETED_SUCCESSFULLY,1067.756393,106.799980,1174.556374,1066.759308,1173.559289,10.988385,6,-1.000000,""
79,w0,python3action_videoprocessing_SampleVideo_30mb,0.000000,1,-1.000000,1,COMPLETED_SUCCESSFULLY,1174.556389,0.000010,1174.556399,1174.556389,1174.556399,117455639.900201,6,-1.000000,""
131_updated,w0,python3action_videoprocessing_SampleVideo_30mb_nova,0.997085,1,2000.000000,1,COMPLETED_SUCCESSFULLY,1067.756453,106.799980,1174.556434,1066.759368,1173.559349,10.988385,7,-1.000000,""
131,w0,python3action_videoprocessing_SampleVideo_30mb,0.000000,1,-1.000000,1,COMPLETED_SUCCESSFULLY,1174.556449,0.000010,1174.556459,1174.556449,1174.556459,117455645.900201,7,-1.000000,""
61_updated,w0,python3action_floatoperation_100000000_nova,0.997085,1,2000.000000,1,COMPLETED_SUCCESSFULLY,1120.956589,66.200020,1187.156609,1119.959504,1186.159524,17.917812,9,-1.000000,""
61,w0,python3action_floatoperation_100000000,0.000000,1,-1.000000,1,COMPLETED_SUCCESSFULLY,1187.156624,0.000010,1187.156634,1187.156624,1187.156634,118715663.400201,9,-1.000000,""
63_updated,w0,python3action_floatoperation_100000000_nova,0.997085,1,2000.000000,1,COMPLETED_SUCCESSFULLY,1120.956649,66.200020,1187.156669,1119.959564,1186.159584,17.917813,10,-1.000000,""
63,w0,python3action_floatoperation_100000000,0.000000,1,-1.000000,1,COMPLETED_SUCCESSFULLY,1187.156684,0.000010,1187.156694,1187.156684,1187.156694,118715669.401004,10,-1.000000,""
58_updated,w0,python3action_imageprocessing_SampleImage_40mb_taurus,0.997085,1,2000.000000,1,COMPLETED_SUCCESSFULLY,1154.649065,32.600046,1187.249112,1153.651980,1186.252027,36.388047,13,-1.000000,""
58,w0,python3action_imageprocessing_SampleImage_40mb,0.000000,1,-1.000000,1,COMPLETED_SUCCESSFULLY,1187.249127,0.000010,1187.249137,1187.249127,1187.249137,118724913.700201,13,-1.000000,""
105_updated,w0,python3action_chameleon_3000_yeti,0.997085,1,2000.000000,1,COMPLETED_SUCCESSFULLY,1100.029346,93.000000,1193.029346,1099.032261,1192.032261,12.817551,5,-1.000000,""
105,w0,python3action_chameleon_3000,0.000000,1,-1.000000,1,COMPLETED_SUCCESSFULLY,1193.029361,0.000010,1193.029371,1193.029361,1193.029371,119302937.103413,5,-1.000000,""
186_updated,w0,python3action_pyaes_3000_troll,0.997085,1,2000.000000,1,COMPLETED_SUCCESSFULLY,1154.370974,57.166677,1211.537651,1153.373889,1210.540566,21.175633,4,-1.000000,""
186,w0,python3action_pyaes_3000,0.000000,1,-1.000000,1,COMPLETED_SUCCESSFULLY,1211.537666,0.000010,1211.537676,1211.537666,1211.537676,121153767.600201,4,-1.000000,""
95_updated,w0,python3action_imageprocessing_SampleImage_40mb_taurus,0.997085,1,2000.000000,1,COMPLETED_SUCCESSFULLY,1187.249157,32.600046,1219.849203,1186.252072,1218.852118,37.388049,13,-1.000000,""
95,w0,python3action_imageprocessing_SampleImage_40mb,0.000000,1,-1.000000,1,COMPLETED_SUCCESSFULLY,1219.849218,0.000010,1219.849228,1219.849218,1219.849228,121984922.813881,13,-1.000000,""
170_updated,w0,python3action_facedetection_SampleVideo_50mb_taurus,0.997085,1,2000.000000,1,COMPLETED_SUCCESSFULLY,1112.448658,134.600046,1247.048704,1111.451573,1246.051619,9.257438,2,-1.000000,""
170,w0,python3action_facedetection_SampleVideo_50mb,0.000000,1,-1.000000,1,COMPLETED_SUCCESSFULLY,1247.048719,0.000010,1247.048729,1247.048719,1247.048729,124704872.913881,2,-1.000000,""
python3action_image_processing_job24_3,w0,python3action_image_processing_reduced_1.73,0.997085,1,2000.000000,1,COMPLETED_SUCCESSFULLY,1247.048749,0.000000,1247.048749,1246.051664,1246.051664,10809059515067.460938,2,-1.000000,""
198_updated,w0,python3action_facedetection_SampleVideo_50mb_taurus,0.997085,1,2000.000000,1,COMPLETED_SUCCESSFULLY,1112.448808,134.600046,1247.048854,1111.451723,1246.051769,9.257439,12,-1.000000,""
198,w0,python3action_facedetection_SampleVideo_50mb,0.000000,1,-1.000000,1,COMPLETED_SUCCESSFULLY,1247.048869,0.000010,1247.048879,1247.048869,1247.048879,124704887.913881,12,-1.000000,""
python3action_image_processing_job35_12,w0,python3action_image_processing_reduced_1.73,0.997085,1,2000.000000,1,COMPLETED_SUCCESSFULLY,1247.048899,0.000000,1247.048899,1246.051814,1246.051814,10809060816264.652344,12,-1.000000,""
199_updated,w0,python3action_videoprocessing_SampleVideo_30mb_nova,0.997085,1,2000.000000,1,COMPLETED_SUCCESSFULLY,1141.756509,106.799980,1248.556490,1140.759424,1247.559405,11.681270,8,-1.000000,""
199,w0,python3action_videoprocessing_SampleVideo_30mb,0.000000,1,-1.000000,1,COMPLETED_SUCCESSFULLY,1248.556505,0.000010,1248.556515,1248.556505,1248.556515,124855651.500201,8,-1.000000,""
176_updated,w0,python3action_imageprocessing_SampleImage_40mb_taurus,0.997085,1,2000.000000,1,COMPLETED_SUCCESSFULLY,1219.849248,32.600046,1252.449294,1218.852163,1251.452209,38.388050,13,-1.000000,""
176,w0,python3action_imageprocessing_SampleImage_40mb,0.000000,1,-1.000000,1,COMPLETED_SUCCESSFULLY,1252.449309,0.000010,1252.449319,1252.449309,1252.449319,125244931.927562,13,-1.000000,""
139_updated,w0,python3action_floatoperation_100000000_nova,0.997085,1,2000.000000,1,COMPLETED_SUCCESSFULLY,1187.156654,66.200020,1253.356674,1186.159569,1252.359589,18.917813,9,-1.000000,""
139,w0,python3action_floatoperation_100000000,0.000000,1,-1.000000,1,COMPLETED_SUCCESSFULLY,1253.356689,0.000010,1253.356699,1253.356689,1253.356699,125335669.900201,9,-1.000000,""
142_updated,w0,python3action_floatoperation_100000000_nova,0.997085,1,2000.000000,1,COMPLETED_SUCCESSFULLY,1187.156714,66.200020,1253.356734,1186.159629,1252.359649,18.917814,10,-1.000000,""
142,w0,python3action_floatoperation_100000000,0.000000,1,-1.000000,1,COMPLETED_SUCCESSFULLY,1253.356749,0.000010,1253.356759,1253.356749,1253.356759,125335675.900201,10,-1.000000,""
195_updated,w0,python3action_pyaes_3000_troll,0.997085,1,2000.000000,1,COMPLETED_SUCCESSFULLY,1211.537696,57.166677,1268.704373,1210.540611,1267.707288,22.175634,4,-1.000000,""
195,w0,python3action_pyaes_3000,0.000000,1,-1.000000,1,COMPLETED_SUCCESSFULLY,1268.704388,0.000010,1268.704398,1268.704388,1268.704398,126870439.800201,4,-1.000000,""
189_updated,w0,python3action_linpack_6000_orion,0.997085,1,2000.000000,1,COMPLETED_SUCCESSFULLY,1172.763687,106.000000,1278.763687,1171.766602,1277.766602,12.054402,11,-1.000000,""
189,w0,python3action_linpack_6000,0.000000,1,-1.000000,1,COMPLETED_SUCCESSFULLY,1278.763702,0.000010,1278.763712,1278.763702,1278.763712,127876371.232106,11,-1.000000,""
24_updated,w0,python3action_imageprocessing_SampleImage_40mb_taurus,0.997085,1,2000.000000,1,COMPLETED_SUCCESSFULLY,1247.048779,32.600046,1279.648825,1246.051694,1278.651740,39.222391,2,-1.000000,""
24,w0,python3action_imageprocessing_SampleImage_40mb,0.000000,1,-1.000000,1,COMPLETED_SUCCESSFULLY,1279.648840,0.000010,1279.648850,1279.648840,1279.648850,127964885.027963,2,-1.000000,""
35_updated,w0,python3action_imageprocessing_SampleImage_40mb_taurus,0.997085,1,2000.000000,1,COMPLETED_SUCCESSFULLY,1247.048929,32.600046,1279.648975,1246.051844,1278.651890,39.222395,12,-1.000000,""
35,w0,python3action_imageprocessing_SampleImage_40mb,0.000000,1,-1.000000,1,COMPLETED_SUCCESSFULLY,1279.648990,0.000010,1279.649000,1279.648990,1279.649000,127964900.027963,12,-1.000000,""
188_updated,w0,python3action_videoprocessing_SampleVideo_30mb_nova,0.997085,1,2000.000000,1,COMPLETED_SUCCESSFULLY,1174.556419,106.799980,1281.356399,1173.559334,1280.359314,11.988385,6,-1.000000,""
188,w0,python3action_videoprocessing_SampleVideo_30mb,0.000000,1,-1.000000,1,COMPLETED_SUCCESSFULLY,1281.356414,0.000010,1281.356424,1281.356414,1281.356424,128135642.447010,6,-1.000000,""
192_updated,w0,python3action_videoprocessing_SampleVideo_30mb_nova,0.997085,1,2000.000000,1,COMPLETED_SUCCESSFULLY,1174.556479,106.799980,1281.356459,1173.559394,1280.359374,11.988386,7,-1.000000,""
192,w0,python3action_videoprocessing_SampleVideo_30mb,0.000000,1,-1.000000,1,COMPLETED_SUCCESSFULLY,1281.356474,0.000010,1281.356484,1281.356474,1281.356484,128135648.447211,7,-1.000000,""
113_updated,w0,python3action_chameleon_3000_yeti,0.997085,1,2000.000000,1,COMPLETED_SUCCESSFULLY,1193.029391,93.000000,1286.029391,1192.032306,1285.032306,13.817552,5,-1.000000,""
113,w0,python3action_chameleon_3000,0.000000,1,-1.000000,1,COMPLETED_SUCCESSFULLY,1286.029406,0.000010,1286.029416,1286.029406,1286.029416,128602941.604015,5,-1.000000,""
46_updated,w0,python3action_imageprocessing_SampleImage_40mb_taurus,0.997085,1,2000.000000,1,COMPLETED_SUCCESSFULLY,1279.648870,32.600046,1312.248916,1278.651785,1311.251831,40.222392,2,-1.000000,""
46,w0,python3action_imageprocessing_SampleImage_40mb,0.000000,1,-1.000000,1,COMPLETED_SUCCESSFULLY,1312.248931,0.000010,1312.248941,1312.248931,1312.248941,131224894.141644,2,-1.000000,""
52_updated,w0,python3action_imageprocessing_SampleImage_40mb_taurus,0.997085,1,2000.000000,1,COMPLETED_SUCCESSFULLY,1279.649020,32.600046,1312.249066,1278.651935,1311.251981,40.222397,12,-1.000000,""
52,w0,python3action_imageprocessing_SampleImage_40mb,0.000000,1,-1.000000,1,COMPLETED_SUCCESSFULLY,1312.249081,0.000010,1312.249091,1312.249081,1312.249091,131224909.141644,12,-1.000000,""
129_updated,w0,python3action_floatoperation_100000000_nova,0.997085,1,2000.000000,1,COMPLETED_SUCCESSFULLY,1248.556535,66.200020,1314.756555,1247.559450,1313.759470,19.845303,8,-1.000000,""
129,w0,python3action_floatoperation_100000000,0.000000,1,-1.000000,1,COMPLETED_SUCCESSFULLY,1314.756570,0.000010,1314.756580,1314.756570,1314.756580,131475658.000201,8,-1.000000,""
187_updated,w0,python3action_floatoperation_100000000_nova,0.997085,1,2000.000000,1,COMPLETED_SUCCESSFULLY,1253.356719,66.200020,1319.556739,1252.359634,1318.559654,19.917814,9,-1.000000,""
187,w0,python3action_floatoperation_100000000,0.000000,1,-1.000000,1,COMPLETED_SUCCESSFULLY,1319.556754,0.000010,1319.556764,1319.556754,1319.556764,131955676.400201,9,-1.000000,""
191_updated,w0,python3action_floatoperation_100000000_nova,0.997085,1,2000.000000,1,COMPLETED_SUCCESSFULLY,1253.356779,66.200020,1319.556799,1252.359694,1318.559714,19.917815,10,-1.000000,""
191,w0,python3action_floatoperation_100000000,0.000000,1,-1.000000,1,COMPLETED_SUCCESSFULLY,1319.556814,0.000010,1319.556824,1319.556814,1319.556824,131955682.400201,10,-1.000000,""
83_updated,w0,python3action_imageprocessing_SampleImage_40mb_taurus,0.997085,1,2000.000000,1,COMPLETED_SUCCESSFULLY,1312.248961,32.600046,1344.849008,1311.251876,1343.851923,41.222393,2,-1.000000,""
83,w0,python3action_imageprocessing_SampleImage_40mb,0.000000,1,-1.000000,1,COMPLETED_SUCCESSFULLY,1344.849023,0.000010,1344.849033,1344.849023,1344.849033,134484903.300201,2,-1.000000,""
86_updated,w0,python3action_imageprocessing_SampleImage_40mb_taurus,0.997085,1,2000.000000,1,COMPLETED_SUCCESSFULLY,1312.249111,32.600046,1344.849158,1311.252026,1343.852073,41.222398,12,-1.000000,""
86,w0,python3action_imageprocessing_SampleImage_40mb,0.000000,1,-1.000000,1,COMPLETED_SUCCESSFULLY,1344.849173,0.000010,1344.849183,1344.849173,1344.849183,134484918.300201,12,-1.000000,""
94_updated,w0,python3action_floatoperation_100000000_nova,0.997085,1,2000.000000,1,COMPLETED_SUCCESSFULLY,1281.356444,66.200020,1347.556464,1280.359359,1346.559379,20.340770,6,-1.000000,""
94,w0,python3action_floatoperation_100000000,0.000000,1,-1.000000,1,COMPLETED_SUCCESSFULLY,1347.556479,0.000010,1347.556489,1347.556479,1347.556489,134755648.901405,6,-1.000000,""
114_updated,w0,python3action_floatoperation_100000000_nova,0.997085,1,2000.000000,1,COMPLETED_SUCCESSFULLY,1281.356504,66.200020,1347.556524,1280.359419,1346.559439,20.340771,7,-1.000000,""
114,w0,python3action_floatoperation_100000000,0.000000,1,-1.000000,1,COMPLETED_SUCCESSFULLY,1347.556539,0.000010,1347.556549,1347.556539,1347.556549,134755654.901807,7,-1.000000,""
144_updated,w0,python3action_imageprocessing_SampleImage_40mb_taurus,0.997085,1,2000.000000,1,COMPLETED_SUCCESSFULLY,1344.849053,32.600046,1377.449099,1343.851968,1376.452014,42.222395,2,-1.000000,""
144,w0,python3action_imageprocessing_SampleImage_40mb,0.000000,1,-1.000000,1,COMPLETED_SUCCESSFULLY,1377.449114,0.000010,1377.449124,1377.449114,1377.449124,137744912.413881,2,-1.000000,""
160_updated,w0,python3action_imageprocessing_SampleImage_40mb_taurus,0.997085,1,2000.000000,1,COMPLETED_SUCCESSFULLY,1344.849203,32.600046,1377.449249,1343.852118,1376.452164,42.222399,12,-1.000000,""
160,w0,python3action_imageprocessing_SampleImage_40mb,0.000000,1,-1.000000,1,COMPLETED_SUCCESSFULLY,1377.449264,0.000010,1377.449274,1377.449264,1377.449274,137744927.413881,12,-1.000000,""
175_updated,w0,python3action_chameleon_3000_yeti,0.997085,1,2000.000000,1,COMPLETED_SUCCESSFULLY,1286.029436,93.000000,1379.029436,1285.032351,1378.032351,14.817552,5,-1.000000,""
175,w0,python3action_chameleon_3000,0.000000,1,-1.000000,1,COMPLETED_SUCCESSFULLY,1379.029451,0.000010,1379.029461,1379.029451,1379.029461,137902946.104618,5,-1.000000,""
177_updated,w0,python3action_floatoperation_100000000_nova,0.997085,1,2000.000000,1,COMPLETED_SUCCESSFULLY,1314.756600,66.200020,1380.956620,1313.759515,1379.959535,20.845304,8,-1.000000,""
177,w0,python3action_floatoperation_100000000,0.000000,1,-1.000000,1,COMPLETED_SUCCESSFULLY,1380.956635,0.000010,1380.956645,1380.956635,1380.956645,138095664.500201,8,-1.000000,""
197_updated,w0,python3action_imageprocessing_SampleImage_40mb_taurus,0.997085,1,2000.000000,1,COMPLETED_SUCCESSFULLY,1377.449144,32.600046,1410.049190,1376.452059,1409.052105,43.222396,2,-1.000000,""
197,w0,python3action_imageprocessing_SampleImage_40mb,0.000000,1,-1.000000,1,COMPLETED_SUCCESSFULLY,1410.049205,0.000010,1410.049215,1410.049205,1410.049215,141004921.527562,2,-1.000000,""
143_updated,w0,python3action_floatoperation_100000000_nova,0.997085,1,2000.000000,1,COMPLETED_SUCCESSFULLY,1347.556509,66.200020,1413.756529,1346.559424,1412.759444,21.340771,6,-1.000000,""
143,w0,python3action_floatoperation_100000000,0.000000,1,-1.000000,1,COMPLETED_SUCCESSFULLY,1413.756544,0.000010,1413.756554,1413.756544,1413.756554,141375655.400201,6,-1.000000,""
148_updated,w0,python3action_floatoperation_100000000_nova,0.997085,1,2000.000000,1,COMPLETED_SUCCESSFULLY,1347.556569,66.200020,1413.756589,1346.559484,1412.759504,21.340772,7,-1.000000,""
148,w0,python3action_floatoperation_100000000,0.000000,1,-1.000000,1,COMPLETED_SUCCESSFULLY,1413.756604,0.000010,1413.756614,1413.756604,1413.756614,141375661.400201,7,-1.000000,""
